Linux 4.17.2 (bench2) 	08/03/2018 	_x86_64_	(32 CPU)

avg-cpu:  %user   %nice %system %iowait  %steal   %idle
           1.90    0.00    1.55    1.57    0.00   94.97

Device:         rrqm/s   wrqm/s     r/s     w/s    rkB/s    wkB/s avgrq-sz avgqu-sz   await r_await w_await  svctm  %util
nvme0n1         939.03     5.10 18930.52  521.22 105889.42 11754.97    12.10     1.35    0.05    0.03    0.67   0.02  39.63
sda               0.12     0.82   14.16    0.58   163.98     8.52    23.41     0.00    0.33    0.32    0.44   0.07   0.10
sdc              33.85     0.17  117.56    0.31  1770.80    97.58    31.70     0.05    0.38   12.44  380.35   0.91  10.78
sdb              31.80     0.19  119.56    0.33  1768.87    97.40    31.13     0.48    4.00    2.86  411.64   0.85  10.25
sdd              34.04     0.17  117.10    0.26  1766.78    97.07    31.76     0.79    6.77    4.76  907.87   0.92  10.78
md0               0.00     0.00  456.77    1.21  6572.14   352.16    30.24     0.00    0.00    0.00    0.00   0.00   0.00

avg-cpu:  %user   %nice %system %iowait  %steal   %idle
           0.03    0.00    0.28    2.78    0.00   96.90

Device:         rrqm/s   wrqm/s     r/s     w/s    rkB/s    wkB/s avgrq-sz avgqu-sz   await r_await w_await  svctm  %util
nvme0n1           0.00     0.00    0.00    0.00     0.00     0.00     0.00     0.00    0.00    0.00    0.00   0.00   0.00
sda               0.00     0.00    4.00    0.00   104.00     0.00    52.00     0.00    0.25    0.25    0.00   0.25   0.10
sdc               2.00     0.00 1215.00    0.00 20444.00     0.00    33.65     1.99    1.64    1.64    0.00   0.28  33.50
sdb               4.00     0.00 1238.00    0.00 19608.00     0.00    31.68     1.37    1.11    1.11    0.00   0.25  30.80
sdd               2.00     0.00 1204.00    0.00 19344.00     0.00    32.13     2.33    1.93    1.93    0.00   0.44  52.90
md0               0.00     0.00 3667.00    0.00 62308.00     0.00    33.98     0.00    0.00    0.00    0.00   0.00   0.00

avg-cpu:  %user   %nice %system %iowait  %steal   %idle
           0.00    0.00    0.31    2.69    0.00   97.00

Device:         rrqm/s   wrqm/s     r/s     w/s    rkB/s    wkB/s avgrq-sz avgqu-sz   await r_await w_await  svctm  %util
nvme0n1           0.00     0.00    0.00    0.00     0.00     0.00     0.00     0.00    0.00    0.00    0.00   0.00   0.00
sda               0.00     0.00    0.00    0.00     0.00     0.00     0.00     0.00    0.00    0.00    0.00   0.00   0.00
sdc              12.00     0.00 1392.00    0.00 23964.00     0.00    34.43     4.55    3.07    3.07    0.00   0.37  52.00
sdb               7.00     0.00 1403.00    0.00 24620.00     0.00    35.10     4.14    2.78    2.78    0.00   0.32  45.50
sdd               8.00     0.00 1493.00    0.00 25436.00     0.00    34.07     3.09    2.07    2.07    0.00   0.25  37.20
md0               0.00     0.00 4341.00    0.00 78472.00     0.00    36.15     0.00    0.00    0.00    0.00   0.00   0.00

avg-cpu:  %user   %nice %system %iowait  %steal   %idle
           0.00    0.00    0.44    2.75    0.00   96.81

Device:         rrqm/s   wrqm/s     r/s     w/s    rkB/s    wkB/s avgrq-sz avgqu-sz   await r_await w_await  svctm  %util
nvme0n1           0.00     0.00    0.00    0.00     0.00     0.00     0.00     0.00    0.00    0.00    0.00   0.00   0.00
sda               0.00     0.00    0.00    0.00     0.00     0.00     0.00     0.00    0.00    0.00    0.00   0.00   0.00
sdc               3.00     0.00 1445.00    0.00 21040.00     0.00    29.12     1.65    1.34    1.34    0.00   0.22  32.10
sdb               5.00     0.00 1405.00    0.00 18572.00     0.00    26.44     1.36    1.14    1.14    0.00   0.23  32.70
sdd               1.00     0.00 1425.00    0.00 18504.00     0.00    25.97     1.75    1.23    1.23    0.00   0.33  47.00
md0               0.00     0.00 4257.00    0.00 59732.00     0.00    28.06     0.00    0.00    0.00    0.00   0.00   0.00

avg-cpu:  %user   %nice %system %iowait  %steal   %idle
           0.03    0.00    0.41    2.72    0.00   96.84

Device:         rrqm/s   wrqm/s     r/s     w/s    rkB/s    wkB/s avgrq-sz avgqu-sz   await r_await w_await  svctm  %util
nvme0n1           0.00     0.00    0.00    0.00     0.00     0.00     0.00     0.00    0.00    0.00    0.00   0.00   0.00
sda               0.00     0.00    0.00    0.00     0.00     0.00     0.00     0.00    0.00    0.00    0.00   0.00   0.00
sdc              16.00     0.00 1532.00    0.00 20624.00     0.00    26.92     0.54    0.32    0.32    0.00   0.28  42.50
sdb              17.00     0.00 1550.00    0.00 20408.00     0.00    26.33     0.32    0.21    0.21    0.00   0.18  27.40
sdd              17.00     0.00 1470.00    0.00 22092.00     0.00    30.06     0.40    0.27    0.27    0.00   0.24  35.30
md0               0.00     0.00 4602.00    0.00 80352.00     0.00    34.92     0.00    0.00    0.00    0.00   0.00   0.00

avg-cpu:  %user   %nice %system %iowait  %steal   %idle
           0.00    0.00    0.41    2.69    0.00   96.90

Device:         rrqm/s   wrqm/s     r/s     w/s    rkB/s    wkB/s avgrq-sz avgqu-sz   await r_await w_await  svctm  %util
nvme0n1           0.00     0.00    0.00    0.00     0.00     0.00     0.00     0.00    0.00    0.00    0.00   0.00   0.00
sda               0.00     2.00    1.00    2.00     4.00    16.00    13.33     0.00    0.00    0.00    0.00   0.00   0.00
sdc              16.00     0.00 1627.00    0.00 19884.00     0.00    24.44     0.37    0.25    0.25    0.00   0.21  34.50
sdb              16.00     0.00 1553.00    0.00 19576.00     0.00    25.21     0.27    0.17    0.17    0.00   0.16  24.90
sdd              14.00     0.00 1544.00    0.00 22476.00     0.00    29.11     0.50    0.31    0.31    0.00   0.28  43.10
md0               0.00     0.00 4773.00    0.00 78404.00     0.00    32.85     0.00    0.00    0.00    0.00   0.00   0.00

avg-cpu:  %user   %nice %system %iowait  %steal   %idle
           0.00    0.00    0.38    2.81    0.00   96.81

Device:         rrqm/s   wrqm/s     r/s     w/s    rkB/s    wkB/s avgrq-sz avgqu-sz   await r_await w_await  svctm  %util
nvme0n1           0.00     0.00    0.00    0.00     0.00     0.00     0.00     0.00    0.00    0.00    0.00   0.00   0.00
sda               0.00    13.00    0.00    2.00     0.00    60.00    60.00     0.00    0.00    0.00    0.00   0.00   0.00
sdc              17.00     0.00 1234.00    0.00 19412.00     0.00    31.46     0.58    0.48    0.48    0.00   0.45  55.70
sdb              12.00     0.00 1292.00    0.00 16516.00     0.00    25.57     0.23    0.18    0.18    0.00   0.16  21.10
sdd              17.00     0.00 1237.00    0.00 20204.00     0.00    32.67     0.28    0.23    0.23    0.00   0.21  25.60
md0               0.00     0.00 3806.00    0.00 65272.00     0.00    34.30     0.00    0.00    0.00    0.00   0.00   0.00

avg-cpu:  %user   %nice %system %iowait  %steal   %idle
           0.00    0.00    0.38    2.69    0.00   96.93

Device:         rrqm/s   wrqm/s     r/s     w/s    rkB/s    wkB/s avgrq-sz avgqu-sz   await r_await w_await  svctm  %util
nvme0n1           0.00     0.00    0.00    0.00     0.00     0.00     0.00     0.00    0.00    0.00    0.00   0.00   0.00
sda               0.00     0.00    0.00    0.00     0.00     0.00     0.00     0.00    0.00    0.00    0.00   0.00   0.00
sdc              19.00     0.00 1646.00    0.00 23088.00     0.00    28.05     0.40    0.24    0.24    0.00   0.22  36.60
sdb              17.00     0.00 1613.00    0.00 21800.00     0.00    27.03     0.30    0.19    0.19    0.00   0.17  27.60
sdd              21.00     0.00 1628.00    0.00 23508.00     0.00    28.88     0.46    0.28    0.28    0.00   0.25  41.30
md0               0.00     0.00 4944.00    0.00 82580.00     0.00    33.41     0.00    0.00    0.00    0.00   0.00   0.00

avg-cpu:  %user   %nice %system %iowait  %steal   %idle
           0.03    0.00    0.38    2.78    0.00   96.81

Device:         rrqm/s   wrqm/s     r/s     w/s    rkB/s    wkB/s avgrq-sz avgqu-sz   await r_await w_await  svctm  %util
nvme0n1           0.00     0.00    0.00    0.00     0.00     0.00     0.00     0.00    0.00    0.00    0.00   0.00   0.00
sda               0.00     0.00    0.00    0.00     0.00     0.00     0.00     0.00    0.00    0.00    0.00   0.00   0.00
sdc              30.00     0.00 1293.00    0.00 25628.00     0.00    39.64     0.70    0.54    0.54    0.00   0.40  52.30
sdb              29.00     0.00 1287.00    0.00 27052.00     0.00    42.04     0.43    0.33    0.33    0.00   0.28  36.10
sdd              30.00     0.00 1302.00    0.00 27352.00     0.00    42.02     0.33    0.26    0.26    0.00   0.21  27.50
md0               0.00     0.00 3971.00    0.00 101644.00     0.00    51.19     0.00    0.00    0.00    0.00   0.00   0.00

avg-cpu:  %user   %nice %system %iowait  %steal   %idle
           0.00    0.00    0.41    2.69    0.00   96.90

Device:         rrqm/s   wrqm/s     r/s     w/s    rkB/s    wkB/s avgrq-sz avgqu-sz   await r_await w_await  svctm  %util
nvme0n1           0.00     0.00    0.00    0.00     0.00     0.00     0.00     0.00    0.00    0.00    0.00   0.00   0.00
sda               0.00     0.00    0.00    0.00     0.00     0.00     0.00     0.00    0.00    0.00    0.00   0.00   0.00
sdc              13.00     0.00 1449.00    0.00 19060.00     0.00    26.31     0.44    0.30    0.30    0.00   0.30  43.60
sdb              10.00     0.00 1487.00    0.00 18980.00     0.00    25.53     0.26    0.17    0.17    0.00   0.17  24.70
sdd              11.00     0.00 1471.00    0.00 19136.00     0.00    26.02     0.34    0.23    0.23    0.00   0.22  32.30
md0               0.00     0.00 4441.00    0.00 69692.00     0.00    31.39     0.00    0.00    0.00    0.00   0.00   0.00

avg-cpu:  %user   %nice %system %iowait  %steal   %idle
           0.00    0.00    0.38    2.75    0.00   96.87

Device:         rrqm/s   wrqm/s     r/s     w/s    rkB/s    wkB/s avgrq-sz avgqu-sz   await r_await w_await  svctm  %util
nvme0n1           0.00     0.00    0.00    0.00     0.00     0.00     0.00     0.00    0.00    0.00    0.00   0.00   0.00
sda               0.00     0.00    0.00    0.00     0.00     0.00     0.00     0.00    0.00    0.00    0.00   0.00   0.00
sdc              31.00     0.00 1450.00    0.00 29600.00     0.00    40.83     0.46    0.32    0.32    0.00   0.28  40.00
sdb              29.00     0.00 1512.00    0.00 26992.00     0.00    35.70     0.34    0.22    0.22    0.00   0.19  28.90
sdd              35.00     0.00 1436.00    0.00 27076.00     0.00    37.71     0.52    0.36    0.36    0.00   0.30  43.10
md0               0.00     0.00 4493.00    0.00 107232.00     0.00    47.73     0.00    0.00    0.00    0.00   0.00   0.00

avg-cpu:  %user   %nice %system %iowait  %steal   %idle
           0.00    0.00    0.38    2.69    0.00   96.93

Device:         rrqm/s   wrqm/s     r/s     w/s    rkB/s    wkB/s avgrq-sz avgqu-sz   await r_await w_await  svctm  %util
nvme0n1           0.00     0.00    0.00    0.00     0.00     0.00     0.00     0.00    0.00    0.00    0.00   0.00   0.00
sda               0.00     5.00    0.00   19.00     0.00   112.00    11.79     0.00    0.00    0.00    0.00   0.00   0.00
sdc              16.00     0.00 1576.00    0.00 20784.00     0.00    26.38     0.30    0.19    0.19    0.00   0.17  26.90
sdb              16.00     0.00 1614.00    0.00 20024.00     0.00    24.81     0.29    0.18    0.18    0.00   0.16  25.60
sdd              17.00     0.00 1616.00    0.00 21504.00     0.00    26.61     0.56    0.34    0.34    0.00   0.32  51.60
md0               0.00     0.00 4855.00    0.00 75824.00     0.00    31.24     0.00    0.00    0.00    0.00   0.00   0.00

avg-cpu:  %user   %nice %system %iowait  %steal   %idle
           0.00    0.00    0.44    2.72    0.00   96.84

Device:         rrqm/s   wrqm/s     r/s     w/s    rkB/s    wkB/s avgrq-sz avgqu-sz   await r_await w_await  svctm  %util
nvme0n1           0.00     0.00    0.00    0.00     0.00     0.00     0.00     0.00    0.00    0.00    0.00   0.00   0.00
sda               0.00     0.00    0.00    0.00     0.00     0.00     0.00     0.00    0.00    0.00    0.00   0.00   0.00
sdc              11.00     0.00 1696.00    0.00 18204.00     0.00    21.47     0.34    0.20    0.20    0.00   0.18  30.90
sdb              11.00     0.00 1654.00    0.00 19668.00     0.00    23.78     0.29    0.17    0.17    0.00   0.16  27.00
sdd               7.00     0.00 1635.00    0.00 18612.00     0.00    22.77     0.45    0.27    0.27    0.00   0.26  42.40
md0               0.00     0.00 5014.00    0.00 68420.00     0.00    27.29     0.00    0.00    0.00    0.00   0.00   0.00

avg-cpu:  %user   %nice %system %iowait  %steal   %idle
           0.03    0.00    0.38    2.69    0.00   96.90

Device:         rrqm/s   wrqm/s     r/s     w/s    rkB/s    wkB/s avgrq-sz avgqu-sz   await r_await w_await  svctm  %util
nvme0n1           0.00     0.00    0.00    0.00     0.00     0.00     0.00     0.00    0.00    0.00    0.00   0.00   0.00
sda               0.00     0.00    0.00    0.00     0.00     0.00     0.00     0.00    0.00    0.00    0.00   0.00   0.00
sdc              17.00     0.00 1626.00    0.00 23532.00     0.00    28.94     0.34    0.21    0.21    0.00   0.18  29.70
sdb              18.00     0.00 1593.00    0.00 22712.00     0.00    28.51     0.43    0.27    0.27    0.00   0.23  37.00
sdd              16.00     0.00 1617.00    0.00 21444.00     0.00    26.52     0.41    0.25    0.25    0.00   0.24  38.00
md0               0.00     0.00 4887.00    0.00 83892.00     0.00    34.33     0.00    0.00    0.00    0.00   0.00   0.00

avg-cpu:  %user   %nice %system %iowait  %steal   %idle
           0.00    0.00    0.38    2.72    0.00   96.90

Device:         rrqm/s   wrqm/s     r/s     w/s    rkB/s    wkB/s avgrq-sz avgqu-sz   await r_await w_await  svctm  %util
nvme0n1           0.00     0.00    0.00    0.00     0.00     0.00     0.00     0.00    0.00    0.00    0.00   0.00   0.00
sda               0.00     0.00    0.00    0.00     0.00     0.00     0.00     0.00    0.00    0.00    0.00   0.00   0.00
sdc              27.00     0.00 1511.00    0.00 25448.00     0.00    33.68     0.34    0.23    0.23    0.00   0.19  29.20
sdb              22.00     0.00 1497.00    0.00 26008.00     0.00    34.75     0.45    0.30    0.30    0.00   0.26  39.40
sdd              23.00     0.00 1613.00    0.00 25948.00     0.00    32.17     0.46    0.28    0.28    0.00   0.24  38.90
md0               0.00     0.00 4693.00    0.00 93184.00     0.00    39.71     0.00    0.00    0.00    0.00   0.00   0.00

avg-cpu:  %user   %nice %system %iowait  %steal   %idle
           0.03    0.00    0.41    2.72    0.00   96.84

Device:         rrqm/s   wrqm/s     r/s     w/s    rkB/s    wkB/s avgrq-sz avgqu-sz   await r_await w_await  svctm  %util
nvme0n1           0.00     0.00    0.00    0.00     0.00     0.00     0.00     0.00    0.00    0.00    0.00   0.00   0.00
sda               0.00     0.00    0.00    0.00     0.00     0.00     0.00     0.00    0.00    0.00    0.00   0.00   0.00
sdc              10.00     0.00 1639.00    0.00 19512.00     0.00    23.81     0.36    0.22    0.22    0.00   0.22  35.70
sdb              12.00     0.00 1740.00    0.00 19652.00     0.00    22.59     0.28    0.16    0.16    0.00   0.16  27.80
sdd              15.00     0.00 1608.00    0.00 20376.00     0.00    25.34     0.38    0.24    0.24    0.00   0.23  37.60
md0               0.00     0.00 5024.00    0.00 72756.00     0.00    28.96     0.00    0.00    0.00    0.00   0.00   0.00

avg-cpu:  %user   %nice %system %iowait  %steal   %idle
           0.00    0.00    0.47    2.69    0.00   96.84

Device:         rrqm/s   wrqm/s     r/s     w/s    rkB/s    wkB/s avgrq-sz avgqu-sz   await r_await w_await  svctm  %util
nvme0n1           0.00     0.00    0.00    0.00     0.00     0.00     0.00     0.00    0.00    0.00    0.00   0.00   0.00
sda               0.00     5.00    0.00    3.00     0.00    56.00    37.33     0.00    0.33    0.00    0.33   0.33   0.10
sdc               6.00     0.00 1591.00    0.00 16808.00     0.00    21.13     0.24    0.15    0.15    0.00   0.15  23.50
sdb              12.00     0.00 1578.00    0.00 19660.00     0.00    24.92     0.29    0.18    0.18    0.00   0.16  25.90
sdd              15.00     0.00 1583.00    0.00 18936.00     0.00    23.92     0.53    0.34    0.34    0.00   0.32  50.90
md0               0.00     0.00 4785.00    0.00 64764.00     0.00    27.07     0.00    0.00    0.00    0.00   0.00   0.00

avg-cpu:  %user   %nice %system %iowait  %steal   %idle
           0.00    0.00    0.41    2.72    0.00   96.87

Device:         rrqm/s   wrqm/s     r/s     w/s    rkB/s    wkB/s avgrq-sz avgqu-sz   await r_await w_await  svctm  %util
nvme0n1           0.00     0.00    0.00    0.00     0.00     0.00     0.00     0.00    0.00    0.00    0.00   0.00   0.00
sda               0.00     0.00    0.00    0.00     0.00     0.00     0.00     0.00    0.00    0.00    0.00   0.00   0.00
sdc              19.00     0.00 1613.00    0.00 22884.00     0.00    28.37     0.40    0.25    0.25    0.00   0.22  35.60
sdb              18.00     0.00 1548.00    0.00 23532.00     0.00    30.40     0.34    0.22    0.22    0.00   0.19  30.10
sdd              21.00     0.00 1548.00    0.00 22268.00     0.00    28.77     0.49    0.32    0.32    0.00   0.26  40.00
md0               0.00     0.00 4767.00    0.00 84120.00     0.00    35.29     0.00    0.00    0.00    0.00   0.00   0.00

avg-cpu:  %user   %nice %system %iowait  %steal   %idle
           0.03    0.00    0.47    2.66    0.00   96.84

Device:         rrqm/s   wrqm/s     r/s     w/s    rkB/s    wkB/s avgrq-sz avgqu-sz   await r_await w_await  svctm  %util
nvme0n1           0.00     0.00    0.00    0.00     0.00     0.00     0.00     0.00    0.00    0.00    0.00   0.00   0.00
sda               0.00     0.00    0.00    0.00     0.00     0.00     0.00     0.00    0.00    0.00    0.00   0.00   0.00
sdc              12.00     0.00 1624.00    0.00 20496.00     0.00    25.24     0.31    0.19    0.19    0.00   0.18  29.70
sdb              12.00     0.00 1637.00    0.00 21244.00     0.00    25.95     0.28    0.17    0.17    0.00   0.17  27.10
sdd              14.00     0.00 1715.00    0.00 19608.00     0.00    22.87     0.46    0.27    0.27    0.00   0.26  44.00
md0               0.00     0.00 5014.00    0.00 75752.00     0.00    30.22     0.00    0.00    0.00    0.00   0.00   0.00

avg-cpu:  %user   %nice %system %iowait  %steal   %idle
           0.00    0.00    0.31    2.88    0.00   96.81

Device:         rrqm/s   wrqm/s     r/s     w/s    rkB/s    wkB/s avgrq-sz avgqu-sz   await r_await w_await  svctm  %util
nvme0n1           0.00     0.00    0.00    0.00     0.00     0.00     0.00     0.00    0.00    0.00    0.00   0.00   0.00
sda               0.00     0.00    0.00    0.00     0.00     0.00     0.00     0.00    0.00    0.00    0.00   0.00   0.00
sdc               6.00     0.00 1040.00    0.00 11948.00     0.00    22.98     0.59    0.47    0.47    0.00   0.56  58.40
sdb               7.00     0.00 1048.00    0.00 11172.00     0.00    21.32     0.23    0.22    0.22    0.00   0.22  22.90
sdd               4.00     0.00 1070.00    0.00 10972.00     0.00    20.51     0.17    0.16    0.16    0.00   0.16  17.10
md0               0.00     0.00 3175.00    0.00 40112.00     0.00    25.27     0.00    0.00    0.00    0.00   0.00   0.00

avg-cpu:  %user   %nice %system %iowait  %steal   %idle
           0.00    0.00    0.34    2.75    0.00   96.90

Device:         rrqm/s   wrqm/s     r/s     w/s    rkB/s    wkB/s avgrq-sz avgqu-sz   await r_await w_await  svctm  %util
nvme0n1           0.00     0.00    0.00    0.00     0.00     0.00     0.00     0.00    0.00    0.00    0.00   0.00   0.00
sda               0.00     0.00    0.00    0.00     0.00     0.00     0.00     0.00    0.00    0.00    0.00   0.00   0.00
sdc              14.00     0.00 1367.00    0.00 17472.00     0.00    25.56     0.42    0.38    0.38    0.00   0.31  42.20
sdb              14.00     0.00 1363.00    0.00 18732.00     0.00    27.49     0.23    0.17    0.17    0.00   0.17  22.80
sdd              14.00     0.00 1357.00    0.00 19572.00     0.00    28.85     0.36    0.26    0.26    0.00   0.26  35.20
md0               0.00     0.00 4129.00    0.00 67844.00     0.00    32.86     0.00    0.00    0.00    0.00   0.00   0.00

