Linux 4.17.2 (bench2) 	08/03/2018 	_x86_64_	(32 CPU)

avg-cpu:  %user   %nice %system %iowait  %steal   %idle
           1.90    0.00    1.55    1.59    0.00   94.96

Device:         rrqm/s   wrqm/s     r/s     w/s    rkB/s    wkB/s avgrq-sz avgqu-sz   await r_await w_await  svctm  %util
nvme0n1         935.69     5.08 18863.10  519.36 105512.29 11713.11    12.10     1.34    0.05    0.03    0.67   0.02  39.49
sda               0.12     0.82   14.16    0.58   164.01     8.53    23.40     0.00    0.33    0.32    0.44   0.07   0.10
sdc              34.27     0.17  119.94    0.31  1800.04    97.23    31.56     0.08    0.62   12.40  380.35   0.91  10.93
sdb              32.24     0.19  121.93    0.33  1798.10    97.05    31.00     0.51    4.14    3.04  411.64   0.85  10.38
sdd              34.47     0.17  119.48    0.26  1796.05    96.73    31.61     0.82    6.86    4.90  907.87   0.91  10.93
md0               0.00     0.00  465.16    1.21  6682.47   350.91    30.16     0.00    0.00    0.00    0.00   0.00   0.00

avg-cpu:  %user   %nice %system %iowait  %steal   %idle
           0.03    0.00    0.34    2.10    0.00   97.53

Device:         rrqm/s   wrqm/s     r/s     w/s    rkB/s    wkB/s avgrq-sz avgqu-sz   await r_await w_await  svctm  %util
nvme0n1           0.00     0.00    0.00    0.00     0.00     0.00     0.00     0.00    0.00    0.00    0.00   0.00   0.00
sda               0.00     0.00    1.00    0.00     8.00     0.00    16.00     0.00    0.00    0.00    0.00   0.00   0.00
sdc              17.00     0.00 1506.00    0.00 21100.00     0.00    28.02     0.29    0.19    0.19    0.00   0.17  25.90
sdb              17.00     0.00 1495.00    0.00 22924.00     0.00    30.67     0.40    0.26    0.26    0.00   0.21  31.00
sdd              17.00     0.00 1506.00    0.00 23564.00     0.00    31.29     0.56    0.37    0.37    0.00   0.33  49.70
md0               0.00     0.00 4558.00    0.00 80956.00     0.00    35.52     0.00    0.00    0.00    0.00   0.00   0.00

avg-cpu:  %user   %nice %system %iowait  %steal   %idle
           0.03    0.00    0.38    0.34    0.00   99.25

Device:         rrqm/s   wrqm/s     r/s     w/s    rkB/s    wkB/s avgrq-sz avgqu-sz   await r_await w_await  svctm  %util
nvme0n1           0.00     0.00    0.00    0.00     0.00     0.00     0.00     0.00    0.00    0.00    0.00   0.00   0.00
sda               0.00     0.00    0.00    0.00     0.00     0.00     0.00     0.00    0.00    0.00    0.00   0.00   0.00
sdc              21.00     0.00 1590.00    0.00 23268.00     0.00    29.27     0.36    0.23    0.23    0.00   0.21  33.70
sdb              20.00     0.00 1541.00    0.00 26872.00     0.00    34.88     0.44    0.28    0.28    0.00   0.26  40.70
sdd              20.00     0.00 1630.00    0.00 24452.00     0.00    30.00     0.32    0.20    0.20    0.00   0.19  30.90
md0               0.00     0.00 4822.00    0.00 97352.00     0.00    40.38     0.00    0.00    0.00    0.00   0.00   0.00

avg-cpu:  %user   %nice %system %iowait  %steal   %idle
           0.00    0.00    0.34    0.34    0.00   99.31

Device:         rrqm/s   wrqm/s     r/s     w/s    rkB/s    wkB/s avgrq-sz avgqu-sz   await r_await w_await  svctm  %util
nvme0n1           0.00     0.00    0.00    0.00     0.00     0.00     0.00     0.00    0.00    0.00    0.00   0.00   0.00
sda               0.00    12.00    0.00   19.00     0.00   124.00    13.05     0.00    0.00    0.00    0.00   0.00   0.00
sdc              20.00     0.00 1652.00    0.00 21292.00     0.00    25.78     0.30    0.18    0.18    0.00   0.17  27.90
sdb              16.00     0.00 1568.00    0.00 25256.00     0.00    32.21     0.36    0.23    0.23    0.00   0.21  33.70
sdd              18.00     0.00 1640.00    0.00 22092.00     0.00    26.94     0.45    0.27    0.27    0.00   0.25  41.60
md0               0.00     0.00 4914.00    0.00 87852.00     0.00    35.76     0.00    0.00    0.00    0.00   0.00   0.00

