Linux 4.17.2 (bench2) 	08/03/2018 	_x86_64_	(32 CPU)

avg-cpu:  %user   %nice %system %iowait  %steal   %idle
           1.90    0.00    1.55    1.58    0.00   94.96

Device:         rrqm/s   wrqm/s     r/s     w/s    rkB/s    wkB/s avgrq-sz avgqu-sz   await r_await w_await  svctm  %util
nvme0n1         937.88     5.09 18907.20  520.57 105759.00 11740.49    12.10     1.35    0.05    0.03    0.67   0.02  39.58
sda               0.12     0.82   14.16    0.58   163.97     8.53    23.41     0.00    0.33    0.32    0.44   0.07   0.10
sdc              34.15     0.17  118.25    0.31  1790.63    97.46    31.85     0.07    0.57   12.55  380.35   0.91  10.85
sdb              32.11     0.19  120.25    0.33  1788.69    97.28    31.28     0.50    4.15    3.03  411.64   0.85  10.31
sdd              34.35     0.17  117.79    0.26  1786.63    96.95    31.91     0.82    6.91    4.92  907.87   0.92  10.85
md0               0.00     0.00  459.75    1.21  6651.45   351.73    30.39     0.00    0.00    0.00    0.00   0.00   0.00

avg-cpu:  %user   %nice %system %iowait  %steal   %idle
           0.00    0.00    0.03    0.00    0.00   99.97

Device:         rrqm/s   wrqm/s     r/s     w/s    rkB/s    wkB/s avgrq-sz avgqu-sz   await r_await w_await  svctm  %util
nvme0n1           0.00     0.00    0.00    0.00     0.00     0.00     0.00     0.00    0.00    0.00    0.00   0.00   0.00
sda               0.00     0.00    6.00    0.00    64.00     0.00    21.33     0.00    0.00    0.00    0.00   0.00   0.00
sdc               0.00     0.00   31.00    0.00   124.00     0.00     8.00     0.29    9.42    9.42    0.00   9.42  29.20
sdb               0.00     0.00   34.00    0.00   136.00     0.00     8.00     0.30    8.79    8.79    0.00   8.82  30.00
sdd               0.00     0.00   44.00    0.00   176.00     0.00     8.00     0.40    9.11    9.11    0.00   9.11  40.10
md0               0.00     0.00  110.00    0.00   440.00     0.00     8.00     0.00    0.00    0.00    0.00   0.00   0.00

avg-cpu:  %user   %nice %system %iowait  %steal   %idle
           0.00    0.00    0.03    0.00    0.00   99.97

Device:         rrqm/s   wrqm/s     r/s     w/s    rkB/s    wkB/s avgrq-sz avgqu-sz   await r_await w_await  svctm  %util
nvme0n1           0.00     0.00    0.00    0.00     0.00     0.00     0.00     0.00    0.00    0.00    0.00   0.00   0.00
sda               0.00    17.00    0.00   24.00     0.00   164.00    13.67     0.00    0.00    0.00    0.00   0.00   0.00
sdc               0.00     0.00   39.00    0.00   156.00     0.00     8.00     0.39   10.03   10.03    0.00  10.05  39.20
sdb               0.00     0.00   36.00    0.00   144.00     0.00     8.00     0.33    9.08    9.08    0.00   9.03  32.50
sdd               0.00     0.00   33.00    0.00   132.00     0.00     8.00     0.28    8.48    8.48    0.00   8.48  28.00
md0               0.00     0.00  108.00    0.00   432.00     0.00     8.00     0.00    0.00    0.00    0.00   0.00   0.00

avg-cpu:  %user   %nice %system %iowait  %steal   %idle
           0.00    0.00    0.00    0.00    0.00  100.00

Device:         rrqm/s   wrqm/s     r/s     w/s    rkB/s    wkB/s avgrq-sz avgqu-sz   await r_await w_await  svctm  %util
nvme0n1           0.00     0.00    0.00    0.00     0.00     0.00     0.00     0.00    0.00    0.00    0.00   0.00   0.00
sda               0.00     0.00    0.00    0.00     0.00     0.00     0.00     0.00    0.00    0.00    0.00   0.00   0.00
sdc               0.00     0.00   27.00    0.00   108.00     0.00     8.00     0.28   10.26   10.26    0.00  10.22  27.60
sdb               0.00     0.00   42.00    0.00   168.00     0.00     8.00     0.41    9.67    9.67    0.00   9.67  40.60
sdd               0.00     0.00   35.00    0.00   140.00     0.00     8.00     0.31    8.97    8.97    0.00   8.97  31.40
md0               0.00     0.00  104.00    0.00   416.00     0.00     8.00     0.00    0.00    0.00    0.00   0.00   0.00

avg-cpu:  %user   %nice %system %iowait  %steal   %idle
           0.00    0.00    0.03    0.00    0.00   99.97

Device:         rrqm/s   wrqm/s     r/s     w/s    rkB/s    wkB/s avgrq-sz avgqu-sz   await r_await w_await  svctm  %util
nvme0n1           0.00     0.00    0.00    0.00     0.00     0.00     0.00     0.00    0.00    0.00    0.00   0.00   0.00
sda               0.00     0.00    0.00    0.00     0.00     0.00     0.00     0.00    0.00    0.00    0.00   0.00   0.00
sdc               0.00     0.00   42.00    0.00   168.00     0.00     8.00     0.39    9.17    9.17    0.00   9.21  38.70
sdb               0.00     0.00   29.00    0.00   116.00     0.00     8.00     0.26    8.86    8.86    0.00   8.86  25.70
sdd               0.00     0.00   36.00    0.00   144.00     0.00     8.00     0.35    9.69    9.69    0.00   9.69  34.90
md0               0.00     0.00  107.00    0.00   428.00     0.00     8.00     0.00    0.00    0.00    0.00   0.00   0.00

avg-cpu:  %user   %nice %system %iowait  %steal   %idle
           0.00    0.00    0.00    0.00    0.00  100.00

Device:         rrqm/s   wrqm/s     r/s     w/s    rkB/s    wkB/s avgrq-sz avgqu-sz   await r_await w_await  svctm  %util
nvme0n1           0.00     0.00    0.00    0.00     0.00     0.00     0.00     0.00    0.00    0.00    0.00   0.00   0.00
sda               0.00     0.00    0.00    0.00     0.00     0.00     0.00     0.00    0.00    0.00    0.00   0.00   0.00
sdc               0.00     0.00   38.00    0.00   152.00     0.00     8.00     0.37    9.79    9.79    0.00   9.74  37.00
sdb               0.00     0.00   38.00    0.00   152.00     0.00     8.00     0.34    8.95    8.95    0.00   9.08  34.50
sdd               0.00     0.00   31.00    0.00   124.00     0.00     8.00     0.28    8.97    8.97    0.00   8.97  27.80
md0               0.00     0.00  107.00    0.00   428.00     0.00     8.00     0.00    0.00    0.00    0.00   0.00   0.00

avg-cpu:  %user   %nice %system %iowait  %steal   %idle
           0.00    0.00    0.03    0.00    0.00   99.97

Device:         rrqm/s   wrqm/s     r/s     w/s    rkB/s    wkB/s avgrq-sz avgqu-sz   await r_await w_await  svctm  %util
nvme0n1           0.00     0.00    0.00    0.00     0.00     0.00     0.00     0.00    0.00    0.00    0.00   0.00   0.00
sda               0.00     0.00    0.00    0.00     0.00     0.00     0.00     0.00    0.00    0.00    0.00   0.00   0.00
sdc               0.00     0.00   42.00    0.00   168.00     0.00     8.00     0.40    9.57    9.57    0.00   9.55  40.10
sdb               0.00     0.00   33.00    0.00   132.00     0.00     8.00     0.32    9.64    9.64    0.00   9.79  32.30
sdd               0.00     0.00   29.00    0.00   116.00     0.00     8.00     0.27    9.28    9.28    0.00   9.28  26.90
md0               0.00     0.00  104.00    0.00   416.00     0.00     8.00     0.00    0.00    0.00    0.00   0.00   0.00

avg-cpu:  %user   %nice %system %iowait  %steal   %idle
           0.00    0.00    0.00    0.00    0.00  100.00

Device:         rrqm/s   wrqm/s     r/s     w/s    rkB/s    wkB/s avgrq-sz avgqu-sz   await r_await w_await  svctm  %util
nvme0n1           0.00     0.00    0.00    0.00     0.00     0.00     0.00     0.00    0.00    0.00    0.00   0.00   0.00
sda               0.00     1.00    0.00    2.00     0.00    12.00    12.00     0.00    0.00    0.00    0.00   0.00   0.00
sdc               0.00     0.00   36.00    0.00   144.00     0.00     8.00     0.34    9.44    9.44    0.00   9.44  34.00
sdb               0.00     0.00   37.00    0.00   148.00     0.00     8.00     0.34    9.54    9.54    0.00   9.27  34.30
sdd               0.00     0.00   34.00    0.00   136.00     0.00     8.00     0.31    9.15    9.15    0.00   9.18  31.20
md0               0.00     0.00  107.00    0.00   428.00     0.00     8.00     0.00    0.00    0.00    0.00   0.00   0.00

avg-cpu:  %user   %nice %system %iowait  %steal   %idle
           0.00    0.00    0.03    0.00    0.00   99.97

Device:         rrqm/s   wrqm/s     r/s     w/s    rkB/s    wkB/s avgrq-sz avgqu-sz   await r_await w_await  svctm  %util
nvme0n1           0.00     0.00    0.00    0.00     0.00     0.00     0.00     0.00    0.00    0.00    0.00   0.00   0.00
sda               0.00     1.00    0.00    2.00     0.00    12.00    12.00     0.00    0.00    0.00    0.00   0.00   0.00
sdc               0.00     0.00   42.00    0.00   168.00     0.00     8.00     0.40    9.55    9.55    0.00   9.55  40.10
sdb               0.00     0.00   31.00    0.00   124.00     0.00     8.00     0.32   10.19   10.19    0.00  10.19  31.60
sdd               0.00     0.00   30.00    0.00   120.00     0.00     8.00     0.28    9.07    9.07    0.00   9.23  27.70
md0               0.00     0.00  103.00    0.00   412.00     0.00     8.00     0.00    0.00    0.00    0.00   0.00   0.00

avg-cpu:  %user   %nice %system %iowait  %steal   %idle
           0.00    0.00    0.00    0.00    0.00  100.00

Device:         rrqm/s   wrqm/s     r/s     w/s    rkB/s    wkB/s avgrq-sz avgqu-sz   await r_await w_await  svctm  %util
nvme0n1           0.00     0.00    0.00    0.00     0.00     0.00     0.00     0.00    0.00    0.00    0.00   0.00   0.00
sda               0.00     0.00    0.00    0.00     0.00     0.00     0.00     0.00    0.00    0.00    0.00   0.00   0.00
sdc               0.00     0.00   33.00    0.00   132.00     0.00     8.00     0.34   10.00   10.00    0.00  10.27  33.90
sdb               0.00     0.00   34.00    0.00   136.00     0.00     8.00     0.31    9.18    9.18    0.00   9.18  31.20
sdd               0.00     0.00   35.00    0.00   140.00     0.00     8.00     0.34    9.97    9.97    0.00   9.77  34.20
md0               0.00     0.00  102.00    0.00   408.00     0.00     8.00     0.00    0.00    0.00    0.00   0.00   0.00

avg-cpu:  %user   %nice %system %iowait  %steal   %idle
           0.00    0.00    0.03    0.00    0.00   99.97

Device:         rrqm/s   wrqm/s     r/s     w/s    rkB/s    wkB/s avgrq-sz avgqu-sz   await r_await w_await  svctm  %util
nvme0n1           0.00     0.00    0.00    0.00     0.00     0.00     0.00     0.00    0.00    0.00    0.00   0.00   0.00
sda               0.00     0.00    0.00    0.00     0.00     0.00     0.00     0.00    0.00    0.00    0.00   0.00   0.00
sdc               0.00     0.00   29.00    0.00   116.00     0.00     8.00     0.29   10.21   10.21    0.00   9.90  28.70
sdb               0.00     0.00   31.00    0.00   124.00     0.00     8.00     0.29    9.32    9.32    0.00   9.45  29.30
sdd               0.00     0.00   44.00    0.00   176.00     0.00     8.00     0.42    9.43    9.43    0.00   9.43  41.50
md0               0.00     0.00  104.00    0.00   416.00     0.00     8.00     0.00    0.00    0.00    0.00   0.00   0.00

avg-cpu:  %user   %nice %system %iowait  %steal   %idle
           0.00    0.00    0.00    0.00    0.00  100.00

Device:         rrqm/s   wrqm/s     r/s     w/s    rkB/s    wkB/s avgrq-sz avgqu-sz   await r_await w_await  svctm  %util
nvme0n1           0.00     0.00    0.00    0.00     0.00     0.00     0.00     0.00    0.00    0.00    0.00   0.00   0.00
sda               0.00     0.00    0.00    0.00     0.00     0.00     0.00     0.00    0.00    0.00    0.00   0.00   0.00
sdc               0.00     0.00   35.00    0.00   140.00     0.00     8.00     0.33    9.29    9.29    0.00   9.29  32.50
sdb               0.00     0.00   37.00    0.00   148.00     0.00     8.00     0.33    8.89    8.89    0.00   8.92  33.00
sdd               0.00     0.00   35.00    0.00   140.00     0.00     8.00     0.34    9.66    9.66    0.00   9.66  33.80
md0               0.00     0.00  107.00    0.00   428.00     0.00     8.00     0.00    0.00    0.00    0.00   0.00   0.00

avg-cpu:  %user   %nice %system %iowait  %steal   %idle
           0.00    0.00    0.03    0.00    0.00   99.97

Device:         rrqm/s   wrqm/s     r/s     w/s    rkB/s    wkB/s avgrq-sz avgqu-sz   await r_await w_await  svctm  %util
nvme0n1           0.00     0.00    0.00    0.00     0.00     0.00     0.00     0.00    0.00    0.00    0.00   0.00   0.00
sda               0.00     3.00    0.00    2.00     0.00    20.00    20.00     0.00    0.50    0.00    0.50   0.50   0.10
sdc               0.00     0.00   35.00    0.00   140.00     0.00     8.00     0.32    9.03    9.03    0.00   9.03  31.60
sdb               0.00     0.00   41.00    0.00   164.00     0.00     8.00     0.40    9.98    9.98    0.00   9.85  40.40
sdd               0.00     0.00   27.00    0.00   108.00     0.00     8.00     0.27    9.81    9.81    0.00  10.00  27.00
md0               0.00     0.00  103.00    0.00   412.00     0.00     8.00     0.00    0.00    0.00    0.00   0.00   0.00

avg-cpu:  %user   %nice %system %iowait  %steal   %idle
           0.00    0.00    0.00    0.00    0.00  100.00

Device:         rrqm/s   wrqm/s     r/s     w/s    rkB/s    wkB/s avgrq-sz avgqu-sz   await r_await w_await  svctm  %util
nvme0n1           0.00     0.00    0.00    0.00     0.00     0.00     0.00     0.00    0.00    0.00    0.00   0.00   0.00
sda               0.00     2.00    0.00    1.00     0.00    28.00    56.00     0.00    0.00    0.00    0.00   0.00   0.00
sdc               0.00     0.00   41.00    0.00   164.00     0.00     8.00     0.38    9.29    9.29    0.00   9.29  38.10
sdb               0.00     0.00   24.00    0.00    96.00     0.00     8.00     0.22    9.08    9.08    0.00   9.08  21.80
sdd               0.00     0.00   42.00    0.00   168.00     0.00     8.00     0.39    9.48    9.48    0.00   9.38  39.40
md0               0.00     0.00  107.00    0.00   428.00     0.00     8.00     0.00    0.00    0.00    0.00   0.00   0.00

avg-cpu:  %user   %nice %system %iowait  %steal   %idle
           0.00    0.00    0.03    0.00    0.00   99.97

Device:         rrqm/s   wrqm/s     r/s     w/s    rkB/s    wkB/s avgrq-sz avgqu-sz   await r_await w_await  svctm  %util
nvme0n1           0.00     0.00    0.00    0.00     0.00     0.00     0.00     0.00    0.00    0.00    0.00   0.00   0.00
sda               0.00     0.00    0.00    0.00     0.00     0.00     0.00     0.00    0.00    0.00    0.00   0.00   0.00
sdc               0.00     0.00   24.00    0.00    96.00     0.00     8.00     0.23    9.17    9.17    0.00   9.58  23.00
sdb               0.00     0.00   36.00    0.00   144.00     0.00     8.00     0.34    9.47    9.47    0.00   9.47  34.10
sdd               0.00     0.00   45.00    0.00   180.00     0.00     8.00     0.42    9.42    9.42    0.00   9.40  42.30
md0               0.00     0.00  105.00    0.00   420.00     0.00     8.00     0.00    0.00    0.00    0.00   0.00   0.00

avg-cpu:  %user   %nice %system %iowait  %steal   %idle
           0.00    0.00    0.00    0.00    0.00  100.00

Device:         rrqm/s   wrqm/s     r/s     w/s    rkB/s    wkB/s avgrq-sz avgqu-sz   await r_await w_await  svctm  %util
nvme0n1           0.00     0.00    0.00    0.00     0.00     0.00     0.00     0.00    0.00    0.00    0.00   0.00   0.00
sda               0.00     0.00    0.00    0.00     0.00     0.00     0.00     0.00    0.00    0.00    0.00   0.00   0.00
sdc               0.00     0.00   43.00    0.00   172.00     0.00     8.00     0.41    9.58    9.58    0.00   9.58  41.20
sdb               0.00     0.00   34.00    0.00   136.00     0.00     8.00     0.29    8.50    8.50    0.00   8.50  28.90
sdd               0.00     0.00   33.00    0.00   132.00     0.00     8.00     0.29    8.91    8.91    0.00   8.91  29.40
md0               0.00     0.00  110.00    0.00   440.00     0.00     8.00     0.00    0.00    0.00    0.00   0.00   0.00

avg-cpu:  %user   %nice %system %iowait  %steal   %idle
           0.00    0.00    0.03    0.00    0.00   99.97

Device:         rrqm/s   wrqm/s     r/s     w/s    rkB/s    wkB/s avgrq-sz avgqu-sz   await r_await w_await  svctm  %util
nvme0n1           0.00     0.00    0.00    0.00     0.00     0.00     0.00     0.00    0.00    0.00    0.00   0.00   0.00
sda               0.00     0.00   58.00    0.00   444.00     0.00    15.31     0.00    0.07    0.07    0.00   0.07   0.40
sdc               0.00     0.00   42.00    0.00   168.00     0.00     8.00     0.38    9.29    9.29    0.00   9.05  38.00
sdb               0.00     0.00   34.00    0.00   136.00     0.00     8.00     0.33    9.44    9.44    0.00   9.68  32.90
sdd               0.00     0.00   30.00    0.00   120.00     0.00     8.00     0.29    9.63    9.63    0.00   9.63  28.90
md0               0.00     0.00  106.00    0.00   424.00     0.00     8.00     0.00    0.00    0.00    0.00   0.00   0.00

avg-cpu:  %user   %nice %system %iowait  %steal   %idle
           0.03    0.00    0.00    0.00    0.00   99.97

Device:         rrqm/s   wrqm/s     r/s     w/s    rkB/s    wkB/s avgrq-sz avgqu-sz   await r_await w_await  svctm  %util
nvme0n1           0.00     0.00    0.00    0.00     0.00     0.00     0.00     0.00    0.00    0.00    0.00   0.00   0.00
sda               0.00     5.00    0.00    2.00     0.00    28.00    28.00     0.00    0.00    0.00    0.00   0.00   0.00
sdc               0.00     0.00   39.00    0.00   156.00     0.00     8.00     0.37    9.54    9.54    0.00   9.54  37.20
sdb               0.00     0.00   38.00    0.00   152.00     0.00     8.00     0.37    9.84    9.84    0.00   9.68  36.80
sdd               0.00     0.00   25.00    0.00   100.00     0.00     8.00     0.26   10.28   10.28    0.00  10.28  25.70
md0               0.00     0.00  102.00    0.00   408.00     0.00     8.00     0.00    0.00    0.00    0.00   0.00   0.00

avg-cpu:  %user   %nice %system %iowait  %steal   %idle
           0.00    0.00    0.03    0.00    0.00   99.97

Device:         rrqm/s   wrqm/s     r/s     w/s    rkB/s    wkB/s avgrq-sz avgqu-sz   await r_await w_await  svctm  %util
nvme0n1           0.00     0.00    0.00    0.00     0.00     0.00     0.00     0.00    0.00    0.00    0.00   0.00   0.00
sda               0.00     0.00    0.00    0.00     0.00     0.00     0.00     0.00    0.00    0.00    0.00   0.00   0.00
sdc               0.00     0.00   33.00    0.00   132.00     0.00     8.00     0.32    9.52    9.52    0.00   9.61  31.70
sdb               0.00     0.00   37.00    0.00   148.00     0.00     8.00     0.37   10.03   10.03    0.00   9.97  36.90
sdd               0.00     0.00   34.00    0.00   136.00     0.00     8.00     0.31    9.06    9.06    0.00   9.06  30.80
md0               0.00     0.00  104.00    0.00   416.00     0.00     8.00     0.00    0.00    0.00    0.00   0.00   0.00

avg-cpu:  %user   %nice %system %iowait  %steal   %idle
           0.00    0.00    0.00    0.00    0.00  100.00

Device:         rrqm/s   wrqm/s     r/s     w/s    rkB/s    wkB/s avgrq-sz avgqu-sz   await r_await w_await  svctm  %util
nvme0n1           0.00     0.00    0.00    0.00     0.00     0.00     0.00     0.00    0.00    0.00    0.00   0.00   0.00
sda               0.00     0.00    0.00    0.00     0.00     0.00     0.00     0.00    0.00    0.00    0.00   0.00   0.00
sdc               0.00     0.00   38.00    0.00   152.00     0.00     8.00     0.36    9.34    9.34    0.00   9.37  35.60
sdb               0.00     0.00   36.00    0.00   144.00     0.00     8.00     0.34    9.56    9.56    0.00   9.53  34.30
sdd               0.00     0.00   30.00    0.00   120.00     0.00     8.00     0.29    9.83    9.83    0.00   9.83  29.50
md0               0.00     0.00  104.00    0.00   416.00     0.00     8.00     0.00    0.00    0.00    0.00   0.00   0.00

avg-cpu:  %user   %nice %system %iowait  %steal   %idle
           0.00    0.00    0.03    0.00    0.00   99.97

Device:         rrqm/s   wrqm/s     r/s     w/s    rkB/s    wkB/s avgrq-sz avgqu-sz   await r_await w_await  svctm  %util
nvme0n1           0.00     0.00    0.00    0.00     0.00     0.00     0.00     0.00    0.00    0.00    0.00   0.00   0.00
sda               0.00     0.00    0.00    0.00     0.00     0.00     0.00     0.00    0.00    0.00    0.00   0.00   0.00
sdc               0.00     0.00   40.00    0.00   160.00     0.00     8.00     0.37    9.47    9.47    0.00   9.35  37.40
sdb               0.00     0.00   33.00    0.00   132.00     0.00     8.00     0.33    9.82    9.82    0.00  10.00  33.00
sdd               0.00     0.00   30.00    0.00   120.00     0.00     8.00     0.29    9.73    9.73    0.00   9.73  29.20
md0               0.00     0.00  103.00    0.00   412.00     0.00     8.00     0.00    0.00    0.00    0.00   0.00   0.00

