Linux 4.17.2 (bench2) 	08/03/2018 	_x86_64_	(32 CPU)

avg-cpu:  %user   %nice %system %iowait  %steal   %idle
           1.91    0.00    1.57    1.54    0.00   94.98

Device:         rrqm/s   wrqm/s     r/s     w/s    rkB/s    wkB/s avgrq-sz avgqu-sz   await r_await w_await  svctm  %util
nvme0n1         947.18     5.14 19094.85  525.74 106808.63 11857.01    12.10     1.36    0.05    0.03    0.67   0.02  39.97
sda               0.12     0.81   14.14    0.58   163.93     8.51    23.43     0.00    0.33    0.32    0.45   0.07   0.10
sdc              33.32     0.18  111.92    0.31  1694.46    98.43    31.95     1.55   13.77   12.74  380.35   0.93  10.43
sdb              31.26     0.19  113.94    0.33  1692.56    98.25    31.34     0.44    3.82    2.62  411.64   0.87   9.91
sdd              33.52     0.17  111.46    0.26  1690.46    97.92    32.01     0.75    6.75    4.62  907.87   0.93  10.43
md0               0.00     0.00  438.28    1.22  6278.64   355.22    30.19     0.00    0.00    0.00    0.00   0.00   0.00

avg-cpu:  %user   %nice %system %iowait  %steal   %idle
           0.00    0.00    0.04    0.00    0.00   99.96

Device:         rrqm/s   wrqm/s     r/s     w/s    rkB/s    wkB/s avgrq-sz avgqu-sz   await r_await w_await  svctm  %util
nvme0n1           0.00     0.00    0.00    0.00     0.00     0.00     0.00     0.00    0.00    0.00    0.00   0.00   0.00
sda               0.00     0.95    0.15    0.40     2.20     6.20    30.55     0.00    0.27    0.33    0.25   0.27   0.01
sdc              67.05     0.00  244.00    0.00  1244.80     0.00    10.20     1.15    4.69    4.69    0.00   2.12  51.73
sdb              66.00     0.00  243.10    0.00  1236.40     0.00    10.17     1.15    4.73    4.73    0.00   2.08  50.45
sdd              73.35     0.00  255.55    0.00  1315.60     0.00    10.30     1.23    4.81    4.81    0.00   2.08  53.23
md0               0.00     0.00  949.25    0.00  3797.60     0.00     8.00     0.00    0.00    0.00    0.00   0.00   0.00

