Linux 4.17.2 (bench2) 	08/03/2018 	_x86_64_	(32 CPU)

avg-cpu:  %user   %nice %system %iowait  %steal   %idle
           1.91    0.00    1.56    1.57    0.00   94.97

Device:         rrqm/s   wrqm/s     r/s     w/s    rkB/s    wkB/s avgrq-sz avgqu-sz   await r_await w_await  svctm  %util
nvme0n1         940.35     5.11 18957.05  521.95 106037.86 11771.45    12.10     1.35    0.05    0.03    0.67   0.02  39.68
sda               0.12     0.81   14.15    0.58   163.97     8.52    23.42     0.00    0.33    0.32    0.44   0.07   0.10
sdc              33.86     0.18  116.82    0.31  1753.13    97.71    31.60     0.04    0.34   12.49  380.35   0.92  10.72
sdb              31.81     0.19  118.83    0.33  1751.19    97.54    31.03     0.48    3.98    2.84  411.64   0.85  10.19
sdd              34.06     0.17  116.36    0.26  1749.13    97.21    31.66     0.79    6.77    4.75  907.87   0.92  10.72
md0               0.00     0.00  454.59    1.21  6500.46   352.65    30.07     0.00    0.00    0.00    0.00   0.00   0.00

avg-cpu:  %user   %nice %system %iowait  %steal   %idle
           0.02    0.00    0.33    2.76    0.00   96.90

Device:         rrqm/s   wrqm/s     r/s     w/s    rkB/s    wkB/s avgrq-sz avgqu-sz   await r_await w_await  svctm  %util
nvme0n1           0.00     0.00    0.00    0.00     0.00     0.00     0.00     0.00    0.00    0.00    0.00   0.00   0.00
sda               0.00     1.25    0.25    1.50     5.40    11.80    19.66     0.00    0.09    0.20    0.07   0.09   0.01
sdc              69.15     0.00  765.40    0.00 48925.60     0.00   127.84     1.29    1.69    1.69    0.00   0.69  52.70
sdb              68.35     0.00  767.00    0.00 48986.20     0.00   127.73     1.09    1.43    1.43    0.00   0.56  43.28
sdd              67.75     0.00  748.95    0.00 49153.20     0.00   131.26     1.12    1.50    1.50    0.00   0.66  49.30
md0               0.00     0.00 2486.65    0.00 200900.60     0.00   161.58     0.00    0.00    0.00    0.00   0.00   0.00

