Linux 4.17.2 (bench2) 	08/03/2018 	_x86_64_	(32 CPU)

avg-cpu:  %user   %nice %system %iowait  %steal   %idle
           1.90    0.00    1.55    1.59    0.00   94.96

Device:         rrqm/s   wrqm/s     r/s     w/s    rkB/s    wkB/s avgrq-sz avgqu-sz   await r_await w_await  svctm  %util
nvme0n1         934.32     5.07 18835.52  518.60 105358.02 11695.98    12.10     1.34    0.05    0.03    0.67   0.02  39.43
sda               0.12     0.82   14.17    0.58   164.01     8.53    23.40     0.00    0.33    0.32    0.44   0.07   0.10
sdc              34.25     0.17  120.76    0.31  1818.48    97.09    31.64     0.08    0.66   12.34  380.35   0.91  10.99
sdb              32.22     0.19  122.75    0.33  1816.51    96.91    31.09     0.51    4.15    3.06  411.64   0.85  10.44
sdd              34.45     0.17  120.31    0.26  1814.50    96.59    31.70     0.83    6.84    4.90  907.87   0.91  10.99
md0               0.00     0.00  467.58    1.21  6756.47   350.39    30.32     0.00    0.00    0.00    0.00   0.00   0.00

avg-cpu:  %user   %nice %system %iowait  %steal   %idle
           0.00    0.00    0.09    0.13    0.00   99.78

Device:         rrqm/s   wrqm/s     r/s     w/s    rkB/s    wkB/s avgrq-sz avgqu-sz   await r_await w_await  svctm  %util
nvme0n1           0.00     0.00    0.00    0.00     0.00     0.00     0.00     0.00    0.00    0.00    0.00   0.00   0.00
sda               0.00     0.00    1.00    0.00     8.00     0.00    16.00     0.00    0.00    0.00    0.00   0.00   0.00
sdc              17.00     0.00 1932.00    0.00  7796.00     0.00     8.07     8.65    4.50    4.50    0.00   0.25  48.20
sdb              10.00     0.00 1980.00    0.00  7960.00     0.00     8.04    10.91    5.53    5.53    0.00   0.31  60.40
sdd              18.00     0.00 2035.00    0.00  8216.00     0.00     8.07    20.68   10.07   10.07    0.00   0.48  97.10
md0               0.00     0.00 5913.00    0.00 23652.00     0.00     8.00     0.00    0.00    0.00    0.00   0.00   0.00

