Linux 4.17.2 (bench2) 	08/03/2018 	_x86_64_	(32 CPU)

avg-cpu:  %user   %nice %system %iowait  %steal   %idle
           1.91    0.00    1.56    1.55    0.00   94.98

Device:         rrqm/s   wrqm/s     r/s     w/s    rkB/s    wkB/s avgrq-sz avgqu-sz   await r_await w_await  svctm  %util
nvme0n1         944.86     5.13 19047.91  524.45 106546.06 11827.87    12.10     1.36    0.05    0.03    0.67   0.02  39.87
sda               0.12     0.81   14.15    0.58   163.96     8.51    23.43     0.00    0.33    0.32    0.45   0.07   0.10
sdc              33.45     0.18  113.75    0.31  1709.44    98.18    31.69     0.00    0.04   12.58  380.35   0.92  10.52
sdb              31.39     0.19  115.77    0.33  1707.53    98.01    31.10     0.44    3.81    2.64  411.64   0.86  10.00
sdd              33.64     0.17  113.29    0.26  1705.45    97.68    31.76     0.76    6.69    4.60  907.87   0.93  10.52
md0               0.00     0.00  444.15    1.22  6332.68   354.34    30.03     0.00    0.00    0.00    0.00   0.00   0.00

avg-cpu:  %user   %nice %system %iowait  %steal   %idle
           0.01    0.00    0.02    3.07    0.00   96.90

Device:         rrqm/s   wrqm/s     r/s     w/s    rkB/s    wkB/s avgrq-sz avgqu-sz   await r_await w_await  svctm  %util
nvme0n1           0.00     0.00    0.00    0.00     0.00     0.00     0.00     0.00    0.00    0.00    0.00   0.00   0.00
sda               0.00     1.20    0.40    0.65    11.80     8.20    38.10     0.00    0.19    0.38    0.08   0.19   0.02
sdc               0.00     0.00  213.65    0.00   854.60     0.00     8.00     4.62   21.61   21.61    0.00   3.74  80.01
sdb               0.00     0.00  216.35    0.00   865.40     0.00     8.00     4.46   20.59   20.59    0.00   3.55  76.70
sdd               0.00     0.00  219.85    0.00   879.40     0.00     8.00     4.63   21.05   21.05    0.00   3.58  78.67
md0               0.00     0.00  650.70    0.00  2602.80     0.00     8.00     0.00    0.00    0.00    0.00   0.00   0.00

