Linux 4.17.2 (bench2) 	08/03/2018 	_x86_64_	(32 CPU)

avg-cpu:  %user   %nice %system %iowait  %steal   %idle
           1.90    0.00    1.55    1.59    0.00   94.96

Device:         rrqm/s   wrqm/s     r/s     w/s    rkB/s    wkB/s avgrq-sz avgqu-sz   await r_await w_await  svctm  %util
nvme0n1         935.56     5.08 18860.49  519.29 105497.73 11711.49    12.10     1.34    0.05    0.03    0.67   0.02  39.48
sda               0.12     0.82   14.17    0.58   164.01     8.53    23.40     0.00    0.33    0.32    0.44   0.07   0.10
sdc              34.27     0.17  120.11    0.31  1803.33    97.22    31.57     0.08    0.62   12.38  380.35   0.91  10.93
sdb              32.24     0.19  122.10    0.33  1801.39    97.04    31.01     0.51    4.14    3.04  411.64   0.85  10.39
sdd              34.47     0.17  119.65    0.26  1799.34    96.72    31.62     0.82    6.85    4.89  907.87   0.91  10.93
md0               0.00     0.00  465.67    1.21  6695.35   350.86    30.18     0.00    0.00    0.00    0.00   0.00   0.00

avg-cpu:  %user   %nice %system %iowait  %steal   %idle
           0.03    0.00    0.51    2.58    0.00   96.88

Device:         rrqm/s   wrqm/s     r/s     w/s    rkB/s    wkB/s avgrq-sz avgqu-sz   await r_await w_await  svctm  %util
nvme0n1           0.00     0.00    0.00    0.00     0.00     0.00     0.00     0.00    0.00    0.00    0.00   0.00   0.00
sda               0.00     1.75    0.20    1.45     5.20    14.80    24.24     0.00    0.06    0.00    0.07   0.06   0.01
sdc               0.00     0.00 4141.65    0.00 16566.60     0.00     8.00     1.64    0.40    0.40    0.00   0.08  34.43
sdb               0.00     0.00 4130.30    0.00 16521.20     0.00     8.00     1.57    0.38    0.38    0.00   0.08  33.29
sdd               0.00     0.00 4135.55    0.00 16542.20     0.00     8.00     1.59    0.38    0.38    0.00   0.08  33.73
md0               0.00     0.00 12407.70    0.00 49630.80     0.00     8.00     0.00    0.00    0.00    0.00   0.00   0.00

