Linux 4.17.2 (bench2) 	08/03/2018 	_x86_64_	(32 CPU)

avg-cpu:  %user   %nice %system %iowait  %steal   %idle
           1.91    0.00    1.56    1.55    0.00   94.98

Device:         rrqm/s   wrqm/s     r/s     w/s    rkB/s    wkB/s avgrq-sz avgqu-sz   await r_await w_await  svctm  %util
nvme0n1         945.10     5.13 19052.77  524.58 106573.24 11830.88    12.10     1.36    0.05    0.03    0.67   0.02  39.88
sda               0.11     0.81   14.15    0.58   163.96     8.51    23.43     0.00    0.33    0.32    0.45   0.07   0.10
sdc              33.45     0.18  113.60    0.31  1705.15    98.21    31.66     0.00    0.04   12.59  380.35   0.92  10.51
sdb              31.39     0.19  115.61    0.33  1703.25    98.03    31.07     0.44    3.81    2.64  411.64   0.86   9.98
sdd              33.64     0.17  113.14    0.26  1701.17    97.70    31.73     0.76    6.69    4.60  907.87   0.93  10.51
md0               0.00     0.00  443.69    1.22  6314.88   354.43    29.98     0.00    0.00    0.00    0.00   0.00   0.00

avg-cpu:  %user   %nice %system %iowait  %steal   %idle
           0.03    0.00    0.22    0.44    0.00   99.31

Device:         rrqm/s   wrqm/s     r/s     w/s    rkB/s    wkB/s avgrq-sz avgqu-sz   await r_await w_await  svctm  %util
nvme0n1           0.00     0.00    0.00    0.00     0.00     0.00     0.00     0.00    0.00    0.00    0.00   0.00   0.00
sda               0.00     0.00   19.00    0.00    80.00     0.00     8.42     0.00    0.00    0.00    0.00   0.00   0.00
sdc               0.00     0.00 2685.00    0.00 10740.00     0.00     8.00     1.07    0.40    0.40    0.00   0.10  27.80
sdb               0.00     0.00 2802.00    0.00 11208.00     0.00     8.00     1.05    0.37    0.37    0.00   0.11  29.90
sdd               0.00     0.00 2844.00    0.00 11376.00     0.00     8.00     1.64    0.58    0.58    0.00   0.17  47.50
md0               0.00     0.00 8332.00    0.00 33328.00     0.00     8.00     0.00    0.00    0.00    0.00   0.00   0.00

avg-cpu:  %user   %nice %system %iowait  %steal   %idle
           0.06    0.00    0.28    0.41    0.00   99.25

Device:         rrqm/s   wrqm/s     r/s     w/s    rkB/s    wkB/s avgrq-sz avgqu-sz   await r_await w_await  svctm  %util
nvme0n1           0.00     0.00    0.00    0.00     0.00     0.00     0.00     0.00    0.00    0.00    0.00   0.00   0.00
sda               0.00     0.00    0.00    0.00     0.00     0.00     0.00     0.00    0.00    0.00    0.00   0.00   0.00
sdc               0.00     0.00 2515.00    0.00 10060.00     0.00     8.00     0.88    0.35    0.35    0.00   0.10  24.10
sdb               0.00     0.00 2663.00    0.00 10652.00     0.00     8.00     1.86    0.70    0.70    0.00   0.20  52.10
sdd               0.00     0.00 2644.00    0.00 10576.00     0.00     8.00     0.94    0.35    0.35    0.00   0.10  27.50
md0               0.00     0.00 7817.00    0.00 31268.00     0.00     8.00     0.00    0.00    0.00    0.00   0.00   0.00

