Linux 4.17.2 (bench2) 	08/03/2018 	_x86_64_	(32 CPU)

avg-cpu:  %user   %nice %system %iowait  %steal   %idle
           1.91    0.00    1.57    1.54    0.00   94.98

Device:         rrqm/s   wrqm/s     r/s     w/s    rkB/s    wkB/s avgrq-sz avgqu-sz   await r_await w_await  svctm  %util
nvme0n1         946.73     5.14 19085.71  525.49 106757.51 11851.34    12.10     1.36    0.05    0.03    0.67   0.02  39.95
sda               0.12     0.81   14.14    0.58   163.94     8.51    23.43     0.00    0.33    0.32    0.45   0.07   0.10
sdc              33.36     0.18  112.26    0.31  1695.43    98.38    31.87     1.55   13.73   12.71  380.35   0.93  10.44
sdb              31.30     0.19  114.27    0.33  1693.52    98.20    31.27     0.44    3.81    2.62  411.64   0.87   9.93
sdd              33.55     0.17  111.80    0.26  1691.44    97.87    31.93     0.75    6.73    4.60  907.87   0.93  10.44
md0               0.00     0.00  439.40    1.22  6280.97   355.05    30.12     0.00    0.00    0.00    0.00   0.00   0.00

avg-cpu:  %user   %nice %system %iowait  %steal   %idle
           3.07    0.00    0.19    0.34    0.00   96.40

Device:         rrqm/s   wrqm/s     r/s     w/s    rkB/s    wkB/s avgrq-sz avgqu-sz   await r_await w_await  svctm  %util
nvme0n1           0.00     0.00    0.00    0.00     0.00     0.00     0.00     0.00    0.00    0.00    0.00   0.00   0.00
sda               0.00     0.00    4.00    0.00    56.00     0.00    28.00     0.00    0.50    0.50    0.00   0.50   0.20
sdc               0.00     0.00 1388.00    0.00  5576.00     0.00     8.03     0.26    0.19    0.19    0.00   0.19  26.20
sdb               0.00     0.00 1414.00    0.00  5656.00     0.00     8.00     0.43    0.31    0.31    0.00   0.31  43.50
sdd               0.00     0.00 1373.00    0.00  5492.00     0.00     8.00     0.25    0.19    0.19    0.00   0.19  25.50
md0               0.00     0.00 4177.00    0.00 16732.00     0.00     8.01     0.00    0.00    0.00    0.00   0.00   0.00

avg-cpu:  %user   %nice %system %iowait  %steal   %idle
           3.10    0.00    0.22    0.44    0.00   96.25

Device:         rrqm/s   wrqm/s     r/s     w/s    rkB/s    wkB/s avgrq-sz avgqu-sz   await r_await w_await  svctm  %util
nvme0n1           0.00     0.00    0.00    0.00     0.00     0.00     0.00     0.00    0.00    0.00    0.00   0.00   0.00
sda               0.00     0.00    0.00    0.00     0.00     0.00     0.00     0.00    0.00    0.00    0.00   0.00   0.00
sdc               0.00     0.00 1525.00    0.00  6100.00     0.00     8.00     0.24    0.16    0.16    0.00   0.16  23.70
sdb               0.00     0.00 1479.00    0.00  5916.00     0.00     8.00     0.44    0.30    0.30    0.00   0.30  44.30
sdd               0.00     0.00 1537.00    0.00  6148.00     0.00     8.00     0.27    0.18    0.18    0.00   0.18  27.40
md0               0.00     0.00 4540.00    0.00 18160.00     0.00     8.00     0.00    0.00    0.00    0.00   0.00   0.00

avg-cpu:  %user   %nice %system %iowait  %steal   %idle
           3.10    0.00    0.25    0.44    0.00   96.22

Device:         rrqm/s   wrqm/s     r/s     w/s    rkB/s    wkB/s avgrq-sz avgqu-sz   await r_await w_await  svctm  %util
nvme0n1           0.00     0.00    0.00    0.00     0.00     0.00     0.00     0.00    0.00    0.00    0.00   0.00   0.00
sda               0.00     0.00    0.00    0.00     0.00     0.00     0.00     0.00    0.00    0.00    0.00   0.00   0.00
sdc               0.00     0.00 1467.00    0.00  5868.00     0.00     8.00     0.28    0.19    0.19    0.00   0.19  27.90
sdb               0.00     0.00 1418.00    0.00  5672.00     0.00     8.00     0.37    0.26    0.26    0.00   0.26  36.80
sdd               0.00     0.00 1440.00    0.00  5760.00     0.00     8.00     0.29    0.20    0.20    0.00   0.20  28.60
md0               0.00     0.00 4325.00    0.00 17300.00     0.00     8.00     0.00    0.00    0.00    0.00   0.00   0.00

avg-cpu:  %user   %nice %system %iowait  %steal   %idle
           3.10    0.00    0.25    0.41    0.00   96.25

Device:         rrqm/s   wrqm/s     r/s     w/s    rkB/s    wkB/s avgrq-sz avgqu-sz   await r_await w_await  svctm  %util
nvme0n1           0.00     0.00    0.00    0.00     0.00     0.00     0.00     0.00    0.00    0.00    0.00   0.00   0.00
sda               0.00     0.00    0.00    0.00     0.00     0.00     0.00     0.00    0.00    0.00    0.00   0.00   0.00
sdc               0.00     0.00 1668.00    0.00  6672.00     0.00     8.00     0.36    0.22    0.22    0.00   0.22  36.40
sdb               0.00     0.00 1600.00    0.00  6400.00     0.00     8.00     0.28    0.17    0.17    0.00   0.17  27.90
sdd               0.00     0.00 1613.00    0.00  6452.00     0.00     8.00     0.30    0.19    0.19    0.00   0.19  30.50
md0               0.00     0.00 4881.00    0.00 19524.00     0.00     8.00     0.00    0.00    0.00    0.00   0.00   0.00

avg-cpu:  %user   %nice %system %iowait  %steal   %idle
           3.10    0.00    0.19    0.41    0.00   96.31

Device:         rrqm/s   wrqm/s     r/s     w/s    rkB/s    wkB/s avgrq-sz avgqu-sz   await r_await w_await  svctm  %util
nvme0n1           0.00     0.00    0.00    0.00     0.00     0.00     0.00     0.00    0.00    0.00    0.00   0.00   0.00
sda               0.00     0.00    0.00    0.00     0.00     0.00     0.00     0.00    0.00    0.00    0.00   0.00   0.00
sdc               0.00     0.00 1545.00    0.00  6180.00     0.00     8.00     0.27    0.18    0.18    0.00   0.18  27.10
sdb               0.00     0.00 1497.00    0.00  5988.00     0.00     8.00     0.41    0.28    0.28    0.00   0.28  41.40
sdd               0.00     0.00 1471.00    0.00  5884.00     0.00     8.00     0.26    0.18    0.18    0.00   0.18  26.10
md0               0.00     0.00 4513.00    0.00 18052.00     0.00     8.00     0.00    0.00    0.00    0.00   0.00   0.00

avg-cpu:  %user   %nice %system %iowait  %steal   %idle
           3.10    0.00    0.16    0.34    0.00   96.40

Device:         rrqm/s   wrqm/s     r/s     w/s    rkB/s    wkB/s avgrq-sz avgqu-sz   await r_await w_await  svctm  %util
nvme0n1           0.00     0.00    0.00    0.00     0.00     0.00     0.00     0.00    0.00    0.00    0.00   0.00   0.00
sda               0.00    11.00    0.00    2.00     0.00    52.00    52.00     0.00    0.50    0.00    0.50   0.50   0.10
sdc               0.00     0.00 1446.00    0.00  5784.00     0.00     8.00     0.28    0.19    0.19    0.00   0.19  27.60
sdb               0.00     0.00 1492.00    0.00  5968.00     0.00     8.00     0.48    0.32    0.32    0.00   0.32  48.10
sdd               0.00     0.00 1423.00    0.00  5692.00     0.00     8.00     0.20    0.14    0.14    0.00   0.14  20.20
md0               0.00     0.00 4361.00    0.00 17444.00     0.00     8.00     0.00    0.00    0.00    0.00   0.00   0.00

avg-cpu:  %user   %nice %system %iowait  %steal   %idle
           3.10    0.00    0.25    0.34    0.00   96.31

Device:         rrqm/s   wrqm/s     r/s     w/s    rkB/s    wkB/s avgrq-sz avgqu-sz   await r_await w_await  svctm  %util
nvme0n1           0.00     0.00    0.00    0.00     0.00     0.00     0.00     0.00    0.00    0.00    0.00   0.00   0.00
sda               0.00     0.00    0.00    0.00     0.00     0.00     0.00     0.00    0.00    0.00    0.00   0.00   0.00
sdc               0.00     0.00 1430.00    0.00  5720.00     0.00     8.00     0.41    0.28    0.28    0.00   0.28  40.50
sdb               0.00     0.00 1518.00    0.00  6072.00     0.00     8.00     0.22    0.14    0.14    0.00   0.14  21.90
sdd               0.00     0.00 1522.00    0.00  6088.00     0.00     8.00     0.33    0.21    0.21    0.00   0.21  32.60
md0               0.00     0.00 4470.00    0.00 17880.00     0.00     8.00     0.00    0.00    0.00    0.00   0.00   0.00

avg-cpu:  %user   %nice %system %iowait  %steal   %idle
           3.13    0.00    0.19    1.85    0.00   94.84

Device:         rrqm/s   wrqm/s     r/s     w/s    rkB/s    wkB/s avgrq-sz avgqu-sz   await r_await w_await  svctm  %util
nvme0n1           0.00     0.00    0.00    0.00     0.00     0.00     0.00     0.00    0.00    0.00    0.00   0.00   0.00
sda               0.00     0.00    0.00    0.00     0.00     0.00     0.00     0.00    0.00    0.00    0.00   0.00   0.00
sdc               0.00     0.00 1382.00    0.00  5528.00     0.00     8.00     0.43    0.31    0.31    0.00   0.31  42.90
sdb               0.00     0.00 1360.00    0.00  5440.00     0.00     8.00     0.22    0.16    0.16    0.00   0.16  22.00
sdd               0.00     0.00 1350.00    0.00  5400.00     0.00     8.00     0.31    0.23    0.23    0.00   0.23  30.60
md0               0.00     0.00 4092.00    0.00 16368.00     0.00     8.00     0.00    0.00    0.00    0.00   0.00   0.00

avg-cpu:  %user   %nice %system %iowait  %steal   %idle
           3.10    0.00    0.19    2.91    0.00   93.80

Device:         rrqm/s   wrqm/s     r/s     w/s    rkB/s    wkB/s avgrq-sz avgqu-sz   await r_await w_await  svctm  %util
nvme0n1           0.00     0.00    0.00    0.00     0.00     0.00     0.00     0.00    0.00    0.00    0.00   0.00   0.00
sda               0.00     0.00    0.00    0.00     0.00     0.00     0.00     0.00    0.00    0.00    0.00   0.00   0.00
sdc               0.00     0.00 1338.00    0.00  5352.00     0.00     8.00     0.34    0.24    0.24    0.00   0.25  34.10
sdb               0.00     0.00 1304.00    0.00  5216.00     0.00     8.00     0.22    0.17    0.17    0.00   0.17  22.10
sdd               0.00     0.00 1273.00    0.00  5092.00     0.00     8.00     0.40    0.32    0.32    0.00   0.32  40.40
md0               0.00     0.00 3915.00    0.00 15660.00     0.00     8.00     0.00    0.00    0.00    0.00   0.00   0.00

avg-cpu:  %user   %nice %system %iowait  %steal   %idle
           3.10    0.00    0.25    2.88    0.00   93.78

Device:         rrqm/s   wrqm/s     r/s     w/s    rkB/s    wkB/s avgrq-sz avgqu-sz   await r_await w_await  svctm  %util
nvme0n1           0.00     0.00    0.00    0.00     0.00     0.00     0.00     0.00    0.00    0.00    0.00   0.00   0.00
sda               0.00     0.00    0.00    0.00     0.00     0.00     0.00     0.00    0.00    0.00    0.00   0.00   0.00
sdc               0.00     0.00 1602.00    0.00  6408.00     0.00     8.00     0.28    0.18    0.18    0.00   0.17  27.70
sdb               0.00     0.00 1513.00    0.00  6052.00     0.00     8.00     0.29    0.19    0.19    0.00   0.19  29.30
sdd               0.00     0.00 1526.00    0.00  6104.00     0.00     8.00     0.39    0.25    0.25    0.00   0.25  38.90
md0               0.00     0.00 4641.00    0.00 18564.00     0.00     8.00     0.00    0.00    0.00    0.00   0.00   0.00

avg-cpu:  %user   %nice %system %iowait  %steal   %idle
           3.13    0.00    0.19    2.88    0.00   93.80

Device:         rrqm/s   wrqm/s     r/s     w/s    rkB/s    wkB/s avgrq-sz avgqu-sz   await r_await w_await  svctm  %util
nvme0n1           0.00     0.00    0.00    0.00     0.00     0.00     0.00     0.00    0.00    0.00    0.00   0.00   0.00
sda               0.00     1.00    0.00    2.00     0.00    12.00    12.00     0.00    0.00    0.00    0.00   0.00   0.00
sdc               0.00     0.00 1485.00    0.00  5940.00     0.00     8.00     0.35    0.23    0.23    0.00   0.24  34.90
sdb               0.00     0.00 1453.00    0.00  5812.00     0.00     8.00     0.36    0.25    0.25    0.00   0.25  36.10
sdd               0.00     0.00 1432.00    0.00  5728.00     0.00     8.00     0.24    0.18    0.18    0.00   0.17  24.30
md0               0.00     0.00 4371.00    0.00 17484.00     0.00     8.00     0.00    0.00    0.00    0.00   0.00   0.00

avg-cpu:  %user   %nice %system %iowait  %steal   %idle
           3.10    0.00    0.25    2.91    0.00   93.74

Device:         rrqm/s   wrqm/s     r/s     w/s    rkB/s    wkB/s avgrq-sz avgqu-sz   await r_await w_await  svctm  %util
nvme0n1           0.00     0.00    0.00    0.00     0.00     0.00     0.00     0.00    0.00    0.00    0.00   0.00   0.00
sda               0.00     0.00    0.00    0.00     0.00     0.00     0.00     0.00    0.00    0.00    0.00   0.00   0.00
sdc               0.00     0.00 1307.00    0.00  5228.00     0.00     8.00     0.33    0.25    0.25    0.00   0.25  32.60
sdb               0.00     0.00 1268.00    0.00  5072.00     0.00     8.00     0.45    0.35    0.35    0.00   0.35  44.90
sdd               0.00     0.00 1268.00    0.00  5072.00     0.00     8.00     0.18    0.15    0.15    0.00   0.15  18.40
md0               0.00     0.00 3842.00    0.00 15368.00     0.00     8.00     0.00    0.00    0.00    0.00   0.00   0.00

avg-cpu:  %user   %nice %system %iowait  %steal   %idle
           3.10    0.00    0.22    2.91    0.00   93.77

Device:         rrqm/s   wrqm/s     r/s     w/s    rkB/s    wkB/s avgrq-sz avgqu-sz   await r_await w_await  svctm  %util
nvme0n1           0.00     0.00    0.00    0.00     0.00     0.00     0.00     0.00    0.00    0.00    0.00   0.00   0.00
sda               0.00     0.00    0.00    0.00     0.00     0.00     0.00     0.00    0.00    0.00    0.00   0.00   0.00
sdc               0.00     0.00 1559.00    0.00  6236.00     0.00     8.00     0.37    0.24    0.24    0.00   0.24  36.80
sdb               0.00     0.00 1491.00    0.00  5964.00     0.00     8.00     0.34    0.23    0.23    0.00   0.23  34.40
sdd               0.00     0.00 1518.00    0.00  6072.00     0.00     8.00     0.24    0.16    0.16    0.00   0.16  24.20
md0               0.00     0.00 4568.00    0.00 18272.00     0.00     8.00     0.00    0.00    0.00    0.00   0.00   0.00

avg-cpu:  %user   %nice %system %iowait  %steal   %idle
           3.07    0.00    0.28    2.85    0.00   93.80

Device:         rrqm/s   wrqm/s     r/s     w/s    rkB/s    wkB/s avgrq-sz avgqu-sz   await r_await w_await  svctm  %util
nvme0n1           0.00     0.00    0.00    0.00     0.00     0.00     0.00     0.00    0.00    0.00    0.00   0.00   0.00
sda               0.00     4.00    0.00   13.00     0.00    84.00    12.92     0.00    0.00    0.00    0.00   0.00   0.00
sdc               0.00     0.00 1694.00    0.00  6776.00     0.00     8.00     0.29    0.17    0.17    0.00   0.17  29.30
sdb               0.00     0.00 1563.00    0.00  6252.00     0.00     8.00     0.35    0.22    0.22    0.00   0.22  35.00
sdd               0.00     0.00 1599.00    0.00  6396.00     0.00     8.00     0.30    0.19    0.19    0.00   0.19  30.50
md0               0.00     0.00 4856.00    0.00 19424.00     0.00     8.00     0.00    0.00    0.00    0.00   0.00   0.00

avg-cpu:  %user   %nice %system %iowait  %steal   %idle
           3.07    0.00    0.31    2.88    0.00   93.74

Device:         rrqm/s   wrqm/s     r/s     w/s    rkB/s    wkB/s avgrq-sz avgqu-sz   await r_await w_await  svctm  %util
nvme0n1           0.00     0.00    0.00    0.00     0.00     0.00     0.00     0.00    0.00    0.00    0.00   0.00   0.00
sda               0.00     0.00    0.00    0.00     0.00     0.00     0.00     0.00    0.00    0.00    0.00   0.00   0.00
sdc               0.00     0.00 1651.00    0.00  6604.00     0.00     8.00     0.25    0.15    0.15    0.00   0.15  25.30
sdb               0.00     0.00 1707.00    0.00  6828.00     0.00     8.00     0.39    0.23    0.23    0.00   0.23  39.20
sdd               0.00     0.00 1631.00    0.00  6524.00     0.00     8.00     0.30    0.18    0.18    0.00   0.18  29.90
md0               0.00     0.00 4989.00    0.00 19956.00     0.00     8.00     0.00    0.00    0.00    0.00   0.00   0.00

avg-cpu:  %user   %nice %system %iowait  %steal   %idle
           3.10    0.00    0.22    2.88    0.00   93.80

Device:         rrqm/s   wrqm/s     r/s     w/s    rkB/s    wkB/s avgrq-sz avgqu-sz   await r_await w_await  svctm  %util
nvme0n1           0.00     0.00    0.00    0.00     0.00     0.00     0.00     0.00    0.00    0.00    0.00   0.00   0.00
sda               0.00     3.00    0.00    2.00     0.00    20.00    20.00     0.00    0.00    0.00    0.00   0.00   0.00
sdc               0.00     0.00 1600.00    0.00  6400.00     0.00     8.00     0.31    0.19    0.19    0.00   0.19  30.60
sdb               0.00     0.00 1596.00    0.00  6384.00     0.00     8.00     0.28    0.18    0.18    0.00   0.18  28.20
sdd               0.00     0.00 1509.00    0.00  6036.00     0.00     8.00     0.37    0.24    0.24    0.00   0.24  36.70
md0               0.00     0.00 4705.00    0.00 18820.00     0.00     8.00     0.00    0.00    0.00    0.00   0.00   0.00

avg-cpu:  %user   %nice %system %iowait  %steal   %idle
           3.13    0.00    0.22    2.85    0.00   93.80

Device:         rrqm/s   wrqm/s     r/s     w/s    rkB/s    wkB/s avgrq-sz avgqu-sz   await r_await w_await  svctm  %util
nvme0n1           0.00     0.00    0.00    0.00     0.00     0.00     0.00     0.00    0.00    0.00    0.00   0.00   0.00
sda               0.00     0.00    0.00    0.00     0.00     0.00     0.00     0.00    0.00    0.00    0.00   0.00   0.00
sdc               0.00     0.00 1688.00    0.00  6752.00     0.00     8.00     0.33    0.20    0.20    0.00   0.20  33.20
sdb               0.00     0.00 1574.00    0.00  6296.00     0.00     8.00     0.28    0.18    0.18    0.00   0.18  28.00
sdd               0.00     0.00 1742.00    0.00  6968.00     0.00     8.00     0.35    0.20    0.20    0.00   0.20  35.00
md0               0.00     0.00 5005.00    0.00 20020.00     0.00     8.00     0.00    0.00    0.00    0.00   0.00   0.00

avg-cpu:  %user   %nice %system %iowait  %steal   %idle
           3.10    0.00    0.22    2.88    0.00   93.80

Device:         rrqm/s   wrqm/s     r/s     w/s    rkB/s    wkB/s avgrq-sz avgqu-sz   await r_await w_await  svctm  %util
nvme0n1           0.00     0.00    0.00    0.00     0.00     0.00     0.00     0.00    0.00    0.00    0.00   0.00   0.00
sda               0.00     0.00    0.00    0.00     0.00     0.00     0.00     0.00    0.00    0.00    0.00   0.00   0.00
sdc               0.00     0.00 1517.00    0.00  6068.00     0.00     8.00     0.28    0.19    0.19    0.00   0.18  28.00
sdb               0.00     0.00 1566.00    0.00  6264.00     0.00     8.00     0.33    0.21    0.21    0.00   0.21  32.90
sdd               0.00     0.00 1535.00    0.00  6144.00     0.00     8.01     0.35    0.23    0.23    0.00   0.23  35.00
md0               0.00     0.00 4617.00    0.00 18468.00     0.00     8.00     0.00    0.00    0.00    0.00   0.00   0.00

avg-cpu:  %user   %nice %system %iowait  %steal   %idle
           3.10    0.00    0.28    2.88    0.00   93.74

Device:         rrqm/s   wrqm/s     r/s     w/s    rkB/s    wkB/s avgrq-sz avgqu-sz   await r_await w_await  svctm  %util
nvme0n1           0.00     0.00    0.00    0.00     0.00     0.00     0.00     0.00    0.00    0.00    0.00   0.00   0.00
sda               0.00     0.00    1.00    2.00     4.00    32.00    24.00     0.00    0.00    0.00    0.00   0.00   0.00
sdc               0.00     0.00 1574.00    0.00  6296.00     0.00     8.00     0.25    0.16    0.16    0.00   0.16  24.50
sdb               0.00     0.00 1587.00    0.00  6348.00     0.00     8.00     0.37    0.23    0.23    0.00   0.23  37.10
sdd               0.00     0.00 1551.00    0.00  6200.00     0.00     7.99     0.33    0.21    0.21    0.00   0.21  32.70
md0               0.00     0.00 4712.00    0.00 18848.00     0.00     8.00     0.00    0.00    0.00    0.00   0.00   0.00

avg-cpu:  %user   %nice %system %iowait  %steal   %idle
           3.13    0.00    0.22    2.88    0.00   93.77

Device:         rrqm/s   wrqm/s     r/s     w/s    rkB/s    wkB/s avgrq-sz avgqu-sz   await r_await w_await  svctm  %util
nvme0n1           0.00     0.00    0.00    0.00     0.00     0.00     0.00     0.00    0.00    0.00    0.00   0.00   0.00
sda               0.00     5.00    0.00    1.00     0.00    24.00    48.00     0.00    0.00    0.00    0.00   0.00   0.00
sdc               0.00     0.00 1511.00    0.00  6044.00     0.00     8.00     0.31    0.21    0.21    0.00   0.20  30.90
sdb               0.00     0.00 1534.00    0.00  6136.00     0.00     8.00     0.32    0.21    0.21    0.00   0.21  32.40
sdd               0.00     0.00 1555.00    0.00  6220.00     0.00     8.00     0.33    0.21    0.21    0.00   0.21  33.10
md0               0.00     0.00 4600.00    0.00 18400.00     0.00     8.00     0.00    0.00    0.00    0.00   0.00   0.00

