Linux 4.17.2 (bench2) 	08/03/2018 	_x86_64_	(32 CPU)

avg-cpu:  %user   %nice %system %iowait  %steal   %idle
           1.90    0.00    1.55    1.59    0.00   94.96

Device:         rrqm/s   wrqm/s     r/s     w/s    rkB/s    wkB/s avgrq-sz avgqu-sz   await r_await w_await  svctm  %util
nvme0n1         934.27     5.07 18834.47  518.57 105352.17 11695.33    12.10     1.34    0.05    0.03    0.67   0.02  39.43
sda               0.12     0.82   14.17    0.58   164.01     8.53    23.40     0.00    0.33    0.32    0.44   0.07   0.10
sdc              34.25     0.17  120.83    0.31  1819.07    97.08    31.63     0.08    0.66   12.34  380.35   0.91  10.99
sdb              32.22     0.19  122.82    0.33  1817.11    96.91    31.08     0.51    4.15    3.06  411.64   0.85  10.45
sdd              34.45     0.17  120.38    0.26  1815.09    96.58    31.69     0.83    6.84    4.90  907.87   0.91  10.99
md0               0.00     0.00  467.79    1.21  6758.55   350.37    30.32     0.00    0.00    0.00    0.00   0.00   0.00

avg-cpu:  %user   %nice %system %iowait  %steal   %idle
           3.07    0.00    0.25    0.41    0.00   96.28

Device:         rrqm/s   wrqm/s     r/s     w/s    rkB/s    wkB/s avgrq-sz avgqu-sz   await r_await w_await  svctm  %util
nvme0n1           0.00     0.00    0.00    0.00     0.00     0.00     0.00     0.00    0.00    0.00    0.00   0.00   0.00
sda               0.00     0.00    1.00    0.00     8.00     0.00    16.00     0.00    0.00    0.00    0.00   0.00   0.00
sdc              13.00     0.00 1637.00    0.00 19792.00     0.00    24.18     0.26    0.16    0.16    0.00   0.15  24.90
sdb               7.00     0.00 1588.00    0.00 21200.00     0.00    26.70     0.34    0.21    0.21    0.00   0.20  32.50
sdd               8.00     0.00 1578.00    0.00 19904.00     0.00    25.23     0.45    0.28    0.28    0.00   0.28  43.80
md0               0.00     0.00 4831.00    0.00 75056.00     0.00    31.07     0.00    0.00    0.00    0.00   0.00   0.00

avg-cpu:  %user   %nice %system %iowait  %steal   %idle
           3.10    0.00    0.22    0.41    0.00   96.28

Device:         rrqm/s   wrqm/s     r/s     w/s    rkB/s    wkB/s avgrq-sz avgqu-sz   await r_await w_await  svctm  %util
nvme0n1           0.00     0.00    0.00    0.00     0.00     0.00     0.00     0.00    0.00    0.00    0.00   0.00   0.00
sda               0.00     0.00    0.00    0.00     0.00     0.00     0.00     0.00    0.00    0.00    0.00   0.00   0.00
sdc               2.00     0.00 1766.00    0.00 16768.00     0.00    18.99     0.25    0.14    0.14    0.00   0.14  25.00
sdb               2.00     0.00 1815.00    0.00 15708.00     0.00    17.31     0.42    0.23    0.23    0.00   0.23  41.80
sdd               4.00     0.00 1739.00    0.00 17404.00     0.00    20.02     0.33    0.19    0.19    0.00   0.18  31.90
md0               0.00     0.00 5328.00    0.00 55860.00     0.00    20.97     0.00    0.00    0.00    0.00   0.00   0.00

