Linux 4.17.2 (bench2) 	08/03/2018 	_x86_64_	(32 CPU)

avg-cpu:  %user   %nice %system %iowait  %steal   %idle
           1.90    0.00    1.55    1.59    0.00   94.96

Device:         rrqm/s   wrqm/s     r/s     w/s    rkB/s    wkB/s avgrq-sz avgqu-sz   await r_await w_await  svctm  %util
nvme0n1         935.23     5.08 18853.79  519.10 105460.22 11707.32    12.10     1.34    0.05    0.03    0.67   0.02  39.47
sda               0.12     0.82   14.17    0.58   164.01     8.53    23.40     0.00    0.33    0.32    0.44   0.07   0.10
sdc              34.26     0.17  120.20    0.31  1805.32    97.18    31.57     0.08    0.63   12.38  380.35   0.91  10.95
sdb              32.23     0.19  122.19    0.33  1803.36    97.01    31.02     0.51    4.14    3.04  411.64   0.85  10.40
sdd              34.46     0.17  119.74    0.26  1801.33    96.68    31.63     0.82    6.85    4.89  907.87   0.91  10.95
md0               0.00     0.00  465.90    1.21  6703.77   350.73    30.21     0.00    0.00    0.00    0.00   0.00   0.00

avg-cpu:  %user   %nice %system %iowait  %steal   %idle
           3.10    0.00    0.06    1.28    0.00   95.56

Device:         rrqm/s   wrqm/s     r/s     w/s    rkB/s    wkB/s avgrq-sz avgqu-sz   await r_await w_await  svctm  %util
nvme0n1           0.00     0.00    0.00    0.00     0.00     0.00     0.00     0.00    0.00    0.00    0.00   0.00   0.00
sda               0.00     0.00    4.00    0.00   104.00     0.00    52.00     0.00    0.50    0.50    0.00   0.50   0.20
sdc               0.00     0.00  173.00    0.00  2188.00     0.00    25.29     0.29    1.67    1.67    0.00   1.65  28.60
sdb               0.00     0.00  214.00    0.00  3120.00     0.00    29.16     0.36    1.69    1.69    0.00   1.58  33.90
sdd               0.00     0.00  186.00    0.00  2552.00     0.00    27.44     0.38    2.04    2.04    0.00   2.02  37.60
md0               0.00     0.00  574.00    0.00  8764.00     0.00    30.54     0.00    0.00    0.00    0.00   0.00   0.00

avg-cpu:  %user   %nice %system %iowait  %steal   %idle
           3.12    0.00    0.06    1.56    0.00   95.25

Device:         rrqm/s   wrqm/s     r/s     w/s    rkB/s    wkB/s avgrq-sz avgqu-sz   await r_await w_await  svctm  %util
nvme0n1           0.00     0.00    0.00    0.00     0.00     0.00     0.00     0.00    0.00    0.00    0.00   0.00   0.00
sda               0.00     0.00    0.00    0.00     0.00     0.00     0.00     0.00    0.00    0.00    0.00   0.00   0.00
sdc               0.00     0.00  170.00    0.00  2656.00     0.00    31.25     0.41    2.44    2.44    0.00   2.33  39.60
sdb               0.00     0.00  189.00    0.00  2292.00     0.00    24.25     0.34    1.80    1.80    0.00   1.78  33.70
sdd               0.00     0.00  191.00    0.00  2176.00     0.00    22.79     0.32    1.65    1.65    0.00   1.46  27.80
md0               0.00     0.00  550.00    0.00  7364.00     0.00    26.78     0.00    0.00    0.00    0.00   0.00   0.00

avg-cpu:  %user   %nice %system %iowait  %steal   %idle
           3.13    0.00    0.09    3.00    0.00   93.78

Device:         rrqm/s   wrqm/s     r/s     w/s    rkB/s    wkB/s avgrq-sz avgqu-sz   await r_await w_await  svctm  %util
nvme0n1           0.00     0.00    0.00    0.00     0.00     0.00     0.00     0.00    0.00    0.00    0.00   0.00   0.00
sda               0.00     0.00   68.00    0.00   484.00     0.00    14.24     0.03    0.50    0.50    0.00   0.04   0.30
sdc               0.00     0.00  207.00    0.00  2944.00     0.00    28.44     0.38    1.83    1.83    0.00   1.79  37.00
sdb               0.00     0.00  231.00    0.00  3632.00     0.00    31.45     0.36    1.55    1.55    0.00   1.43  33.00
sdd               0.00     0.00  221.00    0.00  3512.00     0.00    31.78     0.32    1.46    1.46    0.00   1.39  30.80
md0               0.00     0.00  659.00    0.00 10780.00     0.00    32.72     0.00    0.00    0.00    0.00   0.00   0.00

avg-cpu:  %user   %nice %system %iowait  %steal   %idle
           3.10    0.00    0.03    2.63    0.00   94.24

Device:         rrqm/s   wrqm/s     r/s     w/s    rkB/s    wkB/s avgrq-sz avgqu-sz   await r_await w_await  svctm  %util
nvme0n1           0.00     0.00    0.00    0.00     0.00     0.00     0.00     0.00    0.00    0.00    0.00   0.00   0.00
sda               0.00     0.00    0.00    0.00     0.00     0.00     0.00     0.00    0.00    0.00    0.00   0.00   0.00
sdc               1.00     0.00  186.00    0.00  3580.00     0.00    38.49     0.25    1.35    1.35    0.00   1.34  25.00
sdb               2.00     0.00  215.00    0.00  3720.00     0.00    34.60     0.31    1.47    1.47    0.00   1.43  30.70
sdd               1.00     0.00  199.00    0.00  3412.00     0.00    34.29     0.48    2.41    2.41    0.00   2.31  46.00
md0               0.00     0.00  604.00    0.00 12144.00     0.00    40.21     0.00    0.00    0.00    0.00   0.00   0.00

avg-cpu:  %user   %nice %system %iowait  %steal   %idle
           3.12    0.00    0.09    0.81    0.00   95.97

Device:         rrqm/s   wrqm/s     r/s     w/s    rkB/s    wkB/s avgrq-sz avgqu-sz   await r_await w_await  svctm  %util
nvme0n1           0.00     0.00    0.00    0.00     0.00     0.00     0.00     0.00    0.00    0.00    0.00   0.00   0.00
sda               0.00    11.00    0.00    2.00     0.00    52.00    52.00     0.00    0.50    0.00    0.50   0.50   0.10
sdc               0.00     0.00  139.00    0.00  1524.00     0.00    21.93     0.35    2.51    2.51    0.00   2.45  34.00
sdb               0.00     0.00  208.00    0.00  2816.00     0.00    27.08     0.23    1.11    1.11    0.00   1.10  22.90
sdd               0.00     0.00  181.00    0.00  2800.00     0.00    30.94     0.43    2.39    2.39    0.00   2.34  42.40
md0               0.00     0.00  528.00    0.00  7656.00     0.00    29.00     0.00    0.00    0.00    0.00   0.00   0.00

avg-cpu:  %user   %nice %system %iowait  %steal   %idle
           3.09    0.00    0.09    0.72    0.00   96.09

Device:         rrqm/s   wrqm/s     r/s     w/s    rkB/s    wkB/s avgrq-sz avgqu-sz   await r_await w_await  svctm  %util
nvme0n1           0.00     0.00    0.00    0.00     0.00     0.00     0.00     0.00    0.00    0.00    0.00   0.00   0.00
sda               0.00     0.00    0.00    0.00     0.00     0.00     0.00     0.00    0.00    0.00    0.00   0.00   0.00
sdc               1.00     0.00  224.00    0.00  3336.00     0.00    29.79     0.27    1.19    1.19    0.00   1.17  26.20
sdb               1.00     0.00  184.00    0.00  3144.00     0.00    34.17     0.29    1.59    1.59    0.00   1.52  27.90
sdd               1.00     0.00  188.00    0.00  3100.00     0.00    32.98     0.47    2.53    2.53    0.00   2.50  47.00
md0               0.00     0.00  599.00    0.00 10972.00     0.00    36.63     0.00    0.00    0.00    0.00   0.00   0.00

avg-cpu:  %user   %nice %system %iowait  %steal   %idle
           3.12    0.00    0.06    0.81    0.00   96.00

Device:         rrqm/s   wrqm/s     r/s     w/s    rkB/s    wkB/s avgrq-sz avgqu-sz   await r_await w_await  svctm  %util
nvme0n1           0.00     0.00    0.00    0.00     0.00     0.00     0.00     0.00    0.00    0.00    0.00   0.00   0.00
sda               0.00     0.00    0.00    0.00     0.00     0.00     0.00     0.00    0.00    0.00    0.00   0.00   0.00
sdc               0.00     0.00  220.00    0.00  2364.00     0.00    21.49     0.48    2.18    2.18    0.00   2.15  47.30
sdb               0.00     0.00  197.00    0.00  2248.00     0.00    22.82     0.28    1.40    1.40    0.00   1.39  27.30
sdd               0.00     0.00  204.00    0.00  2888.00     0.00    28.31     0.25    1.25    1.25    0.00   1.22  24.80
md0               0.00     0.00  621.00    0.00  7840.00     0.00    25.25     0.00    0.00    0.00    0.00   0.00   0.00

avg-cpu:  %user   %nice %system %iowait  %steal   %idle
           3.13    0.00    0.03    0.66    0.00   96.18

Device:         rrqm/s   wrqm/s     r/s     w/s    rkB/s    wkB/s avgrq-sz avgqu-sz   await r_await w_await  svctm  %util
nvme0n1           0.00     0.00    0.00    0.00     0.00     0.00     0.00     0.00    0.00    0.00    0.00   0.00   0.00
sda               0.00     0.00    0.00    0.00     0.00     0.00     0.00     0.00    0.00    0.00    0.00   0.00   0.00
sdc               0.00     0.00  187.00    0.00  2636.00     0.00    28.19     0.38    2.01    2.01    0.00   1.98  37.10
sdb               0.00     0.00  201.00    0.00  2388.00     0.00    23.76     0.17    0.86    0.86    0.00   0.86  17.30
sdd               0.00     0.00  182.00    0.00  3276.00     0.00    36.00     0.46    2.52    2.52    0.00   2.47  44.90
md0               0.00     0.00  570.00    0.00  9180.00     0.00    32.21     0.00    0.00    0.00    0.00   0.00   0.00

avg-cpu:  %user   %nice %system %iowait  %steal   %idle
           3.09    0.00    0.06    0.72    0.00   96.12

Device:         rrqm/s   wrqm/s     r/s     w/s    rkB/s    wkB/s avgrq-sz avgqu-sz   await r_await w_await  svctm  %util
nvme0n1           0.00     0.00    0.00    0.00     0.00     0.00     0.00     0.00    0.00    0.00    0.00   0.00   0.00
sda               0.00     0.00    0.00    0.00     0.00     0.00     0.00     0.00    0.00    0.00    0.00   0.00   0.00
sdc               1.00     0.00  221.00    0.00  4056.00     0.00    36.71     0.51    2.31    2.31    0.00   2.25  49.80
sdb               0.00     0.00  197.00    0.00  2872.00     0.00    29.16     0.19    0.98    0.98    0.00   0.96  18.90
sdd               1.00     0.00  173.00    0.00  3608.00     0.00    41.71     0.33    1.91    1.91    0.00   1.88  32.60
md0               0.00     0.00  593.00    0.00 12568.00     0.00    42.39     0.00    0.00    0.00    0.00   0.00   0.00

avg-cpu:  %user   %nice %system %iowait  %steal   %idle
           3.13    0.00    0.06    0.91    0.00   95.90

Device:         rrqm/s   wrqm/s     r/s     w/s    rkB/s    wkB/s avgrq-sz avgqu-sz   await r_await w_await  svctm  %util
nvme0n1           0.00     0.00    0.00    0.00     0.00     0.00     0.00     0.00    0.00    0.00    0.00   0.00   0.00
sda               0.00    11.00    2.00   17.00     8.00   128.00    14.32     0.00    0.05    0.00    0.06   0.05   0.10
sdc               0.00     0.00  198.00    0.00  3152.00     0.00    31.84     0.37    1.86    1.86    0.00   1.81  35.90
sdb               0.00     0.00  188.00    0.00  3120.00     0.00    33.19     0.38    2.00    2.00    0.00   1.94  36.50
sdd               0.00     0.00  216.00    0.00  3280.00     0.00    30.37     0.29    1.34    1.34    0.00   1.29  27.90
md0               0.00     0.00  602.00    0.00 10384.00     0.00    34.50     0.00    0.00    0.00    0.00   0.00   0.00

avg-cpu:  %user   %nice %system %iowait  %steal   %idle
           3.09    0.00    0.06    0.84    0.00   96.00

Device:         rrqm/s   wrqm/s     r/s     w/s    rkB/s    wkB/s avgrq-sz avgqu-sz   await r_await w_await  svctm  %util
nvme0n1           0.00     0.00    0.00    0.00     0.00     0.00     0.00     0.00    0.00    0.00    0.00   0.00   0.00
sda               0.00     0.00    0.00    0.00     0.00     0.00     0.00     0.00    0.00    0.00    0.00   0.00   0.00
sdc               0.00     0.00  151.00    0.00  1836.00     0.00    24.32     0.43    2.82    2.82    0.00   2.76  41.70
sdb               0.00     0.00  176.00    0.00  2096.00     0.00    23.82     0.24    1.37    1.37    0.00   1.36  23.90
sdd               0.00     0.00  165.00    0.00  1872.00     0.00    22.69     0.36    2.16    2.16    0.00   2.15  35.50
md0               0.00     0.00  492.00    0.00  6360.00     0.00    25.85     0.00    0.00    0.00    0.00   0.00   0.00

avg-cpu:  %user   %nice %system %iowait  %steal   %idle
           3.13    0.00    0.06    0.75    0.00   96.06

Device:         rrqm/s   wrqm/s     r/s     w/s    rkB/s    wkB/s avgrq-sz avgqu-sz   await r_await w_await  svctm  %util
nvme0n1           0.00     0.00    0.00    0.00     0.00     0.00     0.00     0.00    0.00    0.00    0.00   0.00   0.00
sda               0.00     0.00    0.00    0.00     0.00     0.00     0.00     0.00    0.00    0.00    0.00   0.00   0.00
sdc               0.00     0.00  208.00    0.00  3816.00     0.00    36.69     0.47    2.27    2.27    0.00   2.15  44.80
sdb               0.00     0.00  204.00    0.00  2772.00     0.00    27.18     0.23    1.12    1.12    0.00   1.10  22.50
sdd               0.00     0.00  193.00    0.00  3104.00     0.00    32.17     0.33    1.72    1.72    0.00   1.68  32.40
md0               0.00     0.00  605.00    0.00 10676.00     0.00    35.29     0.00    0.00    0.00    0.00   0.00   0.00

avg-cpu:  %user   %nice %system %iowait  %steal   %idle
           3.10    0.00    0.09    0.78    0.00   96.03

Device:         rrqm/s   wrqm/s     r/s     w/s    rkB/s    wkB/s avgrq-sz avgqu-sz   await r_await w_await  svctm  %util
nvme0n1           0.00     0.00    0.00    0.00     0.00     0.00     0.00     0.00    0.00    0.00    0.00   0.00   0.00
sda               0.00     0.00    0.00    0.00     0.00     0.00     0.00     0.00    0.00    0.00    0.00   0.00   0.00
sdc               1.00     0.00  192.00    0.00  3660.00     0.00    38.12     0.40    2.06    2.06    0.00   1.95  37.50
sdb               0.00     0.00  227.00    0.00  3652.00     0.00    32.18     0.19    0.82    0.82    0.00   0.81  18.30
sdd               0.00     0.00  235.00    0.00  2192.00     0.00    18.66     0.45    1.89    1.89    0.00   1.88  44.20
md0               0.00     0.00  655.00    0.00 10020.00     0.00    30.60     0.00    0.00    0.00    0.00   0.00   0.00

avg-cpu:  %user   %nice %system %iowait  %steal   %idle
           3.12    0.00    0.06    0.72    0.00   96.09

Device:         rrqm/s   wrqm/s     r/s     w/s    rkB/s    wkB/s avgrq-sz avgqu-sz   await r_await w_await  svctm  %util
nvme0n1           0.00     0.00    0.00    0.00     0.00     0.00     0.00     0.00    0.00    0.00    0.00   0.00   0.00
sda               0.00     0.00    0.00    0.00     0.00     0.00     0.00     0.00    0.00    0.00    0.00   0.00   0.00
sdc               0.00     0.00  199.00    0.00  2568.00     0.00    25.81     0.31    1.53    1.53    0.00   1.53  30.50
sdb               0.00     0.00  167.00    0.00  1952.00     0.00    23.38     0.29    1.75    1.75    0.00   1.71  28.50
sdd               0.00     0.00  219.00    0.00  4128.00     0.00    37.70     0.42    1.89    1.89    0.00   1.84  40.40
md0               0.00     0.00  585.00    0.00  9168.00     0.00    31.34     0.00    0.00    0.00    0.00   0.00   0.00

avg-cpu:  %user   %nice %system %iowait  %steal   %idle
           3.10    0.00    0.06    1.00    0.00   95.84

Device:         rrqm/s   wrqm/s     r/s     w/s    rkB/s    wkB/s avgrq-sz avgqu-sz   await r_await w_await  svctm  %util
nvme0n1           0.00     0.00    0.00    0.00     0.00     0.00     0.00     0.00    0.00    0.00    0.00   0.00   0.00
sda               0.00     7.00    0.00    2.00     0.00    36.00    36.00     0.00    0.00    0.00    0.00   0.00   0.00
sdc               1.00     0.00  194.00    0.00  3400.00     0.00    35.05     0.20    1.05    1.05    0.00   1.02  19.80
sdb               2.00     0.00  189.00    0.00  3712.00     0.00    39.28     0.46    2.41    2.41    0.00   2.42  45.70
sdd               2.00     0.00  184.00    0.00  3044.00     0.00    33.09     0.35    1.92    1.92    0.00   1.92  35.30
md0               0.00     0.00  572.00    0.00 11500.00     0.00    40.21     0.00    0.00    0.00    0.00   0.00   0.00

avg-cpu:  %user   %nice %system %iowait  %steal   %idle
           3.13    0.00    0.06    0.84    0.00   95.97

Device:         rrqm/s   wrqm/s     r/s     w/s    rkB/s    wkB/s avgrq-sz avgqu-sz   await r_await w_await  svctm  %util
nvme0n1           0.00     0.00    0.00    0.00     0.00     0.00     0.00     0.00    0.00    0.00    0.00   0.00   0.00
sda               0.00     0.00    0.00    0.00     0.00     0.00     0.00     0.00    0.00    0.00    0.00   0.00   0.00
sdc               0.00     0.00  208.00    0.00  3180.00     0.00    30.58     0.23    1.10    1.10    0.00   1.08  22.40
sdb               0.00     0.00  209.00    0.00  3708.00     0.00    35.48     0.30    1.45    1.45    0.00   1.39  29.10
sdd               1.00     0.00  210.00    0.00  3208.00     0.00    30.55     0.50    2.39    2.39    0.00   2.37  49.70
md0               0.00     0.00  628.00    0.00 11544.00     0.00    36.76     0.00    0.00    0.00    0.00   0.00   0.00

avg-cpu:  %user   %nice %system %iowait  %steal   %idle
           3.10    0.00    0.03    0.75    0.00   96.12

Device:         rrqm/s   wrqm/s     r/s     w/s    rkB/s    wkB/s avgrq-sz avgqu-sz   await r_await w_await  svctm  %util
nvme0n1           0.00     0.00    0.00    0.00     0.00     0.00     0.00     0.00    0.00    0.00    0.00   0.00   0.00
sda               0.00     0.00    0.00    0.00     0.00     0.00     0.00     0.00    0.00    0.00    0.00   0.00   0.00
sdc               0.00     0.00  246.00    0.00  3776.00     0.00    30.70     0.44    1.78    1.78    0.00   1.73  42.50
sdb               0.00     0.00  191.00    0.00  2468.00     0.00    25.84     0.27    1.42    1.42    0.00   1.40  26.80
sdd               0.00     0.00  193.00    0.00  2392.00     0.00    24.79     0.31    1.61    1.61    0.00   1.61  31.00
md0               0.00     0.00  630.00    0.00  9408.00     0.00    29.87     0.00    0.00    0.00    0.00   0.00   0.00

avg-cpu:  %user   %nice %system %iowait  %steal   %idle
           3.12    0.00    0.09    0.81    0.00   95.97

Device:         rrqm/s   wrqm/s     r/s     w/s    rkB/s    wkB/s avgrq-sz avgqu-sz   await r_await w_await  svctm  %util
nvme0n1           0.00     0.00    0.00    0.00     0.00     0.00     0.00     0.00    0.00    0.00    0.00   0.00   0.00
sda               0.00     0.00    0.00    0.00     0.00     0.00     0.00     0.00    0.00    0.00    0.00   0.00   0.00
sdc               0.00     0.00  192.00    0.00  2040.00     0.00    21.25     0.19    1.01    1.01    0.00   1.00  19.20
sdb               0.00     0.00  208.00    0.00  2632.00     0.00    25.31     0.26    1.26    1.26    0.00   1.24  25.80
sdd               0.00     0.00  200.00    0.00  2528.00     0.00    25.28     0.56    2.79    2.79    0.00   2.75  54.90
md0               0.00     0.00  600.00    0.00  7740.00     0.00    25.80     0.00    0.00    0.00    0.00   0.00   0.00

avg-cpu:  %user   %nice %system %iowait  %steal   %idle
           3.10    0.00    0.03    0.94    0.00   95.93

Device:         rrqm/s   wrqm/s     r/s     w/s    rkB/s    wkB/s avgrq-sz avgqu-sz   await r_await w_await  svctm  %util
nvme0n1           0.00     0.00    0.00    0.00     0.00     0.00     0.00     0.00    0.00    0.00    0.00   0.00   0.00
sda               0.00     0.00    0.00    0.00     0.00     0.00     0.00     0.00    0.00    0.00    0.00   0.00   0.00
sdc               0.00     0.00  194.00    0.00  2632.00     0.00    27.13     0.24    1.26    1.26    0.00   1.24  24.10
sdb               0.00     0.00  166.00    0.00  2940.00     0.00    35.42     0.33    1.99    1.99    0.00   1.93  32.00
sdd               0.00     0.00  193.00    0.00  2644.00     0.00    27.40     0.47    2.45    2.45    0.00   2.36  45.50
md0               0.00     0.00  553.00    0.00  9136.00     0.00    33.04     0.00    0.00    0.00    0.00   0.00   0.00

avg-cpu:  %user   %nice %system %iowait  %steal   %idle
           3.12    0.00    0.06    1.03    0.00   95.78

Device:         rrqm/s   wrqm/s     r/s     w/s    rkB/s    wkB/s avgrq-sz avgqu-sz   await r_await w_await  svctm  %util
nvme0n1           0.00     0.00    0.00    0.00     0.00     0.00     0.00     0.00    0.00    0.00    0.00   0.00   0.00
sda               0.00     1.00    0.00    2.00     0.00    12.00    12.00     0.00    0.00    0.00    0.00   0.00   0.00
sdc               0.00     0.00  232.00    0.00  2856.00     0.00    24.62     0.14    0.60    0.60    0.00   0.58  13.40
sdb               0.00     0.00  184.00    0.00  2584.00     0.00    28.09     0.36    1.95    1.95    0.00   1.92  35.40
sdd               0.00     0.00  183.00    0.00  1928.00     0.00    21.07     0.51    2.81    2.81    0.00   2.76  50.50
md0               0.00     0.00  599.00    0.00  7860.00     0.00    26.24     0.00    0.00    0.00    0.00   0.00   0.00

