Linux 4.17.2 (bench2) 	08/03/2018 	_x86_64_	(32 CPU)

avg-cpu:  %user   %nice %system %iowait  %steal   %idle
           1.91    0.00    1.56    1.55    0.00   94.98

Device:         rrqm/s   wrqm/s     r/s     w/s    rkB/s    wkB/s avgrq-sz avgqu-sz   await r_await w_await  svctm  %util
nvme0n1         944.63     5.13 19043.44  524.32 106521.05 11825.09    12.10     1.36    0.05    0.03    0.67   0.02  39.87
sda               0.12     0.81   14.15    0.58   163.96     8.52    23.43     0.00    0.33    0.32    0.44   0.07   0.10
sdc              33.44     0.18  113.79    0.31  1709.66    98.16    31.69     0.01    0.04   12.58  380.35   0.92  10.53
sdb              31.38     0.19  115.80    0.33  1707.75    97.98    31.10     0.44    3.82    2.64  411.64   0.86  10.01
sdd              33.64     0.17  113.33    0.26  1705.67    97.65    31.75     0.76    6.69    4.60  907.87   0.93  10.53
md0               0.00     0.00  444.23    1.22  6333.37   354.26    30.03     0.00    0.00    0.00    0.00   0.00   0.00

avg-cpu:  %user   %nice %system %iowait  %steal   %idle
           3.07    0.00    0.13    0.50    0.00   96.31

Device:         rrqm/s   wrqm/s     r/s     w/s    rkB/s    wkB/s avgrq-sz avgqu-sz   await r_await w_await  svctm  %util
nvme0n1           0.00     0.00    0.00    0.00     0.00     0.00     0.00     0.00    0.00    0.00    0.00   0.00   0.00
sda               0.00     0.00    1.00    0.00     8.00     0.00    16.00     0.00    0.00    0.00    0.00   0.00   0.00
sdc              18.00     0.00  284.00    0.00 29260.00     0.00   206.06     0.40    1.41    1.41    0.00   1.09  31.00
sdb              20.00     0.00  287.00    0.00 32100.00     0.00   223.69     0.43    1.51    1.51    0.00   1.24  35.60
sdd              19.00     0.00  314.00    0.00 28180.00     0.00   179.49     0.93    2.92    2.92    0.00   2.31  72.40
md0               0.00     0.00  942.00    0.00 119252.00     0.00   253.19     0.00    0.00    0.00    0.00   0.00   0.00

avg-cpu:  %user   %nice %system %iowait  %steal   %idle
           3.10    0.00    0.16    0.56    0.00   96.18

Device:         rrqm/s   wrqm/s     r/s     w/s    rkB/s    wkB/s avgrq-sz avgqu-sz   await r_await w_await  svctm  %util
nvme0n1           0.00     0.00    0.00    0.00     0.00     0.00     0.00     0.00    0.00    0.00    0.00   0.00   0.00
sda               0.00     0.00    0.00    0.00     0.00     0.00     0.00     0.00    0.00    0.00    0.00   0.00   0.00
sdc              22.00     0.00  328.00    0.00 34412.00     0.00   209.83     0.73    2.22    2.22    0.00   1.61  52.90
sdb              27.00     0.00  330.00    0.00 36160.00     0.00   219.15     0.47    1.43    1.43    0.00   1.13  37.40
sdd              21.00     0.00  328.00    0.00 32276.00     0.00   196.80     0.73    2.24    2.24    0.00   1.56  51.30
md0               0.00     0.00 1057.00    0.00 140580.00     0.00   266.00     0.00    0.00    0.00    0.00   0.00   0.00

avg-cpu:  %user   %nice %system %iowait  %steal   %idle
           3.06    0.00    0.19    0.72    0.00   96.03

Device:         rrqm/s   wrqm/s     r/s     w/s    rkB/s    wkB/s avgrq-sz avgqu-sz   await r_await w_await  svctm  %util
nvme0n1           0.00     0.00    0.00    0.00     0.00     0.00     0.00     0.00    0.00    0.00    0.00   0.00   0.00
sda               0.00     0.00    0.00    0.00     0.00     0.00     0.00     0.00    0.00    0.00    0.00   0.00   0.00
sdc              19.00     0.00  359.00    0.00 33240.00     0.00   185.18     0.35    0.96    0.96    0.00   0.76  27.30
sdb              21.00     0.00  338.00    0.00 35868.00     0.00   212.24     0.49    1.41    1.41    0.00   1.16  39.20
sdd              21.00     0.00  331.00    0.00 33224.00     0.00   200.75     0.81    2.44    2.44    0.00   2.04  67.50
md0               0.00     0.00 1088.00    0.00 134296.00     0.00   246.87     0.00    0.00    0.00    0.00   0.00   0.00

