Linux 4.17.2 (bench2) 	08/03/2018 	_x86_64_	(32 CPU)

avg-cpu:  %user   %nice %system %iowait  %steal   %idle
           1.91    0.00    1.56    1.55    0.00   94.98

Device:         rrqm/s   wrqm/s     r/s     w/s    rkB/s    wkB/s avgrq-sz avgqu-sz   await r_await w_await  svctm  %util
nvme0n1         945.25     5.13 19055.86  524.67 106590.53 11832.80    12.10     1.36    0.05    0.03    0.67   0.02  39.89
sda               0.11     0.81   14.15    0.58   163.96     8.51    23.43     0.00    0.33    0.32    0.45   0.07   0.10
sdc              33.45     0.18  113.47    0.31  1702.70    98.22    31.66     0.00    0.03   12.61  380.35   0.92  10.50
sdb              31.40     0.19  115.48    0.33  1700.79    98.05    31.06     0.44    3.82    2.64  411.64   0.86   9.98
sdd              33.65     0.17  113.01    0.26  1698.71    97.72    31.72     0.76    6.70    4.60  907.87   0.93  10.50
md0               0.00     0.00  443.31    1.22  6305.47   354.49    29.96     0.00    0.00    0.00    0.00   0.00   0.00

avg-cpu:  %user   %nice %system %iowait  %steal   %idle
           3.10    0.00    0.06    0.53    0.00   96.31

Device:         rrqm/s   wrqm/s     r/s     w/s    rkB/s    wkB/s avgrq-sz avgqu-sz   await r_await w_await  svctm  %util
nvme0n1           0.00     0.00    0.00    0.00     0.00     0.00     0.00     0.00    0.00    0.00    0.00   0.00   0.00
sda               0.00     0.00    3.00    0.00   100.00     0.00    66.67     0.00    0.67    0.67    0.00   0.67   0.20
sdc               0.00     0.00  231.00    0.00  3500.00     0.00    30.30     0.31    1.34    1.34    0.00   1.29  29.90
sdb               0.00     0.00  186.00    0.00  3372.00     0.00    36.26     0.36    1.94    1.94    0.00   1.85  34.50
sdd               0.00     0.00  201.00    0.00  3656.00     0.00    36.38     0.39    1.95    1.95    0.00   1.86  37.30
md0               0.00     0.00  619.00    0.00 11444.00     0.00    36.98     0.00    0.00    0.00    0.00   0.00   0.00

avg-cpu:  %user   %nice %system %iowait  %steal   %idle
           3.12    0.00    0.09    0.44    0.00   96.34

Device:         rrqm/s   wrqm/s     r/s     w/s    rkB/s    wkB/s avgrq-sz avgqu-sz   await r_await w_await  svctm  %util
nvme0n1           0.00     0.00    0.00    0.00     0.00     0.00     0.00     0.00    0.00    0.00    0.00   0.00   0.00
sda               0.00    13.00    0.00    2.00     0.00    60.00    60.00     0.00    0.00    0.00    0.00   0.00   0.00
sdc               0.00     0.00  213.00    0.00  3468.00     0.00    32.56     0.45    2.11    2.11    0.00   2.00  42.70
sdb               0.00     0.00  180.00    0.00  2936.00     0.00    32.62     0.32    1.78    1.78    0.00   1.72  31.00
sdd               0.00     0.00  156.00    0.00  2736.00     0.00    35.08     0.32    1.99    1.99    0.00   1.76  27.40
md0               0.00     0.00  549.00    0.00  9956.00     0.00    36.27     0.00    0.00    0.00    0.00   0.00   0.00

avg-cpu:  %user   %nice %system %iowait  %steal   %idle
           3.10    0.00    0.06    0.56    0.00   96.28

Device:         rrqm/s   wrqm/s     r/s     w/s    rkB/s    wkB/s avgrq-sz avgqu-sz   await r_await w_await  svctm  %util
nvme0n1           0.00     0.00    0.00    0.00     0.00     0.00     0.00     0.00    0.00    0.00    0.00   0.00   0.00
sda               0.00     0.00    0.00    0.00     0.00     0.00     0.00     0.00    0.00    0.00    0.00   0.00   0.00
sdc               0.00     0.00  201.00    0.00  2392.00     0.00    23.80     0.21    1.04    1.04    0.00   1.04  20.90
sdb               0.00     0.00  215.00    0.00  3516.00     0.00    32.71     0.48    2.24    2.24    0.00   2.10  45.10
sdd               0.00     0.00  215.00    0.00  2700.00     0.00    25.12     0.35    1.65    1.65    0.00   1.60  34.50
md0               0.00     0.00  631.00    0.00  9836.00     0.00    31.18     0.00    0.00    0.00    0.00   0.00   0.00

avg-cpu:  %user   %nice %system %iowait  %steal   %idle
           3.13    0.00    0.06    3.03    0.00   93.78

Device:         rrqm/s   wrqm/s     r/s     w/s    rkB/s    wkB/s avgrq-sz avgqu-sz   await r_await w_await  svctm  %util
nvme0n1           0.00     0.00    0.00    0.00     0.00     0.00     0.00     0.00    0.00    0.00    0.00   0.00   0.00
sda               0.00     0.00    0.00    0.00     0.00     0.00     0.00     0.00    0.00    0.00    0.00   0.00   0.00
sdc               0.00     0.00  195.00    0.00  2756.00     0.00    28.27     0.37    1.89    1.89    0.00   1.88  36.70
sdb               0.00     0.00  218.00    0.00  3260.00     0.00    29.91     0.20    0.89    0.89    0.00   0.86  18.80
sdd               1.00     0.00  199.00    0.00  3432.00     0.00    34.49     0.47    2.37    2.37    0.00   2.26  44.90
md0               0.00     0.00  614.00    0.00 10400.00     0.00    33.88     0.00    0.00    0.00    0.00   0.00   0.00

avg-cpu:  %user   %nice %system %iowait  %steal   %idle
           3.13    0.00    0.06    3.03    0.00   93.78

Device:         rrqm/s   wrqm/s     r/s     w/s    rkB/s    wkB/s avgrq-sz avgqu-sz   await r_await w_await  svctm  %util
nvme0n1           0.00     0.00    0.00    0.00     0.00     0.00     0.00     0.00    0.00    0.00    0.00   0.00   0.00
sda               0.00     0.00    0.00    0.00     0.00     0.00     0.00     0.00    0.00    0.00    0.00   0.00   0.00
sdc               1.00     0.00  211.00    0.00  3336.00     0.00    31.62     0.27    1.27    1.27    0.00   1.18  24.90
sdb               1.00     0.00  201.00    0.00  4076.00     0.00    40.56     0.35    1.76    1.76    0.00   1.71  34.40
sdd               1.00     0.00  218.00    0.00  4740.00     0.00    43.49     0.46    2.08    2.08    0.00   2.06  44.90
md0               0.00     0.00  632.00    0.00 14148.00     0.00    44.77     0.00    0.00    0.00    0.00   0.00   0.00

avg-cpu:  %user   %nice %system %iowait  %steal   %idle
           3.10    0.00    0.06    3.00    0.00   93.84

Device:         rrqm/s   wrqm/s     r/s     w/s    rkB/s    wkB/s avgrq-sz avgqu-sz   await r_await w_await  svctm  %util
nvme0n1           0.00     0.00    0.00    0.00     0.00     0.00     0.00     0.00    0.00    0.00    0.00   0.00   0.00
sda               0.00     0.00    0.00    0.00     0.00     0.00     0.00     0.00    0.00    0.00    0.00   0.00   0.00
sdc               0.00     0.00  206.00    0.00  2288.00     0.00    22.21     0.27    1.29    1.29    0.00   1.22  25.10
sdb               0.00     0.00  192.00    0.00  2764.00     0.00    28.79     0.26    1.36    1.36    0.00   1.29  24.80
sdd               0.00     0.00  195.00    0.00  2640.00     0.00    27.08     0.54    2.83    2.83    0.00   2.73  53.20
md0               0.00     0.00  593.00    0.00  8336.00     0.00    28.11     0.00    0.00    0.00    0.00   0.00   0.00

avg-cpu:  %user   %nice %system %iowait  %steal   %idle
           3.13    0.00    0.03    3.06    0.00   93.78

Device:         rrqm/s   wrqm/s     r/s     w/s    rkB/s    wkB/s avgrq-sz avgqu-sz   await r_await w_await  svctm  %util
nvme0n1           0.00     0.00    0.00    0.00     0.00     0.00     0.00     0.00    0.00    0.00    0.00   0.00   0.00
sda               0.00     1.00    0.00    2.00     0.00    12.00    12.00     0.00    0.00    0.00    0.00   0.00   0.00
sdc               0.00     0.00  182.00    0.00  2668.00     0.00    29.32     0.33    1.80    1.80    0.00   1.72  31.30
sdb               0.00     0.00  197.00    0.00  2656.00     0.00    26.96     0.41    2.06    2.06    0.00   2.01  39.60
sdd               0.00     0.00  225.00    0.00  3440.00     0.00    30.58     0.31    1.38    1.38    0.00   1.35  30.30
md0               0.00     0.00  605.00    0.00  9712.00     0.00    32.11     0.00    0.00    0.00    0.00   0.00   0.00

avg-cpu:  %user   %nice %system %iowait  %steal   %idle
           3.13    0.00    0.09    3.03    0.00   93.75

Device:         rrqm/s   wrqm/s     r/s     w/s    rkB/s    wkB/s avgrq-sz avgqu-sz   await r_await w_await  svctm  %util
nvme0n1           0.00     0.00    0.00    0.00     0.00     0.00     0.00     0.00    0.00    0.00    0.00   0.00   0.00
sda               0.00     0.00    0.00    0.00     0.00     0.00     0.00     0.00    0.00    0.00    0.00   0.00   0.00
sdc               0.00     0.00  195.00    0.00  2628.00     0.00    26.95     0.55    2.84    2.84    0.00   2.80  54.60
sdb               1.00     0.00  173.00    0.00  3304.00     0.00    38.20     0.30    1.73    1.73    0.00   1.68  29.10
sdd               0.00     0.00  182.00    0.00  3472.00     0.00    38.15     0.19    1.01    1.01    0.00   0.98  17.90
md0               0.00     0.00  550.00    0.00  9616.00     0.00    34.97     0.00    0.00    0.00    0.00   0.00   0.00

avg-cpu:  %user   %nice %system %iowait  %steal   %idle
           3.13    0.00    0.03    3.03    0.00   93.81

Device:         rrqm/s   wrqm/s     r/s     w/s    rkB/s    wkB/s avgrq-sz avgqu-sz   await r_await w_await  svctm  %util
nvme0n1           0.00     0.00    0.00    0.00     0.00     0.00     0.00     0.00    0.00    0.00    0.00   0.00   0.00
sda               0.00     0.00    0.00    0.00     0.00     0.00     0.00     0.00    0.00    0.00    0.00   0.00   0.00
sdc               1.00     0.00  175.00    0.00  2920.00     0.00    33.37     0.41    2.31    2.31    0.00   2.30  40.20
sdb               0.00     0.00  240.00    0.00  4736.00     0.00    39.47     0.22    0.93    0.93    0.00   0.91  21.80
sdd               0.00     0.00  189.00    0.00  2236.00     0.00    23.66     0.39    2.10    2.10    0.00   2.05  38.70
md0               0.00     0.00  605.00    0.00 10700.00     0.00    35.37     0.00    0.00    0.00    0.00   0.00   0.00

avg-cpu:  %user   %nice %system %iowait  %steal   %idle
           3.10    0.00    0.03    3.04    0.00   93.84

Device:         rrqm/s   wrqm/s     r/s     w/s    rkB/s    wkB/s avgrq-sz avgqu-sz   await r_await w_await  svctm  %util
nvme0n1           0.00     0.00    0.00    0.00     0.00     0.00     0.00     0.00    0.00    0.00    0.00   0.00   0.00
sda               0.00     4.00    0.00    4.00     0.00    48.00    24.00     0.00    0.00    0.00    0.00   0.00   0.00
sdc               1.00     0.00  180.00    0.00  3052.00     0.00    33.91     0.54    3.00    3.00    0.00   2.94  52.90
sdb               0.00     0.00  170.00    0.00  2620.00     0.00    30.82     0.17    1.03    1.03    0.00   1.01  17.20
sdd               0.00     0.00  187.00    0.00  2200.00     0.00    23.53     0.32    1.60    1.60    0.00   1.65  30.80
md0               0.00     0.00  538.00    0.00  8216.00     0.00    30.54     0.00    0.00    0.00    0.00   0.00   0.00

avg-cpu:  %user   %nice %system %iowait  %steal   %idle
           3.13    0.00    0.06    3.03    0.00   93.78

Device:         rrqm/s   wrqm/s     r/s     w/s    rkB/s    wkB/s avgrq-sz avgqu-sz   await r_await w_await  svctm  %util
nvme0n1           0.00     0.00    0.00    0.00     0.00     0.00     0.00     0.00    0.00    0.00    0.00   0.00   0.00
sda               0.00     0.00    0.00    0.00     0.00     0.00     0.00     0.00    0.00    0.00    0.00   0.00   0.00
sdc               0.00     0.00  223.00    0.00  3744.00     0.00    33.58     0.29    1.30    1.30    0.00   1.26  28.10
sdb               0.00     0.00  206.00    0.00  2728.00     0.00    26.49     0.29    1.42    1.42    0.00   1.36  28.10
sdd               0.00     0.00  237.00    0.00  3112.00     0.00    26.26     0.46    1.96    1.96    0.00   1.89  44.80
md0               0.00     0.00  666.00    0.00 10524.00     0.00    31.60     0.00    0.00    0.00    0.00   0.00   0.00

avg-cpu:  %user   %nice %system %iowait  %steal   %idle
           3.10    0.00    0.06    3.03    0.00   93.81

Device:         rrqm/s   wrqm/s     r/s     w/s    rkB/s    wkB/s avgrq-sz avgqu-sz   await r_await w_await  svctm  %util
nvme0n1           0.00     0.00    0.00    0.00     0.00     0.00     0.00     0.00    0.00    0.00    0.00   0.00   0.00
sda               0.00     3.00    0.00    2.00     0.00    20.00    20.00     0.00    0.00    0.00    0.00   0.00   0.00
sdc               0.00     0.00  197.00    0.00  2752.00     0.00    27.94     0.31    1.56    1.56    0.00   1.55  30.50
sdb               0.00     0.00  181.00    0.00  2136.00     0.00    23.60     0.36    1.97    1.97    0.00   1.95  35.30
sdd               0.00     0.00  212.00    0.00  3192.00     0.00    30.11     0.35    1.70    1.70    0.00   1.63  34.50
md0               0.00     0.00  590.00    0.00  8652.00     0.00    29.33     0.00    0.00    0.00    0.00   0.00   0.00

avg-cpu:  %user   %nice %system %iowait  %steal   %idle
           3.13    0.00    0.09    3.03    0.00   93.75

Device:         rrqm/s   wrqm/s     r/s     w/s    rkB/s    wkB/s avgrq-sz avgqu-sz   await r_await w_await  svctm  %util
nvme0n1           0.00     0.00    0.00    0.00     0.00     0.00     0.00     0.00    0.00    0.00    0.00   0.00   0.00
sda               0.00     0.00    0.00    0.00     0.00     0.00     0.00     0.00    0.00    0.00    0.00   0.00   0.00
sdc               1.00     0.00  184.00    0.00  3324.00     0.00    36.13     0.28    1.52    1.52    0.00   1.49  27.40
sdb               2.00     0.00  213.00    0.00  3688.00     0.00    34.63     0.24    1.14    1.14    0.00   1.12  23.80
sdd               0.00     0.00  227.00    0.00  4096.00     0.00    36.09     0.53    2.35    2.35    0.00   2.31  52.40
md0               0.00     0.00  627.00    0.00 12188.00     0.00    38.88     0.00    0.00    0.00    0.00   0.00   0.00

avg-cpu:  %user   %nice %system %iowait  %steal   %idle
           3.13    0.00    0.03    3.03    0.00   93.81

Device:         rrqm/s   wrqm/s     r/s     w/s    rkB/s    wkB/s avgrq-sz avgqu-sz   await r_await w_await  svctm  %util
nvme0n1           0.00     0.00    0.00    0.00     0.00     0.00     0.00     0.00    0.00    0.00    0.00   0.00   0.00
sda               0.00     0.00    0.00    0.00     0.00     0.00     0.00     0.00    0.00    0.00    0.00   0.00   0.00
sdc               1.00     0.00  207.00    0.00  3428.00     0.00    33.12     0.22    1.07    1.07    0.00   1.06  22.00
sdb               0.00     0.00  227.00    0.00  3460.00     0.00    30.48     0.44    1.93    1.93    0.00   1.90  43.10
sdd               0.00     0.00  246.00    0.00  3564.00     0.00    28.98     0.37    1.48    1.48    0.00   1.47  36.10
md0               0.00     0.00  681.00    0.00 11596.00     0.00    34.06     0.00    0.00    0.00    0.00   0.00   0.00

avg-cpu:  %user   %nice %system %iowait  %steal   %idle
           3.13    0.00    0.00    3.03    0.00   93.84

Device:         rrqm/s   wrqm/s     r/s     w/s    rkB/s    wkB/s avgrq-sz avgqu-sz   await r_await w_await  svctm  %util
nvme0n1           0.00     0.00    0.00    0.00     0.00     0.00     0.00     0.00    0.00    0.00    0.00   0.00   0.00
sda               0.00     4.00    0.00   17.00     0.00    84.00     9.88     0.00    0.00    0.00    0.00   0.00   0.00
sdc               0.00     0.00  163.00    0.00  2884.00     0.00    35.39     0.39    2.40    2.40    0.00   2.28  37.10
sdb               1.00     0.00  193.00    0.00  4248.00     0.00    44.02     0.32    1.67    1.67    0.00   1.63  31.40
sdd               1.00     0.00  249.00    0.00  4740.00     0.00    38.07     0.36    1.43    1.43    0.00   1.37  34.20
md0               0.00     0.00  607.00    0.00 13580.00     0.00    44.74     0.00    0.00    0.00    0.00   0.00   0.00

avg-cpu:  %user   %nice %system %iowait  %steal   %idle
           3.13    0.00    0.06    3.03    0.00   93.78

Device:         rrqm/s   wrqm/s     r/s     w/s    rkB/s    wkB/s avgrq-sz avgqu-sz   await r_await w_await  svctm  %util
nvme0n1           0.00     0.00    0.00    0.00     0.00     0.00     0.00     0.00    0.00    0.00    0.00   0.00   0.00
sda               0.00     0.00    0.00    0.00     0.00     0.00     0.00     0.00    0.00    0.00    0.00   0.00   0.00
sdc               0.00     0.00  205.00    0.00  3004.00     0.00    29.31     0.47    2.28    2.28    0.00   2.19  44.90
sdb               1.00     0.00  174.00    0.00  2616.00     0.00    30.07     0.21    1.21    1.21    0.00   1.19  20.70
sdd               0.00     0.00  187.00    0.00  3780.00     0.00    40.43     0.36    1.94    1.94    0.00   1.90  35.50
md0               0.00     0.00  568.00    0.00 10564.00     0.00    37.20     0.00    0.00    0.00    0.00   0.00   0.00

avg-cpu:  %user   %nice %system %iowait  %steal   %idle
           3.13    0.00    0.09    3.03    0.00   93.75

Device:         rrqm/s   wrqm/s     r/s     w/s    rkB/s    wkB/s avgrq-sz avgqu-sz   await r_await w_await  svctm  %util
nvme0n1           0.00     0.00    0.00    0.00     0.00     0.00     0.00     0.00    0.00    0.00    0.00   0.00   0.00
sda               0.00     1.00    0.00    2.00     0.00    12.00    12.00     0.00    0.00    0.00    0.00   0.00   0.00
sdc               0.00     0.00  187.00    0.00  2472.00     0.00    26.44     0.42    2.25    2.25    0.00   2.22  41.50
sdb               0.00     0.00  232.00    0.00  3408.00     0.00    29.38     0.41    1.77    1.77    0.00   1.75  40.50
sdd               0.00     0.00  190.00    0.00  2696.00     0.00    28.38     0.19    0.99    0.99    0.00   0.97  18.40
md0               0.00     0.00  608.00    0.00  9176.00     0.00    30.18     0.00    0.00    0.00    0.00   0.00   0.00

avg-cpu:  %user   %nice %system %iowait  %steal   %idle
           3.13    0.00    0.03    3.03    0.00   93.81

Device:         rrqm/s   wrqm/s     r/s     w/s    rkB/s    wkB/s avgrq-sz avgqu-sz   await r_await w_await  svctm  %util
nvme0n1           0.00     0.00    0.00    0.00     0.00     0.00     0.00     0.00    0.00    0.00    0.00   0.00   0.00
sda               0.00     0.00    0.00    0.00     0.00     0.00     0.00     0.00    0.00    0.00    0.00   0.00   0.00
sdc               0.00     0.00  174.00    0.00  2648.00     0.00    30.44     0.34    1.97    1.97    0.00   1.95  34.00
sdb               0.00     0.00  193.00    0.00  2784.00     0.00    28.85     0.24    1.23    1.23    0.00   1.20  23.10
sdd               1.00     0.00  192.00    0.00  3036.00     0.00    31.62     0.45    2.33    2.33    0.00   2.28  43.80
md0               0.00     0.00  560.00    0.00  8952.00     0.00    31.97     0.00    0.00    0.00    0.00   0.00   0.00

avg-cpu:  %user   %nice %system %iowait  %steal   %idle
           3.10    0.00    0.09    3.03    0.00   93.78

Device:         rrqm/s   wrqm/s     r/s     w/s    rkB/s    wkB/s avgrq-sz avgqu-sz   await r_await w_await  svctm  %util
nvme0n1           0.00     0.00    0.00    0.00     0.00     0.00     0.00     0.00    0.00    0.00    0.00   0.00   0.00
sda               0.00     0.00    0.00    0.00     0.00     0.00     0.00     0.00    0.00    0.00    0.00   0.00   0.00
sdc               1.00     0.00  206.00    0.00  3284.00     0.00    31.88     0.42    2.06    2.06    0.00   1.95  40.10
sdb               1.00     0.00  207.00    0.00  3476.00     0.00    33.58     0.27    1.31    1.31    0.00   1.30  26.90
sdd               1.00     0.00  194.00    0.00  3148.00     0.00    32.45     0.34    1.76    1.76    0.00   1.74  33.80
md0               0.00     0.00  610.00    0.00 11320.00     0.00    37.11     0.00    0.00    0.00    0.00   0.00   0.00

avg-cpu:  %user   %nice %system %iowait  %steal   %idle
           3.13    0.00    0.03    3.03    0.00   93.81

Device:         rrqm/s   wrqm/s     r/s     w/s    rkB/s    wkB/s avgrq-sz avgqu-sz   await r_await w_await  svctm  %util
nvme0n1           0.00     0.00    0.00    0.00     0.00     0.00     0.00     0.00    0.00    0.00    0.00   0.00   0.00
sda               0.00     0.00    0.00    0.00     0.00     0.00     0.00     0.00    0.00    0.00    0.00   0.00   0.00
sdc               1.00     0.00  156.00    0.00  2308.00     0.00    29.59     0.29    1.84    1.84    0.00   1.81  28.20
sdb               0.00     0.00  182.00    0.00  3196.00     0.00    35.12     0.27    1.48    1.48    0.00   1.45  26.40
sdd               0.00     0.00  198.00    0.00  2812.00     0.00    28.40     0.47    2.39    2.39    0.00   2.32  45.90
md0               0.00     0.00  537.00    0.00  9132.00     0.00    34.01     0.00    0.00    0.00    0.00   0.00   0.00

