Linux 4.17.2 (bench2) 	08/03/2018 	_x86_64_	(32 CPU)

avg-cpu:  %user   %nice %system %iowait  %steal   %idle
           1.90    0.00    1.55    1.59    0.00   94.96

Device:         rrqm/s   wrqm/s     r/s     w/s    rkB/s    wkB/s avgrq-sz avgqu-sz   await r_await w_await  svctm  %util
nvme0n1         936.28     5.09 18874.99  519.69 105578.84 11720.49    12.10     1.34    0.05    0.03    0.67   0.02  39.51
sda               0.12     0.82   14.16    0.58   164.01     8.53    23.41     0.00    0.33    0.32    0.44   0.07   0.10
sdc              34.25     0.17  119.59    0.31  1794.37    97.29    31.55     0.07    0.62   12.44  380.35   0.91  10.91
sdb              32.22     0.19  121.58    0.33  1792.43    97.12    31.00     0.51    4.15    3.04  411.64   0.85  10.37
sdd              34.45     0.17  119.13    0.26  1790.38    96.79    31.61     0.82    6.88    4.91  907.87   0.91  10.91
md0               0.00     0.00  464.05    1.21  6660.48   351.13    30.14     0.00    0.00    0.00    0.00   0.00   0.00

avg-cpu:  %user   %nice %system %iowait  %steal   %idle
           3.07    0.00    0.25    0.13    0.00   96.55

Device:         rrqm/s   wrqm/s     r/s     w/s    rkB/s    wkB/s avgrq-sz avgqu-sz   await r_await w_await  svctm  %util
nvme0n1           0.00     0.00    0.00    0.00     0.00     0.00     0.00     0.00    0.00    0.00    0.00   0.00   0.00
sda               0.00     1.05    0.30    0.55     3.00     8.40    26.82     0.00    0.06    0.17    0.00   0.06   0.01
sdc               0.00     0.00 2152.55    0.00  8611.40     0.00     8.00     0.33    0.15    0.15    0.00   0.15  32.86
sdb               0.00     0.00 2143.65    0.00  8574.60     0.00     8.00     0.30    0.14    0.14    0.00   0.14  30.05
sdd               0.00     0.00 2136.65    0.00  8546.60     0.00     8.00     0.30    0.14    0.14    0.00   0.14  30.23
md0               0.00     0.00 6432.95    0.00 25733.00     0.00     8.00     0.00    0.00    0.00    0.00   0.00   0.00

