Linux 4.17.2 (bench2) 	08/03/2018 	_x86_64_	(32 CPU)

avg-cpu:  %user   %nice %system %iowait  %steal   %idle
           1.91    0.00    1.56    1.56    0.00   94.97

Device:         rrqm/s   wrqm/s     r/s     w/s    rkB/s    wkB/s avgrq-sz avgqu-sz   await r_await w_await  svctm  %util
nvme0n1         941.91     5.12 18988.54  522.81 106214.01 11791.00    12.10     1.35    0.05    0.03    0.67   0.02  39.75
sda               0.12     0.81   14.15    0.58   163.95     8.52    23.42     0.00    0.33    0.32    0.44   0.07   0.10
sdc              33.77     0.18  115.57    0.31  1744.11    97.88    31.79     0.03    0.29   12.59  380.35   0.92  10.66
sdb              31.72     0.19  117.58    0.33  1742.20    97.70    31.21     0.47    3.98    2.82  411.64   0.86  10.13
sdd              33.97     0.17  115.11    0.26  1740.11    97.37    31.85     0.79    6.80    4.75  907.87   0.92  10.66
md0               0.00     0.00  450.57    1.22  6469.02   353.24    30.20     0.00    0.00    0.00    0.00   0.00   0.00

avg-cpu:  %user   %nice %system %iowait  %steal   %idle
           3.09    0.00    0.27    2.88    0.00   93.77

Device:         rrqm/s   wrqm/s     r/s     w/s    rkB/s    wkB/s avgrq-sz avgqu-sz   await r_await w_await  svctm  %util
nvme0n1           0.00     0.00    0.00    0.00     0.00     0.00     0.00     0.00    0.00    0.00    0.00   0.00   0.00
sda               0.00     1.05    3.85    0.40    27.20     6.60    15.91     0.00    0.32    0.35    0.00   0.05   0.02
sdc               0.00     0.00 2140.70    0.00  8564.00     0.00     8.00     0.33    0.16    0.16    0.00   0.16  33.26
sdb               0.00     0.00 2148.20    0.00  8592.80     0.00     8.00     0.31    0.14    0.14    0.00   0.14  30.89
sdd               0.00     0.00 2133.20    0.00  8532.80     0.00     8.00     0.31    0.15    0.15    0.00   0.15  31.06
md0               0.00     0.00 6422.10    0.00 25689.00     0.00     8.00     0.00    0.00    0.00    0.00   0.00   0.00

