Linux 4.17.2 (bench2) 	08/03/2018 	_x86_64_	(32 CPU)

avg-cpu:  %user   %nice %system %iowait  %steal   %idle
           1.91    0.00    1.56    1.55    0.00   94.98

Device:         rrqm/s   wrqm/s     r/s     w/s    rkB/s    wkB/s avgrq-sz avgqu-sz   await r_await w_await  svctm  %util
nvme0n1         946.42     5.14 19079.46  525.32 106722.53 11847.46    12.10     1.36    0.05    0.03    0.67   0.02  39.94
sda               0.12     0.81   14.14    0.58   163.94     8.51    23.43     0.00    0.33    0.32    0.45   0.07   0.10
sdc              33.39     0.18  112.56    0.31  1696.39    98.35    31.80     1.55   13.70   12.68  380.35   0.93  10.45
sdb              31.33     0.19  114.57    0.33  1694.48    98.17    31.20     0.44    3.81    2.62  411.64   0.86   9.94
sdd              33.59     0.17  112.09    0.26  1692.39    97.84    31.87     0.75    6.71    4.60  907.87   0.93  10.46
md0               0.00     0.00  440.39    1.22  6283.45   354.93    30.06     0.00    0.00    0.00    0.00   0.00   0.00

avg-cpu:  %user   %nice %system %iowait  %steal   %idle
           3.13    0.00    0.06    0.63    0.00   96.19

Device:         rrqm/s   wrqm/s     r/s     w/s    rkB/s    wkB/s avgrq-sz avgqu-sz   await r_await w_await  svctm  %util
nvme0n1           0.00     0.00    0.00    0.00     0.00     0.00     0.00     0.00    0.00    0.00    0.00   0.00   0.00
sda               0.00     0.00    4.00    0.00    56.00     0.00    28.00     0.00    0.50    0.50    0.00   0.25   0.10
sdc               0.00     0.00  329.00    0.00  1316.00     0.00     8.00     0.24    0.74    0.74    0.00   0.74  24.40
sdb               0.00     0.00  286.00    0.00  1144.00     0.00     8.00     0.26    0.90    0.90    0.00   0.90  25.60
sdd               0.00     0.00  290.00    0.00  1160.00     0.00     8.00     0.48    1.63    1.63    0.00   1.64  47.60
md0               0.00     0.00  906.00    0.00  3624.00     0.00     8.00     0.00    0.00    0.00    0.00   0.00   0.00

avg-cpu:  %user   %nice %system %iowait  %steal   %idle
           3.13    0.00    0.03    0.53    0.00   96.31

Device:         rrqm/s   wrqm/s     r/s     w/s    rkB/s    wkB/s avgrq-sz avgqu-sz   await r_await w_await  svctm  %util
nvme0n1           0.00     0.00    0.00    0.00     0.00     0.00     0.00     0.00    0.00    0.00    0.00   0.00   0.00
sda               0.00     0.00    0.00    0.00     0.00     0.00     0.00     0.00    0.00    0.00    0.00   0.00   0.00
sdc               0.00     0.00  272.00    0.00  1088.00     0.00     8.00     0.20    0.75    0.75    0.00   0.75  20.30
sdb               0.00     0.00  314.00    0.00  1256.00     0.00     8.00     0.32    1.00    1.00    0.00   1.00  31.50
sdd               0.00     0.00  316.00    0.00  1264.00     0.00     8.00     0.46    1.45    1.45    0.00   1.44  45.60
md0               0.00     0.00  902.00    0.00  3608.00     0.00     8.00     0.00    0.00    0.00    0.00   0.00   0.00

avg-cpu:  %user   %nice %system %iowait  %steal   %idle
           3.10    0.00    0.06    0.88    0.00   95.97

Device:         rrqm/s   wrqm/s     r/s     w/s    rkB/s    wkB/s avgrq-sz avgqu-sz   await r_await w_await  svctm  %util
nvme0n1           0.00     0.00    0.00    0.00     0.00     0.00     0.00     0.00    0.00    0.00    0.00   0.00   0.00
sda               0.00     0.00    0.00    0.00     0.00     0.00     0.00     0.00    0.00    0.00    0.00   0.00   0.00
sdc               0.00     0.00  310.00    0.00  1240.00     0.00     8.00     0.28    0.91    0.91    0.00   0.91  28.10
sdb               0.00     0.00  288.00    0.00  1152.00     0.00     8.00     0.36    1.25    1.25    0.00   1.25  35.90
sdd               0.00     0.00  289.00    0.00  1156.00     0.00     8.00     0.34    1.16    1.16    0.00   1.16  33.50
md0               0.00     0.00  887.00    0.00  3548.00     0.00     8.00     0.00    0.00    0.00    0.00   0.00   0.00

avg-cpu:  %user   %nice %system %iowait  %steal   %idle
           3.13    0.00    0.06    0.44    0.00   96.37

Device:         rrqm/s   wrqm/s     r/s     w/s    rkB/s    wkB/s avgrq-sz avgqu-sz   await r_await w_await  svctm  %util
nvme0n1           0.00     0.00    0.00    0.00     0.00     0.00     0.00     0.00    0.00    0.00    0.00   0.00   0.00
sda               0.00     0.00    0.00    0.00     0.00     0.00     0.00     0.00    0.00    0.00    0.00   0.00   0.00
sdc               0.00     0.00  358.00    0.00  1432.00     0.00     8.00     0.19    0.54    0.54    0.00   0.54  19.20
sdb               0.00     0.00  318.00    0.00  1272.00     0.00     8.00     0.43    1.35    1.35    0.00   1.35  42.80
sdd               0.00     0.00  251.00    0.00  1004.00     0.00     8.00     0.36    1.42    1.42    0.00   1.42  35.70
md0               0.00     0.00  927.00    0.00  3708.00     0.00     8.00     0.00    0.00    0.00    0.00   0.00   0.00

avg-cpu:  %user   %nice %system %iowait  %steal   %idle
           3.10    0.00    0.03    0.91    0.00   95.97

Device:         rrqm/s   wrqm/s     r/s     w/s    rkB/s    wkB/s avgrq-sz avgqu-sz   await r_await w_await  svctm  %util
nvme0n1           0.00     0.00    0.00    0.00     0.00     0.00     0.00     0.00    0.00    0.00    0.00   0.00   0.00
sda               0.00     0.00    0.00    0.00     0.00     0.00     0.00     0.00    0.00    0.00    0.00   0.00   0.00
sdc               0.00     0.00  230.00    0.00   920.00     0.00     8.00     0.36    1.58    1.58    0.00   1.58  36.30
sdb               0.00     0.00  278.00    0.00  1112.00     0.00     8.00     0.22    0.78    0.78    0.00   0.78  21.70
sdd               0.00     0.00  247.00    0.00   988.00     0.00     8.00     0.41    1.64    1.64    0.00   1.65  40.70
md0               0.00     0.00  755.00    0.00  3020.00     0.00     8.00     0.00    0.00    0.00    0.00   0.00   0.00

avg-cpu:  %user   %nice %system %iowait  %steal   %idle
           3.13    0.00    0.06    0.34    0.00   96.47

Device:         rrqm/s   wrqm/s     r/s     w/s    rkB/s    wkB/s avgrq-sz avgqu-sz   await r_await w_await  svctm  %util
nvme0n1           0.00     0.00    0.00    0.00     0.00     0.00     0.00     0.00    0.00    0.00    0.00   0.00   0.00
sda               0.00    13.00    0.00   14.00     0.00   108.00    15.43     0.00    0.07    0.00    0.07   0.07   0.10
sdc               0.00     0.00  226.00    0.00   904.00     0.00     8.00     0.42    1.87    1.87    0.00   1.87  42.20
sdb               0.00     0.00  228.00    0.00   912.00     0.00     8.00     0.13    0.57    0.57    0.00   0.57  13.00
sdd               0.00     0.00  281.00    0.00  1124.00     0.00     8.00     0.43    1.52    1.52    0.00   1.52  42.60
md0               0.00     0.00  735.00    0.00  2940.00     0.00     8.00     0.00    0.00    0.00    0.00   0.00   0.00

avg-cpu:  %user   %nice %system %iowait  %steal   %idle
           3.13    0.00    0.06    0.59    0.00   96.22

Device:         rrqm/s   wrqm/s     r/s     w/s    rkB/s    wkB/s avgrq-sz avgqu-sz   await r_await w_await  svctm  %util
nvme0n1           0.00     0.00    0.00    0.00     0.00     0.00     0.00     0.00    0.00    0.00    0.00   0.00   0.00
sda               0.00     0.00    0.00    0.00     0.00     0.00     0.00     0.00    0.00    0.00    0.00   0.00   0.00
sdc               0.00     0.00  257.00    0.00  1028.00     0.00     8.00     0.38    1.47    1.47    0.00   1.47  37.90
sdb               0.00     0.00  271.00    0.00  1084.00     0.00     8.00     0.24    0.89    0.89    0.00   0.89  24.00
sdd               0.00     0.00  306.00    0.00  1224.00     0.00     8.00     0.36    1.18    1.18    0.00   1.18  36.00
md0               0.00     0.00  834.00    0.00  3336.00     0.00     8.00     0.00    0.00    0.00    0.00   0.00   0.00

avg-cpu:  %user   %nice %system %iowait  %steal   %idle
           3.13    0.00    0.03    0.34    0.00   96.50

Device:         rrqm/s   wrqm/s     r/s     w/s    rkB/s    wkB/s avgrq-sz avgqu-sz   await r_await w_await  svctm  %util
nvme0n1           0.00     0.00    0.00    0.00     0.00     0.00     0.00     0.00    0.00    0.00    0.00   0.00   0.00
sda               0.00     0.00    0.00    0.00     0.00     0.00     0.00     0.00    0.00    0.00    0.00   0.00   0.00
sdc               0.00     0.00  231.00    0.00   924.00     0.00     8.00     0.43    1.87    1.87    0.00   1.87  43.20
sdb               0.00     0.00  239.00    0.00   956.00     0.00     8.00     0.28    1.16    1.16    0.00   1.17  27.90
sdd               0.00     0.00  292.00    0.00  1168.00     0.00     8.00     0.26    0.89    0.89    0.00   0.89  26.00
md0               0.00     0.00  762.00    0.00  3048.00     0.00     8.00     0.00    0.00    0.00    0.00   0.00   0.00

avg-cpu:  %user   %nice %system %iowait  %steal   %idle
           3.13    0.00    0.06    0.56    0.00   96.25

Device:         rrqm/s   wrqm/s     r/s     w/s    rkB/s    wkB/s avgrq-sz avgqu-sz   await r_await w_await  svctm  %util
nvme0n1           0.00     0.00    0.00    0.00     0.00     0.00     0.00     0.00    0.00    0.00    0.00   0.00   0.00
sda               0.00     0.00    0.00    0.00     0.00     0.00     0.00     0.00    0.00    0.00    0.00   0.00   0.00
sdc               0.00     0.00  276.00    0.00  1104.00     0.00     8.00     0.43    1.56    1.56    0.00   1.56  43.10
sdb               0.00     0.00  286.00    0.00  1144.00     0.00     8.00     0.33    1.15    1.15    0.00   1.15  32.80
sdd               0.00     0.00  288.00    0.00  1152.00     0.00     8.00     0.22    0.77    0.77    0.00   0.77  22.10
md0               0.00     0.00  850.00    0.00  3400.00     0.00     8.00     0.00    0.00    0.00    0.00   0.00   0.00

avg-cpu:  %user   %nice %system %iowait  %steal   %idle
           3.10    0.00    0.06    0.59    0.00   96.25

Device:         rrqm/s   wrqm/s     r/s     w/s    rkB/s    wkB/s avgrq-sz avgqu-sz   await r_await w_await  svctm  %util
nvme0n1           0.00     0.00    0.00    0.00     0.00     0.00     0.00     0.00    0.00    0.00    0.00   0.00   0.00
sda               0.00     0.00    0.00    0.00     0.00     0.00     0.00     0.00    0.00    0.00    0.00   0.00   0.00
sdc               0.00     0.00  266.00    0.00  1064.00     0.00     8.00     0.46    1.71    1.71    0.00   1.71  45.60
sdb               0.00     0.00  293.00    0.00  1172.00     0.00     8.00     0.29    1.00    1.00    0.00   1.00  29.20
sdd               0.00     0.00  332.00    0.00  1328.00     0.00     8.00     0.23    0.68    0.68    0.00   0.68  22.60
md0               0.00     0.00  891.00    0.00  3564.00     0.00     8.00     0.00    0.00    0.00    0.00   0.00   0.00

avg-cpu:  %user   %nice %system %iowait  %steal   %idle
           3.12    0.00    0.06    0.53    0.00   96.28

Device:         rrqm/s   wrqm/s     r/s     w/s    rkB/s    wkB/s avgrq-sz avgqu-sz   await r_await w_await  svctm  %util
nvme0n1           0.00     0.00    0.00    0.00     0.00     0.00     0.00     0.00    0.00    0.00    0.00   0.00   0.00
sda               0.00     3.00    0.00    7.00     0.00    84.00    24.00     0.00    0.00    0.00    0.00   0.00   0.00
sdc               0.00     0.00  327.00    0.00  1308.00     0.00     8.00     0.41    1.24    1.24    0.00   1.24  40.50
sdb               0.00     0.00  288.00    0.00  1152.00     0.00     8.00     0.28    0.99    0.99    0.00   0.99  28.40
sdd               0.00     0.00  290.00    0.00  1160.00     0.00     8.00     0.30    1.02    1.02    0.00   1.02  29.70
md0               0.00     0.00  905.00    0.00  3620.00     0.00     8.00     0.00    0.00    0.00    0.00   0.00   0.00

avg-cpu:  %user   %nice %system %iowait  %steal   %idle
           3.13    0.00    0.03    0.63    0.00   96.22

Device:         rrqm/s   wrqm/s     r/s     w/s    rkB/s    wkB/s avgrq-sz avgqu-sz   await r_await w_await  svctm  %util
nvme0n1           0.00     0.00    0.00    0.00     0.00     0.00     0.00     0.00    0.00    0.00    0.00   0.00   0.00
sda               0.00     0.00    0.00    0.00     0.00     0.00     0.00     0.00    0.00    0.00    0.00   0.00   0.00
sdc               0.00     0.00  210.00    0.00   840.00     0.00     8.00     0.33    1.55    1.55    0.00   1.55  32.60
sdb               0.00     0.00  314.00    0.00  1256.00     0.00     8.00     0.29    0.93    0.93    0.00   0.93  29.30
sdd               0.00     0.00  297.00    0.00  1188.00     0.00     8.00     0.36    1.18    1.18    0.00   1.21  35.80
md0               0.00     0.00  821.00    0.00  3284.00     0.00     8.00     0.00    0.00    0.00    0.00   0.00   0.00

avg-cpu:  %user   %nice %system %iowait  %steal   %idle
           3.13    0.00    0.06    0.50    0.00   96.31

Device:         rrqm/s   wrqm/s     r/s     w/s    rkB/s    wkB/s avgrq-sz avgqu-sz   await r_await w_await  svctm  %util
nvme0n1           0.00     0.00    0.00    0.00     0.00     0.00     0.00     0.00    0.00    0.00    0.00   0.00   0.00
sda               0.00     0.00    0.00    0.00     0.00     0.00     0.00     0.00    0.00    0.00    0.00   0.00   0.00
sdc               0.00     0.00  295.00    0.00  1180.00     0.00     8.00     0.28    0.95    0.95    0.00   0.95  27.90
sdb               0.00     0.00  251.00    0.00  1004.00     0.00     8.00     0.36    1.42    1.42    0.00   1.42  35.60
sdd               0.00     0.00  253.00    0.00  1012.00     0.00     8.00     0.34    1.38    1.38    0.00   1.34  34.00
md0               0.00     0.00  799.00    0.00  3196.00     0.00     8.00     0.00    0.00    0.00    0.00   0.00   0.00

avg-cpu:  %user   %nice %system %iowait  %steal   %idle
           3.13    0.00    0.06    0.91    0.00   95.90

Device:         rrqm/s   wrqm/s     r/s     w/s    rkB/s    wkB/s avgrq-sz avgqu-sz   await r_await w_await  svctm  %util
nvme0n1           0.00     0.00    0.00    0.00     0.00     0.00     0.00     0.00    0.00    0.00    0.00   0.00   0.00
sda               0.00     0.00    0.00    0.00     0.00     0.00     0.00     0.00    0.00    0.00    0.00   0.00   0.00
sdc               0.00     0.00  299.00    0.00  1196.00     0.00     8.00     0.41    1.35    1.35    0.00   1.36  40.70
sdb               0.00     0.00  258.00    0.00  1032.00     0.00     8.00     0.30    1.16    1.16    0.00   1.16  29.90
sdd               0.00     0.00  289.00    0.00  1156.00     0.00     8.00     0.27    0.92    0.92    0.00   0.92  26.60
md0               0.00     0.00  846.00    0.00  3384.00     0.00     8.00     0.00    0.00    0.00    0.00   0.00   0.00

avg-cpu:  %user   %nice %system %iowait  %steal   %idle
           3.13    0.00    0.03    0.47    0.00   96.37

Device:         rrqm/s   wrqm/s     r/s     w/s    rkB/s    wkB/s avgrq-sz avgqu-sz   await r_await w_await  svctm  %util
nvme0n1           0.00     0.00    0.00    0.00     0.00     0.00     0.00     0.00    0.00    0.00    0.00   0.00   0.00
sda               0.00     0.00    0.00    0.00     0.00     0.00     0.00     0.00    0.00    0.00    0.00   0.00   0.00
sdc               0.00     0.00  315.00    0.00  1260.00     0.00     8.00     0.47    1.50    1.50    0.00   1.49  47.00
sdb               0.00     0.00  280.00    0.00  1120.00     0.00     8.00     0.24    0.85    0.85    0.00   0.86  24.00
sdd               0.00     0.00  274.00    0.00  1096.00     0.00     8.00     0.27    0.98    0.98    0.00   0.98  26.90
md0               0.00     0.00  869.00    0.00  3476.00     0.00     8.00     0.00    0.00    0.00    0.00   0.00   0.00

avg-cpu:  %user   %nice %system %iowait  %steal   %idle
           3.13    0.00    0.06    0.34    0.00   96.47

Device:         rrqm/s   wrqm/s     r/s     w/s    rkB/s    wkB/s avgrq-sz avgqu-sz   await r_await w_await  svctm  %util
nvme0n1           0.00     0.00    0.00    0.00     0.00     0.00     0.00     0.00    0.00    0.00    0.00   0.00   0.00
sda               0.00     6.00    0.00    2.00     0.00    32.00    32.00     0.00    0.00    0.00    0.00   0.00   0.00
sdc               0.00     0.00  278.00    0.00  1112.00     0.00     8.00     0.28    1.03    1.03    0.00   1.03  28.50
sdb               0.00     0.00  256.00    0.00  1024.00     0.00     8.00     0.37    1.45    1.45    0.00   1.44  36.80
sdd               0.00     0.00  272.00    0.00  1088.00     0.00     8.00     0.33    1.20    1.20    0.00   1.20  32.70
md0               0.00     0.00  806.00    0.00  3224.00     0.00     8.00     0.00    0.00    0.00    0.00   0.00   0.00

avg-cpu:  %user   %nice %system %iowait  %steal   %idle
           3.12    0.00    0.06    0.91    0.00   95.91

Device:         rrqm/s   wrqm/s     r/s     w/s    rkB/s    wkB/s avgrq-sz avgqu-sz   await r_await w_await  svctm  %util
nvme0n1           0.00     0.00    0.00    0.00     0.00     0.00     0.00     0.00    0.00    0.00    0.00   0.00   0.00
sda               0.00     0.00    0.00    0.00     0.00     0.00     0.00     0.00    0.00    0.00    0.00   0.00   0.00
sdc               0.00     0.00  268.00    0.00  1072.00     0.00     8.00     0.36    1.33    1.33    0.00   1.34  35.80
sdb               0.00     0.00  290.00    0.00  1160.00     0.00     8.00     0.41    1.42    1.42    0.00   1.42  41.30
sdd               0.00     0.00  285.00    0.00  1140.00     0.00     8.00     0.21    0.75    0.75    0.00   0.74  21.20
md0               0.00     0.00  843.00    0.00  3372.00     0.00     8.00     0.00    0.00    0.00    0.00   0.00   0.00

avg-cpu:  %user   %nice %system %iowait  %steal   %idle
           3.10    0.00    0.06    0.81    0.00   96.03

Device:         rrqm/s   wrqm/s     r/s     w/s    rkB/s    wkB/s avgrq-sz avgqu-sz   await r_await w_await  svctm  %util
nvme0n1           0.00     0.00    0.00    0.00     0.00     0.00     0.00     0.00    0.00    0.00    0.00   0.00   0.00
sda               0.00     0.00    0.00    0.00     0.00     0.00     0.00     0.00    0.00    0.00    0.00   0.00   0.00
sdc               0.00     0.00  285.00    0.00  1140.00     0.00     8.00     0.35    1.25    1.25    0.00   1.25  35.50
sdb               0.00     0.00  275.00    0.00  1100.00     0.00     8.00     0.25    0.90    0.90    0.00   0.90  24.70
sdd               0.00     0.00  268.00    0.00  1072.00     0.00     8.00     0.37    1.37    1.37    0.00   1.37  36.70
md0               0.00     0.00  828.00    0.00  3312.00     0.00     8.00     0.00    0.00    0.00    0.00   0.00   0.00

avg-cpu:  %user   %nice %system %iowait  %steal   %idle
           3.13    0.00    0.03    0.53    0.00   96.31

Device:         rrqm/s   wrqm/s     r/s     w/s    rkB/s    wkB/s avgrq-sz avgqu-sz   await r_await w_await  svctm  %util
nvme0n1           0.00     0.00    0.00    0.00     0.00     0.00     0.00     0.00    0.00    0.00    0.00   0.00   0.00
sda               0.00     0.00    0.00    0.00     0.00     0.00     0.00     0.00    0.00    0.00    0.00   0.00   0.00
sdc               0.00     0.00  296.00    0.00  1184.00     0.00     8.00     0.39    1.30    1.30    0.00   1.30  38.60
sdb               0.00     0.00  300.00    0.00  1200.00     0.00     8.00     0.21    0.70    0.70    0.00   0.70  20.90
sdd               0.00     0.00  269.00    0.00  1076.00     0.00     8.00     0.39    1.43    1.43    0.00   1.43  38.50
md0               0.00     0.00  865.00    0.00  3460.00     0.00     8.00     0.00    0.00    0.00    0.00   0.00   0.00

avg-cpu:  %user   %nice %system %iowait  %steal   %idle
           3.13    0.00    0.06    0.41    0.00   96.41

Device:         rrqm/s   wrqm/s     r/s     w/s    rkB/s    wkB/s avgrq-sz avgqu-sz   await r_await w_await  svctm  %util
nvme0n1           0.00     0.00    0.00    0.00     0.00     0.00     0.00     0.00    0.00    0.00    0.00   0.00   0.00
sda               0.00     0.00    0.00    0.00     0.00     0.00     0.00     0.00    0.00    0.00    0.00   0.00   0.00
sdc               0.00     0.00  281.00    0.00  1124.00     0.00     8.00     0.41    1.45    1.45    0.00   1.45  40.70
sdb               0.00     0.00  255.00    0.00  1020.00     0.00     8.00     0.18    0.71    0.71    0.00   0.71  18.00
sdd               0.00     0.00  306.00    0.00  1224.00     0.00     8.00     0.40    1.29    1.29    0.00   1.30  39.70
md0               0.00     0.00  842.00    0.00  3368.00     0.00     8.00     0.00    0.00    0.00    0.00   0.00   0.00

