Linux 4.17.2 (bench2) 	08/03/2018 	_x86_64_	(32 CPU)

avg-cpu:  %user   %nice %system %iowait  %steal   %idle
           1.91    0.00    1.56    1.56    0.00   94.97

Device:         rrqm/s   wrqm/s     r/s     w/s    rkB/s    wkB/s avgrq-sz avgqu-sz   await r_await w_await  svctm  %util
nvme0n1         942.39     5.12 18998.14  523.08 106267.68 11796.96    12.10     1.35    0.05    0.03    0.67   0.02  39.77
sda               0.12     0.81   14.15    0.58   163.94     8.52    23.42     0.00    0.33    0.32    0.44   0.07   0.10
sdc              33.73     0.18  115.17    0.31  1742.93    97.93    31.88     0.03    0.28   12.63  380.35   0.92  10.64
sdb              31.68     0.19  117.18    0.33  1741.02    97.75    31.30     0.47    3.99    2.83  411.64   0.86  10.11
sdd              33.93     0.17  114.71    0.26  1738.93    97.42    31.94     0.79    6.83    4.77  907.87   0.93  10.64
md0               0.00     0.00  449.25    1.22  6466.11   353.42    30.28     0.00    0.00    0.00    0.00   0.00   0.00

avg-cpu:  %user   %nice %system %iowait  %steal   %idle
           3.09    0.00    0.13    0.38    0.00   96.41

Device:         rrqm/s   wrqm/s     r/s     w/s    rkB/s    wkB/s avgrq-sz avgqu-sz   await r_await w_await  svctm  %util
nvme0n1           0.00     0.00    0.00    0.00     0.00     0.00     0.00     0.00    0.00    0.00    0.00   0.00   0.00
sda               0.00     0.00    4.00    0.00    56.00     0.00    28.00     0.00    0.00    0.00    0.00   0.00   0.00
sdc               0.00     0.00  286.00    0.00  1168.00     0.00     8.17     0.23    0.79    0.79    0.00   0.79  22.70
sdb               0.00     0.00  303.00    0.00  1212.00     0.00     8.00     0.32    1.07    1.07    0.00   1.07  32.40
sdd               0.00     0.00  326.00    0.00  1304.00     0.00     8.00     0.42    1.29    1.29    0.00   1.29  41.90
md0               0.00     0.00  916.00    0.00  3688.00     0.00     8.05     0.00    0.00    0.00    0.00   0.00   0.00

avg-cpu:  %user   %nice %system %iowait  %steal   %idle
           3.13    0.00    0.03    0.53    0.00   96.31

Device:         rrqm/s   wrqm/s     r/s     w/s    rkB/s    wkB/s avgrq-sz avgqu-sz   await r_await w_await  svctm  %util
nvme0n1           0.00     0.00    0.00    0.00     0.00     0.00     0.00     0.00    0.00    0.00    0.00   0.00   0.00
sda               0.00     0.00    0.00    0.00     0.00     0.00     0.00     0.00    0.00    0.00    0.00   0.00   0.00
sdc               0.00     0.00  306.00    0.00  1224.00     0.00     8.00     0.24    0.77    0.77    0.00   0.77  23.70
sdb               0.00     0.00  269.00    0.00  1076.00     0.00     8.00     0.38    1.38    1.38    0.00   1.40  37.60
sdd               0.00     0.00  244.00    0.00   976.00     0.00     8.00     0.37    1.52    1.52    0.00   1.52  37.00
md0               0.00     0.00  819.00    0.00  3276.00     0.00     8.00     0.00    0.00    0.00    0.00   0.00   0.00

avg-cpu:  %user   %nice %system %iowait  %steal   %idle
           3.10    0.00    0.06    0.53    0.00   96.31

Device:         rrqm/s   wrqm/s     r/s     w/s    rkB/s    wkB/s avgrq-sz avgqu-sz   await r_await w_await  svctm  %util
nvme0n1           0.00     0.00    0.00    0.00     0.00     0.00     0.00     0.00    0.00    0.00    0.00   0.00   0.00
sda               0.00     0.00    0.00    0.00     0.00     0.00     0.00     0.00    0.00    0.00    0.00   0.00   0.00
sdc               0.00     0.00  269.00    0.00  1076.00     0.00     8.00     0.30    1.12    1.12    0.00   1.12  30.00
sdb               0.00     0.00  300.00    0.00  1200.00     0.00     8.00     0.43    1.41    1.41    0.00   1.42  42.60
sdd               0.00     0.00  327.00    0.00  1308.00     0.00     8.00     0.25    0.77    0.77    0.00   0.77  25.30
md0               0.00     0.00  896.00    0.00  3584.00     0.00     8.00     0.00    0.00    0.00    0.00   0.00   0.00

avg-cpu:  %user   %nice %system %iowait  %steal   %idle
           3.13    0.00    0.06    0.41    0.00   96.40

Device:         rrqm/s   wrqm/s     r/s     w/s    rkB/s    wkB/s avgrq-sz avgqu-sz   await r_await w_await  svctm  %util
nvme0n1           0.00     0.00    0.00    0.00     0.00     0.00     0.00     0.00    0.00    0.00    0.00   0.00   0.00
sda               0.00     0.00    0.00    0.00     0.00     0.00     0.00     0.00    0.00    0.00    0.00   0.00   0.00
sdc               0.00     0.00  283.00    0.00  1132.00     0.00     8.00     0.24    0.85    0.85    0.00   0.86  24.20
sdb               0.00     0.00  329.00    0.00  1316.00     0.00     8.00     0.35    1.09    1.09    0.00   1.07  35.30
sdd               0.00     0.00  296.00    0.00  1184.00     0.00     8.00     0.37    1.26    1.26    0.00   1.26  37.30
md0               0.00     0.00  908.00    0.00  3632.00     0.00     8.00     0.00    0.00    0.00    0.00   0.00   0.00

avg-cpu:  %user   %nice %system %iowait  %steal   %idle
           3.13    0.00    0.09    0.41    0.00   96.37

Device:         rrqm/s   wrqm/s     r/s     w/s    rkB/s    wkB/s avgrq-sz avgqu-sz   await r_await w_await  svctm  %util
nvme0n1           0.00     0.00    0.00    0.00     0.00     0.00     0.00     0.00    0.00    0.00    0.00   0.00   0.00
sda               0.00     0.00    0.00    0.00     0.00     0.00     0.00     0.00    0.00    0.00    0.00   0.00   0.00
sdc               0.00     0.00  287.00    0.00  1148.00     0.00     8.00     0.36    1.27    1.27    0.00   1.26  36.20
sdb               0.00     0.00  291.00    0.00  1164.00     0.00     8.00     0.38    1.29    1.29    0.00   1.31  38.00
sdd               0.00     0.00  318.00    0.00  1272.00     0.00     8.00     0.24    0.75    0.75    0.00   0.75  23.70
md0               0.00     0.00  896.00    0.00  3584.00     0.00     8.00     0.00    0.00    0.00    0.00   0.00   0.00

avg-cpu:  %user   %nice %system %iowait  %steal   %idle
           3.13    0.00    0.06    0.38    0.00   96.44

Device:         rrqm/s   wrqm/s     r/s     w/s    rkB/s    wkB/s avgrq-sz avgqu-sz   await r_await w_await  svctm  %util
nvme0n1           0.00     0.00    0.00    0.00     0.00     0.00     0.00     0.00    0.00    0.00    0.00   0.00   0.00
sda               0.00    11.00    0.00    2.00     0.00    52.00    52.00     0.00    0.00    0.00    0.00   0.00   0.00
sdc               0.00     0.00  254.00    0.00  1016.00     0.00     8.00     0.51    2.00    2.00    0.00   2.00  50.90
sdb               0.00     0.00  237.00    0.00   948.00     0.00     8.00     0.17    0.73    0.73    0.00   0.70  16.60
sdd               0.00     0.00  259.00    0.00  1036.00     0.00     8.00     0.30    1.17    1.17    0.00   1.17  30.20
md0               0.00     0.00  750.00    0.00  3000.00     0.00     8.00     0.00    0.00    0.00    0.00   0.00   0.00

avg-cpu:  %user   %nice %system %iowait  %steal   %idle
           3.10    0.00    0.06    0.31    0.00   96.53

Device:         rrqm/s   wrqm/s     r/s     w/s    rkB/s    wkB/s avgrq-sz avgqu-sz   await r_await w_await  svctm  %util
nvme0n1           0.00     0.00    0.00    0.00     0.00     0.00     0.00     0.00    0.00    0.00    0.00   0.00   0.00
sda               0.00     0.00    0.00    0.00     0.00     0.00     0.00     0.00    0.00    0.00    0.00   0.00   0.00
sdc               0.00     0.00  293.00    0.00  1172.00     0.00     8.00     0.45    1.55    1.55    0.00   1.55  45.40
sdb               0.00     0.00  281.00    0.00  1124.00     0.00     8.00     0.13    0.45    0.45    0.00   0.45  12.70
sdd               0.00     0.00  282.00    0.00  1128.00     0.00     8.00     0.39    1.38    1.38    0.00   1.38  39.00
md0               0.00     0.00  856.00    0.00  3424.00     0.00     8.00     0.00    0.00    0.00    0.00   0.00   0.00

avg-cpu:  %user   %nice %system %iowait  %steal   %idle
           3.13    0.00    0.06    0.41    0.00   96.40

Device:         rrqm/s   wrqm/s     r/s     w/s    rkB/s    wkB/s avgrq-sz avgqu-sz   await r_await w_await  svctm  %util
nvme0n1           0.00     0.00    0.00    0.00     0.00     0.00     0.00     0.00    0.00    0.00    0.00   0.00   0.00
sda               0.00     0.00    0.00    0.00     0.00     0.00     0.00     0.00    0.00    0.00    0.00   0.00   0.00
sdc               0.00     0.00  253.00    0.00  1012.00     0.00     8.00     0.42    1.67    1.67    0.00   1.67  42.30
sdb               0.00     0.00  244.00    0.00   976.00     0.00     8.00     0.13    0.54    0.54    0.00   0.54  13.20
sdd               0.00     0.00  309.00    0.00  1236.00     0.00     8.00     0.42    1.35    1.35    0.00   1.37  42.30
md0               0.00     0.00  806.00    0.00  3224.00     0.00     8.00     0.00    0.00    0.00    0.00   0.00   0.00

avg-cpu:  %user   %nice %system %iowait  %steal   %idle
           3.13    0.00    0.09    0.28    0.00   96.50

Device:         rrqm/s   wrqm/s     r/s     w/s    rkB/s    wkB/s avgrq-sz avgqu-sz   await r_await w_await  svctm  %util
nvme0n1           0.00     0.00    0.00    0.00     0.00     0.00     0.00     0.00    0.00    0.00    0.00   0.00   0.00
sda               0.00     0.00    0.00    0.00     0.00     0.00     0.00     0.00    0.00    0.00    0.00   0.00   0.00
sdc               0.00     0.00  244.00    0.00   976.00     0.00     8.00     0.19    0.78    0.78    0.00   0.78  19.10
sdb               0.00     0.00  328.00    0.00  1312.00     0.00     8.00     0.27    0.81    0.81    0.00   0.81  26.70
sdd               0.00     0.00  316.00    0.00  1264.00     0.00     8.00     0.51    1.63    1.63    0.00   1.61  50.80
md0               0.00     0.00  888.00    0.00  3552.00     0.00     8.00     0.00    0.00    0.00    0.00   0.00   0.00

avg-cpu:  %user   %nice %system %iowait  %steal   %idle
           3.10    0.00    0.06    0.84    0.00   96.00

Device:         rrqm/s   wrqm/s     r/s     w/s    rkB/s    wkB/s avgrq-sz avgqu-sz   await r_await w_await  svctm  %util
nvme0n1           0.00     0.00    0.00    0.00     0.00     0.00     0.00     0.00    0.00    0.00    0.00   0.00   0.00
sda               0.00     0.00    0.00    0.00     0.00     0.00     0.00     0.00    0.00    0.00    0.00   0.00   0.00
sdc               0.00     0.00  249.00    0.00   996.00     0.00     8.00     0.37    1.49    1.49    0.00   1.48  36.80
sdb               0.00     0.00  258.00    0.00  1032.00     0.00     8.00     0.28    1.08    1.08    0.00   1.08  27.90
sdd               0.00     0.00  263.00    0.00  1052.00     0.00     8.00     0.33    1.27    1.27    0.00   1.27  33.30
md0               0.00     0.00  770.00    0.00  3080.00     0.00     8.00     0.00    0.00    0.00    0.00   0.00   0.00

avg-cpu:  %user   %nice %system %iowait  %steal   %idle
           3.13    0.00    0.06    3.03    0.00   93.78

Device:         rrqm/s   wrqm/s     r/s     w/s    rkB/s    wkB/s avgrq-sz avgqu-sz   await r_await w_await  svctm  %util
nvme0n1           0.00     0.00    0.00    0.00     0.00     0.00     0.00     0.00    0.00    0.00    0.00   0.00   0.00
sda               0.00     1.00    0.00    2.00     0.00    12.00    12.00     0.00    0.00    0.00    0.00   0.00   0.00
sdc               0.00     0.00  277.00    0.00  1108.00     0.00     8.00     0.30    1.10    1.10    0.00   1.10  30.50
sdb               0.00     0.00  281.00    0.00  1124.00     0.00     8.00     0.29    1.05    1.05    0.00   1.05  29.50
sdd               0.00     0.00  311.00    0.00  1244.00     0.00     8.00     0.39    1.24    1.24    0.00   1.24  38.50
md0               0.00     0.00  869.00    0.00  3476.00     0.00     8.00     0.00    0.00    0.00    0.00   0.00   0.00

avg-cpu:  %user   %nice %system %iowait  %steal   %idle
           3.13    0.00    0.06    3.03    0.00   93.78

Device:         rrqm/s   wrqm/s     r/s     w/s    rkB/s    wkB/s avgrq-sz avgqu-sz   await r_await w_await  svctm  %util
nvme0n1           0.00     0.00    0.00    0.00     0.00     0.00     0.00     0.00    0.00    0.00    0.00   0.00   0.00
sda               0.00     2.00    0.00    4.00     0.00    64.00    32.00     0.00    0.00    0.00    0.00   0.00   0.00
sdc               0.00     0.00  311.00    0.00  1244.00     0.00     8.00     0.39    1.24    1.24    0.00   1.24  38.50
sdb               0.00     0.00  354.00    0.00  1416.00     0.00     8.00     0.28    0.79    0.79    0.00   0.79  28.00
sdd               0.00     0.00  288.00    0.00  1152.00     0.00     8.00     0.32    1.10    1.10    0.00   1.10  31.70
md0               0.00     0.00  953.00    0.00  3812.00     0.00     8.00     0.00    0.00    0.00    0.00   0.00   0.00

avg-cpu:  %user   %nice %system %iowait  %steal   %idle
           3.13    0.00    0.03    3.04    0.00   93.80

Device:         rrqm/s   wrqm/s     r/s     w/s    rkB/s    wkB/s avgrq-sz avgqu-sz   await r_await w_await  svctm  %util
nvme0n1           0.00     0.00    0.00    0.00     0.00     0.00     0.00     0.00    0.00    0.00    0.00   0.00   0.00
sda               0.00     0.00    0.00    0.00     0.00     0.00     0.00     0.00    0.00    0.00    0.00   0.00   0.00
sdc               0.00     0.00  289.00    0.00  1156.00     0.00     8.00     0.18    0.61    0.61    0.00   0.61  17.70
sdb               0.00     0.00  285.00    0.00  1140.00     0.00     8.00     0.40    1.40    1.40    0.00   1.39  39.70
sdd               0.00     0.00  296.00    0.00  1184.00     0.00     8.00     0.41    1.38    1.38    0.00   1.39  41.10
md0               0.00     0.00  870.00    0.00  3480.00     0.00     8.00     0.00    0.00    0.00    0.00   0.00   0.00

avg-cpu:  %user   %nice %system %iowait  %steal   %idle
           3.13    0.00    0.06    3.03    0.00   93.78

Device:         rrqm/s   wrqm/s     r/s     w/s    rkB/s    wkB/s avgrq-sz avgqu-sz   await r_await w_await  svctm  %util
nvme0n1           0.00     0.00    0.00    0.00     0.00     0.00     0.00     0.00    0.00    0.00    0.00   0.00   0.00
sda               0.00     0.00    0.00    0.00     0.00     0.00     0.00     0.00    0.00    0.00    0.00   0.00   0.00
sdc               0.00     0.00  292.00    0.00  1168.00     0.00     8.00     0.29    1.00    1.00    0.00   1.00  29.20
sdb               0.00     0.00  282.00    0.00  1128.00     0.00     8.00     0.40    1.42    1.42    0.00   1.42  40.00
sdd               0.00     0.00  357.00    0.00  1428.00     0.00     8.00     0.29    0.80    0.80    0.00   0.83  29.50
md0               0.00     0.00  931.00    0.00  3724.00     0.00     8.00     0.00    0.00    0.00    0.00   0.00   0.00

avg-cpu:  %user   %nice %system %iowait  %steal   %idle
           3.10    0.00    0.06    3.03    0.00   93.81

Device:         rrqm/s   wrqm/s     r/s     w/s    rkB/s    wkB/s avgrq-sz avgqu-sz   await r_await w_await  svctm  %util
nvme0n1           0.00     0.00    0.00    0.00     0.00     0.00     0.00     0.00    0.00    0.00    0.00   0.00   0.00
sda               0.00     0.00    0.00    0.00     0.00     0.00     0.00     0.00    0.00    0.00    0.00   0.00   0.00
sdc               0.00     0.00  258.00    0.00  1032.00     0.00     8.00     0.34    1.32    1.32    0.00   1.32  34.00
sdb               0.00     0.00  258.00    0.00  1032.00     0.00     8.00     0.35    1.35    1.35    0.00   1.36  35.00
sdd               0.00     0.00  274.00    0.00  1096.00     0.00     8.00     0.30    1.13    1.13    0.00   1.08  29.70
md0               0.00     0.00  790.00    0.00  3160.00     0.00     8.00     0.00    0.00    0.00    0.00   0.00   0.00

avg-cpu:  %user   %nice %system %iowait  %steal   %idle
           3.13    0.00    0.03    3.07    0.00   93.78

Device:         rrqm/s   wrqm/s     r/s     w/s    rkB/s    wkB/s avgrq-sz avgqu-sz   await r_await w_await  svctm  %util
nvme0n1           0.00     0.00    0.00    0.00     0.00     0.00     0.00     0.00    0.00    0.00    0.00   0.00   0.00
sda               0.00     6.00    0.00    2.00     0.00    32.00    32.00     0.00    0.00    0.00    0.00   0.00   0.00
sdc               0.00     0.00  278.00    0.00  1112.00     0.00     8.00     0.33    1.19    1.19    0.00   1.19  33.10
sdb               0.00     0.00  270.00    0.00  1080.00     0.00     8.00     0.22    0.84    0.84    0.00   0.83  22.40
sdd               0.00     0.00  263.00    0.00  1052.00     0.00     8.00     0.42    1.61    1.61    0.00   1.61  42.40
md0               0.00     0.00  811.00    0.00  3244.00     0.00     8.00     0.00    0.00    0.00    0.00   0.00   0.00

avg-cpu:  %user   %nice %system %iowait  %steal   %idle
           3.13    0.00    0.09    3.03    0.00   93.75

Device:         rrqm/s   wrqm/s     r/s     w/s    rkB/s    wkB/s avgrq-sz avgqu-sz   await r_await w_await  svctm  %util
nvme0n1           0.00     0.00    0.00    0.00     0.00     0.00     0.00     0.00    0.00    0.00    0.00   0.00   0.00
sda               0.00     0.00    0.00    0.00     0.00     0.00     0.00     0.00    0.00    0.00    0.00   0.00   0.00
sdc               0.00     0.00  300.00    0.00  1200.00     0.00     8.00     0.35    1.15    1.15    0.00   1.15  34.60
sdb               0.00     0.00  337.00    0.00  1348.00     0.00     8.00     0.43    1.29    1.29    0.00   1.29  43.40
sdd               0.00     0.00  287.00    0.00  1148.00     0.00     8.00     0.20    0.70    0.70    0.00   0.69  19.90
md0               0.00     0.00  924.00    0.00  3696.00     0.00     8.00     0.00    0.00    0.00    0.00   0.00   0.00

avg-cpu:  %user   %nice %system %iowait  %steal   %idle
           3.13    0.00    0.06    3.03    0.00   93.78

Device:         rrqm/s   wrqm/s     r/s     w/s    rkB/s    wkB/s avgrq-sz avgqu-sz   await r_await w_await  svctm  %util
nvme0n1           0.00     0.00    0.00    0.00     0.00     0.00     0.00     0.00    0.00    0.00    0.00   0.00   0.00
sda               0.00     0.00    0.00    0.00     0.00     0.00     0.00     0.00    0.00    0.00    0.00   0.00   0.00
sdc               0.00     0.00  308.00    0.00  1232.00     0.00     8.00     0.25    0.81    0.81    0.00   0.81  24.80
sdb               0.00     0.00  300.00    0.00  1200.00     0.00     8.00     0.38    1.25    1.25    0.00   1.26  37.70
sdd               0.00     0.00  313.00    0.00  1252.00     0.00     8.00     0.36    1.14    1.14    0.00   1.14  35.60
md0               0.00     0.00  921.00    0.00  3684.00     0.00     8.00     0.00    0.00    0.00    0.00   0.00   0.00

avg-cpu:  %user   %nice %system %iowait  %steal   %idle
           3.13    0.00    0.09    3.03    0.00   93.75

Device:         rrqm/s   wrqm/s     r/s     w/s    rkB/s    wkB/s avgrq-sz avgqu-sz   await r_await w_await  svctm  %util
nvme0n1           0.00     0.00    0.00    0.00     0.00     0.00     0.00     0.00    0.00    0.00    0.00   0.00   0.00
sda               0.00     0.00    0.00    0.00     0.00     0.00     0.00     0.00    0.00    0.00    0.00   0.00   0.00
sdc               0.00     0.00  300.00    0.00  1200.00     0.00     8.00     0.34    1.15    1.15    0.00   1.15  34.50
sdb               0.00     0.00  301.00    0.00  1204.00     0.00     8.00     0.41    1.37    1.37    0.00   1.36  41.00
sdd               0.00     0.00  269.00    0.00  1076.00     0.00     8.00     0.23    0.86    0.86    0.00   0.86  23.20
md0               0.00     0.00  870.00    0.00  3480.00     0.00     8.00     0.00    0.00    0.00    0.00   0.00   0.00

avg-cpu:  %user   %nice %system %iowait  %steal   %idle
           3.10    0.00    0.03    3.04    0.00   93.84

Device:         rrqm/s   wrqm/s     r/s     w/s    rkB/s    wkB/s avgrq-sz avgqu-sz   await r_await w_await  svctm  %util
nvme0n1           0.00     0.00    0.00    0.00     0.00     0.00     0.00     0.00    0.00    0.00    0.00   0.00   0.00
sda               0.00     0.00    0.00    0.00     0.00     0.00     0.00     0.00    0.00    0.00    0.00   0.00   0.00
sdc               0.00     0.00  311.00    0.00  1244.00     0.00     8.00     0.43    1.38    1.38    0.00   1.38  43.00
sdb               0.00     0.00  303.00    0.00  1212.00     0.00     8.00     0.31    1.03    1.03    0.00   1.03  31.30
sdd               0.00     0.00  278.00    0.00  1112.00     0.00     8.00     0.25    0.89    0.89    0.00   0.89  24.70
md0               0.00     0.00  892.00    0.00  3568.00     0.00     8.00     0.00    0.00    0.00    0.00   0.00   0.00

