Linux 4.17.2 (bench2) 	08/03/2018 	_x86_64_	(32 CPU)

avg-cpu:  %user   %nice %system %iowait  %steal   %idle
           1.91    0.00    1.56    1.57    0.00   94.97

Device:         rrqm/s   wrqm/s     r/s     w/s    rkB/s    wkB/s avgrq-sz avgqu-sz   await r_await w_await  svctm  %util
nvme0n1         940.39     5.11 18957.98  521.97 106043.02 11772.02    12.10     1.35    0.05    0.03    0.67   0.02  39.69
sda               0.12     0.81   14.15    0.58   163.97     8.52    23.42     0.00    0.33    0.32    0.44   0.07   0.10
sdc              33.86     0.18  116.76    0.31  1752.52    97.72    31.61     0.04    0.34   12.50  380.35   0.92  10.72
sdb              31.82     0.19  118.76    0.33  1750.58    97.54    31.04     0.47    3.98    2.84  411.64   0.86  10.18
sdd              34.06     0.17  116.30    0.26  1748.52    97.22    31.67     0.79    6.78    4.75  907.87   0.92  10.72
md0               0.00     0.00  454.40    1.21  6498.27   352.67    30.07     0.00    0.00    0.00    0.00   0.00   0.00

avg-cpu:  %user   %nice %system %iowait  %steal   %idle
           3.05    0.00    0.38    2.65    0.00   93.92

Device:         rrqm/s   wrqm/s     r/s     w/s    rkB/s    wkB/s avgrq-sz avgqu-sz   await r_await w_await  svctm  %util
nvme0n1           0.00     0.00    0.00    0.00     0.00     0.00     0.00     0.00    0.00    0.00    0.00   0.00   0.00
sda               0.00     1.35    3.80    1.15    26.80    10.80    15.19     0.00    0.03    0.04    0.00   0.03   0.01
sdc               9.30     0.00 1535.55    0.00 19215.40     0.00    25.03     0.56    0.36    0.36    0.00   0.23  35.99
sdb               8.50     0.00 1524.15    0.00 19150.80     0.00    25.13     0.55    0.36    0.36    0.00   0.18  27.71
sdd               8.70     0.00 1533.15    0.00 19066.20     0.00    24.87     0.65    0.43    0.43    0.00   0.24  36.56
md0               0.00     0.00 4619.60    0.00 68694.40     0.00    29.74     0.00    0.00    0.00    0.00   0.00   0.00

