Linux 4.17.2 (bench2) 	08/03/2018 	_x86_64_	(32 CPU)

avg-cpu:  %user   %nice %system %iowait  %steal   %idle
           1.91    0.00    1.56    1.56    0.00   94.97

Device:         rrqm/s   wrqm/s     r/s     w/s    rkB/s    wkB/s avgrq-sz avgqu-sz   await r_await w_await  svctm  %util
nvme0n1         943.15     5.12 19013.42  523.50 106353.15 11806.45    12.10     1.35    0.05    0.03    0.67   0.02  39.80
sda               0.12     0.81   14.15    0.58   163.94     8.52    23.42     0.00    0.33    0.32    0.44   0.07   0.10
sdc              33.49     0.18  114.75    0.31  1731.71    98.01    31.80     0.02    0.18   12.59  380.35   0.92  10.60
sdb              31.44     0.19  116.76    0.33  1729.79    97.83    31.22     0.46    3.91    2.75  411.64   0.86  10.08
sdd              33.69     0.17  114.29    0.26  1727.70    97.50    31.87     0.77    6.76    4.69  907.87   0.93  10.60
md0               0.00     0.00  447.27    1.22  6422.00   353.70    30.22     0.00    0.00    0.00    0.00   0.00   0.00

avg-cpu:  %user   %nice %system %iowait  %steal   %idle
           3.12    0.00    0.04    3.07    0.00   93.77

Device:         rrqm/s   wrqm/s     r/s     w/s    rkB/s    wkB/s avgrq-sz avgqu-sz   await r_await w_await  svctm  %util
nvme0n1           0.00     0.00    0.00    0.00     0.00     0.00     0.00     0.00    0.00    0.00    0.00   0.00   0.00
sda               0.00     1.20    0.05    0.55     0.20     7.80    26.67     0.00    0.33    4.00    0.00   0.33   0.02
sdc               0.20     0.00  202.30    0.00  3038.40     0.00    30.04     0.36    1.80    1.80    0.00   1.75  35.42
sdb               0.25     0.00  201.20    0.00  3001.00     0.00    29.83     0.32    1.59    1.59    0.00   1.56  31.34
sdd               0.10     0.00  204.75    0.00  3239.20     0.00    31.64     0.36    1.77    1.77    0.00   1.72  35.15
md0               0.00     0.00  608.85    0.00 10124.80     0.00    33.26     0.00    0.00    0.00    0.00   0.00   0.00

