Linux 4.17.2 (bench2) 	08/03/2018 	_x86_64_	(32 CPU)

avg-cpu:  %user   %nice %system %iowait  %steal   %idle
           1.91    0.00    1.56    1.56    0.00   94.97

Device:         rrqm/s   wrqm/s     r/s     w/s    rkB/s    wkB/s avgrq-sz avgqu-sz   await r_await w_await  svctm  %util
nvme0n1         942.77     5.12 19005.95  523.29 106311.34 11801.81    12.10     1.35    0.05    0.03    0.67   0.02  39.79
sda               0.12     0.81   14.15    0.58   163.94     8.52    23.42     0.00    0.33    0.32    0.44   0.07   0.10
sdc              33.56     0.18  114.95    0.31  1736.66    97.97    31.83     0.03    0.26   12.64  380.35   0.92  10.62
sdb              31.51     0.19  116.96    0.33  1734.74    97.79    31.25     0.47    3.98    2.82  411.64   0.86  10.10
sdd              33.75     0.17  114.49    0.26  1732.65    97.46    31.90     0.78    6.82    4.76  907.87   0.93  10.63
md0               0.00     0.00  448.08    1.22  6440.74   353.56    30.24     0.00    0.00    0.00    0.00   0.00   0.00

avg-cpu:  %user   %nice %system %iowait  %steal   %idle
           3.03    0.00    0.38    2.75    0.00   93.84

Device:         rrqm/s   wrqm/s     r/s     w/s    rkB/s    wkB/s avgrq-sz avgqu-sz   await r_await w_await  svctm  %util
nvme0n1           0.00     0.00    0.00    0.00     0.00     0.00     0.00     0.00    0.00    0.00    0.00   0.00   0.00
sda               0.00     0.00    1.00    0.00     8.00     0.00    16.00     0.00    0.00    0.00    0.00   0.00   0.00
sdc              68.00     0.00  799.00    0.00 54052.00     0.00   135.30     0.53    0.66    0.66    0.00   0.50  40.20
sdb              66.00     0.00  753.00    0.00 54444.00     0.00   144.61     0.54    0.71    0.71    0.00   0.52  38.80
sdd              73.00     0.00  764.00    0.00 55556.00     0.00   145.43     0.91    1.19    1.19    0.00   0.77  59.20
md0               0.00     0.00 2524.00    0.00 226432.00     0.00   179.42     0.00    0.00    0.00    0.00   0.00   0.00

avg-cpu:  %user   %nice %system %iowait  %steal   %idle
           3.00    0.00    0.44    2.69    0.00   93.88

Device:         rrqm/s   wrqm/s     r/s     w/s    rkB/s    wkB/s avgrq-sz avgqu-sz   await r_await w_await  svctm  %util
nvme0n1           0.00     0.00    0.00    0.00     0.00     0.00     0.00     0.00    0.00    0.00    0.00   0.00   0.00
sda               0.00     0.00    0.00    0.00     0.00     0.00     0.00     0.00    0.00    0.00    0.00   0.00   0.00
sdc              52.00     0.00 1163.00    0.00 48964.00     0.00    84.20     0.48    0.41    0.41    0.00   0.33  37.90
sdb              54.00     0.00 1049.00    0.00 53500.00     0.00   102.00     0.59    0.56    0.56    0.00   0.43  45.20
sdd              54.00     0.00 1088.00    0.00 52248.00     0.00    96.04     0.52    0.48    0.48    0.00   0.39  42.80
md0               0.00     0.00 3462.00    0.00 214532.00     0.00   123.94     0.00    0.00    0.00    0.00   0.00   0.00

avg-cpu:  %user   %nice %system %iowait  %steal   %idle
           3.03    0.00    0.34    2.72    0.00   93.90

Device:         rrqm/s   wrqm/s     r/s     w/s    rkB/s    wkB/s avgrq-sz avgqu-sz   await r_await w_await  svctm  %util
nvme0n1           0.00     0.00    0.00    0.00     0.00     0.00     0.00     0.00    0.00    0.00    0.00   0.00   0.00
sda               0.00     0.00    0.00    0.00     0.00     0.00     0.00     0.00    0.00    0.00    0.00   0.00   0.00
sdc              57.00     0.00 1003.00    0.00 57128.00     0.00   113.91     0.54    0.54    0.54    0.00   0.41  41.60
sdb              55.00     0.00 1006.00    0.00 56080.00     0.00   111.49     0.54    0.54    0.54    0.00   0.42  42.10
sdd              64.00     0.00 1002.00    0.00 56204.00     0.00   112.18     0.65    0.65    0.65    0.00   0.49  49.40
md0               0.00     0.00 3185.00    0.00 222304.00     0.00   139.59     0.00    0.00    0.00    0.00   0.00   0.00

