Linux 4.17.2 (bench2) 	08/03/2018 	_x86_64_	(32 CPU)

avg-cpu:  %user   %nice %system %iowait  %steal   %idle
           1.91    0.00    1.57    1.54    0.00   94.98

Device:         rrqm/s   wrqm/s     r/s     w/s    rkB/s    wkB/s avgrq-sz avgqu-sz   await r_await w_await  svctm  %util
nvme0n1         946.62     5.14 19083.50  525.43 106745.12 11849.96    12.10     1.36    0.05    0.03    0.67   0.02  39.95
sda               0.12     0.81   14.14    0.58   163.94     8.51    23.43     0.00    0.33    0.32    0.45   0.07   0.10
sdc              33.40     0.18  112.45    0.31  1696.21    98.37    31.83     1.55   13.71   12.68  380.35   0.93  10.45
sdb              31.34     0.19  114.46    0.33  1694.31    98.19    31.23     0.44    3.81    2.61  411.64   0.86   9.93
sdd              33.59     0.17  111.99    0.26  1692.22    97.86    31.89     0.75    6.72    4.60  907.87   0.93  10.45
md0               0.00     0.00  440.08    1.22  6283.17   355.01    30.08     0.00    0.00    0.00    0.00   0.00   0.00

avg-cpu:  %user   %nice %system %iowait  %steal   %idle
           3.09    0.00    0.26    2.84    0.00   93.81

Device:         rrqm/s   wrqm/s     r/s     w/s    rkB/s    wkB/s avgrq-sz avgqu-sz   await r_await w_await  svctm  %util
nvme0n1           0.00     0.00    0.00    0.00     0.00     0.00     0.00     0.00    0.00    0.00    0.00   0.00   0.00
sda               0.00     1.20    0.25    0.45     3.00     7.40    29.71     0.00    0.07    0.20    0.00   0.07   0.01
sdc               0.00     0.00 2045.05    0.00  8180.80     0.00     8.00     0.32    0.16    0.16    0.00   0.16  32.22
sdb               0.00     0.00 2016.40    0.00  8065.60     0.00     8.00     0.31    0.16    0.16    0.00   0.16  31.30
sdd               0.00     0.00 1964.60    0.00  7858.40     0.00     8.00     0.31    0.16    0.16    0.00   0.16  30.79
md0               0.00     0.00 6026.15    0.00 24105.20     0.00     8.00     0.00    0.00    0.00    0.00   0.00   0.00

