Linux 4.17.2 (bench2) 	08/04/2018 	_x86_64_	(32 CPU)

avg-cpu:  %user   %nice %system %iowait  %steal   %idle
           1.90    0.00    1.55    1.60    0.00   94.96

Device:         rrqm/s   wrqm/s     r/s     w/s    rkB/s    wkB/s avgrq-sz avgqu-sz   await r_await w_await  svctm  %util
nvme0n1         933.23     5.07 18813.48  517.99 105234.76 11682.30    12.10     1.34    0.05    0.03    0.67   0.02  39.38
sda               0.12     0.82   14.17    0.58   164.01     8.56    23.40     0.00    0.33    0.32    0.44   0.07   0.10
sdc              34.51     0.17  121.42    0.31  1836.21    96.97    31.76     0.10    0.85   12.45  380.35   0.91  11.05
sdb              32.49     0.19  123.40    0.33  1834.26    96.80    31.21     0.53    4.30    3.21  411.64   0.85  10.50
sdd              34.71     0.17  120.96    0.26  1832.26    96.47    31.82     0.85    6.98    5.05  907.87   0.91  11.05
md0               0.00     0.00  470.33    1.20  6827.07   349.98    30.44     0.00    0.00    0.00    0.00   0.00   0.00

avg-cpu:  %user   %nice %system %iowait  %steal   %idle
           2.32    0.00    1.41    1.56    0.00   94.71

Device:         rrqm/s   wrqm/s     r/s     w/s    rkB/s    wkB/s avgrq-sz avgqu-sz   await r_await w_await  svctm  %util
nvme0n1           0.00     0.00    0.00    0.00     0.00     0.00     0.00     0.00    0.00    0.00    0.00   0.00   0.00
sda               0.00     0.00    4.00    0.00   104.00     0.00    52.00     0.00    0.00    0.00    0.00   0.00   0.00
sdc              33.00     0.00   76.00    0.00 17016.00     0.00   447.79     0.66    8.37    8.37    0.00   4.80  36.50
sdb              34.00     0.00   69.00    0.00 18500.00     0.00   536.23     0.64    9.49    9.49    0.00   5.42  37.40
sdd              32.00     0.00   77.00    0.00 17344.00     0.00   450.49     0.83   10.73   10.73    0.00   4.95  38.10
md0               0.00     0.00  321.00    0.00 61876.00     0.00   385.52     0.00    0.00    0.00    0.00   0.00   0.00

avg-cpu:  %user   %nice %system %iowait  %steal   %idle
           2.91    0.00    0.47    1.84    0.00   94.78

Device:         rrqm/s   wrqm/s     r/s     w/s    rkB/s    wkB/s avgrq-sz avgqu-sz   await r_await w_await  svctm  %util
nvme0n1           0.00     0.00    0.00    0.00     0.00     0.00     0.00     0.00    0.00    0.00    0.00   0.00   0.00
sda               0.00     0.00    0.00    0.00     0.00     0.00     0.00     0.00    0.00    0.00    0.00   0.00   0.00
sdc             136.00     0.00  148.00    0.00 70040.00     0.00   946.49     1.64   10.98   10.98    0.00   5.02  74.30
sdb             139.00     0.00  151.00    0.00 69820.00     0.00   924.77     1.78   11.70   11.70    0.00   5.03  76.00
sdd             142.00     0.00  139.00    0.00 69064.00     0.00   993.73     1.62   11.42   11.42    0.00   5.50  76.50
md0               0.00     0.00  862.00    0.00 336636.00     0.00   781.06     0.00    0.00    0.00    0.00   0.00   0.00

avg-cpu:  %user   %nice %system %iowait  %steal   %idle
           2.94    0.00    0.38    0.75    0.00   95.93

Device:         rrqm/s   wrqm/s     r/s     w/s    rkB/s    wkB/s avgrq-sz avgqu-sz   await r_await w_await  svctm  %util
nvme0n1           0.00     0.00    0.00    0.00     0.00     0.00     0.00     0.00    0.00    0.00    0.00   0.00   0.00
sda               0.00     0.00    0.00    0.00     0.00     0.00     0.00     0.00    0.00    0.00    0.00   0.00   0.00
sdc             113.00     0.00  163.00    0.00 62092.00     0.00   761.87     1.33    8.33    8.33    0.00   4.42  72.10
sdb             109.00     0.00  165.00    0.00 61464.00     0.00   745.02     1.22    7.34    7.34    0.00   3.77  62.20
sdd             111.00     0.00  171.00    0.00 63084.00     0.00   737.82     1.46    8.69    8.69    0.00   4.04  69.00
md0               0.00     0.00  835.00    0.00 261176.00     0.00   625.57     0.00    0.00    0.00    0.00   0.00   0.00

avg-cpu:  %user   %nice %system %iowait  %steal   %idle
           2.88    0.00    0.44    0.63    0.00   96.06

Device:         rrqm/s   wrqm/s     r/s     w/s    rkB/s    wkB/s avgrq-sz avgqu-sz   await r_await w_await  svctm  %util
nvme0n1           0.00     0.00    0.00    0.00     0.00     0.00     0.00     0.00    0.00    0.00    0.00   0.00   0.00
sda               0.00     0.00    0.00    0.00     0.00     0.00     0.00     0.00    0.00    0.00    0.00   0.00   0.00
sdc             114.00     0.00  179.00    0.00 66528.00     0.00   743.33     1.61    9.09    9.09    0.00   3.98  71.20
sdb             123.00     0.00  170.00    0.00 66976.00     0.00   787.95     1.48    8.82    8.82    0.00   4.26  72.50
sdd             116.00     0.00  179.00    0.00 66004.00     0.00   737.47     1.17    6.61    6.61    0.00   3.36  60.20
md0               0.00     0.00  875.00    0.00 306452.00     0.00   700.46     0.00    0.00    0.00    0.00   0.00   0.00

avg-cpu:  %user   %nice %system %iowait  %steal   %idle
           2.88    0.00    0.47    1.03    0.00   95.62

Device:         rrqm/s   wrqm/s     r/s     w/s    rkB/s    wkB/s avgrq-sz avgqu-sz   await r_await w_await  svctm  %util
nvme0n1           0.00     0.00    0.00    0.00     0.00     0.00     0.00     0.00    0.00    0.00    0.00   0.00   0.00
sda               0.00     9.00    0.00    3.00     0.00    48.00    32.00     0.00    0.00    0.00    0.00   0.00   0.00
sdc             117.00     0.00  158.00    0.00 62936.00     0.00   796.66     1.36    8.25    8.25    0.00   4.26  67.30
sdb             115.00     0.00  177.00    0.00 64480.00     0.00   728.59     1.17    6.65    6.65    0.00   3.37  59.70
sdd             117.00     0.00  168.00    0.00 64416.00     0.00   766.86     1.40    8.36    8.36    0.00   3.83  64.40
md0               0.00     0.00  851.00    0.00 307212.00     0.00   722.00     0.00    0.00    0.00    0.00   0.00   0.00

avg-cpu:  %user   %nice %system %iowait  %steal   %idle
           2.94    0.00    0.44    0.28    0.00   96.34

Device:         rrqm/s   wrqm/s     r/s     w/s    rkB/s    wkB/s avgrq-sz avgqu-sz   await r_await w_await  svctm  %util
nvme0n1           0.00     0.00    0.00    0.00     0.00     0.00     0.00     0.00    0.00    0.00    0.00   0.00   0.00
sda               0.00     0.00    0.00    0.00     0.00     0.00     0.00     0.00    0.00    0.00    0.00   0.00   0.00
sdc             119.00     0.00  158.00    0.00 64304.00     0.00   813.97     1.64   10.61   10.61    0.00   4.69  74.10
sdb             113.00     0.00  156.00    0.00 64628.00     0.00   828.56     1.34    8.58    8.58    0.00   4.02  62.70
sdd             118.00     0.00  154.00    0.00 64748.00     0.00   840.88     1.03    6.71    6.71    0.00   3.49  53.70
md0               0.00     0.00  818.00    0.00 292316.00     0.00   714.71     0.00    0.00    0.00    0.00   0.00   0.00

avg-cpu:  %user   %nice %system %iowait  %steal   %idle
           2.94    0.00    0.38    0.50    0.00   96.18

Device:         rrqm/s   wrqm/s     r/s     w/s    rkB/s    wkB/s avgrq-sz avgqu-sz   await r_await w_await  svctm  %util
nvme0n1           0.00     0.00    0.00    0.00     0.00     0.00     0.00     0.00    0.00    0.00    0.00   0.00   0.00
sda               0.00     0.00    0.00    0.00     0.00     0.00     0.00     0.00    0.00    0.00    0.00   0.00   0.00
sdc             113.00     0.00  170.00    0.00 62324.00     0.00   733.22     1.30    7.62    7.62    0.00   4.34  73.80
sdb             108.00     0.00  172.00    0.00 60900.00     0.00   708.14     1.33    7.62    7.62    0.00   3.55  61.10
sdd             107.00     0.00  180.00    0.00 60824.00     0.00   675.82     1.20    6.58    6.58    0.00   3.31  59.50
md0               0.00     0.00  857.00    0.00 277112.00     0.00   646.70     0.00    0.00    0.00    0.00   0.00   0.00

avg-cpu:  %user   %nice %system %iowait  %steal   %idle
           2.91    0.00    0.44    0.28    0.00   96.37

Device:         rrqm/s   wrqm/s     r/s     w/s    rkB/s    wkB/s avgrq-sz avgqu-sz   await r_await w_await  svctm  %util
nvme0n1           0.00     0.00    0.00    0.00     0.00     0.00     0.00     0.00    0.00    0.00    0.00   0.00   0.00
sda               0.00     0.00    0.00    0.00     0.00     0.00     0.00     0.00    0.00    0.00    0.00   0.00   0.00
sdc             117.00     0.00  188.00    0.00 68976.00     0.00   733.79     1.25    6.72    6.72    0.00   3.39  63.70
sdb             122.00     0.00  188.00    0.00 68504.00     0.00   728.77     1.23    6.64    6.64    0.00   3.23  60.70
sdd             122.00     0.00  190.00    0.00 68040.00     0.00   716.21     1.38    7.27    7.27    0.00   3.53  67.10
md0               0.00     0.00  919.00    0.00 283304.00     0.00   616.55     0.00    0.00    0.00    0.00   0.00   0.00

avg-cpu:  %user   %nice %system %iowait  %steal   %idle
           2.88    0.00    0.50    0.31    0.00   96.31

Device:         rrqm/s   wrqm/s     r/s     w/s    rkB/s    wkB/s avgrq-sz avgqu-sz   await r_await w_await  svctm  %util
nvme0n1           0.00     0.00    0.00    0.00     0.00     0.00     0.00     0.00    0.00    0.00    0.00   0.00   0.00
sda               0.00     0.00    0.00    0.00     0.00     0.00     0.00     0.00    0.00    0.00    0.00   0.00   0.00
sdc             136.00     0.00  182.00    0.00 74852.00     0.00   822.55     1.25    6.90    6.90    0.00   3.46  63.00
sdb             138.00     0.00  189.00    0.00 74712.00     0.00   790.60     1.22    6.47    6.47    0.00   3.30  62.30
sdd             142.00     0.00  190.00    0.00 74676.00     0.00   786.06     1.83    9.58    9.58    0.00   4.28  81.30
md0               0.00     0.00  978.00    0.00 324224.00     0.00   663.03     0.00    0.00    0.00    0.00   0.00   0.00

avg-cpu:  %user   %nice %system %iowait  %steal   %idle
           2.85    0.00    0.50    0.31    0.00   96.34

Device:         rrqm/s   wrqm/s     r/s     w/s    rkB/s    wkB/s avgrq-sz avgqu-sz   await r_await w_await  svctm  %util
nvme0n1           0.00     0.00    0.00    0.00     0.00     0.00     0.00     0.00    0.00    0.00    0.00   0.00   0.00
sda               0.00     8.00    0.00   19.00     0.00   124.00    13.05     0.00    0.05    0.00    0.05   0.05   0.10
sdc             126.00     0.00  160.00    0.00 67132.00     0.00   839.15     1.81   11.11   11.11    0.00   4.81  77.00
sdb             124.00     0.00  172.00    0.00 67692.00     0.00   787.12     1.58    9.07    9.07    0.00   4.19  72.00
sdd             135.00     0.00  155.00    0.00 68204.00     0.00   880.05     1.42    9.24    9.24    0.00   4.66  72.30
md0               0.00     0.00  880.00    0.00 273784.00     0.00   622.24     0.00    0.00    0.00    0.00   0.00   0.00

avg-cpu:  %user   %nice %system %iowait  %steal   %idle
           2.88    0.00    0.44    0.50    0.00   96.18

Device:         rrqm/s   wrqm/s     r/s     w/s    rkB/s    wkB/s avgrq-sz avgqu-sz   await r_await w_await  svctm  %util
nvme0n1           0.00     0.00    0.00    0.00     0.00     0.00     0.00     0.00    0.00    0.00    0.00   0.00   0.00
sda               0.00     0.00    0.00    0.00     0.00     0.00     0.00     0.00    0.00    0.00    0.00   0.00   0.00
sdc             126.00     0.00  148.00    0.00 66912.00     0.00   904.22     1.26    8.72    8.72    0.00   4.45  65.80
sdb             127.00     0.00  155.00    0.00 65776.00     0.00   848.72     1.52    9.87    9.87    0.00   4.74  73.50
sdd             124.00     0.00  162.00    0.00 66408.00     0.00   819.85     1.67   10.36   10.36    0.00   4.69  76.00
md0               0.00     0.00  840.00    0.00 289084.00     0.00   688.30     0.00    0.00    0.00    0.00   0.00   0.00

avg-cpu:  %user   %nice %system %iowait  %steal   %idle
           2.82    0.00    0.47    0.28    0.00   96.43

Device:         rrqm/s   wrqm/s     r/s     w/s    rkB/s    wkB/s avgrq-sz avgqu-sz   await r_await w_await  svctm  %util
nvme0n1           0.00     0.00    0.00    0.00     0.00     0.00     0.00     0.00    0.00    0.00    0.00   0.00   0.00
sda               0.00     0.00    0.00    0.00     0.00     0.00     0.00     0.00    0.00    0.00    0.00   0.00   0.00
sdc             136.00     0.00  163.00    0.00 69296.00     0.00   850.26     1.42    8.63    8.63    0.00   4.12  67.20
sdb             134.00     0.00  161.00    0.00 69756.00     0.00   866.53     1.37    8.36    8.36    0.00   4.19  67.50
sdd             131.00     0.00  154.00    0.00 71108.00     0.00   923.48     1.48    9.68    9.68    0.00   4.45  68.50
md0               0.00     0.00  879.00    0.00 343284.00     0.00   781.08     0.00    0.00    0.00    0.00   0.00   0.00

avg-cpu:  %user   %nice %system %iowait  %steal   %idle
           2.85    0.00    0.50    0.41    0.00   96.25

Device:         rrqm/s   wrqm/s     r/s     w/s    rkB/s    wkB/s avgrq-sz avgqu-sz   await r_await w_await  svctm  %util
nvme0n1           0.00     0.00    0.00    0.00     0.00     0.00     0.00     0.00    0.00    0.00    0.00   0.00   0.00
sda               0.00     0.00    0.00    0.00     0.00     0.00     0.00     0.00    0.00    0.00    0.00   0.00   0.00
sdc             123.00     0.00  192.00    0.00 68032.00     0.00   708.67     1.61    8.48    8.48    0.00   3.92  75.30
sdb             121.00     0.00  166.00    0.00 67744.00     0.00   816.19     1.38    8.39    8.39    0.00   4.02  66.70
sdd             128.00     0.00  172.00    0.00 66424.00     0.00   772.37     1.19    6.80    6.80    0.00   3.51  60.30
md0               0.00     0.00  896.00    0.00 290424.00     0.00   648.27     0.00    0.00    0.00    0.00   0.00   0.00

avg-cpu:  %user   %nice %system %iowait  %steal   %idle
           2.85    0.00    0.53    0.41    0.00   96.22

Device:         rrqm/s   wrqm/s     r/s     w/s    rkB/s    wkB/s avgrq-sz avgqu-sz   await r_await w_await  svctm  %util
nvme0n1           0.00     0.00    0.00    0.00     0.00     0.00     0.00     0.00    0.00    0.00    0.00   0.00   0.00
sda               0.00     0.00    0.00    0.00     0.00     0.00     0.00     0.00    0.00    0.00    0.00   0.00   0.00
sdc             144.00     0.00  191.00    0.00 77368.00     0.00   810.14     1.53    8.03    8.03    0.00   3.70  70.70
sdb             142.00     0.00  190.00    0.00 78220.00     0.00   823.37     1.22    6.55    6.55    0.00   3.54  67.30
sdd             144.00     0.00  188.00    0.00 77444.00     0.00   823.87     2.29   12.18   12.18    0.00   4.87  91.60
md0               0.00     0.00  998.00    0.00 356508.00     0.00   714.44     0.00    0.00    0.00    0.00   0.00   0.00

avg-cpu:  %user   %nice %system %iowait  %steal   %idle
           2.88    0.00    0.47    0.38    0.00   96.28

Device:         rrqm/s   wrqm/s     r/s     w/s    rkB/s    wkB/s avgrq-sz avgqu-sz   await r_await w_await  svctm  %util
nvme0n1           0.00     0.00    0.00    0.00     0.00     0.00     0.00     0.00    0.00    0.00    0.00   0.00   0.00
sda               0.00     3.00    0.00    2.00     0.00    20.00    20.00     0.00    0.50    0.00    0.50   0.50   0.10
sdc             140.00     0.00  183.00    0.00 72848.00     0.00   796.15     1.55    8.31    8.31    0.00   3.78  69.20
sdb             144.00     0.00  169.00    0.00 74648.00     0.00   883.41     1.23    7.26    7.26    0.00   3.40  57.40
sdd             146.00     0.00  171.00    0.00 74316.00     0.00   869.19     1.63    9.61    9.61    0.00   4.33  74.10
md0               0.00     0.00  956.00    0.00 326296.00     0.00   682.63     0.00    0.00    0.00    0.00   0.00   0.00

avg-cpu:  %user   %nice %system %iowait  %steal   %idle
           2.82    0.00    0.53    0.34    0.00   96.31

Device:         rrqm/s   wrqm/s     r/s     w/s    rkB/s    wkB/s avgrq-sz avgqu-sz   await r_await w_await  svctm  %util
nvme0n1           0.00     0.00    0.00    0.00     0.00     0.00     0.00     0.00    0.00    0.00    0.00   0.00   0.00
sda               0.00     0.00    0.00    0.00     0.00     0.00     0.00     0.00    0.00    0.00    0.00   0.00   0.00
sdc             140.00     0.00  210.00    0.00 77172.00     0.00   734.97     1.54    7.25    7.25    0.00   3.66  76.90
sdb             134.00     0.00  193.00    0.00 76876.00     0.00   796.64     0.82    4.23    4.23    0.00   2.35  45.40
sdd             134.00     0.00  194.00    0.00 77268.00     0.00   796.58     1.76    9.07    9.07    0.00   4.14  80.40
md0               0.00     0.00 1009.00    0.00 350032.00     0.00   693.82     0.00    0.00    0.00    0.00   0.00   0.00

avg-cpu:  %user   %nice %system %iowait  %steal   %idle
           2.85    0.00    0.50    0.50    0.00   96.15

Device:         rrqm/s   wrqm/s     r/s     w/s    rkB/s    wkB/s avgrq-sz avgqu-sz   await r_await w_await  svctm  %util
nvme0n1           0.00     0.00    0.00    0.00     0.00     0.00     0.00     0.00    0.00    0.00    0.00   0.00   0.00
sda               0.00     0.00    0.00    0.00     0.00     0.00     0.00     0.00    0.00    0.00    0.00   0.00   0.00
sdc             128.00     0.00  203.00    0.00 73068.00     0.00   719.88     1.68    8.48    8.48    0.00   3.88  78.70
sdb             130.00     0.00  175.00    0.00 71616.00     0.00   818.47     1.32    7.58    7.58    0.00   3.48  60.90
sdd             136.00     0.00  185.00    0.00 71880.00     0.00   777.08     1.02    5.55    5.55    0.00   3.17  58.70
md0               0.00     0.00  951.00    0.00 299256.00     0.00   629.35     0.00    0.00    0.00    0.00   0.00   0.00

avg-cpu:  %user   %nice %system %iowait  %steal   %idle
           2.94    0.00    0.38    0.28    0.00   96.40

Device:         rrqm/s   wrqm/s     r/s     w/s    rkB/s    wkB/s avgrq-sz avgqu-sz   await r_await w_await  svctm  %util
nvme0n1           0.00     0.00    0.00    0.00     0.00     0.00     0.00     0.00    0.00    0.00    0.00   0.00   0.00
sda               0.00     0.00    0.00    0.00     0.00     0.00     0.00     0.00    0.00    0.00    0.00   0.00   0.00
sdc              97.00     0.00  162.00    0.00 55084.00     0.00   680.05     1.24    7.40    7.40    0.00   4.65  75.40
sdb              87.00     0.00  178.00    0.00 55868.00     0.00   627.73     1.00    5.62    5.62    0.00   2.74  48.70
sdd              98.00     0.00  158.00    0.00 55752.00     0.00   705.72     0.86    5.47    5.47    0.00   3.16  49.90
md0               0.00     0.00  780.00    0.00 231192.00     0.00   592.80     0.00    0.00    0.00    0.00   0.00   0.00

avg-cpu:  %user   %nice %system %iowait  %steal   %idle
           2.97    0.00    0.31    0.59    0.00   96.12

Device:         rrqm/s   wrqm/s     r/s     w/s    rkB/s    wkB/s avgrq-sz avgqu-sz   await r_await w_await  svctm  %util
nvme0n1           0.00     0.00    0.00    0.00     0.00     0.00     0.00     0.00    0.00    0.00    0.00   0.00   0.00
sda               0.00     0.00    0.00    0.00     0.00     0.00     0.00     0.00    0.00    0.00    0.00   0.00   0.00
sdc              89.00     0.00  102.00    0.00 49420.00     0.00   969.02     1.26   12.66   12.66    0.00   7.11  72.50
sdb              93.00     0.00  109.00    0.00 47988.00     0.00   880.51     1.06    9.49    9.49    0.00   4.92  53.60
sdd              94.00     0.00  110.00    0.00 48136.00     0.00   875.20     1.10    9.55    9.55    0.00   4.88  53.70
md0               0.00     0.00  605.00    0.00 223876.00     0.00   740.09     0.00    0.00    0.00    0.00   0.00   0.00

avg-cpu:  %user   %nice %system %iowait  %steal   %idle
           2.88    0.00    0.47    0.34    0.00   96.31

Device:         rrqm/s   wrqm/s     r/s     w/s    rkB/s    wkB/s avgrq-sz avgqu-sz   await r_await w_await  svctm  %util
nvme0n1           0.00     0.00    0.00    0.00     0.00     0.00     0.00     0.00    0.00    0.00    0.00   0.00   0.00
sda               0.00     1.00    0.00    2.00     0.00    12.00    12.00     0.00    0.00    0.00    0.00   0.00   0.00
sdc             131.00     0.00  180.00    0.00 71808.00     0.00   797.87     1.52    8.47    8.47    0.00   3.78  68.00
sdb             136.00     0.00  170.00    0.00 73060.00     0.00   859.53     1.46    8.71    8.71    0.00   4.26  72.50
sdd             132.00     0.00  203.00    0.00 72512.00     0.00   714.40     1.13    5.77    5.77    0.00   2.92  59.20
md0               0.00     0.00  954.00    0.00 333300.00     0.00   698.74     0.00    0.00    0.00    0.00   0.00   0.00

