Linux 4.17.2 (bench2) 	08/03/2018 	_x86_64_	(32 CPU)

avg-cpu:  %user   %nice %system %iowait  %steal   %idle
           1.91    0.00    1.56    1.56    0.00   94.97

Device:         rrqm/s   wrqm/s     r/s     w/s    rkB/s    wkB/s avgrq-sz avgqu-sz   await r_await w_await  svctm  %util
nvme0n1         941.99     5.12 18990.05  522.85 106222.44 11791.94    12.10     1.35    0.05    0.03    0.67   0.02  39.75
sda               0.12     0.81   14.15    0.58   163.95     8.52    23.42     0.00    0.33    0.32    0.44   0.07   0.10
sdc              33.77     0.18  115.46    0.31  1743.77    97.88    31.81     0.03    0.29   12.60  380.35   0.92  10.66
sdb              31.72     0.19  117.47    0.33  1741.86    97.71    31.23     0.47    3.98    2.83  411.64   0.86  10.13
sdd              33.97     0.17  115.00    0.26  1739.77    97.38    31.88     0.79    6.81    4.76  907.87   0.92  10.66
md0               0.00     0.00  450.24    1.22  6468.10   353.27    30.22     0.00    0.00    0.00    0.00   0.00   0.00

avg-cpu:  %user   %nice %system %iowait  %steal   %idle
           3.09    0.00    0.18    0.25    0.00   96.48

Device:         rrqm/s   wrqm/s     r/s     w/s    rkB/s    wkB/s avgrq-sz avgqu-sz   await r_await w_await  svctm  %util
nvme0n1           0.00     0.00    0.00    0.00     0.00     0.00     0.00     0.00    0.00    0.00    0.00   0.00   0.00
sda               0.00     0.85    1.10    0.45     6.40     6.00    16.00     0.00    0.55    0.68    0.22   0.13   0.02
sdc               0.00     0.00 1500.30    0.00  6001.80     0.00     8.00     0.34    0.22    0.22    0.00   0.22  33.52
sdb               0.00     0.00 1516.25    0.00  6065.00     0.00     8.00     0.30    0.20    0.20    0.00   0.20  30.25
sdd               0.00     0.00 1501.75    0.00  6007.00     0.00     8.00     0.32    0.21    0.21    0.00   0.21  31.80
md0               0.00     0.00 4518.35    0.00 18074.00     0.00     8.00     0.00    0.00    0.00    0.00   0.00   0.00

