Linux 4.17.2 (bench2) 	08/03/2018 	_x86_64_	(32 CPU)

avg-cpu:  %user   %nice %system %iowait  %steal   %idle
           1.91    0.00    1.56    1.57    0.00   94.97

Device:         rrqm/s   wrqm/s     r/s     w/s    rkB/s    wkB/s avgrq-sz avgqu-sz   await r_await w_await  svctm  %util
nvme0n1         940.68     5.11 18963.77  522.13 106075.41 11775.62    12.10     1.35    0.05    0.03    0.67   0.02  39.70
sda               0.12     0.81   14.15    0.58   163.97     8.52    23.42     0.00    0.33    0.32    0.44   0.07   0.10
sdc              33.87     0.18  116.68    0.31  1750.25    97.75    31.59     0.04    0.34   12.51  380.35   0.92  10.71
sdb              31.82     0.19  118.68    0.33  1748.33    97.57    31.02     0.47    3.99    2.84  411.64   0.85  10.17
sdd              34.06     0.17  116.22    0.26  1746.25    97.24    31.65     0.79    6.78    4.75  907.87   0.92  10.71
md0               0.00     0.00  454.18    1.21  6489.07   352.78    30.05     0.00    0.00    0.00    0.00   0.00   0.00

avg-cpu:  %user   %nice %system %iowait  %steal   %idle
           2.75    0.00    0.79    1.93    0.00   94.53

Device:         rrqm/s   wrqm/s     r/s     w/s    rkB/s    wkB/s avgrq-sz avgqu-sz   await r_await w_await  svctm  %util
nvme0n1           0.00     0.00    0.00    0.00     0.00     0.00     0.00     0.00    0.00    0.00    0.00   0.00   0.00
sda               0.00     1.35    0.20    1.50     5.20    12.20    20.47     0.00    0.09    0.50    0.03   0.09   0.01
sdc             116.85     0.00  152.65    0.00 62277.80     0.00   815.96     1.47    9.59    9.59    0.00   4.63  70.64
sdb             116.40     0.00  153.70    0.00 62364.60     0.00   811.51     1.28    8.36    8.36    0.00   4.20  64.59
sdd             115.00     0.00  153.90    0.00 62423.60     0.00   811.22     1.33    8.66    8.66    0.00   4.20  64.70
md0               0.00     0.00  808.70    0.00 271000.60     0.00   670.21     0.00    0.00    0.00    0.00   0.00   0.00

