Linux 4.17.2 (bench2) 	08/03/2018 	_x86_64_	(32 CPU)

avg-cpu:  %user   %nice %system %iowait  %steal   %idle
           1.90    0.00    1.55    1.59    0.00   94.96

Device:         rrqm/s   wrqm/s     r/s     w/s    rkB/s    wkB/s avgrq-sz avgqu-sz   await r_await w_await  svctm  %util
nvme0n1         935.58     5.08 18860.95  519.30 105500.27 11711.77    12.10     1.34    0.05    0.03    0.67   0.02  39.48
sda               0.12     0.82   14.17    0.58   164.01     8.53    23.40     0.00    0.33    0.32    0.44   0.07   0.10
sdc              34.27     0.17  120.09    0.31  1802.55    97.22    31.56     0.08    0.62   12.38  380.35   0.91  10.93
sdb              32.23     0.19  122.08    0.33  1800.60    97.04    31.00     0.51    4.14    3.04  411.64   0.85  10.39
sdd              34.47     0.17  119.63    0.26  1798.56    96.72    31.62     0.82    6.85    4.89  907.87   0.91  10.93
md0               0.00     0.00  465.60    1.21  6692.08   350.87    30.17     0.00    0.00    0.00    0.00   0.00   0.00

avg-cpu:  %user   %nice %system %iowait  %steal   %idle
           0.13    0.00    0.72    5.80    0.00   93.35

Device:         rrqm/s   wrqm/s     r/s     w/s    rkB/s    wkB/s avgrq-sz avgqu-sz   await r_await w_await  svctm  %util
nvme0n1           0.00     0.00    0.00    0.00     0.00     0.00     0.00     0.00    0.00    0.00    0.00   0.00   0.00
sda               0.00     0.00    4.00    0.00   104.00     0.00    52.00     0.00    0.50    0.50    0.00   0.50   0.20
sdc               6.00     0.00  753.00    0.00 20504.00     0.00    54.46     4.38    5.81    5.81    0.00   0.78  58.80
sdb               3.00     0.00  737.00    0.00 18892.00     0.00    51.27     4.26    5.79    5.79    0.00   0.62  45.40
sdd               3.00     0.00  655.00    0.00 16180.00     0.00    49.40     5.01    7.65    7.65    0.00   0.87  57.30
md0               0.00     0.00 2238.00    0.00 59004.00     0.00    52.73     0.00    0.00    0.00    0.00   0.00   0.00

avg-cpu:  %user   %nice %system %iowait  %steal   %idle
           0.16    0.00    0.78    5.07    0.00   93.99

Device:         rrqm/s   wrqm/s     r/s     w/s    rkB/s    wkB/s avgrq-sz avgqu-sz   await r_await w_await  svctm  %util
nvme0n1           0.00     0.00    0.00    0.00     0.00     0.00     0.00     0.00    0.00    0.00    0.00   0.00   0.00
sda               0.00     0.00    0.00    0.00     0.00     0.00     0.00     0.00    0.00    0.00    0.00   0.00   0.00
sdc               3.00     0.00  722.00    0.00 18292.00     0.00    50.67     5.83    8.08    8.08    0.00   0.72  52.10
sdb               5.00     0.00  755.00    0.00 19444.00     0.00    51.51     5.30    7.03    7.03    0.00   0.81  61.20
sdd               3.00     0.00  793.00    0.00 20020.00     0.00    50.49     4.37    5.50    5.50    0.00   0.57  45.10
md0               0.00     0.00 2349.00    0.00 61120.00     0.00    52.04     0.00    0.00    0.00    0.00   0.00   0.00

avg-cpu:  %user   %nice %system %iowait  %steal   %idle
           0.06    0.00    0.78    5.42    0.00   93.73

Device:         rrqm/s   wrqm/s     r/s     w/s    rkB/s    wkB/s avgrq-sz avgqu-sz   await r_await w_await  svctm  %util
nvme0n1           0.00     0.00    0.00    0.00     0.00     0.00     0.00     0.00    0.00    0.00    0.00   0.00   0.00
sda               0.00     0.00    0.00    0.00     0.00     0.00     0.00     0.00    0.00    0.00    0.00   0.00   0.00
sdc              31.00     0.00  744.00    0.00 23392.00     0.00    62.88     1.87    2.48    2.48    0.00   0.92  68.50
sdb              23.00     0.00  677.00    0.00 23216.00     0.00    68.58     0.88    1.31    1.31    0.00   0.36  24.40
sdd              23.00     0.00  807.00    0.00 23464.00     0.00    58.15     1.25    1.56    1.56    0.00   0.39  31.80
md0               0.00     0.00 2323.00    0.00 95460.00     0.00    82.19     0.00    0.00    0.00    0.00   0.00   0.00

avg-cpu:  %user   %nice %system %iowait  %steal   %idle
           0.13    0.00    0.69    5.55    0.00   93.63

Device:         rrqm/s   wrqm/s     r/s     w/s    rkB/s    wkB/s avgrq-sz avgqu-sz   await r_await w_await  svctm  %util
nvme0n1           0.00     0.00    0.00    0.00     0.00     0.00     0.00     0.00    0.00    0.00    0.00   0.00   0.00
sda               0.00     0.00    0.00    0.00     0.00     0.00     0.00     0.00    0.00    0.00    0.00   0.00   0.00
sdc              44.00     0.00  719.00    0.00 31996.00     0.00    89.00     1.56    2.19    2.19    0.00   0.96  68.80
sdb              43.00     0.00  800.00    0.00 31520.00     0.00    78.80     1.02    1.28    1.28    0.00   0.47  37.60
sdd              42.00     0.00  688.00    0.00 33056.00     0.00    96.09     0.77    1.12    1.12    0.00   0.43  29.40
md0               0.00     0.00 2381.00    0.00 137444.00     0.00   115.45     0.00    0.00    0.00    0.00   0.00   0.00

avg-cpu:  %user   %nice %system %iowait  %steal   %idle
           0.09    0.00    0.88    4.39    0.00   94.64

Device:         rrqm/s   wrqm/s     r/s     w/s    rkB/s    wkB/s avgrq-sz avgqu-sz   await r_await w_await  svctm  %util
nvme0n1           0.00     0.00    0.00    0.00     0.00     0.00     0.00     0.00    0.00    0.00    0.00   0.00   0.00
sda               0.00     0.00    0.00    0.00     0.00     0.00     0.00     0.00    0.00    0.00    0.00   0.00   0.00
sdc              18.00     0.00  905.00    0.00 20288.00     0.00    44.84     1.60    1.77    1.77    0.00   0.72  64.80
sdb              17.00     0.00  908.00    0.00 22556.00     0.00    49.68     0.84    0.92    0.92    0.00   0.25  22.90
sdd              11.00     0.00  961.00    0.00 20104.00     0.00    41.84     0.99    1.04    1.04    0.00   0.24  22.80
md0               0.00     0.00 2870.00    0.00 80736.00     0.00    56.26     0.00    0.00    0.00    0.00   0.00   0.00

avg-cpu:  %user   %nice %system %iowait  %steal   %idle
           0.09    0.00    0.72    4.26    0.00   94.93

Device:         rrqm/s   wrqm/s     r/s     w/s    rkB/s    wkB/s avgrq-sz avgqu-sz   await r_await w_await  svctm  %util
nvme0n1           0.00     0.00    0.00    0.00     0.00     0.00     0.00     0.00    0.00    0.00    0.00   0.00   0.00
sda               0.00     9.00    0.00    3.00     0.00    48.00    32.00     0.00    0.00    0.00    0.00   0.00   0.00
sdc              39.00     0.00  648.00    0.00 24456.00     0.00    75.48     1.53    2.35    2.35    0.00   1.04  67.60
sdb              33.00     0.00  626.00    0.00 26680.00     0.00    85.24     0.68    1.10    1.10    0.00   0.40  25.00
sdd              31.00     0.00  689.00    0.00 24884.00     0.00    72.23     0.89    1.29    1.29    0.00   0.43  29.80
md0               0.00     0.00 2115.00    0.00 100964.00     0.00    95.47     0.00    0.00    0.00    0.00   0.00   0.00

avg-cpu:  %user   %nice %system %iowait  %steal   %idle
           0.16    0.00    0.85    4.96    0.00   94.04

Device:         rrqm/s   wrqm/s     r/s     w/s    rkB/s    wkB/s avgrq-sz avgqu-sz   await r_await w_await  svctm  %util
nvme0n1           0.00     0.00    0.00    0.00     0.00     0.00     0.00     0.00    0.00    0.00    0.00   0.00   0.00
sda               0.00     0.00    0.00    0.00     0.00     0.00     0.00     0.00    0.00    0.00    0.00   0.00   0.00
sdc              39.00     0.00  959.00    0.00 34160.00     0.00    71.24     1.28    1.34    1.34    0.00   0.52  50.30
sdb              35.00     0.00  982.00    0.00 32660.00     0.00    66.52     1.17    1.19    1.19    0.00   0.40  38.90
sdd              39.00     0.00  950.00    0.00 33840.00     0.00    71.24     1.13    1.19    1.19    0.00   0.44  41.90
md0               0.00     0.00 3152.00    0.00 130980.00     0.00    83.11     0.00    0.00    0.00    0.00   0.00   0.00

avg-cpu:  %user   %nice %system %iowait  %steal   %idle
           0.16    0.00    0.85    5.02    0.00   93.98

Device:         rrqm/s   wrqm/s     r/s     w/s    rkB/s    wkB/s avgrq-sz avgqu-sz   await r_await w_await  svctm  %util
nvme0n1           0.00     0.00    0.00    0.00     0.00     0.00     0.00     0.00    0.00    0.00    0.00   0.00   0.00
sda               0.00     0.00    0.00    0.00     0.00     0.00     0.00     0.00    0.00    0.00    0.00   0.00   0.00
sdc              22.00     0.00  921.00    0.00 24688.00     0.00    53.61     1.15    1.26    1.26    0.00   0.44  40.60
sdb              27.00     0.00  880.00    0.00 24220.00     0.00    55.05     0.72    0.82    0.82    0.00   0.27  24.00
sdd              24.00     0.00  834.00    0.00 24384.00     0.00    58.47     1.42    1.71    1.71    0.00   0.60  50.00
md0               0.00     0.00 2738.00    0.00 92428.00     0.00    67.51     0.00    0.00    0.00    0.00   0.00   0.00

avg-cpu:  %user   %nice %system %iowait  %steal   %idle
           0.13    0.00    0.81    5.39    0.00   93.67

Device:         rrqm/s   wrqm/s     r/s     w/s    rkB/s    wkB/s avgrq-sz avgqu-sz   await r_await w_await  svctm  %util
nvme0n1           0.00     0.00    0.00    0.00     0.00     0.00     0.00     0.00    0.00    0.00    0.00   0.00   0.00
sda               0.00     0.00    0.00    0.00     0.00     0.00     0.00     0.00    0.00    0.00    0.00   0.00   0.00
sdc              38.00     0.00  704.00    0.00 31740.00     0.00    90.17     1.29    1.83    1.83    0.00   0.71  49.90
sdb              35.00     0.00  788.00    0.00 29960.00     0.00    76.04     0.98    1.24    1.24    0.00   0.40  31.50
sdd              36.00     0.00  681.00    0.00 30276.00     0.00    88.92     1.36    2.01    2.01    0.00   0.71  48.40
md0               0.00     0.00 2423.00    0.00 124048.00     0.00   102.39     0.00    0.00    0.00    0.00   0.00   0.00

avg-cpu:  %user   %nice %system %iowait  %steal   %idle
           0.13    0.00    0.94    4.99    0.00   93.94

Device:         rrqm/s   wrqm/s     r/s     w/s    rkB/s    wkB/s avgrq-sz avgqu-sz   await r_await w_await  svctm  %util
nvme0n1           0.00     0.00    0.00    0.00     0.00     0.00     0.00     0.00    0.00    0.00    0.00   0.00   0.00
sda               0.00     0.00    0.00    0.00     0.00     0.00     0.00     0.00    0.00    0.00    0.00   0.00   0.00
sdc              31.00     0.00 1091.00    0.00 32904.00     0.00    60.32     1.02    0.93    0.93    0.00   0.29  31.60
sdb              32.00     0.00 1045.00    0.00 34044.00     0.00    65.16     1.36    1.31    1.31    0.00   0.40  42.00
sdd              31.00     0.00  959.00    0.00 34656.00     0.00    72.28     1.75    1.82    1.82    0.00   0.52  49.50
md0               0.00     0.00 3273.00    0.00 135164.00     0.00    82.59     0.00    0.00    0.00    0.00   0.00   0.00

avg-cpu:  %user   %nice %system %iowait  %steal   %idle
           0.19    0.00    0.94    5.50    0.00   93.37

Device:         rrqm/s   wrqm/s     r/s     w/s    rkB/s    wkB/s avgrq-sz avgqu-sz   await r_await w_await  svctm  %util
nvme0n1           0.00     0.00    0.00    0.00     0.00     0.00     0.00     0.00    0.00    0.00    0.00   0.00   0.00
sda               0.00     6.00    0.00   25.00     0.00   140.00    11.20     0.00    0.00    0.00    0.00   0.00   0.00
sdc              38.00     0.00 1066.00    0.00 32960.00     0.00    61.84     0.90    0.84    0.84    0.00   0.32  34.30
sdb              32.00     0.00 1006.00    0.00 34304.00     0.00    68.20     1.28    1.27    1.27    0.00   0.46  46.60
sdd              31.00     0.00 1074.00    0.00 34568.00     0.00    64.37     1.35    1.26    1.26    0.00   0.46  49.30
md0               0.00     0.00 3273.00    0.00 135156.00     0.00    82.59     0.00    0.00    0.00    0.00   0.00   0.00

avg-cpu:  %user   %nice %system %iowait  %steal   %idle
           0.13    0.00    1.07    4.64    0.00   94.17

Device:         rrqm/s   wrqm/s     r/s     w/s    rkB/s    wkB/s avgrq-sz avgqu-sz   await r_await w_await  svctm  %util
nvme0n1           0.00     0.00    0.00    0.00     0.00     0.00     0.00     0.00    0.00    0.00    0.00   0.00   0.00
sda               0.00     0.00    0.00    0.00     0.00     0.00     0.00     0.00    0.00    0.00    0.00   0.00   0.00
sdc              23.00     0.00 1025.00    0.00 26524.00     0.00    51.75     1.51    1.47    1.47    0.00   0.58  59.00
sdb              22.00     0.00 1074.00    0.00 26596.00     0.00    49.53     1.03    0.95    0.95    0.00   0.32  34.20
sdd              22.00     0.00 1096.00    0.00 25440.00     0.00    46.42     0.85    0.77    0.77    0.00   0.25  27.90
md0               0.00     0.00 3364.00    0.00 102268.00     0.00    60.80     0.00    0.00    0.00    0.00   0.00   0.00

avg-cpu:  %user   %nice %system %iowait  %steal   %idle
           0.13    0.00    0.88    4.52    0.00   94.48

Device:         rrqm/s   wrqm/s     r/s     w/s    rkB/s    wkB/s avgrq-sz avgqu-sz   await r_await w_await  svctm  %util
nvme0n1           0.00     0.00    0.00    0.00     0.00     0.00     0.00     0.00    0.00    0.00    0.00   0.00   0.00
sda               0.00     0.00    0.00    0.00     0.00     0.00     0.00     0.00    0.00    0.00    0.00   0.00   0.00
sdc              36.00     0.00  939.00    0.00 31592.00     0.00    67.29     1.21    1.29    1.29    0.00   0.45  41.90
sdb              33.00     0.00  865.00    0.00 31100.00     0.00    71.91     1.13    1.31    1.31    0.00   0.47  40.90
sdd              28.00     0.00  885.00    0.00 29032.00     0.00    65.61     1.13    1.28    1.28    0.00   0.47  41.30
md0               0.00     0.00 2858.00    0.00 121344.00     0.00    84.92     0.00    0.00    0.00    0.00   0.00   0.00

avg-cpu:  %user   %nice %system %iowait  %steal   %idle
           0.16    0.00    0.82    4.27    0.00   94.76

Device:         rrqm/s   wrqm/s     r/s     w/s    rkB/s    wkB/s avgrq-sz avgqu-sz   await r_await w_await  svctm  %util
nvme0n1           0.00     0.00    0.00    0.00     0.00     0.00     0.00     0.00    0.00    0.00    0.00   0.00   0.00
sda               0.00     0.00    0.00    0.00     0.00     0.00     0.00     0.00    0.00    0.00    0.00   0.00   0.00
sdc              40.00     0.00  824.00    0.00 36400.00     0.00    88.35     1.51    1.81    1.81    0.00   0.62  51.40
sdb              44.00     0.00  964.00    0.00 34872.00     0.00    72.35     1.17    1.20    1.20    0.00   0.37  36.10
sdd              39.00     0.00  942.00    0.00 34832.00     0.00    73.95     1.42    1.50    1.50    0.00   0.46  43.50
md0               0.00     0.00 3071.00    0.00 146524.00     0.00    95.42     0.00    0.00    0.00    0.00   0.00   0.00

avg-cpu:  %user   %nice %system %iowait  %steal   %idle
           0.13    0.00    1.04    4.14    0.00   94.70

Device:         rrqm/s   wrqm/s     r/s     w/s    rkB/s    wkB/s avgrq-sz avgqu-sz   await r_await w_await  svctm  %util
nvme0n1           0.00     0.00    0.00    0.00     0.00     0.00     0.00     0.00    0.00    0.00    0.00   0.00   0.00
sda               0.00     0.00    0.00    0.00     0.00     0.00     0.00     0.00    0.00    0.00    0.00   0.00   0.00
sdc              25.00     0.00 1006.00    0.00 32300.00     0.00    64.21     1.07    1.05    1.05    0.00   0.39  39.00
sdb              29.00     0.00 1004.00    0.00 31144.00     0.00    62.04     1.68    1.67    1.67    0.00   0.55  54.90
sdd              32.00     0.00 1137.00    0.00 30524.00     0.00    53.69     0.95    0.84    0.84    0.00   0.27  30.30
md0               0.00     0.00 3336.00    0.00 121796.00     0.00    73.02     0.00    0.00    0.00    0.00   0.00   0.00

avg-cpu:  %user   %nice %system %iowait  %steal   %idle
           0.13    0.00    0.94    3.80    0.00   95.13

Device:         rrqm/s   wrqm/s     r/s     w/s    rkB/s    wkB/s avgrq-sz avgqu-sz   await r_await w_await  svctm  %util
nvme0n1           0.00     0.00    0.00    0.00     0.00     0.00     0.00     0.00    0.00    0.00    0.00   0.00   0.00
sda               0.00     3.00    0.00    2.00     0.00    20.00    20.00     0.00    0.50    0.00    0.50   0.50   0.10
sdc              20.00     0.00 1166.00    0.00 28092.00     0.00    48.19     1.36    1.17    1.17    0.00   0.40  47.00
sdb              23.00     0.00 1122.00    0.00 28012.00     0.00    49.93     1.04    0.94    0.94    0.00   0.34  37.60
sdd              23.00     0.00 1028.00    0.00 29276.00     0.00    56.96     0.81    0.79    0.79    0.00   0.31  31.50
md0               0.00     0.00 3395.00    0.00 108104.00     0.00    63.68     0.00    0.00    0.00    0.00   0.00   0.00

avg-cpu:  %user   %nice %system %iowait  %steal   %idle
           0.16    0.00    0.94    4.45    0.00   94.45

Device:         rrqm/s   wrqm/s     r/s     w/s    rkB/s    wkB/s avgrq-sz avgqu-sz   await r_await w_await  svctm  %util
nvme0n1           0.00     0.00    0.00    0.00     0.00     0.00     0.00     0.00    0.00    0.00    0.00   0.00   0.00
sda               0.00     0.00    0.00    0.00     0.00     0.00     0.00     0.00    0.00    0.00    0.00   0.00   0.00
sdc              52.00     0.00  944.00    0.00 38512.00     0.00    81.59     1.03    1.10    1.10    0.00   0.39  36.40
sdb              52.00     0.00  918.00    0.00 37520.00     0.00    81.74     1.48    1.61    1.61    0.00   0.55  50.60
sdd              48.00     0.00  847.00    0.00 38692.00     0.00    91.36     1.53    1.80    1.80    0.00   0.65  54.70
md0               0.00     0.00 2863.00    0.00 161512.00     0.00   112.83     0.00    0.00    0.00    0.00   0.00   0.00

avg-cpu:  %user   %nice %system %iowait  %steal   %idle
           0.06    0.00    0.97    3.48    0.00   95.48

Device:         rrqm/s   wrqm/s     r/s     w/s    rkB/s    wkB/s avgrq-sz avgqu-sz   await r_await w_await  svctm  %util
nvme0n1           0.00     0.00    0.00    0.00     0.00     0.00     0.00     0.00    0.00    0.00    0.00   0.00   0.00
sda               0.00     0.00    0.00    0.00     0.00     0.00     0.00     0.00    0.00    0.00    0.00   0.00   0.00
sdc              34.00     0.00  998.00    0.00 33968.00     0.00    68.07     1.24    1.25    1.25    0.00   0.44  44.10
sdb              39.00     0.00  909.00    0.00 34340.00     0.00    75.56     0.98    1.09    1.09    0.00   0.41  37.00
sdd              36.00     0.00  949.00    0.00 34628.00     0.00    72.98     1.76    1.86    1.86    0.00   0.56  53.50
md0               0.00     0.00 3016.00    0.00 140468.00     0.00    93.15     0.00    0.00    0.00    0.00   0.00   0.00

avg-cpu:  %user   %nice %system %iowait  %steal   %idle
           0.13    0.00    1.00    4.08    0.00   94.79

Device:         rrqm/s   wrqm/s     r/s     w/s    rkB/s    wkB/s avgrq-sz avgqu-sz   await r_await w_await  svctm  %util
nvme0n1           0.00     0.00    0.00    0.00     0.00     0.00     0.00     0.00    0.00    0.00    0.00   0.00   0.00
sda               0.00     0.00    0.00    0.00     0.00     0.00     0.00     0.00    0.00    0.00    0.00   0.00   0.00
sdc              38.00     0.00  928.00    0.00 34240.00     0.00    73.79     1.02    1.10    1.10    0.00   0.40  37.10
sdb              40.00     0.00  844.00    0.00 35052.00     0.00    83.06     0.92    1.10    1.10    0.00   0.47  39.40
sdd              37.00     0.00  996.00    0.00 33684.00     0.00    67.64     1.68    1.67    1.67    0.00   0.51  50.90
md0               0.00     0.00 2922.00    0.00 136260.00     0.00    93.26     0.00    0.00    0.00    0.00   0.00   0.00

avg-cpu:  %user   %nice %system %iowait  %steal   %idle
           0.13    0.00    1.25    3.38    0.00   95.24

Device:         rrqm/s   wrqm/s     r/s     w/s    rkB/s    wkB/s avgrq-sz avgqu-sz   await r_await w_await  svctm  %util
nvme0n1           0.00     0.00    0.00    0.00     0.00     0.00     0.00     0.00    0.00    0.00    0.00   0.00   0.00
sda               0.00     1.00    0.00    2.00     0.00    12.00    12.00     0.00    0.00    0.00    0.00   0.00   0.00
sdc              30.00     0.00 1127.00    0.00 30876.00     0.00    54.79     1.81    1.61    1.61    0.00   0.45  50.90
sdb              27.00     0.00 1009.00    0.00 31592.00     0.00    62.62     0.88    0.88    0.88    0.00   0.28  28.40
sdd              24.00     0.00 1119.00    0.00 30288.00     0.00    54.13     1.16    1.04    1.04    0.00   0.35  39.30
md0               0.00     0.00 3398.00    0.00 123568.00     0.00    72.73     0.00    0.00    0.00    0.00   0.00   0.00

