Linux 4.17.2 (bench2) 	08/03/2018 	_x86_64_	(32 CPU)

avg-cpu:  %user   %nice %system %iowait  %steal   %idle
           1.90    0.00    1.55    1.58    0.00   94.97

Device:         rrqm/s   wrqm/s     r/s     w/s    rkB/s    wkB/s avgrq-sz avgqu-sz   await r_await w_await  svctm  %util
nvme0n1         938.27     5.10 18915.24  520.79 105803.98 11745.49    12.10     1.35    0.05    0.03    0.67   0.02  39.60
sda               0.12     0.82   14.16    0.58   163.96     8.53    23.41     0.00    0.33    0.32    0.44   0.07   0.10
sdc              33.91     0.17  117.99    0.31  1780.52    97.50    31.75     0.06    0.50   12.50  380.35   0.91  10.82
sdb              31.87     0.19  119.99    0.33  1778.58    97.32    31.18     0.49    4.10    2.97  411.64   0.85  10.28
sdd              34.11     0.17  117.53    0.26  1776.50    97.00    31.81     0.81    6.86    4.86  907.87   0.92  10.82
md0               0.00     0.00  458.23    1.21  6611.20   351.88    30.31     0.00    0.00    0.00    0.00   0.00   0.00

avg-cpu:  %user   %nice %system %iowait  %steal   %idle
           0.00    0.00    0.03    0.00    0.00   99.97

Device:         rrqm/s   wrqm/s     r/s     w/s    rkB/s    wkB/s avgrq-sz avgqu-sz   await r_await w_await  svctm  %util
nvme0n1           0.00     0.00    0.00    0.00     0.00     0.00     0.00     0.00    0.00    0.00    0.00   0.00   0.00
sda               0.00     0.00    1.00    0.00     8.00     0.00    16.00     0.00    1.00    1.00    0.00   1.00   0.10
sdc            1551.00     0.00  345.00    0.00  7116.00     0.00    41.25    21.20   53.43   53.43    0.00   2.58  89.10
sdb            1355.00     0.00  371.00    0.00  6640.00     0.00    35.80    19.69   50.40   50.40    0.00   2.27  84.20
sdd            1515.00     0.00  376.00    0.00  6512.00     0.00    34.64    21.80   53.27   53.27    0.00   2.23  84.00
md0               0.00     0.00 5568.00    0.00 22272.00     0.00     8.00     0.00    0.00    0.00    0.00   0.00   0.00

avg-cpu:  %user   %nice %system %iowait  %steal   %idle
           0.03    0.00    0.06    0.00    0.00   99.91

Device:         rrqm/s   wrqm/s     r/s     w/s    rkB/s    wkB/s avgrq-sz avgqu-sz   await r_await w_await  svctm  %util
nvme0n1           0.00     0.00    0.00    0.00     0.00     0.00     0.00     0.00    0.00    0.00    0.00   0.00   0.00
sda               0.00     0.00    0.00    0.00     0.00     0.00     0.00     0.00    0.00    0.00    0.00   0.00   0.00
sdc            1299.00     0.00  340.00    0.00  6228.00     0.00    36.64    25.47   76.06   76.06    0.00   2.94  99.90
sdb            1229.00     0.00  332.00    0.00  6364.00     0.00    38.34    16.39   49.36   49.36    0.00   2.36  78.50
sdd            1108.00     0.00  320.00    0.00  6268.00     0.00    39.17    15.57   47.69   47.69    0.00   2.67  85.60
md0               0.00     0.00 4627.00    0.00 18508.00     0.00     8.00     0.00    0.00    0.00    0.00   0.00   0.00

