Linux 4.17.2 (bench2) 	08/03/2018 	_x86_64_	(32 CPU)

avg-cpu:  %user   %nice %system %iowait  %steal   %idle
           1.91    0.00    1.56    1.56    0.00   94.97

Device:         rrqm/s   wrqm/s     r/s     w/s    rkB/s    wkB/s avgrq-sz avgqu-sz   await r_await w_await  svctm  %util
nvme0n1         942.56     5.12 19001.71  523.18 106287.62 11799.18    12.10     1.35    0.05    0.03    0.67   0.02  39.78
sda               0.12     0.81   14.15    0.58   163.94     8.52    23.42     0.00    0.33    0.32    0.44   0.07   0.10
sdc              33.74     0.18  115.03    0.31  1742.63    97.94    31.91     0.03    0.28   12.65  380.35   0.92  10.64
sdb              31.69     0.19  117.04    0.33  1740.72    97.77    31.33     0.47    3.99    2.83  411.64   0.86  10.11
sdd              33.94     0.17  114.58    0.26  1738.64    97.44    31.98     0.79    6.83    4.77  907.87   0.93  10.64
md0               0.00     0.00  448.87    1.22  6465.45   353.49    30.30     0.00    0.00    0.00    0.00   0.00   0.00

avg-cpu:  %user   %nice %system %iowait  %steal   %idle
           0.00    0.00    0.13    2.91    0.00   96.97

Device:         rrqm/s   wrqm/s     r/s     w/s    rkB/s    wkB/s avgrq-sz avgqu-sz   await r_await w_await  svctm  %util
nvme0n1           0.00     0.00    0.00    0.00     0.00     0.00     0.00     0.00    0.00    0.00    0.00   0.00   0.00
sda               0.00     0.00    5.00    0.00    60.00     0.00    24.00     0.00    0.40    0.40    0.00   0.40   0.20
sdc               0.00     0.00  267.00    0.00  1080.00     0.00     8.09     0.20    0.75    0.75    0.00   0.75  20.00
sdb               0.00     0.00  271.00    0.00  1084.00     0.00     8.00     0.36    1.32    1.32    0.00   1.32  35.70
sdd               0.00     0.00  286.00    0.00  1144.00     0.00     8.00     0.40    1.39    1.39    0.00   1.39  39.80
md0               0.00     0.00  825.00    0.00  3312.00     0.00     8.03     0.00    0.00    0.00    0.00   0.00   0.00

avg-cpu:  %user   %nice %system %iowait  %steal   %idle
           0.00    0.00    0.13    2.94    0.00   96.94

Device:         rrqm/s   wrqm/s     r/s     w/s    rkB/s    wkB/s avgrq-sz avgqu-sz   await r_await w_await  svctm  %util
nvme0n1           0.00     0.00    0.00    0.00     0.00     0.00     0.00     0.00    0.00    0.00    0.00   0.00   0.00
sda               0.00     0.00    0.00    0.00     0.00     0.00     0.00     0.00    0.00    0.00    0.00   0.00   0.00
sdc               0.00     0.00  344.00    0.00  1376.00     0.00     8.00     0.36    1.06    1.06    0.00   1.06  36.30
sdb               0.00     0.00  232.00    0.00   928.00     0.00     8.00     0.20    0.85    0.85    0.00   0.86  19.90
sdd               0.00     0.00  306.00    0.00  1224.00     0.00     8.00     0.40    1.32    1.32    0.00   1.32  40.40
md0               0.00     0.00  882.00    0.00  3528.00     0.00     8.00     0.00    0.00    0.00    0.00   0.00   0.00

avg-cpu:  %user   %nice %system %iowait  %steal   %idle
           0.03    0.00    0.16    2.94    0.00   96.87

Device:         rrqm/s   wrqm/s     r/s     w/s    rkB/s    wkB/s avgrq-sz avgqu-sz   await r_await w_await  svctm  %util
nvme0n1           0.00     0.00    0.00    0.00     0.00     0.00     0.00     0.00    0.00    0.00    0.00   0.00   0.00
sda               0.00     0.00    0.00    0.00     0.00     0.00     0.00     0.00    0.00    0.00    0.00   0.00   0.00
sdc               0.00     0.00  300.00    0.00  1200.00     0.00     8.00     0.40    1.32    1.32    0.00   1.32  39.70
sdb               0.00     0.00  290.00    0.00  1160.00     0.00     8.00     0.31    1.09    1.09    0.00   1.08  31.40
sdd               0.00     0.00  281.00    0.00  1124.00     0.00     8.00     0.23    0.83    0.83    0.00   0.83  23.40
md0               0.00     0.00  871.00    0.00  3484.00     0.00     8.00     0.00    0.00    0.00    0.00   0.00   0.00

avg-cpu:  %user   %nice %system %iowait  %steal   %idle
           0.00    0.00    0.13    2.94    0.00   96.94

Device:         rrqm/s   wrqm/s     r/s     w/s    rkB/s    wkB/s avgrq-sz avgqu-sz   await r_await w_await  svctm  %util
nvme0n1           0.00     0.00    0.00    0.00     0.00     0.00     0.00     0.00    0.00    0.00    0.00   0.00   0.00
sda               0.00     0.00    0.00    0.00     0.00     0.00     0.00     0.00    0.00    0.00    0.00   0.00   0.00
sdc               0.00     0.00  303.00    0.00  1212.00     0.00     8.00     0.34    1.10    1.10    0.00   1.12  33.90
sdb               0.00     0.00  316.00    0.00  1264.00     0.00     8.00     0.20    0.62    0.62    0.00   0.62  19.70
sdd               0.00     0.00  282.00    0.00  1128.00     0.00     8.00     0.42    1.48    1.48    0.00   1.48  41.60
md0               0.00     0.00  901.00    0.00  3604.00     0.00     8.00     0.00    0.00    0.00    0.00   0.00   0.00

avg-cpu:  %user   %nice %system %iowait  %steal   %idle
           0.03    0.00    0.13    2.91    0.00   96.94

Device:         rrqm/s   wrqm/s     r/s     w/s    rkB/s    wkB/s avgrq-sz avgqu-sz   await r_await w_await  svctm  %util
nvme0n1           0.00     0.00    0.00    0.00     0.00     0.00     0.00     0.00    0.00    0.00    0.00   0.00   0.00
sda               0.00     0.00    0.00    0.00     0.00     0.00     0.00     0.00    0.00    0.00    0.00   0.00   0.00
sdc               0.00     0.00  235.00    0.00   940.00     0.00     8.00     0.29    1.25    1.25    0.00   1.23  28.80
sdb               0.00     0.00  301.00    0.00  1204.00     0.00     8.00     0.29    0.97    0.97    0.00   0.97  29.30
sdd               0.00     0.00  319.00    0.00  1276.00     0.00     8.00     0.37    1.15    1.15    0.00   1.15  36.60
md0               0.00     0.00  855.00    0.00  3420.00     0.00     8.00     0.00    0.00    0.00    0.00   0.00   0.00

avg-cpu:  %user   %nice %system %iowait  %steal   %idle
           0.03    0.00    0.06    2.97    0.00   96.93

Device:         rrqm/s   wrqm/s     r/s     w/s    rkB/s    wkB/s avgrq-sz avgqu-sz   await r_await w_await  svctm  %util
nvme0n1           0.00     0.00    0.00    0.00     0.00     0.00     0.00     0.00    0.00    0.00    0.00   0.00   0.00
sda               0.00    15.00    0.00    2.00     0.00    68.00    68.00     0.00    0.00    0.00    0.00   0.00   0.00
sdc               0.00     0.00  302.00    0.00  1208.00     0.00     8.00     0.40    1.32    1.32    0.00   1.33  40.30
sdb               0.00     0.00  227.00    0.00   908.00     0.00     8.00     0.13    0.58    0.58    0.00   0.57  13.00
sdd               0.00     0.00  261.00    0.00  1044.00     0.00     8.00     0.42    1.62    1.62    0.00   1.62  42.40
md0               0.00     0.00  790.00    0.00  3160.00     0.00     8.00     0.00    0.00    0.00    0.00   0.00   0.00

avg-cpu:  %user   %nice %system %iowait  %steal   %idle
           0.00    0.00    0.13    2.94    0.00   96.94

Device:         rrqm/s   wrqm/s     r/s     w/s    rkB/s    wkB/s avgrq-sz avgqu-sz   await r_await w_await  svctm  %util
nvme0n1           0.00     0.00    0.00    0.00     0.00     0.00     0.00     0.00    0.00    0.00    0.00   0.00   0.00
sda               0.00     0.00    0.00    0.00     0.00     0.00     0.00     0.00    0.00    0.00    0.00   0.00   0.00
sdc               0.00     0.00  252.00    0.00  1008.00     0.00     8.00     0.35    1.40    1.40    0.00   1.38  34.90
sdb               0.00     0.00  224.00    0.00   896.00     0.00     8.00     0.28    1.25    1.25    0.00   1.25  28.00
sdd               0.00     0.00  275.00    0.00  1100.00     0.00     8.00     0.33    1.19    1.19    0.00   1.19  32.60
md0               0.00     0.00  751.00    0.00  3004.00     0.00     8.00     0.00    0.00    0.00    0.00   0.00   0.00

avg-cpu:  %user   %nice %system %iowait  %steal   %idle
           0.03    0.00    0.13    2.97    0.00   96.87

Device:         rrqm/s   wrqm/s     r/s     w/s    rkB/s    wkB/s avgrq-sz avgqu-sz   await r_await w_await  svctm  %util
nvme0n1           0.00     0.00    0.00    0.00     0.00     0.00     0.00     0.00    0.00    0.00    0.00   0.00   0.00
sda               0.00     0.00    0.00    0.00     0.00     0.00     0.00     0.00    0.00    0.00    0.00   0.00   0.00
sdc               0.00     0.00  304.00    0.00  1216.00     0.00     8.00     0.51    1.68    1.68    0.00   1.67  50.80
sdb               0.00     0.00  257.00    0.00  1028.00     0.00     8.00     0.13    0.51    0.51    0.00   0.51  13.10
sdd               0.00     0.00  262.00    0.00  1048.00     0.00     8.00     0.31    1.16    1.16    0.00   1.19  31.20
md0               0.00     0.00  823.00    0.00  3292.00     0.00     8.00     0.00    0.00    0.00    0.00   0.00   0.00

avg-cpu:  %user   %nice %system %iowait  %steal   %idle
           0.00    0.00    0.13    2.94    0.00   96.94

Device:         rrqm/s   wrqm/s     r/s     w/s    rkB/s    wkB/s avgrq-sz avgqu-sz   await r_await w_await  svctm  %util
nvme0n1           0.00     0.00    0.00    0.00     0.00     0.00     0.00     0.00    0.00    0.00    0.00   0.00   0.00
sda               0.00     0.00    0.00    0.00     0.00     0.00     0.00     0.00    0.00    0.00    0.00   0.00   0.00
sdc               0.00     0.00  274.00    0.00  1096.00     0.00     8.00     0.28    1.01    1.01    0.00   1.01  27.80
sdb               0.00     0.00  288.00    0.00  1152.00     0.00     8.00     0.17    0.59    0.59    0.00   0.59  17.10
sdd               0.00     0.00  307.00    0.00  1228.00     0.00     8.00     0.50    1.66    1.66    0.00   1.64  50.30
md0               0.00     0.00  869.00    0.00  3476.00     0.00     8.00     0.00    0.00    0.00    0.00   0.00   0.00

avg-cpu:  %user   %nice %system %iowait  %steal   %idle
           0.03    0.00    0.09    2.94    0.00   96.94

Device:         rrqm/s   wrqm/s     r/s     w/s    rkB/s    wkB/s avgrq-sz avgqu-sz   await r_await w_await  svctm  %util
nvme0n1           0.00     0.00    0.00    0.00     0.00     0.00     0.00     0.00    0.00    0.00    0.00   0.00   0.00
sda               0.00     0.00    0.00    0.00     0.00     0.00     0.00     0.00    0.00    0.00    0.00   0.00   0.00
sdc               0.00     0.00  303.00    0.00  1212.00     0.00     8.00     0.52    1.71    1.71    0.00   1.70  51.60
sdb               0.00     0.00  244.00    0.00   976.00     0.00     8.00     0.27    1.11    1.11    0.00   1.11  27.00
sdd               0.00     0.00  283.00    0.00  1132.00     0.00     8.00     0.17    0.60    0.60    0.00   0.60  17.00
md0               0.00     0.00  830.00    0.00  3320.00     0.00     8.00     0.00    0.00    0.00    0.00   0.00   0.00

avg-cpu:  %user   %nice %system %iowait  %steal   %idle
           0.00    0.00    0.16    2.94    0.00   96.90

Device:         rrqm/s   wrqm/s     r/s     w/s    rkB/s    wkB/s avgrq-sz avgqu-sz   await r_await w_await  svctm  %util
nvme0n1           0.00     0.00    0.00    0.00     0.00     0.00     0.00     0.00    0.00    0.00    0.00   0.00   0.00
sda               0.00     1.00    0.00    2.00     0.00    12.00    12.00     0.00    0.00    0.00    0.00   0.00   0.00
sdc               0.00     0.00  272.00    0.00  1088.00     0.00     8.00     0.33    1.21    1.21    0.00   1.21  32.80
sdb               0.00     0.00  313.00    0.00  1252.00     0.00     8.00     0.25    0.80    0.80    0.00   0.79  24.80
sdd               0.00     0.00  252.00    0.00  1008.00     0.00     8.00     0.37    1.48    1.48    0.00   1.48  37.40
md0               0.00     0.00  837.00    0.00  3348.00     0.00     8.00     0.00    0.00    0.00    0.00   0.00   0.00

avg-cpu:  %user   %nice %system %iowait  %steal   %idle
           0.03    0.00    0.09    2.97    0.00   96.91

Device:         rrqm/s   wrqm/s     r/s     w/s    rkB/s    wkB/s avgrq-sz avgqu-sz   await r_await w_await  svctm  %util
nvme0n1           0.00     0.00    0.00    0.00     0.00     0.00     0.00     0.00    0.00    0.00    0.00   0.00   0.00
sda               0.00     0.00    0.00    0.00     0.00     0.00     0.00     0.00    0.00    0.00    0.00   0.00   0.00
sdc               0.00     0.00  309.00    0.00  1236.00     0.00     8.00     0.42    1.33    1.33    0.00   1.35  41.70
sdb               0.00     0.00  242.00    0.00   968.00     0.00     8.00     0.15    0.64    0.64    0.00   0.64  15.50
sdd               0.00     0.00  262.00    0.00  1048.00     0.00     8.00     0.38    1.46    1.46    0.00   1.46  38.20
md0               0.00     0.00  813.00    0.00  3252.00     0.00     8.00     0.00    0.00    0.00    0.00   0.00   0.00

avg-cpu:  %user   %nice %system %iowait  %steal   %idle
           0.00    0.00    0.13    2.94    0.00   96.93

Device:         rrqm/s   wrqm/s     r/s     w/s    rkB/s    wkB/s avgrq-sz avgqu-sz   await r_await w_await  svctm  %util
nvme0n1           0.00     0.00    0.00    0.00     0.00     0.00     0.00     0.00    0.00    0.00    0.00   0.00   0.00
sda               0.00     2.00    0.00    2.00     0.00    32.00    32.00     0.00    0.00    0.00    0.00   0.00   0.00
sdc               0.00     0.00  278.00    0.00  1112.00     0.00     8.00     0.35    1.30    1.30    0.00   1.28  35.50
sdb               0.00     0.00  282.00    0.00  1128.00     0.00     8.00     0.31    1.09    1.09    0.00   1.09  30.60
sdd               0.00     0.00  284.00    0.00  1136.00     0.00     8.00     0.29    1.01    1.01    0.00   1.01  28.80
md0               0.00     0.00  844.00    0.00  3376.00     0.00     8.00     0.00    0.00    0.00    0.00   0.00   0.00

avg-cpu:  %user   %nice %system %iowait  %steal   %idle
           0.03    0.00    0.16    2.91    0.00   96.91

Device:         rrqm/s   wrqm/s     r/s     w/s    rkB/s    wkB/s avgrq-sz avgqu-sz   await r_await w_await  svctm  %util
nvme0n1           0.00     0.00    0.00    0.00     0.00     0.00     0.00     0.00    0.00    0.00    0.00   0.00   0.00
sda               0.00     0.00    0.00    0.00     0.00     0.00     0.00     0.00    0.00    0.00    0.00   0.00   0.00
sdc               0.00     0.00  288.00    0.00  1152.00     0.00     8.00     0.28    0.97    0.97    0.00   0.97  28.00
sdb               0.00     0.00  336.00    0.00  1344.00     0.00     8.00     0.28    0.84    0.84    0.00   0.84  28.20
sdd               0.00     0.00  296.00    0.00  1184.00     0.00     8.00     0.38    1.30    1.30    0.00   1.29  38.30
md0               0.00     0.00  919.00    0.00  3676.00     0.00     8.00     0.00    0.00    0.00    0.00   0.00   0.00

avg-cpu:  %user   %nice %system %iowait  %steal   %idle
           0.00    0.00    0.06    2.94    0.00   97.00

Device:         rrqm/s   wrqm/s     r/s     w/s    rkB/s    wkB/s avgrq-sz avgqu-sz   await r_await w_await  svctm  %util
nvme0n1           0.00     0.00    0.00    0.00     0.00     0.00     0.00     0.00    0.00    0.00    0.00   0.00   0.00
sda               0.00     0.00    0.00    0.00     0.00     0.00     0.00     0.00    0.00    0.00    0.00   0.00   0.00
sdc               0.00     0.00  263.00    0.00  1052.00     0.00     8.00     0.26    0.98    0.98    0.00   1.00  26.30
sdb               0.00     0.00  312.00    0.00  1248.00     0.00     8.00     0.30    0.97    0.97    0.00   0.97  30.30
sdd               0.00     0.00  281.00    0.00  1124.00     0.00     8.00     0.39    1.38    1.38    0.00   1.38  38.70
md0               0.00     0.00  857.00    0.00  3428.00     0.00     8.00     0.00    0.00    0.00    0.00   0.00   0.00

avg-cpu:  %user   %nice %system %iowait  %steal   %idle
           0.03    0.00    0.09    2.94    0.00   96.94

Device:         rrqm/s   wrqm/s     r/s     w/s    rkB/s    wkB/s avgrq-sz avgqu-sz   await r_await w_await  svctm  %util
nvme0n1           0.00     0.00    0.00    0.00     0.00     0.00     0.00     0.00    0.00    0.00    0.00   0.00   0.00
sda               0.00     3.00    0.00    2.00     0.00    20.00    20.00     0.00    0.00    0.00    0.00   0.00   0.00
sdc               0.00     0.00  265.00    0.00  1060.00     0.00     8.00     0.23    0.86    0.86    0.00   0.86  22.90
sdb               0.00     0.00  274.00    0.00  1096.00     0.00     8.00     0.40    1.47    1.47    0.00   1.47  40.20
sdd               0.00     0.00  304.00    0.00  1216.00     0.00     8.00     0.32    1.06    1.06    0.00   1.06  32.10
md0               0.00     0.00  843.00    0.00  3372.00     0.00     8.00     0.00    0.00    0.00    0.00   0.00   0.00

avg-cpu:  %user   %nice %system %iowait  %steal   %idle
           0.03    0.00    0.13    2.94    0.00   96.91

Device:         rrqm/s   wrqm/s     r/s     w/s    rkB/s    wkB/s avgrq-sz avgqu-sz   await r_await w_await  svctm  %util
nvme0n1           0.00     0.00    0.00    0.00     0.00     0.00     0.00     0.00    0.00    0.00    0.00   0.00   0.00
sda               0.00     0.00    0.00    0.00     0.00     0.00     0.00     0.00    0.00    0.00    0.00   0.00   0.00
sdc               0.00     0.00  318.00    0.00  1272.00     0.00     8.00     0.34    1.10    1.10    0.00   1.08  34.50
sdb               0.00     0.00  264.00    0.00  1056.00     0.00     8.00     0.39    1.49    1.49    0.00   1.49  39.30
sdd               0.00     0.00  266.00    0.00  1064.00     0.00     8.00     0.21    0.80    0.80    0.00   0.80  21.30
md0               0.00     0.00  848.00    0.00  3392.00     0.00     8.00     0.00    0.00    0.00    0.00   0.00   0.00

avg-cpu:  %user   %nice %system %iowait  %steal   %idle
           0.00    0.00    0.13    2.94    0.00   96.93

Device:         rrqm/s   wrqm/s     r/s     w/s    rkB/s    wkB/s avgrq-sz avgqu-sz   await r_await w_await  svctm  %util
nvme0n1           0.00     0.00    0.00    0.00     0.00     0.00     0.00     0.00    0.00    0.00    0.00   0.00   0.00
sda               0.00     0.00    0.00    0.00     0.00     0.00     0.00     0.00    0.00    0.00    0.00   0.00   0.00
sdc               0.00     0.00  285.00    0.00  1140.00     0.00     8.00     0.39    1.35    1.35    0.00   1.36  38.70
sdb               0.00     0.00  322.00    0.00  1288.00     0.00     8.00     0.19    0.59    0.59    0.00   0.59  19.10
sdd               0.00     0.00  309.00    0.00  1236.00     0.00     8.00     0.37    1.19    1.19    0.00   1.19  36.80
md0               0.00     0.00  916.00    0.00  3664.00     0.00     8.00     0.00    0.00    0.00    0.00   0.00   0.00

avg-cpu:  %user   %nice %system %iowait  %steal   %idle
           0.03    0.00    0.09    2.94    0.00   96.94

Device:         rrqm/s   wrqm/s     r/s     w/s    rkB/s    wkB/s avgrq-sz avgqu-sz   await r_await w_await  svctm  %util
nvme0n1           0.00     0.00    0.00    0.00     0.00     0.00     0.00     0.00    0.00    0.00    0.00   0.00   0.00
sda               0.00     0.00    0.00    0.00     0.00     0.00     0.00     0.00    0.00    0.00    0.00   0.00   0.00
sdc               0.00     0.00  329.00    0.00  1316.00     0.00     8.00     0.44    1.34    1.34    0.00   1.33  43.70
sdb               0.00     0.00  290.00    0.00  1160.00     0.00     8.00     0.18    0.62    0.62    0.00   0.62  18.00
sdd               0.00     0.00  296.00    0.00  1184.00     0.00     8.00     0.34    1.15    1.15    0.00   1.15  34.10
md0               0.00     0.00  915.00    0.00  3660.00     0.00     8.00     0.00    0.00    0.00    0.00   0.00   0.00

avg-cpu:  %user   %nice %system %iowait  %steal   %idle
           0.00    0.00    0.09    2.94    0.00   96.96

Device:         rrqm/s   wrqm/s     r/s     w/s    rkB/s    wkB/s avgrq-sz avgqu-sz   await r_await w_await  svctm  %util
nvme0n1           0.00     0.00    0.00    0.00     0.00     0.00     0.00     0.00    0.00    0.00    0.00   0.00   0.00
sda               0.00     1.00    0.00    2.00     0.00    12.00    12.00     0.00    0.00    0.00    0.00   0.00   0.00
sdc               0.00     0.00  262.00    0.00  1048.00     0.00     8.00     0.39    1.47    1.47    0.00   1.47  38.60
sdb               0.00     0.00  273.00    0.00  1092.00     0.00     8.00     0.20    0.74    0.74    0.00   0.74  20.20
sdd               0.00     0.00  264.00    0.00  1056.00     0.00     8.00     0.36    1.38    1.38    0.00   1.38  36.30
md0               0.00     0.00  799.00    0.00  3196.00     0.00     8.00     0.00    0.00    0.00    0.00   0.00   0.00

