Linux 4.17.2 (bench2) 	08/03/2018 	_x86_64_	(32 CPU)

avg-cpu:  %user   %nice %system %iowait  %steal   %idle
           1.90    0.00    1.55    1.58    0.00   94.96

Device:         rrqm/s   wrqm/s     r/s     w/s    rkB/s    wkB/s avgrq-sz avgqu-sz   await r_await w_await  svctm  %util
nvme0n1         937.11     5.09 18891.73  520.15 105672.48 11730.89    12.10     1.34    0.05    0.03    0.67   0.02  39.55
sda               0.12     0.82   14.16    0.58   163.99     8.53    23.41     0.00    0.33    0.32    0.44   0.07   0.10
sdc              34.22     0.17  118.92    0.31  1792.58    97.38    31.70     0.07    0.58   12.47  380.35   0.91  10.87
sdb              32.18     0.19  120.91    0.33  1790.65    97.20    31.14     0.50    4.14    3.02  411.64   0.85  10.33
sdd              34.41     0.17  118.46    0.26  1788.60    96.88    31.76     0.82    6.88    4.89  907.87   0.92  10.87
md0               0.00     0.00  461.93    1.21  6656.27   351.44    30.26     0.00    0.00    0.00    0.00   0.00   0.00

avg-cpu:  %user   %nice %system %iowait  %steal   %idle
           0.07    0.00    1.13   16.24    0.00   82.56

Device:         rrqm/s   wrqm/s     r/s     w/s    rkB/s    wkB/s avgrq-sz avgqu-sz   await r_await w_await  svctm  %util
nvme0n1           0.00     0.00    0.00    0.00     0.00     0.00     0.00     0.00    0.00    0.00    0.00   0.00   0.00
sda               0.00     1.10    4.35    0.50    30.00     7.20    15.34     0.00    0.39    0.44    0.00   0.05   0.03
sdc               0.00     0.00 2588.10    0.00 10353.60     0.00     8.00     2.08    0.80    0.80    0.00   0.14  36.95
sdb               0.00     0.00 2585.50    0.00 10342.00     0.00     8.00     2.04    0.79    0.79    0.00   0.14  36.24
sdd               0.00     0.00 2583.30    0.00 10333.20     0.00     8.00     2.00    0.77    0.77    0.00   0.14  35.67
md0               0.00     0.00 7756.85    0.00 31028.00     0.00     8.00     0.00    0.00    0.00    0.00   0.00   0.00

