Linux 4.17.2 (bench2) 	08/03/2018 	_x86_64_	(32 CPU)

avg-cpu:  %user   %nice %system %iowait  %steal   %idle
           1.90    0.00    1.55    1.59    0.00   94.96

Device:         rrqm/s   wrqm/s     r/s     w/s    rkB/s    wkB/s avgrq-sz avgqu-sz   await r_await w_await  svctm  %util
nvme0n1         935.20     5.08 18853.18  519.09 105456.85 11706.95    12.10     1.34    0.05    0.03    0.67   0.02  39.47
sda               0.12     0.82   14.17    0.58   164.01     8.53    23.40     0.00    0.33    0.32    0.44   0.07   0.10
sdc              34.26     0.17  120.20    0.31  1805.33    97.18    31.57     0.08    0.63   12.38  380.35   0.91  10.95
sdb              32.23     0.19  122.19    0.33  1803.38    97.00    31.02     0.51    4.14    3.04  411.64   0.85  10.41
sdd              34.46     0.17  119.74    0.26  1801.34    96.68    31.63     0.82    6.85    4.89  907.87   0.91  10.95
md0               0.00     0.00  465.91    1.21  6703.79   350.72    30.20     0.00    0.00    0.00    0.00   0.00   0.00

avg-cpu:  %user   %nice %system %iowait  %steal   %idle
           0.03    0.00    0.38   21.96    0.00   77.63

Device:         rrqm/s   wrqm/s     r/s     w/s    rkB/s    wkB/s avgrq-sz avgqu-sz   await r_await w_await  svctm  %util
nvme0n1           0.00     0.00    0.00    0.00     0.00     0.00     0.00     0.00    0.00    0.00    0.00   0.00   0.00
sda               0.00     0.00    4.00    0.00   104.00     0.00    52.00     0.00    0.50    0.50    0.00   0.50   0.20
sdc               0.00     0.00  336.00    0.00  2628.00     0.00    15.64     4.43   13.16   13.16    0.00   2.26  76.10
sdb               0.00     0.00  231.00    0.00  2532.00     0.00    21.92     2.71   11.65   11.65    0.00   2.50  57.80
sdd               0.00     0.00  272.00    0.00  2768.00     0.00    20.35     4.24   15.58   15.58    0.00   2.73  74.30
md0               0.00     0.00  863.00    0.00  8896.00     0.00    20.62     0.00    0.00    0.00    0.00   0.00   0.00

avg-cpu:  %user   %nice %system %iowait  %steal   %idle
           0.00    0.00    0.38   19.79    0.00   79.84

Device:         rrqm/s   wrqm/s     r/s     w/s    rkB/s    wkB/s avgrq-sz avgqu-sz   await r_await w_await  svctm  %util
nvme0n1           0.00     0.00    0.00    0.00     0.00     0.00     0.00     0.00    0.00    0.00    0.00   0.00   0.00
sda               0.00     0.00    0.00    0.00     0.00     0.00     0.00     0.00    0.00    0.00    0.00   0.00   0.00
sdc               0.00     0.00  285.00    0.00  1712.00     0.00    12.01     3.65   12.69   12.69    0.00   2.32  66.20
sdb               0.00     0.00  298.00    0.00  3232.00     0.00    21.69     4.27   14.38   14.38    0.00   2.50  74.50
sdd               0.00     0.00  291.00    0.00  2536.00     0.00    17.43     4.22   14.37   14.37    0.00   2.38  69.20
md0               0.00     0.00  863.00    0.00  8040.00     0.00    18.63     0.00    0.00    0.00    0.00   0.00   0.00

avg-cpu:  %user   %nice %system %iowait  %steal   %idle
           0.03    0.00    0.34   19.82    0.00   79.81

Device:         rrqm/s   wrqm/s     r/s     w/s    rkB/s    wkB/s avgrq-sz avgqu-sz   await r_await w_await  svctm  %util
nvme0n1           0.00     0.00    0.00    0.00     0.00     0.00     0.00     0.00    0.00    0.00    0.00   0.00   0.00
sda               0.00     0.00    0.00    0.00     0.00     0.00     0.00     0.00    0.00    0.00    0.00   0.00   0.00
sdc               0.00     0.00  260.00    0.00  1448.00     0.00    11.14     3.60   13.69   13.69    0.00   2.66  69.10
sdb               0.00     0.00  259.00    0.00  1876.00     0.00    14.49     3.35   12.65   12.65    0.00   2.75  71.10
sdd               0.00     0.00  333.00    0.00  2784.00     0.00    16.72     4.83   14.40   14.40    0.00   2.42  80.70
md0               0.00     0.00  849.00    0.00  6856.00     0.00    16.15     0.00    0.00    0.00    0.00   0.00   0.00

avg-cpu:  %user   %nice %system %iowait  %steal   %idle
           0.03    0.00    0.44   18.83    0.00   80.70

Device:         rrqm/s   wrqm/s     r/s     w/s    rkB/s    wkB/s avgrq-sz avgqu-sz   await r_await w_await  svctm  %util
nvme0n1           0.00     0.00    0.00    0.00     0.00     0.00     0.00     0.00    0.00    0.00    0.00   0.00   0.00
sda               0.00     0.00    0.00    0.00     0.00     0.00     0.00     0.00    0.00    0.00    0.00   0.00   0.00
sdc               0.00     0.00  281.00    0.00  1844.00     0.00    13.12     3.41   11.65   11.65    0.00   2.48  69.70
sdb               0.00     0.00  290.00    0.00  1252.00     0.00     8.63     3.56   12.57   12.57    0.00   2.38  69.10
sdd               0.00     0.00  299.00    0.00  1756.00     0.00    11.75     4.36   14.86   14.86    0.00   2.66  79.50
md0               0.00     0.00  865.00    0.00  5264.00     0.00    12.17     0.00    0.00    0.00    0.00   0.00   0.00

avg-cpu:  %user   %nice %system %iowait  %steal   %idle
           0.00    0.00    0.31   17.76    0.00   81.92

Device:         rrqm/s   wrqm/s     r/s     w/s    rkB/s    wkB/s avgrq-sz avgqu-sz   await r_await w_await  svctm  %util
nvme0n1           0.00     0.00    0.00    0.00     0.00     0.00     0.00     0.00    0.00    0.00    0.00   0.00   0.00
sda               0.00     0.00    0.00    0.00     0.00     0.00     0.00     0.00    0.00    0.00    0.00   0.00   0.00
sdc               0.00     0.00  312.00    0.00  2612.00     0.00    16.74     4.27   14.27   14.27    0.00   2.41  75.20
sdb               0.00     0.00  308.00    0.00  3264.00     0.00    21.19     4.00   12.91   12.91    0.00   2.22  68.40
sdd               0.00     0.00  238.00    0.00  1744.00     0.00    14.66     2.87   11.91   11.91    0.00   2.56  60.90
md0               0.00     0.00  872.00    0.00  8324.00     0.00    19.09     0.00    0.00    0.00    0.00   0.00   0.00

avg-cpu:  %user   %nice %system %iowait  %steal   %idle
           0.03    0.00    0.44   18.23    0.00   81.30

Device:         rrqm/s   wrqm/s     r/s     w/s    rkB/s    wkB/s avgrq-sz avgqu-sz   await r_await w_await  svctm  %util
nvme0n1           0.00     0.00    0.00    0.00     0.00     0.00     0.00     0.00    0.00    0.00    0.00   0.00   0.00
sda               0.00     8.00    0.00    2.00     0.00    40.00    40.00     0.00    0.00    0.00    0.00   0.00   0.00
sdc               0.00     0.00  252.00    0.00  1992.00     0.00    15.81     4.07   16.16   16.16    0.00   2.96  74.50
sdb               0.00     0.00  308.00    0.00  2888.00     0.00    18.75     3.72   12.16   12.16    0.00   2.26  69.60
sdd               0.00     0.00  249.00    0.00  1412.00     0.00    11.34     3.57   14.51   14.51    0.00   2.73  68.00
md0               0.00     0.00  792.00    0.00  6328.00     0.00    15.98     0.00    0.00    0.00    0.00   0.00   0.00

avg-cpu:  %user   %nice %system %iowait  %steal   %idle
           0.03    0.00    0.66   19.09    0.00   80.22

Device:         rrqm/s   wrqm/s     r/s     w/s    rkB/s    wkB/s avgrq-sz avgqu-sz   await r_await w_await  svctm  %util
nvme0n1           0.00     0.00    0.00    0.00     0.00     0.00     0.00     0.00    0.00    0.00    0.00   0.00   0.00
sda               0.00     0.00    0.00    0.00     0.00     0.00     0.00     0.00    0.00    0.00    0.00   0.00   0.00
sdc               0.00     0.00  284.00    0.00  1780.00     0.00    12.54     3.99   14.02   14.02    0.00   2.80  79.40
sdb               0.00     0.00  314.00    0.00  2092.00     0.00    13.32     4.39   13.85   13.85    0.00   2.37  74.40
sdd               0.00     0.00  332.00    0.00  2472.00     0.00    14.89     3.44   10.23   10.23    0.00   1.96  65.00
md0               0.00     0.00  957.00    0.00  7972.00     0.00    16.66     0.00    0.00    0.00    0.00   0.00   0.00

avg-cpu:  %user   %nice %system %iowait  %steal   %idle
           0.03    0.00    0.47   18.07    0.00   81.43

Device:         rrqm/s   wrqm/s     r/s     w/s    rkB/s    wkB/s avgrq-sz avgqu-sz   await r_await w_await  svctm  %util
nvme0n1           0.00     0.00    0.00    0.00     0.00     0.00     0.00     0.00    0.00    0.00    0.00   0.00   0.00
sda               0.00     1.00    0.00    4.00     0.00    48.00    24.00     0.00    0.00    0.00    0.00   0.00   0.00
sdc               0.00     0.00  302.00    0.00  2556.00     0.00    16.93     3.52   11.61   11.61    0.00   2.37  71.70
sdb               0.00     0.00  296.00    0.00  2664.00     0.00    18.00     3.71   12.72   12.72    0.00   2.37  70.20
sdd               0.00     0.00  336.00    0.00  3128.00     0.00    18.62     4.02   11.96   11.96    0.00   2.13  71.50
md0               0.00     0.00  913.00    0.00  7844.00     0.00    17.18     0.00    0.00    0.00    0.00   0.00   0.00

avg-cpu:  %user   %nice %system %iowait  %steal   %idle
           0.03    0.00    0.38   16.65    0.00   82.95

Device:         rrqm/s   wrqm/s     r/s     w/s    rkB/s    wkB/s avgrq-sz avgqu-sz   await r_await w_await  svctm  %util
nvme0n1           0.00     0.00    0.00    0.00     0.00     0.00     0.00     0.00    0.00    0.00    0.00   0.00   0.00
sda               0.00     0.00    0.00    0.00     0.00     0.00     0.00     0.00    0.00    0.00    0.00   0.00   0.00
sdc               0.00     0.00  263.00    0.00  1940.00     0.00    14.75     3.01   11.73   11.73    0.00   2.62  69.00
sdb               0.00     0.00  239.00    0.00  1308.00     0.00    10.95     3.37   13.99   13.99    0.00   2.89  69.10
sdd               0.00     0.00  304.00    0.00  2204.00     0.00    14.50     4.54   15.03   15.03    0.00   2.52  76.70
md0               0.00     0.00  813.00    0.00  5892.00     0.00    14.49     0.00    0.00    0.00    0.00   0.00   0.00

avg-cpu:  %user   %nice %system %iowait  %steal   %idle
           0.00    0.00    0.72   18.60    0.00   80.69

Device:         rrqm/s   wrqm/s     r/s     w/s    rkB/s    wkB/s avgrq-sz avgqu-sz   await r_await w_await  svctm  %util
nvme0n1           0.00     0.00    0.00    0.00     0.00     0.00     0.00     0.00    0.00    0.00    0.00   0.00   0.00
sda               0.00     0.00    0.00    0.00     0.00     0.00     0.00     0.00    0.00    0.00    0.00   0.00   0.00
sdc               0.00     0.00  305.00    0.00  2036.00     0.00    13.35     3.68   12.09   12.09    0.00   2.32  70.90
sdb               0.00     0.00  301.00    0.00  1748.00     0.00    11.61     3.95   12.99   12.99    0.00   2.35  70.80
sdd               0.00     0.00  300.00    0.00  2160.00     0.00    14.40     4.00   13.45   13.45    0.00   2.68  80.50
md0               0.00     0.00  894.00    0.00  6388.00     0.00    14.29     0.00    0.00    0.00    0.00   0.00   0.00

avg-cpu:  %user   %nice %system %iowait  %steal   %idle
           0.03    0.00    0.56   19.28    0.00   80.12

Device:         rrqm/s   wrqm/s     r/s     w/s    rkB/s    wkB/s avgrq-sz avgqu-sz   await r_await w_await  svctm  %util
nvme0n1           0.00     0.00    0.00    0.00     0.00     0.00     0.00     0.00    0.00    0.00    0.00   0.00   0.00
sda               0.00     7.00    0.00    2.00     0.00    36.00    36.00     0.00    0.00    0.00    0.00   0.00   0.00
sdc               0.00     0.00  330.00    0.00  2128.00     0.00    12.90     3.63   10.81   10.81    0.00   1.88  62.20
sdb               0.00     0.00  283.00    0.00  1824.00     0.00    12.89     3.92   13.86   13.86    0.00   2.64  74.70
sdd               0.00     0.00  360.00    0.00  2884.00     0.00    16.02     4.30   11.94   11.94    0.00   2.10  75.60
md0               0.00     0.00  982.00    0.00  7656.00     0.00    15.59     0.00    0.00    0.00    0.00   0.00   0.00

avg-cpu:  %user   %nice %system %iowait  %steal   %idle
           0.03    0.00    0.44   18.73    0.00   80.80

Device:         rrqm/s   wrqm/s     r/s     w/s    rkB/s    wkB/s avgrq-sz avgqu-sz   await r_await w_await  svctm  %util
nvme0n1           0.00     0.00    0.00    0.00     0.00     0.00     0.00     0.00    0.00    0.00    0.00   0.00   0.00
sda               0.00     0.00    0.00    0.00     0.00     0.00     0.00     0.00    0.00    0.00    0.00   0.00   0.00
sdc               0.00     0.00  288.00    0.00  1688.00     0.00    11.72     4.52   15.93   15.93    0.00   2.65  76.40
sdb               0.00     0.00  242.00    0.00  1460.00     0.00    12.07     3.42   14.40   14.40    0.00   2.86  69.30
sdd               0.00     0.00  248.00    0.00  1524.00     0.00    12.29     3.81   15.37   15.37    0.00   2.94  73.00
md0               0.00     0.00  789.00    0.00  5152.00     0.00    13.06     0.00    0.00    0.00    0.00   0.00   0.00

avg-cpu:  %user   %nice %system %iowait  %steal   %idle
           0.03    0.00    0.38   21.00    0.00   78.59

Device:         rrqm/s   wrqm/s     r/s     w/s    rkB/s    wkB/s avgrq-sz avgqu-sz   await r_await w_await  svctm  %util
nvme0n1           0.00     0.00    0.00    0.00     0.00     0.00     0.00     0.00    0.00    0.00    0.00   0.00   0.00
sda               0.00     2.00    0.00    1.00     0.00    28.00    56.00     0.00    0.00    0.00    0.00   0.00   0.00
sdc               1.00     0.00  281.00    0.00  3540.00     0.00    25.20     4.71   16.79   16.79    0.00   2.79  78.40
sdb               1.00     0.00  271.00    0.00  4588.00     0.00    33.86     3.90   14.37   14.37    0.00   2.73  74.00
sdd               2.00     0.00  334.00    0.00  3832.00     0.00    22.95     4.97   14.72   14.72    0.00   2.39  79.80
md0               0.00     0.00  873.00    0.00 14596.00     0.00    33.44     0.00    0.00    0.00    0.00   0.00   0.00

avg-cpu:  %user   %nice %system %iowait  %steal   %idle
           0.06    0.00    0.56   19.87    0.00   79.51

Device:         rrqm/s   wrqm/s     r/s     w/s    rkB/s    wkB/s avgrq-sz avgqu-sz   await r_await w_await  svctm  %util
nvme0n1           0.00     0.00    0.00    0.00     0.00     0.00     0.00     0.00    0.00    0.00    0.00   0.00   0.00
sda               0.00     0.00    0.00    0.00     0.00     0.00     0.00     0.00    0.00    0.00    0.00   0.00   0.00
sdc               0.00     0.00  312.00    0.00  1772.00     0.00    11.36     4.57   14.10   14.10    0.00   2.20  68.50
sdb               0.00     0.00  382.00    0.00  2820.00     0.00    14.76     5.12   13.44   13.44    0.00   2.08  79.60
sdd               0.00     0.00  328.00    0.00  3444.00     0.00    21.00     4.47   13.81   13.81    0.00   2.20  72.00
md0               0.00     0.00 1024.00    0.00  8844.00     0.00    17.27     0.00    0.00    0.00    0.00   0.00   0.00

avg-cpu:  %user   %nice %system %iowait  %steal   %idle
           0.03    0.00    0.47   19.24    0.00   80.26

Device:         rrqm/s   wrqm/s     r/s     w/s    rkB/s    wkB/s avgrq-sz avgqu-sz   await r_await w_await  svctm  %util
nvme0n1           0.00     0.00    0.00    0.00     0.00     0.00     0.00     0.00    0.00    0.00    0.00   0.00   0.00
sda               0.00     0.00    0.00    0.00     0.00     0.00     0.00     0.00    0.00    0.00    0.00   0.00   0.00
sdc               0.00     0.00  352.00    0.00  2496.00     0.00    14.18     4.71   13.70   13.70    0.00   2.22  78.00
sdb               0.00     0.00  278.00    0.00  2508.00     0.00    18.04     2.93   10.12   10.12    0.00   2.19  61.00
sdd               0.00     0.00  297.00    0.00  2096.00     0.00    14.11     4.20   14.01   14.01    0.00   2.64  78.40
md0               0.00     0.00  945.00    0.00  7836.00     0.00    16.58     0.00    0.00    0.00    0.00   0.00   0.00

avg-cpu:  %user   %nice %system %iowait  %steal   %idle
           0.00    0.00    0.19   17.73    0.00   82.08

Device:         rrqm/s   wrqm/s     r/s     w/s    rkB/s    wkB/s avgrq-sz avgqu-sz   await r_await w_await  svctm  %util
nvme0n1           0.00     0.00    0.00    0.00     0.00     0.00     0.00     0.00    0.00    0.00    0.00   0.00   0.00
sda               0.00     4.00    0.00    2.00     0.00    24.00    24.00     0.00    0.00    0.00    0.00   0.00   0.00
sdc               0.00     0.00  298.00    0.00  2364.00     0.00    15.87     2.81    9.47    9.47    0.00   1.99  59.40
sdb               0.00     0.00  319.00    0.00  2728.00     0.00    17.10     4.83   15.50   15.50    0.00   2.38  75.90
sdd               0.00     0.00  325.00    0.00  2716.00     0.00    16.71     4.75   14.76   14.76    0.00   2.49  81.00
md0               0.00     0.00  919.00    0.00  8148.00     0.00    17.73     0.00    0.00    0.00    0.00   0.00   0.00

avg-cpu:  %user   %nice %system %iowait  %steal   %idle
           0.06    0.00    0.44   21.06    0.00   78.44

Device:         rrqm/s   wrqm/s     r/s     w/s    rkB/s    wkB/s avgrq-sz avgqu-sz   await r_await w_await  svctm  %util
nvme0n1           0.00     0.00    0.00    0.00     0.00     0.00     0.00     0.00    0.00    0.00    0.00   0.00   0.00
sda               0.00     0.00    0.00    0.00     0.00     0.00     0.00     0.00    0.00    0.00    0.00   0.00   0.00
sdc               0.00     0.00  371.00    0.00  2092.00     0.00    11.28     4.91   13.40   13.40    0.00   2.07  76.70
sdb               0.00     0.00  298.00    0.00  2276.00     0.00    15.28     4.24   14.05   14.05    0.00   2.67  79.70
sdd               0.00     0.00  319.00    0.00  1888.00     0.00    11.84     4.04   12.67   12.67    0.00   2.32  74.00
md0               0.00     0.00  988.00    0.00  6468.00     0.00    13.09     0.00    0.00    0.00    0.00   0.00   0.00

avg-cpu:  %user   %nice %system %iowait  %steal   %idle
           0.03    0.00    0.22   19.53    0.00   80.22

Device:         rrqm/s   wrqm/s     r/s     w/s    rkB/s    wkB/s avgrq-sz avgqu-sz   await r_await w_await  svctm  %util
nvme0n1           0.00     0.00    0.00    0.00     0.00     0.00     0.00     0.00    0.00    0.00    0.00   0.00   0.00
sda               0.00     0.00    0.00    0.00     0.00     0.00     0.00     0.00    0.00    0.00    0.00   0.00   0.00
sdc               0.00     0.00  290.00    0.00  1740.00     0.00    12.00     4.25   14.37   14.37    0.00   2.72  78.80
sdb               0.00     0.00  255.00    0.00  1700.00     0.00    13.33     3.09   12.33   12.33    0.00   2.60  66.30
sdd               0.00     0.00  280.00    0.00  1884.00     0.00    13.46     4.06   14.50   14.50    0.00   2.67  74.80
md0               0.00     0.00  826.00    0.00  5784.00     0.00    14.00     0.00    0.00    0.00    0.00   0.00   0.00

avg-cpu:  %user   %nice %system %iowait  %steal   %idle
           0.00    0.00    0.28   16.23    0.00   83.48

Device:         rrqm/s   wrqm/s     r/s     w/s    rkB/s    wkB/s avgrq-sz avgqu-sz   await r_await w_await  svctm  %util
nvme0n1           0.00     0.00    0.00    0.00     0.00     0.00     0.00     0.00    0.00    0.00    0.00   0.00   0.00
sda               0.00     0.00    0.00    0.00     0.00     0.00     0.00     0.00    0.00    0.00    0.00   0.00   0.00
sdc               0.00     0.00  187.00    0.00  1068.00     0.00    11.42     3.71   19.86   19.86    0.00   4.44  83.10
sdb               0.00     0.00  241.00    0.00  2016.00     0.00    16.73     3.94   15.87   15.87    0.00   2.70  65.10
sdd               0.00     0.00  220.00    0.00  1164.00     0.00    10.58     2.82   12.75   12.75    0.00   2.24  49.20
md0               0.00     0.00  656.00    0.00  4776.00     0.00    14.56     0.00    0.00    0.00    0.00   0.00   0.00

avg-cpu:  %user   %nice %system %iowait  %steal   %idle
           0.03    0.00    0.28   19.12    0.00   80.56

Device:         rrqm/s   wrqm/s     r/s     w/s    rkB/s    wkB/s avgrq-sz avgqu-sz   await r_await w_await  svctm  %util
nvme0n1           0.00     0.00    0.00    0.00     0.00     0.00     0.00     0.00    0.00    0.00    0.00   0.00   0.00
sda               0.00     1.00    0.00    2.00     0.00    12.00    12.00     0.00    0.00    0.00    0.00   0.00   0.00
sdc               0.00     0.00  292.00    0.00  2464.00     0.00    16.88     3.57   12.15   12.15    0.00   2.53  74.00
sdb               0.00     0.00  338.00    0.00  2508.00     0.00    14.84     4.38   13.30   13.30    0.00   2.28  77.00
sdd               0.00     0.00  291.00    0.00  1224.00     0.00     8.41     3.46   11.96   11.96    0.00   2.27  66.20
md0               0.00     0.00  915.00    0.00  6732.00     0.00    14.71     0.00    0.00    0.00    0.00   0.00   0.00

