Linux 4.17.2 (bench2) 	08/03/2018 	_x86_64_	(32 CPU)

avg-cpu:  %user   %nice %system %iowait  %steal   %idle
           1.91    0.00    1.56    1.56    0.00   94.97

Device:         rrqm/s   wrqm/s     r/s     w/s    rkB/s    wkB/s avgrq-sz avgqu-sz   await r_await w_await  svctm  %util
nvme0n1         942.79     5.12 19006.25  523.30 106313.04 11802.00    12.10     1.35    0.05    0.03    0.67   0.02  39.79
sda               0.12     0.81   14.15    0.58   163.94     8.52    23.42     0.00    0.33    0.32    0.44   0.07   0.10
sdc              33.56     0.18  114.94    0.31  1736.54    97.97    31.83     0.03    0.26   12.64  380.35   0.92  10.62
sdb              31.51     0.19  116.95    0.33  1734.63    97.79    31.25     0.47    3.97    2.81  411.64   0.86  10.10
sdd              33.75     0.17  114.49    0.26  1732.54    97.46    31.90     0.78    6.82    4.75  907.87   0.93  10.63
md0               0.00     0.00  448.05    1.22  6440.35   353.57    30.24     0.00    0.00    0.00    0.00   0.00   0.00

avg-cpu:  %user   %nice %system %iowait  %steal   %idle
           0.00    0.00    0.16   14.59    0.00   85.25

Device:         rrqm/s   wrqm/s     r/s     w/s    rkB/s    wkB/s avgrq-sz avgqu-sz   await r_await w_await  svctm  %util
nvme0n1           0.00     0.00    0.00    0.00     0.00     0.00     0.00     0.00    0.00    0.00    0.00   0.00   0.00
sda               0.00     0.00   17.00    0.00    72.00     0.00     8.47     0.00    0.06    0.06    0.00   0.06   0.10
sdc               2.00     0.00  637.00    0.00 13832.00     0.00    43.43     2.79    4.39    4.39    0.00   1.22  77.50
sdb               1.00     0.00  622.00    0.00 13672.00     0.00    43.96     4.06    6.54    6.54    0.00   1.41  87.50
sdd               0.00     0.00  648.00    0.00 13096.00     0.00    40.42     1.88    2.79    2.79    0.00   0.96  62.20
md0               0.00     0.00 1910.00    0.00 44584.00     0.00    46.68     0.00    0.00    0.00    0.00   0.00   0.00

avg-cpu:  %user   %nice %system %iowait  %steal   %idle
           0.00    0.00    0.16   14.05    0.00   85.79

Device:         rrqm/s   wrqm/s     r/s     w/s    rkB/s    wkB/s avgrq-sz avgqu-sz   await r_await w_await  svctm  %util
nvme0n1           0.00     0.00    0.00    0.00     0.00     0.00     0.00     0.00    0.00    0.00    0.00   0.00   0.00
sda               0.00     0.00    0.00    0.00     0.00     0.00     0.00     0.00    0.00    0.00    0.00   0.00   0.00
sdc               6.00     0.00  542.00    0.00 14432.00     0.00    53.25     1.36    2.49    2.49    0.00   1.01  54.70
sdb               3.00     0.00  517.00    0.00 13856.00     0.00    53.60     4.01    7.76    7.76    0.00   1.60  82.50
sdd               3.00     0.00  543.00    0.00 14052.00     0.00    51.76     2.89    5.30    5.30    0.00   1.36  73.60
md0               0.00     0.00 1615.00    0.00 49792.00     0.00    61.66     0.00    0.00    0.00    0.00   0.00   0.00

