Linux 4.17.2 (bench2) 	08/03/2018 	_x86_64_	(32 CPU)

avg-cpu:  %user   %nice %system %iowait  %steal   %idle
           1.90    0.00    1.55    1.58    0.00   94.97

Device:         rrqm/s   wrqm/s     r/s     w/s    rkB/s    wkB/s avgrq-sz avgqu-sz   await r_await w_await  svctm  %util
nvme0n1         938.39     5.10 18917.47  520.86 105816.45 11746.87    12.10     1.35    0.05    0.03    0.67   0.02  39.60
sda               0.12     0.82   14.15    0.58   163.96     8.53    23.41     0.00    0.33    0.32    0.44   0.07   0.10
sdc              33.90     0.17  117.97    0.31  1779.74    97.51    31.74     0.06    0.48   12.48  380.35   0.91  10.81
sdb              31.86     0.19  119.97    0.33  1777.80    97.33    31.17     0.49    4.08    2.95  411.64   0.85  10.28
sdd              34.10     0.17  117.52    0.26  1775.73    97.01    31.80     0.81    6.84    4.83  907.87   0.92  10.82
md0               0.00     0.00  458.16    1.21  6608.22   351.92    30.30     0.00    0.00    0.00    0.00   0.00   0.00

avg-cpu:  %user   %nice %system %iowait  %steal   %idle
           0.00    0.00    0.00    1.47    0.00   98.53

Device:         rrqm/s   wrqm/s     r/s     w/s    rkB/s    wkB/s avgrq-sz avgqu-sz   await r_await w_await  svctm  %util
nvme0n1           0.00     0.00    0.00    0.00     0.00     0.00     0.00     0.00    0.00    0.00    0.00   0.00   0.00
sda               0.00     0.00    1.00    0.00     8.00     0.00    16.00     0.00    1.00    1.00    0.00   1.00   0.10
sdc              95.00     0.00  340.00    0.00  1904.00     0.00    11.20    81.58  218.64  218.64    0.00   2.94  99.90
sdb              99.00     0.00  368.00    0.00  2052.00     0.00    11.15    85.01  219.14  219.14    0.00   2.62  96.60
sdd             124.00     0.00  325.00    0.00  1872.00     0.00    11.52    75.92  213.83  213.83    0.00   2.93  95.20
md0               0.00     0.00 1001.00    0.00  4004.00     0.00     8.00     0.00    0.00    0.00    0.00   0.00   0.00

avg-cpu:  %user   %nice %system %iowait  %steal   %idle
           0.00    0.00    0.03    1.56    0.00   98.41

Device:         rrqm/s   wrqm/s     r/s     w/s    rkB/s    wkB/s avgrq-sz avgqu-sz   await r_await w_await  svctm  %util
nvme0n1           0.00     0.00    0.00    0.00     0.00     0.00     0.00     0.00    0.00    0.00    0.00   0.00   0.00
sda               0.00     0.00    0.00    0.00     0.00     0.00     0.00     0.00    0.00    0.00    0.00   0.00   0.00
sdc             189.00     0.00  316.00    0.00  1964.00     0.00    12.43    66.75  202.84  202.84    0.00   2.98  94.30
sdb             196.00     0.00  348.00    0.00  2104.00     0.00    12.09    81.08  205.42  205.42    0.00   2.80  97.50
sdd             128.00     0.00  314.00    0.00  1728.00     0.00    11.01    71.11  205.15  205.15    0.00   3.03  95.00
md0               0.00     0.00 1552.00    0.00  6208.00     0.00     8.00     0.00    0.00    0.00    0.00   0.00   0.00

