Linux 4.17.2 (bench2) 	08/03/2018 	_x86_64_	(32 CPU)

avg-cpu:  %user   %nice %system %iowait  %steal   %idle
           1.90    0.00    1.55    1.58    0.00   94.96

Device:         rrqm/s   wrqm/s     r/s     w/s    rkB/s    wkB/s avgrq-sz avgqu-sz   await r_await w_await  svctm  %util
nvme0n1         938.10     5.09 18911.67  520.70 105783.99 11743.27    12.10     1.35    0.05    0.03    0.67   0.02  39.59
sda               0.12     0.82   14.16    0.58   163.96     8.53    23.41     0.00    0.33    0.32    0.44   0.07   0.10
sdc              33.95     0.17  118.12    0.31  1782.82    97.48    31.75     0.06    0.53   12.52  380.35   0.91  10.83
sdb              31.91     0.19  120.11    0.33  1780.90    97.30    31.19     0.50    4.12    3.00  411.64   0.85  10.29
sdd              34.14     0.17  117.66    0.26  1778.82    96.98    31.82     0.81    6.88    4.89  907.87   0.92  10.83
md0               0.00     0.00  458.73    1.21  6619.73   351.81    30.32     0.00    0.00    0.00    0.00   0.00   0.00

avg-cpu:  %user   %nice %system %iowait  %steal   %idle
           0.01    0.00    0.27    9.29    0.00   90.43

Device:         rrqm/s   wrqm/s     r/s     w/s    rkB/s    wkB/s avgrq-sz avgqu-sz   await r_await w_await  svctm  %util
nvme0n1           0.00     0.00    0.00    0.00     0.00     0.00     0.00     0.00    0.00    0.00    0.00   0.00   0.00
sda               0.00     1.20    4.00    1.60    31.00    12.00    15.36     0.00    0.06    0.06    0.06   0.06   0.04
sdc              72.50     0.00  738.05    0.00  3242.00     0.00     8.79    95.20  128.90  128.90    0.00   1.25  92.30
sdb              73.30     0.00  726.55    0.00  3199.40     0.00     8.81    92.13  126.80  126.80    0.00   1.23  89.72
sdd              75.50     0.00  741.70    0.00  3268.80     0.00     8.81    95.03  128.12  128.12    0.00   1.23  91.21
md0               0.00     0.00 2427.85    0.00  9711.40     0.00     8.00     0.00    0.00    0.00    0.00   0.00   0.00

