Linux 4.17.2 (bench2) 	08/03/2018 	_x86_64_	(32 CPU)

avg-cpu:  %user   %nice %system %iowait  %steal   %idle
           1.90    0.00    1.55    1.58    0.00   94.96

Device:         rrqm/s   wrqm/s     r/s     w/s    rkB/s    wkB/s avgrq-sz avgqu-sz   await r_await w_await  svctm  %util
nvme0n1         938.13     5.10 18912.28  520.71 105787.39 11743.64    12.10     1.35    0.05    0.03    0.67   0.02  39.59
sda               0.12     0.82   14.16    0.58   163.96     8.53    23.41     0.00    0.33    0.32    0.44   0.07   0.10
sdc              33.95     0.17  118.09    0.31  1782.62    97.48    31.76     0.06    0.53   12.52  380.35   0.91  10.83
sdb              31.91     0.19  120.09    0.33  1780.70    97.31    31.19     0.50    4.12    2.99  411.64   0.85  10.29
sdd              34.15     0.17  117.63    0.26  1778.62    96.98    31.82     0.81    6.88    4.88  907.87   0.92  10.83
md0               0.00     0.00  458.66    1.21  6619.05   351.82    30.32     0.00    0.00    0.00    0.00   0.00   0.00

avg-cpu:  %user   %nice %system %iowait  %steal   %idle
           0.01    0.00    0.16   37.34    0.00   62.49

Device:         rrqm/s   wrqm/s     r/s     w/s    rkB/s    wkB/s avgrq-sz avgqu-sz   await r_await w_await  svctm  %util
nvme0n1           0.00     0.00    0.00    0.00     0.00     0.00     0.00     0.00    0.00    0.00    0.00   0.00   0.00
sda               0.00     1.00    0.20    0.60     5.20     7.20    31.00     0.00    0.12    0.25    0.08   0.12   0.01
sdc               0.75     0.00  466.55    0.00  4027.00     0.00    17.26     4.97   10.59   10.59    0.00   1.59  74.14
sdb               0.95     0.00  460.05    0.00  4010.40     0.00    17.43     4.18    9.08    9.08    0.00   1.63  74.94
sdd               0.50     0.00  469.70    0.00  4236.80     0.00    18.04     5.40   11.49   11.49    0.00   1.74  81.61
md0               0.00     0.00 1399.35    0.00 13621.20     0.00    19.47     0.00    0.00    0.00    0.00   0.00   0.00

