Linux 4.17.2 (bench2) 	08/03/2018 	_x86_64_	(32 CPU)

avg-cpu:  %user   %nice %system %iowait  %steal   %idle
           1.91    0.00    1.56    1.55    0.00   94.98

Device:         rrqm/s   wrqm/s     r/s     w/s    rkB/s    wkB/s avgrq-sz avgqu-sz   await r_await w_await  svctm  %util
nvme0n1         945.37     5.13 19058.19  524.73 106603.59 11834.25    12.10     1.36    0.05    0.03    0.67   0.02  39.90
sda               0.11     0.81   14.15    0.58   163.96     8.51    23.43     0.00    0.33    0.32    0.45   0.07   0.10
sdc              33.46     0.18  113.46    0.31  1702.76    98.24    31.66     0.00    0.03   12.61  380.35   0.92  10.50
sdb              31.40     0.19  115.48    0.33  1700.86    98.06    31.07     0.44    3.82    2.64  411.64   0.86   9.98
sdd              33.65     0.17  113.00    0.26  1698.77    97.73    31.72     0.76    6.70    4.60  907.87   0.93  10.50
md0               0.00     0.00  443.30    1.22  6305.78   354.54    29.97     0.00    0.00    0.00    0.00   0.00   0.00

avg-cpu:  %user   %nice %system %iowait  %steal   %idle
           0.01    0.00    0.04   11.67    0.00   88.28

Device:         rrqm/s   wrqm/s     r/s     w/s    rkB/s    wkB/s avgrq-sz avgqu-sz   await r_await w_await  svctm  %util
nvme0n1           0.00     0.00    0.00    0.00     0.00     0.00     0.00     0.00    0.00    0.00    0.00   0.00   0.00
sda               0.00     0.95    3.65    0.50    29.60     6.60    17.45     0.00    0.10    0.08    0.20   0.10   0.04
sdc               0.00     0.00   67.90    0.00   271.60     0.00     8.00     1.38   20.26   20.26    0.00   9.44  64.09
sdb               0.00     0.00   67.00    0.00   268.00     0.00     8.00     1.34   19.95   19.95    0.00   9.46  63.41
sdd               0.00     0.00   70.20    0.00   280.80     0.00     8.00     1.45   20.58   20.58    0.00   9.37  65.77
md0               0.00     0.00  205.20    0.00   820.80     0.00     8.00     0.00    0.00    0.00    0.00   0.00   0.00

