Linux 4.17.2 (bench2) 	08/03/2018 	_x86_64_	(32 CPU)

avg-cpu:  %user   %nice %system %iowait  %steal   %idle
           1.91    0.00    1.56    1.57    0.00   94.97

Device:         rrqm/s   wrqm/s     r/s     w/s    rkB/s    wkB/s avgrq-sz avgqu-sz   await r_await w_await  svctm  %util
nvme0n1         939.42     5.10 18938.28  521.43 105932.83 11759.79    12.10     1.35    0.05    0.03    0.67   0.02  39.64
sda               0.12     0.82   14.16    0.58   163.98     8.52    23.42     0.00    0.33    0.32    0.44   0.07   0.10
sdc              33.85     0.17  117.49    0.31  1768.87    97.62    31.69     0.04    0.36   12.43  380.35   0.91  10.76
sdb              31.80     0.19  119.49    0.33  1766.93    97.44    31.12     0.48    3.98    2.84  411.64   0.85  10.22
sdd              34.04     0.17  117.03    0.26  1764.86    97.11    31.75     0.79    6.75    4.74  907.87   0.92  10.76
md0               0.00     0.00  456.54    1.21  6564.74   352.31    30.22     0.00    0.00    0.00    0.00   0.00   0.00

avg-cpu:  %user   %nice %system %iowait  %steal   %idle
           0.00    0.00    0.06    7.03    0.00   92.90

Device:         rrqm/s   wrqm/s     r/s     w/s    rkB/s    wkB/s avgrq-sz avgqu-sz   await r_await w_await  svctm  %util
nvme0n1           0.00     0.00    0.00    0.00     0.00     0.00     0.00     0.00    0.00    0.00    0.00   0.00   0.00
sda               0.00     0.00    4.00    0.00   104.00     0.00    52.00     0.00    0.25    0.25    0.00   0.25   0.10
sdc               0.00     0.00   62.00    0.00   248.00     0.00     8.00     1.01   15.82   15.82    0.00   9.89  61.30
sdb               0.00     0.00   85.00    0.00   340.00     0.00     8.00     2.67   29.92   29.92    0.00   9.67  82.20
sdd               0.00     0.00   75.00    0.00   300.00     0.00     8.00     3.71   49.11   49.11    0.00  11.29  84.70
md0               0.00     0.00  230.00    0.00   920.00     0.00     8.00     0.00    0.00    0.00    0.00   0.00   0.00

avg-cpu:  %user   %nice %system %iowait  %steal   %idle
           0.00    0.00    0.03    5.38    0.00   94.59

Device:         rrqm/s   wrqm/s     r/s     w/s    rkB/s    wkB/s avgrq-sz avgqu-sz   await r_await w_await  svctm  %util
nvme0n1           0.00     0.00    0.00    0.00     0.00     0.00     0.00     0.00    0.00    0.00    0.00   0.00   0.00
sda               0.00     0.00    0.00    0.00     0.00     0.00     0.00     0.00    0.00    0.00    0.00   0.00   0.00
sdc               0.00     0.00   94.00    0.00   376.00     0.00     8.00     2.54   27.05   27.05    0.00   8.94  84.00
sdb               0.00     0.00  101.00    0.00   404.00     0.00     8.00     2.90   29.71   29.71    0.00   9.29  93.80
sdd               0.00     0.00   86.00    0.00   344.00     0.00     8.00     1.77   20.72   20.72    0.00   9.40  80.80
md0               0.00     0.00  277.00    0.00  1108.00     0.00     8.00     0.00    0.00    0.00    0.00   0.00   0.00

avg-cpu:  %user   %nice %system %iowait  %steal   %idle
           0.00    0.00    0.03    6.03    0.00   93.94

Device:         rrqm/s   wrqm/s     r/s     w/s    rkB/s    wkB/s avgrq-sz avgqu-sz   await r_await w_await  svctm  %util
nvme0n1           0.00     0.00    0.00    0.00     0.00     0.00     0.00     0.00    0.00    0.00    0.00   0.00   0.00
sda               0.00     0.00    0.00    0.00     0.00     0.00     0.00     0.00    0.00    0.00    0.00   0.00   0.00
sdc               0.00     0.00   99.00    0.00   396.00     0.00     8.00     2.98   30.16   30.16    0.00   9.43  93.40
sdb               0.00     0.00   91.00    0.00   364.00     0.00     8.00     1.88   19.71   19.71    0.00   9.37  85.30
sdd               0.00     0.00   90.00    0.00   360.00     0.00     8.00     2.00   22.20   22.20    0.00   9.18  82.60
md0               0.00     0.00  284.00    0.00  1136.00     0.00     8.00     0.00    0.00    0.00    0.00   0.00   0.00

avg-cpu:  %user   %nice %system %iowait  %steal   %idle
           0.00    0.00    0.06    5.94    0.00   94.00

Device:         rrqm/s   wrqm/s     r/s     w/s    rkB/s    wkB/s avgrq-sz avgqu-sz   await r_await w_await  svctm  %util
nvme0n1           0.00     0.00    0.00    0.00     0.00     0.00     0.00     0.00    0.00    0.00    0.00   0.00   0.00
sda               0.00     8.00    0.00    2.00     0.00    40.00    40.00     0.00    0.00    0.00    0.00   0.00   0.00
sdc               0.00     0.00   77.00    0.00   308.00     0.00     8.00     1.29   16.14   16.14    0.00   9.06  69.80
sdb               0.00     0.00   99.00    0.00   396.00     0.00     8.00     3.04   31.88   31.88    0.00   9.25  91.60
sdd               0.00     0.00   99.00    0.00   396.00     0.00     8.00     2.73   26.56   26.56    0.00   9.35  92.60
md0               0.00     0.00  275.00    0.00  1100.00     0.00     8.00     0.00    0.00    0.00    0.00   0.00   0.00

avg-cpu:  %user   %nice %system %iowait  %steal   %idle
           0.00    0.00    0.03    6.31    0.00   93.65

Device:         rrqm/s   wrqm/s     r/s     w/s    rkB/s    wkB/s avgrq-sz avgqu-sz   await r_await w_await  svctm  %util
nvme0n1           0.00     0.00    0.00    0.00     0.00     0.00     0.00     0.00    0.00    0.00    0.00   0.00   0.00
sda               0.00     5.00    1.00    2.00     4.00    44.00    32.00     0.00    0.00    0.00    0.00   0.00   0.00
sdc               0.00     0.00   98.00    0.00   392.00     0.00     8.00     2.09   22.06   22.06    0.00   8.66  84.90
sdb               0.00     0.00   92.00    0.00   368.00     0.00     8.00     2.07   22.27   22.27    0.00   9.40  86.50
sdd               0.00     0.00  100.00    0.00   400.00     0.00     8.00     3.12   30.65   30.65    0.00   9.12  91.20
md0               0.00     0.00  290.00    0.00  1160.00     0.00     8.00     0.00    0.00    0.00    0.00   0.00   0.00

avg-cpu:  %user   %nice %system %iowait  %steal   %idle
           0.00    0.00    0.06    5.34    0.00   94.59

Device:         rrqm/s   wrqm/s     r/s     w/s    rkB/s    wkB/s avgrq-sz avgqu-sz   await r_await w_await  svctm  %util
nvme0n1           0.00     0.00    0.00    0.00     0.00     0.00     0.00     0.00    0.00    0.00    0.00   0.00   0.00
sda               0.00     0.00    0.00    0.00     0.00     0.00     0.00     0.00    0.00    0.00    0.00   0.00   0.00
sdc               0.00     0.00   66.00    0.00   264.00     0.00     8.00     1.41   21.38   21.38    0.00   9.83  64.90
sdb               0.00     0.00  100.00    0.00   400.00     0.00     8.00     3.15   31.23   31.23    0.00   9.64  96.40
sdd               0.00     0.00   89.00    0.00   356.00     0.00     8.00     2.48   28.76   28.76    0.00   9.16  81.50
md0               0.00     0.00  255.00    0.00  1020.00     0.00     8.00     0.00    0.00    0.00    0.00   0.00   0.00

avg-cpu:  %user   %nice %system %iowait  %steal   %idle
           0.03    0.00    0.03    5.94    0.00   94.00

Device:         rrqm/s   wrqm/s     r/s     w/s    rkB/s    wkB/s avgrq-sz avgqu-sz   await r_await w_await  svctm  %util
nvme0n1           0.00     0.00    0.00    0.00     0.00     0.00     0.00     0.00    0.00    0.00    0.00   0.00   0.00
sda               0.00     0.00    0.00    0.00     0.00     0.00     0.00     0.00    0.00    0.00    0.00   0.00   0.00
sdc               0.00     0.00   88.00    0.00   352.00     0.00     8.00     1.72   18.51   18.51    0.00   9.49  83.50
sdb               0.00     0.00  101.00    0.00   404.00     0.00     8.00     2.78   27.92   27.92    0.00   9.43  95.20
sdd               0.00     0.00   98.00    0.00   392.00     0.00     8.00     2.84   29.51   29.51    0.00   9.37  91.80
md0               0.00     0.00  285.00    0.00  1140.00     0.00     8.00     0.00    0.00    0.00    0.00   0.00   0.00

avg-cpu:  %user   %nice %system %iowait  %steal   %idle
           0.00    0.00    0.03    5.81    0.00   94.15

Device:         rrqm/s   wrqm/s     r/s     w/s    rkB/s    wkB/s avgrq-sz avgqu-sz   await r_await w_await  svctm  %util
nvme0n1           0.00     0.00    0.00    0.00     0.00     0.00     0.00     0.00    0.00    0.00    0.00   0.00   0.00
sda               0.00     0.00    0.00    0.00     0.00     0.00     0.00     0.00    0.00    0.00    0.00   0.00   0.00
sdc               0.00     0.00   87.00    0.00   348.00     0.00     8.00     2.11   25.16   25.16    0.00   9.22  80.20
sdb               0.00     0.00   98.00    0.00   392.00     0.00     8.00     2.91   29.80   29.80    0.00   9.31  91.20
sdd               0.00     0.00   86.00    0.00   344.00     0.00     8.00     1.82   21.16   21.16    0.00   9.34  80.30
md0               0.00     0.00  268.00    0.00  1072.00     0.00     8.00     0.00    0.00    0.00    0.00   0.00   0.00

avg-cpu:  %user   %nice %system %iowait  %steal   %idle
           0.00    0.00    0.00    6.07    0.00   93.93

Device:         rrqm/s   wrqm/s     r/s     w/s    rkB/s    wkB/s avgrq-sz avgqu-sz   await r_await w_await  svctm  %util
nvme0n1           0.00     0.00    0.00    0.00     0.00     0.00     0.00     0.00    0.00    0.00    0.00   0.00   0.00
sda               0.00     0.00    0.00    0.00     0.00     0.00     0.00     0.00    0.00    0.00    0.00   0.00   0.00
sdc               0.00     0.00   94.00    0.00   376.00     0.00     8.00     2.64   28.19   28.19    0.00   9.21  86.60
sdb               0.00     0.00   83.00    0.00   332.00     0.00     8.00     1.94   23.31   23.31    0.00   9.83  81.60
sdd               0.00     0.00   89.00    0.00   356.00     0.00     8.00     2.23   25.37   25.37    0.00   9.21  82.00
md0               0.00     0.00  265.00    0.00  1060.00     0.00     8.00     0.00    0.00    0.00    0.00   0.00   0.00

avg-cpu:  %user   %nice %system %iowait  %steal   %idle
           0.00    0.00    0.06    5.94    0.00   94.00

Device:         rrqm/s   wrqm/s     r/s     w/s    rkB/s    wkB/s avgrq-sz avgqu-sz   await r_await w_await  svctm  %util
nvme0n1           0.00     0.00    0.00    0.00     0.00     0.00     0.00     0.00    0.00    0.00    0.00   0.00   0.00
sda               0.00     6.00    0.00    2.00     0.00    32.00    32.00     0.00    0.00    0.00    0.00   0.00   0.00
sdc               0.00     0.00   77.00    0.00   308.00     0.00     8.00     1.42   17.81   17.81    0.00   9.52  73.30
sdb               0.00     0.00  100.00    0.00   400.00     0.00     8.00     3.43   34.36   34.36    0.00   9.12  91.20
sdd               0.00     0.00   84.00    0.00   336.00     0.00     8.00     1.70   19.89   19.89    0.00   9.26  77.80
md0               0.00     0.00  267.00    0.00  1068.00     0.00     8.00     0.00    0.00    0.00    0.00   0.00   0.00

avg-cpu:  %user   %nice %system %iowait  %steal   %idle
           0.00    0.00    0.03    5.97    0.00   94.00

Device:         rrqm/s   wrqm/s     r/s     w/s    rkB/s    wkB/s avgrq-sz avgqu-sz   await r_await w_await  svctm  %util
nvme0n1           0.00     0.00    0.00    0.00     0.00     0.00     0.00     0.00    0.00    0.00    0.00   0.00   0.00
sda               0.00     0.00    0.00    0.00     0.00     0.00     0.00     0.00    0.00    0.00    0.00   0.00   0.00
sdc               0.00     0.00   98.00    0.00   392.00     0.00     8.00     3.07   31.47   31.47    0.00   9.41  92.20
sdb               0.00     0.00   88.00    0.00   352.00     0.00     8.00     2.35   26.57   26.57    0.00   8.92  78.50
sdd               0.00     0.00   95.00    0.00   380.00     0.00     8.00     1.79   18.57   18.57    0.00   8.83  83.90
md0               0.00     0.00  281.00    0.00  1124.00     0.00     8.00     0.00    0.00    0.00    0.00   0.00   0.00

avg-cpu:  %user   %nice %system %iowait  %steal   %idle
           0.00    0.00    0.06    6.06    0.00   93.88

Device:         rrqm/s   wrqm/s     r/s     w/s    rkB/s    wkB/s avgrq-sz avgqu-sz   await r_await w_await  svctm  %util
nvme0n1           0.00     0.00    0.00    0.00     0.00     0.00     0.00     0.00    0.00    0.00    0.00   0.00   0.00
sda               0.00     0.00    0.00    0.00     0.00     0.00     0.00     0.00    0.00    0.00    0.00   0.00   0.00
sdc               0.00     0.00   83.00    0.00   332.00     0.00     8.00     1.55   19.27   19.27    0.00   8.99  74.60
sdb               0.00     0.00   96.00    0.00   384.00     0.00     8.00     2.36   22.79   22.79    0.00   9.33  89.60
sdd               0.00     0.00  100.00    0.00   400.00     0.00     8.00     3.14   31.61   31.61    0.00   8.80  88.00
md0               0.00     0.00  279.00    0.00  1116.00     0.00     8.00     0.00    0.00    0.00    0.00   0.00   0.00

avg-cpu:  %user   %nice %system %iowait  %steal   %idle
           0.00    0.00    0.06    6.34    0.00   93.59

Device:         rrqm/s   wrqm/s     r/s     w/s    rkB/s    wkB/s avgrq-sz avgqu-sz   await r_await w_await  svctm  %util
nvme0n1           0.00     0.00    0.00    0.00     0.00     0.00     0.00     0.00    0.00    0.00    0.00   0.00   0.00
sda               0.00     0.00    0.00    0.00     0.00     0.00     0.00     0.00    0.00    0.00    0.00   0.00   0.00
sdc               0.00     0.00   91.00    0.00   364.00     0.00     8.00     2.44   26.80   26.80    0.00   9.53  86.70
sdb               0.00     0.00   91.00    0.00   364.00     0.00     8.00     2.95   32.18   32.18    0.00   9.56  87.00
sdd               0.00     0.00   86.00    0.00   344.00     0.00     8.00     1.74   20.57   20.57    0.00   9.05  77.80
md0               0.00     0.00  268.00    0.00  1072.00     0.00     8.00     0.00    0.00    0.00    0.00   0.00   0.00

avg-cpu:  %user   %nice %system %iowait  %steal   %idle
           0.00    0.00    0.03    5.47    0.00   94.50

Device:         rrqm/s   wrqm/s     r/s     w/s    rkB/s    wkB/s avgrq-sz avgqu-sz   await r_await w_await  svctm  %util
nvme0n1           0.00     0.00    0.00    0.00     0.00     0.00     0.00     0.00    0.00    0.00    0.00   0.00   0.00
sda               0.00     0.00    0.00    0.00     0.00     0.00     0.00     0.00    0.00    0.00    0.00   0.00   0.00
sdc               0.00     0.00   78.00    0.00   312.00     0.00     8.00     1.79   21.36   21.36    0.00   9.36  73.00
sdb               0.00     0.00  105.00    0.00   420.00     0.00     8.00     3.30   33.09   33.09    0.00   9.20  96.60
sdd               0.00     0.00   87.00    0.00   348.00     0.00     8.00     1.95   22.51   22.51    0.00   9.17  79.80
md0               0.00     0.00  270.00    0.00  1080.00     0.00     8.00     0.00    0.00    0.00    0.00   0.00   0.00

avg-cpu:  %user   %nice %system %iowait  %steal   %idle
           0.00    0.00    0.03    5.97    0.00   94.00

Device:         rrqm/s   wrqm/s     r/s     w/s    rkB/s    wkB/s avgrq-sz avgqu-sz   await r_await w_await  svctm  %util
nvme0n1           0.00     0.00    0.00    0.00     0.00     0.00     0.00     0.00    0.00    0.00    0.00   0.00   0.00
sda               0.00     1.00    0.00    2.00     0.00    12.00    12.00     0.00    0.50    0.00    0.50   0.50   0.10
sdc               0.00     0.00   87.00    0.00   348.00     0.00     8.00     2.29   27.54   27.54    0.00   9.23  80.30
sdb               0.00     0.00  102.00    0.00   408.00     0.00     8.00     3.11   30.26   30.26    0.00   9.54  97.30
sdd               0.00     0.00   89.00    0.00   356.00     0.00     8.00     1.71   17.97   17.97    0.00   9.09  80.90
md0               0.00     0.00  278.00    0.00  1112.00     0.00     8.00     0.00    0.00    0.00    0.00   0.00   0.00

avg-cpu:  %user   %nice %system %iowait  %steal   %idle
           0.00    0.00    0.03    6.00    0.00   93.97

Device:         rrqm/s   wrqm/s     r/s     w/s    rkB/s    wkB/s avgrq-sz avgqu-sz   await r_await w_await  svctm  %util
nvme0n1           0.00     0.00    0.00    0.00     0.00     0.00     0.00     0.00    0.00    0.00    0.00   0.00   0.00
sda               0.00     0.00    0.00    0.00     0.00     0.00     0.00     0.00    0.00    0.00    0.00   0.00   0.00
sdc               0.00     0.00   81.00    0.00   324.00     0.00     8.00     2.41   29.83   29.83    0.00   9.23  74.80
sdb               0.00     0.00   93.00    0.00   372.00     0.00     8.00     1.96   21.48   21.48    0.00   9.10  84.60
sdd               0.00     0.00   89.00    0.00   356.00     0.00     8.00     2.35   24.98   24.98    0.00   9.27  82.50
md0               0.00     0.00  262.00    0.00  1048.00     0.00     8.00     0.00    0.00    0.00    0.00   0.00   0.00

avg-cpu:  %user   %nice %system %iowait  %steal   %idle
           0.00    0.00    0.03    5.57    0.00   94.40

Device:         rrqm/s   wrqm/s     r/s     w/s    rkB/s    wkB/s avgrq-sz avgqu-sz   await r_await w_await  svctm  %util
nvme0n1           0.00     0.00    0.00    0.00     0.00     0.00     0.00     0.00    0.00    0.00    0.00   0.00   0.00
sda               0.00     0.00    0.00    0.00     0.00     0.00     0.00     0.00    0.00    0.00    0.00   0.00   0.00
sdc               0.00     0.00   81.00    0.00   324.00     0.00     8.00     1.75   21.02   21.02    0.00   9.56  77.40
sdb               0.00     0.00   85.00    0.00   340.00     0.00     8.00     2.24   26.47   26.47    0.00   9.18  78.00
sdd               0.00     0.00  104.00    0.00   416.00     0.00     8.00     3.05   31.43   31.43    0.00   8.95  93.10
md0               0.00     0.00  267.00    0.00  1068.00     0.00     8.00     0.00    0.00    0.00    0.00   0.00   0.00

avg-cpu:  %user   %nice %system %iowait  %steal   %idle
           0.03    0.00    0.03    5.53    0.00   94.41

Device:         rrqm/s   wrqm/s     r/s     w/s    rkB/s    wkB/s avgrq-sz avgqu-sz   await r_await w_await  svctm  %util
nvme0n1           0.00     0.00    0.00    0.00     0.00     0.00     0.00     0.00    0.00    0.00    0.00   0.00   0.00
sda               0.00     0.00    0.00    0.00     0.00     0.00     0.00     0.00    0.00    0.00    0.00   0.00   0.00
sdc               0.00     0.00   82.00    0.00   328.00     0.00     8.00     2.49   30.94   30.94    0.00   9.11  74.70
sdb               0.00     0.00   92.00    0.00   368.00     0.00     8.00     2.30   25.02   25.02    0.00   9.04  83.20
sdd               0.00     0.00   91.00    0.00   364.00     0.00     8.00     2.10   23.24   23.24    0.00   9.18  83.50
md0               0.00     0.00  262.00    0.00  1048.00     0.00     8.00     0.00    0.00    0.00    0.00   0.00   0.00

avg-cpu:  %user   %nice %system %iowait  %steal   %idle
           0.00    0.00    0.03    5.91    0.00   94.06

Device:         rrqm/s   wrqm/s     r/s     w/s    rkB/s    wkB/s avgrq-sz avgqu-sz   await r_await w_await  svctm  %util
nvme0n1           0.00     0.00    0.00    0.00     0.00     0.00     0.00     0.00    0.00    0.00    0.00   0.00   0.00
sda               0.00     0.00    0.00    0.00     0.00     0.00     0.00     0.00    0.00    0.00    0.00   0.00   0.00
sdc               0.00     0.00   94.00    0.00   376.00     0.00     8.00     2.69   28.66   28.66    0.00   9.12  85.70
sdb               0.00     0.00   84.00    0.00   336.00     0.00     8.00     2.16   25.58   25.58    0.00   8.76  73.60
sdd               0.00     0.00   95.00    0.00   380.00     0.00     8.00     2.12   20.73   20.73    0.00   8.42  80.00
md0               0.00     0.00  280.00    0.00  1120.00     0.00     8.00     0.00    0.00    0.00    0.00   0.00   0.00

avg-cpu:  %user   %nice %system %iowait  %steal   %idle
           0.00    0.00    0.03    5.91    0.00   94.06

Device:         rrqm/s   wrqm/s     r/s     w/s    rkB/s    wkB/s avgrq-sz avgqu-sz   await r_await w_await  svctm  %util
nvme0n1           0.00     0.00    0.00    0.00     0.00     0.00     0.00     0.00    0.00    0.00    0.00   0.00   0.00
sda               0.00     1.00    0.00    2.00     0.00    12.00    12.00     0.00    0.00    0.00    0.00   0.00   0.00
sdc               0.00     0.00   90.00    0.00   360.00     0.00     8.00     2.32   24.41   24.41    0.00   8.92  80.30
sdb               0.00     0.00   95.00    0.00   380.00     0.00     8.00     2.75   28.92   28.92    0.00   9.22  87.60
sdd               0.00     0.00   88.00    0.00   352.00     0.00     8.00     1.76   21.59   21.59    0.00   8.99  79.10
md0               0.00     0.00  273.00    0.00  1092.00     0.00     8.00     0.00    0.00    0.00    0.00   0.00   0.00

