Linux 4.17.2 (bench2) 	08/03/2018 	_x86_64_	(32 CPU)

avg-cpu:  %user   %nice %system %iowait  %steal   %idle
           1.90    0.00    1.55    1.58    0.00   94.96

Device:         rrqm/s   wrqm/s     r/s     w/s    rkB/s    wkB/s avgrq-sz avgqu-sz   await r_await w_await  svctm  %util
nvme0n1         937.38     5.09 18897.29  520.30 105703.59 11734.34    12.10     1.35    0.05    0.03    0.67   0.02  39.56
sda               0.12     0.82   14.16    0.58   163.98     8.53    23.41     0.00    0.33    0.32    0.44   0.07   0.10
sdc              34.18     0.17  118.61    0.31  1791.53    97.41    31.77     0.07    0.57   12.51  380.35   0.91  10.86
sdb              32.14     0.19  120.60    0.33  1789.59    97.23    31.20     0.50    4.14    3.02  411.64   0.85  10.32
sdd              34.37     0.17  118.15    0.26  1787.54    96.90    31.83     0.82    6.89    4.90  907.87   0.92  10.86
md0               0.00     0.00  460.88    1.21  6653.49   351.54    30.32     0.00    0.00    0.00    0.00   0.00   0.00

avg-cpu:  %user   %nice %system %iowait  %steal   %idle
           0.00    0.00    0.25   23.51    0.00   76.24

Device:         rrqm/s   wrqm/s     r/s     w/s    rkB/s    wkB/s avgrq-sz avgqu-sz   await r_await w_await  svctm  %util
nvme0n1           0.00     0.00    0.00    0.00     0.00     0.00     0.00     0.00    0.00    0.00    0.00   0.00   0.00
sda               0.00     0.00   20.00    0.00   120.00     0.00    12.00     0.01    0.45    0.45    0.00   0.05   0.10
sdc               0.00     0.00  240.00    0.00   984.00     0.00     8.20     5.27   21.79   21.79    0.00   3.64  87.40
sdb               0.00     0.00  228.00    0.00   912.00     0.00     8.00     4.18   18.35   18.35    0.00   3.22  73.40
sdd               0.00     0.00  269.00    0.00  1076.00     0.00     8.00     5.65   21.04   21.04    0.00   3.03  81.60
md0               0.00     0.00  737.00    0.00  2960.00     0.00     8.03     0.00    0.00    0.00    0.00   0.00   0.00

avg-cpu:  %user   %nice %system %iowait  %steal   %idle
           0.03    0.00    0.31   25.77    0.00   73.88

Device:         rrqm/s   wrqm/s     r/s     w/s    rkB/s    wkB/s avgrq-sz avgqu-sz   await r_await w_await  svctm  %util
nvme0n1           0.00     0.00    0.00    0.00     0.00     0.00     0.00     0.00    0.00    0.00    0.00   0.00   0.00
sda               0.00    11.00    0.00    2.00     0.00    52.00    52.00     0.00    0.00    0.00    0.00   0.00   0.00
sdc               0.00     0.00  244.00    0.00   976.00     0.00     8.00     5.62   23.13   23.13    0.00   3.46  84.50
sdb               0.00     0.00  264.00    0.00  1056.00     0.00     8.00     5.32   20.12   20.12    0.00   2.95  77.90
sdd               0.00     0.00  210.00    0.00   840.00     0.00     8.00     4.12   18.37   18.37    0.00   3.44  72.30
md0               0.00     0.00  736.00    0.00  2944.00     0.00     8.00     0.00    0.00    0.00    0.00   0.00   0.00

avg-cpu:  %user   %nice %system %iowait  %steal   %idle
           0.03    0.00    0.25   27.14    0.00   72.58

Device:         rrqm/s   wrqm/s     r/s     w/s    rkB/s    wkB/s avgrq-sz avgqu-sz   await r_await w_await  svctm  %util
nvme0n1           0.00     0.00    0.00    0.00     0.00     0.00     0.00     0.00    0.00    0.00    0.00   0.00   0.00
sda               0.00     0.00    0.00    0.00     0.00     0.00     0.00     0.00    0.00    0.00    0.00   0.00   0.00
sdc               0.00     0.00  222.00    0.00   888.00     0.00     8.00     5.33   22.63   22.63    0.00   3.50  77.70
sdb               0.00     0.00  238.00    0.00   952.00     0.00     8.00     4.82   20.29   20.29    0.00   2.99  71.20
sdd               0.00     0.00  280.00    0.00  1120.00     0.00     8.00     5.72   21.04   21.04    0.00   2.98  83.40
md0               0.00     0.00  736.00    0.00  2944.00     0.00     8.00     0.00    0.00    0.00    0.00   0.00   0.00

avg-cpu:  %user   %nice %system %iowait  %steal   %idle
           0.03    0.00    0.13   24.08    0.00   75.76

Device:         rrqm/s   wrqm/s     r/s     w/s    rkB/s    wkB/s avgrq-sz avgqu-sz   await r_await w_await  svctm  %util
nvme0n1           0.00     0.00    0.00    0.00     0.00     0.00     0.00     0.00    0.00    0.00    0.00   0.00   0.00
sda               0.00     0.00    0.00    0.00     0.00     0.00     0.00     0.00    0.00    0.00    0.00   0.00   0.00
sdc               0.00     0.00  222.00    0.00   888.00     0.00     8.00     4.77   22.91   22.91    0.00   3.36  74.50
sdb               0.00     0.00  206.00    0.00   824.00     0.00     8.00     4.09   19.78   19.78    0.00   3.42  70.40
sdd               0.00     0.00  227.00    0.00   908.00     0.00     8.00     5.80   25.88   25.88    0.00   3.67  83.30
md0               0.00     0.00  672.00    0.00  2688.00     0.00     8.00     0.00    0.00    0.00    0.00   0.00   0.00

avg-cpu:  %user   %nice %system %iowait  %steal   %idle
           0.00    0.00    0.25   25.07    0.00   74.68

Device:         rrqm/s   wrqm/s     r/s     w/s    rkB/s    wkB/s avgrq-sz avgqu-sz   await r_await w_await  svctm  %util
nvme0n1           0.00     0.00    0.00    0.00     0.00     0.00     0.00     0.00    0.00    0.00    0.00   0.00   0.00
sda               0.00     0.00    0.00    0.00     0.00     0.00     0.00     0.00    0.00    0.00    0.00   0.00   0.00
sdc               0.00     0.00  204.00    0.00   816.00     0.00     8.00     4.79   23.25   23.25    0.00   3.91  79.80
sdb               0.00     0.00  240.00    0.00   960.00     0.00     8.00     4.79   19.94   19.94    0.00   3.08  73.90
sdd               0.00     0.00  247.00    0.00   988.00     0.00     8.00     5.46   21.84   21.84    0.00   3.18  78.50
md0               0.00     0.00  672.00    0.00  2688.00     0.00     8.00     0.00    0.00    0.00    0.00   0.00   0.00

avg-cpu:  %user   %nice %system %iowait  %steal   %idle
           0.03    0.00    0.53   27.60    0.00   71.84

Device:         rrqm/s   wrqm/s     r/s     w/s    rkB/s    wkB/s avgrq-sz avgqu-sz   await r_await w_await  svctm  %util
nvme0n1           0.00     0.00    0.00    0.00     0.00     0.00     0.00     0.00    0.00    0.00    0.00   0.00   0.00
sda               0.00     0.00    0.00    0.00     0.00     0.00     0.00     0.00    0.00    0.00    0.00   0.00   0.00
sdc               0.00     0.00  258.00    0.00  1032.00     0.00     8.00     5.50   20.93   20.93    0.00   3.21  82.90
sdb               0.00     0.00  252.00    0.00  1008.00     0.00     8.00     4.91   19.29   19.29    0.00   3.22  81.20
sdd               0.00     0.00  263.00    0.00  1052.00     0.00     8.00     5.44   21.08   21.08    0.00   3.04  79.90
md0               0.00     0.00  768.00    0.00  3072.00     0.00     8.00     0.00    0.00    0.00    0.00   0.00   0.00

avg-cpu:  %user   %nice %system %iowait  %steal   %idle
           0.03    0.00    0.28   25.88    0.00   73.80

Device:         rrqm/s   wrqm/s     r/s     w/s    rkB/s    wkB/s avgrq-sz avgqu-sz   await r_await w_await  svctm  %util
nvme0n1           0.00     0.00    0.00    0.00     0.00     0.00     0.00     0.00    0.00    0.00    0.00   0.00   0.00
sda               0.00     1.00    0.00    2.00     0.00    12.00    12.00     0.00    0.00    0.00    0.00   0.00   0.00
sdc               0.00     0.00  233.00    0.00   932.00     0.00     8.00     5.25   23.03   23.03    0.00   3.31  77.20
sdb               0.00     0.00  209.00    0.00   836.00     0.00     8.00     4.88   23.62   23.62    0.00   3.56  74.40
sdd               0.00     0.00  204.00    0.00   816.00     0.00     8.00     4.40   21.56   21.56    0.00   3.45  70.40
md0               0.00     0.00  640.00    0.00  2560.00     0.00     8.00     0.00    0.00    0.00    0.00   0.00   0.00

avg-cpu:  %user   %nice %system %iowait  %steal   %idle
           0.00    0.00    0.22   26.75    0.00   73.03

Device:         rrqm/s   wrqm/s     r/s     w/s    rkB/s    wkB/s avgrq-sz avgqu-sz   await r_await w_await  svctm  %util
nvme0n1           0.00     0.00    0.00    0.00     0.00     0.00     0.00     0.00    0.00    0.00    0.00   0.00   0.00
sda               0.00     0.00    0.00    0.00     0.00     0.00     0.00     0.00    0.00    0.00    0.00   0.00   0.00
sdc               0.00     0.00  267.00    0.00  1068.00     0.00     8.00     5.41   20.24   20.24    0.00   3.11  83.10
sdb               0.00     0.00  242.00    0.00   968.00     0.00     8.00     4.93   20.02   20.02    0.00   3.17  76.70
sdd               0.00     0.00  229.00    0.00   916.00     0.00     8.00     4.85   21.00   21.00    0.00   3.50  80.10
md0               0.00     0.00  768.00    0.00  3072.00     0.00     8.00     0.00    0.00    0.00    0.00   0.00   0.00

avg-cpu:  %user   %nice %system %iowait  %steal   %idle
           0.00    0.00    0.19   26.21    0.00   73.60

Device:         rrqm/s   wrqm/s     r/s     w/s    rkB/s    wkB/s avgrq-sz avgqu-sz   await r_await w_await  svctm  %util
nvme0n1           0.00     0.00    0.00    0.00     0.00     0.00     0.00     0.00    0.00    0.00    0.00   0.00   0.00
sda               0.00     2.00    0.00   15.00     0.00    68.00     9.07     0.00    0.00    0.00    0.00   0.00   0.00
sdc               0.00     0.00  245.00    0.00   980.00     0.00     8.00     5.19   21.47   21.47    0.00   3.13  76.80
sdb               0.00     0.00  247.00    0.00   988.00     0.00     8.00     4.66   19.23   19.23    0.00   3.06  75.70
sdd               0.00     0.00  237.00    0.00   948.00     0.00     8.00     5.21   21.28   21.28    0.00   3.36  79.60
md0               0.00     0.00  704.00    0.00  2816.00     0.00     8.00     0.00    0.00    0.00    0.00   0.00   0.00

avg-cpu:  %user   %nice %system %iowait  %steal   %idle
           0.00    0.00    0.22   27.15    0.00   72.63

Device:         rrqm/s   wrqm/s     r/s     w/s    rkB/s    wkB/s avgrq-sz avgqu-sz   await r_await w_await  svctm  %util
nvme0n1           0.00     0.00    0.00    0.00     0.00     0.00     0.00     0.00    0.00    0.00    0.00   0.00   0.00
sda               0.00     0.00    0.00    0.00     0.00     0.00     0.00     0.00    0.00    0.00    0.00   0.00   0.00
sdc               0.00     0.00  236.00    0.00   944.00     0.00     8.00     5.15   21.85   21.85    0.00   3.37  79.50
sdb               0.00     0.00  229.00    0.00   916.00     0.00     8.00     4.92   21.48   21.48    0.00   3.45  79.10
sdd               0.00     0.00  240.00    0.00   960.00     0.00     8.00     5.64   23.35   23.35    0.00   3.43  82.20
md0               0.00     0.00  704.00    0.00  2816.00     0.00     8.00     0.00    0.00    0.00    0.00   0.00   0.00

avg-cpu:  %user   %nice %system %iowait  %steal   %idle
           0.06    0.00    0.37   25.27    0.00   74.29

Device:         rrqm/s   wrqm/s     r/s     w/s    rkB/s    wkB/s avgrq-sz avgqu-sz   await r_await w_await  svctm  %util
nvme0n1           0.00     0.00    0.00    0.00     0.00     0.00     0.00     0.00    0.00    0.00    0.00   0.00   0.00
sda               0.00     0.00    0.00    0.00     0.00     0.00     0.00     0.00    0.00    0.00    0.00   0.00   0.00
sdc               0.00     0.00  226.00    0.00   904.00     0.00     8.00     4.29   18.59   18.59    0.00   2.83  64.00
sdb               0.00     0.00  256.00    0.00  1024.00     0.00     8.00     5.67   22.10   22.10    0.00   3.13  80.10
sdd               0.00     0.00  232.00    0.00   928.00     0.00     8.00     4.79   21.30   21.30    0.00   3.50  81.30
md0               0.00     0.00  736.00    0.00  2944.00     0.00     8.00     0.00    0.00    0.00    0.00   0.00   0.00

avg-cpu:  %user   %nice %system %iowait  %steal   %idle
           0.00    0.00    0.19   25.74    0.00   74.08

Device:         rrqm/s   wrqm/s     r/s     w/s    rkB/s    wkB/s avgrq-sz avgqu-sz   await r_await w_await  svctm  %util
nvme0n1           0.00     0.00    0.00    0.00     0.00     0.00     0.00     0.00    0.00    0.00    0.00   0.00   0.00
sda               0.00     1.00    0.00    2.00     0.00    12.00    12.00     0.00    0.00    0.00    0.00   0.00   0.00
sdc               0.00     0.00  241.00    0.00   968.00     0.00     8.03     4.88   20.29   20.29    0.00   3.32  79.90
sdb               0.00     0.00  234.00    0.00   936.00     0.00     8.00     4.79   20.63   20.63    0.00   3.21  75.20
sdd               0.00     0.00  252.00    0.00  1008.00     0.00     8.00     5.07   20.15   20.15    0.00   3.15  79.50
md0               0.00     0.00  704.00    0.00  2816.00     0.00     8.00     0.00    0.00    0.00    0.00   0.00   0.00

avg-cpu:  %user   %nice %system %iowait  %steal   %idle
           0.03    0.00    0.59   27.83    0.00   71.54

Device:         rrqm/s   wrqm/s     r/s     w/s    rkB/s    wkB/s avgrq-sz avgqu-sz   await r_await w_await  svctm  %util
nvme0n1           0.00     0.00    0.00    0.00     0.00     0.00     0.00     0.00    0.00    0.00    0.00   0.00   0.00
sda               0.00     0.00    0.00    0.00     0.00     0.00     0.00     0.00    0.00    0.00    0.00   0.00   0.00
sdc               0.00     0.00  253.00    0.00  1008.00     0.00     7.97     5.71   22.15   22.15    0.00   3.25  82.20
sdb               0.00     0.00  223.00    0.00   892.00     0.00     8.00     5.10   22.55   22.55    0.00   3.37  75.10
sdd               0.00     0.00  243.00    0.00   972.00     0.00     8.00     5.02   20.65   20.65    0.00   3.21  78.10
md0               0.00     0.00  736.00    0.00  2944.00     0.00     8.00     0.00    0.00    0.00    0.00   0.00   0.00

avg-cpu:  %user   %nice %system %iowait  %steal   %idle
           0.00    0.00    0.38   25.32    0.00   74.30

Device:         rrqm/s   wrqm/s     r/s     w/s    rkB/s    wkB/s avgrq-sz avgqu-sz   await r_await w_await  svctm  %util
nvme0n1           0.00     0.00    0.00    0.00     0.00     0.00     0.00     0.00    0.00    0.00    0.00   0.00   0.00
sda               0.00     2.00    0.00    3.00     0.00    36.00    24.00     0.00    0.00    0.00    0.00   0.00   0.00
sdc               0.00     0.00  258.00    0.00  1032.00     0.00     8.00     6.81   26.38   26.38    0.00   3.59  92.50
sdb               0.00     0.00  217.00    0.00   868.00     0.00     8.00     4.16   18.96   18.96    0.00   3.25  70.50
sdd               0.00     0.00  230.00    0.00   920.00     0.00     8.00     4.49   19.41   19.41    0.00   3.13  72.00
md0               0.00     0.00  704.00    0.00  2816.00     0.00     8.00     0.00    0.00    0.00    0.00   0.00   0.00

avg-cpu:  %user   %nice %system %iowait  %steal   %idle
           0.00    0.00    0.06   24.56    0.00   75.38

Device:         rrqm/s   wrqm/s     r/s     w/s    rkB/s    wkB/s avgrq-sz avgqu-sz   await r_await w_await  svctm  %util
nvme0n1           0.00     0.00    0.00    0.00     0.00     0.00     0.00     0.00    0.00    0.00    0.00   0.00   0.00
sda               0.00     0.00    0.00    0.00     0.00     0.00     0.00     0.00    0.00    0.00    0.00   0.00   0.00
sdc               0.00     0.00  216.00    0.00   864.00     0.00     8.00     3.85   18.71   18.71    0.00   3.19  69.00
sdb               0.00     0.00  257.00    0.00  1028.00     0.00     8.00     5.29   20.61   20.61    0.00   2.98  76.50
sdd               0.00     0.00  243.00    0.00   972.00     0.00     8.00     5.33   22.36   22.36    0.00   3.42  83.10
md0               0.00     0.00  704.00    0.00  2816.00     0.00     8.00     0.00    0.00    0.00    0.00   0.00   0.00

avg-cpu:  %user   %nice %system %iowait  %steal   %idle
           0.03    0.00    0.31   25.61    0.00   74.05

Device:         rrqm/s   wrqm/s     r/s     w/s    rkB/s    wkB/s avgrq-sz avgqu-sz   await r_await w_await  svctm  %util
nvme0n1           0.00     0.00    0.00    0.00     0.00     0.00     0.00     0.00    0.00    0.00    0.00   0.00   0.00
sda               0.00     0.00    0.00    0.00     0.00     0.00     0.00     0.00    0.00    0.00    0.00   0.00   0.00
sdc               0.00     0.00  232.00    0.00   928.00     0.00     8.00     4.59   19.22   19.22    0.00   3.05  70.70
sdb               0.00     0.00  257.00    0.00  1028.00     0.00     8.00     5.51   21.80   21.80    0.00   3.16  81.20
sdd               0.00     0.00  220.00    0.00   880.00     0.00     8.00     4.61   21.19   21.19    0.00   3.37  74.10
md0               0.00     0.00  704.00    0.00  2816.00     0.00     8.00     0.00    0.00    0.00    0.00   0.00   0.00

avg-cpu:  %user   %nice %system %iowait  %steal   %idle
           0.03    0.00    0.53   22.89    0.00   76.55

Device:         rrqm/s   wrqm/s     r/s     w/s    rkB/s    wkB/s avgrq-sz avgqu-sz   await r_await w_await  svctm  %util
nvme0n1           0.00     0.00    0.00    0.00     0.00     0.00     0.00     0.00    0.00    0.00    0.00   0.00   0.00
sda               0.00     3.00    0.00    2.00     0.00    20.00    20.00     0.00    0.00    0.00    0.00   0.00   0.00
sdc               0.00     0.00  200.00    0.00   800.00     0.00     8.00     5.43   27.02   27.02    0.00   4.28  85.60
sdb               0.00     0.00  179.00    0.00   716.00     0.00     8.00     3.94   22.01   22.01    0.00   3.37  60.30
sdd               0.00     0.00  200.00    0.00   800.00     0.00     8.00     3.73   18.68   18.68    0.00   2.83  56.60
md0               0.00     0.00  576.00    0.00  2304.00     0.00     8.00     0.00    0.00    0.00    0.00   0.00   0.00

avg-cpu:  %user   %nice %system %iowait  %steal   %idle
           0.00    0.00    0.38   23.28    0.00   76.34

Device:         rrqm/s   wrqm/s     r/s     w/s    rkB/s    wkB/s avgrq-sz avgqu-sz   await r_await w_await  svctm  %util
nvme0n1           0.00     0.00    0.00    0.00     0.00     0.00     0.00     0.00    0.00    0.00    0.00   0.00   0.00
sda               0.00     0.00    0.00    0.00     0.00     0.00     0.00     0.00    0.00    0.00    0.00   0.00   0.00
sdc               0.00     0.00  219.00    0.00   876.00     0.00     8.00     4.72   22.33   22.33    0.00   3.65  80.00
sdb               0.00     0.00  200.00    0.00   800.00     0.00     8.00     4.21   20.68   20.68    0.00   3.37  67.40
sdd               0.00     0.00  220.00    0.00   880.00     0.00     8.00     4.69   21.28   21.28    0.00   3.12  68.60
md0               0.00     0.00  640.00    0.00  2560.00     0.00     8.00     0.00    0.00    0.00    0.00   0.00   0.00

avg-cpu:  %user   %nice %system %iowait  %steal   %idle
           0.00    0.00    0.50   27.14    0.00   72.36

Device:         rrqm/s   wrqm/s     r/s     w/s    rkB/s    wkB/s avgrq-sz avgqu-sz   await r_await w_await  svctm  %util
nvme0n1           0.00     0.00    0.00    0.00     0.00     0.00     0.00     0.00    0.00    0.00    0.00   0.00   0.00
sda               0.00     0.00    0.00    2.00     0.00    36.00    36.00     0.00    0.00    0.00    0.00   0.00   0.00
sdc               0.00     0.00  242.00    0.00   968.00     0.00     8.00     5.10   20.21   20.21    0.00   3.36  81.20
sdb               0.00     0.00  266.00    0.00  1064.00     0.00     8.00     5.70   21.14   21.14    0.00   3.06  81.50
sdd               0.00     0.00  232.00    0.00   928.00     0.00     8.00     5.07   21.37   21.37    0.00   3.47  80.40
md0               0.00     0.00  768.00    0.00  3072.00     0.00     8.00     0.00    0.00    0.00    0.00   0.00   0.00

avg-cpu:  %user   %nice %system %iowait  %steal   %idle
           0.03    0.00    0.47   25.57    0.00   73.93

Device:         rrqm/s   wrqm/s     r/s     w/s    rkB/s    wkB/s avgrq-sz avgqu-sz   await r_await w_await  svctm  %util
nvme0n1           0.00     0.00    0.00    0.00     0.00     0.00     0.00     0.00    0.00    0.00    0.00   0.00   0.00
sda               0.00     0.00    0.00    0.00     0.00     0.00     0.00     0.00    0.00    0.00    0.00   0.00   0.00
sdc               0.00     0.00  243.00    0.00   972.00     0.00     8.00     5.34   22.24   22.24    0.00   3.21  78.10
sdb               0.00     0.00  234.00    0.00   936.00     0.00     8.00     4.81   20.32   20.32    0.00   3.18  74.40
sdd               0.00     0.00  215.00    0.00   860.00     0.00     8.00     4.86   23.12   23.12    0.00   3.65  78.50
md0               0.00     0.00  672.00    0.00  2688.00     0.00     8.00     0.00    0.00    0.00    0.00   0.00   0.00

