Linux 4.17.2 (bench2) 	08/03/2018 	_x86_64_	(32 CPU)

avg-cpu:  %user   %nice %system %iowait  %steal   %idle
           1.90    0.00    1.55    1.59    0.00   94.96

Device:         rrqm/s   wrqm/s     r/s     w/s    rkB/s    wkB/s avgrq-sz avgqu-sz   await r_await w_await  svctm  %util
nvme0n1         935.20     5.08 18853.18  519.09 105456.85 11706.95    12.10     1.34    0.05    0.03    0.67   0.02  39.47
sda               0.12     0.82   14.17    0.58   164.01     8.53    23.40     0.00    0.33    0.32    0.44   0.07   0.10
sdc              34.26     0.17  120.20    0.31  1805.33    97.18    31.57     0.08    0.63   12.38  380.35   0.91  10.95
sdb              32.23     0.19  122.19    0.33  1803.38    97.00    31.02     0.51    4.14    3.04  411.64   0.85  10.41
sdd              34.46     0.17  119.74    0.26  1801.34    96.68    31.63     0.82    6.85    4.89  907.87   0.91  10.95
md0               0.00     0.00  465.91    1.21  6703.79   350.72    30.20     0.00    0.00    0.00    0.00   0.00   0.00

avg-cpu:  %user   %nice %system %iowait  %steal   %idle
           0.03    0.00    0.42   19.03    0.00   80.53

Device:         rrqm/s   wrqm/s     r/s     w/s    rkB/s    wkB/s avgrq-sz avgqu-sz   await r_await w_await  svctm  %util
nvme0n1           0.00     0.00    0.00    0.00     0.00     0.00     0.00     0.00    0.00    0.00    0.00   0.00   0.00
sda               0.00     1.10    0.20    0.55     5.20     8.80    37.33     0.00    0.13    0.50    0.00   0.13   0.01
sdc               0.05     0.00  294.05    0.00  2095.00     0.00    14.25     3.95   13.43   13.43    0.00   2.48  72.86
sdb               0.05     0.00  287.55    0.00  2364.20     0.00    16.44     3.84   13.36   13.36    0.00   2.46  70.88
sdd               0.10     0.00  297.80    0.00  2281.00     0.00    15.32     4.05   13.60   13.60    0.00   2.44  72.52
md0               0.00     0.00  879.90    0.00  7389.80     0.00    16.80     0.00    0.00    0.00    0.00   0.00   0.00

