Linux 4.17.2 (bench2) 	08/03/2018 	_x86_64_	(32 CPU)

avg-cpu:  %user   %nice %system %iowait  %steal   %idle
           1.90    0.00    1.55    1.58    0.00   94.97

Device:         rrqm/s   wrqm/s     r/s     w/s    rkB/s    wkB/s avgrq-sz avgqu-sz   await r_await w_await  svctm  %util
nvme0n1         938.37     5.10 18917.16  520.85 105814.70 11746.68    12.10     1.35    0.05    0.03    0.67   0.02  39.60
sda               0.12     0.82   14.15    0.58   163.96     8.53    23.41     0.00    0.33    0.32    0.44   0.07   0.10
sdc              33.90     0.17  117.98    0.31  1779.75    97.51    31.74     0.06    0.48   12.49  380.35   0.91  10.82
sdb              31.86     0.19  119.98    0.33  1777.81    97.33    31.17     0.49    4.08    2.95  411.64   0.85  10.28
sdd              34.10     0.17  117.52    0.26  1775.74    97.01    31.80     0.81    6.84    4.84  907.87   0.92  10.82
md0               0.00     0.00  458.17    1.21  6608.25   351.91    30.30     0.00    0.00    0.00    0.00   0.00   0.00

avg-cpu:  %user   %nice %system %iowait  %steal   %idle
           0.00    0.00    0.03   18.89    0.00   81.08

Device:         rrqm/s   wrqm/s     r/s     w/s    rkB/s    wkB/s avgrq-sz avgqu-sz   await r_await w_await  svctm  %util
nvme0n1           0.00     0.00    0.00    0.00     0.00     0.00     0.00     0.00    0.00    0.00    0.00   0.00   0.00
sda               0.00     0.00    1.00    0.00     8.00     0.00    16.00     0.00    0.00    0.00    0.00   0.00   0.00
sdc               1.00     0.00  194.00    0.00  2740.00     0.00    28.25     1.89    9.77    9.77    0.00   3.86  74.90
sdb               0.00     0.00  163.00    0.00  2156.00     0.00    26.45     2.82   12.14   12.14    0.00   4.55  74.20
sdd               0.00     0.00  170.00    0.00  2576.00     0.00    30.31     3.96   23.24   23.24    0.00   4.92  83.60
md0               0.00     0.00  528.00    0.00  8252.00     0.00    31.26     0.00    0.00    0.00    0.00   0.00   0.00

avg-cpu:  %user   %nice %system %iowait  %steal   %idle
           0.00    0.00    0.06   17.39    0.00   82.55

Device:         rrqm/s   wrqm/s     r/s     w/s    rkB/s    wkB/s avgrq-sz avgqu-sz   await r_await w_await  svctm  %util
nvme0n1           0.00     0.00    0.00    0.00     0.00     0.00     0.00     0.00    0.00    0.00    0.00   0.00   0.00
sda               0.00     0.00    0.00    0.00     0.00     0.00     0.00     0.00    0.00    0.00    0.00   0.00   0.00
sdc               0.00     0.00  185.00    0.00  2744.00     0.00    29.66     1.56    7.98    7.98    0.00   3.14  58.10
sdb               0.00     0.00  204.00    0.00  2636.00     0.00    25.84     2.50   16.44   16.44    0.00   4.11  83.90
sdd               0.00     0.00  217.00    0.00  3400.00     0.00    31.34     3.90   17.90   17.90    0.00   3.99  86.50
md0               0.00     0.00  607.00    0.00  9364.00     0.00    30.85     0.00    0.00    0.00    0.00   0.00   0.00

avg-cpu:  %user   %nice %system %iowait  %steal   %idle
           0.00    0.00    0.06   17.45    0.00   82.49

Device:         rrqm/s   wrqm/s     r/s     w/s    rkB/s    wkB/s avgrq-sz avgqu-sz   await r_await w_await  svctm  %util
nvme0n1           0.00     0.00    0.00    0.00     0.00     0.00     0.00     0.00    0.00    0.00    0.00   0.00   0.00
sda               0.00    10.00    0.00    2.00     0.00    48.00    48.00     0.00    0.00    0.00    0.00   0.00   0.00
sdc               0.00     0.00  205.00    0.00  2052.00     0.00    20.02     2.71   13.67   13.67    0.00   3.68  75.50
sdb               0.00     0.00  192.00    0.00  2200.00     0.00    22.92     3.26   16.73   16.73    0.00   4.55  87.40
sdd               0.00     0.00  198.00    0.00  3048.00     0.00    30.79     1.94    9.55    9.55    0.00   3.59  71.10
md0               0.00     0.00  596.00    0.00  7684.00     0.00    25.79     0.00    0.00    0.00    0.00   0.00   0.00

