Linux 4.17.2 (bench2) 	08/03/2018 	_x86_64_	(32 CPU)

avg-cpu:  %user   %nice %system %iowait  %steal   %idle
           1.90    0.00    1.55    1.58    0.00   94.96

Device:         rrqm/s   wrqm/s     r/s     w/s    rkB/s    wkB/s avgrq-sz avgqu-sz   await r_await w_await  svctm  %util
nvme0n1         937.84     5.09 18906.52  520.55 105755.21 11740.07    12.10     1.35    0.05    0.03    0.67   0.02  39.58
sda               0.12     0.82   14.16    0.58   163.97     8.53    23.41     0.00    0.33    0.32    0.44   0.07   0.10
sdc              34.15     0.17  118.25    0.31  1790.58    97.45    31.85     0.07    0.57   12.55  380.35   0.91  10.85
sdb              32.11     0.19  120.25    0.33  1788.64    97.28    31.28     0.50    4.15    3.03  411.64   0.85  10.31
sdd              34.35     0.17  117.79    0.26  1786.58    96.95    31.91     0.82    6.91    4.92  907.87   0.92  10.85
md0               0.00     0.00  459.74    1.21  6651.25   351.71    30.39     0.00    0.00    0.00    0.00   0.00   0.00

avg-cpu:  %user   %nice %system %iowait  %steal   %idle
           0.00    0.00    0.06    3.00    0.00   96.94

Device:         rrqm/s   wrqm/s     r/s     w/s    rkB/s    wkB/s avgrq-sz avgqu-sz   await r_await w_await  svctm  %util
nvme0n1           0.00     0.00    0.00    0.00     0.00     0.00     0.00     0.00    0.00    0.00    0.00   0.00   0.00
sda               0.00     0.00   36.00    0.00   184.00     0.00    10.22     0.00    0.11    0.11    0.00   0.03   0.10
sdc               0.00     0.00  142.00    0.00   580.00     0.00     8.17     0.29    2.08    2.08    0.00   2.08  29.50
sdb               0.00     0.00  159.00    0.00   636.00     0.00     8.00     0.27    1.72    1.72    0.00   1.72  27.40
sdd               0.00     0.00  160.00    0.00   640.00     0.00     8.00     0.41    2.53    2.53    0.00   2.53  40.50
md0               0.00     0.00  462.00    0.00  1860.00     0.00     8.05     0.00    0.00    0.00    0.00   0.00   0.00

avg-cpu:  %user   %nice %system %iowait  %steal   %idle
           0.03    0.00    0.06    3.00    0.00   96.91

Device:         rrqm/s   wrqm/s     r/s     w/s    rkB/s    wkB/s avgrq-sz avgqu-sz   await r_await w_await  svctm  %util
nvme0n1           0.00     0.00    0.00    0.00     0.00     0.00     0.00     0.00    0.00    0.00    0.00   0.00   0.00
sda               0.00    11.00    0.00    2.00     0.00    52.00    52.00     0.00    0.00    0.00    0.00   0.00   0.00
sdc               0.00     0.00  149.00    0.00   596.00     0.00     8.00     0.38    2.56    2.56    0.00   2.56  38.10
sdb               0.00     0.00  165.00    0.00   660.00     0.00     8.00     0.31    1.89    1.89    0.00   1.88  31.10
sdd               0.00     0.00  168.00    0.00   672.00     0.00     8.00     0.28    1.65    1.65    0.00   1.65  27.70
md0               0.00     0.00  482.00    0.00  1928.00     0.00     8.00     0.00    0.00    0.00    0.00   0.00   0.00

avg-cpu:  %user   %nice %system %iowait  %steal   %idle
           0.03    0.00    0.06    3.00    0.00   96.91

Device:         rrqm/s   wrqm/s     r/s     w/s    rkB/s    wkB/s avgrq-sz avgqu-sz   await r_await w_await  svctm  %util
nvme0n1           0.00     0.00    0.00    0.00     0.00     0.00     0.00     0.00    0.00    0.00    0.00   0.00   0.00
sda               0.00     0.00    0.00    0.00     0.00     0.00     0.00     0.00    0.00    0.00    0.00   0.00   0.00
sdc               0.00     0.00  154.00    0.00   616.00     0.00     8.00     0.24    1.56    1.56    0.00   1.56  24.10
sdb               0.00     0.00  162.00    0.00   648.00     0.00     8.00     0.41    2.48    2.48    0.00   2.53  41.00
sdd               0.00     0.00  160.00    0.00   640.00     0.00     8.00     0.32    1.99    1.99    0.00   1.99  31.80
md0               0.00     0.00  476.00    0.00  1904.00     0.00     8.00     0.00    0.00    0.00    0.00   0.00   0.00

avg-cpu:  %user   %nice %system %iowait  %steal   %idle
           0.00    0.00    0.06    3.00    0.00   96.94

Device:         rrqm/s   wrqm/s     r/s     w/s    rkB/s    wkB/s avgrq-sz avgqu-sz   await r_await w_await  svctm  %util
nvme0n1           0.00     0.00    0.00    0.00     0.00     0.00     0.00     0.00    0.00    0.00    0.00   0.00   0.00
sda               0.00     0.00    0.00    0.00     0.00     0.00     0.00     0.00    0.00    0.00    0.00   0.00   0.00
sdc               0.00     0.00  151.00    0.00   604.00     0.00     8.00     0.26    1.71    1.71    0.00   1.72  26.00
sdb               0.00     0.00  178.00    0.00   712.00     0.00     8.00     0.36    2.07    2.07    0.00   2.03  36.10
sdd               0.00     0.00  149.00    0.00   596.00     0.00     8.00     0.35    2.35    2.35    0.00   2.35  35.00
md0               0.00     0.00  479.00    0.00  1916.00     0.00     8.00     0.00    0.00    0.00    0.00   0.00   0.00

avg-cpu:  %user   %nice %system %iowait  %steal   %idle
           0.00    0.00    0.06    3.00    0.00   96.94

Device:         rrqm/s   wrqm/s     r/s     w/s    rkB/s    wkB/s avgrq-sz avgqu-sz   await r_await w_await  svctm  %util
nvme0n1           0.00     0.00    0.00    0.00     0.00     0.00     0.00     0.00    0.00    0.00    0.00   0.00   0.00
sda               0.00     0.00    0.00    0.00     0.00     0.00     0.00     0.00    0.00    0.00    0.00   0.00   0.00
sdc               0.00     0.00  169.00    0.00   676.00     0.00     8.00     0.17    1.03    1.03    0.00   1.02  17.20
sdb               0.00     0.00  135.00    0.00   540.00     0.00     8.00     0.34    2.53    2.53    0.00   2.53  34.10
sdd               0.00     0.00  175.00    0.00   700.00     0.00     8.00     0.45    2.58    2.58    0.00   2.58  45.20
md0               0.00     0.00  478.00    0.00  1912.00     0.00     8.00     0.00    0.00    0.00    0.00   0.00   0.00

avg-cpu:  %user   %nice %system %iowait  %steal   %idle
           0.03    0.00    0.06    3.00    0.00   96.91

Device:         rrqm/s   wrqm/s     r/s     w/s    rkB/s    wkB/s avgrq-sz avgqu-sz   await r_await w_await  svctm  %util
nvme0n1           0.00     0.00    0.00    0.00     0.00     0.00     0.00     0.00    0.00    0.00    0.00   0.00   0.00
sda               0.00     0.00    0.00    0.00     0.00     0.00     0.00     0.00    0.00    0.00    0.00   0.00   0.00
sdc               0.00     0.00  165.00    0.00   660.00     0.00     8.00     0.34    2.08    2.08    0.00   2.08  34.40
sdb               0.00     0.00  172.00    0.00   688.00     0.00     8.00     0.19    1.10    1.10    0.00   1.10  18.90
sdd               0.00     0.00  147.00    0.00   588.00     0.00     8.00     0.44    2.93    2.93    0.00   2.97  43.70
md0               0.00     0.00  484.00    0.00  1936.00     0.00     8.00     0.00    0.00    0.00    0.00   0.00   0.00

avg-cpu:  %user   %nice %system %iowait  %steal   %idle
           0.00    0.00    0.06    3.00    0.00   96.94

Device:         rrqm/s   wrqm/s     r/s     w/s    rkB/s    wkB/s avgrq-sz avgqu-sz   await r_await w_await  svctm  %util
nvme0n1           0.00     0.00    0.00    0.00     0.00     0.00     0.00     0.00    0.00    0.00    0.00   0.00   0.00
sda               0.00     1.00    0.00    2.00     0.00    12.00    12.00     0.00    0.00    0.00    0.00   0.00   0.00
sdc               0.00     0.00  151.00    0.00   604.00     0.00     8.00     0.32    2.09    2.09    0.00   2.09  31.60
sdb               0.00     0.00  171.00    0.00   684.00     0.00     8.00     0.37    2.13    2.13    0.00   2.18  37.30
sdd               0.00     0.00  165.00    0.00   660.00     0.00     8.00     0.28    1.76    1.76    0.00   1.72  28.30
md0               0.00     0.00  487.00    0.00  1948.00     0.00     8.00     0.00    0.00    0.00    0.00   0.00   0.00

avg-cpu:  %user   %nice %system %iowait  %steal   %idle
           0.03    0.00    0.03    3.00    0.00   96.93

Device:         rrqm/s   wrqm/s     r/s     w/s    rkB/s    wkB/s avgrq-sz avgqu-sz   await r_await w_await  svctm  %util
nvme0n1           0.00     0.00    0.00    0.00     0.00     0.00     0.00     0.00    0.00    0.00    0.00   0.00   0.00
sda               0.00     0.00    0.00    0.00     0.00     0.00     0.00     0.00    0.00    0.00    0.00   0.00   0.00
sdc               0.00     0.00  174.00    0.00   696.00     0.00     8.00     0.46    2.65    2.65    0.00   2.65  46.10
sdb               0.00     0.00  147.00    0.00   588.00     0.00     8.00     0.17    1.23    1.23    0.00   1.18  17.40
sdd               0.00     0.00  159.00    0.00   636.00     0.00     8.00     0.33    2.09    2.09    0.00   2.09  33.20
md0               0.00     0.00  480.00    0.00  1920.00     0.00     8.00     0.00    0.00    0.00    0.00   0.00   0.00

avg-cpu:  %user   %nice %system %iowait  %steal   %idle
           0.00    0.00    0.09    3.00    0.00   96.91

Device:         rrqm/s   wrqm/s     r/s     w/s    rkB/s    wkB/s avgrq-sz avgqu-sz   await r_await w_await  svctm  %util
nvme0n1           0.00     0.00    0.00    0.00     0.00     0.00     0.00     0.00    0.00    0.00    0.00   0.00   0.00
sda               0.00     0.00    1.00    2.00     4.00    36.00    26.67     0.00    0.00    0.00    0.00   0.00   0.00
sdc               0.00     0.00  172.00    0.00   688.00     0.00     8.00     0.37    2.16    2.16    0.00   2.16  37.20
sdb               0.00     0.00  162.00    0.00   648.00     0.00     8.00     0.34    2.07    2.07    0.00   2.07  33.50
sdd               0.00     0.00  181.00    0.00   724.00     0.00     8.00     0.26    1.43    1.43    0.00   1.46  26.40
md0               0.00     0.00  515.00    0.00  2060.00     0.00     8.00     0.00    0.00    0.00    0.00   0.00   0.00

avg-cpu:  %user   %nice %system %iowait  %steal   %idle
           0.00    0.00    0.09    3.00    0.00   96.91

Device:         rrqm/s   wrqm/s     r/s     w/s    rkB/s    wkB/s avgrq-sz avgqu-sz   await r_await w_await  svctm  %util
nvme0n1           0.00     0.00    0.00    0.00     0.00     0.00     0.00     0.00    0.00    0.00    0.00   0.00   0.00
sda               0.00     0.00    0.00    0.00     0.00     0.00     0.00     0.00    0.00    0.00    0.00   0.00   0.00
sdc               0.00     0.00  136.00    0.00   544.00     0.00     8.00     0.49    3.63    3.63    0.00   3.63  49.40
sdb               0.00     0.00  144.00    0.00   576.00     0.00     8.00     0.23    1.58    1.58    0.00   1.58  22.70
sdd               0.00     0.00  162.00    0.00   648.00     0.00     8.00     0.25    1.52    1.52    0.00   1.52  24.70
md0               0.00     0.00  442.00    0.00  1768.00     0.00     8.00     0.00    0.00    0.00    0.00   0.00   0.00

avg-cpu:  %user   %nice %system %iowait  %steal   %idle
           0.03    0.00    0.03    3.03    0.00   96.90

Device:         rrqm/s   wrqm/s     r/s     w/s    rkB/s    wkB/s avgrq-sz avgqu-sz   await r_await w_await  svctm  %util
nvme0n1           0.00     0.00    0.00    0.00     0.00     0.00     0.00     0.00    0.00    0.00    0.00   0.00   0.00
sda               0.00     0.00    0.00    0.00     0.00     0.00     0.00     0.00    0.00    0.00    0.00   0.00   0.00
sdc               0.00     0.00  142.00    0.00   568.00     0.00     8.00     0.37    2.63    2.63    0.00   2.63  37.40
sdb               0.00     0.00  163.00    0.00   652.00     0.00     8.00     0.24    1.45    1.45    0.00   1.47  24.00
sdd               0.00     0.00  160.00    0.00   640.00     0.00     8.00     0.36    2.27    2.27    0.00   2.24  35.90
md0               0.00     0.00  465.00    0.00  1860.00     0.00     8.00     0.00    0.00    0.00    0.00   0.00   0.00

avg-cpu:  %user   %nice %system %iowait  %steal   %idle
           0.00    0.00    0.03    3.00    0.00   96.97

Device:         rrqm/s   wrqm/s     r/s     w/s    rkB/s    wkB/s avgrq-sz avgqu-sz   await r_await w_await  svctm  %util
nvme0n1           0.00     0.00    0.00    0.00     0.00     0.00     0.00     0.00    0.00    0.00    0.00   0.00   0.00
sda               0.00     5.00    0.00    2.00     0.00    28.00    28.00     0.00    0.50    0.00    0.50   0.50   0.10
sdc               0.00     0.00  149.00    0.00   596.00     0.00     8.00     0.28    1.85    1.85    0.00   1.85  27.50
sdb               0.00     0.00  153.00    0.00   612.00     0.00     8.00     0.29    1.92    1.92    0.00   1.90  29.00
sdd               0.00     0.00  147.00    0.00   588.00     0.00     8.00     0.41    2.70    2.70    0.00   2.76  40.50
md0               0.00     0.00  449.00    0.00  1796.00     0.00     8.00     0.00    0.00    0.00    0.00   0.00   0.00

avg-cpu:  %user   %nice %system %iowait  %steal   %idle
           0.03    0.00    0.09    3.00    0.00   96.88

Device:         rrqm/s   wrqm/s     r/s     w/s    rkB/s    wkB/s avgrq-sz avgqu-sz   await r_await w_await  svctm  %util
nvme0n1           0.00     0.00    0.00    0.00     0.00     0.00     0.00     0.00    0.00    0.00    0.00   0.00   0.00
sda               0.00     0.00    0.00    0.00     0.00     0.00     0.00     0.00    0.00    0.00    0.00   0.00   0.00
sdc               0.00     0.00  168.00    0.00   672.00     0.00     8.00     0.32    1.93    1.93    0.00   1.93  32.40
sdb               0.00     0.00  171.00    0.00   684.00     0.00     8.00     0.21    1.26    1.26    0.00   1.26  21.50
sdd               0.00     0.00  177.00    0.00   708.00     0.00     8.00     0.43    2.45    2.45    0.00   2.42  42.80
md0               0.00     0.00  516.00    0.00  2064.00     0.00     8.00     0.00    0.00    0.00    0.00   0.00   0.00

avg-cpu:  %user   %nice %system %iowait  %steal   %idle
           0.00    0.00    0.06    3.00    0.00   96.94

Device:         rrqm/s   wrqm/s     r/s     w/s    rkB/s    wkB/s avgrq-sz avgqu-sz   await r_await w_await  svctm  %util
nvme0n1           0.00     0.00    0.00    0.00     0.00     0.00     0.00     0.00    0.00    0.00    0.00   0.00   0.00
sda               0.00     0.00    0.00    0.00     0.00     0.00     0.00     0.00    0.00    0.00    0.00   0.00   0.00
sdc               0.00     0.00  157.00    0.00   628.00     0.00     8.00     0.34    2.15    2.15    0.00   2.15  33.70
sdb               0.00     0.00  142.00    0.00   568.00     0.00     8.00     0.20    1.37    1.37    0.00   1.40  19.90
sdd               0.00     0.00  172.00    0.00   688.00     0.00     8.00     0.43    2.53    2.53    0.00   2.52  43.30
md0               0.00     0.00  471.00    0.00  1884.00     0.00     8.00     0.00    0.00    0.00    0.00   0.00   0.00

avg-cpu:  %user   %nice %system %iowait  %steal   %idle
           0.03    0.00    0.09    3.00    0.00   96.87

Device:         rrqm/s   wrqm/s     r/s     w/s    rkB/s    wkB/s avgrq-sz avgqu-sz   await r_await w_await  svctm  %util
nvme0n1           0.00     0.00    0.00    0.00     0.00     0.00     0.00     0.00    0.00    0.00    0.00   0.00   0.00
sda               0.00     2.00    0.00    3.00     0.00    36.00    24.00     0.00    0.00    0.00    0.00   0.00   0.00
sdc               0.00     0.00  222.00    0.00   888.00     0.00     8.00     0.47    2.10    2.10    0.00   2.10  46.60
sdb               0.00     0.00  195.00    0.00   780.00     0.00     8.00     0.17    0.90    0.90    0.00   0.90  17.50
sdd               0.00     0.00  154.00    0.00   616.00     0.00     8.00     0.33    2.15    2.15    0.00   2.14  33.00
md0               0.00     0.00  571.00    0.00  2284.00     0.00     8.00     0.00    0.00    0.00    0.00   0.00   0.00

avg-cpu:  %user   %nice %system %iowait  %steal   %idle
           0.03    0.00    0.03    3.00    0.00   96.94

Device:         rrqm/s   wrqm/s     r/s     w/s    rkB/s    wkB/s avgrq-sz avgqu-sz   await r_await w_await  svctm  %util
nvme0n1           0.00     0.00    0.00    0.00     0.00     0.00     0.00     0.00    0.00    0.00    0.00   0.00   0.00
sda               0.00     0.00    0.00    0.00     0.00     0.00     0.00     0.00    0.00    0.00    0.00   0.00   0.00
sdc               0.00     0.00  157.00    0.00   628.00     0.00     8.00     0.24    1.52    1.52    0.00   1.52  23.80
sdb               0.00     0.00  175.00    0.00   700.00     0.00     8.00     0.36    2.09    2.09    0.00   2.06  36.10
sdd               0.00     0.00  163.00    0.00   652.00     0.00     8.00     0.38    2.32    2.32    0.00   2.32  37.80
md0               0.00     0.00  495.00    0.00  1980.00     0.00     8.00     0.00    0.00    0.00    0.00   0.00   0.00

avg-cpu:  %user   %nice %system %iowait  %steal   %idle
           0.00    0.00    0.06    3.00    0.00   96.94

Device:         rrqm/s   wrqm/s     r/s     w/s    rkB/s    wkB/s avgrq-sz avgqu-sz   await r_await w_await  svctm  %util
nvme0n1           0.00     0.00    0.00    0.00     0.00     0.00     0.00     0.00    0.00    0.00    0.00   0.00   0.00
sda               0.00     3.00    0.00    2.00     0.00    20.00    20.00     0.00    0.50    0.00    0.50   0.50   0.10
sdc               0.00     0.00  168.00    0.00   672.00     0.00     8.00     0.28    1.65    1.65    0.00   1.65  27.80
sdb               0.00     0.00  187.00    0.00   748.00     0.00     8.00     0.42    2.22    2.22    0.00   2.23  41.70
sdd               0.00     0.00  171.00    0.00   684.00     0.00     8.00     0.26    1.53    1.53    0.00   1.53  26.10
md0               0.00     0.00  526.00    0.00  2104.00     0.00     8.00     0.00    0.00    0.00    0.00   0.00   0.00

avg-cpu:  %user   %nice %system %iowait  %steal   %idle
           0.03    0.00    0.06    3.00    0.00   96.91

Device:         rrqm/s   wrqm/s     r/s     w/s    rkB/s    wkB/s avgrq-sz avgqu-sz   await r_await w_await  svctm  %util
nvme0n1           0.00     0.00    0.00    0.00     0.00     0.00     0.00     0.00    0.00    0.00    0.00   0.00   0.00
sda               0.00     0.00    0.00    0.00     0.00     0.00     0.00     0.00    0.00    0.00    0.00   0.00   0.00
sdc               0.00     0.00  161.00    0.00   644.00     0.00     8.00     0.26    1.58    1.58    0.00   1.61  25.90
sdb               0.00     0.00  165.00    0.00   660.00     0.00     8.00     0.23    1.40    1.40    0.00   1.39  23.00
sdd               0.00     0.00  162.00    0.00   648.00     0.00     8.00     0.48    2.98    2.98    0.00   2.98  48.30
md0               0.00     0.00  488.00    0.00  1952.00     0.00     8.00     0.00    0.00    0.00    0.00   0.00   0.00

avg-cpu:  %user   %nice %system %iowait  %steal   %idle
           0.00    0.00    0.09    3.00    0.00   96.91

Device:         rrqm/s   wrqm/s     r/s     w/s    rkB/s    wkB/s avgrq-sz avgqu-sz   await r_await w_await  svctm  %util
nvme0n1           0.00     0.00    0.00    0.00     0.00     0.00     0.00     0.00    0.00    0.00    0.00   0.00   0.00
sda               0.00     0.00    0.00    0.00     0.00     0.00     0.00     0.00    0.00    0.00    0.00   0.00   0.00
sdc               0.00     0.00  160.00    0.00   640.00     0.00     8.00     0.28    1.75    1.75    0.00   1.73  27.60
sdb               0.00     0.00  141.00    0.00   564.00     0.00     8.00     0.28    2.01    2.01    0.00   2.01  28.40
sdd               0.00     0.00  157.00    0.00   628.00     0.00     8.00     0.41    2.61    2.61    0.00   2.63  41.30
md0               0.00     0.00  458.00    0.00  1832.00     0.00     8.00     0.00    0.00    0.00    0.00   0.00   0.00

avg-cpu:  %user   %nice %system %iowait  %steal   %idle
           0.03    0.00    0.03    3.00    0.00   96.94

Device:         rrqm/s   wrqm/s     r/s     w/s    rkB/s    wkB/s avgrq-sz avgqu-sz   await r_await w_await  svctm  %util
nvme0n1           0.00     0.00    0.00    0.00     0.00     0.00     0.00     0.00    0.00    0.00    0.00   0.00   0.00
sda               0.00     0.00    0.00    0.00     0.00     0.00     0.00     0.00    0.00    0.00    0.00   0.00   0.00
sdc               0.00     0.00  140.00    0.00   560.00     0.00     8.00     0.23    1.65    1.65    0.00   1.67  23.40
sdb               0.00     0.00  163.00    0.00   652.00     0.00     8.00     0.28    1.73    1.73    0.00   1.73  28.20
sdd               0.00     0.00  165.00    0.00   660.00     0.00     8.00     0.45    2.76    2.76    0.00   2.75  45.30
md0               0.00     0.00  468.00    0.00  1872.00     0.00     8.00     0.00    0.00    0.00    0.00   0.00   0.00

