Linux 4.17.2 (bench2) 	08/03/2018 	_x86_64_	(32 CPU)

avg-cpu:  %user   %nice %system %iowait  %steal   %idle
           1.91    0.00    1.56    1.57    0.00   94.97

Device:         rrqm/s   wrqm/s     r/s     w/s    rkB/s    wkB/s avgrq-sz avgqu-sz   await r_await w_await  svctm  %util
nvme0n1         940.19     5.11 18953.89  521.86 106020.14 11769.48    12.10     1.35    0.05    0.03    0.67   0.02  39.68
sda               0.12     0.81   14.15    0.58   163.98     8.52    23.42     0.00    0.33    0.32    0.44   0.07   0.10
sdc              33.86     0.18  116.99    0.31  1757.86    97.70    31.64     0.04    0.34   12.47  380.35   0.91  10.72
sdb              31.82     0.19  118.99    0.33  1755.92    97.52    31.07     0.48    3.98    2.84  411.64   0.85  10.19
sdd              34.06     0.17  116.53    0.26  1753.86    97.19    31.70     0.79    6.77    4.74  907.87   0.92  10.73
md0               0.00     0.00  455.08    1.21  6520.23   352.60    30.12     0.00    0.00    0.00    0.00   0.00   0.00

avg-cpu:  %user   %nice %system %iowait  %steal   %idle
           0.00    0.00    0.03    0.06    0.00   99.91

Device:         rrqm/s   wrqm/s     r/s     w/s    rkB/s    wkB/s avgrq-sz avgqu-sz   await r_await w_await  svctm  %util
nvme0n1           0.00     0.00    0.00    0.00     0.00     0.00     0.00     0.00    0.00    0.00    0.00   0.00   0.00
sda               0.00     0.00    3.00    0.00   100.00     0.00    66.67     0.00    0.00    0.00    0.00   0.00   0.00
sdc               0.00     0.00   86.00    0.00   344.00     0.00     8.00     4.71   51.41   51.41    0.00   9.09  78.20
sdb               0.00     0.00   87.00    0.00   348.00     0.00     8.00     4.30   46.64   46.64    0.00   8.63  75.10
sdd               0.00     0.00  100.00    0.00   400.00     0.00     8.00     5.71   55.15   55.15    0.00   8.35  83.50
md0               0.00     0.00  288.00    0.00  1152.00     0.00     8.00     0.00    0.00    0.00    0.00   0.00   0.00

avg-cpu:  %user   %nice %system %iowait  %steal   %idle
           0.00    0.00    0.00    0.19    0.00   99.81

Device:         rrqm/s   wrqm/s     r/s     w/s    rkB/s    wkB/s avgrq-sz avgqu-sz   await r_await w_await  svctm  %util
nvme0n1           0.00     0.00    0.00    0.00     0.00     0.00     0.00     0.00    0.00    0.00    0.00   0.00   0.00
sda               0.00     0.00    0.00    0.00     0.00     0.00     0.00     0.00    0.00    0.00    0.00   0.00   0.00
sdc               0.00     0.00   92.00    0.00   368.00     0.00     8.00     4.63   51.73   51.73    0.00   9.11  83.80
sdb               0.00     0.00   95.00    0.00   380.00     0.00     8.00     4.91   50.77   50.77    0.00   8.74  83.00
sdd               0.00     0.00  101.00    0.00   404.00     0.00     8.00     5.38   51.99   51.99    0.00   8.52  86.10
md0               0.00     0.00  288.00    0.00  1152.00     0.00     8.00     0.00    0.00    0.00    0.00   0.00   0.00

avg-cpu:  %user   %nice %system %iowait  %steal   %idle
           0.00    0.00    0.03    0.00    0.00   99.97

Device:         rrqm/s   wrqm/s     r/s     w/s    rkB/s    wkB/s avgrq-sz avgqu-sz   await r_await w_await  svctm  %util
nvme0n1           0.00     0.00    0.00    0.00     0.00     0.00     0.00     0.00    0.00    0.00    0.00   0.00   0.00
sda               0.00     2.00    0.00   15.00     0.00    68.00     9.07     0.00    0.00    0.00    0.00   0.00   0.00
sdc               0.00     0.00  103.00    0.00   412.00     0.00     8.00     5.66   53.32   53.32    0.00   8.65  89.10
sdb               0.00     0.00   92.00    0.00   368.00     0.00     8.00     4.53   49.93   49.93    0.00   8.84  81.30
sdd               0.00     0.00   99.00    0.00   396.00     0.00     8.00     4.79   51.74   51.74    0.00   8.59  85.00
md0               0.00     0.00  288.00    0.00  1152.00     0.00     8.00     0.00    0.00    0.00    0.00   0.00   0.00

avg-cpu:  %user   %nice %system %iowait  %steal   %idle
           0.00    0.00    0.03    0.16    0.00   99.81

Device:         rrqm/s   wrqm/s     r/s     w/s    rkB/s    wkB/s avgrq-sz avgqu-sz   await r_await w_await  svctm  %util
nvme0n1           0.00     0.00    0.00    0.00     0.00     0.00     0.00     0.00    0.00    0.00    0.00   0.00   0.00
sda               0.00     0.00    0.00    0.00     0.00     0.00     0.00     0.00    0.00    0.00    0.00   0.00   0.00
sdc               0.00     0.00   99.00    0.00   396.00     0.00     8.00     4.68   50.69   50.69    0.00   8.48  84.00
sdb               0.00     0.00  102.00    0.00   408.00     0.00     8.00     5.13   51.28   51.28    0.00   8.51  86.80
sdd               0.00     0.00   93.00    0.00   372.00     0.00     8.00     4.65   49.04   49.04    0.00   8.57  79.70
md0               0.00     0.00  288.00    0.00  1152.00     0.00     8.00     0.00    0.00    0.00    0.00   0.00   0.00

avg-cpu:  %user   %nice %system %iowait  %steal   %idle
           0.00    0.00    0.00    0.00    0.00  100.09

Device:         rrqm/s   wrqm/s     r/s     w/s    rkB/s    wkB/s avgrq-sz avgqu-sz   await r_await w_await  svctm  %util
nvme0n1           0.00     0.00    0.00    0.00     0.00     0.00     0.00     0.00    0.00    0.00    0.00   0.00   0.00
sda               0.00     8.00    0.00    2.00     0.00    40.00    40.00     0.00    0.50    0.00    0.50   0.50   0.10
sdc               0.00     0.00  102.00    0.00   408.00     0.00     8.00     5.69   54.81   54.81    0.00   8.71  88.80
sdb               0.00     0.00   99.00    0.00   396.00     0.00     8.00     4.69   49.12   49.12    0.00   8.20  81.20
sdd               0.00     0.00   89.00    0.00   356.00     0.00     8.00     3.88   44.60   44.60    0.00   8.25  73.40
md0               0.00     0.00  288.00    0.00  1152.00     0.00     8.00     0.00    0.00    0.00    0.00   0.00   0.00

avg-cpu:  %user   %nice %system %iowait  %steal   %idle
           0.00    0.00    0.03    0.00    0.00  100.03

Device:         rrqm/s   wrqm/s     r/s     w/s    rkB/s    wkB/s avgrq-sz avgqu-sz   await r_await w_await  svctm  %util
nvme0n1           0.00     0.00    0.00    0.00     0.00     0.00     0.00     0.00    0.00    0.00    0.00   0.00   0.00
sda               0.00     0.00    0.00    0.00     0.00     0.00     0.00     0.00    0.00    0.00    0.00   0.00   0.00
sdc               0.00     0.00   92.00    0.00   368.00     0.00     8.00     4.76   49.35   49.35    0.00   8.63  79.40
sdb               0.00     0.00   94.00    0.00   376.00     0.00     8.00     4.85   50.73   50.73    0.00   8.94  84.00
sdd               0.00     0.00   98.00    0.00   392.00     0.00     8.00     5.03   51.29   51.29    0.00   8.65  84.80
md0               0.00     0.00  288.00    0.00  1152.00     0.00     8.00     0.00    0.00    0.00    0.00   0.00   0.00

avg-cpu:  %user   %nice %system %iowait  %steal   %idle
           0.00    0.00    0.00    0.00    0.00  100.00

Device:         rrqm/s   wrqm/s     r/s     w/s    rkB/s    wkB/s avgrq-sz avgqu-sz   await r_await w_await  svctm  %util
nvme0n1           0.00     0.00    0.00    0.00     0.00     0.00     0.00     0.00    0.00    0.00    0.00   0.00   0.00
sda               0.00     0.00    0.00    0.00     0.00     0.00     0.00     0.00    0.00    0.00    0.00   0.00   0.00
sdc               0.00     0.00   95.00    0.00   380.00     0.00     8.00     4.73   53.13   53.13    0.00   9.03  85.80
sdb               0.00     0.00   90.00    0.00   360.00     0.00     8.00     4.57   48.98   48.98    0.00   8.62  77.60
sdd               0.00     0.00  103.00    0.00   412.00     0.00     8.00     5.66   53.35   53.35    0.00   8.42  86.70
md0               0.00     0.00  288.00    0.00  1152.00     0.00     8.00     0.00    0.00    0.00    0.00   0.00   0.00

avg-cpu:  %user   %nice %system %iowait  %steal   %idle
           0.00    0.00    0.00    0.00    0.00  100.00

Device:         rrqm/s   wrqm/s     r/s     w/s    rkB/s    wkB/s avgrq-sz avgqu-sz   await r_await w_await  svctm  %util
nvme0n1           0.00     0.00    0.00    0.00     0.00     0.00     0.00     0.00    0.00    0.00    0.00   0.00   0.00
sda               0.00     2.00    0.00    1.00     0.00    28.00    56.00     0.00    0.00    0.00    0.00   0.00   0.00
sdc               0.00     0.00   90.00    0.00   360.00     0.00     8.00     4.46   49.52   49.52    0.00   8.71  78.40
sdb               0.00     0.00  111.00    0.00   444.00     0.00     8.00     6.40   56.08   56.08    0.00   8.61  95.60
sdd               0.00     0.00   88.00    0.00   352.00     0.00     8.00     4.06   47.98   47.98    0.00   8.41  74.00
md0               0.00     0.00  288.00    0.00  1152.00     0.00     8.00     0.00    0.00    0.00    0.00   0.00   0.00

avg-cpu:  %user   %nice %system %iowait  %steal   %idle
           0.00    0.00    0.03    0.00    0.00  100.00

Device:         rrqm/s   wrqm/s     r/s     w/s    rkB/s    wkB/s avgrq-sz avgqu-sz   await r_await w_await  svctm  %util
nvme0n1           0.00     0.00    0.00    0.00     0.00     0.00     0.00     0.00    0.00    0.00    0.00   0.00   0.00
sda               0.00     0.00    0.00    0.00     0.00     0.00     0.00     0.00    0.00    0.00    0.00   0.00   0.00
sdc               0.00     0.00   87.00    0.00   348.00     0.00     8.00     4.70   52.25   52.25    0.00   8.98  78.10
sdb               0.00     0.00   94.00    0.00   376.00     0.00     8.00     5.10   56.50   56.50    0.00   8.77  82.40
sdd               0.00     0.00   87.00    0.00   348.00     0.00     8.00     4.71   51.10   51.10    0.00   8.64  75.20
md0               0.00     0.00  288.00    0.00  1152.00     0.00     8.00     0.00    0.00    0.00    0.00   0.00   0.00

avg-cpu:  %user   %nice %system %iowait  %steal   %idle
           0.03    0.00    0.00    0.06    0.00   99.91

Device:         rrqm/s   wrqm/s     r/s     w/s    rkB/s    wkB/s avgrq-sz avgqu-sz   await r_await w_await  svctm  %util
nvme0n1           0.00     0.00    0.00    0.00     0.00     0.00     0.00     0.00    0.00    0.00    0.00   0.00   0.00
sda               0.00     3.00    0.00    2.00     0.00    20.00    20.00     0.00    0.00    0.00    0.00   0.00   0.00
sdc               0.00     0.00   89.00    0.00   356.00     0.00     8.00     4.25   47.11   47.11    0.00   8.71  77.50
sdb               0.00     0.00   96.00    0.00   384.00     0.00     8.00     4.98   49.60   49.60    0.00   8.65  83.00
sdd               0.00     0.00  109.00    0.00   436.00     0.00     8.00     5.51   51.73   51.73    0.00   8.28  90.20
md0               0.00     0.00  288.00    0.00  1152.00     0.00     8.00     0.00    0.00    0.00    0.00   0.00   0.00

avg-cpu:  %user   %nice %system %iowait  %steal   %idle
           0.00    0.00    0.00    0.00    0.00  100.06

Device:         rrqm/s   wrqm/s     r/s     w/s    rkB/s    wkB/s avgrq-sz avgqu-sz   await r_await w_await  svctm  %util
nvme0n1           0.00     0.00    0.00    0.00     0.00     0.00     0.00     0.00    0.00    0.00    0.00   0.00   0.00
sda               0.00     0.00    0.00    0.00     0.00     0.00     0.00     0.00    0.00    0.00    0.00   0.00   0.00
sdc               0.00     0.00   84.00    0.00   336.00     0.00     8.00     4.03   50.01   50.01    0.00   8.87  74.50
sdb               0.00     0.00   96.00    0.00   384.00     0.00     8.00     5.11   56.84   56.84    0.00   8.79  84.40
sdd               0.00     0.00   94.00    0.00   376.00     0.00     8.00     5.13   55.19   55.19    0.00   8.57  80.60
md0               0.00     0.00  288.00    0.00  1152.00     0.00     8.00     0.00    0.00    0.00    0.00   0.00   0.00

avg-cpu:  %user   %nice %system %iowait  %steal   %idle
           0.00    0.00    0.03    0.00    0.00   99.97

Device:         rrqm/s   wrqm/s     r/s     w/s    rkB/s    wkB/s avgrq-sz avgqu-sz   await r_await w_await  svctm  %util
nvme0n1           0.00     0.00    0.00    0.00     0.00     0.00     0.00     0.00    0.00    0.00    0.00   0.00   0.00
sda               0.00     0.00    0.00    0.00     0.00     0.00     0.00     0.00    0.00    0.00    0.00   0.00   0.00
sdc               0.00     0.00   89.00    0.00   356.00     0.00     8.00     4.24   47.44   47.44    0.00   8.52  75.80
sdb               0.00     0.00  113.00    0.00   452.00     0.00     8.00     6.38   56.58   56.58    0.00   8.57  96.80
sdd               0.00     0.00   87.00    0.00   348.00     0.00     8.00     3.92   44.82   44.82    0.00   8.31  72.30
md0               0.00     0.00  288.00    0.00  1152.00     0.00     8.00     0.00    0.00    0.00    0.00   0.00   0.00

avg-cpu:  %user   %nice %system %iowait  %steal   %idle
           0.00    0.00    0.06    0.09    0.00   99.84

Device:         rrqm/s   wrqm/s     r/s     w/s    rkB/s    wkB/s avgrq-sz avgqu-sz   await r_await w_await  svctm  %util
nvme0n1           0.00     0.00    0.00    0.00     0.00     0.00     0.00     0.00    0.00    0.00    0.00   0.00   0.00
sda               0.00     0.00   76.00    0.00   516.00     0.00    13.58     0.04    0.58    0.58    0.00   0.07   0.50
sdc               0.00     0.00   99.00    0.00   396.00     0.00     8.00     5.16   51.43   51.43    0.00   8.76  86.70
sdb               0.00     0.00  101.00    0.00   404.00     0.00     8.00     4.90   48.37   48.37    0.00   8.35  84.30
sdd               0.00     0.00  103.00    0.00   412.00     0.00     8.00     5.30   47.96   47.96    0.00   8.16  84.00
md0               0.00     0.00  288.00    0.00  1152.00     0.00     8.00     0.00    0.00    0.00    0.00   0.00   0.00

avg-cpu:  %user   %nice %system %iowait  %steal   %idle
           0.00    0.00    0.00    0.00    0.00  100.06

Device:         rrqm/s   wrqm/s     r/s     w/s    rkB/s    wkB/s avgrq-sz avgqu-sz   await r_await w_await  svctm  %util
nvme0n1           0.00     0.00    0.00    0.00     0.00     0.00     0.00     0.00    0.00    0.00    0.00   0.00   0.00
sda               0.00     0.00    0.00    0.00     0.00     0.00     0.00     0.00    0.00    0.00    0.00   0.00   0.00
sdc               0.00     0.00   67.00    0.00   268.00     0.00     8.00     3.39   44.55   44.55    0.00   9.03  60.50
sdb               0.00     0.00   92.00    0.00   368.00     0.00     8.00     5.22   56.38   56.38    0.00   8.43  77.60
sdd               0.00     0.00   98.00    0.00   392.00     0.00     8.00     5.65   59.87   59.87    0.00   8.67  85.00
md0               0.00     0.00  256.00    0.00  1024.00     0.00     8.00     0.00    0.00    0.00    0.00   0.00   0.00

avg-cpu:  %user   %nice %system %iowait  %steal   %idle
           0.00    0.00    0.00    0.03    0.00   99.97

Device:         rrqm/s   wrqm/s     r/s     w/s    rkB/s    wkB/s avgrq-sz avgqu-sz   await r_await w_await  svctm  %util
nvme0n1           0.00     0.00    0.00    0.00     0.00     0.00     0.00     0.00    0.00    0.00    0.00   0.00   0.00
sda               0.00     3.00    0.00    2.00     0.00    20.00    20.00     0.00    0.00    0.00    0.00   0.00   0.00
sdc               0.00     0.00   93.00    0.00   372.00     0.00     8.00     4.98   54.87   54.87    0.00   8.83  82.10
sdb               0.00     0.00  102.00    0.00   408.00     0.00     8.00     5.33   51.81   51.81    0.00   8.16  83.20
sdd               0.00     0.00   89.00    0.00   356.00     0.00     8.00     4.62   52.31   52.31    0.00   8.88  79.00
md0               0.00     0.00  288.00    0.00  1152.00     0.00     8.00     0.00    0.00    0.00    0.00   0.00   0.00

avg-cpu:  %user   %nice %system %iowait  %steal   %idle
           0.00    0.00    0.03    0.03    0.00   99.94

Device:         rrqm/s   wrqm/s     r/s     w/s    rkB/s    wkB/s avgrq-sz avgqu-sz   await r_await w_await  svctm  %util
nvme0n1           0.00     0.00    0.00    0.00     0.00     0.00     0.00     0.00    0.00    0.00    0.00   0.00   0.00
sda               0.00     0.00    0.00    0.00     0.00     0.00     0.00     0.00    0.00    0.00    0.00   0.00   0.00
sdc               0.00     0.00   83.00    0.00   332.00     0.00     8.00     4.37   52.69   52.69    0.00   9.06  75.20
sdb               0.00     0.00   92.00    0.00   368.00     0.00     8.00     5.28   54.78   54.78    0.00   8.29  76.30
sdd               0.00     0.00   86.00    0.00   344.00     0.00     8.00     4.01   49.01   49.01    0.00   8.03  69.10
md0               0.00     0.00  256.00    0.00  1024.00     0.00     8.00     0.00    0.00    0.00    0.00   0.00   0.00

avg-cpu:  %user   %nice %system %iowait  %steal   %idle
           0.00    0.00    0.00    0.00    0.00  100.03

Device:         rrqm/s   wrqm/s     r/s     w/s    rkB/s    wkB/s avgrq-sz avgqu-sz   await r_await w_await  svctm  %util
nvme0n1           0.00     0.00    0.00    0.00     0.00     0.00     0.00     0.00    0.00    0.00    0.00   0.00   0.00
sda               0.00     0.00    0.00    0.00     0.00     0.00     0.00     0.00    0.00    0.00    0.00   0.00   0.00
sdc               0.00     0.00   86.00    0.00   344.00     0.00     8.00     4.53   55.71   55.71    0.00   8.95  77.00
sdb               0.00     0.00   97.00    0.00   388.00     0.00     8.00     5.21   55.31   55.31    0.00   8.53  82.70
sdd               0.00     0.00   92.00    0.00   368.00     0.00     8.00     4.82   50.58   50.58    0.00   8.40  77.30
md0               0.00     0.00  288.00    0.00  1152.00     0.00     8.00     0.00    0.00    0.00    0.00   0.00   0.00

avg-cpu:  %user   %nice %system %iowait  %steal   %idle
           0.00    0.00    0.00    0.16    0.00   99.84

Device:         rrqm/s   wrqm/s     r/s     w/s    rkB/s    wkB/s avgrq-sz avgqu-sz   await r_await w_await  svctm  %util
nvme0n1           0.00     0.00    0.00    0.00     0.00     0.00     0.00     0.00    0.00    0.00    0.00   0.00   0.00
sda               0.00     0.00    0.00    0.00     0.00     0.00     0.00     0.00    0.00    0.00    0.00   0.00   0.00
sdc               0.00     0.00  102.00    0.00   408.00     0.00     8.00     5.37   53.78   53.78    0.00   8.59  87.60
sdb               0.00     0.00   95.00    0.00   380.00     0.00     8.00     4.77   52.64   52.64    0.00   8.34  79.20
sdd               0.00     0.00   86.00    0.00   344.00     0.00     8.00     3.90   46.69   46.69    0.00   8.28  71.20
md0               0.00     0.00  288.00    0.00  1152.00     0.00     8.00     0.00    0.00    0.00    0.00   0.00   0.00

avg-cpu:  %user   %nice %system %iowait  %steal   %idle
           0.00    0.00    0.00    0.00    0.00  100.00

Device:         rrqm/s   wrqm/s     r/s     w/s    rkB/s    wkB/s avgrq-sz avgqu-sz   await r_await w_await  svctm  %util
nvme0n1           0.00     0.00    0.00    0.00     0.00     0.00     0.00     0.00    0.00    0.00    0.00   0.00   0.00
sda               0.00     0.00    0.00    0.00     0.00     0.00     0.00     0.00    0.00    0.00    0.00   0.00   0.00
sdc               0.00     0.00   87.00    0.00   348.00     0.00     8.00     4.82   52.53   52.53    0.00   9.24  80.40
sdb               0.00     0.00   97.00    0.00   388.00     0.00     8.00     5.48   52.39   52.39    0.00   8.64  83.80
sdd               0.00     0.00   94.00    0.00   376.00     0.00     8.00     4.63   49.78   49.78    0.00   8.44  79.30
md0               0.00     0.00  256.00    0.00  1024.00     0.00     8.00     0.00    0.00    0.00    0.00   0.00   0.00

avg-cpu:  %user   %nice %system %iowait  %steal   %idle
           0.00    0.00    0.03    0.00    0.00   99.97

Device:         rrqm/s   wrqm/s     r/s     w/s    rkB/s    wkB/s avgrq-sz avgqu-sz   await r_await w_await  svctm  %util
nvme0n1           0.00     0.00    0.00    0.00     0.00     0.00     0.00     0.00    0.00    0.00    0.00   0.00   0.00
sda               0.00     1.00    0.00    2.00     0.00    12.00    12.00     0.00    0.00    0.00    0.00   0.00   0.00
sdc               0.00     0.00   90.00    0.00   360.00     0.00     8.00     4.92   57.20   57.20    0.00   8.94  80.50
sdb               0.00     0.00   87.00    0.00   348.00     0.00     8.00     4.32   52.54   52.54    0.00   8.59  74.70
sdd               0.00     0.00   93.00    0.00   372.00     0.00     8.00     4.68   49.02   49.02    0.00   7.95  73.90
md0               0.00     0.00  288.00    0.00  1152.00     0.00     8.00     0.00    0.00    0.00    0.00   0.00   0.00

