Linux 4.17.2 (bench2) 	08/03/2018 	_x86_64_	(32 CPU)

avg-cpu:  %user   %nice %system %iowait  %steal   %idle
           1.90    0.00    1.55    1.59    0.00   94.96

Device:         rrqm/s   wrqm/s     r/s     w/s    rkB/s    wkB/s avgrq-sz avgqu-sz   await r_await w_await  svctm  %util
nvme0n1         934.36     5.07 18836.28  518.62 105362.31 11696.46    12.10     1.34    0.05    0.03    0.67   0.02  39.43
sda               0.12     0.82   14.17    0.58   164.01     8.53    23.40     0.00    0.33    0.32    0.44   0.07   0.10
sdc              34.25     0.17  120.73    0.31  1817.82    97.09    31.64     0.08    0.66   12.34  380.35   0.91  10.99
sdb              32.22     0.19  122.72    0.33  1815.86    96.92    31.09     0.51    4.15    3.05  411.64   0.85  10.44
sdd              34.45     0.17  120.28    0.26  1813.84    96.59    31.70     0.83    6.84    4.90  907.87   0.91  10.99
md0               0.00     0.00  467.49    1.21  6753.99   350.41    30.32     0.00    0.00    0.00    0.00   0.00   0.00

avg-cpu:  %user   %nice %system %iowait  %steal   %idle
           0.00    0.00    0.59    0.09    0.00   99.31

Device:         rrqm/s   wrqm/s     r/s     w/s    rkB/s    wkB/s avgrq-sz avgqu-sz   await r_await w_await  svctm  %util
nvme0n1           0.00     0.00    0.00    0.00     0.00     0.00     0.00     0.00    0.00    0.00    0.00   0.00   0.00
sda               0.00     0.00    1.00    0.00     8.00     0.00    16.00     0.00    1.00    1.00    0.00   1.00   0.10
sdc             241.00     0.00  894.00    0.00  4532.00     0.00    10.14    11.16   12.03   12.03    0.00   0.70  62.50
sdb             105.00     0.00  861.00    0.00  3864.00     0.00     8.98    10.05   11.65   11.65    0.00   0.70  60.30
sdd             444.00     0.00  972.00    0.00  5728.00     0.00    11.79    17.03   17.25   17.25    0.00   0.85  82.30
md0               0.00     0.00 3489.00    0.00 13956.00     0.00     8.00     0.00    0.00    0.00    0.00   0.00   0.00

avg-cpu:  %user   %nice %system %iowait  %steal   %idle
           0.00    0.00    0.59    0.00    0.00   99.41

Device:         rrqm/s   wrqm/s     r/s     w/s    rkB/s    wkB/s avgrq-sz avgqu-sz   await r_await w_await  svctm  %util
nvme0n1           0.00     0.00    0.00    0.00     0.00     0.00     0.00     0.00    0.00    0.00    0.00   0.00   0.00
sda               0.00     0.00    0.00    0.00     0.00     0.00     0.00     0.00    0.00    0.00    0.00   0.00   0.00
sdc             173.00     0.00  958.00    0.00  4548.00     0.00     9.49    12.92   13.83   13.83    0.00   0.80  76.50
sdb             332.00     0.00 1053.00    0.00  5456.00     0.00    10.36    14.06   13.21   13.21    0.00   0.62  65.50
sdd             117.00     0.00  857.00    0.00  3892.00     0.00     9.08     8.62   10.25   10.25    0.00   0.56  47.70
md0               0.00     0.00 3514.00    0.00 14056.00     0.00     8.00     0.00    0.00    0.00    0.00   0.00   0.00

