Linux 4.17.2 (bench2) 	08/03/2018 	_x86_64_	(32 CPU)

avg-cpu:  %user   %nice %system %iowait  %steal   %idle
           1.90    0.00    1.55    1.59    0.00   94.96

Device:         rrqm/s   wrqm/s     r/s     w/s    rkB/s    wkB/s avgrq-sz avgqu-sz   await r_await w_await  svctm  %util
nvme0n1         935.95     5.08 18868.38  519.50 105541.83 11716.38    12.10     1.34    0.05    0.03    0.67   0.02  39.50
sda               0.12     0.82   14.16    0.58   164.01     8.53    23.40     0.00    0.33    0.32    0.44   0.07   0.10
sdc              34.28     0.17  119.88    0.31  1798.44    97.26    31.54     0.08    0.62   12.41  380.35   0.91  10.92
sdb              32.24     0.19  121.87    0.33  1796.51    97.08    30.99     0.51    4.15    3.04  411.64   0.85  10.38
sdd              34.47     0.17  119.42    0.26  1794.45    96.76    31.60     0.82    6.86    4.90  907.87   0.91  10.92
md0               0.00     0.00  465.01    1.21  6676.05   351.00    30.15     0.00    0.00    0.00    0.00   0.00   0.00

avg-cpu:  %user   %nice %system %iowait  %steal   %idle
           0.16    0.00    0.72    2.28    0.00   96.84

Device:         rrqm/s   wrqm/s     r/s     w/s    rkB/s    wkB/s avgrq-sz avgqu-sz   await r_await w_await  svctm  %util
nvme0n1           0.00     0.00    0.00    0.00     0.00     0.00     0.00     0.00    0.00    0.00    0.00   0.00   0.00
sda               0.00     0.00    1.00    0.00     8.00     0.00    16.00     0.00    1.00    1.00    0.00   1.00   0.10
sdc             118.00     0.00  164.00    0.00 62744.00     0.00   765.17     1.64    9.97    9.97    0.00   4.73  77.60
sdb             120.00     0.00  159.00    0.00 62756.00     0.00   789.38     1.46    9.14    9.14    0.00   4.87  77.50
sdd             113.00     0.00  164.00    0.00 62680.00     0.00   764.39     1.82   11.02   11.02    0.00   4.84  79.30
md0               0.00     0.00  847.00    0.00 258540.00     0.00   610.48     0.00    0.00    0.00    0.00   0.00   0.00

avg-cpu:  %user   %nice %system %iowait  %steal   %idle
           0.16    0.00    0.72    2.19    0.00   96.93

Device:         rrqm/s   wrqm/s     r/s     w/s    rkB/s    wkB/s avgrq-sz avgqu-sz   await r_await w_await  svctm  %util
nvme0n1           0.00     0.00    0.00    0.00     0.00     0.00     0.00     0.00    0.00    0.00    0.00   0.00   0.00
sda               0.00    10.00    0.00    2.00     0.00    48.00    48.00     0.00    0.00    0.00    0.00   0.00   0.00
sdc             115.00     0.00  156.00    0.00 63592.00     0.00   815.28     1.95   12.58   12.58    0.00   5.39  84.10
sdb             114.00     0.00  149.00    0.00 63128.00     0.00   847.36     1.75   11.74   11.74    0.00   5.32  79.30
sdd             117.00     0.00  155.00    0.00 63524.00     0.00   819.66     1.22    7.92    7.92    0.00   4.32  67.00
md0               0.00     0.00  797.00    0.00 253536.00     0.00   636.23     0.00    0.00    0.00    0.00   0.00   0.00

