Linux 4.17.2 (bench2) 	08/03/2018 	_x86_64_	(32 CPU)

avg-cpu:  %user   %nice %system %iowait  %steal   %idle
           1.91    0.00    1.56    1.56    0.00   94.97

Device:         rrqm/s   wrqm/s     r/s     w/s    rkB/s    wkB/s avgrq-sz avgqu-sz   await r_await w_await  svctm  %util
nvme0n1         942.45     5.12 18999.38  523.11 106274.59 11797.73    12.10     1.35    0.05    0.03    0.67   0.02  39.77
sda               0.12     0.81   14.15    0.58   163.94     8.52    23.42     0.00    0.33    0.32    0.44   0.07   0.10
sdc              33.74     0.18  115.16    0.31  1742.99    97.93    31.88     0.03    0.28   12.63  380.35   0.92  10.64
sdb              31.69     0.19  117.17    0.33  1741.08    97.76    31.30     0.47    3.99    2.83  411.64   0.86  10.11
sdd              33.93     0.17  114.70    0.26  1738.99    97.43    31.95     0.79    6.83    4.77  907.87   0.93  10.64
md0               0.00     0.00  449.24    1.22  6466.37   353.44    30.28     0.00    0.00    0.00    0.00   0.00   0.00

avg-cpu:  %user   %nice %system %iowait  %steal   %idle
           0.00    0.00    0.06    7.03    0.00   92.90

Device:         rrqm/s   wrqm/s     r/s     w/s    rkB/s    wkB/s avgrq-sz avgqu-sz   await r_await w_await  svctm  %util
nvme0n1           0.00     0.00    0.00    0.00     0.00     0.00     0.00     0.00    0.00    0.00    0.00   0.00   0.00
sda               0.00     0.00   20.00    0.00   120.00     0.00    12.00     0.00    0.00    0.00    0.00   0.00   0.00
sdc               0.00     0.00   66.00    0.00   264.00     0.00     8.00     1.58   23.59   23.59    0.00  10.35  68.30
sdb               0.00     0.00   59.00    0.00   236.00     0.00     8.00     1.46   24.12   24.12    0.00  11.63  68.60
sdd               0.00     0.00   45.00    0.00   180.00     0.00     8.00     0.87   19.27   19.27    0.00  11.07  49.80
md0               0.00     0.00  169.00    0.00   676.00     0.00     8.00     0.00    0.00    0.00    0.00   0.00   0.00

avg-cpu:  %user   %nice %system %iowait  %steal   %idle
           0.00    0.00    0.03    6.94    0.00   93.03

Device:         rrqm/s   wrqm/s     r/s     w/s    rkB/s    wkB/s avgrq-sz avgqu-sz   await r_await w_await  svctm  %util
nvme0n1           0.00     0.00    0.00    0.00     0.00     0.00     0.00     0.00    0.00    0.00    0.00   0.00   0.00
sda               0.00     0.00    0.00    0.00     0.00     0.00     0.00     0.00    0.00    0.00    0.00   0.00   0.00
sdc               0.00     0.00   64.00    0.00   256.00     0.00     8.00     1.36   21.62   21.62    0.00  10.06  64.40
sdb               0.00     0.00   64.00    0.00   256.00     0.00     8.00     1.21   19.50   19.50    0.00   9.44  60.40
sdd               0.00     0.00   69.00    0.00   276.00     0.00     8.00     1.58   22.12   22.12    0.00   9.74  67.20
md0               0.00     0.00  192.00    0.00   768.00     0.00     8.00     0.00    0.00    0.00    0.00   0.00   0.00

avg-cpu:  %user   %nice %system %iowait  %steal   %idle
           0.03    0.00    0.03    6.62    0.00   93.31

Device:         rrqm/s   wrqm/s     r/s     w/s    rkB/s    wkB/s avgrq-sz avgqu-sz   await r_await w_await  svctm  %util
nvme0n1           0.00     0.00    0.00    0.00     0.00     0.00     0.00     0.00    0.00    0.00    0.00   0.00   0.00
sda               0.00     0.00    0.00    0.00     0.00     0.00     0.00     0.00    0.00    0.00    0.00   0.00   0.00
sdc               0.00     0.00   73.00    0.00   292.00     0.00     8.00     1.57   21.48   21.48    0.00   9.12  66.60
sdb               0.00     0.00   66.00    0.00   264.00     0.00     8.00     1.34   20.26   20.26    0.00   9.52  62.80
sdd               0.00     0.00   61.00    0.00   244.00     0.00     8.00     1.17   19.72   19.72    0.00   8.95  54.60
md0               0.00     0.00  200.00    0.00   800.00     0.00     8.00     0.00    0.00    0.00    0.00   0.00   0.00

avg-cpu:  %user   %nice %system %iowait  %steal   %idle
           0.00    0.00    0.09    7.03    0.00   92.88

Device:         rrqm/s   wrqm/s     r/s     w/s    rkB/s    wkB/s avgrq-sz avgqu-sz   await r_await w_await  svctm  %util
nvme0n1           0.00     0.00    0.00    0.00     0.00     0.00     0.00     0.00    0.00    0.00    0.00   0.00   0.00
sda               0.00     0.00    0.00    0.00     0.00     0.00     0.00     0.00    0.00    0.00    0.00   0.00   0.00
sdc               0.00     0.00   74.00    0.00   296.00     0.00     8.00     1.53   20.62   20.62    0.00   9.95  73.60
sdb               0.00     0.00   73.00    0.00   292.00     0.00     8.00     1.47   19.86   19.86    0.00   9.36  68.30
sdd               0.00     0.00   70.00    0.00   280.00     0.00     8.00     1.26   18.04   18.04    0.00   8.53  59.70
md0               0.00     0.00  224.00    0.00   896.00     0.00     8.00     0.00    0.00    0.00    0.00   0.00   0.00

avg-cpu:  %user   %nice %system %iowait  %steal   %idle
           0.00    0.00    0.03    6.66    0.00   93.31

Device:         rrqm/s   wrqm/s     r/s     w/s    rkB/s    wkB/s avgrq-sz avgqu-sz   await r_await w_await  svctm  %util
nvme0n1           0.00     0.00    0.00    0.00     0.00     0.00     0.00     0.00    0.00    0.00    0.00   0.00   0.00
sda               0.00    11.00    0.00    2.00     0.00    52.00    52.00     0.00    0.50    0.00    0.50   0.50   0.10
sdc               0.00     0.00   76.00    0.00   304.00     0.00     8.00     1.50   19.29   19.29    0.00   9.26  70.40
sdb               0.00     0.00   72.00    0.00   288.00     0.00     8.00     1.42   19.68   19.68    0.00   9.58  69.00
sdd               0.00     0.00   72.00    0.00   288.00     0.00     8.00     1.29   18.14   18.14    0.00   8.88  63.90
md0               0.00     0.00  216.00    0.00   864.00     0.00     8.00     0.00    0.00    0.00    0.00   0.00   0.00

avg-cpu:  %user   %nice %system %iowait  %steal   %idle
           0.00    0.00    0.03    6.91    0.00   93.06

Device:         rrqm/s   wrqm/s     r/s     w/s    rkB/s    wkB/s avgrq-sz avgqu-sz   await r_await w_await  svctm  %util
nvme0n1           0.00     0.00    0.00    0.00     0.00     0.00     0.00     0.00    0.00    0.00    0.00   0.00   0.00
sda               0.00     0.00    0.00    0.00     0.00     0.00     0.00     0.00    0.00    0.00    0.00   0.00   0.00
sdc               0.00     0.00   81.00    0.00   324.00     0.00     8.00     1.80   22.19   22.19    0.00   9.54  77.30
sdb               0.00     0.00   54.00    0.00   216.00     0.00     8.00     0.98   18.35   18.35    0.00   9.20  49.70
sdd               0.00     0.00   67.00    0.00   268.00     0.00     8.00     1.30   19.46   19.46    0.00   9.37  62.80
md0               0.00     0.00  200.00    0.00   800.00     0.00     8.00     0.00    0.00    0.00    0.00   0.00   0.00

avg-cpu:  %user   %nice %system %iowait  %steal   %idle
           0.00    0.00    0.03    6.57    0.00   93.40

Device:         rrqm/s   wrqm/s     r/s     w/s    rkB/s    wkB/s avgrq-sz avgqu-sz   await r_await w_await  svctm  %util
nvme0n1           0.00     0.00    0.00    0.00     0.00     0.00     0.00     0.00    0.00    0.00    0.00   0.00   0.00
sda               0.00     0.00    0.00    0.00     0.00     0.00     0.00     0.00    0.00    0.00    0.00   0.00   0.00
sdc               0.00     0.00   71.00    0.00   284.00     0.00     8.00     1.36   19.96   19.96    0.00   9.27  65.80
sdb               0.00     0.00   73.00    0.00   292.00     0.00     8.00     1.39   19.03   19.03    0.00   8.93  65.20
sdd               0.00     0.00   73.00    0.00   292.00     0.00     8.00     1.48   19.96   19.96    0.00   9.47  69.10
md0               0.00     0.00  216.00    0.00   864.00     0.00     8.00     0.00    0.00    0.00    0.00   0.00   0.00

avg-cpu:  %user   %nice %system %iowait  %steal   %idle
           0.00    0.00    0.00    6.50    0.00   93.50

Device:         rrqm/s   wrqm/s     r/s     w/s    rkB/s    wkB/s avgrq-sz avgqu-sz   await r_await w_await  svctm  %util
nvme0n1           0.00     0.00    0.00    0.00     0.00     0.00     0.00     0.00    0.00    0.00    0.00   0.00   0.00
sda               0.00     0.00    0.00    0.00     0.00     0.00     0.00     0.00    0.00    0.00    0.00   0.00   0.00
sdc               0.00     0.00   72.00    0.00   288.00     0.00     8.00     1.63   22.67   22.67    0.00  10.01  72.10
sdb               0.00     0.00   67.00    0.00   268.00     0.00     8.00     1.41   20.28   20.28    0.00   9.27  62.10
sdd               0.00     0.00   61.00    0.00   244.00     0.00     8.00     1.06   17.87   17.87    0.00   8.98  54.80
md0               0.00     0.00  200.00    0.00   800.00     0.00     8.00     0.00    0.00    0.00    0.00   0.00   0.00

avg-cpu:  %user   %nice %system %iowait  %steal   %idle
           0.00    0.00    0.09    6.72    0.00   93.19

Device:         rrqm/s   wrqm/s     r/s     w/s    rkB/s    wkB/s avgrq-sz avgqu-sz   await r_await w_await  svctm  %util
nvme0n1           0.00     0.00    0.00    0.00     0.00     0.00     0.00     0.00    0.00    0.00    0.00   0.00   0.00
sda               0.00     0.00    0.00    0.00     0.00     0.00     0.00     0.00    0.00    0.00    0.00   0.00   0.00
sdc               0.00     0.00   76.00    0.00   304.00     0.00     8.00     1.62   20.45   20.45    0.00  10.07  76.50
sdb               0.00     0.00   73.00    0.00   292.00     0.00     8.00     1.32   18.85   18.85    0.00   8.85  64.60
sdd               0.00     0.00   74.00    0.00   296.00     0.00     8.00     1.37   18.54   18.54    0.00   9.24  68.40
md0               0.00     0.00  224.00    0.00   896.00     0.00     8.00     0.00    0.00    0.00    0.00   0.00   0.00

avg-cpu:  %user   %nice %system %iowait  %steal   %idle
           0.00    0.00    0.03    6.03    0.00   93.94

Device:         rrqm/s   wrqm/s     r/s     w/s    rkB/s    wkB/s avgrq-sz avgqu-sz   await r_await w_await  svctm  %util
nvme0n1           0.00     0.00    0.00    0.00     0.00     0.00     0.00     0.00    0.00    0.00    0.00   0.00   0.00
sda               0.00     0.00    0.00    0.00     0.00     0.00     0.00     0.00    0.00    0.00    0.00   0.00   0.00
sdc               0.00     0.00   60.00    0.00   240.00     0.00     8.00     1.09   18.90   18.90    0.00   9.30  55.80
sdb               0.00     0.00   73.00    0.00   292.00     0.00     8.00     1.54   20.77   20.77    0.00   9.23  67.40
sdd               0.00     0.00   69.00    0.00   276.00     0.00     8.00     1.38   19.77   19.77    0.00   9.43  65.10
md0               0.00     0.00  208.00    0.00   832.00     0.00     8.00     0.00    0.00    0.00    0.00   0.00   0.00

avg-cpu:  %user   %nice %system %iowait  %steal   %idle
           0.03    0.00    0.03    6.25    0.00   93.69

Device:         rrqm/s   wrqm/s     r/s     w/s    rkB/s    wkB/s avgrq-sz avgqu-sz   await r_await w_await  svctm  %util
nvme0n1           0.00     0.00    0.00    0.00     0.00     0.00     0.00     0.00    0.00    0.00    0.00   0.00   0.00
sda               0.00     1.00    0.00    2.00     0.00    12.00    12.00     0.00    0.00    0.00    0.00   0.00   0.00
sdc               0.00     0.00   70.00    0.00   280.00     0.00     8.00     1.24   18.09   18.09    0.00   8.43  59.00
sdb               0.00     0.00   61.00    0.00   244.00     0.00     8.00     1.24   19.87   19.87    0.00   9.08  55.40
sdd               0.00     0.00   80.00    0.00   320.00     0.00     8.00     1.58   19.55   19.55    0.00   8.91  71.30
md0               0.00     0.00  208.00    0.00   832.00     0.00     8.00     0.00    0.00    0.00    0.00   0.00   0.00

avg-cpu:  %user   %nice %system %iowait  %steal   %idle
           0.00    0.00    0.03    6.16    0.00   93.81

Device:         rrqm/s   wrqm/s     r/s     w/s    rkB/s    wkB/s avgrq-sz avgqu-sz   await r_await w_await  svctm  %util
nvme0n1           0.00     0.00    0.00    0.00     0.00     0.00     0.00     0.00    0.00    0.00    0.00   0.00   0.00
sda               0.00     0.00    0.00    0.00     0.00     0.00     0.00     0.00    0.00    0.00    0.00   0.00   0.00
sdc               0.00     0.00   51.00    0.00   204.00     0.00     8.00     0.91   17.78   17.78    0.00   9.27  47.30
sdb               0.00     0.00   63.00    0.00   252.00     0.00     8.00     1.30   21.35   21.35    0.00  10.35  65.20
sdd               0.00     0.00   82.00    0.00   328.00     0.00     8.00     1.92   23.26   23.26    0.00   9.46  77.60
md0               0.00     0.00  192.00    0.00   768.00     0.00     8.00     0.00    0.00    0.00    0.00   0.00   0.00

avg-cpu:  %user   %nice %system %iowait  %steal   %idle
           0.00    0.00    0.06    4.44    0.00   95.50

Device:         rrqm/s   wrqm/s     r/s     w/s    rkB/s    wkB/s avgrq-sz avgqu-sz   await r_await w_await  svctm  %util
nvme0n1           0.00     0.00    0.00    0.00     0.00     0.00     0.00     0.00    0.00    0.00    0.00   0.00   0.00
sda               0.00     0.00    0.00    0.00     0.00     0.00     0.00     0.00    0.00    0.00    0.00   0.00   0.00
sdc               0.00     0.00   68.00    0.00   272.00     0.00     8.00     1.39   19.71   19.71    0.00   9.71  66.00
sdb               0.00     0.00   76.00    0.00   304.00     0.00     8.00     1.57   20.33   20.33    0.00   9.70  73.70
sdd               0.00     0.00   70.00    0.00   280.00     0.00     8.00     1.20   17.83   17.83    0.00   9.14  64.00
md0               0.00     0.00  216.00    0.00   864.00     0.00     8.00     0.00    0.00    0.00    0.00   0.00   0.00

avg-cpu:  %user   %nice %system %iowait  %steal   %idle
           0.00    0.00    0.03    4.81    0.00   95.15

Device:         rrqm/s   wrqm/s     r/s     w/s    rkB/s    wkB/s avgrq-sz avgqu-sz   await r_await w_await  svctm  %util
nvme0n1           0.00     0.00    0.00    0.00     0.00     0.00     0.00     0.00    0.00    0.00    0.00   0.00   0.00
sda               0.00     3.00    0.00    4.00     0.00    68.00    34.00     0.00    0.00    0.00    0.00   0.00   0.00
sdc               0.00     0.00   66.00    0.00   264.00     0.00     8.00     1.36   19.71   19.71    0.00   9.17  60.50
sdb               0.00     0.00   68.00    0.00   272.00     0.00     8.00     1.30   19.53   19.53    0.00   9.43  64.10
sdd               0.00     0.00   72.00    0.00   288.00     0.00     8.00     1.50   20.86   20.86    0.00   9.15  65.90
md0               0.00     0.00  208.00    0.00   832.00     0.00     8.00     0.00    0.00    0.00    0.00   0.00   0.00

avg-cpu:  %user   %nice %system %iowait  %steal   %idle
           0.00    0.00    0.00    4.22    0.00   95.78

Device:         rrqm/s   wrqm/s     r/s     w/s    rkB/s    wkB/s avgrq-sz avgqu-sz   await r_await w_await  svctm  %util
nvme0n1           0.00     0.00    0.00    0.00     0.00     0.00     0.00     0.00    0.00    0.00    0.00   0.00   0.00
sda               0.00     0.00    0.00    0.00     0.00     0.00     0.00     0.00    0.00    0.00    0.00   0.00   0.00
sdc               0.00     0.00   75.00    0.00   300.00     0.00     8.00     1.62   23.05   23.05    0.00   9.27  69.50
sdb               0.00     0.00   64.00    0.00   256.00     0.00     8.00     1.33   20.41   20.41    0.00   9.53  61.00
sdd               0.00     0.00   58.00    0.00   232.00     0.00     8.00     1.23   20.67   20.67    0.00   9.72  56.40
md0               0.00     0.00  200.00    0.00   800.00     0.00     8.00     0.00    0.00    0.00    0.00   0.00   0.00

avg-cpu:  %user   %nice %system %iowait  %steal   %idle
           0.00    0.00    0.06    4.53    0.00   95.41

Device:         rrqm/s   wrqm/s     r/s     w/s    rkB/s    wkB/s avgrq-sz avgqu-sz   await r_await w_await  svctm  %util
nvme0n1           0.00     0.00    0.00    0.00     0.00     0.00     0.00     0.00    0.00    0.00    0.00   0.00   0.00
sda               0.00     6.00    0.00    2.00     0.00    32.00    32.00     0.00    0.00    0.00    0.00   0.00   0.00
sdc               0.00     0.00   72.00    0.00   288.00     0.00     8.00     1.51   20.76   20.76    0.00   9.47  68.20
sdb               0.00     0.00   66.00    0.00   264.00     0.00     8.00     1.34   20.35   20.35    0.00   9.59  63.30
sdd               0.00     0.00   64.00    0.00   256.00     0.00     8.00     1.33   20.75   20.75    0.00   9.73  62.30
md0               0.00     0.00  200.00    0.00   800.00     0.00     8.00     0.00    0.00    0.00    0.00   0.00   0.00

avg-cpu:  %user   %nice %system %iowait  %steal   %idle
           0.00    0.00    0.06    4.44    0.00   95.50

Device:         rrqm/s   wrqm/s     r/s     w/s    rkB/s    wkB/s avgrq-sz avgqu-sz   await r_await w_await  svctm  %util
nvme0n1           0.00     0.00    0.00    0.00     0.00     0.00     0.00     0.00    0.00    0.00    0.00   0.00   0.00
sda               0.00     0.00    0.00    0.00     0.00     0.00     0.00     0.00    0.00    0.00    0.00   0.00   0.00
sdc               0.00     0.00   73.00    0.00   292.00     0.00     8.00     1.67   23.00   23.00    0.00   9.51  69.40
sdb               0.00     0.00   60.00    0.00   240.00     0.00     8.00     1.08   18.30   18.30    0.00   8.97  53.80
sdd               0.00     0.00   65.00    0.00   260.00     0.00     8.00     1.25   19.68   19.68    0.00   9.08  59.00
md0               0.00     0.00  200.00    0.00   800.00     0.00     8.00     0.00    0.00    0.00    0.00   0.00   0.00

avg-cpu:  %user   %nice %system %iowait  %steal   %idle
           0.03    0.00    0.03    4.59    0.00   95.35

Device:         rrqm/s   wrqm/s     r/s     w/s    rkB/s    wkB/s avgrq-sz avgqu-sz   await r_await w_await  svctm  %util
nvme0n1           0.00     0.00    0.00    0.00     0.00     0.00     0.00     0.00    0.00    0.00    0.00   0.00   0.00
sda               0.00     0.00    0.00    0.00     0.00     0.00     0.00     0.00    0.00    0.00    0.00   0.00   0.00
sdc               0.00     0.00   83.00    0.00   332.00     0.00     8.00     1.88   22.59   22.59    0.00   9.58  79.50
sdb               0.00     0.00   64.00    0.00   256.00     0.00     8.00     1.18   17.98   17.98    0.00   8.95  57.30
sdd               0.00     0.00   60.00    0.00   240.00     0.00     8.00     1.14   18.92   18.92    0.00   9.50  57.00
md0               0.00     0.00  200.00    0.00   800.00     0.00     8.00     0.00    0.00    0.00    0.00   0.00   0.00

avg-cpu:  %user   %nice %system %iowait  %steal   %idle
           0.00    0.00    0.03    4.94    0.00   95.03

Device:         rrqm/s   wrqm/s     r/s     w/s    rkB/s    wkB/s avgrq-sz avgqu-sz   await r_await w_await  svctm  %util
nvme0n1           0.00     0.00    0.00    0.00     0.00     0.00     0.00     0.00    0.00    0.00    0.00   0.00   0.00
sda               0.00     0.00    0.00    0.00     0.00     0.00     0.00     0.00    0.00    0.00    0.00   0.00   0.00
sdc               0.00     0.00   71.00    0.00   284.00     0.00     8.00     1.48   20.85   20.85    0.00   9.58  68.00
sdb               0.00     0.00   59.00    0.00   236.00     0.00     8.00     1.01   17.46   17.46    0.00   9.31  54.90
sdd               0.00     0.00   79.00    0.00   316.00     0.00     8.00     1.67   21.13   21.13    0.00   9.29  73.40
md0               0.00     0.00  216.00    0.00   864.00     0.00     8.00     0.00    0.00    0.00    0.00   0.00   0.00

avg-cpu:  %user   %nice %system %iowait  %steal   %idle
           0.00    0.00    0.00    4.38    0.00   95.62

Device:         rrqm/s   wrqm/s     r/s     w/s    rkB/s    wkB/s avgrq-sz avgqu-sz   await r_await w_await  svctm  %util
nvme0n1           0.00     0.00    0.00    0.00     0.00     0.00     0.00     0.00    0.00    0.00    0.00   0.00   0.00
sda               0.00     1.00    0.00    2.00     0.00    12.00    12.00     0.00    0.00    0.00    0.00   0.00   0.00
sdc               0.00     0.00   70.00    0.00   280.00     0.00     8.00     1.38   19.59   19.59    0.00   9.27  64.90
sdb               0.00     0.00   65.00    0.00   260.00     0.00     8.00     1.30   20.29   20.29    0.00   9.32  60.60
sdd               0.00     0.00   67.00    0.00   268.00     0.00     8.00     1.37   20.00   20.00    0.00   9.39  62.90
md0               0.00     0.00  200.00    0.00   800.00     0.00     8.00     0.00    0.00    0.00    0.00   0.00   0.00

