Linux 4.17.2 (bench2) 	08/03/2018 	_x86_64_	(32 CPU)

avg-cpu:  %user   %nice %system %iowait  %steal   %idle
           1.91    0.00    1.56    1.55    0.00   94.98

Device:         rrqm/s   wrqm/s     r/s     w/s    rkB/s    wkB/s avgrq-sz avgqu-sz   await r_await w_await  svctm  %util
nvme0n1         943.52     5.12 19020.92  523.70 106395.09 11811.11    12.10     1.35    0.05    0.03    0.67   0.02  39.82
sda               0.12     0.81   14.15    0.58   163.95     8.52    23.42     0.00    0.33    0.32    0.44   0.07   0.10
sdc              33.48     0.18  114.68    0.31  1729.56    98.04    31.79     0.01    0.09   12.51  380.35   0.92  10.58
sdb              31.43     0.19  116.69    0.33  1727.64    97.87    31.20     0.45    3.83    2.66  411.64   0.86  10.06
sdd              33.68     0.17  114.22    0.26  1725.55    97.54    31.85     0.76    6.68    4.61  907.87   0.92  10.58
md0               0.00     0.00  447.03    1.22  6412.81   353.84    30.19     0.00    0.00    0.00    0.00   0.00   0.00

avg-cpu:  %user   %nice %system %iowait  %steal   %idle
           0.09    0.00    1.44    2.91    0.00   95.56

Device:         rrqm/s   wrqm/s     r/s     w/s    rkB/s    wkB/s avgrq-sz avgqu-sz   await r_await w_await  svctm  %util
nvme0n1           0.00     0.00    0.00    0.00     0.00     0.00     0.00     0.00    0.00    0.00    0.00   0.00   0.00
sda               0.00     0.00    3.00    0.00   100.00     0.00    66.67     0.00    0.00    0.00    0.00   0.00   0.00
sdc              69.00     0.00  197.00    0.00 41460.00     0.00   420.91     1.78    8.69    8.69    0.00   3.51  69.10
sdb              67.00     0.00  269.00    0.00 42392.00     0.00   315.18     1.83    6.79    6.79    0.00   2.37  63.70
sdd              74.00     0.00  258.00    0.00 42772.00     0.00   331.57     1.59    6.08    6.08    0.00   2.35  60.60
md0               0.00     0.00  962.00    0.00 184412.00     0.00   383.39     0.00    0.00    0.00    0.00   0.00   0.00

avg-cpu:  %user   %nice %system %iowait  %steal   %idle
           0.06    0.00    0.66    2.44    0.00   96.84

Device:         rrqm/s   wrqm/s     r/s     w/s    rkB/s    wkB/s avgrq-sz avgqu-sz   await r_await w_await  svctm  %util
nvme0n1           0.00     0.00    0.00    0.00     0.00     0.00     0.00     0.00    0.00    0.00    0.00   0.00   0.00
sda               0.00     0.00    0.00    0.00     0.00     0.00     0.00     0.00    0.00    0.00    0.00   0.00   0.00
sdc             106.00     0.00  237.00    0.00 56288.00     0.00   475.00     2.32   10.09   10.09    0.00   3.49  82.70
sdb              98.00     0.00  240.00    0.00 56176.00     0.00   468.13     1.01    4.23    4.23    0.00   2.12  50.90
sdd             103.00     0.00  258.00    0.00 54912.00     0.00   425.67     1.85    7.14    7.14    0.00   2.53  65.30
md0               0.00     0.00 1046.00    0.00 262028.00     0.00   501.01     0.00    0.00    0.00    0.00   0.00   0.00

avg-cpu:  %user   %nice %system %iowait  %steal   %idle
           0.06    0.00    0.72    2.81    0.00   96.41

Device:         rrqm/s   wrqm/s     r/s     w/s    rkB/s    wkB/s avgrq-sz avgqu-sz   await r_await w_await  svctm  %util
nvme0n1           0.00     0.00    0.00    0.00     0.00     0.00     0.00     0.00    0.00    0.00    0.00   0.00   0.00
sda               0.00    13.00    0.00    2.00     0.00    60.00    60.00     0.00    0.50    0.00    0.50   0.50   0.10
sdc             100.00     0.00  293.00    0.00 59472.00     0.00   405.95     1.77    6.05    6.05    0.00   2.57  75.40
sdb             109.00     0.00  271.00    0.00 59704.00     0.00   440.62     1.40    5.16    5.16    0.00   2.42  65.50
sdd             102.00     0.00  315.00    0.00 59760.00     0.00   379.43     2.89    9.23    9.23    0.00   2.87  90.40
md0               0.00     0.00 1187.00    0.00 278924.00     0.00   469.96     0.00    0.00    0.00    0.00   0.00   0.00

avg-cpu:  %user   %nice %system %iowait  %steal   %idle
           0.03    0.00    0.41    1.94    0.00   97.62

Device:         rrqm/s   wrqm/s     r/s     w/s    rkB/s    wkB/s avgrq-sz avgqu-sz   await r_await w_await  svctm  %util
nvme0n1           0.00     0.00    0.00    0.00     0.00     0.00     0.00     0.00    0.00    0.00    0.00   0.00   0.00
sda               0.00     0.00    0.00    0.00     0.00     0.00     0.00     0.00    0.00    0.00    0.00   0.00   0.00
sdc             103.00     0.00  210.00    0.00 56000.00     0.00   533.33     2.04    9.47    9.47    0.00   3.87  81.20
sdb             102.00     0.00  215.00    0.00 57052.00     0.00   530.72     1.33    6.20    6.20    0.00   2.86  61.50
sdd             110.00     0.00  225.00    0.00 57188.00     0.00   508.34     1.97    8.82    8.82    0.00   3.57  80.30
md0               0.00     0.00  973.00    0.00 274300.00     0.00   563.82     0.00    0.00    0.00    0.00   0.00   0.00

avg-cpu:  %user   %nice %system %iowait  %steal   %idle
           0.03    0.00    0.59    2.84    0.00   96.53

Device:         rrqm/s   wrqm/s     r/s     w/s    rkB/s    wkB/s avgrq-sz avgqu-sz   await r_await w_await  svctm  %util
nvme0n1           0.00     0.00    0.00    0.00     0.00     0.00     0.00     0.00    0.00    0.00    0.00   0.00   0.00
sda               0.00     0.00    0.00    0.00     0.00     0.00     0.00     0.00    0.00    0.00    0.00   0.00   0.00
sdc              95.00     0.00  255.00    0.00 52564.00     0.00   412.27     2.64   10.55   10.55    0.00   3.62  92.30
sdb              99.00     0.00  199.00    0.00 51604.00     0.00   518.63     0.81    3.98    3.98    0.00   2.09  41.60
sdd              93.00     0.00  258.00    0.00 52548.00     0.00   407.35     1.58    6.16    6.16    0.00   2.45  63.10
md0               0.00     0.00 1045.00    0.00 226564.00     0.00   433.62     0.00    0.00    0.00    0.00   0.00   0.00

avg-cpu:  %user   %nice %system %iowait  %steal   %idle
           0.06    0.00    0.44    4.41    0.00   95.09

Device:         rrqm/s   wrqm/s     r/s     w/s    rkB/s    wkB/s avgrq-sz avgqu-sz   await r_await w_await  svctm  %util
nvme0n1           0.00     0.00    0.00    0.00     0.00     0.00     0.00     0.00    0.00    0.00    0.00   0.00   0.00
sda               0.00     1.00    0.00    2.00     0.00    12.00    12.00     0.00    0.00    0.00    0.00   0.00   0.00
sdc              89.00     0.00  260.00    0.00 47960.00     0.00   368.92     3.49   11.66   11.66    0.00   3.53  91.90
sdb              78.00     0.00  261.00    0.00 48924.00     0.00   374.90     1.44    5.62    5.62    0.00   1.89  49.30
sdd              80.00     0.00  222.00    0.00 49084.00     0.00   442.20     1.23    5.59    5.59    0.00   2.11  46.80
md0               0.00     0.00  979.00    0.00 199896.00     0.00   408.37     0.00    0.00    0.00    0.00   0.00   0.00

avg-cpu:  %user   %nice %system %iowait  %steal   %idle
           0.03    0.00    0.66    0.50    0.00   98.81

Device:         rrqm/s   wrqm/s     r/s     w/s    rkB/s    wkB/s avgrq-sz avgqu-sz   await r_await w_await  svctm  %util
nvme0n1           0.00     0.00    0.00    0.00     0.00     0.00     0.00     0.00    0.00    0.00    0.00   0.00   0.00
sda               0.00     0.00    0.00    0.00     0.00     0.00     0.00     0.00    0.00    0.00    0.00   0.00   0.00
sdc             111.00     0.00  211.00    0.00 60796.00     0.00   576.27     2.12   12.04   12.04    0.00   4.05  85.40
sdb             117.00     0.00  196.00    0.00 59688.00     0.00   609.06     1.14    5.72    5.72    0.00   2.78  54.40
sdd             113.00     0.00  214.00    0.00 59172.00     0.00   553.01     2.25   10.26   10.26    0.00   3.59  76.80
md0               0.00     0.00  966.00    0.00 291884.00     0.00   604.31     0.00    0.00    0.00    0.00   0.00   0.00

avg-cpu:  %user   %nice %system %iowait  %steal   %idle
           0.03    0.00    0.50    2.35    0.00   97.12

Device:         rrqm/s   wrqm/s     r/s     w/s    rkB/s    wkB/s avgrq-sz avgqu-sz   await r_await w_await  svctm  %util
nvme0n1           0.00     0.00    0.00    0.00     0.00     0.00     0.00     0.00    0.00    0.00    0.00   0.00   0.00
sda               0.00     3.00    0.00    2.00     0.00    20.00    20.00     0.00    0.50    0.00    0.50   0.50   0.10
sdc             102.00     0.00  191.00    0.00 56684.00     0.00   593.55     2.50   13.27   13.27    0.00   4.45  85.00
sdb             103.00     0.00  250.00    0.00 57176.00     0.00   457.41     2.55   10.25   10.25    0.00   3.06  76.40
sdd             100.00     0.00  256.00    0.00 57792.00     0.00   451.50     1.78    7.17    7.17    0.00   2.67  68.30
md0               0.00     0.00 1026.00    0.00 258800.00     0.00   504.48     0.00    0.00    0.00    0.00   0.00   0.00

avg-cpu:  %user   %nice %system %iowait  %steal   %idle
           0.06    0.00    0.53    2.16    0.00   97.25

Device:         rrqm/s   wrqm/s     r/s     w/s    rkB/s    wkB/s avgrq-sz avgqu-sz   await r_await w_await  svctm  %util
nvme0n1           0.00     0.00    0.00    0.00     0.00     0.00     0.00     0.00    0.00    0.00    0.00   0.00   0.00
sda               0.00     0.00    0.00    0.00     0.00     0.00     0.00     0.00    0.00    0.00    0.00   0.00   0.00
sdc             113.00     0.00  176.00    0.00 59816.00     0.00   679.73     2.81   16.07   16.07    0.00   5.22  91.90
sdb             109.00     0.00  168.00    0.00 57780.00     0.00   687.86     1.15    6.73    6.73    0.00   3.14  52.70
sdd             113.00     0.00  214.00    0.00 58564.00     0.00   547.33     1.83    8.57    8.57    0.00   3.42  73.20
md0               0.00     0.00  895.00    0.00 235240.00     0.00   525.68     0.00    0.00    0.00    0.00   0.00   0.00

avg-cpu:  %user   %nice %system %iowait  %steal   %idle
           0.06    0.00    0.59    2.56    0.00   96.78

Device:         rrqm/s   wrqm/s     r/s     w/s    rkB/s    wkB/s avgrq-sz avgqu-sz   await r_await w_await  svctm  %util
nvme0n1           0.00     0.00    0.00    0.00     0.00     0.00     0.00     0.00    0.00    0.00    0.00   0.00   0.00
sda               0.00     0.00    0.00    0.00     0.00     0.00     0.00     0.00    0.00    0.00    0.00   0.00   0.00
sdc             106.00     0.00  327.00    0.00 56564.00     0.00   345.96     2.41    7.20    7.20    0.00   2.36  77.10
sdb             113.00     0.00  201.00    0.00 59248.00     0.00   589.53     1.86    9.29    9.29    0.00   3.98  79.90
sdd             105.00     0.00  259.00    0.00 58512.00     0.00   451.83     1.62    6.20    6.20    0.00   2.60  67.30
md0               0.00     0.00 1115.00    0.00 251964.00     0.00   451.95     0.00    0.00    0.00    0.00   0.00   0.00

avg-cpu:  %user   %nice %system %iowait  %steal   %idle
           0.13    0.00    0.53    3.10    0.00   96.25

Device:         rrqm/s   wrqm/s     r/s     w/s    rkB/s    wkB/s avgrq-sz avgqu-sz   await r_await w_await  svctm  %util
nvme0n1           0.00     0.00    0.00    0.00     0.00     0.00     0.00     0.00    0.00    0.00    0.00   0.00   0.00
sda               0.00     4.00    0.00   19.00     0.00   108.00    11.37     0.00    0.00    0.00    0.00   0.00   0.00
sdc             104.00     0.00  214.00    0.00 58604.00     0.00   547.70     1.82    8.73    8.73    0.00   3.37  72.10
sdb             104.00     0.00  199.00    0.00 56612.00     0.00   568.96     0.79    3.96    3.96    0.00   2.20  43.80
sdd             103.00     0.00  232.00    0.00 55552.00     0.00   478.90     2.33    9.92    9.92    0.00   3.34  77.60
md0               0.00     0.00  959.00    0.00 272704.00     0.00   568.73     0.00    0.00    0.00    0.00   0.00   0.00

avg-cpu:  %user   %nice %system %iowait  %steal   %idle
           0.03    0.00    0.72    2.94    0.00   96.31

Device:         rrqm/s   wrqm/s     r/s     w/s    rkB/s    wkB/s avgrq-sz avgqu-sz   await r_await w_await  svctm  %util
nvme0n1           0.00     0.00    0.00    0.00     0.00     0.00     0.00     0.00    0.00    0.00    0.00   0.00   0.00
sda               0.00     0.00    0.00    0.00     0.00     0.00     0.00     0.00    0.00    0.00    0.00   0.00   0.00
sdc              95.00     0.00  321.00    0.00 52728.00     0.00   328.52     3.22   10.00   10.00    0.00   2.03  65.20
sdb              86.00     0.00  338.00    0.00 53340.00     0.00   315.62     2.74    8.05    8.05    0.00   2.16  72.90
sdd              90.00     0.00  395.00    0.00 54120.00     0.00   274.03     2.35    5.98    5.98    0.00   1.80  71.20
md0               0.00     0.00 1332.00    0.00 234524.00     0.00   352.14     0.00    0.00    0.00    0.00   0.00   0.00

avg-cpu:  %user   %nice %system %iowait  %steal   %idle
           0.06    0.00    0.53    2.10    0.00   97.31

Device:         rrqm/s   wrqm/s     r/s     w/s    rkB/s    wkB/s avgrq-sz avgqu-sz   await r_await w_await  svctm  %util
nvme0n1           0.00     0.00    0.00    0.00     0.00     0.00     0.00     0.00    0.00    0.00    0.00   0.00   0.00
sda               0.00     3.00    0.00    2.00     0.00    20.00    20.00     0.00    0.00    0.00    0.00   0.00   0.00
sdc             104.00     0.00  249.00    0.00 58060.00     0.00   466.35     2.87   11.41   11.41    0.00   3.51  87.50
sdb              98.00     0.00  303.00    0.00 59284.00     0.00   391.31     2.71    9.02    9.02    0.00   2.55  77.20
sdd             107.00     0.00  307.00    0.00 58280.00     0.00   379.67     2.35    7.69    7.69    0.00   2.23  68.40
md0               0.00     0.00 1164.00    0.00 246236.00     0.00   423.09     0.00    0.00    0.00    0.00   0.00   0.00

avg-cpu:  %user   %nice %system %iowait  %steal   %idle
           0.03    0.00    0.56    2.72    0.00   96.68

Device:         rrqm/s   wrqm/s     r/s     w/s    rkB/s    wkB/s avgrq-sz avgqu-sz   await r_await w_await  svctm  %util
nvme0n1           0.00     0.00    0.00    0.00     0.00     0.00     0.00     0.00    0.00    0.00    0.00   0.00   0.00
sda               0.00     0.00    0.00    0.00     0.00     0.00     0.00     0.00    0.00    0.00    0.00   0.00   0.00
sdc              91.00     0.00  366.00    0.00 55212.00     0.00   301.70     2.25    6.28    6.28    0.00   1.91  69.90
sdb              96.00     0.00  323.00    0.00 54568.00     0.00   337.88     1.75    5.47    5.47    0.00   1.76  56.80
sdd              94.00     0.00  288.00    0.00 53808.00     0.00   373.67     3.23   11.22   11.22    0.00   2.97  85.60
md0               0.00     0.00 1257.00    0.00 232868.00     0.00   370.51     0.00    0.00    0.00    0.00   0.00   0.00

avg-cpu:  %user   %nice %system %iowait  %steal   %idle
           0.06    0.00    0.63    2.69    0.00   96.62

Device:         rrqm/s   wrqm/s     r/s     w/s    rkB/s    wkB/s avgrq-sz avgqu-sz   await r_await w_await  svctm  %util
nvme0n1           0.00     0.00    0.00    0.00     0.00     0.00     0.00     0.00    0.00    0.00    0.00   0.00   0.00
sda               0.00     0.00    0.00    0.00     0.00     0.00     0.00     0.00    0.00    0.00    0.00   0.00   0.00
sdc             111.00     0.00  298.00    0.00 59384.00     0.00   398.55     2.07    6.94    6.94    0.00   2.53  75.30
sdb             106.00     0.00  193.00    0.00 59804.00     0.00   619.73     1.50    7.77    7.77    0.00   3.50  67.60
sdd             103.00     0.00  333.00    0.00 60416.00     0.00   362.86     2.79    8.44    8.44    0.00   2.47  82.10
md0               0.00     0.00 1144.00    0.00 281328.00     0.00   491.83     0.00    0.00    0.00    0.00   0.00   0.00

avg-cpu:  %user   %nice %system %iowait  %steal   %idle
           0.03    0.00    0.59    2.82    0.00   96.56

Device:         rrqm/s   wrqm/s     r/s     w/s    rkB/s    wkB/s avgrq-sz avgqu-sz   await r_await w_await  svctm  %util
nvme0n1           0.00     0.00    0.00    0.00     0.00     0.00     0.00     0.00    0.00    0.00    0.00   0.00   0.00
sda               0.00     0.00    0.00    0.00     0.00     0.00     0.00     0.00    0.00    0.00    0.00   0.00   0.00
sdc              91.00     0.00  290.00    0.00 52372.00     0.00   361.19     3.37   11.59   11.59    0.00   3.14  91.20
sdb              89.00     0.00  303.00    0.00 52984.00     0.00   349.73     1.25    4.11    4.11    0.00   1.73  52.30
sdd              88.00     0.00  311.00    0.00 52016.00     0.00   334.51     1.32    4.19    4.19    0.00   1.49  46.40
md0               0.00     0.00 1174.00    0.00 233616.00     0.00   397.98     0.00    0.00    0.00    0.00   0.00   0.00

avg-cpu:  %user   %nice %system %iowait  %steal   %idle
           0.06    0.00    0.53    2.79    0.00   96.62

Device:         rrqm/s   wrqm/s     r/s     w/s    rkB/s    wkB/s avgrq-sz avgqu-sz   await r_await w_await  svctm  %util
nvme0n1           0.00     0.00    0.00    0.00     0.00     0.00     0.00     0.00    0.00    0.00    0.00   0.00   0.00
sda               0.00     0.00   82.00    0.00   540.00     0.00    13.17     0.02    0.27    0.27    0.00   0.02   0.20
sdc             109.00     0.00  210.00    0.00 59884.00     0.00   570.32     1.55    7.45    7.45    0.00   3.30  69.40
sdb             102.00     0.00  270.00    0.00 59500.00     0.00   440.74     2.56    9.45    9.45    0.00   2.90  78.20
sdd             115.00     0.00  195.00    0.00 60304.00     0.00   618.50     2.56   13.23   13.23    0.00   4.81  93.70
md0               0.00     0.00 1006.00    0.00 280168.00     0.00   556.99     0.00    0.00    0.00    0.00   0.00   0.00

avg-cpu:  %user   %nice %system %iowait  %steal   %idle
           0.09    0.00    0.47    2.25    0.00   97.18

Device:         rrqm/s   wrqm/s     r/s     w/s    rkB/s    wkB/s avgrq-sz avgqu-sz   await r_await w_await  svctm  %util
nvme0n1           0.00     0.00    0.00    0.00     0.00     0.00     0.00     0.00    0.00    0.00    0.00   0.00   0.00
sda               0.00     3.00    0.00    2.00     0.00    20.00    20.00     0.00    0.00    0.00    0.00   0.00   0.00
sdc             108.00     0.00  234.00    0.00 58732.00     0.00   501.98     2.35   10.03   10.03    0.00   3.86  90.40
sdb             101.00     0.00  255.00    0.00 58848.00     0.00   461.55     1.71    6.73    6.73    0.00   2.79  71.10
sdd             112.00     0.00  210.00    0.00 58204.00     0.00   554.32     1.87    8.72    8.72    0.00   3.85  80.90
md0               0.00     0.00 1022.00    0.00 251936.00     0.00   493.03     0.00    0.00    0.00    0.00   0.00   0.00

avg-cpu:  %user   %nice %system %iowait  %steal   %idle
           0.06    0.00    0.63    2.56    0.00   96.75

Device:         rrqm/s   wrqm/s     r/s     w/s    rkB/s    wkB/s avgrq-sz avgqu-sz   await r_await w_await  svctm  %util
nvme0n1           0.00     0.00    0.00    0.00     0.00     0.00     0.00     0.00    0.00    0.00    0.00   0.00   0.00
sda               0.00     0.00    0.00    0.00     0.00     0.00     0.00     0.00    0.00    0.00    0.00   0.00   0.00
sdc             118.00     0.00  233.00    0.00 63140.00     0.00   541.97     1.83    7.87    7.87    0.00   3.27  76.10
sdb             115.00     0.00  259.00    0.00 63320.00     0.00   488.96     1.76    6.80    6.80    0.00   3.01  78.00
sdd             120.00     0.00  260.00    0.00 62720.00     0.00   482.46     2.71   10.45   10.45    0.00   3.67  95.40
md0               0.00     0.00 1106.00    0.00 266876.00     0.00   482.60     0.00    0.00    0.00    0.00   0.00   0.00

avg-cpu:  %user   %nice %system %iowait  %steal   %idle
           0.03    0.00    0.50    2.60    0.00   96.87

Device:         rrqm/s   wrqm/s     r/s     w/s    rkB/s    wkB/s avgrq-sz avgqu-sz   await r_await w_await  svctm  %util
nvme0n1           0.00     0.00    0.00    0.00     0.00     0.00     0.00     0.00    0.00    0.00    0.00   0.00   0.00
sda               0.00     0.00    0.00    0.00     0.00     0.00     0.00     0.00    0.00    0.00    0.00   0.00   0.00
sdc             102.00     0.00  260.00    0.00 56628.00     0.00   435.60     2.38    9.12    9.12    0.00   3.30  85.70
sdb             103.00     0.00  279.00    0.00 56672.00     0.00   406.25     2.09    7.48    7.48    0.00   2.73  76.30
sdd             103.00     0.00  232.00    0.00 56544.00     0.00   487.45     1.65    6.94    6.94    0.00   2.90  67.20
md0               0.00     0.00 1082.00    0.00 246292.00     0.00   455.25     0.00    0.00    0.00    0.00   0.00   0.00

