Linux 4.17.2 (bench2) 	08/03/2018 	_x86_64_	(32 CPU)

avg-cpu:  %user   %nice %system %iowait  %steal   %idle
           1.90    0.00    1.55    1.59    0.00   94.96

Device:         rrqm/s   wrqm/s     r/s     w/s    rkB/s    wkB/s avgrq-sz avgqu-sz   await r_await w_await  svctm  %util
nvme0n1         934.51     5.08 18839.33  518.70 105379.34 11698.35    12.10     1.34    0.05    0.03    0.67   0.02  39.44
sda               0.12     0.82   14.17    0.58   164.01     8.53    23.40     0.00    0.33    0.32    0.44   0.07   0.10
sdc              34.25     0.17  120.69    0.31  1816.21    97.11    31.63     0.08    0.65   12.34  380.35   0.91  10.98
sdb              32.22     0.19  122.68    0.33  1814.25    96.93    31.07     0.51    4.15    3.05  411.64   0.85  10.44
sdd              34.45     0.17  120.23    0.26  1812.23    96.61    31.68     0.82    6.84    4.89  907.87   0.91  10.98
md0               0.00     0.00  467.35    1.21  6747.69   350.46    30.30     0.00    0.00    0.00    0.00   0.00   0.00

avg-cpu:  %user   %nice %system %iowait  %steal   %idle
           0.03    0.00    0.03    0.06    0.00   99.87

Device:         rrqm/s   wrqm/s     r/s     w/s    rkB/s    wkB/s avgrq-sz avgqu-sz   await r_await w_await  svctm  %util
nvme0n1           0.00     0.00    0.00    0.00     0.00     0.00     0.00     0.00    0.00    0.00    0.00   0.00   0.00
sda               0.00     0.00    4.00    0.00   104.00     0.00    52.00     0.00    0.50    0.50    0.00   0.50   0.20
sdc              16.00     0.00  373.00    0.00  1552.00     0.00     8.32    14.13   36.27   36.27    0.00   2.19  81.60
sdb              11.00     0.00  355.00    0.00  1452.00     0.00     8.18    14.41   39.05   39.05    0.00   2.46  87.50
sdd               3.00     0.00  331.00    0.00  1336.00     0.00     8.07    12.60   37.27   37.27    0.00   2.40  79.30
md0               0.00     0.00 1143.00    0.00  4572.00     0.00     8.00     0.00    0.00    0.00    0.00   0.00   0.00

avg-cpu:  %user   %nice %system %iowait  %steal   %idle
           0.00    0.00    0.03    0.06    0.00   99.91

Device:         rrqm/s   wrqm/s     r/s     w/s    rkB/s    wkB/s avgrq-sz avgqu-sz   await r_await w_await  svctm  %util
nvme0n1           0.00     0.00    0.00    0.00     0.00     0.00     0.00     0.00    0.00    0.00    0.00   0.00   0.00
sda               0.00     0.00    0.00    0.00     0.00     0.00     0.00     0.00    0.00    0.00    0.00   0.00   0.00
sdc               8.00     0.00  399.00    0.00  1632.00     0.00     8.18    13.39   34.04   34.04    0.00   2.02  80.60
sdb              11.00     0.00  386.00    0.00  1600.00     0.00     8.29    13.81   36.75   36.75    0.00   2.33  89.80
sdd               6.00     0.00  374.00    0.00  1520.00     0.00     8.13    13.59   35.79   35.79    0.00   2.34  87.70
md0               0.00     0.00 1148.00    0.00  4592.00     0.00     8.00     0.00    0.00    0.00    0.00   0.00   0.00

avg-cpu:  %user   %nice %system %iowait  %steal   %idle
           0.00    0.00    0.03    0.00    0.00   99.97

Device:         rrqm/s   wrqm/s     r/s     w/s    rkB/s    wkB/s avgrq-sz avgqu-sz   await r_await w_await  svctm  %util
nvme0n1           0.00     0.00    0.00    0.00     0.00     0.00     0.00     0.00    0.00    0.00    0.00   0.00   0.00
sda               0.00     0.00    0.00    0.00     0.00     0.00     0.00     0.00    0.00    0.00    0.00   0.00   0.00
sdc               9.00     0.00  338.00    0.00  1372.00     0.00     8.12    13.67   40.19   40.19    0.00   2.53  85.50
sdb              10.00     0.00  346.00    0.00  1424.00     0.00     8.23    13.20   37.76   37.76    0.00   2.24  77.60
sdd               6.00     0.00  301.00    0.00  1228.00     0.00     8.16    12.71   41.43   41.43    0.00   2.75  82.90
md0               0.00     0.00 1050.00    0.00  4200.00     0.00     8.00     0.00    0.00    0.00    0.00   0.00   0.00

avg-cpu:  %user   %nice %system %iowait  %steal   %idle
           0.00    0.00    0.03    0.03    0.00   99.94

Device:         rrqm/s   wrqm/s     r/s     w/s    rkB/s    wkB/s avgrq-sz avgqu-sz   await r_await w_await  svctm  %util
nvme0n1           0.00     0.00    0.00    0.00     0.00     0.00     0.00     0.00    0.00    0.00    0.00   0.00   0.00
sda               0.00     0.00    0.00    0.00     0.00     0.00     0.00     0.00    0.00    0.00    0.00   0.00   0.00
sdc              12.00     0.00  354.00    0.00  1480.00     0.00     8.36    13.06   36.88   36.88    0.00   2.49  88.30
sdb              13.00     0.00  341.00    0.00  1416.00     0.00     8.30    11.84   33.92   33.92    0.00   2.25  76.70
sdd               3.00     0.00  346.00    0.00  1396.00     0.00     8.07    12.58   36.10   36.10    0.00   2.44  84.50
md0               0.00     0.00 1056.00    0.00  4224.00     0.00     8.00     0.00    0.00    0.00    0.00   0.00   0.00

avg-cpu:  %user   %nice %system %iowait  %steal   %idle
           0.00    0.00    0.00    0.03    0.00   99.97

Device:         rrqm/s   wrqm/s     r/s     w/s    rkB/s    wkB/s avgrq-sz avgqu-sz   await r_await w_await  svctm  %util
nvme0n1           0.00     0.00    0.00    0.00     0.00     0.00     0.00     0.00    0.00    0.00    0.00   0.00   0.00
sda               0.00     9.00    0.00    3.00     0.00    48.00    32.00     0.00    0.33    0.00    0.33   0.33   0.10
sdc               5.00     0.00  298.00    0.00  1212.00     0.00     8.13    12.50   40.86   40.86    0.00   2.56  76.20
sdb              11.00     0.00  333.00    0.00  1376.00     0.00     8.26    14.65   44.69   44.69    0.00   2.74  91.10
sdd               0.00     0.00  332.00    0.00  1328.00     0.00     8.00    11.20   36.13   36.13    0.00   2.22  73.60
md0               0.00     0.00  954.00    0.00  3816.00     0.00     8.00     0.00    0.00    0.00    0.00   0.00   0.00

avg-cpu:  %user   %nice %system %iowait  %steal   %idle
           0.00    0.00    0.03    0.00    0.00  100.00

Device:         rrqm/s   wrqm/s     r/s     w/s    rkB/s    wkB/s avgrq-sz avgqu-sz   await r_await w_await  svctm  %util
nvme0n1           0.00     0.00    0.00    0.00     0.00     0.00     0.00     0.00    0.00    0.00    0.00   0.00   0.00
sda               0.00     0.00    0.00    0.00     0.00     0.00     0.00     0.00    0.00    0.00    0.00   0.00   0.00
sdc              24.00     0.00  361.00    0.00  1540.00     0.00     8.53    14.86   42.74   42.74    0.00   2.48  89.60
sdb               4.00     0.00  336.00    0.00  1360.00     0.00     8.10    11.59   34.47   34.47    0.00   2.33  78.40
sdd              14.00     0.00  352.00    0.00  1448.00     0.00     8.23    13.60   37.38   37.38    0.00   2.37  83.50
md0               0.00     0.00 1153.00    0.00  4612.00     0.00     8.00     0.00    0.00    0.00    0.00   0.00   0.00

avg-cpu:  %user   %nice %system %iowait  %steal   %idle
           0.03    0.00    0.03    0.31    0.00   99.62

Device:         rrqm/s   wrqm/s     r/s     w/s    rkB/s    wkB/s avgrq-sz avgqu-sz   await r_await w_await  svctm  %util
nvme0n1           0.00     0.00    0.00    0.00     0.00     0.00     0.00     0.00    0.00    0.00    0.00   0.00   0.00
sda               0.00     0.00   73.00    0.00   504.00     0.00    13.81     0.02    0.23    0.23    0.00   0.04   0.30
sdc               1.00     0.00  298.00    0.00  1196.00     0.00     8.03    12.97   44.38   44.38    0.00   2.84  84.70
sdb              17.00     0.00  378.00    0.00  1580.00     0.00     8.36    14.15   37.43   37.43    0.00   2.16  81.50
sdd               3.00     0.00  341.00    0.00  1392.00     0.00     8.16    15.07   44.20   44.20    0.00   2.52  85.80
md0               0.00     0.00  967.00    0.00  3868.00     0.00     8.00     0.00    0.00    0.00    0.00   0.00   0.00

avg-cpu:  %user   %nice %system %iowait  %steal   %idle
           0.00    0.00    0.03    0.00    0.00  100.09

Device:         rrqm/s   wrqm/s     r/s     w/s    rkB/s    wkB/s avgrq-sz avgqu-sz   await r_await w_await  svctm  %util
nvme0n1           0.00     0.00    0.00    0.00     0.00     0.00     0.00     0.00    0.00    0.00    0.00   0.00   0.00
sda               0.00     0.00    0.00    0.00     0.00     0.00     0.00     0.00    0.00    0.00    0.00   0.00   0.00
sdc               3.00     0.00  325.00    0.00  1312.00     0.00     8.07    11.72   36.06   36.06    0.00   2.46  79.80
sdb               4.00     0.00  331.00    0.00  1340.00     0.00     8.10    13.21   40.60   40.60    0.00   2.49  82.30
sdd              10.00     0.00  379.00    0.00  1556.00     0.00     8.21    15.36   41.52   41.52    0.00   2.44  92.50
md0               0.00     0.00 1044.00    0.00  4176.00     0.00     8.00     0.00    0.00    0.00    0.00   0.00   0.00

avg-cpu:  %user   %nice %system %iowait  %steal   %idle
           0.03    0.00    0.03    0.00    0.00   99.97

Device:         rrqm/s   wrqm/s     r/s     w/s    rkB/s    wkB/s avgrq-sz avgqu-sz   await r_await w_await  svctm  %util
nvme0n1           0.00     0.00    0.00    0.00     0.00     0.00     0.00     0.00    0.00    0.00    0.00   0.00   0.00
sda               0.00     0.00    0.00    0.00     0.00     0.00     0.00     0.00    0.00    0.00    0.00   0.00   0.00
sdc              20.00     0.00  366.00    0.00  1544.00     0.00     8.44    13.98   38.00   38.00    0.00   2.20  80.50
sdb               5.00     0.00  354.00    0.00  1424.00     0.00     8.05    13.84   39.26   39.26    0.00   2.37  84.00
sdd               3.00     0.00  325.00    0.00  1312.00     0.00     8.07    13.47   41.46   41.46    0.00   2.70  87.70
md0               0.00     0.00 1160.00    0.00  4640.00     0.00     8.00     0.00    0.00    0.00    0.00   0.00   0.00

avg-cpu:  %user   %nice %system %iowait  %steal   %idle
           0.00    0.00    0.03    0.03    0.00   99.94

Device:         rrqm/s   wrqm/s     r/s     w/s    rkB/s    wkB/s avgrq-sz avgqu-sz   await r_await w_await  svctm  %util
nvme0n1           0.00     0.00    0.00    0.00     0.00     0.00     0.00     0.00    0.00    0.00    0.00   0.00   0.00
sda               0.00     8.00    0.00    3.00     0.00    60.00    40.00     0.00    0.00    0.00    0.00   0.00   0.00
sdc               2.00     0.00  378.00    0.00  1512.00     0.00     8.00    13.31   34.68   34.68    0.00   2.17  82.20
sdb              12.00     0.00  416.00    0.00  1724.00     0.00     8.29    16.73   39.78   39.78    0.00   2.24  93.10
sdd               6.00     0.00  343.00    0.00  1396.00     0.00     8.14    12.74   36.56   36.56    0.00   2.47  84.60
md0               0.00     0.00 1158.00    0.00  4632.00     0.00     8.00     0.00    0.00    0.00    0.00   0.00   0.00

avg-cpu:  %user   %nice %system %iowait  %steal   %idle
           0.00    0.00    0.03    0.00    0.00   99.97

Device:         rrqm/s   wrqm/s     r/s     w/s    rkB/s    wkB/s avgrq-sz avgqu-sz   await r_await w_await  svctm  %util
nvme0n1           0.00     0.00    0.00    0.00     0.00     0.00     0.00     0.00    0.00    0.00    0.00   0.00   0.00
sda               0.00     0.00    0.00    0.00     0.00     0.00     0.00     0.00    0.00    0.00    0.00   0.00   0.00
sdc               5.00     0.00  346.00    0.00  1412.00     0.00     8.16    12.60   36.06   36.06    0.00   2.51  86.90
sdb               7.00     0.00  369.00    0.00  1492.00     0.00     8.09    13.22   35.46   35.46    0.00   2.28  84.20
sdd              12.00     0.00  394.00    0.00  1624.00     0.00     8.24    14.95   38.60   38.60    0.00   2.12  83.60
md0               0.00     0.00 1054.00    0.00  4216.00     0.00     8.00     0.00    0.00    0.00    0.00   0.00   0.00

avg-cpu:  %user   %nice %system %iowait  %steal   %idle
           0.03    0.00    0.00    0.09    0.00   99.87

Device:         rrqm/s   wrqm/s     r/s     w/s    rkB/s    wkB/s avgrq-sz avgqu-sz   await r_await w_await  svctm  %util
nvme0n1           0.00     0.00    0.00    0.00     0.00     0.00     0.00     0.00    0.00    0.00    0.00   0.00   0.00
sda               0.00     0.00    0.00    0.00     0.00     0.00     0.00     0.00    0.00    0.00    0.00   0.00   0.00
sdc               3.00     0.00  323.00    0.00  1304.00     0.00     8.07    12.80   37.89   37.89    0.00   2.54  81.90
sdb              26.00     0.00  387.00    0.00  1664.00     0.00     8.60    15.10   37.72   37.72    0.00   2.21  85.60
sdd              17.00     0.00  378.00    0.00  1580.00     0.00     8.36    15.61   40.39   40.39    0.00   2.47  93.20
md0               0.00     0.00 1161.00    0.00  4644.00     0.00     8.00     0.00    0.00    0.00    0.00   0.00   0.00

avg-cpu:  %user   %nice %system %iowait  %steal   %idle
           0.00    0.00    0.03    0.00    0.00  100.06

Device:         rrqm/s   wrqm/s     r/s     w/s    rkB/s    wkB/s avgrq-sz avgqu-sz   await r_await w_await  svctm  %util
nvme0n1           0.00     0.00    0.00    0.00     0.00     0.00     0.00     0.00    0.00    0.00    0.00   0.00   0.00
sda               0.00     0.00    0.00    0.00     0.00     0.00     0.00     0.00    0.00    0.00    0.00   0.00   0.00
sdc               8.00     0.00  360.00    0.00  1472.00     0.00     8.18    13.57   38.47   38.47    0.00   2.36  84.90
sdb              10.00     0.00  366.00    0.00  1488.00     0.00     8.13    13.95   38.21   38.21    0.00   2.25  82.30
sdd              28.00     0.00  355.00    0.00  1532.00     0.00     8.63    14.04   39.37   39.37    0.00   2.31  81.90
md0               0.00     0.00 1151.00    0.00  4604.00     0.00     8.00     0.00    0.00    0.00    0.00   0.00   0.00

avg-cpu:  %user   %nice %system %iowait  %steal   %idle
           0.00    0.00    0.03    0.00    0.00   99.97

Device:         rrqm/s   wrqm/s     r/s     w/s    rkB/s    wkB/s avgrq-sz avgqu-sz   await r_await w_await  svctm  %util
nvme0n1           0.00     0.00    0.00    0.00     0.00     0.00     0.00     0.00    0.00    0.00    0.00   0.00   0.00
sda               0.00     0.00    0.00    0.00     0.00     0.00     0.00     0.00    0.00    0.00    0.00   0.00   0.00
sdc               2.00     0.00  323.00    0.00  1296.00     0.00     8.02    13.61   41.89   41.89    0.00   2.77  89.50
sdb               4.00     0.00  353.00    0.00  1444.00     0.00     8.18    13.32   39.03   39.03    0.00   2.39  84.20
sdd              19.00     0.00  363.00    0.00  1520.00     0.00     8.37    13.81   37.79   37.79    0.00   2.30  83.60
md0               0.00     0.00 1062.00    0.00  4248.00     0.00     8.00     0.00    0.00    0.00    0.00   0.00   0.00

avg-cpu:  %user   %nice %system %iowait  %steal   %idle
           0.00    0.00    0.00    0.09    0.00   99.91

Device:         rrqm/s   wrqm/s     r/s     w/s    rkB/s    wkB/s avgrq-sz avgqu-sz   await r_await w_await  svctm  %util
nvme0n1           0.00     0.00    0.00    0.00     0.00     0.00     0.00     0.00    0.00    0.00    0.00   0.00   0.00
sda               0.00     4.00    0.00    2.00     0.00    24.00    24.00     0.00    0.00    0.00    0.00   0.00   0.00
sdc               3.00     0.00  286.00    0.00  1160.00     0.00     8.11    14.94   53.22   53.22    0.00   3.22  92.00
sdb               1.00     0.00  271.00    0.00  1088.00     0.00     8.03    10.31   37.65   37.65    0.00   2.45  66.50
sdd               5.00     0.00  323.00    0.00  1320.00     0.00     8.17    12.76   39.68   39.68    0.00   2.24  72.40
md0               0.00     0.00  861.00    0.00  3444.00     0.00     8.00     0.00    0.00    0.00    0.00   0.00   0.00

avg-cpu:  %user   %nice %system %iowait  %steal   %idle
           0.00    0.00    0.03    0.06    0.00   99.91

Device:         rrqm/s   wrqm/s     r/s     w/s    rkB/s    wkB/s avgrq-sz avgqu-sz   await r_await w_await  svctm  %util
nvme0n1           0.00     0.00    0.00    0.00     0.00     0.00     0.00     0.00    0.00    0.00    0.00   0.00   0.00
sda               0.00     0.00    0.00    0.00     0.00     0.00     0.00     0.00    0.00    0.00    0.00   0.00   0.00
sdc              17.00     0.00  354.00    0.00  1484.00     0.00     8.38    12.87   37.69   37.69    0.00   2.23  79.00
sdb               9.00     0.00  340.00    0.00  1396.00     0.00     8.21    13.21   40.16   40.16    0.00   2.63  89.50
sdd              16.00     0.00  348.00    0.00  1444.00     0.00     8.30    13.00   36.33   36.33    0.00   2.33  81.20
md0               0.00     0.00 1064.00    0.00  4256.00     0.00     8.00     0.00    0.00    0.00    0.00   0.00   0.00

avg-cpu:  %user   %nice %system %iowait  %steal   %idle
           0.03    0.00    0.03    0.06    0.00   99.88

Device:         rrqm/s   wrqm/s     r/s     w/s    rkB/s    wkB/s avgrq-sz avgqu-sz   await r_await w_await  svctm  %util
nvme0n1           0.00     0.00    0.00    0.00     0.00     0.00     0.00     0.00    0.00    0.00    0.00   0.00   0.00
sda               0.00     0.00    0.00    0.00     0.00     0.00     0.00     0.00    0.00    0.00    0.00   0.00   0.00
sdc               3.00     0.00  324.00    0.00  1308.00     0.00     8.07    10.80   32.32   32.32    0.00   2.18  70.50
sdb               1.00     0.00  292.00    0.00  1172.00     0.00     8.03    10.77   35.28   35.28    0.00   2.60  75.90
sdd              23.00     0.00  377.00    0.00  1608.00     0.00     8.53    17.86   47.75   47.75    0.00   2.54  95.80
md0               0.00     0.00 1044.00    0.00  4176.00     0.00     8.00     0.00    0.00    0.00    0.00   0.00   0.00

avg-cpu:  %user   %nice %system %iowait  %steal   %idle
           0.00    0.00    0.00    0.00    0.00  100.03

Device:         rrqm/s   wrqm/s     r/s     w/s    rkB/s    wkB/s avgrq-sz avgqu-sz   await r_await w_await  svctm  %util
nvme0n1           0.00     0.00    0.00    0.00     0.00     0.00     0.00     0.00    0.00    0.00    0.00   0.00   0.00
sda               0.00     0.00    0.00    0.00     0.00     0.00     0.00     0.00    0.00    0.00    0.00   0.00   0.00
sdc              18.00     0.00  396.00    0.00  1656.00     0.00     8.36    15.08   37.39   37.39    0.00   2.20  87.30
sdb               2.00     0.00  322.00    0.00  1292.00     0.00     8.02    12.62   38.92   38.92    0.00   2.66  85.60
sdd              16.00     0.00  353.00    0.00  1480.00     0.00     8.39    13.98   40.48   40.48    0.00   2.61  92.30
md0               0.00     0.00 1138.00    0.00  4552.00     0.00     8.00     0.00    0.00    0.00    0.00   0.00   0.00

avg-cpu:  %user   %nice %system %iowait  %steal   %idle
           0.00    0.00    0.03    0.00    0.00   99.97

Device:         rrqm/s   wrqm/s     r/s     w/s    rkB/s    wkB/s avgrq-sz avgqu-sz   await r_await w_await  svctm  %util
nvme0n1           0.00     0.00    0.00    0.00     0.00     0.00     0.00     0.00    0.00    0.00    0.00   0.00   0.00
sda               0.00     0.00    0.00    0.00     0.00     0.00     0.00     0.00    0.00    0.00    0.00   0.00   0.00
sdc              12.00     0.00  365.00    0.00  1508.00     0.00     8.26    15.26   42.70   42.70    0.00   2.53  92.20
sdb               2.00     0.00  323.00    0.00  1304.00     0.00     8.07    12.00   38.33   38.33    0.00   2.35  75.90
sdd               6.00     0.00  321.00    0.00  1304.00     0.00     8.12    12.90   39.99   39.99    0.00   2.52  80.80
md0               0.00     0.00 1053.00    0.00  4212.00     0.00     8.00     0.00    0.00    0.00    0.00   0.00   0.00

avg-cpu:  %user   %nice %system %iowait  %steal   %idle
           0.00    0.00    0.03    0.13    0.00   99.84

Device:         rrqm/s   wrqm/s     r/s     w/s    rkB/s    wkB/s avgrq-sz avgqu-sz   await r_await w_await  svctm  %util
nvme0n1           0.00     0.00    0.00    0.00     0.00     0.00     0.00     0.00    0.00    0.00    0.00   0.00   0.00
sda               0.00     1.00    0.00    2.00     0.00    12.00    12.00     0.00    0.00    0.00    0.00   0.00   0.00
sdc               4.00     0.00  310.00    0.00  1252.00     0.00     8.08    11.66   36.73   36.73    0.00   2.55  79.10
sdb               3.00     0.00  335.00    0.00  1352.00     0.00     8.07    14.45   43.49   43.49    0.00   2.71  90.80
sdd               5.00     0.00  363.00    0.00  1476.00     0.00     8.13    16.53   45.51   45.51    0.00   2.56  93.00
md0               0.00     0.00  946.00    0.00  3784.00     0.00     8.00     0.00    0.00    0.00    0.00   0.00   0.00

