Linux 4.17.2 (bench2) 	08/03/2018 	_x86_64_	(32 CPU)

avg-cpu:  %user   %nice %system %iowait  %steal   %idle
           1.90    0.00    1.55    1.59    0.00   94.96

Device:         rrqm/s   wrqm/s     r/s     w/s    rkB/s    wkB/s avgrq-sz avgqu-sz   await r_await w_await  svctm  %util
nvme0n1         934.60     5.08 18841.17  518.76 105389.64 11699.49    12.10     1.34    0.05    0.03    0.67   0.02  39.44
sda               0.12     0.82   14.17    0.58   164.01     8.53    23.40     0.00    0.33    0.32    0.44   0.07   0.10
sdc              34.25     0.17  120.68    0.31  1816.24    97.12    31.63     0.08    0.65   12.34  380.35   0.91  10.98
sdb              32.22     0.19  122.67    0.33  1814.28    96.94    31.08     0.51    4.14    3.04  411.64   0.85  10.43
sdd              34.45     0.17  120.22    0.26  1812.26    96.62    31.69     0.82    6.84    4.89  907.87   0.91  10.98
md0               0.00     0.00  467.33    1.21  6747.88   350.50    30.30     0.00    0.00    0.00    0.00   0.00   0.00

avg-cpu:  %user   %nice %system %iowait  %steal   %idle
           0.00    0.00    0.03   17.30    0.00   82.67

Device:         rrqm/s   wrqm/s     r/s     w/s    rkB/s    wkB/s avgrq-sz avgqu-sz   await r_await w_await  svctm  %util
nvme0n1           0.00     0.00    0.00    0.00     0.00     0.00     0.00     0.00    0.00    0.00    0.00   0.00   0.00
sda               0.00     0.00    1.00    0.00     8.00     0.00    16.00     0.00    0.00    0.00    0.00   0.00   0.00
sdc               0.00     0.00  130.00    0.00   532.00     0.00     8.18     1.61   12.35   12.35    0.00   5.05  65.70
sdb               0.00     0.00  155.00    0.00   692.00     0.00     8.93     1.65   10.62   10.62    0.00   4.50  69.70
sdd               0.00     0.00  155.00    0.00   644.00     0.00     8.31     3.24   20.19   20.19    0.00   5.81  90.10
md0               0.00     0.00  446.00    0.00  1880.00     0.00     8.43     0.00    0.00    0.00    0.00   0.00   0.00

avg-cpu:  %user   %nice %system %iowait  %steal   %idle
           0.00    0.00    0.13   17.97    0.00   81.90

Device:         rrqm/s   wrqm/s     r/s     w/s    rkB/s    wkB/s avgrq-sz avgqu-sz   await r_await w_await  svctm  %util
nvme0n1           0.00     0.00    0.00    0.00     0.00     0.00     0.00     0.00    0.00    0.00    0.00   0.00   0.00
sda               0.00     0.00    0.00    0.00     0.00     0.00     0.00     0.00    0.00    0.00    0.00   0.00   0.00
sdc               0.00     0.00  165.00    0.00   696.00     0.00     8.44     1.31    7.90    7.90    0.00   4.25  70.10
sdb               0.00     0.00  190.00    0.00   828.00     0.00     8.72     2.55   13.41   13.41    0.00   4.35  82.60
sdd               0.00     0.00  170.00    0.00   776.00     0.00     9.13     2.73   16.56   16.56    0.00   5.17  87.90
md0               0.00     0.00  526.00    0.00  2316.00     0.00     8.81     0.00    0.00    0.00    0.00   0.00   0.00

