Linux 4.17.2 (bench2) 	08/03/2018 	_x86_64_	(32 CPU)

avg-cpu:  %user   %nice %system %iowait  %steal   %idle
           1.91    0.00    1.56    1.56    0.00   94.97

Device:         rrqm/s   wrqm/s     r/s     w/s    rkB/s    wkB/s avgrq-sz avgqu-sz   await r_await w_await  svctm  %util
nvme0n1         942.01     5.12 18990.60  522.87 106225.51 11792.28    12.10     1.35    0.05    0.03    0.67   0.02  39.75
sda               0.12     0.81   14.15    0.58   163.95     8.52    23.42     0.00    0.33    0.32    0.44   0.07   0.10
sdc              33.77     0.18  115.43    0.31  1743.68    97.89    31.82     0.03    0.29   12.60  380.35   0.92  10.65
sdb              31.72     0.19  117.44    0.33  1741.77    97.71    31.24     0.47    3.98    2.83  411.64   0.86  10.13
sdd              33.97     0.17  114.97    0.26  1739.68    97.38    31.88     0.79    6.81    4.76  907.87   0.92  10.66
md0               0.00     0.00  450.15    1.22  6467.86   353.28    30.22     0.00    0.00    0.00    0.00   0.00   0.00

avg-cpu:  %user   %nice %system %iowait  %steal   %idle
           0.03    0.00    0.44    4.35    0.00   95.18

Device:         rrqm/s   wrqm/s     r/s     w/s    rkB/s    wkB/s avgrq-sz avgqu-sz   await r_await w_await  svctm  %util
nvme0n1           0.00     0.00    0.00    0.00     0.00     0.00     0.00     0.00    0.00    0.00    0.00   0.00   0.00
sda               0.00     0.00   20.00    0.00   108.00     0.00    10.80     0.02    0.95    0.95    0.00   0.05   0.10
sdc               0.00     0.00  726.00    0.00  2928.00     0.00     8.07     1.70    2.31    2.31    0.00   0.34  24.90
sdb               0.00     0.00  708.00    0.00  2832.00     0.00     8.00     1.74    2.43    2.43    0.00   0.41  29.10
sdd               0.00     0.00  776.00    0.00  3112.00     0.00     8.02     3.39    4.35    4.35    0.00   1.02  79.10
md0               0.00     0.00 2227.00    0.00  8920.00     0.00     8.01     0.00    0.00    0.00    0.00   0.00   0.00

avg-cpu:  %user   %nice %system %iowait  %steal   %idle
           0.00    0.00    0.28    4.51    0.00   95.21

Device:         rrqm/s   wrqm/s     r/s     w/s    rkB/s    wkB/s avgrq-sz avgqu-sz   await r_await w_await  svctm  %util
nvme0n1           0.00     0.00    0.00    0.00     0.00     0.00     0.00     0.00    0.00    0.00    0.00   0.00   0.00
sda               0.00     0.00    0.00    0.00     0.00     0.00     0.00     0.00    0.00    0.00    0.00   0.00   0.00
sdc               0.00     0.00  493.00    0.00  1972.00     0.00     8.00     0.82    1.67    1.67    0.00   0.43  21.20
sdb               6.00     0.00  658.00    0.00  2668.00     0.00     8.11     2.00    3.05    3.05    0.00   0.60  39.70
sdd               4.00     0.00  786.00    0.00  3164.00     0.00     8.05     3.33    4.25    4.25    0.00   0.88  69.00
md0               0.00     0.00 1951.00    0.00  7804.00     0.00     8.00     0.00    0.00    0.00    0.00   0.00   0.00

avg-cpu:  %user   %nice %system %iowait  %steal   %idle
           0.03    0.00    0.28    4.44    0.00   95.24

Device:         rrqm/s   wrqm/s     r/s     w/s    rkB/s    wkB/s avgrq-sz avgqu-sz   await r_await w_await  svctm  %util
nvme0n1           0.00     0.00    0.00    0.00     0.00     0.00     0.00     0.00    0.00    0.00    0.00   0.00   0.00
sda               0.00     0.00    0.00    0.00     0.00     0.00     0.00     0.00    0.00    0.00    0.00   0.00   0.00
sdc               0.00     0.00  368.00    0.00  1472.00     0.00     8.00     1.02    2.76    2.76    0.00   0.59  21.80
sdb               0.00     0.00  721.00    0.00  2888.00     0.00     8.01     3.52    4.88    4.88    0.00   0.98  71.00
sdd               0.00     0.00  459.00    0.00  1836.00     0.00     8.00     2.30    4.98    4.98    0.00   0.90  41.40
md0               0.00     0.00 1544.00    0.00  6176.00     0.00     8.00     0.00    0.00    0.00    0.00   0.00   0.00

avg-cpu:  %user   %nice %system %iowait  %steal   %idle
           0.03    0.00    0.47    3.82    0.00   95.68

Device:         rrqm/s   wrqm/s     r/s     w/s    rkB/s    wkB/s avgrq-sz avgqu-sz   await r_await w_await  svctm  %util
nvme0n1           0.00     0.00    0.00    0.00     0.00     0.00     0.00     0.00    0.00    0.00    0.00   0.00   0.00
sda               0.00     0.00    0.00    0.00     0.00     0.00     0.00     0.00    0.00    0.00    0.00   0.00   0.00
sdc               0.00     0.00  706.00    0.00  2824.00     0.00     8.00     2.63    3.63    3.63    0.00   0.76  54.00
sdb               0.00     0.00  742.00    0.00  2968.00     0.00     8.00     1.70    2.29    2.29    0.00   0.44  32.70
sdd               0.00     0.00  788.00    0.00  3152.00     0.00     8.00     2.42    3.08    3.08    0.00   0.61  47.80
md0               0.00     0.00 2236.00    0.00  8944.00     0.00     8.00     0.00    0.00    0.00    0.00   0.00   0.00

avg-cpu:  %user   %nice %system %iowait  %steal   %idle
           0.06    0.00    0.78    4.19    0.00   94.96

Device:         rrqm/s   wrqm/s     r/s     w/s    rkB/s    wkB/s avgrq-sz avgqu-sz   await r_await w_await  svctm  %util
nvme0n1           0.00     0.00    0.00    0.00     0.00     0.00     0.00     0.00    0.00    0.00    0.00   0.00   0.00
sda               0.00     0.00    0.00    0.00     0.00     0.00     0.00     0.00    0.00    0.00    0.00   0.00   0.00
sdc               0.00     0.00 1193.00    0.00  4772.00     0.00     8.00     3.13    2.68    2.68    0.00   0.44  52.80
sdb               0.00     0.00  983.00    0.00  3932.00     0.00     8.00     2.88    2.93    2.93    0.00   0.51  49.70
sdd               0.00     0.00 1169.00    0.00  4676.00     0.00     8.00     2.36    1.99    1.99    0.00   0.34  39.30
md0               0.00     0.00 3337.00    0.00 13348.00     0.00     8.00     0.00    0.00    0.00    0.00   0.00   0.00

avg-cpu:  %user   %nice %system %iowait  %steal   %idle
           0.06    0.00    0.97    4.94    0.00   94.02

Device:         rrqm/s   wrqm/s     r/s     w/s    rkB/s    wkB/s avgrq-sz avgqu-sz   await r_await w_await  svctm  %util
nvme0n1           0.00     0.00    0.00    0.00     0.00     0.00     0.00     0.00    0.00    0.00    0.00   0.00   0.00
sda               0.00    16.00    0.00    2.00     0.00    72.00    72.00     0.00    0.00    0.00    0.00   0.00   0.00
sdc               0.00     0.00 1163.00    0.00  4652.00     0.00     8.00     2.92    2.51    2.51    0.00   0.43  49.70
sdb               0.00     0.00 1272.00    0.00  5088.00     0.00     8.00     3.28    2.54    2.54    0.00   0.42  53.10
sdd               0.00     0.00 1240.00    0.00  4960.00     0.00     8.00     3.44    2.78    2.78    0.00   0.41  50.80
md0               0.00     0.00 3678.00    0.00 14712.00     0.00     8.00     0.00    0.00    0.00    0.00   0.00   0.00

avg-cpu:  %user   %nice %system %iowait  %steal   %idle
           0.03    0.00    0.56    3.64    0.00   95.77

Device:         rrqm/s   wrqm/s     r/s     w/s    rkB/s    wkB/s avgrq-sz avgqu-sz   await r_await w_await  svctm  %util
nvme0n1           0.00     0.00    0.00    0.00     0.00     0.00     0.00     0.00    0.00    0.00    0.00   0.00   0.00
sda               0.00     0.00    0.00    0.00     0.00     0.00     0.00     0.00    0.00    0.00    0.00   0.00   0.00
sdc               0.00     0.00 1019.00    0.00  4076.00     0.00     8.00     2.17    2.12    2.12    0.00   0.38  38.40
sdb               0.00     0.00 1068.00    0.00  4272.00     0.00     8.00     2.91    2.75    2.75    0.00   0.45  47.60
sdd               0.00     0.00 1095.00    0.00  4380.00     0.00     8.00     4.05    3.68    3.68    0.00   0.55  60.70
md0               0.00     0.00 3190.00    0.00 12760.00     0.00     8.00     0.00    0.00    0.00    0.00   0.00   0.00

avg-cpu:  %user   %nice %system %iowait  %steal   %idle
           0.03    0.00    0.57    4.49    0.00   94.91

Device:         rrqm/s   wrqm/s     r/s     w/s    rkB/s    wkB/s avgrq-sz avgqu-sz   await r_await w_await  svctm  %util
nvme0n1           0.00     0.00    0.00    0.00     0.00     0.00     0.00     0.00    0.00    0.00    0.00   0.00   0.00
sda               0.00     0.00    0.00    0.00     0.00     0.00     0.00     0.00    0.00    0.00    0.00   0.00   0.00
sdc               0.00     0.00 1208.00    0.00  4832.00     0.00     8.00     3.13    2.57    2.57    0.00   0.44  53.20
sdb               0.00     0.00 1204.00    0.00  4816.00     0.00     8.00     3.17    2.61    2.61    0.00   0.44  53.30
sdd               0.00     0.00 1423.00    0.00  5692.00     0.00     8.00     3.36    2.36    2.36    0.00   0.38  53.60
md0               0.00     0.00 3822.00    0.00 15288.00     0.00     8.00     0.00    0.00    0.00    0.00   0.00   0.00

avg-cpu:  %user   %nice %system %iowait  %steal   %idle
           0.06    0.00    0.97    3.91    0.00   95.05

Device:         rrqm/s   wrqm/s     r/s     w/s    rkB/s    wkB/s avgrq-sz avgqu-sz   await r_await w_await  svctm  %util
nvme0n1           0.00     0.00    0.00    0.00     0.00     0.00     0.00     0.00    0.00    0.00    0.00   0.00   0.00
sda               0.00     0.00    0.00    0.00     0.00     0.00     0.00     0.00    0.00    0.00    0.00   0.00   0.00
sdc               0.00     0.00 1188.00    0.00  4752.00     0.00     8.00     2.92    2.46    2.46    0.00   0.38  45.10
sdb               0.00     0.00 1293.00    0.00  5172.00     0.00     8.00     3.10    2.39    2.39    0.00   0.36  46.40
sdd               0.00     0.00 1360.00    0.00  5440.00     0.00     8.00     3.66    2.70    2.70    0.00   0.40  54.20
md0               0.00     0.00 3856.00    0.00 15424.00     0.00     8.00     0.00    0.00    0.00    0.00   0.00   0.00

avg-cpu:  %user   %nice %system %iowait  %steal   %idle
           0.06    0.00    0.75    5.45    0.00   93.74

Device:         rrqm/s   wrqm/s     r/s     w/s    rkB/s    wkB/s avgrq-sz avgqu-sz   await r_await w_await  svctm  %util
nvme0n1           0.00     0.00    0.00    0.00     0.00     0.00     0.00     0.00    0.00    0.00    0.00   0.00   0.00
sda               0.00     0.00    0.00    0.00     0.00     0.00     0.00     0.00    0.00    0.00    0.00   0.00   0.00
sdc               0.00     0.00 1304.00    0.00  5216.00     0.00     8.00     4.09    3.14    3.14    0.00   0.47  60.80
sdb               0.00     0.00 1197.00    0.00  4788.00     0.00     8.00     3.00    2.48    2.48    0.00   0.44  52.50
sdd               0.00     0.00 1028.00    0.00  4112.00     0.00     8.00     2.11    2.04    2.04    0.00   0.35  35.90
md0               0.00     0.00 3525.00    0.00 14100.00     0.00     8.00     0.00    0.00    0.00    0.00   0.00   0.00

avg-cpu:  %user   %nice %system %iowait  %steal   %idle
           0.06    0.00    0.78    5.39    0.00   93.76

Device:         rrqm/s   wrqm/s     r/s     w/s    rkB/s    wkB/s avgrq-sz avgqu-sz   await r_await w_await  svctm  %util
nvme0n1           0.00     0.00    0.00    0.00     0.00     0.00     0.00     0.00    0.00    0.00    0.00   0.00   0.00
sda               0.00     1.00    0.00    2.00     0.00    12.00    12.00     0.00    0.00    0.00    0.00   0.00   0.00
sdc               0.00     0.00 1121.00    0.00  4484.00     0.00     8.00     2.19    1.95    1.95    0.00   0.33  37.40
sdb               0.00     0.00 1436.00    0.00  5744.00     0.00     8.00     3.26    2.28    2.28    0.00   0.35  50.70
sdd               0.00     0.00 1231.00    0.00  4924.00     0.00     8.00     3.76    2.97    2.97    0.00   0.48  59.40
md0               0.00     0.00 3782.00    0.00 15128.00     0.00     8.00     0.00    0.00    0.00    0.00   0.00   0.00

avg-cpu:  %user   %nice %system %iowait  %steal   %idle
           0.03    0.00    0.88    4.01    0.00   95.08

Device:         rrqm/s   wrqm/s     r/s     w/s    rkB/s    wkB/s avgrq-sz avgqu-sz   await r_await w_await  svctm  %util
nvme0n1           0.00     0.00    0.00    0.00     0.00     0.00     0.00     0.00    0.00    0.00    0.00   0.00   0.00
sda               0.00     2.00    0.00    3.00     0.00    36.00    24.00     0.00    0.00    0.00    0.00   0.00   0.00
sdc               0.00     0.00 1163.00    0.00  4652.00     0.00     8.00     3.17    2.71    2.71    0.00   0.49  56.60
sdb               0.00     0.00 1323.00    0.00  5292.00     0.00     8.00     3.13    2.37    2.37    0.00   0.36  47.80
sdd               0.00     0.00 1459.00    0.00  5836.00     0.00     8.00     2.45    1.73    1.73    0.00   0.26  38.50
md0               0.00     0.00 3941.00    0.00 15764.00     0.00     8.00     0.00    0.00    0.00    0.00   0.00   0.00

avg-cpu:  %user   %nice %system %iowait  %steal   %idle
           0.06    0.00    0.63    4.70    0.00   94.61

Device:         rrqm/s   wrqm/s     r/s     w/s    rkB/s    wkB/s avgrq-sz avgqu-sz   await r_await w_await  svctm  %util
nvme0n1           0.00     0.00    0.00    0.00     0.00     0.00     0.00     0.00    0.00    0.00    0.00   0.00   0.00
sda               0.00     0.00   57.00    0.00   440.00     0.00    15.44     0.01    0.21    0.21    0.00   0.07   0.40
sdc               0.00     0.00 1060.00    0.00  4240.00     0.00     8.00     3.30    3.12    3.12    0.00   0.53  56.30
sdb               0.00     0.00 1101.00    0.00  4404.00     0.00     8.00     2.65    2.41    2.41    0.00   0.39  42.70
sdd               0.00     0.00 1066.00    0.00  4264.00     0.00     8.00     3.29    3.07    3.07    0.00   0.51  54.20
md0               0.00     0.00 3229.00    0.00 12916.00     0.00     8.00     0.00    0.00    0.00    0.00   0.00   0.00

avg-cpu:  %user   %nice %system %iowait  %steal   %idle
           0.03    0.00    0.72    4.19    0.00   95.05

Device:         rrqm/s   wrqm/s     r/s     w/s    rkB/s    wkB/s avgrq-sz avgqu-sz   await r_await w_await  svctm  %util
nvme0n1           0.00     0.00    0.00    0.00     0.00     0.00     0.00     0.00    0.00    0.00    0.00   0.00   0.00
sda               0.00     0.00    0.00    0.00     0.00     0.00     0.00     0.00    0.00    0.00    0.00   0.00   0.00
sdc               0.00     0.00 1152.00    0.00  4608.00     0.00     8.00     3.67    3.18    3.18    0.00   0.48  55.70
sdb               0.00     0.00 1075.00    0.00  4300.00     0.00     8.00     2.55    2.36    2.36    0.00   0.37  40.20
sdd               0.00     0.00 1021.00    0.00  4084.00     0.00     8.00     3.34    3.29    3.29    0.00   0.47  48.30
md0               0.00     0.00 3259.00    0.00 13036.00     0.00     8.00     0.00    0.00    0.00    0.00   0.00   0.00

avg-cpu:  %user   %nice %system %iowait  %steal   %idle
           0.06    0.00    0.88    3.16    0.00   95.90

Device:         rrqm/s   wrqm/s     r/s     w/s    rkB/s    wkB/s avgrq-sz avgqu-sz   await r_await w_await  svctm  %util
nvme0n1           0.00     0.00    0.00    0.00     0.00     0.00     0.00     0.00    0.00    0.00    0.00   0.00   0.00
sda               0.00     0.00    0.00    0.00     0.00     0.00     0.00     0.00    0.00    0.00    0.00   0.00   0.00
sdc               0.00     0.00 1133.00    0.00  4532.00     0.00     8.00     2.89    2.54    2.54    0.00   0.44  50.30
sdb               0.00     0.00 1547.00    0.00  6188.00     0.00     8.00     3.68    2.37    2.37    0.00   0.34  52.10
sdd               0.00     0.00 1057.00    0.00  4228.00     0.00     8.00     2.91    2.72    2.72    0.00   0.51  54.20
md0               0.00     0.00 3738.00    0.00 14952.00     0.00     8.00     0.00    0.00    0.00    0.00   0.00   0.00

avg-cpu:  %user   %nice %system %iowait  %steal   %idle
           0.03    0.00    0.75    3.32    0.00   95.90

Device:         rrqm/s   wrqm/s     r/s     w/s    rkB/s    wkB/s avgrq-sz avgqu-sz   await r_await w_await  svctm  %util
nvme0n1           0.00     0.00    0.00    0.00     0.00     0.00     0.00     0.00    0.00    0.00    0.00   0.00   0.00
sda               0.00     6.00    0.00    2.00     0.00    32.00    32.00     0.00    0.00    0.00    0.00   0.00   0.00
sdc               0.00     0.00 1203.00    0.00  4812.00     0.00     8.00     2.80    2.30    2.30    0.00   0.34  41.00
sdb               0.00     0.00 1227.00    0.00  4908.00     0.00     8.00     2.77    2.25    2.25    0.00   0.39  48.40
sdd               0.00     0.00 1073.00    0.00  4292.00     0.00     8.00     3.00    2.80    2.80    0.00   0.43  46.50
md0               0.00     0.00 3496.00    0.00 13984.00     0.00     8.00     0.00    0.00    0.00    0.00   0.00   0.00

avg-cpu:  %user   %nice %system %iowait  %steal   %idle
           0.06    0.00    0.94    3.38    0.00   95.62

Device:         rrqm/s   wrqm/s     r/s     w/s    rkB/s    wkB/s avgrq-sz avgqu-sz   await r_await w_await  svctm  %util
nvme0n1           0.00     0.00    0.00    0.00     0.00     0.00     0.00     0.00    0.00    0.00    0.00   0.00   0.00
sda               0.00     0.00    0.00    0.00     0.00     0.00     0.00     0.00    0.00    0.00    0.00   0.00   0.00
sdc               0.00     0.00 1197.00    0.00  4788.00     0.00     8.00     2.90    2.43    2.43    0.00   0.36  43.40
sdb               0.00     0.00 1080.00    0.00  4320.00     0.00     8.00     2.30    2.12    2.12    0.00   0.39  42.00
sdd               0.00     0.00 1265.00    0.00  5060.00     0.00     8.00     4.21    3.33    3.33    0.00   0.45  56.90
md0               0.00     0.00 3548.00    0.00 14192.00     0.00     8.00     0.00    0.00    0.00    0.00   0.00   0.00

avg-cpu:  %user   %nice %system %iowait  %steal   %idle
           0.03    0.00    0.81    3.41    0.00   95.74

Device:         rrqm/s   wrqm/s     r/s     w/s    rkB/s    wkB/s avgrq-sz avgqu-sz   await r_await w_await  svctm  %util
nvme0n1           0.00     0.00    0.00    0.00     0.00     0.00     0.00     0.00    0.00    0.00    0.00   0.00   0.00
sda               0.00     0.00    0.00    0.00     0.00     0.00     0.00     0.00    0.00    0.00    0.00   0.00   0.00
sdc               0.00     0.00 1241.00    0.00  4964.00     0.00     8.00     3.57    2.89    2.89    0.00   0.44  54.20
sdb               0.00     0.00 1420.00    0.00  5680.00     0.00     8.00     3.53    2.47    2.47    0.00   0.40  56.10
sdd               0.00     0.00 1128.00    0.00  4512.00     0.00     8.00     2.68    2.38    2.38    0.00   0.42  47.00
md0               0.00     0.00 3786.00    0.00 15144.00     0.00     8.00     0.00    0.00    0.00    0.00   0.00   0.00

avg-cpu:  %user   %nice %system %iowait  %steal   %idle
           0.03    0.00    0.88    3.32    0.00   95.77

Device:         rrqm/s   wrqm/s     r/s     w/s    rkB/s    wkB/s avgrq-sz avgqu-sz   await r_await w_await  svctm  %util
nvme0n1           0.00     0.00    0.00    0.00     0.00     0.00     0.00     0.00    0.00    0.00    0.00   0.00   0.00
sda               0.00     0.00    0.00    0.00     0.00     0.00     0.00     0.00    0.00    0.00    0.00   0.00   0.00
sdc               0.00     0.00 1167.00    0.00  4668.00     0.00     8.00     2.83    2.35    2.35    0.00   0.35  40.90
sdb               0.00     0.00 1266.00    0.00  5064.00     0.00     8.00     2.68    2.12    2.12    0.00   0.37  46.90
sdd               0.00     0.00 1395.00    0.00  5580.00     0.00     8.00     3.45    2.45    2.45    0.00   0.40  55.40
md0               0.00     0.00 3828.00    0.00 15312.00     0.00     8.00     0.00    0.00    0.00    0.00   0.00   0.00

avg-cpu:  %user   %nice %system %iowait  %steal   %idle
           0.09    0.00    0.88    4.60    0.00   94.43

Device:         rrqm/s   wrqm/s     r/s     w/s    rkB/s    wkB/s avgrq-sz avgqu-sz   await r_await w_await  svctm  %util
nvme0n1           0.00     0.00    0.00    0.00     0.00     0.00     0.00     0.00    0.00    0.00    0.00   0.00   0.00
sda               0.00     0.00    0.00    0.00     0.00     0.00     0.00     0.00    0.00    0.00    0.00   0.00   0.00
sdc               0.00     0.00 1119.00    0.00  4476.00     0.00     8.00     2.98    2.69    2.69    0.00   0.44  48.90
sdb               0.00     0.00 1406.00    0.00  5624.00     0.00     8.00     3.97    2.80    2.80    0.00   0.39  54.90
sdd               0.00     0.00 1260.00    0.00  5040.00     0.00     8.00     2.93    2.30    2.30    0.00   0.39  48.60
md0               0.00     0.00 3783.00    0.00 15132.00     0.00     8.00     0.00    0.00    0.00    0.00   0.00   0.00

