Linux 4.17.2 (bench2) 	08/03/2018 	_x86_64_	(32 CPU)

avg-cpu:  %user   %nice %system %iowait  %steal   %idle
           1.90    0.00    1.55    1.59    0.00   94.96

Device:         rrqm/s   wrqm/s     r/s     w/s    rkB/s    wkB/s avgrq-sz avgqu-sz   await r_await w_await  svctm  %util
nvme0n1         936.25     5.08 18874.45  519.67 105575.80 11720.16    12.10     1.34    0.05    0.03    0.67   0.02  39.51
sda               0.12     0.82   14.16    0.58   164.01     8.53    23.41     0.00    0.33    0.32    0.44   0.07   0.10
sdc              34.28     0.17  119.63    0.31  1794.63    97.29    31.55     0.07    0.62   12.44  380.35   0.91  10.91
sdb              32.25     0.19  121.62    0.33  1792.69    97.11    30.99     0.51    4.15    3.05  411.64   0.85  10.37
sdd              34.48     0.17  119.17    0.26  1790.63    96.79    31.61     0.82    6.88    4.91  907.87   0.91  10.91
md0               0.00     0.00  464.27    1.21  6661.22   351.12    30.13     0.00    0.00    0.00    0.00   0.00   0.00

avg-cpu:  %user   %nice %system %iowait  %steal   %idle
           0.03    0.00    0.31    0.69    0.00   98.97

Device:         rrqm/s   wrqm/s     r/s     w/s    rkB/s    wkB/s avgrq-sz avgqu-sz   await r_await w_await  svctm  %util
nvme0n1           0.00     0.00    0.00    0.00     0.00     0.00     0.00     0.00    0.00    0.00    0.00   0.00   0.00
sda               0.00     0.00    3.00    0.00    52.00     0.00    34.67     0.00    0.33    0.33    0.00   0.00   0.00
sdc               0.00     0.00 1750.00    0.00  7024.00     0.00     8.03     0.38    0.22    0.22    0.00   0.22  38.40
sdb               0.00     0.00 1822.00    0.00  7288.00     0.00     8.00     0.28    0.16    0.16    0.00   0.16  28.30
sdd               0.00     0.00 1802.00    0.00  7208.00     0.00     8.00     0.29    0.16    0.16    0.00   0.16  29.30
md0               0.00     0.00 5375.00    0.00 21524.00     0.00     8.01     0.00    0.00    0.00    0.00   0.00   0.00

avg-cpu:  %user   %nice %system %iowait  %steal   %idle
           0.00    0.00    0.31    0.72    0.00   98.97

Device:         rrqm/s   wrqm/s     r/s     w/s    rkB/s    wkB/s avgrq-sz avgqu-sz   await r_await w_await  svctm  %util
nvme0n1           0.00     0.00    0.00    0.00     0.00     0.00     0.00     0.00    0.00    0.00    0.00   0.00   0.00
sda               0.00     0.00    0.00    0.00     0.00     0.00     0.00     0.00    0.00    0.00    0.00   0.00   0.00
sdc               0.00     0.00 2089.00    0.00  8356.00     0.00     8.00     0.34    0.16    0.16    0.00   0.16  33.50
sdb               0.00     0.00 2077.00    0.00  8308.00     0.00     8.00     0.31    0.15    0.15    0.00   0.15  30.70
sdd               0.00     0.00 1984.00    0.00  7936.00     0.00     8.00     0.31    0.16    0.16    0.00   0.16  31.10
md0               0.00     0.00 6150.00    0.00 24600.00     0.00     8.00     0.00    0.00    0.00    0.00   0.00   0.00

avg-cpu:  %user   %nice %system %iowait  %steal   %idle
           0.00    0.00    0.34    0.56    0.00   99.09

Device:         rrqm/s   wrqm/s     r/s     w/s    rkB/s    wkB/s avgrq-sz avgqu-sz   await r_await w_await  svctm  %util
nvme0n1           0.00     0.00    0.00    0.00     0.00     0.00     0.00     0.00    0.00    0.00    0.00   0.00   0.00
sda               0.00    11.00    0.00    2.00     0.00    52.00    52.00     0.00    0.00    0.00    0.00   0.00   0.00
sdc               0.00     0.00 1999.00    0.00  7996.00     0.00     8.00     0.30    0.15    0.15    0.00   0.15  29.90
sdb               0.00     0.00 2090.00    0.00  8360.00     0.00     8.00     0.33    0.16    0.16    0.00   0.16  32.80
sdd               0.00     0.00 2195.00    0.00  8780.00     0.00     8.00     0.34    0.15    0.15    0.00   0.16  34.10
md0               0.00     0.00 6284.00    0.00 25136.00     0.00     8.00     0.00    0.00    0.00    0.00   0.00   0.00

avg-cpu:  %user   %nice %system %iowait  %steal   %idle
           0.03    0.00    0.31    0.69    0.00   98.97

Device:         rrqm/s   wrqm/s     r/s     w/s    rkB/s    wkB/s avgrq-sz avgqu-sz   await r_await w_await  svctm  %util
nvme0n1           0.00     0.00    0.00    0.00     0.00     0.00     0.00     0.00    0.00    0.00    0.00   0.00   0.00
sda               0.00     0.00    0.00    0.00     0.00     0.00     0.00     0.00    0.00    0.00    0.00   0.00   0.00
sdc               0.00     0.00 2075.00    0.00  8300.00     0.00     8.00     0.33    0.16    0.16    0.00   0.16  33.00
sdb               0.00     0.00 2173.00    0.00  8692.00     0.00     8.00     0.33    0.15    0.15    0.00   0.15  33.20
sdd               0.00     0.00 1926.00    0.00  7704.00     0.00     8.00     0.30    0.16    0.16    0.00   0.15  29.80
md0               0.00     0.00 6175.00    0.00 24700.00     0.00     8.00     0.00    0.00    0.00    0.00   0.00   0.00

avg-cpu:  %user   %nice %system %iowait  %steal   %idle
           0.00    0.00    0.34    0.69    0.00   98.97

Device:         rrqm/s   wrqm/s     r/s     w/s    rkB/s    wkB/s avgrq-sz avgqu-sz   await r_await w_await  svctm  %util
nvme0n1           0.00     0.00    0.00    0.00     0.00     0.00     0.00     0.00    0.00    0.00    0.00   0.00   0.00
sda               0.00     0.00    0.00    0.00     0.00     0.00     0.00     0.00    0.00    0.00    0.00   0.00   0.00
sdc               0.00     0.00 2028.00    0.00  8112.00     0.00     8.00     0.34    0.17    0.17    0.00   0.17  33.70
sdb               0.00     0.00 1926.00    0.00  7704.00     0.00     8.00     0.33    0.17    0.17    0.00   0.17  32.60
sdd               0.00     0.00 2011.00    0.00  8044.00     0.00     8.00     0.29    0.15    0.15    0.00   0.15  29.50
md0               0.00     0.00 5964.00    0.00 23856.00     0.00     8.00     0.00    0.00    0.00    0.00   0.00   0.00

avg-cpu:  %user   %nice %system %iowait  %steal   %idle
           0.00    0.00    0.31    0.63    0.00   99.06

Device:         rrqm/s   wrqm/s     r/s     w/s    rkB/s    wkB/s avgrq-sz avgqu-sz   await r_await w_await  svctm  %util
nvme0n1           0.00     0.00    0.00    0.00     0.00     0.00     0.00     0.00    0.00    0.00    0.00   0.00   0.00
sda               0.00     0.00    0.00    0.00     0.00     0.00     0.00     0.00    0.00    0.00    0.00   0.00   0.00
sdc               0.00     0.00 2094.00    0.00  8376.00     0.00     8.00     0.35    0.17    0.17    0.00   0.17  35.10
sdb               0.00     0.00 2010.00    0.00  8040.00     0.00     8.00     0.30    0.15    0.15    0.00   0.15  30.00
sdd               0.00     0.00 1964.00    0.00  7856.00     0.00     8.00     0.30    0.16    0.16    0.00   0.16  30.50
md0               0.00     0.00 6068.00    0.00 24272.00     0.00     8.00     0.00    0.00    0.00    0.00   0.00   0.00

avg-cpu:  %user   %nice %system %iowait  %steal   %idle
           0.00    0.00    0.34    0.72    0.00   98.94

Device:         rrqm/s   wrqm/s     r/s     w/s    rkB/s    wkB/s avgrq-sz avgqu-sz   await r_await w_await  svctm  %util
nvme0n1           0.00     0.00    0.00    0.00     0.00     0.00     0.00     0.00    0.00    0.00    0.00   0.00   0.00
sda               0.00     0.00    0.00    0.00     0.00     0.00     0.00     0.00    0.00    0.00    0.00   0.00   0.00
sdc               0.00     0.00 1908.00    0.00  7632.00     0.00     8.00     0.33    0.17    0.17    0.00   0.17  32.60
sdb               0.00     0.00 1824.00    0.00  7296.00     0.00     8.00     0.31    0.17    0.17    0.00   0.17  30.90
sdd               0.00     0.00 1910.00    0.00  7640.00     0.00     8.00     0.33    0.17    0.17    0.00   0.17  32.50
md0               0.00     0.00 5642.00    0.00 22568.00     0.00     8.00     0.00    0.00    0.00    0.00   0.00   0.00

avg-cpu:  %user   %nice %system %iowait  %steal   %idle
           0.00    0.00    0.31    0.69    0.00   99.00

Device:         rrqm/s   wrqm/s     r/s     w/s    rkB/s    wkB/s avgrq-sz avgqu-sz   await r_await w_await  svctm  %util
nvme0n1           0.00     0.00    0.00    0.00     0.00     0.00     0.00     0.00    0.00    0.00    0.00   0.00   0.00
sda               0.00     1.00    0.00    2.00     0.00    12.00    12.00     0.00    0.00    0.00    0.00   0.00   0.00
sdc               0.00     0.00 2058.00    0.00  8232.00     0.00     8.00     0.35    0.17    0.17    0.00   0.17  34.70
sdb               0.00     0.00 2117.00    0.00  8468.00     0.00     8.00     0.32    0.15    0.15    0.00   0.15  32.00
sdd               0.00     0.00 2012.00    0.00  8048.00     0.00     8.00     0.29    0.15    0.15    0.00   0.15  29.40
md0               0.00     0.00 6187.00    0.00 24748.00     0.00     8.00     0.00    0.00    0.00    0.00   0.00   0.00

avg-cpu:  %user   %nice %system %iowait  %steal   %idle
           0.00    0.00    0.25    0.78    0.00   98.97

Device:         rrqm/s   wrqm/s     r/s     w/s    rkB/s    wkB/s avgrq-sz avgqu-sz   await r_await w_await  svctm  %util
nvme0n1           0.00     0.00    0.00    0.00     0.00     0.00     0.00     0.00    0.00    0.00    0.00   0.00   0.00
sda               0.00     0.00    0.00    0.00     0.00     0.00     0.00     0.00    0.00    0.00    0.00   0.00   0.00
sdc               0.00     0.00 1897.00    0.00  7588.00     0.00     8.00     0.32    0.17    0.17    0.00   0.17  32.40
sdb               0.00     0.00 1795.00    0.00  7180.00     0.00     8.00     0.31    0.17    0.17    0.00   0.17  30.70
sdd               0.00     0.00 1955.00    0.00  7820.00     0.00     8.00     0.34    0.17    0.17    0.00   0.17  33.90
md0               0.00     0.00 5647.00    0.00 22588.00     0.00     8.00     0.00    0.00    0.00    0.00   0.00   0.00

avg-cpu:  %user   %nice %system %iowait  %steal   %idle
           0.03    0.00    0.31    0.63    0.00   99.03

Device:         rrqm/s   wrqm/s     r/s     w/s    rkB/s    wkB/s avgrq-sz avgqu-sz   await r_await w_await  svctm  %util
nvme0n1           0.00     0.00    0.00    0.00     0.00     0.00     0.00     0.00    0.00    0.00    0.00   0.00   0.00
sda               0.00     0.00    0.00    0.00     0.00     0.00     0.00     0.00    0.00    0.00    0.00   0.00   0.00
sdc               0.00     0.00 2035.00    0.00  8140.00     0.00     8.00     0.31    0.15    0.15    0.00   0.15  30.90
sdb               0.00     0.00 2045.00    0.00  8180.00     0.00     8.00     0.33    0.16    0.16    0.00   0.16  32.90
sdd               0.00     0.00 2155.00    0.00  8620.00     0.00     8.00     0.32    0.15    0.15    0.00   0.15  31.70
md0               0.00     0.00 6235.00    0.00 24940.00     0.00     8.00     0.00    0.00    0.00    0.00   0.00   0.00

avg-cpu:  %user   %nice %system %iowait  %steal   %idle
           0.00    0.00    0.34    0.66    0.00   99.00

Device:         rrqm/s   wrqm/s     r/s     w/s    rkB/s    wkB/s avgrq-sz avgqu-sz   await r_await w_await  svctm  %util
nvme0n1           0.00     0.00    0.00    0.00     0.00     0.00     0.00     0.00    0.00    0.00    0.00   0.00   0.00
sda               0.00     0.00    0.00    0.00     0.00     0.00     0.00     0.00    0.00    0.00    0.00   0.00   0.00
sdc               0.00     0.00 2005.00    0.00  8020.00     0.00     8.00     0.29    0.15    0.15    0.00   0.15  29.30
sdb               0.00     0.00 1985.00    0.00  7940.00     0.00     8.00     0.31    0.16    0.16    0.00   0.15  30.70
sdd               0.00     0.00 2187.00    0.00  8748.00     0.00     8.00     0.35    0.16    0.16    0.00   0.16  35.40
md0               0.00     0.00 6177.00    0.00 24708.00     0.00     8.00     0.00    0.00    0.00    0.00   0.00   0.00

avg-cpu:  %user   %nice %system %iowait  %steal   %idle
           0.03    0.00    0.28    0.72    0.00   98.97

Device:         rrqm/s   wrqm/s     r/s     w/s    rkB/s    wkB/s avgrq-sz avgqu-sz   await r_await w_await  svctm  %util
nvme0n1           0.00     0.00    0.00    0.00     0.00     0.00     0.00     0.00    0.00    0.00    0.00   0.00   0.00
sda               0.00     2.00    0.00    1.00     0.00    28.00    56.00     0.00    0.00    0.00    0.00   0.00   0.00
sdc               0.00     0.00 2029.00    0.00  8116.00     0.00     8.00     0.34    0.17    0.17    0.00   0.17  33.60
sdb               0.00     0.00 2157.00    0.00  8628.00     0.00     8.00     0.38    0.17    0.17    0.00   0.17  37.60
sdd               0.00     0.00 1754.00    0.00  7016.00     0.00     8.00     0.25    0.14    0.14    0.00   0.14  24.50
md0               0.00     0.00 5940.00    0.00 23760.00     0.00     8.00     0.00    0.00    0.00    0.00   0.00   0.00

avg-cpu:  %user   %nice %system %iowait  %steal   %idle
           0.00    0.00    0.34    0.63    0.00   99.03

Device:         rrqm/s   wrqm/s     r/s     w/s    rkB/s    wkB/s avgrq-sz avgqu-sz   await r_await w_await  svctm  %util
nvme0n1           0.00     0.00    0.00    0.00     0.00     0.00     0.00     0.00    0.00    0.00    0.00   0.00   0.00
sda               0.00     3.00    0.00    2.00     0.00    20.00    20.00     0.00    0.00    0.00    0.00   0.00   0.00
sdc               0.00     0.00 2273.00    0.00  9092.00     0.00     8.00     0.35    0.15    0.15    0.00   0.15  34.60
sdb               0.00     0.00 2037.00    0.00  8148.00     0.00     8.00     0.29    0.14    0.14    0.00   0.14  28.60
sdd               0.00     0.00 2105.00    0.00  8420.00     0.00     8.00     0.33    0.15    0.15    0.00   0.15  32.60
md0               0.00     0.00 6415.00    0.00 25660.00     0.00     8.00     0.00    0.00    0.00    0.00   0.00   0.00

avg-cpu:  %user   %nice %system %iowait  %steal   %idle
           0.00    0.00    0.31    0.75    0.00   98.94

Device:         rrqm/s   wrqm/s     r/s     w/s    rkB/s    wkB/s avgrq-sz avgqu-sz   await r_await w_await  svctm  %util
nvme0n1           0.00     0.00    0.00    0.00     0.00     0.00     0.00     0.00    0.00    0.00    0.00   0.00   0.00
sda               0.00     0.00    0.00    0.00     0.00     0.00     0.00     0.00    0.00    0.00    0.00   0.00   0.00
sdc               0.00     0.00 1959.00    0.00  7836.00     0.00     8.00     0.30    0.16    0.16    0.00   0.15  30.30
sdb               0.00     0.00 1937.00    0.00  7748.00     0.00     8.00     0.30    0.16    0.16    0.00   0.16  30.20
sdd               0.00     0.00 2193.00    0.00  8772.00     0.00     8.00     0.36    0.16    0.16    0.00   0.17  36.20
md0               0.00     0.00 6089.00    0.00 24356.00     0.00     8.00     0.00    0.00    0.00    0.00   0.00   0.00

avg-cpu:  %user   %nice %system %iowait  %steal   %idle
           0.00    0.00    0.31    0.72    0.00   98.97

Device:         rrqm/s   wrqm/s     r/s     w/s    rkB/s    wkB/s avgrq-sz avgqu-sz   await r_await w_await  svctm  %util
nvme0n1           0.00     0.00    0.00    0.00     0.00     0.00     0.00     0.00    0.00    0.00    0.00   0.00   0.00
sda               0.00     0.00    0.00    0.00     0.00     0.00     0.00     0.00    0.00    0.00    0.00   0.00   0.00
sdc               0.00     0.00 2030.00    0.00  8120.00     0.00     8.00     0.30    0.15    0.15    0.00   0.15  29.70
sdb               0.00     0.00 2090.00    0.00  8360.00     0.00     8.00     0.32    0.16    0.16    0.00   0.15  32.30
sdd               0.00     0.00 1969.00    0.00  7876.00     0.00     8.00     0.35    0.18    0.18    0.00   0.18  34.70
md0               0.00     0.00 6089.00    0.00 24356.00     0.00     8.00     0.00    0.00    0.00    0.00   0.00   0.00

avg-cpu:  %user   %nice %system %iowait  %steal   %idle
           0.03    0.00    0.41    0.59    0.00   98.97

Device:         rrqm/s   wrqm/s     r/s     w/s    rkB/s    wkB/s avgrq-sz avgqu-sz   await r_await w_await  svctm  %util
nvme0n1           0.00     0.00    0.00    0.00     0.00     0.00     0.00     0.00    0.00    0.00    0.00   0.00   0.00
sda               0.00     0.00    0.00    0.00     0.00     0.00     0.00     0.00    0.00    0.00    0.00   0.00   0.00
sdc               0.00     0.00 2069.00    0.00  8276.00     0.00     8.00     0.32    0.16    0.16    0.00   0.16  32.40
sdb               0.00     0.00 1971.00    0.00  7884.00     0.00     8.00     0.29    0.15    0.15    0.00   0.15  29.10
sdd               0.00     0.00 2164.00    0.00  8656.00     0.00     8.00     0.34    0.16    0.16    0.00   0.16  33.60
md0               0.00     0.00 6205.00    0.00 24820.00     0.00     8.00     0.00    0.00    0.00    0.00   0.00   0.00

avg-cpu:  %user   %nice %system %iowait  %steal   %idle
           0.00    0.00    0.31    0.63    0.00   99.06

Device:         rrqm/s   wrqm/s     r/s     w/s    rkB/s    wkB/s avgrq-sz avgqu-sz   await r_await w_await  svctm  %util
nvme0n1           0.00     0.00    0.00    0.00     0.00     0.00     0.00     0.00    0.00    0.00    0.00   0.00   0.00
sda               0.00     0.00   57.00    0.00   440.00     0.00    15.44     0.03    0.49    0.49    0.00   0.07   0.40
sdc               0.00     0.00 2125.00    0.00  8500.00     0.00     8.00     0.33    0.15    0.15    0.00   0.15  32.90
sdb               0.00     0.00 2140.00    0.00  8560.00     0.00     8.00     0.33    0.15    0.15    0.00   0.15  32.90
sdd               0.00     0.00 2001.00    0.00  8004.00     0.00     8.00     0.30    0.15    0.15    0.00   0.15  30.10
md0               0.00     0.00 6266.00    0.00 25064.00     0.00     8.00     0.00    0.00    0.00    0.00   0.00   0.00

avg-cpu:  %user   %nice %system %iowait  %steal   %idle
           0.03    0.00    0.28    0.66    0.00   99.03

Device:         rrqm/s   wrqm/s     r/s     w/s    rkB/s    wkB/s avgrq-sz avgqu-sz   await r_await w_await  svctm  %util
nvme0n1           0.00     0.00    0.00    0.00     0.00     0.00     0.00     0.00    0.00    0.00    0.00   0.00   0.00
sda               0.00     3.00    0.00    2.00     0.00    20.00    20.00     0.00    0.50    0.00    0.50   0.50   0.10
sdc               0.00     0.00 2084.00    0.00  8336.00     0.00     8.00     0.33    0.16    0.16    0.00   0.16  32.50
sdb               0.00     0.00 2162.00    0.00  8648.00     0.00     8.00     0.33    0.15    0.15    0.00   0.15  33.30
sdd               0.00     0.00 1917.00    0.00  7668.00     0.00     8.00     0.29    0.15    0.15    0.00   0.15  29.40
md0               0.00     0.00 6162.00    0.00 24648.00     0.00     8.00     0.00    0.00    0.00    0.00   0.00   0.00

avg-cpu:  %user   %nice %system %iowait  %steal   %idle
           0.00    0.00    0.31    0.63    0.00   99.06

Device:         rrqm/s   wrqm/s     r/s     w/s    rkB/s    wkB/s avgrq-sz avgqu-sz   await r_await w_await  svctm  %util
nvme0n1           0.00     0.00    0.00    0.00     0.00     0.00     0.00     0.00    0.00    0.00    0.00   0.00   0.00
sda               0.00     0.00    0.00    0.00     0.00     0.00     0.00     0.00    0.00    0.00    0.00   0.00   0.00
sdc               0.00     0.00 2143.00    0.00  8572.00     0.00     8.00     0.31    0.14    0.14    0.00   0.14  30.80
sdb               0.00     0.00 2149.00    0.00  8596.00     0.00     8.00     0.36    0.17    0.17    0.00   0.17  35.60
sdd               0.00     0.00 1998.00    0.00  7992.00     0.00     8.00     0.30    0.15    0.15    0.00   0.15  29.60
md0               0.00     0.00 6291.00    0.00 25164.00     0.00     8.00     0.00    0.00    0.00    0.00   0.00   0.00

avg-cpu:  %user   %nice %system %iowait  %steal   %idle
           0.00    0.00    0.31    0.53    0.00   99.15

Device:         rrqm/s   wrqm/s     r/s     w/s    rkB/s    wkB/s avgrq-sz avgqu-sz   await r_await w_await  svctm  %util
nvme0n1           0.00     0.00    0.00    0.00     0.00     0.00     0.00     0.00    0.00    0.00    0.00   0.00   0.00
sda               0.00     0.00    0.00    0.00     0.00     0.00     0.00     0.00    0.00    0.00    0.00   0.00   0.00
sdc               0.00     0.00 2156.00    0.00  8624.00     0.00     8.00     0.32    0.15    0.15    0.00   0.15  31.50
sdb               0.00     0.00 2078.00    0.00  8312.00     0.00     8.00     0.32    0.15    0.15    0.00   0.15  31.60
sdd               0.00     0.00 2265.00    0.00  9060.00     0.00     8.00     0.33    0.15    0.15    0.00   0.15  33.30
md0               0.00     0.00 6498.00    0.00 25992.00     0.00     8.00     0.00    0.00    0.00    0.00   0.00   0.00

