Linux 4.17.2 (bench2) 	08/03/2018 	_x86_64_	(32 CPU)

avg-cpu:  %user   %nice %system %iowait  %steal   %idle
           1.90    0.00    1.55    1.59    0.00   94.96

Device:         rrqm/s   wrqm/s     r/s     w/s    rkB/s    wkB/s avgrq-sz avgqu-sz   await r_await w_await  svctm  %util
nvme0n1         934.71     5.08 18843.36  518.82 105401.92 11700.85    12.10     1.34    0.05    0.03    0.67   0.02  39.45
sda               0.12     0.82   14.17    0.58   164.01     8.53    23.40     0.00    0.33    0.32    0.44   0.07   0.10
sdc              34.26     0.17  120.68    0.31  1816.39    97.13    31.63     0.08    0.64   12.33  380.35   0.91  10.97
sdb              32.22     0.19  122.67    0.33  1814.43    96.95    31.08     0.51    4.13    3.04  411.64   0.85  10.42
sdd              34.45     0.17  120.22    0.26  1812.41    96.63    31.69     0.82    6.83    4.88  907.87   0.91  10.97
md0               0.00     0.00  467.34    1.21  6748.47   350.54    30.30     0.00    0.00    0.00    0.00   0.00   0.00

avg-cpu:  %user   %nice %system %iowait  %steal   %idle
           0.00    0.00    0.03   19.02    0.00   80.94

Device:         rrqm/s   wrqm/s     r/s     w/s    rkB/s    wkB/s avgrq-sz avgqu-sz   await r_await w_await  svctm  %util
nvme0n1           0.00     0.00    0.00    0.00     0.00     0.00     0.00     0.00    0.00    0.00    0.00   0.00   0.00
sda               0.00     1.00    3.10    0.50    27.40     6.80    19.00     0.00    0.24    0.26    0.10   0.11   0.04
sdc               0.00     0.00   86.60    0.00   346.40     0.00     8.00     2.26   26.09   26.09    0.00   9.38  81.20
sdb               0.00     0.00   90.95    0.00   363.80     0.00     8.00     2.48   27.29   27.29    0.00   9.31  84.68
sdd               0.00     0.00   89.65    0.00   358.60     0.00     8.00     2.19   24.31   24.31    0.00   9.23  82.71
md0               0.00     0.00  267.60    0.00  1070.40     0.00     8.00     0.00    0.00    0.00    0.00   0.00   0.00

