Linux 4.17.2 (bench2) 	08/03/2018 	_x86_64_	(32 CPU)

avg-cpu:  %user   %nice %system %iowait  %steal   %idle
           1.90    0.00    1.55    1.58    0.00   94.96

Device:         rrqm/s   wrqm/s     r/s     w/s    rkB/s    wkB/s avgrq-sz avgqu-sz   await r_await w_await  svctm  %util
nvme0n1         937.10     5.09 18891.46  520.14 105670.97 11730.72    12.10     1.34    0.05    0.03    0.67   0.02  39.55
sda               0.12     0.82   14.16    0.58   163.99     8.53    23.41     0.00    0.33    0.32    0.44   0.07   0.10
sdc              34.22     0.17  118.95    0.31  1792.69    97.38    31.70     0.07    0.58   12.47  380.35   0.91  10.87
sdb              32.18     0.19  120.94    0.33  1790.75    97.20    31.14     0.50    4.13    3.02  411.64   0.85  10.33
sdd              34.41     0.17  118.49    0.26  1788.70    96.87    31.76     0.82    6.87    4.89  907.87   0.92  10.87
md0               0.00     0.00  462.03    1.21  6656.58   351.43    30.26     0.00    0.00    0.00    0.00   0.00   0.00

avg-cpu:  %user   %nice %system %iowait  %steal   %idle
           0.16    0.00    1.52   29.47    0.00   68.86

Device:         rrqm/s   wrqm/s     r/s     w/s    rkB/s    wkB/s avgrq-sz avgqu-sz   await r_await w_await  svctm  %util
nvme0n1           0.00     0.00    0.00    0.00     0.00     0.00     0.00     0.00    0.00    0.00    0.00   0.00   0.00
sda               0.00     0.00   21.00    0.00   124.00     0.00    11.81     0.01    0.52    0.52    0.00   0.05   0.10
sdc               0.00     0.00 2974.00    0.00 11920.00     0.00     8.02     4.14    1.40    1.40    0.00   0.12  36.90
sdb               0.00     0.00 2936.00    0.00 11744.00     0.00     8.00     4.17    1.42    1.42    0.00   0.13  39.30
sdd               0.00     0.00 2830.00    0.00 11320.00     0.00     8.00     3.54    1.25    1.25    0.00   0.11  32.40
md0               0.00     0.00 8756.00    0.00 35048.00     0.00     8.01     0.00    0.00    0.00    0.00   0.00   0.00

avg-cpu:  %user   %nice %system %iowait  %steal   %idle
           0.13    0.00    2.08   29.19    0.00   68.60

Device:         rrqm/s   wrqm/s     r/s     w/s    rkB/s    wkB/s avgrq-sz avgqu-sz   await r_await w_await  svctm  %util
nvme0n1           0.00     0.00    0.00    0.00     0.00     0.00     0.00     0.00    0.00    0.00    0.00   0.00   0.00
sda               0.00    11.00    0.00    2.00     0.00    52.00    52.00     0.00    0.50    0.00    0.50   0.50   0.10
sdc               0.00     0.00 2959.00    0.00 11836.00     0.00     8.00     4.00    1.35    1.35    0.00   0.13  37.50
sdb               0.00     0.00 2851.00    0.00 11404.00     0.00     8.00     3.74    1.29    1.29    0.00   0.12  35.50
sdd               0.00     0.00 2963.00    0.00 11852.00     0.00     8.00     4.03    1.35    1.35    0.00   0.12  36.40
md0               0.00     0.00 8772.00    0.00 35088.00     0.00     8.00     0.00    0.00    0.00    0.00   0.00   0.00

avg-cpu:  %user   %nice %system %iowait  %steal   %idle
           0.09    0.00    2.08   28.45    0.00   69.37

Device:         rrqm/s   wrqm/s     r/s     w/s    rkB/s    wkB/s avgrq-sz avgqu-sz   await r_await w_await  svctm  %util
nvme0n1           0.00     0.00    0.00    0.00     0.00     0.00     0.00     0.00    0.00    0.00    0.00   0.00   0.00
sda               0.00     0.00    0.00    0.00     0.00     0.00     0.00     0.00    0.00    0.00    0.00   0.00   0.00
sdc               0.00     0.00 2761.00    0.00 11044.00     0.00     8.00     3.85    1.39    1.39    0.00   0.14  37.50
sdb               0.00     0.00 2901.00    0.00 11604.00     0.00     8.00     3.64    1.26    1.26    0.00   0.12  35.50
sdd               0.00     0.00 2966.00    0.00 11864.00     0.00     8.00     4.00    1.35    1.35    0.00   0.12  35.80
md0               0.00     0.00 8618.00    0.00 34472.00     0.00     8.00     0.00    0.00    0.00    0.00   0.00   0.00

avg-cpu:  %user   %nice %system %iowait  %steal   %idle
           0.09    0.00    2.18   28.68    0.00   69.04

Device:         rrqm/s   wrqm/s     r/s     w/s    rkB/s    wkB/s avgrq-sz avgqu-sz   await r_await w_await  svctm  %util
nvme0n1           0.00     0.00    0.00    0.00     0.00     0.00     0.00     0.00    0.00    0.00    0.00   0.00   0.00
sda               0.00     0.00    0.00    0.00     0.00     0.00     0.00     0.00    0.00    0.00    0.00   0.00   0.00
sdc               0.00     0.00 3336.00    0.00 13344.00     0.00     8.00     4.14    1.24    1.24    0.00   0.11  37.10
sdb               0.00     0.00 3012.00    0.00 12048.00     0.00     8.00     3.41    1.12    1.12    0.00   0.11  31.80
sdd               0.00     0.00 3173.00    0.00 12692.00     0.00     8.00     3.92    1.23    1.23    0.00   0.12  37.20
md0               0.00     0.00 9532.00    0.00 38128.00     0.00     8.00     0.00    0.00    0.00    0.00   0.00   0.00

avg-cpu:  %user   %nice %system %iowait  %steal   %idle
           0.13    0.00    2.46   28.46    0.00   68.95

Device:         rrqm/s   wrqm/s     r/s     w/s    rkB/s    wkB/s avgrq-sz avgqu-sz   await r_await w_await  svctm  %util
nvme0n1           0.00     0.00    0.00    0.00     0.00     0.00     0.00     0.00    0.00    0.00    0.00   0.00   0.00
sda               0.00     0.00    0.00    0.00     0.00     0.00     0.00     0.00    0.00    0.00    0.00   0.00   0.00
sdc               0.00     0.00 2820.00    0.00 11280.00     0.00     8.00     3.56    1.26    1.26    0.00   0.12  34.00
sdb               0.00     0.00 3103.00    0.00 12412.00     0.00     8.00     4.01    1.28    1.28    0.00   0.12  35.70
sdd               0.00     0.00 2941.00    0.00 11764.00     0.00     8.00     4.15    1.40    1.40    0.00   0.13  38.50
md0               0.00     0.00 8864.00    0.00 35456.00     0.00     8.00     0.00    0.00    0.00    0.00   0.00   0.00

avg-cpu:  %user   %nice %system %iowait  %steal   %idle
           0.13    0.00    1.65   28.32    0.00   69.90

Device:         rrqm/s   wrqm/s     r/s     w/s    rkB/s    wkB/s avgrq-sz avgqu-sz   await r_await w_await  svctm  %util
nvme0n1           0.00     0.00    0.00    0.00     0.00     0.00     0.00     0.00    0.00    0.00    0.00   0.00   0.00
sda               0.00     0.00    0.00    0.00     0.00     0.00     0.00     0.00    0.00    0.00    0.00   0.00   0.00
sdc               0.00     0.00 3098.00    0.00 12392.00     0.00     8.00     4.27    1.38    1.38    0.00   0.13  39.60
sdb               0.00     0.00 2870.00    0.00 11480.00     0.00     8.00     3.79    1.32    1.32    0.00   0.13  36.60
sdd               0.00     0.00 2738.00    0.00 10952.00     0.00     8.00     3.58    1.30    1.30    0.00   0.13  34.70
md0               0.00     0.00 8701.00    0.00 34804.00     0.00     8.00     0.00    0.00    0.00    0.00   0.00   0.00

avg-cpu:  %user   %nice %system %iowait  %steal   %idle
           0.16    0.00    2.34   28.86    0.00   68.65

Device:         rrqm/s   wrqm/s     r/s     w/s    rkB/s    wkB/s avgrq-sz avgqu-sz   await r_await w_await  svctm  %util
nvme0n1           0.00     0.00    0.00    0.00     0.00     0.00     0.00     0.00    0.00    0.00    0.00   0.00   0.00
sda               0.00     1.00    0.00    2.00     0.00    12.00    12.00     0.00    0.50    0.00    0.50   0.50   0.10
sdc               0.00     0.00 3160.00    0.00 12640.00     0.00     8.00     3.79    1.20    1.20    0.00   0.12  36.40
sdb               0.00     0.00 3438.00    0.00 13752.00     0.00     8.00     4.14    1.20    1.20    0.00   0.11  38.00
sdd               0.00     0.00 3128.00    0.00 12512.00     0.00     8.00     3.75    1.20    1.20    0.00   0.11  33.80
md0               0.00     0.00 9731.00    0.00 38924.00     0.00     8.00     0.00    0.00    0.00    0.00   0.00   0.00

avg-cpu:  %user   %nice %system %iowait  %steal   %idle
           0.13    0.00    2.65   29.39    0.00   67.83

Device:         rrqm/s   wrqm/s     r/s     w/s    rkB/s    wkB/s avgrq-sz avgqu-sz   await r_await w_await  svctm  %util
nvme0n1           0.00     0.00    0.00    0.00     0.00     0.00     0.00     0.00    0.00    0.00    0.00   0.00   0.00
sda               0.00     0.00    0.00    0.00     0.00     0.00     0.00     0.00    0.00    0.00    0.00   0.00   0.00
sdc               0.00     0.00 3249.00    0.00 12996.00     0.00     8.00     3.64    1.13    1.13    0.00   0.11  35.60
sdb               0.00     0.00 3435.00    0.00 13740.00     0.00     8.00     4.29    1.25    1.25    0.00   0.11  37.00
sdd               0.00     0.00 3261.00    0.00 13044.00     0.00     8.00     3.94    1.20    1.20    0.00   0.11  36.40
md0               0.00     0.00 9945.00    0.00 39780.00     0.00     8.00     0.00    0.00    0.00    0.00   0.00   0.00

avg-cpu:  %user   %nice %system %iowait  %steal   %idle
           0.09    0.00    2.21   29.09    0.00   68.60

Device:         rrqm/s   wrqm/s     r/s     w/s    rkB/s    wkB/s avgrq-sz avgqu-sz   await r_await w_await  svctm  %util
nvme0n1           0.00     0.00    0.00    0.00     0.00     0.00     0.00     0.00    0.00    0.00    0.00   0.00   0.00
sda               0.00     0.00    0.00    0.00     0.00     0.00     0.00     0.00    0.00    0.00    0.00   0.00   0.00
sdc               0.00     0.00 2844.00    0.00 11376.00     0.00     8.00     4.09    1.44    1.44    0.00   0.14  39.30
sdb               0.00     0.00 3083.00    0.00 12332.00     0.00     8.00     3.99    1.29    1.29    0.00   0.11  35.10
sdd               0.00     0.00 3061.00    0.00 12244.00     0.00     8.00     3.70    1.22    1.22    0.00   0.11  34.80
md0               0.00     0.00 8989.00    0.00 35956.00     0.00     8.00     0.00    0.00    0.00    0.00   0.00   0.00

avg-cpu:  %user   %nice %system %iowait  %steal   %idle
           0.13    0.00    2.37   27.66    0.00   69.85

Device:         rrqm/s   wrqm/s     r/s     w/s    rkB/s    wkB/s avgrq-sz avgqu-sz   await r_await w_await  svctm  %util
nvme0n1           0.00     0.00    0.00    0.00     0.00     0.00     0.00     0.00    0.00    0.00    0.00   0.00   0.00
sda               0.00     0.00    0.00    0.00     0.00     0.00     0.00     0.00    0.00    0.00    0.00   0.00   0.00
sdc               0.00     0.00 3063.00    0.00 12252.00     0.00     8.00     4.05    1.33    1.33    0.00   0.12  37.60
sdb               0.00     0.00 3063.00    0.00 12252.00     0.00     8.00     3.83    1.25    1.25    0.00   0.11  35.10
sdd               0.00     0.00 3086.00    0.00 12344.00     0.00     8.00     3.90    1.27    1.27    0.00   0.12  36.50
md0               0.00     0.00 9198.00    0.00 36792.00     0.00     8.00     0.00    0.00    0.00    0.00   0.00   0.00

avg-cpu:  %user   %nice %system %iowait  %steal   %idle
           0.13    0.00    2.33   25.62    0.00   71.92

Device:         rrqm/s   wrqm/s     r/s     w/s    rkB/s    wkB/s avgrq-sz avgqu-sz   await r_await w_await  svctm  %util
nvme0n1           0.00     0.00    0.00    0.00     0.00     0.00     0.00     0.00    0.00    0.00    0.00   0.00   0.00
sda               0.00     0.00    0.00    0.00     0.00     0.00     0.00     0.00    0.00    0.00    0.00   0.00   0.00
sdc               0.00     0.00 3028.00    0.00 12112.00     0.00     8.00     3.80    1.26    1.26    0.00   0.12  35.60
sdb               0.00     0.00 3079.00    0.00 12316.00     0.00     8.00     3.76    1.21    1.21    0.00   0.12  36.90
sdd               0.00     0.00 2858.00    0.00 11432.00     0.00     8.00     3.69    1.29    1.29    0.00   0.13  37.20
md0               0.00     0.00 8978.00    0.00 35912.00     0.00     8.00     0.00    0.00    0.00    0.00   0.00   0.00

avg-cpu:  %user   %nice %system %iowait  %steal   %idle
           0.13    0.00    2.34   26.49    0.00   71.05

Device:         rrqm/s   wrqm/s     r/s     w/s    rkB/s    wkB/s avgrq-sz avgqu-sz   await r_await w_await  svctm  %util
nvme0n1           0.00     0.00    0.00    0.00     0.00     0.00     0.00     0.00    0.00    0.00    0.00   0.00   0.00
sda               0.00     1.00    0.00    2.00     0.00    12.00    12.00     0.00    0.00    0.00    0.00   0.00   0.00
sdc               0.00     0.00 2893.00    0.00 11572.00     0.00     8.00     3.56    1.22    1.22    0.00   0.11  32.80
sdb               0.00     0.00 3031.00    0.00 12124.00     0.00     8.00     3.85    1.27    1.27    0.00   0.12  36.60
sdd               0.00     0.00 3142.00    0.00 12568.00     0.00     8.00     4.11    1.31    1.31    0.00   0.12  38.80
md0               0.00     0.00 9066.00    0.00 36264.00     0.00     8.00     0.00    0.00    0.00    0.00   0.00   0.00

avg-cpu:  %user   %nice %system %iowait  %steal   %idle
           0.06    0.00    2.34   26.06    0.00   71.54

Device:         rrqm/s   wrqm/s     r/s     w/s    rkB/s    wkB/s avgrq-sz avgqu-sz   await r_await w_await  svctm  %util
nvme0n1           0.00     0.00    0.00    0.00     0.00     0.00     0.00     0.00    0.00    0.00    0.00   0.00   0.00
sda               0.00     0.00    0.00    0.00     0.00     0.00     0.00     0.00    0.00    0.00    0.00   0.00   0.00
sdc               0.00     0.00 2958.00    0.00 11832.00     0.00     8.00     4.03    1.37    1.37    0.00   0.12  36.40
sdb               0.00     0.00 3073.00    0.00 12304.00     0.00     8.01     3.91    1.25    1.25    0.00   0.12  37.20
sdd               0.00     0.00 3018.00    0.00 12072.00     0.00     8.00     3.95    1.31    1.31    0.00   0.12  37.30
md0               0.00     0.00 9051.00    0.00 36204.00     0.00     8.00     0.00    0.00    0.00    0.00   0.00   0.00

avg-cpu:  %user   %nice %system %iowait  %steal   %idle
           0.16    0.00    2.14   24.10    0.00   73.60

Device:         rrqm/s   wrqm/s     r/s     w/s    rkB/s    wkB/s avgrq-sz avgqu-sz   await r_await w_await  svctm  %util
nvme0n1           0.00     0.00    0.00    0.00     0.00     0.00     0.00     0.00    0.00    0.00    0.00   0.00   0.00
sda               0.00     0.00    0.00    0.00     0.00     0.00     0.00     0.00    0.00    0.00    0.00   0.00   0.00
sdc               0.00     0.00 2641.00    0.00 10564.00     0.00     8.00     3.95    1.49    1.49    0.00   0.14  37.30
sdb               0.00     0.00 2698.00    0.00 10780.00     0.00     7.99     3.80    1.43    1.43    0.00   0.13  35.90
sdd               0.00     0.00 2815.00    0.00 11260.00     0.00     8.00     3.72    1.32    1.32    0.00   0.12  34.90
md0               0.00     0.00 8137.00    0.00 32548.00     0.00     8.00     0.00    0.00    0.00    0.00   0.00   0.00

avg-cpu:  %user   %nice %system %iowait  %steal   %idle
           0.13    0.00    2.34   24.79    0.00   72.75

Device:         rrqm/s   wrqm/s     r/s     w/s    rkB/s    wkB/s avgrq-sz avgqu-sz   await r_await w_await  svctm  %util
nvme0n1           0.00     0.00    0.00    0.00     0.00     0.00     0.00     0.00    0.00    0.00    0.00   0.00   0.00
sda               0.00     2.00    0.00    2.00     0.00    32.00    32.00     0.00    0.00    0.00    0.00   0.00   0.00
sdc               0.00     0.00 3113.00    0.00 12452.00     0.00     8.00     3.88    1.25    1.25    0.00   0.12  36.00
sdb               0.00     0.00 2930.00    0.00 11720.00     0.00     8.00     4.29    1.46    1.46    0.00   0.13  37.80
sdd               0.00     0.00 2952.00    0.00 11808.00     0.00     8.00     3.66    1.24    1.24    0.00   0.11  33.80
md0               0.00     0.00 9010.00    0.00 36040.00     0.00     8.00     0.00    0.00    0.00    0.00   0.00   0.00

avg-cpu:  %user   %nice %system %iowait  %steal   %idle
           0.09    0.00    2.05   24.53    0.00   73.32

Device:         rrqm/s   wrqm/s     r/s     w/s    rkB/s    wkB/s avgrq-sz avgqu-sz   await r_await w_await  svctm  %util
nvme0n1           0.00     0.00    0.00    0.00     0.00     0.00     0.00     0.00    0.00    0.00    0.00   0.00   0.00
sda               0.00     0.00    0.00    0.00     0.00     0.00     0.00     0.00    0.00    0.00    0.00   0.00   0.00
sdc               0.00     0.00 2683.00    0.00 10736.00     0.00     8.00     3.52    1.31    1.31    0.00   0.12  32.90
sdb               0.00     0.00 2780.00    0.00 11120.00     0.00     8.00     4.19    1.51    1.51    0.00   0.14  39.30
sdd               0.00     0.00 2841.00    0.00 11364.00     0.00     8.00     3.84    1.36    1.36    0.00   0.13  35.90
md0               0.00     0.00 8302.00    0.00 33208.00     0.00     8.00     0.00    0.00    0.00    0.00   0.00   0.00

avg-cpu:  %user   %nice %system %iowait  %steal   %idle
           0.13    0.00    2.59   24.29    0.00   73.00

Device:         rrqm/s   wrqm/s     r/s     w/s    rkB/s    wkB/s avgrq-sz avgqu-sz   await r_await w_await  svctm  %util
nvme0n1           0.00     0.00    0.00    0.00     0.00     0.00     0.00     0.00    0.00    0.00    0.00   0.00   0.00
sda               0.00     3.00    0.00    2.00     0.00    20.00    20.00     0.00    0.00    0.00    0.00   0.00   0.00
sdc               0.00     0.00 3094.00    0.00 12372.00     0.00     8.00     3.65    1.18    1.18    0.00   0.11  35.30
sdb               0.00     0.00 3260.00    0.00 13040.00     0.00     8.00     4.20    1.29    1.29    0.00   0.12  38.90
sdd               0.00     0.00 3006.00    0.00 12024.00     0.00     8.00     3.95    1.32    1.32    0.00   0.12  35.80
md0               0.00     0.00 9362.00    0.00 37448.00     0.00     8.00     0.00    0.00    0.00    0.00   0.00   0.00

avg-cpu:  %user   %nice %system %iowait  %steal   %idle
           0.16    0.00    2.39   24.35    0.00   73.10

Device:         rrqm/s   wrqm/s     r/s     w/s    rkB/s    wkB/s avgrq-sz avgqu-sz   await r_await w_await  svctm  %util
nvme0n1           0.00     0.00    0.00    0.00     0.00     0.00     0.00     0.00    0.00    0.00    0.00   0.00   0.00
sda               0.00     0.00    0.00    0.00     0.00     0.00     0.00     0.00    0.00    0.00    0.00   0.00   0.00
sdc               0.00     0.00 3049.00    0.00 12196.00     0.00     8.00     4.05    1.32    1.32    0.00   0.13  38.60
sdb               0.00     0.00 2820.00    0.00 11280.00     0.00     8.00     3.68    1.31    1.31    0.00   0.12  32.60
sdd               0.00     0.00 2835.00    0.00 11340.00     0.00     8.00     3.80    1.35    1.35    0.00   0.12  35.40
md0               0.00     0.00 8704.00    0.00 34816.00     0.00     8.00     0.00    0.00    0.00    0.00   0.00   0.00

avg-cpu:  %user   %nice %system %iowait  %steal   %idle
           0.13    0.00    2.58   23.72    0.00   73.57

Device:         rrqm/s   wrqm/s     r/s     w/s    rkB/s    wkB/s avgrq-sz avgqu-sz   await r_await w_await  svctm  %util
nvme0n1           0.00     0.00    0.00    0.00     0.00     0.00     0.00     0.00    0.00    0.00    0.00   0.00   0.00
sda               0.00     0.00    0.00    0.00     0.00     0.00     0.00     0.00    0.00    0.00    0.00   0.00   0.00
sdc               0.00     0.00 2951.00    0.00 11804.00     0.00     8.00     3.71    1.27    1.27    0.00   0.12  35.20
sdb               0.00     0.00 2991.00    0.00 11964.00     0.00     8.00     3.95    1.32    1.32    0.00   0.13  39.80
sdd               0.00     0.00 3085.00    0.00 12340.00     0.00     8.00     3.72    1.21    1.21    0.00   0.12  35.90
md0               0.00     0.00 9027.00    0.00 36108.00     0.00     8.00     0.00    0.00    0.00    0.00   0.00   0.00

avg-cpu:  %user   %nice %system %iowait  %steal   %idle
           0.09    0.00    2.58   24.29    0.00   73.03

Device:         rrqm/s   wrqm/s     r/s     w/s    rkB/s    wkB/s avgrq-sz avgqu-sz   await r_await w_await  svctm  %util
nvme0n1           0.00     0.00    0.00    0.00     0.00     0.00     0.00     0.00    0.00    0.00    0.00   0.00   0.00
sda               0.00     0.00    0.00    0.00     0.00     0.00     0.00     0.00    0.00    0.00    0.00   0.00   0.00
sdc               0.00     0.00 2886.00    0.00 11544.00     0.00     8.00     3.92    1.28    1.28    0.00   0.13  37.70
sdb               0.00     0.00 3136.00    0.00 12544.00     0.00     8.00     3.77    1.21    1.21    0.00   0.11  34.20
sdd               0.00     0.00 2965.00    0.00 11860.00     0.00     8.00     3.86    1.30    1.30    0.00   0.13  37.10
md0               0.00     0.00 8987.00    0.00 35948.00     0.00     8.00     0.00    0.00    0.00    0.00   0.00   0.00

