Linux 4.17.2 (bench2) 	08/03/2018 	_x86_64_	(32 CPU)

avg-cpu:  %user   %nice %system %iowait  %steal   %idle
           1.90    0.00    1.55    1.59    0.00   94.96

Device:         rrqm/s   wrqm/s     r/s     w/s    rkB/s    wkB/s avgrq-sz avgqu-sz   await r_await w_await  svctm  %util
nvme0n1         934.58     5.08 18840.71  518.74 105387.05 11699.20    12.10     1.34    0.05    0.03    0.67   0.02  39.44
sda               0.12     0.82   14.17    0.58   164.01     8.53    23.40     0.00    0.33    0.32    0.44   0.07   0.10
sdc              34.25     0.17  120.68    0.31  1816.22    97.12    31.63     0.08    0.65   12.34  380.35   0.91  10.98
sdb              32.22     0.19  122.67    0.33  1814.25    96.94    31.08     0.51    4.14    3.05  411.64   0.85  10.43
sdd              34.45     0.17  120.23    0.26  1812.24    96.61    31.69     0.82    6.84    4.89  907.87   0.91  10.98
md0               0.00     0.00  467.33    1.21  6747.77   350.49    30.30     0.00    0.00    0.00    0.00   0.00   0.00

avg-cpu:  %user   %nice %system %iowait  %steal   %idle
           0.01    0.00    0.07    8.39    0.00   91.53

Device:         rrqm/s   wrqm/s     r/s     w/s    rkB/s    wkB/s avgrq-sz avgqu-sz   await r_await w_await  svctm  %util
nvme0n1           0.00     0.00    0.00    0.00     0.00     0.00     0.00     0.00    0.00    0.00    0.00   0.00   0.00
sda               0.00     1.75    0.25    1.00     5.40    13.00    29.44     0.00    0.12    0.40    0.05   0.12   0.01
sdc               0.00     0.00  187.35    0.00   822.20     0.00     8.78     3.99   21.24   21.24    0.00   4.61  86.32
sdb               0.00     0.00  188.05    0.00   817.00     0.00     8.69     3.76   19.97   19.97    0.00   4.47  84.13
sdd               0.00     0.00  191.80    0.00   821.60     0.00     8.57     3.99   20.79   20.79    0.00   4.45  85.33
md0               0.00     0.00  567.60    0.00  2476.00     0.00     8.72     0.00    0.00    0.00    0.00   0.00   0.00

