Linux 4.17.2 (bench2) 	08/03/2018 	_x86_64_	(32 CPU)

avg-cpu:  %user   %nice %system %iowait  %steal   %idle
           1.91    0.00    1.56    1.55    0.00   94.97

Device:         rrqm/s   wrqm/s     r/s     w/s    rkB/s    wkB/s avgrq-sz avgqu-sz   await r_await w_await  svctm  %util
nvme0n1         945.59     5.14 19062.62  524.85 106628.33 11837.00    12.10     1.36    0.05    0.03    0.67   0.02  39.91
sda               0.11     0.81   14.15    0.58   163.96     8.51    23.43     0.00    0.33    0.32    0.45   0.07   0.10
sdc              33.46     0.18  113.28    0.31  1698.62    98.26    31.64     0.00    0.03   12.63  380.35   0.92  10.49
sdb              31.40     0.19  115.30    0.33  1696.73    98.08    31.04     0.44    3.82    2.64  411.64   0.86   9.97
sdd              33.66     0.17  112.82    0.26  1694.63    97.75    31.70     0.76    6.71    4.61  907.87   0.93  10.49
md0               0.00     0.00  442.77    1.22  6289.14   354.62    29.93     0.00    0.00    0.00    0.00   0.00   0.00

avg-cpu:  %user   %nice %system %iowait  %steal   %idle
           0.03    0.00    0.09    2.94    0.00   96.94

Device:         rrqm/s   wrqm/s     r/s     w/s    rkB/s    wkB/s avgrq-sz avgqu-sz   await r_await w_await  svctm  %util
nvme0n1           0.00     0.00    0.00    0.00     0.00     0.00     0.00     0.00    0.00    0.00    0.00   0.00   0.00
sda               0.00     0.00    4.00    0.00   104.00     0.00    52.00     0.00    0.50    0.50    0.00   0.50   0.20
sdc               0.00     0.00  186.00    0.00  2940.00     0.00    31.61     0.25    1.32    1.32    0.00   1.26  23.50
sdb               0.00     0.00  188.00    0.00  2500.00     0.00    26.60     0.29    1.53    1.53    0.00   1.48  27.80
sdd               0.00     0.00  192.00    0.00  3216.00     0.00    33.50     0.48    2.52    2.52    0.00   2.42  46.50
md0               0.00     0.00  567.00    0.00  9648.00     0.00    34.03     0.00    0.00    0.00    0.00   0.00   0.00

avg-cpu:  %user   %nice %system %iowait  %steal   %idle
           0.00    0.00    0.06    2.97    0.00   96.96

Device:         rrqm/s   wrqm/s     r/s     w/s    rkB/s    wkB/s avgrq-sz avgqu-sz   await r_await w_await  svctm  %util
nvme0n1           0.00     0.00    0.00    0.00     0.00     0.00     0.00     0.00    0.00    0.00    0.00   0.00   0.00
sda               0.00     0.00    0.00    0.00     0.00     0.00     0.00     0.00    0.00    0.00    0.00   0.00   0.00
sdc               1.00     0.00  195.00    0.00  3132.00     0.00    32.12     0.31    1.58    1.58    0.00   1.54  30.00
sdb               0.00     0.00  174.00    0.00  2976.00     0.00    34.21     0.43    2.49    2.49    0.00   2.34  40.70
sdd               0.00     0.00  198.00    0.00  3708.00     0.00    37.45     0.29    1.47    1.47    0.00   1.42  28.10
md0               0.00     0.00  568.00    0.00 10416.00     0.00    36.68     0.00    0.00    0.00    0.00   0.00   0.00

avg-cpu:  %user   %nice %system %iowait  %steal   %idle
           0.03    0.00    0.12    2.97    0.00   96.88

Device:         rrqm/s   wrqm/s     r/s     w/s    rkB/s    wkB/s avgrq-sz avgqu-sz   await r_await w_await  svctm  %util
nvme0n1           0.00     0.00    0.00    0.00     0.00     0.00     0.00     0.00    0.00    0.00    0.00   0.00   0.00
sda               0.00     0.00    0.00    0.00     0.00     0.00     0.00     0.00    0.00    0.00    0.00   0.00   0.00
sdc               1.00     0.00  184.00    0.00  2528.00     0.00    27.48     0.19    1.04    1.04    0.00   1.03  18.90
sdb               1.00     0.00  209.00    0.00  4064.00     0.00    38.89     0.55    2.63    2.63    0.00   2.56  53.50
sdd               1.00     0.00  235.00    0.00  4984.00     0.00    42.42     0.27    1.17    1.17    0.00   1.12  26.30
md0               0.00     0.00  631.00    0.00 13268.00     0.00    42.05     0.00    0.00    0.00    0.00   0.00   0.00

avg-cpu:  %user   %nice %system %iowait  %steal   %idle
           0.03    0.00    0.06    2.97    0.00   96.93

Device:         rrqm/s   wrqm/s     r/s     w/s    rkB/s    wkB/s avgrq-sz avgqu-sz   await r_await w_await  svctm  %util
nvme0n1           0.00     0.00    0.00    0.00     0.00     0.00     0.00     0.00    0.00    0.00    0.00   0.00   0.00
sda               0.00    13.00    0.00    2.00     0.00    60.00    60.00     0.00    0.00    0.00    0.00   0.00   0.00
sdc               0.00     0.00  192.00    0.00  2796.00     0.00    29.12     0.28    1.46    1.46    0.00   1.43  27.40
sdb               0.00     0.00  218.00    0.00  3060.00     0.00    28.07     0.45    2.07    2.07    0.00   2.06  44.80
sdd               0.00     0.00  173.00    0.00  2716.00     0.00    31.40     0.27    1.56    1.56    0.00   1.52  26.30
md0               0.00     0.00  583.00    0.00  9608.00     0.00    32.96     0.00    0.00    0.00    0.00   0.00   0.00

avg-cpu:  %user   %nice %system %iowait  %steal   %idle
           0.03    0.00    0.06    2.94    0.00   96.97

Device:         rrqm/s   wrqm/s     r/s     w/s    rkB/s    wkB/s avgrq-sz avgqu-sz   await r_await w_await  svctm  %util
nvme0n1           0.00     0.00    0.00    0.00     0.00     0.00     0.00     0.00    0.00    0.00    0.00   0.00   0.00
sda               0.00     0.00    0.00    0.00     0.00     0.00     0.00     0.00    0.00    0.00    0.00   0.00   0.00
sdc               0.00     0.00  215.00    0.00  2564.00     0.00    23.85     0.21    0.95    0.95    0.00   0.95  20.50
sdb               0.00     0.00  192.00    0.00  3604.00     0.00    37.54     0.30    1.59    1.59    0.00   1.55  29.70
sdd               0.00     0.00  228.00    0.00  3416.00     0.00    29.96     0.49    2.14    2.14    0.00   2.08  47.40
md0               0.00     0.00  635.00    0.00 10456.00     0.00    32.93     0.00    0.00    0.00    0.00   0.00   0.00

avg-cpu:  %user   %nice %system %iowait  %steal   %idle
           0.00    0.00    0.06    3.00    0.00   96.94

Device:         rrqm/s   wrqm/s     r/s     w/s    rkB/s    wkB/s avgrq-sz avgqu-sz   await r_await w_await  svctm  %util
nvme0n1           0.00     0.00    0.00    0.00     0.00     0.00     0.00     0.00    0.00    0.00    0.00   0.00   0.00
sda               0.00     0.00    0.00    0.00     0.00     0.00     0.00     0.00    0.00    0.00    0.00   0.00   0.00
sdc               1.00     0.00  168.00    0.00  2672.00     0.00    31.81     0.28    1.69    1.69    0.00   1.65  27.80
sdb               2.00     0.00  203.00    0.00  3952.00     0.00    38.94     0.28    1.37    1.37    0.00   1.35  27.40
sdd               1.00     0.00  176.00    0.00  3392.00     0.00    38.55     0.44    2.46    2.46    0.00   2.45  43.20
md0               0.00     0.00  551.00    0.00 12068.00     0.00    43.80     0.00    0.00    0.00    0.00   0.00   0.00

avg-cpu:  %user   %nice %system %iowait  %steal   %idle
           0.03    0.00    0.13    2.94    0.00   96.90

Device:         rrqm/s   wrqm/s     r/s     w/s    rkB/s    wkB/s avgrq-sz avgqu-sz   await r_await w_await  svctm  %util
nvme0n1           0.00     0.00    0.00    0.00     0.00     0.00     0.00     0.00    0.00    0.00    0.00   0.00   0.00
sda               0.00     2.00    1.00    4.00     4.00    28.00    12.80     0.00    0.00    0.00    0.00   0.00   0.00
sdc               0.00     0.00  211.00    0.00  3604.00     0.00    34.16     0.35    1.68    1.68    0.00   1.64  34.60
sdb               0.00     0.00  185.00    0.00  2408.00     0.00    26.03     0.30    1.62    1.62    0.00   1.59  29.40
sdd               0.00     0.00  193.00    0.00  3044.00     0.00    31.54     0.35    1.87    1.87    0.00   1.75  33.80
md0               0.00     0.00  589.00    0.00 10008.00     0.00    33.98     0.00    0.00    0.00    0.00   0.00   0.00

avg-cpu:  %user   %nice %system %iowait  %steal   %idle
           0.03    0.00    0.06    2.97    0.00   96.94

Device:         rrqm/s   wrqm/s     r/s     w/s    rkB/s    wkB/s avgrq-sz avgqu-sz   await r_await w_await  svctm  %util
nvme0n1           0.00     0.00    0.00    0.00     0.00     0.00     0.00     0.00    0.00    0.00    0.00   0.00   0.00
sda               0.00     0.00    0.00    0.00     0.00     0.00     0.00     0.00    0.00    0.00    0.00   0.00   0.00
sdc               0.00     0.00  199.00    0.00  3520.00     0.00    35.38     0.35    1.75    1.75    0.00   1.68  33.50
sdb               0.00     0.00  185.00    0.00  3108.00     0.00    33.60     0.16    0.89    0.89    0.00   0.84  15.60
sdd               0.00     0.00  228.00    0.00  3688.00     0.00    32.35     0.51    2.25    2.25    0.00   2.19  49.90
md0               0.00     0.00  612.00    0.00 11116.00     0.00    36.33     0.00    0.00    0.00    0.00   0.00   0.00

avg-cpu:  %user   %nice %system %iowait  %steal   %idle
           0.00    0.00    0.13    2.94    0.00   96.94

Device:         rrqm/s   wrqm/s     r/s     w/s    rkB/s    wkB/s avgrq-sz avgqu-sz   await r_await w_await  svctm  %util
nvme0n1           0.00     0.00    0.00    0.00     0.00     0.00     0.00     0.00    0.00    0.00    0.00   0.00   0.00
sda               0.00     6.00    0.00    2.00     0.00    32.00    32.00     0.00    0.50    0.00    0.50   0.50   0.10
sdc               0.00     0.00  189.00    0.00  2736.00     0.00    28.95     0.34    1.82    1.82    0.00   1.78  33.70
sdb               0.00     0.00  218.00    0.00  2712.00     0.00    24.88     0.37    1.68    1.68    0.00   1.64  35.70
sdd               0.00     0.00  230.00    0.00  3692.00     0.00    32.10     0.30    1.29    1.29    0.00   1.24  28.50
md0               0.00     0.00  637.00    0.00  9648.00     0.00    30.29     0.00    0.00    0.00    0.00   0.00   0.00

avg-cpu:  %user   %nice %system %iowait  %steal   %idle
           0.03    0.00    0.09    2.97    0.00   96.90

Device:         rrqm/s   wrqm/s     r/s     w/s    rkB/s    wkB/s avgrq-sz avgqu-sz   await r_await w_await  svctm  %util
nvme0n1           0.00     0.00    0.00    0.00     0.00     0.00     0.00     0.00    0.00    0.00    0.00   0.00   0.00
sda               0.00     0.00    0.00    0.00     0.00     0.00     0.00     0.00    0.00    0.00    0.00   0.00   0.00
sdc               1.00     0.00  239.00    0.00  5460.00     0.00    45.69     0.41    1.72    1.72    0.00   1.64  39.20
sdb               1.00     0.00  204.00    0.00  2748.00     0.00    26.94     0.34    1.68    1.68    0.00   1.65  33.70
sdd               2.00     0.00  194.00    0.00  3400.00     0.00    35.05     0.26    1.34    1.34    0.00   1.30  25.20
md0               0.00     0.00  641.00    0.00 13440.00     0.00    41.93     0.00    0.00    0.00    0.00   0.00   0.00

avg-cpu:  %user   %nice %system %iowait  %steal   %idle
           0.00    0.00    0.09    2.97    0.00   96.94

Device:         rrqm/s   wrqm/s     r/s     w/s    rkB/s    wkB/s avgrq-sz avgqu-sz   await r_await w_await  svctm  %util
nvme0n1           0.00     0.00    0.00    0.00     0.00     0.00     0.00     0.00    0.00    0.00    0.00   0.00   0.00
sda               0.00     0.00    0.00    0.00     0.00     0.00     0.00     0.00    0.00    0.00    0.00   0.00   0.00
sdc               0.00     0.00  161.00    0.00  2392.00     0.00    29.71     0.57    3.52    3.52    0.00   2.98  47.90
sdb               0.00     0.00  228.00    0.00  3212.00     0.00    28.18     0.17    0.73    0.73    0.00   0.71  16.30
sdd               0.00     0.00  180.00    0.00  2080.00     0.00    23.11     0.35    1.93    1.93    0.00   1.91  34.30
md0               0.00     0.00  569.00    0.00  8228.00     0.00    28.92     0.00    0.00    0.00    0.00   0.00   0.00

avg-cpu:  %user   %nice %system %iowait  %steal   %idle
           0.00    0.00    0.09    2.97    0.00   96.93

Device:         rrqm/s   wrqm/s     r/s     w/s    rkB/s    wkB/s avgrq-sz avgqu-sz   await r_await w_await  svctm  %util
nvme0n1           0.00     0.00    0.00    0.00     0.00     0.00     0.00     0.00    0.00    0.00    0.00   0.00   0.00
sda               0.00     6.00    0.00   17.00     0.00   108.00    12.71     0.00    0.00    0.00    0.00   0.00   0.00
sdc               0.00     0.00  183.00    0.00  2608.00     0.00    28.50     0.35    1.97    1.97    0.00   1.92  35.20
sdb               1.00     0.00  206.00    0.00  3000.00     0.00    29.13     0.33    1.56    1.56    0.00   1.56  32.10
sdd               0.00     0.00  175.00    0.00  1904.00     0.00    21.76     0.31    1.79    1.79    0.00   1.76  30.80
md0               0.00     0.00  565.00    0.00  8604.00     0.00    30.46     0.00    0.00    0.00    0.00   0.00   0.00

avg-cpu:  %user   %nice %system %iowait  %steal   %idle
           0.03    0.00    0.06    2.97    0.00   96.94

Device:         rrqm/s   wrqm/s     r/s     w/s    rkB/s    wkB/s avgrq-sz avgqu-sz   await r_await w_await  svctm  %util
nvme0n1           0.00     0.00    0.00    0.00     0.00     0.00     0.00     0.00    0.00    0.00    0.00   0.00   0.00
sda               0.00     0.00    0.00    0.00     0.00     0.00     0.00     0.00    0.00    0.00    0.00   0.00   0.00
sdc               0.00     0.00  216.00    0.00  4536.00     0.00    42.00     0.36    1.67    1.67    0.00   1.57  33.90
sdb               1.00     0.00  187.00    0.00  3116.00     0.00    33.33     0.19    1.03    1.03    0.00   0.99  18.50
sdd               1.00     0.00  174.00    0.00  3116.00     0.00    35.82     0.48    2.74    2.74    0.00   2.72  47.30
md0               0.00     0.00  579.00    0.00 12164.00     0.00    42.02     0.00    0.00    0.00    0.00   0.00   0.00

avg-cpu:  %user   %nice %system %iowait  %steal   %idle
           0.03    0.00    0.09    2.97    0.00   96.91

Device:         rrqm/s   wrqm/s     r/s     w/s    rkB/s    wkB/s avgrq-sz avgqu-sz   await r_await w_await  svctm  %util
nvme0n1           0.00     0.00    0.00    0.00     0.00     0.00     0.00     0.00    0.00    0.00    0.00   0.00   0.00
sda               0.00     3.00    0.00    2.00     0.00    20.00    20.00     0.00    0.00    0.00    0.00   0.00   0.00
sdc               0.00     0.00  165.00    0.00  2240.00     0.00    27.15     0.31    1.87    1.87    0.00   1.84  30.40
sdb               0.00     0.00  216.00    0.00  3500.00     0.00    32.41     0.26    1.21    1.21    0.00   1.17  25.30
sdd               0.00     0.00  220.00    0.00  3436.00     0.00    31.24     0.43    1.96    1.96    0.00   1.92  42.20
md0               0.00     0.00  601.00    0.00 10136.00     0.00    33.73     0.00    0.00    0.00    0.00   0.00   0.00

avg-cpu:  %user   %nice %system %iowait  %steal   %idle
           0.03    0.00    0.09    2.94    0.00   96.93

Device:         rrqm/s   wrqm/s     r/s     w/s    rkB/s    wkB/s avgrq-sz avgqu-sz   await r_await w_await  svctm  %util
nvme0n1           0.00     0.00    0.00    0.00     0.00     0.00     0.00     0.00    0.00    0.00    0.00   0.00   0.00
sda               0.00     0.00    0.00    0.00     0.00     0.00     0.00     0.00    0.00    0.00    0.00   0.00   0.00
sdc               0.00     0.00  200.00    0.00  3172.00     0.00    31.72     0.26    1.28    1.28    0.00   1.26  25.30
sdb               0.00     0.00  183.00    0.00  2268.00     0.00    24.79     0.45    2.44    2.44    0.00   2.43  44.50
sdd               1.00     0.00  201.00    0.00  2720.00     0.00    27.06     0.28    1.42    1.42    0.00   1.37  27.60
md0               0.00     0.00  585.00    0.00  9252.00     0.00    31.63     0.00    0.00    0.00    0.00   0.00   0.00

avg-cpu:  %user   %nice %system %iowait  %steal   %idle
           0.00    0.00    0.09    2.97    0.00   96.93

Device:         rrqm/s   wrqm/s     r/s     w/s    rkB/s    wkB/s avgrq-sz avgqu-sz   await r_await w_await  svctm  %util
nvme0n1           0.00     0.00    0.00    0.00     0.00     0.00     0.00     0.00    0.00    0.00    0.00   0.00   0.00
sda               0.00     0.00    0.00    0.00     0.00     0.00     0.00     0.00    0.00    0.00    0.00   0.00   0.00
sdc               0.00     0.00  214.00    0.00  2552.00     0.00    23.85     0.23    1.08    1.08    0.00   1.08  23.10
sdb               0.00     0.00  245.00    0.00  3980.00     0.00    32.49     0.37    1.52    1.52    0.00   1.48  36.20
sdd               0.00     0.00  214.00    0.00  3480.00     0.00    32.52     0.41    1.91    1.91    0.00   1.86  39.80
md0               0.00     0.00  673.00    0.00 10752.00     0.00    31.95     0.00    0.00    0.00    0.00   0.00   0.00

avg-cpu:  %user   %nice %system %iowait  %steal   %idle
           0.03    0.00    0.09    3.00    0.00   96.87

Device:         rrqm/s   wrqm/s     r/s     w/s    rkB/s    wkB/s avgrq-sz avgqu-sz   await r_await w_await  svctm  %util
nvme0n1           0.00     0.00    0.00    0.00     0.00     0.00     0.00     0.00    0.00    0.00    0.00   0.00   0.00
sda               0.00     1.00    0.00    1.00     0.00    32.00    64.00     0.00    0.00    0.00    0.00   0.00   0.00
sdc               0.00     0.00  213.00    0.00  3224.00     0.00    30.27     0.33    1.54    1.54    0.00   1.50  32.00
sdb               0.00     0.00  197.00    0.00  3316.00     0.00    33.66     0.45    2.27    2.27    0.00   2.25  44.40
sdd               0.00     0.00  219.00    0.00  2648.00     0.00    24.18     0.23    1.05    1.05    0.00   1.02  22.30
md0               0.00     0.00  629.00    0.00 10180.00     0.00    32.37     0.00    0.00    0.00    0.00   0.00   0.00

avg-cpu:  %user   %nice %system %iowait  %steal   %idle
           0.00    0.00    0.16    2.94    0.00   96.91

Device:         rrqm/s   wrqm/s     r/s     w/s    rkB/s    wkB/s avgrq-sz avgqu-sz   await r_await w_await  svctm  %util
nvme0n1           0.00     0.00    0.00    0.00     0.00     0.00     0.00     0.00    0.00    0.00    0.00   0.00   0.00
sda               0.00     0.00    0.00    0.00     0.00     0.00     0.00     0.00    0.00    0.00    0.00   0.00   0.00
sdc               1.00     0.00  200.00    0.00  4688.00     0.00    46.88     0.24    1.19    1.19    0.00   1.15  23.00
sdb               1.00     0.00  211.00    0.00  3044.00     0.00    28.85     0.41    1.92    1.92    0.00   1.89  39.90
sdd               2.00     0.00  191.00    0.00  4140.00     0.00    43.35     0.38    1.97    1.97    0.00   1.92  36.70
md0               0.00     0.00  605.00    0.00 12908.00     0.00    42.67     0.00    0.00    0.00    0.00   0.00   0.00

avg-cpu:  %user   %nice %system %iowait  %steal   %idle
           0.03    0.00    0.09    2.97    0.00   96.91

Device:         rrqm/s   wrqm/s     r/s     w/s    rkB/s    wkB/s avgrq-sz avgqu-sz   await r_await w_await  svctm  %util
nvme0n1           0.00     0.00    0.00    0.00     0.00     0.00     0.00     0.00    0.00    0.00    0.00   0.00   0.00
sda               0.00     5.00    0.00    2.00     0.00    28.00    28.00     0.00    0.00    0.00    0.00   0.00   0.00
sdc               0.00     0.00  207.00    0.00  3480.00     0.00    33.62     0.43    2.05    2.05    0.00   2.06  42.60
sdb               0.00     0.00  205.00    0.00  2588.00     0.00    25.25     0.23    1.11    1.11    0.00   1.11  22.70
sdd               1.00     0.00  179.00    0.00  3604.00     0.00    40.27     0.33    1.85    1.85    0.00   1.83  32.70
md0               0.00     0.00  593.00    0.00 11184.00     0.00    37.72     0.00    0.00    0.00    0.00   0.00   0.00

avg-cpu:  %user   %nice %system %iowait  %steal   %idle
           0.00    0.00    0.13    2.97    0.00   96.90

Device:         rrqm/s   wrqm/s     r/s     w/s    rkB/s    wkB/s avgrq-sz avgqu-sz   await r_await w_await  svctm  %util
nvme0n1           0.00     0.00    0.00    0.00     0.00     0.00     0.00     0.00    0.00    0.00    0.00   0.00   0.00
sda               0.00     0.00    0.00    0.00     0.00     0.00     0.00     0.00    0.00    0.00    0.00   0.00   0.00
sdc               1.00     0.00  182.00    0.00  3344.00     0.00    36.75     0.21    1.21    1.21    0.00   1.13  20.60
sdb               0.00     0.00  236.00    0.00  3560.00     0.00    30.17     0.38    1.61    1.61    0.00   1.58  37.40
sdd               1.00     0.00  222.00    0.00  3844.00     0.00    34.63     0.45    2.02    2.02    0.00   1.90  42.10
md0               0.00     0.00  642.00    0.00 11496.00     0.00    35.81     0.00    0.00    0.00    0.00   0.00   0.00

