Linux 4.17.2 (bench2) 	08/03/2018 	_x86_64_	(32 CPU)

avg-cpu:  %user   %nice %system %iowait  %steal   %idle
           1.91    0.00    1.56    1.55    0.00   94.98

Device:         rrqm/s   wrqm/s     r/s     w/s    rkB/s    wkB/s avgrq-sz avgqu-sz   await r_await w_await  svctm  %util
nvme0n1         943.90     5.13 19028.68  523.92 106438.50 11815.93    12.10     1.35    0.05    0.03    0.67   0.02  39.83
sda               0.12     0.81   14.15    0.58   163.96     8.52    23.43     0.00    0.33    0.32    0.44   0.07   0.10
sdc              33.43     0.18  114.28    0.31  1720.62    98.08    31.74     0.01    0.07   12.54  380.35   0.92  10.56
sdb              31.37     0.19  116.29    0.33  1718.71    97.91    31.15     0.45    3.82    2.65  411.64   0.86  10.04
sdd              33.62     0.17  113.82    0.26  1716.64    97.58    31.80     0.76    6.68    4.60  907.87   0.93  10.56
md0               0.00     0.00  445.67    1.22  6377.73   353.99    30.13     0.00    0.00    0.00    0.00   0.00   0.00

avg-cpu:  %user   %nice %system %iowait  %steal   %idle
           0.01    0.00    0.16   28.33    0.00   71.50

Device:         rrqm/s   wrqm/s     r/s     w/s    rkB/s    wkB/s avgrq-sz avgqu-sz   await r_await w_await  svctm  %util
nvme0n1           0.00     0.00    0.00    0.00     0.00     0.00     0.00     0.00    0.00    0.00    0.00   0.00   0.00
sda               0.00     0.85    3.65    0.40    29.60     5.80    17.48     0.00    0.40    0.42    0.12   0.09   0.04
sdc               0.50     0.00  257.05    0.00  2856.40     0.00    22.22     6.43   24.91   24.91    0.00   3.26  83.82
sdb               0.25     0.00  249.80    0.00  2605.00     0.00    20.86     5.68   22.75   22.75    0.00   3.20  80.05
sdd               0.20     0.00  255.15    0.00  2852.00     0.00    22.36     6.09   23.88   23.88    0.00   3.21  81.88
md0               0.00     0.00  763.75    0.00  9088.00     0.00    23.80     0.00    0.00    0.00    0.00   0.00   0.00

