Linux 4.17.2 (bench2) 	08/04/2018 	_x86_64_	(32 CPU)

avg-cpu:  %user   %nice %system %iowait  %steal   %idle
           1.88    0.00    1.54    1.66    0.00   94.92

Device:         rrqm/s   wrqm/s     r/s     w/s    rkB/s    wkB/s avgrq-sz avgqu-sz   await r_await w_await  svctm  %util
nvme0n1         940.06     4.98 18894.08  508.84 105331.52 11485.53    12.04     1.33    0.05    0.03    0.68   0.02  38.99
sda               0.12     0.82   14.22    0.59   164.25     8.58    23.35     0.00    0.33    0.32    0.43   0.07   0.10
sdc              35.40     0.17  130.18    0.30  1929.57    95.49    31.04     0.20    1.55    0.66  381.84   0.89  11.58
sdb              33.41     0.18  132.14    0.32  1927.71    95.32    30.54     0.62    4.71    3.71  413.03   0.83  11.03
sdd              35.60     0.16  129.74    0.26  1925.71    95.00    31.09     0.94    7.21    5.44  909.23   0.89  11.63
md0               0.00     0.00  499.26    1.18  7163.81   344.47    30.01     0.00    0.00    0.00    0.00   0.00   0.00

avg-cpu:  %user   %nice %system %iowait  %steal   %idle
           0.16    0.00    1.53    1.23    0.00   97.07

Device:         rrqm/s   wrqm/s     r/s     w/s    rkB/s    wkB/s avgrq-sz avgqu-sz   await r_await w_await  svctm  %util
nvme0n1         795.60     0.00 53278.65    0.00 721293.00     0.00    27.08     1.30    0.02    0.02    0.00   0.02 100.00
sda               0.00     1.55    0.25    1.05     5.40    12.40    27.38     0.00    0.04    0.20    0.00   0.04   0.01
sdc               0.00     0.00    0.00    0.00     0.00     0.00     0.00     0.00    0.00    0.00    0.00   0.00   0.00
sdb               0.00     0.00    0.00    0.00     0.00     0.00     0.00     0.00    0.00    0.00    0.00   0.00   0.00
sdd               0.00     0.00    0.00    0.00     0.00     0.00     0.00     0.00    0.00    0.00    0.00   0.00   0.00
md0               0.00     0.00    0.00    0.00     0.00     0.00     0.00     0.00    0.00    0.00    0.00   0.00   0.00

