Linux 4.17.2 (bench2) 	08/04/2018 	_x86_64_	(32 CPU)

avg-cpu:  %user   %nice %system %iowait  %steal   %idle
           1.88    0.00    1.58    1.67    0.00   94.87

Device:         rrqm/s   wrqm/s     r/s     w/s    rkB/s    wkB/s avgrq-sz avgqu-sz   await r_await w_await  svctm  %util
nvme0n1         976.55     4.92 19972.12  503.30 110986.41 11360.48    11.95     1.36    0.05    0.03    0.68   0.02  39.65
sda               0.12     0.83   14.26    0.59   164.44     8.59    23.30     0.00    0.33    0.32    0.42   0.07   0.10
sdc              35.02     0.17  128.77    0.30  1908.56    94.45    31.04     0.20    1.55    0.66  381.84   0.89  11.45
sdb              33.05     0.18  130.70    0.32  1906.73    94.28    30.54     0.62    4.71    3.71  413.03   0.83  10.91
sdd              35.21     0.16  128.32    0.25  1904.75    93.96    31.09     0.93    7.21    5.44  909.23   0.89  11.50
md0               0.00     0.00  493.83    1.17  7085.82   340.72    30.01     0.00    0.00    0.00    0.00   0.00   0.00

avg-cpu:  %user   %nice %system %iowait  %steal   %idle
           0.70    0.00    2.42    0.00    0.00   96.87

Device:         rrqm/s   wrqm/s     r/s     w/s    rkB/s    wkB/s avgrq-sz avgqu-sz   await r_await w_await  svctm  %util
nvme0n1           0.00     0.00 139298.45    0.00 557193.80     0.00     8.00     1.75    0.01    0.01    0.00   0.01  99.98
sda               0.00     0.80    0.20    1.60     5.20    10.40    17.33     0.00    0.03    0.00    0.03   0.03   0.01
sdc               0.00     0.00    0.00    0.00     0.00     0.00     0.00     0.00    0.00    0.00    0.00   0.00   0.00
sdb               0.00     0.00    0.00    0.00     0.00     0.00     0.00     0.00    0.00    0.00    0.00   0.00   0.00
sdd               0.00     0.00    0.00    0.00     0.00     0.00     0.00     0.00    0.00    0.00    0.00   0.00   0.00
md0               0.00     0.00    0.00    0.00     0.00     0.00     0.00     0.00    0.00    0.00    0.00   0.00   0.00

