Linux 4.17.2 (bench2) 	08/04/2018 	_x86_64_	(32 CPU)

avg-cpu:  %user   %nice %system %iowait  %steal   %idle
           1.88    0.00    1.55    1.67    0.00   94.90

Device:         rrqm/s   wrqm/s     r/s     w/s    rkB/s    wkB/s avgrq-sz avgqu-sz   await r_await w_await  svctm  %util
nvme0n1         960.01     4.96 19312.23  506.95 107411.38 11442.76    11.99     1.34    0.05    0.03    0.68   0.02  39.22
sda               0.12     0.83   14.24    0.59   164.35     8.58    23.33     0.00    0.33    0.32    0.43   0.07   0.10
sdc              35.27     0.17  129.70    0.30  1922.38    95.13    31.04     0.20    1.55    0.66  381.84   0.89  11.53
sdb              33.29     0.18  131.65    0.32  1920.54    94.96    30.54     0.62    4.71    3.71  413.03   0.83  10.99
sdd              35.46     0.16  129.25    0.25  1918.54    94.64    31.09     0.93    7.21    5.44  909.23   0.89  11.59
md0               0.00     0.00  497.40    1.18  7137.14   343.19    30.01     0.00    0.00    0.00    0.00   0.00   0.00

avg-cpu:  %user   %nice %system %iowait  %steal   %idle
           0.22    0.00    0.88    1.60    0.00   97.30

Device:         rrqm/s   wrqm/s     r/s     w/s    rkB/s    wkB/s avgrq-sz avgqu-sz   await r_await w_await  svctm  %util
nvme0n1           0.00     0.00 84361.00    0.00 337444.00     0.00     8.00     1.00    0.01    0.01    0.00   0.01 100.00
sda               0.00     0.00   20.00    0.00    84.00     0.00     8.40     0.00    0.05    0.05    0.00   0.05   0.10
sdc               0.00     0.00    0.00    0.00     0.00     0.00     0.00     0.00    0.00    0.00    0.00   0.00   0.00
sdb               0.00     0.00    0.00    0.00     0.00     0.00     0.00     0.00    0.00    0.00    0.00   0.00   0.00
sdd               0.00     0.00    0.00    0.00     0.00     0.00     0.00     0.00    0.00    0.00    0.00   0.00   0.00
md0               0.00     0.00    0.00    0.00     0.00     0.00     0.00     0.00    0.00    0.00    0.00   0.00   0.00

