Linux 4.17.2 (bench2) 	08/04/2018 	_x86_64_	(32 CPU)

avg-cpu:  %user   %nice %system %iowait  %steal   %idle
           1.88    0.00    1.56    1.67    0.00   94.90

Device:         rrqm/s   wrqm/s     r/s     w/s    rkB/s    wkB/s avgrq-sz avgqu-sz   await r_await w_await  svctm  %util
nvme0n1         958.81     4.95 19400.18  506.28 107981.26 11427.79    12.00     1.34    0.05    0.03    0.68   0.02  39.30
sda               0.12     0.83   14.24    0.59   164.37     8.59    23.32     0.00    0.33    0.32    0.43   0.07   0.10
sdc              35.22     0.17  129.53    0.30  1919.86    95.01    31.04     0.20    1.55    0.66  381.84   0.89  11.52
sdb              33.24     0.18  131.47    0.32  1918.02    94.84    30.54     0.62    4.71    3.71  413.03   0.83  10.98
sdd              35.42     0.16  129.09    0.25  1916.03    94.52    31.09     0.93    7.21    5.44  909.23   0.89  11.57
md0               0.00     0.00  496.75    1.18  7127.80   342.74    30.01     0.00    0.00    0.00    0.00   0.00   0.00

avg-cpu:  %user   %nice %system %iowait  %steal   %idle
           0.28    0.00    2.87    0.00    0.00   96.84

Device:         rrqm/s   wrqm/s     r/s     w/s    rkB/s    wkB/s avgrq-sz avgqu-sz   await r_await w_await  svctm  %util
nvme0n1           0.00     0.00 280640.00    0.00 1122564.00     0.00     8.00     2.38    0.01    0.01    0.00   0.00 100.00
sda               0.00     9.00    1.00    2.00     8.00    44.00    34.67     0.00    0.00    0.00    0.00   0.00   0.00
sdc               0.00     0.00    0.00    0.00     0.00     0.00     0.00     0.00    0.00    0.00    0.00   0.00   0.00
sdb               0.00     0.00    0.00    0.00     0.00     0.00     0.00     0.00    0.00    0.00    0.00   0.00   0.00
sdd               0.00     0.00    0.00    0.00     0.00     0.00     0.00     0.00    0.00    0.00    0.00   0.00   0.00
md0               0.00     0.00    0.00    0.00     0.00     0.00     0.00     0.00    0.00    0.00    0.00   0.00   0.00

