Linux 4.17.2 (bench2) 	08/04/2018 	_x86_64_	(32 CPU)

avg-cpu:  %user   %nice %system %iowait  %steal   %idle
           1.88    0.00    1.54    1.66    0.00   94.92

Device:         rrqm/s   wrqm/s     r/s     w/s    rkB/s    wkB/s avgrq-sz avgqu-sz   await r_await w_await  svctm  %util
nvme0n1         938.97     4.97 18987.84  508.22 105914.54 11471.54    12.04     1.33    0.05    0.03    0.68   0.02  39.06
sda               0.12     0.82   14.22    0.59   164.26     8.58    23.34     0.00    0.33    0.32    0.43   0.07   0.10
sdc              35.36     0.17  130.03    0.30  1927.21    95.37    31.04     0.20    1.55    0.66  381.84   0.89  11.56
sdb              33.37     0.18  131.98    0.32  1925.37    95.20    30.54     0.62    4.71    3.71  413.03   0.83  11.02
sdd              35.55     0.16  129.58    0.25  1923.37    94.88    31.09     0.94    7.21    5.44  909.23   0.89  11.62
md0               0.00     0.00  498.65    1.18  7155.09   344.05    30.01     0.00    0.00    0.00    0.00   0.00   0.00

avg-cpu:  %user   %nice %system %iowait  %steal   %idle
           2.52    0.00    1.54    1.07    0.00   94.87

Device:         rrqm/s   wrqm/s     r/s     w/s    rkB/s    wkB/s avgrq-sz avgqu-sz   await r_await w_await  svctm  %util
nvme0n1           0.00     0.00 55259.50    0.00 254790.20     0.00     9.22     1.02    0.01    0.01    0.00   0.02  99.99
sda               0.00     1.00    3.90    1.05    30.60     9.00    16.00     0.00    0.04    0.05    0.00   0.03   0.01
sdc               0.00     0.00    0.00    0.00     0.00     0.00     0.00     0.00    0.00    0.00    0.00   0.00   0.00
sdb               0.00     0.00    0.00    0.00     0.00     0.00     0.00     0.00    0.00    0.00    0.00   0.00   0.00
sdd               0.00     0.00    0.00    0.00     0.00     0.00     0.00     0.00    0.00    0.00    0.00   0.00   0.00
md0               0.00     0.00    0.00    0.00     0.00     0.00     0.00     0.00    0.00    0.00    0.00   0.00   0.00

