Linux 4.17.2 (bench2) 	08/04/2018 	_x86_64_	(32 CPU)

avg-cpu:  %user   %nice %system %iowait  %steal   %idle
           1.88    0.00    1.57    1.67    0.00   94.87

Device:         rrqm/s   wrqm/s     r/s     w/s    rkB/s    wkB/s avgrq-sz avgqu-sz   await r_await w_await  svctm  %util
nvme0n1         977.28     4.93 19910.39  503.71 110593.66 11369.77    11.95     1.36    0.05    0.03    0.68   0.02  39.61
sda               0.12     0.83   14.26    0.59   164.44     8.59    23.30     0.00    0.33    0.32    0.43   0.07   0.10
sdc              35.05     0.17  128.87    0.30  1910.12    94.53    31.04     0.20    1.55    0.66  381.84   0.89  11.46
sdb              33.08     0.18  130.81    0.32  1908.28    94.36    30.54     0.62    4.71    3.71  413.03   0.83  10.92
sdd              35.24     0.16  128.43    0.25  1906.30    94.04    31.09     0.93    7.21    5.44  909.23   0.89  11.51
md0               0.00     0.00  494.23    1.17  7091.61   341.00    30.01     0.00    0.00    0.00    0.00   0.00   0.00

avg-cpu:  %user   %nice %system %iowait  %steal   %idle
           2.29    0.00    1.89    1.02    0.00   94.79

Device:         rrqm/s   wrqm/s     r/s     w/s    rkB/s    wkB/s avgrq-sz avgqu-sz   await r_await w_await  svctm  %util
nvme0n1           0.00     0.00 56194.45    0.00 541673.40     0.00    19.28     1.21    0.01    0.01    0.00   0.02 100.01
sda               0.00     0.95    0.20    1.70     5.20    11.40    17.47     0.00    0.03    0.25    0.00   0.03   0.01
sdc               0.00     0.00    0.00    0.00     0.00     0.00     0.00     0.00    0.00    0.00    0.00   0.00   0.00
sdb               0.00     0.00    0.00    0.00     0.00     0.00     0.00     0.00    0.00    0.00    0.00   0.00   0.00
sdd               0.00     0.00    0.00    0.00     0.00     0.00     0.00     0.00    0.00    0.00    0.00   0.00   0.00
md0               0.00     0.00    0.00    0.00     0.00     0.00     0.00     0.00    0.00    0.00    0.00   0.00   0.00

