Linux 4.17.2 (bench2) 	08/04/2018 	_x86_64_	(32 CPU)

avg-cpu:  %user   %nice %system %iowait  %steal   %idle
           1.88    0.00    1.57    1.67    0.00   94.89

Device:         rrqm/s   wrqm/s     r/s     w/s    rkB/s    wkB/s avgrq-sz avgqu-sz   await r_await w_await  svctm  %util
nvme0n1         966.02     4.94 19647.85  504.98 109256.61 11398.41    11.97     1.35    0.05    0.03    0.68   0.02  39.45
sda               0.12     0.83   14.25    0.59   164.41     8.59    23.31     0.00    0.33    0.32    0.43   0.07   0.10
sdc              35.13     0.17  129.20    0.30  1914.93    94.76    31.04     0.20    1.55    0.66  381.84   0.89  11.49
sdb              33.16     0.18  131.14    0.32  1913.09    94.59    30.54     0.62    4.71    3.71  413.03   0.83  10.95
sdd              35.33     0.16  128.75    0.25  1911.11    94.28    31.09     0.93    7.21    5.44  909.23   0.89  11.54
md0               0.00     0.00  495.47    1.18  7109.47   341.86    30.01     0.00    0.00    0.00    0.00   0.00   0.00

avg-cpu:  %user   %nice %system %iowait  %steal   %idle
           2.57    0.00    1.36    1.59    0.00   94.48

Device:         rrqm/s   wrqm/s     r/s     w/s    rkB/s    wkB/s avgrq-sz avgqu-sz   await r_await w_await  svctm  %util
nvme0n1           0.00     0.00 81327.80    0.00 325311.20     0.00     8.00     1.00    0.01    0.01    0.00   0.01  99.99
sda               0.00     1.05    2.05    1.80    10.20    13.20    12.16     0.00    0.03    0.05    0.00   0.01   0.01
sdc               0.00     0.00    0.00    0.00     0.00     0.00     0.00     0.00    0.00    0.00    0.00   0.00   0.00
sdb               0.00     0.00    0.00    0.00     0.00     0.00     0.00     0.00    0.00    0.00    0.00   0.00   0.00
sdd               0.00     0.00    0.00    0.00     0.00     0.00     0.00     0.00    0.00    0.00    0.00   0.00   0.00
md0               0.00     0.00    0.00    0.00     0.00     0.00     0.00     0.00    0.00    0.00    0.00   0.00   0.00

