Linux 4.17.2 (bench2) 	08/04/2018 	_x86_64_	(32 CPU)

avg-cpu:  %user   %nice %system %iowait  %steal   %idle
           1.88    0.00    1.55    1.66    0.00   94.91

Device:         rrqm/s   wrqm/s     r/s     w/s    rkB/s    wkB/s avgrq-sz avgqu-sz   await r_await w_await  svctm  %util
nvme0n1         938.50     4.97 19027.10  507.95 106190.95 11465.33    12.05     1.33    0.05    0.03    0.68   0.02  39.10
sda               0.12     0.82   14.22    0.59   164.26     8.58    23.34     0.00    0.33    0.32    0.43   0.07   0.10
sdc              35.34     0.17  129.96    0.30  1926.17    95.32    31.04     0.20    1.55    0.66  381.84   0.89  11.56
sdb              33.35     0.18  131.91    0.32  1924.32    95.15    30.54     0.62    4.71    3.71  413.03   0.83  11.01
sdd              35.53     0.16  129.51    0.25  1922.33    94.83    31.09     0.94    7.21    5.44  909.23   0.89  11.61
md0               0.00     0.00  498.38    1.18  7151.21   343.86    30.01     0.00    0.00    0.00    0.00   0.00   0.00

avg-cpu:  %user   %nice %system %iowait  %steal   %idle
           2.10    0.00    2.01    0.53    0.00   95.36

Device:         rrqm/s   wrqm/s     r/s     w/s    rkB/s    wkB/s avgrq-sz avgqu-sz   await r_await w_await  svctm  %util
nvme0n1           0.00     0.00 10373.00    0.00 776696.00     0.00   149.75     1.09    0.04    0.04    0.00   0.10 100.00
sda               0.00     0.00    1.00    0.00     8.00     0.00    16.00     0.00    0.00    0.00    0.00   0.00   0.00
sdc               0.00     0.00    0.00    0.00     0.00     0.00     0.00     0.00    0.00    0.00    0.00   0.00   0.00
sdb               0.00     0.00    0.00    0.00     0.00     0.00     0.00     0.00    0.00    0.00    0.00   0.00   0.00
sdd               0.00     0.00    0.00    0.00     0.00     0.00     0.00     0.00    0.00    0.00    0.00   0.00   0.00
md0               0.00     0.00    0.00    0.00     0.00     0.00     0.00     0.00    0.00    0.00    0.00   0.00   0.00

avg-cpu:  %user   %nice %system %iowait  %steal   %idle
           2.13    0.00    1.88    0.56    0.00   95.42

Device:         rrqm/s   wrqm/s     r/s     w/s    rkB/s    wkB/s avgrq-sz avgqu-sz   await r_await w_await  svctm  %util
nvme0n1           0.00     0.00 10463.00    0.00 772828.00     0.00   147.73     1.10    0.04    0.04    0.00   0.10  99.90
sda               0.00     9.00    0.00    2.00     0.00    44.00    44.00     0.00    0.50    0.00    0.50   0.50   0.10
sdc               0.00     0.00    0.00    0.00     0.00     0.00     0.00     0.00    0.00    0.00    0.00   0.00   0.00
sdb               0.00     0.00    0.00    0.00     0.00     0.00     0.00     0.00    0.00    0.00    0.00   0.00   0.00
sdd               0.00     0.00    0.00    0.00     0.00     0.00     0.00     0.00    0.00    0.00    0.00   0.00   0.00
md0               0.00     0.00    0.00    0.00     0.00     0.00     0.00     0.00    0.00    0.00    0.00   0.00   0.00

