Linux 4.17.2 (bench2) 	08/04/2018 	_x86_64_	(32 CPU)

avg-cpu:  %user   %nice %system %iowait  %steal   %idle
           1.88    0.00    1.54    1.66    0.00   94.92

Device:         rrqm/s   wrqm/s     r/s     w/s    rkB/s    wkB/s avgrq-sz avgqu-sz   await r_await w_await  svctm  %util
nvme0n1         939.34     4.97 18955.82  508.43 105720.09 11476.26    12.04     1.33    0.05    0.03    0.68   0.02  39.04
sda               0.12     0.82   14.22    0.59   164.25     8.58    23.35     0.00    0.33    0.32    0.43   0.07   0.10
sdc              35.37     0.17  130.08    0.30  1928.01    95.41    31.04     0.20    1.55    0.66  381.84   0.89  11.57
sdb              33.39     0.18  132.03    0.32  1926.16    95.24    30.54     0.62    4.71    3.71  413.03   0.83  11.02
sdd              35.57     0.16  129.63    0.25  1924.16    94.92    31.09     0.94    7.21    5.44  909.23   0.89  11.62
md0               0.00     0.00  498.86    1.18  7158.03   344.19    30.01     0.00    0.00    0.00    0.00   0.00   0.00

avg-cpu:  %user   %nice %system %iowait  %steal   %idle
           2.17    0.00    1.95    0.90    0.00   94.98

Device:         rrqm/s   wrqm/s     r/s     w/s    rkB/s    wkB/s avgrq-sz avgqu-sz   await r_await w_await  svctm  %util
nvme0n1           0.00     0.00 41098.65    0.00 600820.00     0.00    29.24     1.18    0.01    0.01    0.00   0.02  99.99
sda               0.00     0.80    0.20    0.50     5.20     6.00    32.00     0.00    0.14    0.25    0.10   0.14   0.01
sdc               0.00     0.00    0.00    0.00     0.00     0.00     0.00     0.00    0.00    0.00    0.00   0.00   0.00
sdb               0.00     0.00    0.00    0.00     0.00     0.00     0.00     0.00    0.00    0.00    0.00   0.00   0.00
sdd               0.00     0.00    0.00    0.00     0.00     0.00     0.00     0.00    0.00    0.00    0.00   0.00   0.00
md0               0.00     0.00    0.00    0.00     0.00     0.00     0.00     0.00    0.00    0.00    0.00   0.00   0.00

