Linux 4.17.2 (bench2) 	08/04/2018 	_x86_64_	(32 CPU)

avg-cpu:  %user   %nice %system %iowait  %steal   %idle
           1.88    0.00    1.55    1.67    0.00   94.90

Device:         rrqm/s   wrqm/s     r/s     w/s    rkB/s    wkB/s avgrq-sz avgqu-sz   await r_await w_await  svctm  %util
nvme0n1         959.70     4.96 19331.54  506.77 107534.31 11438.85    11.99     1.34    0.05    0.03    0.68   0.02  39.24
sda               0.12     0.83   14.24    0.59   164.36     8.58    23.32     0.00    0.33    0.32    0.43   0.07   0.10
sdc              35.26     0.17  129.66    0.30  1921.72    95.10    31.04     0.20    1.55    0.66  381.84   0.89  11.53
sdb              33.28     0.18  131.60    0.32  1919.88    94.93    30.54     0.62    4.71    3.71  413.03   0.83  10.99
sdd              35.45     0.16  129.21    0.25  1917.89    94.61    31.09     0.93    7.21    5.44  909.23   0.89  11.58
md0               0.00     0.00  497.23    1.18  7134.70   343.07    30.01     0.00    0.00    0.00    0.00   0.00   0.00

avg-cpu:  %user   %nice %system %iowait  %steal   %idle
           2.54    0.00    1.48    1.29    0.00   94.70

Device:         rrqm/s   wrqm/s     r/s     w/s    rkB/s    wkB/s avgrq-sz avgqu-sz   await r_await w_await  svctm  %util
nvme0n1           0.00     0.00 56681.00    0.00 406664.00     0.00    14.35     1.01    0.01    0.01    0.00   0.02 100.00
sda               0.00     0.00   19.00    0.00    80.00     0.00     8.42     0.00    0.00    0.00    0.00   0.00   0.00
sdc               0.00     0.00    0.00    0.00     0.00     0.00     0.00     0.00    0.00    0.00    0.00   0.00   0.00
sdb               0.00     0.00    0.00    0.00     0.00     0.00     0.00     0.00    0.00    0.00    0.00   0.00   0.00
sdd               0.00     0.00    0.00    0.00     0.00     0.00     0.00     0.00    0.00    0.00    0.00   0.00   0.00
md0               0.00     0.00    0.00    0.00     0.00     0.00     0.00     0.00    0.00    0.00    0.00   0.00   0.00

