Linux 4.17.2 (bench2) 	08/04/2018 	_x86_64_	(32 CPU)

avg-cpu:  %user   %nice %system %iowait  %steal   %idle
           1.88    0.00    1.56    1.67    0.00   94.89

Device:         rrqm/s   wrqm/s     r/s     w/s    rkB/s    wkB/s avgrq-sz avgqu-sz   await r_await w_await  svctm  %util
nvme0n1         960.91     4.94 19575.41  505.20 108958.17 11403.42    11.99     1.35    0.05    0.03    0.68   0.02  39.43
sda               0.12     0.83   14.25    0.59   164.40     8.59    23.31     0.00    0.33    0.32    0.43   0.07   0.10
sdc              35.15     0.17  129.25    0.30  1915.77    94.81    31.04     0.20    1.55    0.66  381.84   0.89  11.50
sdb              33.17     0.18  131.19    0.32  1913.93    94.63    30.54     0.62    4.71    3.71  413.03   0.83  10.95
sdd              35.34     0.16  128.81    0.25  1911.95    94.32    31.09     0.93    7.21    5.44  909.23   0.89  11.55
md0               0.00     0.00  495.69    1.18  7112.60   342.01    30.01     0.00    0.00    0.00    0.00   0.00   0.00

avg-cpu:  %user   %nice %system %iowait  %steal   %idle
           2.66    0.00    1.21    1.59    0.00   94.54

Device:         rrqm/s   wrqm/s     r/s     w/s    rkB/s    wkB/s avgrq-sz avgqu-sz   await r_await w_await  svctm  %util
nvme0n1           0.00     0.00 81163.35    0.00 324653.40     0.00     8.00     1.00    0.01    0.01    0.00   0.01 100.00
sda               0.35     0.90    2.40    0.65    13.00     8.40    14.03     0.00    0.28    0.33    0.08   0.03   0.01
sdc               0.00     0.00    0.00    0.00     0.00     0.00     0.00     0.00    0.00    0.00    0.00   0.00   0.00
sdb               0.00     0.00    0.00    0.00     0.00     0.00     0.00     0.00    0.00    0.00    0.00   0.00   0.00
sdd               0.00     0.00    0.00    0.00     0.00     0.00     0.00     0.00    0.00    0.00    0.00   0.00   0.00
md0               0.00     0.00    0.00    0.00     0.00     0.00     0.00     0.00    0.00    0.00    0.00   0.00   0.00

