Linux 4.17.2 (bench2) 	08/04/2018 	_x86_64_	(32 CPU)

avg-cpu:  %user   %nice %system %iowait  %steal   %idle
           1.88    0.00    1.55    1.67    0.00   94.90

Device:         rrqm/s   wrqm/s     r/s     w/s    rkB/s    wkB/s avgrq-sz avgqu-sz   await r_await w_await  svctm  %util
nvme0n1         959.73     4.96 19329.07  506.79 107516.31 11439.30    11.99     1.34    0.05    0.03    0.68   0.02  39.24
sda               0.12     0.83   14.24    0.59   164.36     8.58    23.32     0.00    0.33    0.32    0.43   0.07   0.10
sdc              35.26     0.17  129.66    0.30  1921.80    95.10    31.04     0.20    1.55    0.66  381.84   0.89  11.53
sdb              33.28     0.18  131.61    0.32  1919.95    94.93    30.54     0.62    4.71    3.71  413.03   0.83  10.99
sdd              35.45     0.16  129.22    0.25  1917.96    94.61    31.09     0.93    7.21    5.44  909.23   0.89  11.58
md0               0.00     0.00  497.25    1.18  7134.98   343.08    30.01     0.00    0.00    0.00    0.00   0.00   0.00

avg-cpu:  %user   %nice %system %iowait  %steal   %idle
           1.74    0.00    3.13    0.37    0.00   94.76

Device:         rrqm/s   wrqm/s     r/s     w/s    rkB/s    wkB/s avgrq-sz avgqu-sz   await r_await w_await  svctm  %util
nvme0n1           0.00     0.00 19043.10    0.00 592094.20     0.00    62.18     1.08    0.02    0.02    0.00   0.05 100.05
sda               0.00     1.35    0.25    1.60     5.40    13.80    20.76     0.00    0.08    0.20    0.06   0.08   0.01
sdc               0.00     0.00    0.00    0.00     0.00     0.00     0.00     0.00    0.00    0.00    0.00   0.00   0.00
sdb               0.00     0.00    0.00    0.00     0.00     0.00     0.00     0.00    0.00    0.00    0.00   0.00   0.00
sdd               0.00     0.00    0.00    0.00     0.00     0.00     0.00     0.00    0.00    0.00    0.00   0.00   0.00
md0               0.00     0.00    0.00    0.00     0.00     0.00     0.00     0.00    0.00    0.00    0.00   0.00   0.00

