Linux 4.17.2 (bench2) 	08/04/2018 	_x86_64_	(32 CPU)

avg-cpu:  %user   %nice %system %iowait  %steal   %idle
           1.89    0.00    1.53    1.66    0.00   94.92

Device:         rrqm/s   wrqm/s     r/s     w/s    rkB/s    wkB/s avgrq-sz avgqu-sz   await r_await w_await  svctm  %util
nvme0n1         941.13     4.98 18814.10  509.45 104834.63 11499.26    12.04     1.33    0.05    0.03    0.68   0.02  38.92
sda               0.12     0.82   14.22    0.59   164.24     8.58    23.35     0.00    0.33    0.32    0.43   0.07   0.10
sdc              35.44     0.17  130.34    0.30  1931.87    95.60    31.04     0.20    1.55    0.66  381.84   0.89  11.59
sdb              33.45     0.18  132.30    0.32  1930.02    95.43    30.54     0.62    4.71    3.71  413.03   0.83  11.04
sdd              35.64     0.16  129.89    0.26  1928.01    95.11    31.09     0.94    7.21    5.44  909.23   0.89  11.64
md0               0.00     0.00  499.86    1.19  7172.38   344.88    30.01     0.00    0.00    0.00    0.00   0.00   0.00

avg-cpu:  %user   %nice %system %iowait  %steal   %idle
           1.95    0.00    2.98    0.53    0.00   94.54

Device:         rrqm/s   wrqm/s     r/s     w/s    rkB/s    wkB/s avgrq-sz avgqu-sz   await r_await w_await  svctm  %util
nvme0n1           0.00     0.00 25343.00    0.00 251040.00     0.00    19.81     1.01    0.01    0.01    0.00   0.04 100.10
sda               0.00     0.00    1.00    0.00     8.00     0.00    16.00     0.00    0.00    0.00    0.00   0.00   0.00
sdc               0.00     0.00    0.00    0.00     0.00     0.00     0.00     0.00    0.00    0.00    0.00   0.00   0.00
sdb               0.00     0.00    0.00    0.00     0.00     0.00     0.00     0.00    0.00    0.00    0.00   0.00   0.00
sdd               0.00     0.00    0.00    0.00     0.00     0.00     0.00     0.00    0.00    0.00    0.00   0.00   0.00
md0               0.00     0.00    0.00    0.00     0.00     0.00     0.00     0.00    0.00    0.00    0.00   0.00   0.00

