Linux 4.17.2 (bench2) 	08/04/2018 	_x86_64_	(32 CPU)

avg-cpu:  %user   %nice %system %iowait  %steal   %idle
           1.88    0.00    1.55    1.67    0.00   94.90

Device:         rrqm/s   wrqm/s     r/s     w/s    rkB/s    wkB/s avgrq-sz avgqu-sz   await r_await w_await  svctm  %util
nvme0n1         959.86     4.96 19319.70  506.87 107455.38 11441.04    11.99     1.34    0.05    0.03    0.68   0.02  39.23
sda               0.12     0.83   14.24    0.59   164.35     8.58    23.32     0.00    0.33    0.32    0.43   0.07   0.10
sdc              35.27     0.17  129.68    0.30  1922.09    95.12    31.04     0.20    1.55    0.66  381.84   0.89  11.53
sdb              33.28     0.18  131.63    0.32  1920.25    94.95    30.54     0.62    4.71    3.71  413.03   0.83  10.99
sdd              35.46     0.16  129.23    0.25  1918.25    94.63    31.09     0.93    7.21    5.44  909.23   0.89  11.58
md0               0.00     0.00  497.33    1.18  7136.06   343.14    30.01     0.00    0.00    0.00    0.00   0.00   0.00

avg-cpu:  %user   %nice %system %iowait  %steal   %idle
           2.45    0.00    1.76    1.16    0.00   94.63

Device:         rrqm/s   wrqm/s     r/s     w/s    rkB/s    wkB/s avgrq-sz avgqu-sz   await r_await w_await  svctm  %util
nvme0n1           0.00     0.00 58434.00    0.00 251388.00     0.00     8.60     1.00    0.01    0.01    0.00   0.02 100.00
sda               0.00     0.00   33.00    0.00   136.00     0.00     8.24     0.01    0.27    0.27    0.00   0.03   0.10
sdc               0.00     0.00    0.00    0.00     0.00     0.00     0.00     0.00    0.00    0.00    0.00   0.00   0.00
sdb               0.00     0.00    0.00    0.00     0.00     0.00     0.00     0.00    0.00    0.00    0.00   0.00   0.00
sdd               0.00     0.00    0.00    0.00     0.00     0.00     0.00     0.00    0.00    0.00    0.00   0.00   0.00
md0               0.00     0.00    0.00    0.00     0.00     0.00     0.00     0.00    0.00    0.00    0.00   0.00   0.00

