Linux 4.17.2 (bench2) 	08/04/2018 	_x86_64_	(32 CPU)

avg-cpu:  %user   %nice %system %iowait  %steal   %idle
           1.88    0.00    1.56    1.67    0.00   94.90

Device:         rrqm/s   wrqm/s     r/s     w/s    rkB/s    wkB/s avgrq-sz avgqu-sz   await r_await w_await  svctm  %util
nvme0n1         958.35     4.95 19440.10  506.02 108206.91 11421.97    12.00     1.34    0.05    0.03    0.68   0.02  39.33
sda               0.12     0.83   14.25    0.59   164.38     8.59    23.32     0.00    0.33    0.32    0.43   0.07   0.10
sdc              35.21     0.17  129.46    0.30  1918.89    94.96    31.04     0.20    1.55    0.66  381.84   0.89  11.51
sdb              33.23     0.18  131.41    0.32  1917.05    94.79    30.54     0.62    4.71    3.71  413.03   0.83  10.97
sdd              35.40     0.16  129.02    0.25  1915.06    94.47    31.09     0.93    7.21    5.44  909.23   0.89  11.57
md0               0.00     0.00  496.50    1.18  7124.17   342.56    30.01     0.00    0.00    0.00    0.00   0.00   0.00

avg-cpu:  %user   %nice %system %iowait  %steal   %idle
           2.35    0.00    1.75    1.17    0.00   94.73

Device:         rrqm/s   wrqm/s     r/s     w/s    rkB/s    wkB/s avgrq-sz avgqu-sz   await r_await w_await  svctm  %util
nvme0n1           0.00     0.00 60651.55    0.00 440101.40     0.00    14.51     1.17    0.01    0.01    0.00   0.02 100.00
sda               0.00     1.00    0.20    0.60     5.20     7.20    31.00     0.00    0.06    0.00    0.08   0.06   0.01
sdc               0.00     0.00    0.00    0.00     0.00     0.00     0.00     0.00    0.00    0.00    0.00   0.00   0.00
sdb               0.00     0.00    0.00    0.00     0.00     0.00     0.00     0.00    0.00    0.00    0.00   0.00   0.00
sdd               0.00     0.00    0.00    0.00     0.00     0.00     0.00     0.00    0.00    0.00    0.00   0.00   0.00
md0               0.00     0.00    0.00    0.00     0.00     0.00     0.00     0.00    0.00    0.00    0.00   0.00   0.00

