Linux 4.17.2 (bench2) 	08/04/2018 	_x86_64_	(32 CPU)

avg-cpu:  %user   %nice %system %iowait  %steal   %idle
           1.88    0.00    1.57    1.68    0.00   94.88

Device:         rrqm/s   wrqm/s     r/s     w/s    rkB/s    wkB/s avgrq-sz avgqu-sz   await r_await w_await  svctm  %util
nvme0n1         978.04     4.93 19849.73  504.12 110217.14 11379.03    11.95     1.35    0.05    0.03    0.68   0.02  39.56
sda               0.12     0.83   14.26    0.59   164.44     8.59    23.30     0.00    0.33    0.32    0.43   0.07   0.10
sdc              35.07     0.17  128.98    0.30  1911.67    94.60    31.04     0.20    1.55    0.66  381.84   0.89  11.47
sdb              33.10     0.18  130.91    0.32  1909.84    94.43    30.54     0.62    4.71    3.71  413.03   0.83  10.93
sdd              35.27     0.16  128.53    0.25  1907.86    94.12    31.09     0.93    7.21    5.44  909.23   0.89  11.52
md0               0.00     0.00  494.63    1.17  7097.39   341.28    30.01     0.00    0.00    0.00    0.00   0.00   0.00

avg-cpu:  %user   %nice %system %iowait  %steal   %idle
           1.30    0.00    6.78    0.00    0.00   91.92

Device:         rrqm/s   wrqm/s     r/s     w/s    rkB/s    wkB/s avgrq-sz avgqu-sz   await r_await w_await  svctm  %util
nvme0n1           0.00     0.00 130584.65    0.00 522350.00     0.00     8.00     2.30    0.01    0.01    0.00   0.01 100.71
sda               0.00     0.80    0.20    1.55     5.20    11.60    19.20     0.00    0.06    0.50    0.00   0.06   0.01
sdc               0.00     0.00    0.00    0.00     0.00     0.00     0.00     0.00    0.00    0.00    0.00   0.00   0.00
sdb               0.00     0.00    0.00    0.00     0.00     0.00     0.00     0.00    0.00    0.00    0.00   0.00   0.00
sdd               0.00     0.00    0.00    0.00     0.00     0.00     0.00     0.00    0.00    0.00    0.00   0.00   0.00
md0               0.00     0.00    0.00    0.00     0.00     0.00     0.00     0.00    0.00    0.00    0.00   0.00   0.00

