Linux 4.17.2 (bench2) 	08/04/2018 	_x86_64_	(32 CPU)

avg-cpu:  %user   %nice %system %iowait  %steal   %idle
           1.88    0.00    1.55    1.66    0.00   94.90

Device:         rrqm/s   wrqm/s     r/s     w/s    rkB/s    wkB/s avgrq-sz avgqu-sz   await r_await w_await  svctm  %util
nvme0n1         953.14     4.96 19234.68  507.22 107062.10 11448.95    12.01     1.34    0.05    0.03    0.68   0.02  39.19
sda               0.12     0.83   14.23    0.59   164.33     8.58    23.33     0.00    0.33    0.32    0.43   0.07   0.10
sdc              35.29     0.17  129.77    0.30  1923.42    95.18    31.04     0.20    1.55    0.66  381.84   0.89  11.54
sdb              33.31     0.18  131.72    0.32  1921.57    95.01    30.54     0.62    4.71    3.71  413.03   0.83  11.00
sdd              35.48     0.16  129.32    0.25  1919.58    94.69    31.09     0.94    7.21    5.44  909.23   0.89  11.59
md0               0.00     0.00  497.67    1.18  7140.99   343.37    30.01     0.00    0.00    0.00    0.00   0.00   0.00

avg-cpu:  %user   %nice %system %iowait  %steal   %idle
           1.53    0.00    4.97   22.73    0.00   70.78

Device:         rrqm/s   wrqm/s     r/s     w/s    rkB/s    wkB/s avgrq-sz avgqu-sz   await r_await w_await  svctm  %util
nvme0n1           0.00     0.00 344065.00    0.00 1376260.00     0.00     8.00    12.85    0.02    0.02    0.00   0.00 117.62
sda               0.00     0.80    2.75    0.55    13.00     6.20    11.64     0.00    0.12    0.15    0.00   0.02   0.01
sdc               0.00     0.00    0.00    0.00     0.00     0.00     0.00     0.00    0.00    0.00    0.00   0.00   0.00
sdb               0.00     0.00    0.00    0.00     0.00     0.00     0.00     0.00    0.00    0.00    0.00   0.00   0.00
sdd               0.00     0.00    0.00    0.00     0.00     0.00     0.00     0.00    0.00    0.00    0.00   0.00   0.00
md0               0.00     0.00    0.00    0.00     0.00     0.00     0.00     0.00    0.00    0.00    0.00   0.00   0.00

