Linux 4.17.2 (bench2) 	08/04/2018 	_x86_64_	(32 CPU)

avg-cpu:  %user   %nice %system %iowait  %steal   %idle
           1.88    0.00    1.55    1.67    0.00   94.90

Device:         rrqm/s   wrqm/s     r/s     w/s    rkB/s    wkB/s avgrq-sz avgqu-sz   await r_await w_await  svctm  %util
nvme0n1         959.38     4.96 19355.07  506.60 107671.40 11435.01    11.99     1.34    0.05    0.03    0.68   0.02  39.26
sda               0.12     0.83   14.24    0.59   164.37     8.58    23.32     0.00    0.33    0.32    0.43   0.07   0.10
sdc              35.25     0.17  129.61    0.30  1921.08    95.07    31.04     0.20    1.55    0.66  381.84   0.89  11.53
sdb              33.27     0.18  131.56    0.32  1919.23    94.90    30.54     0.62    4.71    3.71  413.03   0.83  10.98
sdd              35.44     0.16  129.17    0.25  1917.24    94.58    31.09     0.93    7.21    5.44  909.23   0.89  11.58
md0               0.00     0.00  497.07    1.18  7132.30   342.95    30.01     0.00    0.00    0.00    0.00   0.00   0.00

avg-cpu:  %user   %nice %system %iowait  %steal   %idle
           1.24    0.00    5.25    2.75    0.00   90.76

Device:         rrqm/s   wrqm/s     r/s     w/s    rkB/s    wkB/s avgrq-sz avgqu-sz   await r_await w_await  svctm  %util
nvme0n1           0.00     0.00 120702.50    0.00 610645.80     0.00    10.12     2.91    0.01    0.01    0.00   0.01 101.80
sda               0.00     1.05    0.20    1.75     5.20    13.20    18.87     0.00    0.08    0.50    0.03   0.08   0.01
sdc               0.00     0.00    0.00    0.00     0.00     0.00     0.00     0.00    0.00    0.00    0.00   0.00   0.00
sdb               0.00     0.00    0.00    0.00     0.00     0.00     0.00     0.00    0.00    0.00    0.00   0.00   0.00
sdd               0.00     0.00    0.00    0.00     0.00     0.00     0.00     0.00    0.00    0.00    0.00   0.00   0.00
md0               0.00     0.00    0.00    0.00     0.00     0.00     0.00     0.00    0.00    0.00    0.00   0.00   0.00

