Linux 4.17.2 (bench2) 	08/04/2018 	_x86_64_	(32 CPU)

avg-cpu:  %user   %nice %system %iowait  %steal   %idle
           1.88    0.00    1.54    1.66    0.00   94.92

Device:         rrqm/s   wrqm/s     r/s     w/s    rkB/s    wkB/s avgrq-sz avgqu-sz   await r_await w_await  svctm  %util
nvme0n1         940.51     4.98 18853.35  509.10 105100.96 11491.35    12.04     1.33    0.05    0.03    0.68   0.02  38.96
sda               0.12     0.82   14.22    0.59   164.25     8.58    23.35     0.00    0.33    0.32    0.43   0.07   0.10
sdc              35.42     0.17  130.25    0.30  1930.54    95.54    31.04     0.20    1.55    0.66  381.84   0.89  11.58
sdb              33.43     0.18  132.21    0.32  1928.69    95.36    30.54     0.62    4.71    3.71  413.03   0.83  11.04
sdd              35.62     0.16  129.80    0.26  1926.69    95.04    31.09     0.94    7.21    5.44  909.23   0.89  11.64
md0               0.00     0.00  499.51    1.18  7167.44   344.64    30.01     0.00    0.00    0.00    0.00   0.00   0.00

avg-cpu:  %user   %nice %system %iowait  %steal   %idle
           0.99    0.00    5.48    0.00    0.00   93.53

Device:         rrqm/s   wrqm/s     r/s     w/s    rkB/s    wkB/s avgrq-sz avgqu-sz   await r_await w_await  svctm  %util
nvme0n1           0.00     0.00 144383.00    0.00 577532.00     0.00     8.00     4.59    0.01    0.01    0.00   0.01 103.96
sda               0.00     1.20    0.15    1.25     5.00    12.00    24.29     0.00    0.18    0.33    0.16   0.18   0.03
sdc               0.00     0.00    0.00    0.00     0.00     0.00     0.00     0.00    0.00    0.00    0.00   0.00   0.00
sdb               0.00     0.00    0.00    0.00     0.00     0.00     0.00     0.00    0.00    0.00    0.00   0.00   0.00
sdd               0.00     0.00    0.00    0.00     0.00     0.00     0.00     0.00    0.00    0.00    0.00   0.00   0.00
md0               0.00     0.00    0.00    0.00     0.00     0.00     0.00     0.00    0.00    0.00    0.00   0.00   0.00

