Linux 4.17.2 (bench2) 	08/04/2018 	_x86_64_	(32 CPU)

avg-cpu:  %user   %nice %system %iowait  %steal   %idle
           1.88    0.00    1.56    1.67    0.00   94.89

Device:         rrqm/s   wrqm/s     r/s     w/s    rkB/s    wkB/s avgrq-sz avgqu-sz   await r_await w_await  svctm  %util
nvme0n1         965.61     4.94 19608.48  505.09 109103.12 11400.79    11.98     1.35    0.05    0.03    0.68   0.02  39.44
sda               0.12     0.83   14.25    0.59   164.41     8.59    23.31     0.00    0.33    0.32    0.43   0.07   0.10
sdc              35.14     0.17  129.22    0.30  1915.33    94.78    31.04     0.20    1.55    0.66  381.84   0.89  11.49
sdb              33.17     0.18  131.16    0.32  1913.49    94.61    30.54     0.62    4.71    3.71  413.03   0.83  10.95
sdd              35.33     0.16  128.78    0.25  1911.51    94.30    31.09     0.93    7.21    5.44  909.23   0.89  11.54
md0               0.00     0.00  495.58    1.18  7110.96   341.93    30.01     0.00    0.00    0.00    0.00   0.00   0.00

avg-cpu:  %user   %nice %system %iowait  %steal   %idle
           0.68    0.00    6.56   10.88    0.00   81.89

Device:         rrqm/s   wrqm/s     r/s     w/s    rkB/s    wkB/s avgrq-sz avgqu-sz   await r_await w_await  svctm  %util
nvme0n1           0.00     0.00 380045.80    0.00 1520183.20     0.00     8.00     5.88    0.01    0.01    0.00   0.00 105.73
sda               0.00     1.10    3.00    1.40    14.00    12.00    11.82     0.00    0.28    0.38    0.07   0.06   0.03
sdc               0.00     0.00    0.00    0.00     0.00     0.00     0.00     0.00    0.00    0.00    0.00   0.00   0.00
sdb               0.00     0.00    0.00    0.00     0.00     0.00     0.00     0.00    0.00    0.00    0.00   0.00   0.00
sdd               0.00     0.00    0.00    0.00     0.00     0.00     0.00     0.00    0.00    0.00    0.00   0.00   0.00
md0               0.00     0.00    0.00    0.00     0.00     0.00     0.00     0.00    0.00    0.00    0.00   0.00   0.00

