Linux 4.17.2 (bench2) 	08/04/2018 	_x86_64_	(32 CPU)

avg-cpu:  %user   %nice %system %iowait  %steal   %idle
           1.88    0.00    1.56    1.67    0.00   94.89

Device:         rrqm/s   wrqm/s     r/s     w/s    rkB/s    wkB/s avgrq-sz avgqu-sz   await r_await w_await  svctm  %util
nvme0n1         960.45     4.94 19567.10  505.23 108924.59 11404.05    11.99     1.35    0.05    0.03    0.68   0.02  39.42
sda               0.12     0.83   14.25    0.59   164.40     8.59    23.31     0.00    0.33    0.32    0.43   0.07   0.10
sdc              35.15     0.17  129.26    0.30  1915.88    94.81    31.04     0.20    1.55    0.66  381.84   0.89  11.50
sdb              33.17     0.18  131.20    0.32  1914.04    94.64    30.54     0.62    4.71    3.71  413.03   0.83  10.95
sdd              35.34     0.16  128.82    0.25  1912.05    94.32    31.09     0.93    7.21    5.44  909.23   0.89  11.55
md0               0.00     0.00  495.72    1.18  7112.99   342.03    30.01     0.00    0.00    0.00    0.00   0.00   0.00

avg-cpu:  %user   %nice %system %iowait  %steal   %idle
           2.22    0.00   18.27    8.98    0.00   70.52

Device:         rrqm/s   wrqm/s     r/s     w/s    rkB/s    wkB/s avgrq-sz avgqu-sz   await r_await w_await  svctm  %util
nvme0n1           0.00     0.00 212068.15    0.00 848272.60     0.00     8.00     6.05    0.02    0.02    0.00   0.00 105.18
sda               0.00     0.75    2.80    0.55    13.20     6.00    11.46     0.00    0.25    0.30    0.00   0.01   0.01
sdc               0.00     0.00    0.00    0.00     0.00     0.00     0.00     0.00    0.00    0.00    0.00   0.00   0.00
sdb               0.00     0.00    0.00    0.00     0.00     0.00     0.00     0.00    0.00    0.00    0.00   0.00   0.00
sdd               0.00     0.00    0.00    0.00     0.00     0.00     0.00     0.00    0.00    0.00    0.00   0.00   0.00
md0               0.00     0.00    0.00    0.00     0.00     0.00     0.00     0.00    0.00    0.00    0.00   0.00   0.00

