Linux 4.17.2 (bench2) 	08/04/2018 	_x86_64_	(32 CPU)

avg-cpu:  %user   %nice %system %iowait  %steal   %idle
           1.88    0.00    1.54    1.66    0.00   94.92

Device:         rrqm/s   wrqm/s     r/s     w/s    rkB/s    wkB/s avgrq-sz avgqu-sz   await r_await w_await  svctm  %util
nvme0n1         939.13     4.97 18971.45  508.31 105847.18 11473.59    12.05     1.33    0.05    0.03    0.68   0.02  39.05
sda               0.12     0.82   14.22    0.59   164.25     8.58    23.34     0.00    0.33    0.32    0.43   0.07   0.10
sdc              35.37     0.17  130.05    0.30  1927.56    95.39    31.04     0.20    1.55    0.66  381.84   0.89  11.57
sdb              33.38     0.18  132.00    0.32  1925.71    95.22    30.54     0.62    4.71    3.71  413.03   0.83  11.02
sdd              35.56     0.16  129.60    0.25  1923.71    94.90    31.09     0.94    7.21    5.44  909.23   0.89  11.62
md0               0.00     0.00  498.74    1.18  7156.37   344.11    30.01     0.00    0.00    0.00    0.00   0.00   0.00

avg-cpu:  %user   %nice %system %iowait  %steal   %idle
           0.06    0.00    1.10    1.54    0.00   97.30

Device:         rrqm/s   wrqm/s     r/s     w/s    rkB/s    wkB/s avgrq-sz avgqu-sz   await r_await w_await  svctm  %util
nvme0n1           0.00     0.00 75527.00    0.00 302180.00     0.00     8.00     1.00    0.01    0.01    0.00   0.01 100.00
sda               0.00     0.00   20.00    0.00    84.00     0.00     8.40     0.00    0.00    0.00    0.00   0.00   0.00
sdc               0.00     0.00    0.00    0.00     0.00     0.00     0.00     0.00    0.00    0.00    0.00   0.00   0.00
sdb               0.00     0.00    0.00    0.00     0.00     0.00     0.00     0.00    0.00    0.00    0.00   0.00   0.00
sdd               0.00     0.00    0.00    0.00     0.00     0.00     0.00     0.00    0.00    0.00    0.00   0.00   0.00
md0               0.00     0.00    0.00    0.00     0.00     0.00     0.00     0.00    0.00    0.00    0.00   0.00   0.00

avg-cpu:  %user   %nice %system %iowait  %steal   %idle
           0.09    0.00    1.16    1.51    0.00   97.24

Device:         rrqm/s   wrqm/s     r/s     w/s    rkB/s    wkB/s avgrq-sz avgqu-sz   await r_await w_await  svctm  %util
nvme0n1           0.00     0.00 73796.00    0.00 295596.00     0.00     8.01     1.00    0.01    0.01    0.00   0.01 100.00
sda               0.00     0.00    0.00    0.00     0.00     0.00     0.00     0.00    0.00    0.00    0.00   0.00   0.00
sdc               0.00     0.00    0.00    0.00     0.00     0.00     0.00     0.00    0.00    0.00    0.00   0.00   0.00
sdb               0.00     0.00    0.00    0.00     0.00     0.00     0.00     0.00    0.00    0.00    0.00   0.00   0.00
sdd               0.00     0.00    0.00    0.00     0.00     0.00     0.00     0.00    0.00    0.00    0.00   0.00   0.00
md0               0.00     0.00    0.00    0.00     0.00     0.00     0.00     0.00    0.00    0.00    0.00   0.00   0.00

