Linux 4.17.2 (bench2) 	08/04/2018 	_x86_64_	(32 CPU)

avg-cpu:  %user   %nice %system %iowait  %steal   %idle
           1.88    0.00    1.55    1.66    0.00   94.91

Device:         rrqm/s   wrqm/s     r/s     w/s    rkB/s    wkB/s avgrq-sz avgqu-sz   await r_await w_await  svctm  %util
nvme0n1         938.68     4.97 19012.07  508.05 106077.46 11467.71    12.04     1.33    0.05    0.03    0.68   0.02  39.08
sda               0.12     0.82   14.22    0.59   164.26     8.58    23.34     0.00    0.33    0.32    0.43   0.07   0.10
sdc              35.35     0.17  129.98    0.30  1926.57    95.34    31.04     0.20    1.55    0.66  381.84   0.89  11.56
sdb              33.36     0.18  131.93    0.32  1924.72    95.17    30.54     0.62    4.71    3.71  413.03   0.83  11.01
sdd              35.54     0.16  129.54    0.25  1922.73    94.85    31.09     0.94    7.21    5.44  909.23   0.89  11.61
md0               0.00     0.00  498.49    1.18  7152.70   343.94    30.01     0.00    0.00    0.00    0.00   0.00   0.00

avg-cpu:  %user   %nice %system %iowait  %steal   %idle
           0.95    0.00   14.03    0.00    0.00   85.01

Device:         rrqm/s   wrqm/s     r/s     w/s    rkB/s    wkB/s avgrq-sz avgqu-sz   await r_await w_await  svctm  %util
nvme0n1           0.00     0.00 147857.65    0.00 591434.40     0.00     8.00     8.49    0.04    0.04    0.00   0.01 103.62
sda               0.00     1.15    0.25    1.50     5.40    11.40    19.20     0.00    0.03    0.20    0.00   0.03   0.01
sdc               0.00     0.00    0.00    0.00     0.00     0.00     0.00     0.00    0.00    0.00    0.00   0.00   0.00
sdb               0.00     0.00    0.00    0.00     0.00     0.00     0.00     0.00    0.00    0.00    0.00   0.00   0.00
sdd               0.00     0.00    0.00    0.00     0.00     0.00     0.00     0.00    0.00    0.00    0.00   0.00   0.00
md0               0.00     0.00    0.00    0.00     0.00     0.00     0.00     0.00    0.00    0.00    0.00   0.00   0.00

