Linux 4.17.2 (bench2) 	08/04/2018 	_x86_64_	(32 CPU)

avg-cpu:  %user   %nice %system %iowait  %steal   %idle
           1.88    0.00    1.54    1.66    0.00   94.92

Device:         rrqm/s   wrqm/s     r/s     w/s    rkB/s    wkB/s avgrq-sz avgqu-sz   await r_await w_await  svctm  %util
nvme0n1         940.59     4.98 18845.99  509.14 105062.27 11492.37    12.04     1.33    0.05    0.03    0.68   0.02  38.96
sda               0.12     0.82   14.22    0.59   164.25     8.58    23.35     0.00    0.33    0.32    0.43   0.07   0.10
sdc              35.42     0.17  130.26    0.30  1930.71    95.54    31.04     0.20    1.55    0.66  381.84   0.89  11.58
sdb              33.43     0.18  132.22    0.32  1928.86    95.37    30.54     0.62    4.71    3.71  413.03   0.83  11.04
sdd              35.62     0.16  129.81    0.26  1926.86    95.05    31.09     0.94    7.21    5.44  909.23   0.89  11.64
md0               0.00     0.00  499.56    1.18  7168.08   344.68    30.01     0.00    0.00    0.00    0.00   0.00   0.00

avg-cpu:  %user   %nice %system %iowait  %steal   %idle
           0.59    0.00    2.44    0.00    0.00   96.97

Device:         rrqm/s   wrqm/s     r/s     w/s    rkB/s    wkB/s avgrq-sz avgqu-sz   await r_await w_await  svctm  %util
nvme0n1           0.00     0.00 166610.35    0.00 666441.40     0.00     8.00     1.99    0.01    0.01    0.00   0.01  99.99
sda               0.00     1.10    0.20    0.65     5.20     7.80    30.59     0.00    0.35    1.25    0.08   0.29   0.03
sdc               0.00     0.00    0.00    0.00     0.00     0.00     0.00     0.00    0.00    0.00    0.00   0.00   0.00
sdb               0.00     0.00    0.00    0.00     0.00     0.00     0.00     0.00    0.00    0.00    0.00   0.00   0.00
sdd               0.00     0.00    0.00    0.00     0.00     0.00     0.00     0.00    0.00    0.00    0.00   0.00   0.00
md0               0.00     0.00    0.00    0.00     0.00     0.00     0.00     0.00    0.00    0.00    0.00   0.00   0.00

