Linux 4.17.2 (bench2) 	08/04/2018 	_x86_64_	(32 CPU)

avg-cpu:  %user   %nice %system %iowait  %steal   %idle
           1.89    0.00    1.53    1.66    0.00   94.93

Device:         rrqm/s   wrqm/s     r/s     w/s    rkB/s    wkB/s avgrq-sz avgqu-sz   await r_await w_await  svctm  %util
nvme0n1         934.66     4.99 18750.30  509.64 104559.74 11503.50    12.05     1.33    0.05    0.03    0.68   0.02  38.90
sda               0.12     0.82   14.22    0.59   164.24     8.58    23.35     0.00    0.33    0.32    0.43   0.07   0.10
sdc              35.46     0.17  130.39    0.30  1932.58    95.64    31.04     0.20    1.55    0.66  381.84   0.89  11.60
sdb              33.46     0.18  132.35    0.32  1930.73    95.47    30.54     0.62    4.71    3.71  413.03   0.83  11.05
sdd              35.65     0.16  129.94    0.26  1928.73    95.15    31.09     0.94    7.21    5.44  909.23   0.89  11.65
md0               0.00     0.00  500.04    1.19  7175.02   345.01    30.01     0.00    0.00    0.00    0.00   0.00   0.00

avg-cpu:  %user   %nice %system %iowait  %steal   %idle
           1.17    0.00    5.53   27.85    0.00   65.46

Device:         rrqm/s   wrqm/s     r/s     w/s    rkB/s    wkB/s avgrq-sz avgqu-sz   await r_await w_await  svctm  %util
nvme0n1           0.00     0.00 411188.20    0.00 1644752.80     0.00     8.00    14.97    0.02    0.02    0.00   0.00 120.04
sda               0.00     1.00    4.50    1.35    30.60    10.20    13.95     0.00    0.18    0.23    0.00   0.04   0.03
sdc               0.00     0.00    0.00    0.00     0.00     0.00     0.00     0.00    0.00    0.00    0.00   0.00   0.00
sdb               0.00     0.00    0.00    0.00     0.00     0.00     0.00     0.00    0.00    0.00    0.00   0.00   0.00
sdd               0.00     0.00    0.00    0.00     0.00     0.00     0.00     0.00    0.00    0.00    0.00   0.00   0.00
md0               0.00     0.00    0.00    0.00     0.00     0.00     0.00     0.00    0.00    0.00    0.00   0.00   0.00

