Linux 4.17.2 (bench2) 	08/04/2018 	_x86_64_	(32 CPU)

avg-cpu:  %user   %nice %system %iowait  %steal   %idle
           1.88    0.00    1.54    1.66    0.00   94.92

Device:         rrqm/s   wrqm/s     r/s     w/s    rkB/s    wkB/s avgrq-sz avgqu-sz   await r_await w_await  svctm  %util
nvme0n1         939.79     4.98 18915.31  508.69 105482.39 11482.12    12.04     1.33    0.05    0.03    0.68   0.02  39.01
sda               0.12     0.82   14.22    0.59   164.25     8.58    23.35     0.00    0.33    0.32    0.43   0.07   0.10
sdc              35.39     0.17  130.15    0.30  1928.99    95.46    31.04     0.20    1.55    0.66  381.84   0.89  11.57
sdb              33.40     0.18  132.10    0.32  1927.14    95.29    30.54     0.62    4.71    3.71  413.03   0.83  11.03
sdd              35.59     0.16  129.70    0.26  1925.14    94.97    31.09     0.94    7.21    5.44  909.23   0.89  11.63
md0               0.00     0.00  499.11    1.18  7161.68   344.37    30.01     0.00    0.00    0.00    0.00   0.00   0.00

avg-cpu:  %user   %nice %system %iowait  %steal   %idle
           0.77    0.00   12.45    4.09    0.00   82.68

Device:         rrqm/s   wrqm/s     r/s     w/s    rkB/s    wkB/s avgrq-sz avgqu-sz   await r_await w_await  svctm  %util
nvme0n1           0.00     0.00 147974.60    0.00 733861.00     0.00     9.92     3.85    0.02    0.02    0.00   0.01 101.72
sda               0.00     1.05    0.20    1.50     5.20    11.00    19.06     0.00    0.03    0.25    0.00   0.03   0.01
sdc               0.00     0.00    0.00    0.00     0.00     0.00     0.00     0.00    0.00    0.00    0.00   0.00   0.00
sdb               0.00     0.00    0.00    0.00     0.00     0.00     0.00     0.00    0.00    0.00    0.00   0.00   0.00
sdd               0.00     0.00    0.00    0.00     0.00     0.00     0.00     0.00    0.00    0.00    0.00   0.00   0.00
md0               0.00     0.00    0.00    0.00     0.00     0.00     0.00     0.00    0.00    0.00    0.00   0.00   0.00

