Linux 4.17.2 (bench2) 	08/04/2018 	_x86_64_	(32 CPU)

avg-cpu:  %user   %nice %system %iowait  %steal   %idle
           1.88    0.00    1.57    1.68    0.00   94.88

Device:         rrqm/s   wrqm/s     r/s     w/s    rkB/s    wkB/s avgrq-sz avgqu-sz   await r_await w_await  svctm  %util
nvme0n1         977.80     4.93 19869.28  503.99 110347.00 11375.95    11.95     1.36    0.05    0.03    0.68   0.02  39.57
sda               0.12     0.83   14.26    0.59   164.44     8.59    23.30     0.00    0.33    0.32    0.43   0.07   0.10
sdc              35.06     0.17  128.94    0.30  1911.16    94.58    31.04     0.20    1.55    0.66  381.84   0.89  11.47
sdb              33.09     0.18  130.88    0.32  1909.32    94.41    30.54     0.62    4.71    3.71  413.03   0.83  10.93
sdd              35.26     0.16  128.50    0.25  1907.34    94.09    31.09     0.93    7.21    5.44  909.23   0.89  11.52
md0               0.00     0.00  494.50    1.17  7095.46   341.18    30.01     0.00    0.00    0.00    0.00   0.00   0.00

avg-cpu:  %user   %nice %system %iowait  %steal   %idle
           1.87    0.00   26.80    0.00    0.00   71.33

Device:         rrqm/s   wrqm/s     r/s     w/s    rkB/s    wkB/s avgrq-sz avgqu-sz   await r_await w_await  svctm  %util
nvme0n1           0.00     0.00 205471.00    0.00 821884.00     0.00     8.00     3.38    0.01    0.01    0.00   0.01 103.50
sda               0.00     0.00    1.00    0.00     8.00     0.00    16.00     0.00    0.00    0.00    0.00   0.00   0.00
sdc               0.00     0.00    0.00    0.00     0.00     0.00     0.00     0.00    0.00    0.00    0.00   0.00   0.00
sdb               0.00     0.00    0.00    0.00     0.00     0.00     0.00     0.00    0.00    0.00    0.00   0.00   0.00
sdd               0.00     0.00    0.00    0.00     0.00     0.00     0.00     0.00    0.00    0.00    0.00   0.00   0.00
md0               0.00     0.00    0.00    0.00     0.00     0.00     0.00     0.00    0.00    0.00    0.00   0.00   0.00

avg-cpu:  %user   %nice %system %iowait  %steal   %idle
           1.85    0.00   26.69    0.00    0.00   71.47

Device:         rrqm/s   wrqm/s     r/s     w/s    rkB/s    wkB/s avgrq-sz avgqu-sz   await r_await w_await  svctm  %util
nvme0n1           0.00     0.00 203097.00    0.00 812400.00     0.00     8.00     3.37    0.01    0.01    0.00   0.01 104.30
sda               0.00     0.00    0.00    0.00     0.00     0.00     0.00     0.00    0.00    0.00    0.00   0.00   0.00
sdc               0.00     0.00    0.00    0.00     0.00     0.00     0.00     0.00    0.00    0.00    0.00   0.00   0.00
sdb               0.00     0.00    0.00    0.00     0.00     0.00     0.00     0.00    0.00    0.00    0.00   0.00   0.00
sdd               0.00     0.00    0.00    0.00     0.00     0.00     0.00     0.00    0.00    0.00    0.00   0.00   0.00
md0               0.00     0.00    0.00    0.00     0.00     0.00     0.00     0.00    0.00    0.00    0.00   0.00   0.00

