Linux 4.17.2 (bench2) 	08/04/2018 	_x86_64_	(32 CPU)

avg-cpu:  %user   %nice %system %iowait  %steal   %idle
           1.88    0.00    1.57    1.68    0.00   94.88

Device:         rrqm/s   wrqm/s     r/s     w/s    rkB/s    wkB/s avgrq-sz avgqu-sz   await r_await w_await  svctm  %util
nvme0n1         978.15     4.93 19841.50  504.18 110173.04 11380.30    11.95     1.35    0.05    0.03    0.68   0.02  39.55
sda               0.12     0.83   14.26    0.59   164.44     8.59    23.30     0.00    0.33    0.32    0.43   0.07   0.10
sdc              35.08     0.17  128.99    0.30  1911.89    94.61    31.04     0.20    1.55    0.66  381.84   0.89  11.47
sdb              33.11     0.18  130.93    0.32  1910.05    94.44    30.54     0.62    4.71    3.71  413.03   0.83  10.93
sdd              35.27     0.16  128.55    0.25  1908.07    94.13    31.09     0.93    7.21    5.44  909.23   0.89  11.52
md0               0.00     0.00  494.69    1.17  7098.18   341.31    30.01     0.00    0.00    0.00    0.00   0.00   0.00

avg-cpu:  %user   %nice %system %iowait  %steal   %idle
           1.49    0.00    6.25    0.00    0.00   92.26

Device:         rrqm/s   wrqm/s     r/s     w/s    rkB/s    wkB/s avgrq-sz avgqu-sz   await r_await w_await  svctm  %util
nvme0n1           0.00     0.00 132993.00    0.00 531972.40     0.00     8.00     2.95    0.01    0.01    0.00   0.01 102.06
sda               0.00     1.10    0.30    1.05     5.60     9.40    22.22     0.00    0.04    0.00    0.05   0.04   0.01
sdc               0.00     0.00    0.00    0.00     0.00     0.00     0.00     0.00    0.00    0.00    0.00   0.00   0.00
sdb               0.00     0.00    0.00    0.00     0.00     0.00     0.00     0.00    0.00    0.00    0.00   0.00   0.00
sdd               0.00     0.00    0.00    0.00     0.00     0.00     0.00     0.00    0.00    0.00    0.00   0.00   0.00
md0               0.00     0.00    0.00    0.00     0.00     0.00     0.00     0.00    0.00    0.00    0.00   0.00   0.00

