Linux 4.17.2 (bench2) 	08/04/2018 	_x86_64_	(32 CPU)

avg-cpu:  %user   %nice %system %iowait  %steal   %idle
           1.88    0.00    1.55    1.66    0.00   94.90

Device:         rrqm/s   wrqm/s     r/s     w/s    rkB/s    wkB/s avgrq-sz avgqu-sz   await r_await w_await  svctm  %util
nvme0n1         953.16     4.96 19221.12  507.25 107009.57 11449.67    12.01     1.34    0.05    0.03    0.68   0.02  39.18
sda               0.12     0.83   14.23    0.59   164.32     8.58    23.33     0.00    0.33    0.32    0.43   0.07   0.10
sdc              35.29     0.17  129.78    0.30  1923.54    95.19    31.04     0.20    1.55    0.66  381.84   0.89  11.54
sdb              33.31     0.18  131.73    0.32  1921.69    95.02    30.54     0.62    4.71    3.71  413.03   0.83  11.00
sdd              35.49     0.16  129.33    0.25  1919.70    94.70    31.09     0.94    7.21    5.44  909.23   0.89  11.59
md0               0.00     0.00  497.70    1.18  7141.45   343.39    30.01     0.00    0.00    0.00    0.00   0.00   0.00

avg-cpu:  %user   %nice %system %iowait  %steal   %idle
           0.48    0.00    9.28   35.75    0.00   54.49

Device:         rrqm/s   wrqm/s     r/s     w/s    rkB/s    wkB/s avgrq-sz avgqu-sz   await r_await w_await  svctm  %util
nvme0n1           0.00     0.00 553960.45    0.00 2215841.80     0.00     8.00    19.05    0.02    0.02    0.00   0.00 122.41
sda               0.00     0.90    1.15    1.40     6.60    10.00    13.02     0.00    0.02    0.00    0.04   0.02   0.01
sdc               0.00     0.00    0.00    0.00     0.00     0.00     0.00     0.00    0.00    0.00    0.00   0.00   0.00
sdb               0.00     0.00    0.00    0.00     0.00     0.00     0.00     0.00    0.00    0.00    0.00   0.00   0.00
sdd               0.00     0.00    0.00    0.00     0.00     0.00     0.00     0.00    0.00    0.00    0.00   0.00   0.00
md0               0.00     0.00    0.00    0.00     0.00     0.00     0.00     0.00    0.00    0.00    0.00   0.00   0.00

