Linux 4.17.2 (bench2) 	08/04/2018 	_x86_64_	(32 CPU)

avg-cpu:  %user   %nice %system %iowait  %steal   %idle
           1.88    0.00    1.57    1.68    0.00   94.88

Device:         rrqm/s   wrqm/s     r/s     w/s    rkB/s    wkB/s avgrq-sz avgqu-sz   await r_await w_await  svctm  %util
nvme0n1         978.22     4.93 19835.56  504.22 110148.44 11381.12    11.95     1.35    0.05    0.03    0.68   0.02  39.55
sda               0.12     0.83   14.26    0.59   164.44     8.59    23.30     0.00    0.33    0.32    0.43   0.07   0.10
sdc              35.08     0.17  129.00    0.30  1912.02    94.62    31.04     0.20    1.55    0.66  381.84   0.89  11.47
sdb              33.11     0.18  130.94    0.32  1910.19    94.45    30.54     0.62    4.71    3.71  413.03   0.83  10.93
sdd              35.27     0.16  128.56    0.25  1908.21    94.13    31.09     0.93    7.21    5.44  909.23   0.89  11.52
md0               0.00     0.00  494.72    1.17  7098.69   341.34    30.01     0.00    0.00    0.00    0.00   0.00   0.00

avg-cpu:  %user   %nice %system %iowait  %steal   %idle
           1.33    0.00   25.48    5.04    0.00   68.14

Device:         rrqm/s   wrqm/s     r/s     w/s    rkB/s    wkB/s avgrq-sz avgqu-sz   await r_await w_await  svctm  %util
nvme0n1           0.00     0.00 194217.00    0.00 777916.00     0.00     8.01     3.78    0.01    0.01    0.00   0.01 102.90
sda               0.00     0.00   18.00    2.00    76.00    36.00    11.20     0.00    0.00    0.00    0.00   0.00   0.00
sdc               0.00     0.00    0.00    0.00     0.00     0.00     0.00     0.00    0.00    0.00    0.00   0.00   0.00
sdb               0.00     0.00    0.00    0.00     0.00     0.00     0.00     0.00    0.00    0.00    0.00   0.00   0.00
sdd               0.00     0.00    0.00    0.00     0.00     0.00     0.00     0.00    0.00    0.00    0.00   0.00   0.00
md0               0.00     0.00    0.00    0.00     0.00     0.00     0.00     0.00    0.00    0.00    0.00   0.00   0.00

avg-cpu:  %user   %nice %system %iowait  %steal   %idle
           1.36    0.00   25.67    4.88    0.00   68.10

Device:         rrqm/s   wrqm/s     r/s     w/s    rkB/s    wkB/s avgrq-sz avgqu-sz   await r_await w_await  svctm  %util
nvme0n1           0.00     0.00 188693.00    0.00 762480.00     0.00     8.08     3.79    0.01    0.01    0.00   0.01 103.10
sda               0.00     0.00    0.00    0.00     0.00     0.00     0.00     0.00    0.00    0.00    0.00   0.00   0.00
sdc               0.00     0.00    0.00    0.00     0.00     0.00     0.00     0.00    0.00    0.00    0.00   0.00   0.00
sdb               0.00     0.00    0.00    0.00     0.00     0.00     0.00     0.00    0.00    0.00    0.00   0.00   0.00
sdd               0.00     0.00    0.00    0.00     0.00     0.00     0.00     0.00    0.00    0.00    0.00   0.00   0.00
md0               0.00     0.00    0.00    0.00     0.00     0.00     0.00     0.00    0.00    0.00    0.00   0.00   0.00

