Linux 4.17.2 (bench2) 	08/03/2018 	_x86_64_	(32 CPU)

avg-cpu:  %user   %nice %system %iowait  %steal   %idle
           1.93    0.00    1.59    1.49    0.00   95.00

Device:         rrqm/s   wrqm/s     r/s     w/s    rkB/s    wkB/s avgrq-sz avgqu-sz   await r_await w_await  svctm  %util
nvme0n1         962.24     5.23 19398.32  534.10 108506.14 12045.46    12.10     1.38    0.05    0.03    0.67   0.02  40.61
sda               0.11     0.81   14.10    0.57   163.79     8.50    23.49     0.00    0.33    0.32    0.46   0.07   0.10
sdc              32.06     0.14  101.82    0.30  1545.86    83.60    31.91     1.45   14.23   13.17  373.51   0.95   9.74
sdb              29.97     0.15  103.88    0.32  1544.04    83.42    31.24     0.33    3.14    1.92  394.60   0.89   9.26
sdd              32.26     0.13  101.37    0.25  1541.91    83.08    31.98     0.61    6.03    4.10  782.19   0.96   9.75
md0               0.00     0.00  404.27    1.08  5704.29   292.90    29.59     0.00    0.00    0.00    0.00   0.00   0.00

avg-cpu:  %user   %nice %system %iowait  %steal   %idle
           0.03    0.00    0.22    0.00    0.00   99.75

Device:         rrqm/s   wrqm/s     r/s     w/s    rkB/s    wkB/s avgrq-sz avgqu-sz   await r_await w_await  svctm  %util
nvme0n1           0.00     0.00    0.00    0.00     0.00     0.00     0.00     0.00    0.00    0.00    0.00   0.00   0.00
sda               0.00     0.00   21.00    0.00   128.00     0.00    12.19     0.00    0.05    0.05    0.00   0.05   0.10
sdc               0.00     0.00 1259.00    0.00  5048.00     0.00     8.02     0.35    0.28    0.28    0.00   0.28  35.40
sdb               0.00     0.00 1027.00    0.00  4108.00     0.00     8.00     0.30    0.29    0.29    0.00   0.29  30.00
sdd               0.00     0.00 1014.00    0.00  4056.00     0.00     8.00     0.30    0.30    0.30    0.00   0.30  30.20
md0               0.00     0.00 3300.00    0.00 13200.00     0.00     8.00     0.00    0.00    0.00    0.00   0.00   0.00

avg-cpu:  %user   %nice %system %iowait  %steal   %idle
           0.00    0.00    0.16    0.00    0.00   99.84

Device:         rrqm/s   wrqm/s     r/s     w/s    rkB/s    wkB/s avgrq-sz avgqu-sz   await r_await w_await  svctm  %util
nvme0n1           0.00     0.00    0.00    0.00     0.00     0.00     0.00     0.00    0.00    0.00    0.00   0.00   0.00
sda               0.00     0.00    0.00    0.00     0.00     0.00     0.00     0.00    0.00    0.00    0.00   0.00   0.00
sdc               0.00     0.00 1103.00    0.00  4412.00     0.00     8.00     0.28    0.26    0.26    0.00   0.26  28.30
sdb               0.00     0.00 1024.00    0.00  4096.00     0.00     8.00     0.29    0.29    0.29    0.00   0.29  29.50
sdd               0.00     0.00 1093.00    0.00  4372.00     0.00     8.00     0.39    0.35    0.35    0.00   0.35  38.80
md0               0.00     0.00 3220.00    0.00 12880.00     0.00     8.00     0.00    0.00    0.00    0.00   0.00   0.00

avg-cpu:  %user   %nice %system %iowait  %steal   %idle
           0.00    0.00    0.22    0.00    0.00   99.78

Device:         rrqm/s   wrqm/s     r/s     w/s    rkB/s    wkB/s avgrq-sz avgqu-sz   await r_await w_await  svctm  %util
nvme0n1           0.00     0.00    0.00    0.00     0.00     0.00     0.00     0.00    0.00    0.00    0.00   0.00   0.00
sda               0.00     0.00    0.00    0.00     0.00     0.00     0.00     0.00    0.00    0.00    0.00   0.00   0.00
sdc               0.00     0.00 1004.00    0.00  4016.00     0.00     8.00     0.21    0.21    0.21    0.00   0.21  21.00
sdb               0.00     0.00  990.00    0.00  3960.00     0.00     8.00     0.40    0.40    0.40    0.00   0.40  40.00
sdd               0.00     0.00 1100.00    0.00  4400.00     0.00     8.00     0.35    0.32    0.32    0.00   0.32  35.10
md0               0.00     0.00 3094.00    0.00 12376.00     0.00     8.00     0.00    0.00    0.00    0.00   0.00   0.00

avg-cpu:  %user   %nice %system %iowait  %steal   %idle
           0.03    0.00    0.19    0.00    0.00   99.78

Device:         rrqm/s   wrqm/s     r/s     w/s    rkB/s    wkB/s avgrq-sz avgqu-sz   await r_await w_await  svctm  %util
nvme0n1           0.00     0.00    0.00    0.00     0.00     0.00     0.00     0.00    0.00    0.00    0.00   0.00   0.00
sda               0.00     0.00    0.00    0.00     0.00     0.00     0.00     0.00    0.00    0.00    0.00   0.00   0.00
sdc               0.00     0.00  980.00    0.00  3920.00     0.00     8.00     0.29    0.30    0.30    0.00   0.30  29.20
sdb               0.00     0.00  946.00    0.00  3784.00     0.00     8.00     0.29    0.31    0.31    0.00   0.31  29.30
sdd               0.00     0.00  881.00    0.00  3524.00     0.00     8.00     0.38    0.43    0.43    0.00   0.43  38.10
md0               0.00     0.00 2807.00    0.00 11228.00     0.00     8.00     0.00    0.00    0.00    0.00   0.00   0.00

avg-cpu:  %user   %nice %system %iowait  %steal   %idle
           0.00    0.00    0.22    0.00    0.00   99.78

Device:         rrqm/s   wrqm/s     r/s     w/s    rkB/s    wkB/s avgrq-sz avgqu-sz   await r_await w_await  svctm  %util
nvme0n1           0.00     0.00    0.00    0.00     0.00     0.00     0.00     0.00    0.00    0.00    0.00   0.00   0.00
sda               0.00     9.00    0.00    2.00     0.00    44.00    44.00     0.00    0.00    0.00    0.00   0.00   0.00
sdc               0.00     0.00  973.00    0.00  3892.00     0.00     8.00     0.30    0.31    0.31    0.00   0.31  30.50
sdb               0.00     0.00  981.00    0.00  3924.00     0.00     8.00     0.24    0.24    0.24    0.00   0.24  24.00
sdd               0.00     0.00  962.00    0.00  3848.00     0.00     8.00     0.41    0.43    0.43    0.00   0.42  40.60
md0               0.00     0.00 2916.00    0.00 11664.00     0.00     8.00     0.00    0.00    0.00    0.00   0.00   0.00

avg-cpu:  %user   %nice %system %iowait  %steal   %idle
           0.03    0.00    0.19    0.00    0.00   99.78

Device:         rrqm/s   wrqm/s     r/s     w/s    rkB/s    wkB/s avgrq-sz avgqu-sz   await r_await w_await  svctm  %util
nvme0n1           0.00     0.00    0.00    0.00     0.00     0.00     0.00     0.00    0.00    0.00    0.00   0.00   0.00
sda               0.00     0.00    0.00    0.00     0.00     0.00     0.00     0.00    0.00    0.00    0.00   0.00   0.00
sdc               0.00     0.00 1126.00    0.00  4504.00     0.00     8.00     0.38    0.34    0.34    0.00   0.33  37.70
sdb               0.00     0.00  988.00    0.00  3952.00     0.00     8.00     0.24    0.25    0.25    0.00   0.25  24.30
sdd               0.00     0.00 1306.00    0.00  5224.00     0.00     8.00     0.33    0.25    0.25    0.00   0.25  33.20
md0               0.00     0.00 3420.00    0.00 13680.00     0.00     8.00     0.00    0.00    0.00    0.00   0.00   0.00

avg-cpu:  %user   %nice %system %iowait  %steal   %idle
           0.00    0.00    0.19    0.00    0.00   99.81

Device:         rrqm/s   wrqm/s     r/s     w/s    rkB/s    wkB/s avgrq-sz avgqu-sz   await r_await w_await  svctm  %util
nvme0n1           0.00     0.00    0.00    0.00     0.00     0.00     0.00     0.00    0.00    0.00    0.00   0.00   0.00
sda               0.00     0.00    0.00    0.00     0.00     0.00     0.00     0.00    0.00    0.00    0.00   0.00   0.00
sdc               0.00     0.00  986.00    0.00  3944.00     0.00     8.00     0.44    0.45    0.45    0.00   0.45  43.90
sdb               0.00     0.00 1052.00    0.00  4208.00     0.00     8.00     0.26    0.25    0.25    0.00   0.25  25.80
sdd               0.00     0.00  878.00    0.00  3512.00     0.00     8.00     0.27    0.31    0.31    0.00   0.31  27.00
md0               0.00     0.00 2916.00    0.00 11664.00     0.00     8.00     0.00    0.00    0.00    0.00   0.00   0.00

avg-cpu:  %user   %nice %system %iowait  %steal   %idle
           0.03    0.00    0.22    0.00    0.00   99.75

Device:         rrqm/s   wrqm/s     r/s     w/s    rkB/s    wkB/s avgrq-sz avgqu-sz   await r_await w_await  svctm  %util
nvme0n1           0.00     0.00    0.00    0.00     0.00     0.00     0.00     0.00    0.00    0.00    0.00   0.00   0.00
sda               0.00     0.00    0.00    0.00     0.00     0.00     0.00     0.00    0.00    0.00    0.00   0.00   0.00
sdc               0.00     0.00 1060.00    0.00  4240.00     0.00     8.00     0.41    0.39    0.39    0.00   0.39  41.20
sdb               0.00     0.00  896.00    0.00  3584.00     0.00     8.00     0.24    0.27    0.27    0.00   0.27  24.10
sdd               0.00     0.00  961.00    0.00  3844.00     0.00     8.00     0.30    0.32    0.32    0.00   0.32  30.30
md0               0.00     0.00 2917.00    0.00 11668.00     0.00     8.00     0.00    0.00    0.00    0.00   0.00   0.00

avg-cpu:  %user   %nice %system %iowait  %steal   %idle
           0.00    0.00    0.19    0.00    0.00   99.81

Device:         rrqm/s   wrqm/s     r/s     w/s    rkB/s    wkB/s avgrq-sz avgqu-sz   await r_await w_await  svctm  %util
nvme0n1           0.00     0.00    0.00    0.00     0.00     0.00     0.00     0.00    0.00    0.00    0.00   0.00   0.00
sda               0.00     0.00    0.00    0.00     0.00     0.00     0.00     0.00    0.00    0.00    0.00   0.00   0.00
sdc               0.00     0.00  905.00    0.00  3620.00     0.00     8.00     0.38    0.42    0.42    0.00   0.42  37.70
sdb               0.00     0.00  860.00    0.00  3440.00     0.00     8.00     0.25    0.29    0.29    0.00   0.29  24.70
sdd               0.00     0.00 1033.00    0.00  4132.00     0.00     8.00     0.33    0.32    0.32    0.00   0.32  33.30
md0               0.00     0.00 2799.00    0.00 11196.00     0.00     8.00     0.00    0.00    0.00    0.00   0.00   0.00

avg-cpu:  %user   %nice %system %iowait  %steal   %idle
           0.00    0.00    0.19    0.00    0.00   99.81

Device:         rrqm/s   wrqm/s     r/s     w/s    rkB/s    wkB/s avgrq-sz avgqu-sz   await r_await w_await  svctm  %util
nvme0n1           0.00     0.00    0.00    0.00     0.00     0.00     0.00     0.00    0.00    0.00    0.00   0.00   0.00
sda               0.00     1.00    0.00    2.00     0.00    12.00    12.00     0.00    0.00    0.00    0.00   0.00   0.00
sdc               0.00     0.00 1015.00    0.00  4060.00     0.00     8.00     0.46    0.45    0.45    0.00   0.45  45.70
sdb               0.00     0.00  847.00    0.00  3388.00     0.00     8.00     0.26    0.31    0.31    0.00   0.31  26.00
sdd               0.00     0.00  809.00    0.00  3236.00     0.00     8.00     0.24    0.30    0.30    0.00   0.30  24.20
md0               0.00     0.00 2670.00    0.00 10680.00     0.00     8.00     0.00    0.00    0.00    0.00   0.00   0.00

avg-cpu:  %user   %nice %system %iowait  %steal   %idle
           0.03    0.00    0.25    0.00    0.00   99.72

Device:         rrqm/s   wrqm/s     r/s     w/s    rkB/s    wkB/s avgrq-sz avgqu-sz   await r_await w_await  svctm  %util
nvme0n1           0.00     0.00    0.00    0.00     0.00     0.00     0.00     0.00    0.00    0.00    0.00   0.00   0.00
sda               0.00     1.00    0.00    3.00     0.00    32.00    21.33     0.00    0.00    0.00    0.00   0.00   0.00
sdc               0.00     0.00 1013.00    0.00  4052.00     0.00     8.00     0.29    0.29    0.29    0.00   0.28  28.70
sdb               0.00     0.00 1028.00    0.00  4112.00     0.00     8.00     0.37    0.36    0.36    0.00   0.36  36.80
sdd               0.00     0.00  994.00    0.00  3976.00     0.00     8.00     0.29    0.29    0.29    0.00   0.29  29.20
md0               0.00     0.00 3035.00    0.00 12140.00     0.00     8.00     0.00    0.00    0.00    0.00   0.00   0.00

avg-cpu:  %user   %nice %system %iowait  %steal   %idle
           0.00    0.00    0.22    0.00    0.00   99.78

Device:         rrqm/s   wrqm/s     r/s     w/s    rkB/s    wkB/s avgrq-sz avgqu-sz   await r_await w_await  svctm  %util
nvme0n1           0.00     0.00    0.00    0.00     0.00     0.00     0.00     0.00    0.00    0.00    0.00   0.00   0.00
sda               0.00     0.00    0.00    0.00     0.00     0.00     0.00     0.00    0.00    0.00    0.00   0.00   0.00
sdc               0.00     0.00 1069.00    0.00  4276.00     0.00     8.00     0.38    0.36    0.36    0.00   0.36  38.30
sdb               0.00     0.00  854.00    0.00  3416.00     0.00     8.00     0.21    0.24    0.24    0.00   0.24  20.60
sdd               0.00     0.00  886.00    0.00  3544.00     0.00     8.00     0.36    0.41    0.41    0.00   0.41  36.30
md0               0.00     0.00 2809.00    0.00 11236.00     0.00     8.00     0.00    0.00    0.00    0.00   0.00   0.00

avg-cpu:  %user   %nice %system %iowait  %steal   %idle
           0.00    0.00    0.25    0.00    0.00   99.75

Device:         rrqm/s   wrqm/s     r/s     w/s    rkB/s    wkB/s avgrq-sz avgqu-sz   await r_await w_await  svctm  %util
nvme0n1           0.00     0.00    0.00    0.00     0.00     0.00     0.00     0.00    0.00    0.00    0.00   0.00   0.00
sda               0.00     0.00    0.00    0.00     0.00     0.00     0.00     0.00    0.00    0.00    0.00   0.00   0.00
sdc               0.00     0.00 1082.00    0.00  4328.00     0.00     8.00     0.38    0.35    0.35    0.00   0.35  37.50
sdb               0.00     0.00  840.00    0.00  3360.00     0.00     8.00     0.19    0.23    0.23    0.00   0.23  19.20
sdd               0.00     0.00 1043.00    0.00  4172.00     0.00     8.00     0.38    0.37    0.37    0.00   0.37  38.30
md0               0.00     0.00 2966.00    0.00 11864.00     0.00     8.00     0.00    0.00    0.00    0.00   0.00   0.00

avg-cpu:  %user   %nice %system %iowait  %steal   %idle
           0.03    0.00    0.22    0.00    0.00   99.75

Device:         rrqm/s   wrqm/s     r/s     w/s    rkB/s    wkB/s avgrq-sz avgqu-sz   await r_await w_await  svctm  %util
nvme0n1           0.00     0.00    0.00    0.00     0.00     0.00     0.00     0.00    0.00    0.00    0.00   0.00   0.00
sda               0.00     0.00    0.00    0.00     0.00     0.00     0.00     0.00    0.00    0.00    0.00   0.00   0.00
sdc               0.00     0.00 1226.00    0.00  4904.00     0.00     8.00     0.49    0.40    0.40    0.00   0.40  49.50
sdb               0.00     0.00 1070.00    0.00  4280.00     0.00     8.00     0.23    0.22    0.22    0.00   0.22  23.10
sdd               0.00     0.00  911.00    0.00  3644.00     0.00     8.00     0.23    0.25    0.25    0.00   0.25  23.00
md0               0.00     0.00 3206.00    0.00 12824.00     0.00     8.00     0.00    0.00    0.00    0.00   0.00   0.00

avg-cpu:  %user   %nice %system %iowait  %steal   %idle
           0.00    0.00    0.25    0.00    0.00   99.75

Device:         rrqm/s   wrqm/s     r/s     w/s    rkB/s    wkB/s avgrq-sz avgqu-sz   await r_await w_await  svctm  %util
nvme0n1           0.00     0.00    0.00    0.00     0.00     0.00     0.00     0.00    0.00    0.00    0.00   0.00   0.00
sda               0.00     4.00    0.00    2.00     0.00    24.00    24.00     0.00    0.50    0.00    0.50   0.50   0.10
sdc               0.00     0.00  995.00    0.00  3980.00     0.00     8.00     0.28    0.28    0.28    0.00   0.28  27.70
sdb               0.00     0.00 1161.00    0.00  4644.00     0.00     8.00     0.38    0.33    0.33    0.00   0.33  38.00
sdd               0.00     0.00 1080.00    0.00  4320.00     0.00     8.00     0.30    0.28    0.28    0.00   0.28  29.70
md0               0.00     0.00 3236.00    0.00 12944.00     0.00     8.00     0.00    0.00    0.00    0.00   0.00   0.00

avg-cpu:  %user   %nice %system %iowait  %steal   %idle
           0.03    0.00    0.25    0.00    0.00   99.72

Device:         rrqm/s   wrqm/s     r/s     w/s    rkB/s    wkB/s avgrq-sz avgqu-sz   await r_await w_await  svctm  %util
nvme0n1           0.00     0.00    0.00    0.00     0.00     0.00     0.00     0.00    0.00    0.00    0.00   0.00   0.00
sda               0.00     0.00    0.00    0.00     0.00     0.00     0.00     0.00    0.00    0.00    0.00   0.00   0.00
sdc               0.00     0.00 1096.00    0.00  4384.00     0.00     8.00     0.38    0.34    0.34    0.00   0.34  37.50
sdb               0.00     0.00  952.00    0.00  3808.00     0.00     8.00     0.28    0.30    0.30    0.00   0.30  28.20
sdd               0.00     0.00 1074.00    0.00  4296.00     0.00     8.00     0.30    0.28    0.28    0.00   0.28  30.30
md0               0.00     0.00 3122.00    0.00 12488.00     0.00     8.00     0.00    0.00    0.00    0.00   0.00   0.00

avg-cpu:  %user   %nice %system %iowait  %steal   %idle
           0.00    0.00    0.19    0.00    0.00   99.81

Device:         rrqm/s   wrqm/s     r/s     w/s    rkB/s    wkB/s avgrq-sz avgqu-sz   await r_await w_await  svctm  %util
nvme0n1           0.00     0.00    0.00    0.00     0.00     0.00     0.00     0.00    0.00    0.00    0.00   0.00   0.00
sda               0.00     0.00    0.00    0.00     0.00     0.00     0.00     0.00    0.00    0.00    0.00   0.00   0.00
sdc               0.00     0.00 1017.00    0.00  4068.00     0.00     8.00     0.26    0.25    0.25    0.00   0.25  25.90
sdb               0.00     0.00 1061.00    0.00  4244.00     0.00     8.00     0.37    0.34    0.34    0.00   0.35  36.70
sdd               0.00     0.00 1094.00    0.00  4376.00     0.00     8.00     0.33    0.30    0.30    0.00   0.30  33.30
md0               0.00     0.00 3172.00    0.00 12688.00     0.00     8.00     0.00    0.00    0.00    0.00   0.00   0.00

avg-cpu:  %user   %nice %system %iowait  %steal   %idle
           0.03    0.00    0.25    0.00    0.00   99.72

Device:         rrqm/s   wrqm/s     r/s     w/s    rkB/s    wkB/s avgrq-sz avgqu-sz   await r_await w_await  svctm  %util
nvme0n1           0.00     0.00    0.00    0.00     0.00     0.00     0.00     0.00    0.00    0.00    0.00   0.00   0.00
sda               0.00     0.00    0.00    0.00     0.00     0.00     0.00     0.00    0.00    0.00    0.00   0.00   0.00
sdc               0.00     0.00  984.00    0.00  3936.00     0.00     8.00     0.27    0.27    0.27    0.00   0.27  26.90
sdb               0.00     0.00 1253.00    0.00  5012.00     0.00     8.00     0.34    0.28    0.28    0.00   0.28  34.50
sdd               0.00     0.00  840.00    0.00  3360.00     0.00     8.00     0.34    0.41    0.41    0.00   0.41  34.20
md0               0.00     0.00 3078.00    0.00 12312.00     0.00     8.00     0.00    0.00    0.00    0.00   0.00   0.00

avg-cpu:  %user   %nice %system %iowait  %steal   %idle
           0.00    0.00    0.25    0.00    0.00   99.75

Device:         rrqm/s   wrqm/s     r/s     w/s    rkB/s    wkB/s avgrq-sz avgqu-sz   await r_await w_await  svctm  %util
nvme0n1           0.00     0.00    0.00    0.00     0.00     0.00     0.00     0.00    0.00    0.00    0.00   0.00   0.00
sda               0.00     0.00    0.00    0.00     0.00     0.00     0.00     0.00    0.00    0.00    0.00   0.00   0.00
sdc               0.00     0.00  850.00    0.00  3400.00     0.00     8.00     0.24    0.28    0.28    0.00   0.28  23.60
sdb               0.00     0.00 1138.00    0.00  4552.00     0.00     8.00     0.37    0.33    0.33    0.00   0.33  37.00
sdd               0.00     0.00 1092.00    0.00  4368.00     0.00     8.00     0.35    0.32    0.32    0.00   0.32  34.70
md0               0.00     0.00 3079.00    0.00 12316.00     0.00     8.00     0.00    0.00    0.00    0.00   0.00   0.00

avg-cpu:  %user   %nice %system %iowait  %steal   %idle
           0.03    0.00    0.22    0.00    0.00   99.75

Device:         rrqm/s   wrqm/s     r/s     w/s    rkB/s    wkB/s avgrq-sz avgqu-sz   await r_await w_await  svctm  %util
nvme0n1           0.00     0.00    0.00    0.00     0.00     0.00     0.00     0.00    0.00    0.00    0.00   0.00   0.00
sda               0.00     1.00    0.00    2.00     0.00    12.00    12.00     0.00    0.00    0.00    0.00   0.00   0.00
sdc               0.00     0.00 1162.00    0.00  4648.00     0.00     8.00     0.34    0.29    0.29    0.00   0.29  33.90
sdb               0.00     0.00 1003.00    0.00  4012.00     0.00     8.00     0.28    0.28    0.28    0.00   0.28  28.20
sdd               0.00     0.00 1069.00    0.00  4276.00     0.00     8.00     0.34    0.31    0.31    0.00   0.31  33.60
md0               0.00     0.00 3234.00    0.00 12936.00     0.00     8.00     0.00    0.00    0.00    0.00   0.00   0.00

