Linux 4.17.2 (bench2) 	08/03/2018 	_x86_64_	(32 CPU)

avg-cpu:  %user   %nice %system %iowait  %steal   %idle
           1.91    0.00    1.57    1.53    0.00   94.98

Device:         rrqm/s   wrqm/s     r/s     w/s    rkB/s    wkB/s avgrq-sz avgqu-sz   await r_await w_await  svctm  %util
nvme0n1         949.44     5.16 19140.34  526.99 107063.08 11885.26    12.10     1.36    0.05    0.03    0.67   0.02  40.07
sda               0.12     0.81   14.15    0.57   163.99     8.51    23.44     0.00    0.33    0.32    0.45   0.07   0.10
sdc              33.03     0.14  110.89    0.30  1667.67    82.49    31.48     1.51   13.62   12.65  373.51   0.93  10.30
sdb              30.96     0.15  112.91    0.32  1665.79    82.31    30.88     0.40    3.53    2.43  394.60   0.86   9.78
sdd              33.22     0.13  110.43    0.25  1663.69    81.98    31.55     0.68    6.18    4.43  782.19   0.93  10.30
md0               0.00     0.00  434.31    1.06  6170.94   289.01    29.68     0.00    0.00    0.00    0.00   0.00   0.00

avg-cpu:  %user   %nice %system %iowait  %steal   %idle
           0.06    0.00    0.75    2.25    0.00   96.94

Device:         rrqm/s   wrqm/s     r/s     w/s    rkB/s    wkB/s avgrq-sz avgqu-sz   await r_await w_await  svctm  %util
nvme0n1           0.00     0.00    0.00    0.00     0.00     0.00     0.00     0.00    0.00    0.00    0.00   0.00   0.00
sda               0.00     0.00    4.00    0.00   104.00     0.00    52.00     0.00    0.25    0.25    0.00   0.25   0.10
sdc              36.00     0.00   94.00    0.00 19548.00     0.00   415.91     0.99    7.47    7.47    0.00   5.16  48.50
sdb              39.00     0.00   89.00    0.00 21064.00     0.00   473.35     0.71    8.01    8.01    0.00   4.74  42.20
sdd              37.00     0.00  107.00    0.00 21140.00     0.00   395.14     1.11   10.39   10.39    0.00   5.23  56.00
md0               0.00     0.00  406.00    0.00 102240.00     0.00   503.65     0.00    0.00    0.00    0.00   0.00   0.00

avg-cpu:  %user   %nice %system %iowait  %steal   %idle
           0.03    0.00    0.25    2.75    0.00   96.97

Device:         rrqm/s   wrqm/s     r/s     w/s    rkB/s    wkB/s avgrq-sz avgqu-sz   await r_await w_await  svctm  %util
nvme0n1           0.00     0.00    0.00    0.00     0.00     0.00     0.00     0.00    0.00    0.00    0.00   0.00   0.00
sda               0.00     0.00    0.00    0.00     0.00     0.00     0.00     0.00    0.00    0.00    0.00   0.00   0.00
sdc             127.00     0.00  168.00    0.00 67720.00     0.00   806.19     1.49   10.42   10.42    0.00   4.04  67.80
sdb             125.00     0.00  163.00    0.00 65720.00     0.00   806.38     1.19    7.25    7.25    0.00   3.57  58.20
sdd             130.00     0.00  161.00    0.00 65748.00     0.00   816.75     1.37    8.50    8.50    0.00   4.27  68.80
md0               0.00     0.00  875.00    0.00 283292.00     0.00   647.52     0.00    0.00    0.00    0.00   0.00   0.00

avg-cpu:  %user   %nice %system %iowait  %steal   %idle
           0.00    0.00    0.22    2.81    0.00   96.97

Device:         rrqm/s   wrqm/s     r/s     w/s    rkB/s    wkB/s avgrq-sz avgqu-sz   await r_await w_await  svctm  %util
nvme0n1           0.00     0.00    0.00    0.00     0.00     0.00     0.00     0.00    0.00    0.00    0.00   0.00   0.00
sda               0.00     0.00    0.00    0.00     0.00     0.00     0.00     0.00    0.00    0.00    0.00   0.00   0.00
sdc             117.00     0.00  127.00    0.00 61336.00     0.00   965.92     1.93   15.20   15.20    0.00   6.46  82.10
sdb             118.00     0.00  132.00    0.00 61204.00     0.00   927.33     0.96    7.30    7.30    0.00   3.42  45.10
sdd             124.00     0.00  131.00    0.00 60748.00     0.00   927.45     1.57   11.79   11.79    0.00   5.29  69.30
md0               0.00     0.00  747.00    0.00 287892.00     0.00   770.80     0.00    0.00    0.00    0.00   0.00   0.00

avg-cpu:  %user   %nice %system %iowait  %steal   %idle
           0.03    0.00    0.25    2.81    0.00   96.90

Device:         rrqm/s   wrqm/s     r/s     w/s    rkB/s    wkB/s avgrq-sz avgqu-sz   await r_await w_await  svctm  %util
nvme0n1           0.00     0.00    0.00    0.00     0.00     0.00     0.00     0.00    0.00    0.00    0.00   0.00   0.00
sda               0.00     0.00    0.00    0.00     0.00     0.00     0.00     0.00    0.00    0.00    0.00   0.00   0.00
sdc             124.00     0.00  153.00    0.00 64368.00     0.00   841.41     1.41    9.18    9.18    0.00   4.18  63.90
sdb             137.00     0.00  137.00    0.00 64348.00     0.00   939.39     1.59   11.40   11.40    0.00   5.39  73.90
sdd             130.00     0.00  154.00    0.00 65208.00     0.00   846.86     1.33    8.81    8.81    0.00   4.10  63.10
md0               0.00     0.00  840.00    0.00 286436.00     0.00   681.99     0.00    0.00    0.00    0.00   0.00   0.00

avg-cpu:  %user   %nice %system %iowait  %steal   %idle
           0.00    0.00    0.28    2.81    0.00   96.91

Device:         rrqm/s   wrqm/s     r/s     w/s    rkB/s    wkB/s avgrq-sz avgqu-sz   await r_await w_await  svctm  %util
nvme0n1           0.00     0.00    0.00    0.00     0.00     0.00     0.00     0.00    0.00    0.00    0.00   0.00   0.00
sda               0.00    11.00    0.00    2.00     0.00    52.00    52.00     0.00    0.50    0.00    0.50   0.50   0.10
sdc             131.00     0.00  157.00    0.00 65792.00     0.00   838.11     1.13    7.22    7.22    0.00   3.63  57.00
sdb             116.00     0.00  172.00    0.00 66460.00     0.00   772.79     1.59    9.32    9.32    0.00   4.38  75.30
sdd             123.00     0.00  176.00    0.00 65672.00     0.00   746.27     1.23    6.86    6.86    0.00   3.27  57.60
md0               0.00     0.00  871.00    0.00 275368.00     0.00   632.30     0.00    0.00    0.00    0.00   0.00   0.00

avg-cpu:  %user   %nice %system %iowait  %steal   %idle
           0.03    0.00    0.25    2.81    0.00   96.91

Device:         rrqm/s   wrqm/s     r/s     w/s    rkB/s    wkB/s avgrq-sz avgqu-sz   await r_await w_await  svctm  %util
nvme0n1           0.00     0.00    0.00    0.00     0.00     0.00     0.00     0.00    0.00    0.00    0.00   0.00   0.00
sda               0.00     1.00    0.00    2.00     0.00    12.00    12.00     0.00    0.00    0.00    0.00   0.00   0.00
sdc             129.00     0.00  158.00    0.00 67444.00     0.00   853.72     1.67   10.55   10.55    0.00   4.75  75.00
sdb             140.00     0.00  141.00    0.00 65720.00     0.00   932.20     1.52   10.67   10.67    0.00   5.41  76.30
sdd             129.00     0.00  148.00    0.00 66832.00     0.00   903.14     1.48    9.84    9.84    0.00   4.47  66.20
md0               0.00     0.00  850.00    0.00 270964.00     0.00   637.56     0.00    0.00    0.00    0.00   0.00   0.00

avg-cpu:  %user   %nice %system %iowait  %steal   %idle
           0.03    0.00    0.31    2.78    0.00   96.88

Device:         rrqm/s   wrqm/s     r/s     w/s    rkB/s    wkB/s avgrq-sz avgqu-sz   await r_await w_await  svctm  %util
nvme0n1           0.00     0.00    0.00    0.00     0.00     0.00     0.00     0.00    0.00    0.00    0.00   0.00   0.00
sda               0.00     0.00    0.00    0.00     0.00     0.00     0.00     0.00    0.00    0.00    0.00   0.00   0.00
sdc             124.00     0.00  155.00    0.00 65288.00     0.00   842.43     1.68   10.78   10.78    0.00   4.77  73.90
sdb             130.00     0.00  159.00    0.00 68628.00     0.00   863.25     1.57   10.08   10.08    0.00   4.64  73.80
sdd             134.00     0.00  152.00    0.00 66220.00     0.00   871.32     1.66   11.09   11.09    0.00   5.01  76.20
md0               0.00     0.00  851.00    0.00 295580.00     0.00   694.67     0.00    0.00    0.00    0.00   0.00   0.00

avg-cpu:  %user   %nice %system %iowait  %steal   %idle
           0.00    0.00    0.28    0.53    0.00   99.19

Device:         rrqm/s   wrqm/s     r/s     w/s    rkB/s    wkB/s avgrq-sz avgqu-sz   await r_await w_await  svctm  %util
nvme0n1           0.00     0.00    0.00    0.00     0.00     0.00     0.00     0.00    0.00    0.00    0.00   0.00   0.00
sda               0.00     0.00    0.00    0.00     0.00     0.00     0.00     0.00    0.00    0.00    0.00   0.00   0.00
sdc             144.00     0.00  158.00    0.00 73452.00     0.00   929.77     1.84   11.75   11.75    0.00   5.23  82.60
sdb             142.00     0.00  161.00    0.00 72168.00     0.00   896.50     1.59    9.86    9.86    0.00   4.65  74.90
sdd             138.00     0.00  170.00    0.00 73252.00     0.00   861.79     1.39    8.29    8.29    0.00   3.82  65.00
md0               0.00     0.00  912.00    0.00 314796.00     0.00   690.34     0.00    0.00    0.00    0.00   0.00   0.00

avg-cpu:  %user   %nice %system %iowait  %steal   %idle
           0.03    0.00    0.28    0.06    0.00   99.62

Device:         rrqm/s   wrqm/s     r/s     w/s    rkB/s    wkB/s avgrq-sz avgqu-sz   await r_await w_await  svctm  %util
nvme0n1           0.00     0.00    0.00    0.00     0.00     0.00     0.00     0.00    0.00    0.00    0.00   0.00   0.00
sda               0.00     0.00    0.00    0.00     0.00     0.00     0.00     0.00    0.00    0.00    0.00   0.00   0.00
sdc             143.00     0.00  209.00    0.00 74808.00     0.00   715.87     1.56    7.42    7.42    0.00   3.27  68.40
sdb             132.00     0.00  241.00    0.00 75252.00     0.00   624.50     0.97    4.00    4.00    0.00   2.00  48.20
sdd             136.00     0.00  215.00    0.00 75708.00     0.00   704.26     1.83    8.47    8.47    0.00   3.53  76.00
md0               0.00     0.00 1078.00    0.00 320312.00     0.00   594.27     0.00    0.00    0.00    0.00   0.00   0.00

avg-cpu:  %user   %nice %system %iowait  %steal   %idle
           0.03    0.00    0.28    0.03    0.00   99.66

Device:         rrqm/s   wrqm/s     r/s     w/s    rkB/s    wkB/s avgrq-sz avgqu-sz   await r_await w_await  svctm  %util
nvme0n1           0.00     0.00    0.00    0.00     0.00     0.00     0.00     0.00    0.00    0.00    0.00   0.00   0.00
sda               0.00     4.00    0.00    2.00     0.00    24.00    24.00     0.00    0.00    0.00    0.00   0.00   0.00
sdc             162.00     0.00  155.00    0.00 78568.00     0.00  1013.78     1.61   10.50   10.50    0.00   4.78  74.10
sdb             148.00     0.00  177.00    0.00 76908.00     0.00   869.02     0.94    5.38    5.38    0.00   2.75  48.60
sdd             146.00     0.00  165.00    0.00 77668.00     0.00   941.43     2.05   12.48   12.48    0.00   4.95  81.70
md0               0.00     0.00  950.00    0.00 342872.00     0.00   721.84     0.00    0.00    0.00    0.00   0.00   0.00

avg-cpu:  %user   %nice %system %iowait  %steal   %idle
           0.00    0.00    0.22    0.03    0.00   99.75

Device:         rrqm/s   wrqm/s     r/s     w/s    rkB/s    wkB/s avgrq-sz avgqu-sz   await r_await w_await  svctm  %util
nvme0n1           0.00     0.00    0.00    0.00     0.00     0.00     0.00     0.00    0.00    0.00    0.00   0.00   0.00
sda               0.00     1.00    0.00    2.00     0.00    28.00    28.00     0.00    0.00    0.00    0.00   0.00   0.00
sdc             127.00     0.00  159.00    0.00 67388.00     0.00   847.65     1.70   10.60   10.60    0.00   4.75  75.50
sdb             130.00     0.00  151.00    0.00 66840.00     0.00   885.30     1.79   11.60   11.60    0.00   5.29  79.90
sdd             130.00     0.00  156.00    0.00 68440.00     0.00   877.44     1.42    9.11    9.11    0.00   4.25  66.30
md0               0.00     0.00  854.00    0.00 292604.00     0.00   685.26     0.00    0.00    0.00    0.00   0.00   0.00

avg-cpu:  %user   %nice %system %iowait  %steal   %idle
           0.03    0.00    0.31    0.00    0.00   99.66

Device:         rrqm/s   wrqm/s     r/s     w/s    rkB/s    wkB/s avgrq-sz avgqu-sz   await r_await w_await  svctm  %util
nvme0n1           0.00     0.00    0.00    0.00     0.00     0.00     0.00     0.00    0.00    0.00    0.00   0.00   0.00
sda               0.00     0.00    0.00    0.00     0.00     0.00     0.00     0.00    0.00    0.00    0.00   0.00   0.00
sdc             149.00     0.00  176.00    0.00 75860.00     0.00   862.05     1.38    7.76    7.76    0.00   3.61  63.50
sdb             158.00     0.00  178.00    0.00 76768.00     0.00   862.56     1.34    7.63    7.63    0.00   4.11  73.10
sdd             147.00     0.00  177.00    0.00 75860.00     0.00   857.18     1.84   10.38   10.38    0.00   4.47  79.10
md0               0.00     0.00  989.00    0.00 324416.00     0.00   656.05     0.00    0.00    0.00    0.00   0.00   0.00

avg-cpu:  %user   %nice %system %iowait  %steal   %idle
           0.00    0.00    0.28    0.03    0.00   99.69

Device:         rrqm/s   wrqm/s     r/s     w/s    rkB/s    wkB/s avgrq-sz avgqu-sz   await r_await w_await  svctm  %util
nvme0n1           0.00     0.00    0.00    0.00     0.00     0.00     0.00     0.00    0.00    0.00    0.00   0.00   0.00
sda               0.00     0.00    0.00    0.00     0.00     0.00     0.00     0.00    0.00    0.00    0.00   0.00   0.00
sdc             132.00     0.00  163.00    0.00 67136.00     0.00   823.75     1.44    8.72    8.72    0.00   4.24  69.10
sdb             126.00     0.00  174.00    0.00 68104.00     0.00   782.80     1.54    8.89    8.89    0.00   4.13  71.90
sdd             133.00     0.00  166.00    0.00 68264.00     0.00   822.46     1.25    7.55    7.55    0.00   3.84  63.70
md0               0.00     0.00  891.00    0.00 293776.00     0.00   659.43     0.00    0.00    0.00    0.00   0.00   0.00

avg-cpu:  %user   %nice %system %iowait  %steal   %idle
           0.03    0.00    0.28    0.06    0.00   99.62

Device:         rrqm/s   wrqm/s     r/s     w/s    rkB/s    wkB/s avgrq-sz avgqu-sz   await r_await w_await  svctm  %util
nvme0n1           0.00     0.00    0.00    0.00     0.00     0.00     0.00     0.00    0.00    0.00    0.00   0.00   0.00
sda               0.00     0.00    0.00    0.00     0.00     0.00     0.00     0.00    0.00    0.00    0.00   0.00   0.00
sdc             143.00     0.00  168.00    0.00 75020.00     0.00   893.10     1.53    9.23    9.23    0.00   4.31  72.40
sdb             133.00     0.00  181.00    0.00 74584.00     0.00   824.13     1.14    6.38    6.38    0.00   3.30  59.80
sdd             135.00     0.00  173.00    0.00 73856.00     0.00   853.83     1.68    9.69    9.69    0.00   4.60  79.50
md0               0.00     0.00  929.00    0.00 289736.00     0.00   623.76     0.00    0.00    0.00    0.00   0.00   0.00

avg-cpu:  %user   %nice %system %iowait  %steal   %idle
           0.03    0.00    0.28    0.00    0.00   99.69

Device:         rrqm/s   wrqm/s     r/s     w/s    rkB/s    wkB/s avgrq-sz avgqu-sz   await r_await w_await  svctm  %util
nvme0n1           0.00     0.00    0.00    0.00     0.00     0.00     0.00     0.00    0.00    0.00    0.00   0.00   0.00
sda               0.00     4.00    0.00    2.00     0.00    24.00    24.00     0.00    0.00    0.00    0.00   0.00   0.00
sdc             140.00     0.00  176.00    0.00 74316.00     0.00   844.50     1.32    7.64    7.64    0.00   3.66  64.40
sdb             143.00     0.00  172.00    0.00 73516.00     0.00   854.84     1.25    7.30    7.30    0.00   3.37  58.00
sdd             153.00     0.00  185.00    0.00 73356.00     0.00   793.04     2.06   11.13   11.13    0.00   4.79  88.60
md0               0.00     0.00  968.00    0.00 316456.00     0.00   653.83     0.00    0.00    0.00    0.00   0.00   0.00

avg-cpu:  %user   %nice %system %iowait  %steal   %idle
           0.00    0.00    0.25    0.47    0.00   99.28

Device:         rrqm/s   wrqm/s     r/s     w/s    rkB/s    wkB/s avgrq-sz avgqu-sz   await r_await w_await  svctm  %util
nvme0n1           0.00     0.00    0.00    0.00     0.00     0.00     0.00     0.00    0.00    0.00    0.00   0.00   0.00
sda               0.00     0.00    0.00    2.00     0.00    32.00    32.00     0.00    0.00    0.00    0.00   0.00   0.00
sdc             143.00     0.00  169.00    0.00 73496.00     0.00   869.78     1.67    9.81    9.81    0.00   4.19  70.80
sdb             146.00     0.00  179.00    0.00 73544.00     0.00   821.72     1.17    6.49    6.49    0.00   3.36  60.20
sdd             148.00     0.00  184.00    0.00 72932.00     0.00   792.74     1.76    9.53    9.53    0.00   4.08  75.00
md0               0.00     0.00  977.00    0.00 372804.00     0.00   763.16     0.00    0.00    0.00    0.00   0.00   0.00

avg-cpu:  %user   %nice %system %iowait  %steal   %idle
           0.03    0.00    0.13    0.34    0.00   99.50

Device:         rrqm/s   wrqm/s     r/s     w/s    rkB/s    wkB/s avgrq-sz avgqu-sz   await r_await w_await  svctm  %util
nvme0n1           0.00     0.00    0.00    0.00     0.00     0.00     0.00     0.00    0.00    0.00    0.00   0.00   0.00
sda               0.00     0.00    0.00    0.00     0.00     0.00     0.00     0.00    0.00    0.00    0.00   0.00   0.00
sdc              80.00     0.00   99.00    0.00 43856.00     0.00   885.98     2.19   20.68   20.68    0.00   9.00  89.10
sdb              88.00     0.00  117.00    0.00 45276.00     0.00   773.95     0.58    5.04    5.04    0.00   2.75  32.20
sdd              84.00     0.00  115.00    0.00 45320.00     0.00   788.17     0.87    7.58    7.58    0.00   3.68  42.30
md0               0.00     0.00  578.00    0.00 195260.00     0.00   675.64     0.00    0.00    0.00    0.00   0.00   0.00

avg-cpu:  %user   %nice %system %iowait  %steal   %idle
           0.00    0.00    0.19    0.00    0.00   99.94

Device:         rrqm/s   wrqm/s     r/s     w/s    rkB/s    wkB/s avgrq-sz avgqu-sz   await r_await w_await  svctm  %util
nvme0n1           0.00     0.00    0.00    0.00     0.00     0.00     0.00     0.00    0.00    0.00    0.00   0.00   0.00
sda               0.00     0.00    0.00    0.00     0.00     0.00     0.00     0.00    0.00    0.00    0.00   0.00   0.00
sdc              97.00     0.00  114.00    0.00 52528.00     0.00   921.54     1.43   13.88   13.88    0.00   6.37  72.60
sdb              94.00     0.00  118.00    0.00 49660.00     0.00   841.69     1.15    9.71    9.71    0.00   4.86  57.30
sdd              89.00     0.00  109.00    0.00 50476.00     0.00   926.17     1.18   10.82   10.82    0.00   4.76  51.90
md0               0.00     0.00  619.00    0.00 209028.00     0.00   675.37     0.00    0.00    0.00    0.00   0.00   0.00

avg-cpu:  %user   %nice %system %iowait  %steal   %idle
           0.03    0.00    0.25    0.03    0.00   99.69

Device:         rrqm/s   wrqm/s     r/s     w/s    rkB/s    wkB/s avgrq-sz avgqu-sz   await r_await w_await  svctm  %util
nvme0n1           0.00     0.00    0.00    0.00     0.00     0.00     0.00     0.00    0.00    0.00    0.00   0.00   0.00
sda               0.00     0.00    0.00    0.00     0.00     0.00     0.00     0.00    0.00    0.00    0.00   0.00   0.00
sdc             139.00     0.00  187.00    0.00 74968.00     0.00   801.80     1.08    5.77    5.77    0.00   3.12  58.30
sdb             144.00     0.00  214.00    0.00 74152.00     0.00   693.01     1.64    7.56    7.56    0.00   3.64  77.90
sdd             150.00     0.00  204.00    0.00 74128.00     0.00   726.75     1.31    6.40    6.40    0.00   3.25  66.40
md0               0.00     0.00 1041.00    0.00 353472.00     0.00   679.10     0.00    0.00    0.00    0.00   0.00   0.00

avg-cpu:  %user   %nice %system %iowait  %steal   %idle
           0.03    0.00    0.25    0.03    0.00   99.69

Device:         rrqm/s   wrqm/s     r/s     w/s    rkB/s    wkB/s avgrq-sz avgqu-sz   await r_await w_await  svctm  %util
nvme0n1           0.00     0.00    0.00    0.00     0.00     0.00     0.00     0.00    0.00    0.00    0.00   0.00   0.00
sda               0.00     5.00    0.00    2.00     0.00    28.00    28.00     0.00    0.00    0.00    0.00   0.00   0.00
sdc             154.00     0.00  161.00    0.00 73500.00     0.00   913.04     1.32    8.20    8.20    0.00   4.09  65.80
sdb             143.00     0.00  162.00    0.00 74392.00     0.00   918.42     1.51    9.12    9.12    0.00   4.23  68.50
sdd             142.00     0.00  157.00    0.00 74104.00     0.00   944.00     1.73   11.04   11.04    0.00   4.96  77.90
md0               0.00     0.00  917.00    0.00 347444.00     0.00   757.78     0.00    0.00    0.00    0.00   0.00   0.00

