Linux 4.17.2 (bench2) 	08/03/2018 	_x86_64_	(32 CPU)

avg-cpu:  %user   %nice %system %iowait  %steal   %idle
           1.92    0.00    1.57    1.53    0.00   94.98

Device:         rrqm/s   wrqm/s     r/s     w/s    rkB/s    wkB/s avgrq-sz avgqu-sz   await r_await w_await  svctm  %util
nvme0n1         950.10     5.16 19153.65  527.36 107137.53 11893.53    12.10     1.36    0.05    0.03    0.67   0.02  40.10
sda               0.11     0.81   14.14    0.57   163.99     8.51    23.44     0.00    0.33    0.32    0.45   0.07   0.10
sdc              33.05     0.14  110.52    0.30  1661.37    82.54    31.47     1.51   13.66   12.69  373.51   0.93  10.27
sdb              30.98     0.15  112.55    0.32  1659.47    82.36    30.87     0.40    3.53    2.42  394.60   0.86   9.76
sdd              33.24     0.13  110.06    0.25  1657.37    82.03    31.54     0.68    6.19    4.43  782.19   0.93  10.27
md0               0.00     0.00  433.26    1.06  6146.75   289.21    29.64     0.00    0.00    0.00    0.00   0.00   0.00

avg-cpu:  %user   %nice %system %iowait  %steal   %idle
           0.00    0.00    0.06    3.09    0.00   96.84

Device:         rrqm/s   wrqm/s     r/s     w/s    rkB/s    wkB/s avgrq-sz avgqu-sz   await r_await w_await  svctm  %util
nvme0n1           0.00     0.00    0.00    0.00     0.00     0.00     0.00     0.00    0.00    0.00    0.00   0.00   0.00
sda               0.00     0.00    4.00    0.00   104.00     0.00    52.00     0.00    0.25    0.25    0.00   0.25   0.10
sdc               0.00     0.00   42.00    0.00   168.00     0.00     8.00     0.28    6.71    6.71    0.00   6.76  28.40
sdb               0.00     0.00   48.00    0.00   192.00     0.00     8.00     0.39    8.06    8.06    0.00   8.06  38.70
sdd               0.00     0.00   43.00    0.00   172.00     0.00     8.00     0.32    7.44    7.44    0.00   7.44  32.00
md0               0.00     0.00  134.00    0.00   536.00     0.00     8.00     0.00    0.00    0.00    0.00   0.00   0.00

avg-cpu:  %user   %nice %system %iowait  %steal   %idle
           0.00    0.00    0.00    3.09    0.00   96.91

Device:         rrqm/s   wrqm/s     r/s     w/s    rkB/s    wkB/s avgrq-sz avgqu-sz   await r_await w_await  svctm  %util
nvme0n1           0.00     0.00    0.00    0.00     0.00     0.00     0.00     0.00    0.00    0.00    0.00   0.00   0.00
sda               0.00     0.00    0.00    0.00     0.00     0.00     0.00     0.00    0.00    0.00    0.00   0.00   0.00
sdc               0.00     0.00   44.00    0.00   176.00     0.00     8.00     0.35    7.98    7.98    0.00   7.93  34.90
sdb               0.00     0.00   43.00    0.00   172.00     0.00     8.00     0.33    7.77    7.77    0.00   7.77  33.40
sdd               0.00     0.00   40.00    0.00   160.00     0.00     8.00     0.31    7.65    7.65    0.00   7.80  31.20
md0               0.00     0.00  127.00    0.00   508.00     0.00     8.00     0.00    0.00    0.00    0.00   0.00   0.00

avg-cpu:  %user   %nice %system %iowait  %steal   %idle
           0.00    0.00    0.03    3.09    0.00   96.88

Device:         rrqm/s   wrqm/s     r/s     w/s    rkB/s    wkB/s avgrq-sz avgqu-sz   await r_await w_await  svctm  %util
nvme0n1           0.00     0.00    0.00    0.00     0.00     0.00     0.00     0.00    0.00    0.00    0.00   0.00   0.00
sda               0.00     0.00    0.00    0.00     0.00     0.00     0.00     0.00    0.00    0.00    0.00   0.00   0.00
sdc               0.00     0.00   44.00    0.00   176.00     0.00     8.00     0.34    7.64    7.64    0.00   7.64  33.60
sdb               0.00     0.00   37.00    0.00   148.00     0.00     8.00     0.30    8.08    8.08    0.00   8.08  29.90
sdd               0.00     0.00   43.00    0.00   172.00     0.00     8.00     0.36    8.49    8.49    0.00   8.35  35.90
md0               0.00     0.00  124.00    0.00   496.00     0.00     8.00     0.00    0.00    0.00    0.00   0.00   0.00

avg-cpu:  %user   %nice %system %iowait  %steal   %idle
           0.00    0.00    0.00    3.09    0.00   96.91

Device:         rrqm/s   wrqm/s     r/s     w/s    rkB/s    wkB/s avgrq-sz avgqu-sz   await r_await w_await  svctm  %util
nvme0n1           0.00     0.00    0.00    0.00     0.00     0.00     0.00     0.00    0.00    0.00    0.00   0.00   0.00
sda               0.00     0.00    0.00    0.00     0.00     0.00     0.00     0.00    0.00    0.00    0.00   0.00   0.00
sdc               0.00     0.00   36.00    0.00   144.00     0.00     8.00     0.28    7.81    7.81    0.00   7.81  28.10
sdb               0.00     0.00   38.00    0.00   152.00     0.00     8.00     0.32    8.29    8.29    0.00   8.29  31.50
sdd               0.00     0.00   49.00    0.00   196.00     0.00     8.00     0.39    7.92    7.92    0.00   8.04  39.40
md0               0.00     0.00  123.00    0.00   492.00     0.00     8.00     0.00    0.00    0.00    0.00   0.00   0.00

avg-cpu:  %user   %nice %system %iowait  %steal   %idle
           0.00    0.00    0.03    3.09    0.00   96.88

Device:         rrqm/s   wrqm/s     r/s     w/s    rkB/s    wkB/s avgrq-sz avgqu-sz   await r_await w_await  svctm  %util
nvme0n1           0.00     0.00    0.00    0.00     0.00     0.00     0.00     0.00    0.00    0.00    0.00   0.00   0.00
sda               0.00     0.00    0.00    0.00     0.00     0.00     0.00     0.00    0.00    0.00    0.00   0.00   0.00
sdc               0.00     0.00   38.00    0.00   152.00     0.00     8.00     0.27    7.18    7.18    0.00   7.18  27.30
sdb               0.00     0.00   40.00    0.00   160.00     0.00     8.00     0.33    8.15    8.15    0.00   8.22  32.90
sdd               0.00     0.00   46.00    0.00   184.00     0.00     8.00     0.39    8.63    8.63    0.00   8.50  39.10
md0               0.00     0.00  124.00    0.00   496.00     0.00     8.00     0.00    0.00    0.00    0.00   0.00   0.00

avg-cpu:  %user   %nice %system %iowait  %steal   %idle
           0.00    0.00    0.03    3.09    0.00   96.87

Device:         rrqm/s   wrqm/s     r/s     w/s    rkB/s    wkB/s avgrq-sz avgqu-sz   await r_await w_await  svctm  %util
nvme0n1           0.00     0.00    0.00    0.00     0.00     0.00     0.00     0.00    0.00    0.00    0.00   0.00   0.00
sda               0.00    12.00    0.00    2.00     0.00    56.00    56.00     0.00    0.00    0.00    0.00   0.00   0.00
sdc               0.00     0.00   39.00    0.00   156.00     0.00     8.00     0.29    7.49    7.49    0.00   7.49  29.20
sdb               0.00     0.00   42.00    0.00   168.00     0.00     8.00     0.35    8.33    8.33    0.00   8.26  34.70
sdd               0.00     0.00   42.00    0.00   168.00     0.00     8.00     0.35    8.38    8.38    0.00   8.45  35.50
md0               0.00     0.00  123.00    0.00   492.00     0.00     8.00     0.00    0.00    0.00    0.00   0.00   0.00

avg-cpu:  %user   %nice %system %iowait  %steal   %idle
           0.00    0.00    0.00    3.09    0.00   96.91

Device:         rrqm/s   wrqm/s     r/s     w/s    rkB/s    wkB/s avgrq-sz avgqu-sz   await r_await w_await  svctm  %util
nvme0n1           0.00     0.00    0.00    0.00     0.00     0.00     0.00     0.00    0.00    0.00    0.00   0.00   0.00
sda               0.00     0.00    0.00    0.00     0.00     0.00     0.00     0.00    0.00    0.00    0.00   0.00   0.00
sdc               0.00     0.00   48.00    0.00   192.00     0.00     8.00     0.39    8.19    8.19    0.00   8.19  39.30
sdb               0.00     0.00   36.00    0.00   144.00     0.00     8.00     0.31    8.36    8.36    0.00   8.53  30.70
sdd               0.00     0.00   38.00    0.00   152.00     0.00     8.00     0.29    7.84    7.84    0.00   7.76  29.50
md0               0.00     0.00  122.00    0.00   488.00     0.00     8.00     0.00    0.00    0.00    0.00   0.00   0.00

avg-cpu:  %user   %nice %system %iowait  %steal   %idle
           0.00    0.00    0.03    3.09    0.00   96.88

Device:         rrqm/s   wrqm/s     r/s     w/s    rkB/s    wkB/s avgrq-sz avgqu-sz   await r_await w_await  svctm  %util
nvme0n1           0.00     0.00    0.00    0.00     0.00     0.00     0.00     0.00    0.00    0.00    0.00   0.00   0.00
sda               0.00     0.00    0.00    2.00     0.00     8.00     8.00     0.00    0.00    0.00    0.00   0.00   0.00
sdc               0.00     0.00   33.00    0.00   132.00     0.00     8.00     0.27    8.24    8.24    0.00   8.24  27.20
sdb               0.00     0.00   43.00    0.00   172.00     0.00     8.00     0.33    7.86    7.86    0.00   7.72  33.20
sdd               0.00     0.00   51.00    0.00   204.00     0.00     8.00     0.39    7.59    7.59    0.00   7.65  39.00
md0               0.00     0.00  127.00    0.00   508.00     0.00     8.00     0.00    0.00    0.00    0.00   0.00   0.00

avg-cpu:  %user   %nice %system %iowait  %steal   %idle
           0.00    0.00    0.00    3.12    0.00   96.88

Device:         rrqm/s   wrqm/s     r/s     w/s    rkB/s    wkB/s avgrq-sz avgqu-sz   await r_await w_await  svctm  %util
nvme0n1           0.00     0.00    0.00    0.00     0.00     0.00     0.00     0.00    0.00    0.00    0.00   0.00   0.00
sda               0.00     0.00    0.00    0.00     0.00     0.00     0.00     0.00    0.00    0.00    0.00   0.00   0.00
sdc               0.00     0.00   45.00    0.00   180.00     0.00     8.00     0.38    8.38    8.38    0.00   8.40  37.80
sdb               0.00     0.00   39.00    0.00   156.00     0.00     8.00     0.30    7.67    7.67    0.00   7.67  29.90
sdd               0.00     0.00   38.00    0.00   152.00     0.00     8.00     0.32    8.37    8.37    0.00   8.29  31.50
md0               0.00     0.00  122.00    0.00   488.00     0.00     8.00     0.00    0.00    0.00    0.00   0.00   0.00

avg-cpu:  %user   %nice %system %iowait  %steal   %idle
           0.00    0.00    0.03    3.09    0.00   96.88

Device:         rrqm/s   wrqm/s     r/s     w/s    rkB/s    wkB/s avgrq-sz avgqu-sz   await r_await w_await  svctm  %util
nvme0n1           0.00     0.00    0.00    0.00     0.00     0.00     0.00     0.00    0.00    0.00    0.00   0.00   0.00
sda               0.00     0.00    0.00    0.00     0.00     0.00     0.00     0.00    0.00    0.00    0.00   0.00   0.00
sdc               0.00     0.00   33.00    0.00   132.00     0.00     8.00     0.26    7.82    7.82    0.00   7.79  25.70
sdb               0.00     0.00   47.00    0.00   188.00     0.00     8.00     0.36    7.68    7.68    0.00   7.68  36.10
sdd               0.00     0.00   46.00    0.00   184.00     0.00     8.00     0.37    7.96    7.96    0.00   8.09  37.20
md0               0.00     0.00  126.00    0.00   504.00     0.00     8.00     0.00    0.00    0.00    0.00   0.00   0.00

avg-cpu:  %user   %nice %system %iowait  %steal   %idle
           0.00    0.00    0.03    3.09    0.00   96.88

Device:         rrqm/s   wrqm/s     r/s     w/s    rkB/s    wkB/s avgrq-sz avgqu-sz   await r_await w_await  svctm  %util
nvme0n1           0.00     0.00    0.00    0.00     0.00     0.00     0.00     0.00    0.00    0.00    0.00   0.00   0.00
sda               0.00     4.00    0.00    2.00     0.00    24.00    24.00     0.00    0.00    0.00    0.00   0.00   0.00
sdc               0.00     0.00   36.00    0.00   144.00     0.00     8.00     0.29    7.94    7.94    0.00   8.14  29.30
sdb               0.00     0.00   43.00    0.00   172.00     0.00     8.00     0.34    7.86    7.86    0.00   7.86  33.80
sdd               0.00     0.00   47.00    0.00   188.00     0.00     8.00     0.36    7.85    7.85    0.00   7.72  36.30
md0               0.00     0.00  126.00    0.00   504.00     0.00     8.00     0.00    0.00    0.00    0.00   0.00   0.00

avg-cpu:  %user   %nice %system %iowait  %steal   %idle
           0.00    0.00    0.00    3.09    0.00   96.91

Device:         rrqm/s   wrqm/s     r/s     w/s    rkB/s    wkB/s avgrq-sz avgqu-sz   await r_await w_await  svctm  %util
nvme0n1           0.00     0.00    0.00    0.00     0.00     0.00     0.00     0.00    0.00    0.00    0.00   0.00   0.00
sda               0.00     0.00    0.00    0.00     0.00     0.00     0.00     0.00    0.00    0.00    0.00   0.00   0.00
sdc               0.00     0.00   36.00    0.00   144.00     0.00     8.00     0.26    7.53    7.53    0.00   7.33  26.40
sdb               0.00     0.00   50.00    0.00   200.00     0.00     8.00     0.38    7.54    7.54    0.00   7.54  37.70
sdd               0.00     0.00   41.00    0.00   164.00     0.00     8.00     0.35    8.46    8.46    0.00   8.51  34.90
md0               0.00     0.00  127.00    0.00   508.00     0.00     8.00     0.00    0.00    0.00    0.00   0.00   0.00

avg-cpu:  %user   %nice %system %iowait  %steal   %idle
           0.00    0.00    0.03    3.09    0.00   96.87

Device:         rrqm/s   wrqm/s     r/s     w/s    rkB/s    wkB/s avgrq-sz avgqu-sz   await r_await w_await  svctm  %util
nvme0n1           0.00     0.00    0.00    0.00     0.00     0.00     0.00     0.00    0.00    0.00    0.00   0.00   0.00
sda               0.00     2.00    0.00   20.00     0.00   104.00    10.40     0.00    0.00    0.00    0.00   0.00   0.00
sdc               0.00     0.00   37.00    0.00   148.00     0.00     8.00     0.30    8.16    8.16    0.00   8.16  30.20
sdb               0.00     0.00   41.00    0.00   164.00     0.00     8.00     0.32    7.88    7.88    0.00   7.85  32.20
sdd               0.00     0.00   50.00    0.00   200.00     0.00     8.00     0.36    7.22    7.22    0.00   7.24  36.20
md0               0.00     0.00  128.00    0.00   512.00     0.00     8.00     0.00    0.00    0.00    0.00   0.00   0.00

avg-cpu:  %user   %nice %system %iowait  %steal   %idle
           0.00    0.00    0.03    3.09    0.00   96.88

Device:         rrqm/s   wrqm/s     r/s     w/s    rkB/s    wkB/s avgrq-sz avgqu-sz   await r_await w_await  svctm  %util
nvme0n1           0.00     0.00    0.00    0.00     0.00     0.00     0.00     0.00    0.00    0.00    0.00   0.00   0.00
sda               0.00     0.00    0.00    0.00     0.00     0.00     0.00     0.00    0.00    0.00    0.00   0.00   0.00
sdc               0.00     0.00   38.00    0.00   152.00     0.00     8.00     0.33    8.55    8.55    0.00   8.55  32.50
sdb               0.00     0.00   39.00    0.00   156.00     0.00     8.00     0.34    8.41    8.41    0.00   8.59  33.50
sdd               0.00     0.00   43.00    0.00   172.00     0.00     8.00     0.33    7.84    7.84    0.00   7.77  33.40
md0               0.00     0.00  120.00    0.00   480.00     0.00     8.00     0.00    0.00    0.00    0.00   0.00   0.00

avg-cpu:  %user   %nice %system %iowait  %steal   %idle
           0.00    0.00    0.00    3.09    0.00   96.91

Device:         rrqm/s   wrqm/s     r/s     w/s    rkB/s    wkB/s avgrq-sz avgqu-sz   await r_await w_await  svctm  %util
nvme0n1           0.00     0.00    0.00    0.00     0.00     0.00     0.00     0.00    0.00    0.00    0.00   0.00   0.00
sda               0.00     0.00    0.00    0.00     0.00     0.00     0.00     0.00    0.00    0.00    0.00   0.00   0.00
sdc               0.00     0.00   42.00    0.00   168.00     0.00     8.00     0.34    8.00    8.00    0.00   8.05  33.80
sdb               0.00     0.00   39.00    0.00   156.00     0.00     8.00     0.31    8.10    8.10    0.00   7.92  30.90
sdd               0.00     0.00   44.00    0.00   176.00     0.00     8.00     0.35    7.95    7.95    0.00   7.95  35.00
md0               0.00     0.00  125.00    0.00   500.00     0.00     8.00     0.00    0.00    0.00    0.00   0.00   0.00

avg-cpu:  %user   %nice %system %iowait  %steal   %idle
           0.00    0.00    0.00    3.09    0.00   96.91

Device:         rrqm/s   wrqm/s     r/s     w/s    rkB/s    wkB/s avgrq-sz avgqu-sz   await r_await w_await  svctm  %util
nvme0n1           0.00     0.00    0.00    0.00     0.00     0.00     0.00     0.00    0.00    0.00    0.00   0.00   0.00
sda               0.00     4.00    0.00    2.00     0.00    24.00    24.00     0.00    0.00    0.00    0.00   0.00   0.00
sdc               0.00     0.00   32.00    0.00   128.00     0.00     8.00     0.26    8.22    8.22    0.00   8.16  26.10
sdb               0.00     0.00   56.00    0.00   224.00     0.00     8.00     0.44    7.88    7.88    0.00   7.91  44.30
sdd               0.00     0.00   36.00    0.00   144.00     0.00     8.00     0.30    8.22    8.22    0.00   8.22  29.60
md0               0.00     0.00  124.00    0.00   496.00     0.00     8.00     0.00    0.00    0.00    0.00   0.00   0.00

avg-cpu:  %user   %nice %system %iowait  %steal   %idle
           0.00    0.00    0.00    3.09    0.00   96.91

Device:         rrqm/s   wrqm/s     r/s     w/s    rkB/s    wkB/s avgrq-sz avgqu-sz   await r_await w_await  svctm  %util
nvme0n1           0.00     0.00    0.00    0.00     0.00     0.00     0.00     0.00    0.00    0.00    0.00   0.00   0.00
sda               0.00     0.00    0.00    0.00     0.00     0.00     0.00     0.00    0.00    0.00    0.00   0.00   0.00
sdc               0.00     0.00   38.00    0.00   152.00     0.00     8.00     0.33    8.71    8.71    0.00   8.71  33.10
sdb               0.00     0.00   37.00    0.00   148.00     0.00     8.00     0.32    8.59    8.59    0.00   8.54  31.60
sdd               0.00     0.00   45.00    0.00   180.00     0.00     8.00     0.35    7.60    7.60    0.00   7.71  34.70
md0               0.00     0.00  120.00    0.00   480.00     0.00     8.00     0.00    0.00    0.00    0.00   0.00   0.00

avg-cpu:  %user   %nice %system %iowait  %steal   %idle
           0.00    0.00    0.00    3.09    0.00   96.91

Device:         rrqm/s   wrqm/s     r/s     w/s    rkB/s    wkB/s avgrq-sz avgqu-sz   await r_await w_await  svctm  %util
nvme0n1           0.00     0.00    0.00    0.00     0.00     0.00     0.00     0.00    0.00    0.00    0.00   0.00   0.00
sda               0.00     0.00    1.00    3.00     4.00    36.00    20.00     0.00    0.00    0.00    0.00   0.00   0.00
sdc               0.00     0.00   42.00    0.00   168.00     0.00     8.00     0.33    7.71    7.71    0.00   7.74  32.50
sdb               0.00     0.00   42.00    0.00   168.00     0.00     8.00     0.32    7.50    7.50    0.00   7.50  31.50
sdd               0.00     0.00   44.00    0.00   176.00     0.00     8.00     0.36    8.23    8.23    0.00   8.11  35.70
md0               0.00     0.00  128.00    0.00   512.00     0.00     8.00     0.00    0.00    0.00    0.00   0.00   0.00

avg-cpu:  %user   %nice %system %iowait  %steal   %idle
           0.00    0.00    0.03    3.09    0.00   96.88

Device:         rrqm/s   wrqm/s     r/s     w/s    rkB/s    wkB/s avgrq-sz avgqu-sz   await r_await w_await  svctm  %util
nvme0n1           0.00     0.00    0.00    0.00     0.00     0.00     0.00     0.00    0.00    0.00    0.00   0.00   0.00
sda               0.00     0.00    0.00    0.00     0.00     0.00     0.00     0.00    0.00    0.00    0.00   0.00   0.00
sdc               0.00     0.00   45.00    0.00   180.00     0.00     8.00     0.34    7.47    7.47    0.00   7.44  33.50
sdb               0.00     0.00   44.00    0.00   176.00     0.00     8.00     0.35    7.93    7.93    0.00   7.93  34.90
sdd               0.00     0.00   41.00    0.00   164.00     0.00     8.00     0.31    7.37    7.37    0.00   7.46  30.60
md0               0.00     0.00  130.00    0.00   520.00     0.00     8.00     0.00    0.00    0.00    0.00   0.00   0.00

avg-cpu:  %user   %nice %system %iowait  %steal   %idle
           0.03    0.00    0.03    3.12    0.00   96.81

Device:         rrqm/s   wrqm/s     r/s     w/s    rkB/s    wkB/s avgrq-sz avgqu-sz   await r_await w_await  svctm  %util
nvme0n1           0.00     0.00    0.00    0.00     0.00     0.00     0.00     0.00    0.00    0.00    0.00   0.00   0.00
sda               0.00     0.00    0.00    0.00     0.00     0.00     0.00     0.00    0.00    0.00    0.00   0.00   0.00
sdc               0.00     0.00   42.00    0.00   168.00     0.00     8.00     0.33    7.76    7.76    0.00   7.76  32.60
sdb               0.00     0.00   46.00    0.00   184.00     0.00     8.00     0.40    8.61    8.61    0.00   8.67  39.90
sdd               0.00     0.00   33.00    0.00   132.00     0.00     8.00     0.27    8.21    8.21    0.00   8.09  26.70
md0               0.00     0.00  121.00    0.00   484.00     0.00     8.00     0.00    0.00    0.00    0.00   0.00   0.00

