Linux 4.17.2 (bench2) 	08/03/2018 	_x86_64_	(32 CPU)

avg-cpu:  %user   %nice %system %iowait  %steal   %idle
           1.92    0.00    1.57    1.53    0.00   94.98

Device:         rrqm/s   wrqm/s     r/s     w/s    rkB/s    wkB/s avgrq-sz avgqu-sz   await r_await w_await  svctm  %util
nvme0n1         951.27     5.17 19177.24  528.01 107269.47 11908.17    12.10     1.36    0.05    0.03    0.67   0.02  40.15
sda               0.11     0.81   14.14    0.57   163.97     8.51    23.44     0.00    0.33    0.32    0.45   0.07   0.10
sdc              33.02     0.14  109.68    0.30  1649.25    82.64    31.49     1.51   13.73   12.76  373.51   0.93  10.22
sdb              30.95     0.15  111.71    0.32  1647.38    82.47    30.88     0.39    3.52    2.40  394.60   0.87   9.71
sdd              33.22     0.13  109.22    0.25  1645.27    82.13    31.56     0.68    6.19    4.43  782.19   0.93  10.22
md0               0.00     0.00  430.67    1.06  6099.46   289.57    29.60     0.00    0.00    0.00    0.00   0.00   0.00

avg-cpu:  %user   %nice %system %iowait  %steal   %idle
           0.00    0.00    0.03    3.03    0.00   96.94

Device:         rrqm/s   wrqm/s     r/s     w/s    rkB/s    wkB/s avgrq-sz avgqu-sz   await r_await w_await  svctm  %util
nvme0n1           0.00     0.00    0.00    0.00     0.00     0.00     0.00     0.00    0.00    0.00    0.00   0.00   0.00
sda               0.00     0.00   21.00    0.00   128.00     0.00    12.19     0.00    0.00    0.00    0.00   0.00   0.00
sdc               0.00     0.00  221.00    0.00   908.00     0.00     8.22    99.70  309.29  309.29    0.00   4.51  99.70
sdb               0.00     0.00  221.00    0.00   884.00     0.00     8.00   104.01  322.34  322.34    0.00   4.48  99.00
sdd               0.00     0.00  210.00    0.00   840.00     0.00     8.00   132.32  379.98  379.98    0.00   4.71  99.00
md0               0.00     0.00  957.00    0.00  3852.00     0.00     8.05     0.00    0.00    0.00    0.00   0.00   0.00

avg-cpu:  %user   %nice %system %iowait  %steal   %idle
           0.00    0.00    0.03    1.06    0.00   98.91

Device:         rrqm/s   wrqm/s     r/s     w/s    rkB/s    wkB/s avgrq-sz avgqu-sz   await r_await w_await  svctm  %util
nvme0n1           0.00     0.00    0.00    0.00     0.00     0.00     0.00     0.00    0.00    0.00    0.00   0.00   0.00
sda               0.00    13.00    0.00    2.00     0.00    60.00    60.00     0.00    0.00    0.00    0.00   0.00   0.00
sdc               0.00     0.00  160.00    0.00   640.00     0.00     8.00    47.81  397.52  397.52    0.00   4.88  78.00
sdb               0.00     0.00  165.00    0.00   660.00     0.00     8.00    59.44  401.50  401.50    0.00   4.95  81.70
sdd               0.00     0.00  201.00    0.00   804.00     0.00     8.00    77.98  559.50  559.50    0.00   4.98 100.00
md0               0.00     0.00  555.00    0.00  2220.00     0.00     8.00     0.00    0.00    0.00    0.00   0.00   0.00

avg-cpu:  %user   %nice %system %iowait  %steal   %idle
           0.00    0.00    0.00    2.31    0.00   97.69

Device:         rrqm/s   wrqm/s     r/s     w/s    rkB/s    wkB/s avgrq-sz avgqu-sz   await r_await w_await  svctm  %util
nvme0n1           0.00     0.00    0.00    0.00     0.00     0.00     0.00     0.00    0.00    0.00    0.00   0.00   0.00
sda               0.00     0.00    0.00    0.00     0.00     0.00     0.00     0.00    0.00    0.00    0.00   0.00   0.00
sdc               0.00     0.00  218.00    0.00   872.00     0.00     8.00   104.51  376.77  376.77    0.00   4.59 100.00
sdb               0.00     0.00  216.00    0.00   864.00     0.00     8.00   132.23  448.19  448.19    0.00   4.63 100.00
sdd               0.00     0.00  231.00    0.00   924.00     0.00     8.00    73.62  348.23  348.23    0.00   4.33 100.00
md0               0.00     0.00  538.00    0.00  2152.00     0.00     8.00     0.00    0.00    0.00    0.00   0.00   0.00

avg-cpu:  %user   %nice %system %iowait  %steal   %idle
           0.00    0.00    0.03    1.41    0.00   98.56

Device:         rrqm/s   wrqm/s     r/s     w/s    rkB/s    wkB/s avgrq-sz avgqu-sz   await r_await w_await  svctm  %util
nvme0n1           0.00     0.00    0.00    0.00     0.00     0.00     0.00     0.00    0.00    0.00    0.00   0.00   0.00
sda               0.00     0.00    0.00    0.00     0.00     0.00     0.00     0.00    0.00    0.00    0.00   0.00   0.00
sdc               0.00     0.00  178.00    0.00   712.00     0.00     8.00    73.01  405.17  405.17    0.00   4.85  86.30
sdb               0.00     0.00  206.00    0.00   824.00     0.00     8.00    84.53  521.98  521.98    0.00   4.85 100.00
sdd               0.00     0.00  131.00    0.00   524.00     0.00     8.00    64.07  273.47  273.47    0.00   4.63  60.60
md0               0.00     0.00  714.00    0.00  2856.00     0.00     8.00     0.00    0.00    0.00    0.00   0.00   0.00

avg-cpu:  %user   %nice %system %iowait  %steal   %idle
           0.00    0.00    0.00    1.44    0.00   98.56

Device:         rrqm/s   wrqm/s     r/s     w/s    rkB/s    wkB/s avgrq-sz avgqu-sz   await r_await w_await  svctm  %util
nvme0n1           0.00     0.00    0.00    0.00     0.00     0.00     0.00     0.00    0.00    0.00    0.00   0.00   0.00
sda               0.00     0.00    0.00    0.00     0.00     0.00     0.00     0.00    0.00    0.00    0.00   0.00   0.00
sdc               0.00     0.00  230.00    0.00   920.00     0.00     8.00   100.92  561.38  561.38    0.00   4.35 100.00
sdb               0.00     0.00  227.00    0.00   908.00     0.00     8.00    91.81  552.33  552.33    0.00   4.41 100.00
sdd               0.00     0.00  228.00    0.00   912.00     0.00     8.00   101.59  553.77  553.77    0.00   4.39 100.00
md0               0.00     0.00  310.00    0.00  1240.00     0.00     8.00     0.00    0.00    0.00    0.00   0.00   0.00

avg-cpu:  %user   %nice %system %iowait  %steal   %idle
           0.00    0.00    0.00    2.75    0.00   97.25

Device:         rrqm/s   wrqm/s     r/s     w/s    rkB/s    wkB/s avgrq-sz avgqu-sz   await r_await w_await  svctm  %util
nvme0n1           0.00     0.00    0.00    0.00     0.00     0.00     0.00     0.00    0.00    0.00    0.00   0.00   0.00
sda               0.00     0.00    0.00    0.00     0.00     0.00     0.00     0.00    0.00    0.00    0.00   0.00   0.00
sdc               0.00     0.00  219.00    0.00   876.00     0.00     8.00   119.40  340.40  340.40    0.00   4.48  98.20
sdb               0.00     0.00  210.00    0.00   840.00     0.00     8.00    89.55  304.89  304.89    0.00   4.45  93.40
sdd               0.00     0.00  216.00    0.00   864.00     0.00     8.00   115.61  389.35  389.35    0.00   4.63 100.00
md0               0.00     0.00  974.00    0.00  3896.00     0.00     8.00     0.00    0.00    0.00    0.00   0.00   0.00

avg-cpu:  %user   %nice %system %iowait  %steal   %idle
           0.00    0.00    0.03    0.94    0.00   99.03

Device:         rrqm/s   wrqm/s     r/s     w/s    rkB/s    wkB/s avgrq-sz avgqu-sz   await r_await w_await  svctm  %util
nvme0n1           0.00     0.00    0.00    0.00     0.00     0.00     0.00     0.00    0.00    0.00    0.00   0.00   0.00
sda               0.00     1.00    0.00    2.00     0.00    12.00    12.00     0.00    0.00    0.00    0.00   0.00   0.00
sdc               0.00     0.00  201.00    0.00   804.00     0.00     8.00    83.72  587.12  587.12    0.00   4.97  99.90
sdb               0.00     0.00  167.00    0.00   668.00     0.00     8.00    52.17  408.78  408.78    0.00   4.74  79.20
sdd               0.00     0.00  164.00    0.00   656.00     0.00     8.00    61.60  534.83  534.83    0.00   5.15  84.40
md0               0.00     0.00  536.00    0.00  2144.00     0.00     8.00     0.00    0.00    0.00    0.00   0.00   0.00

avg-cpu:  %user   %nice %system %iowait  %steal   %idle
           0.00    0.00    0.00    2.63    0.00   97.37

Device:         rrqm/s   wrqm/s     r/s     w/s    rkB/s    wkB/s avgrq-sz avgqu-sz   await r_await w_await  svctm  %util
nvme0n1           0.00     0.00    0.00    0.00     0.00     0.00     0.00     0.00    0.00    0.00    0.00   0.00   0.00
sda               0.00     2.00    0.00   15.00     0.00    68.00     9.07     0.00    0.00    0.00    0.00   0.00   0.00
sdc               0.00     0.00  232.00    0.00   928.00     0.00     8.00   117.83  435.41  435.41    0.00   4.31 100.00
sdb               0.00     0.00  217.00    0.00   868.00     0.00     8.00    91.97  396.73  396.73    0.00   4.61 100.00
sdd               0.00     0.00  230.00    0.00   920.00     0.00     8.00   131.71  434.61  434.61    0.00   4.35 100.00
md0               0.00     0.00  538.00    0.00  2152.00     0.00     8.00     0.00    0.00    0.00    0.00   0.00   0.00

avg-cpu:  %user   %nice %system %iowait  %steal   %idle
           0.00    0.00    0.03    1.56    0.00   98.41

Device:         rrqm/s   wrqm/s     r/s     w/s    rkB/s    wkB/s avgrq-sz avgqu-sz   await r_await w_await  svctm  %util
nvme0n1           0.00     0.00    0.00    0.00     0.00     0.00     0.00     0.00    0.00    0.00    0.00   0.00   0.00
sda               0.00     0.00    0.00    0.00     0.00     0.00     0.00     0.00    0.00    0.00    0.00   0.00   0.00
sdc               0.00     0.00  193.00    0.00   772.00     0.00     8.00    82.83  400.44  400.44    0.00   4.84  93.40
sdb               0.00     0.00  158.00    0.00   632.00     0.00     8.00    84.84  310.18  310.18    0.00   5.01  79.20
sdd               0.00     0.00  220.00    0.00   880.00     0.00     8.00    84.47  461.57  461.57    0.00   4.55 100.00
md0               0.00     0.00  746.00    0.00  2984.00     0.00     8.00     0.00    0.00    0.00    0.00   0.00   0.00

avg-cpu:  %user   %nice %system %iowait  %steal   %idle
           0.00    0.00    0.00    1.59    0.00   98.41

Device:         rrqm/s   wrqm/s     r/s     w/s    rkB/s    wkB/s avgrq-sz avgqu-sz   await r_await w_await  svctm  %util
nvme0n1           0.00     0.00    0.00    0.00     0.00     0.00     0.00     0.00    0.00    0.00    0.00   0.00   0.00
sda               0.00     0.00    0.00    0.00     0.00     0.00     0.00     0.00    0.00    0.00    0.00   0.00   0.00
sdc               0.00     0.00  214.00    0.00   856.00     0.00     8.00    83.55  566.66  566.66    0.00   4.67 100.00
sdb               0.00     0.00  231.00    0.00   924.00     0.00     8.00   106.25  644.31  644.31    0.00   4.33 100.00
sdd               0.00     0.00  205.00    0.00   820.00     0.00     8.00    63.36  479.22  479.22    0.00   4.78  97.90
md0               0.00     0.00  278.00    0.00  1112.00     0.00     8.00     0.00    0.00    0.00    0.00   0.00   0.00

avg-cpu:  %user   %nice %system %iowait  %steal   %idle
           0.00    0.00    0.03    2.75    0.00   97.22

Device:         rrqm/s   wrqm/s     r/s     w/s    rkB/s    wkB/s avgrq-sz avgqu-sz   await r_await w_await  svctm  %util
nvme0n1           0.00     0.00    0.00    0.00     0.00     0.00     0.00     0.00    0.00    0.00    0.00   0.00   0.00
sda               0.00     0.00    0.00    0.00     0.00     0.00     0.00     0.00    0.00    0.00    0.00   0.00   0.00
sdc               0.00     0.00  213.00    0.00   852.00     0.00     8.00    99.36  312.85  312.85    0.00   4.51  96.10
sdb               0.00     0.00  213.00    0.00   852.00     0.00     8.00    99.55  343.21  343.21    0.00   4.69 100.00
sdd               0.00     0.00  205.00    0.00   820.00     0.00     8.00   119.65  335.78  335.78    0.00   4.38  89.80
md0               0.00     0.00 1011.00    0.00  4044.00     0.00     8.00     0.00    0.00    0.00    0.00   0.00   0.00

avg-cpu:  %user   %nice %system %iowait  %steal   %idle
           0.00    0.00    0.00    1.09    0.00   98.91

Device:         rrqm/s   wrqm/s     r/s     w/s    rkB/s    wkB/s avgrq-sz avgqu-sz   await r_await w_await  svctm  %util
nvme0n1           0.00     0.00    0.00    0.00     0.00     0.00     0.00     0.00    0.00    0.00    0.00   0.00   0.00
sda               0.00     1.00    0.00    2.00     0.00    12.00    12.00     0.00    0.00    0.00    0.00   0.00   0.00
sdc               0.00     0.00  203.00    0.00   812.00     0.00     8.00    81.73  442.87  442.87    0.00   4.83  98.10
sdb               0.00     0.00  213.00    0.00   852.00     0.00     8.00    85.57  463.02  463.02    0.00   4.69 100.00
sdd               0.00     0.00  202.00    0.00   808.00     0.00     8.00    82.04  500.05  500.05    0.00   4.58  92.60
md0               0.00     0.00  578.00    0.00  2312.00     0.00     8.00     0.00    0.00    0.00    0.00   0.00   0.00

avg-cpu:  %user   %nice %system %iowait  %steal   %idle
           0.00    0.00    0.03    2.19    0.00   97.78

Device:         rrqm/s   wrqm/s     r/s     w/s    rkB/s    wkB/s avgrq-sz avgqu-sz   await r_await w_await  svctm  %util
nvme0n1           0.00     0.00    0.00    0.00     0.00     0.00     0.00     0.00    0.00    0.00    0.00   0.00   0.00
sda               0.00     2.00    2.00    3.00     8.00    36.00    17.60     0.00    0.00    0.00    0.00   0.00   0.00
sdc               0.00     0.00  227.00    0.00   908.00     0.00     8.00   127.62  473.50  473.50    0.00   4.41 100.00
sdb               0.00     0.00  228.00    0.00   912.00     0.00     8.00    86.05  436.29  436.29    0.00   4.39 100.00
sdd               0.00     0.00  234.00    0.00   936.00     0.00     8.00   113.27  495.02  495.02    0.00   4.27 100.00
md0               0.00     0.00  459.00    0.00  1836.00     0.00     8.00     0.00    0.00    0.00    0.00   0.00   0.00

avg-cpu:  %user   %nice %system %iowait  %steal   %idle
           0.00    0.00    0.00    1.84    0.00   98.16

Device:         rrqm/s   wrqm/s     r/s     w/s    rkB/s    wkB/s avgrq-sz avgqu-sz   await r_await w_await  svctm  %util
nvme0n1           0.00     0.00    0.00    0.00     0.00     0.00     0.00     0.00    0.00    0.00    0.00   0.00   0.00
sda               0.00     0.00    0.00    0.00     0.00     0.00     0.00     0.00    0.00    0.00    0.00   0.00   0.00
sdc               0.00     0.00  200.00    0.00   800.00     0.00     8.00    95.51  490.31  490.31    0.00   5.00 100.00
sdb               0.00     0.00  167.00    0.00   668.00     0.00     8.00    66.97  304.72  304.72    0.00   4.57  76.40
sdd               0.00     0.00  175.00    0.00   700.00     0.00     8.00    80.81  401.81  401.81    0.00   4.75  83.20
md0               0.00     0.00  748.00    0.00  2992.00     0.00     8.00     0.00    0.00    0.00    0.00   0.00   0.00

avg-cpu:  %user   %nice %system %iowait  %steal   %idle
           0.00    0.00    0.00    1.35    0.00   98.65

Device:         rrqm/s   wrqm/s     r/s     w/s    rkB/s    wkB/s avgrq-sz avgqu-sz   await r_await w_await  svctm  %util
nvme0n1           0.00     0.00    0.00    0.00     0.00     0.00     0.00     0.00    0.00    0.00    0.00   0.00   0.00
sda               0.00     0.00    0.00    0.00     0.00     0.00     0.00     0.00    0.00    0.00    0.00   0.00   0.00
sdc               0.00     0.00  228.00    0.00   912.00     0.00     8.00    97.45  586.41  586.41    0.00   4.39 100.00
sdb               0.00     0.00  181.00    0.00   724.00     0.00     8.00    64.20  512.55  512.55    0.00   5.52 100.00
sdd               0.00     0.00  195.00    0.00   780.00     0.00     8.00    61.73  520.52  520.52    0.00   4.74  92.40
md0               0.00     0.00  276.00    0.00  1104.00     0.00     8.00     0.00    0.00    0.00    0.00   0.00   0.00

avg-cpu:  %user   %nice %system %iowait  %steal   %idle
           0.00    0.00    0.03    2.78    0.00   97.19

Device:         rrqm/s   wrqm/s     r/s     w/s    rkB/s    wkB/s avgrq-sz avgqu-sz   await r_await w_await  svctm  %util
nvme0n1           0.00     0.00    0.00    0.00     0.00     0.00     0.00     0.00    0.00    0.00    0.00   0.00   0.00
sda               0.00     0.00    0.00    0.00     0.00     0.00     0.00     0.00    0.00    0.00    0.00   0.00   0.00
sdc               0.00     0.00  215.00    0.00   860.00     0.00     8.00   118.69  373.81  373.81    0.00   4.65 100.00
sdb               0.00     0.00  197.00    0.00   788.00     0.00     8.00    96.36  312.70  312.70    0.00   4.60  90.70
sdd               0.00     0.00  199.00    0.00   796.00     0.00     8.00   122.11  344.48  344.48    0.00   4.54  90.30
md0               0.00     0.00  928.00    0.00  3712.00     0.00     8.00     0.00    0.00    0.00    0.00   0.00   0.00

avg-cpu:  %user   %nice %system %iowait  %steal   %idle
           0.00    0.00    0.00    0.91    0.00   99.09

Device:         rrqm/s   wrqm/s     r/s     w/s    rkB/s    wkB/s avgrq-sz avgqu-sz   await r_await w_await  svctm  %util
nvme0n1           0.00     0.00    0.00    0.00     0.00     0.00     0.00     0.00    0.00    0.00    0.00   0.00   0.00
sda               0.00     6.00    0.00    2.00     0.00    32.00    32.00     0.00    0.50    0.00    0.50   0.50   0.10
sdc               0.00     0.00  193.00    0.00   772.00     0.00     8.00    74.44  532.44  532.44    0.00   4.79  92.40
sdb               0.00     0.00  170.00    0.00   680.00     0.00     8.00    67.05  454.56  454.56    0.00   5.31  90.30
sdd               0.00     0.00  206.00    0.00   824.00     0.00     8.00    79.40  551.24  551.24    0.00   4.86 100.10
md0               0.00     0.00  609.00    0.00  2436.00     0.00     8.00     0.00    0.00    0.00    0.00   0.00   0.00

avg-cpu:  %user   %nice %system %iowait  %steal   %idle
           0.00    0.00    0.03    2.59    0.00   97.37

Device:         rrqm/s   wrqm/s     r/s     w/s    rkB/s    wkB/s avgrq-sz avgqu-sz   await r_await w_await  svctm  %util
nvme0n1           0.00     0.00    0.00    0.00     0.00     0.00     0.00     0.00    0.00    0.00    0.00   0.00   0.00
sda               0.00     0.00    0.00    0.00     0.00     0.00     0.00     0.00    0.00    0.00    0.00   0.00   0.00
sdc               0.00     0.00  224.00    0.00   896.00     0.00     8.00   100.48  405.29  405.29    0.00   4.47 100.10
sdb               0.00     0.00  223.00    0.00   892.00     0.00     8.00   130.39  459.15  459.15    0.00   4.48 100.00
sdd               1.00     0.00  220.00    0.00   884.00     0.00     8.04    92.51  377.25  377.25    0.00   4.55 100.00
md0               0.00     0.00  511.00    0.00  2044.00     0.00     8.00     0.00    0.00    0.00    0.00   0.00   0.00

avg-cpu:  %user   %nice %system %iowait  %steal   %idle
           0.00    0.00    0.00    1.63    0.00   98.37

Device:         rrqm/s   wrqm/s     r/s     w/s    rkB/s    wkB/s avgrq-sz avgqu-sz   await r_await w_await  svctm  %util
nvme0n1           0.00     0.00    0.00    0.00     0.00     0.00     0.00     0.00    0.00    0.00    0.00   0.00   0.00
sda               0.00     0.00    0.00    0.00     0.00     0.00     0.00     0.00    0.00    0.00    0.00   0.00   0.00
sdc               0.00     0.00  174.00    0.00   696.00     0.00     8.00    78.60  385.76  385.76    0.00   4.79  83.30
sdb               0.00     0.00  218.00    0.00   872.00     0.00     8.00    74.21  464.92  464.92    0.00   4.59 100.00
sdd               0.00     0.00  177.00    0.00   708.00     0.00     8.00    80.36  362.93  362.93    0.00   4.81  85.20
md0               0.00     0.00  725.00    0.00  2900.00     0.00     8.00     0.00    0.00    0.00    0.00   0.00   0.00

avg-cpu:  %user   %nice %system %iowait  %steal   %idle
           0.00    0.00    0.03    1.44    0.00   98.53

Device:         rrqm/s   wrqm/s     r/s     w/s    rkB/s    wkB/s avgrq-sz avgqu-sz   await r_await w_await  svctm  %util
nvme0n1           0.00     0.00    0.00    0.00     0.00     0.00     0.00     0.00    0.00    0.00    0.00   0.00   0.00
sda               0.00     0.00    0.00    0.00     0.00     0.00     0.00     0.00    0.00    0.00    0.00   0.00   0.00
sdc               0.00     0.00  229.00    0.00   916.00     0.00     8.00    95.25  586.67  586.67    0.00   4.36  99.90
sdb               0.00     0.00  197.00    0.00   788.00     0.00     8.00    61.48  445.26  445.26    0.00   4.66  91.90
sdd               0.00     0.00  209.00    0.00   836.00     0.00     8.00   105.95  594.17  594.17    0.00   4.78  99.90
md0               0.00     0.00  299.00    0.00  1196.00     0.00     8.00     0.00    0.00    0.00    0.00   0.00   0.00

