Linux 4.17.2 (bench2) 	08/03/2018 	_x86_64_	(32 CPU)

avg-cpu:  %user   %nice %system %iowait  %steal   %idle
           1.92    0.00    1.58    1.50    0.00   95.00

Device:         rrqm/s   wrqm/s     r/s     w/s    rkB/s    wkB/s avgrq-sz avgqu-sz   await r_await w_await  svctm  %util
nvme0n1         958.34     5.20 19319.80  531.93 108066.90 11996.70    12.10     1.38    0.05    0.03    0.67   0.02  40.44
sda               0.11     0.81   14.12    0.57   163.87     8.50    23.47     0.00    0.33    0.32    0.45   0.07   0.10
sdc              32.18     0.14  104.73    0.30  1580.35    83.26    31.68     1.46   13.91   12.88  373.51   0.94   9.90
sdb              30.10     0.15  106.78    0.32  1578.49    83.08    31.03     0.34    3.16    1.98  394.60   0.88   9.41
sdd              32.38     0.13  104.27    0.25  1576.39    82.74    31.75     0.62    5.97    4.10  782.19   0.95   9.91
md0               0.00     0.00  413.33    1.07  5835.50   291.72    29.57     0.00    0.00    0.00    0.00   0.00   0.00

avg-cpu:  %user   %nice %system %iowait  %steal   %idle
           0.05    0.00    0.42    0.47    0.00   99.07

Device:         rrqm/s   wrqm/s     r/s     w/s    rkB/s    wkB/s avgrq-sz avgqu-sz   await r_await w_await  svctm  %util
nvme0n1           0.00     0.00    0.00    0.00     0.00     0.00     0.00     0.00    0.00    0.00    0.00   0.00   0.00
sda               0.00     1.15    0.20    1.15     5.20    10.20    22.81     0.00    0.11    0.25    0.09   0.11   0.01
sdc            2518.85     0.00 5897.95    0.00 33665.80     0.00    11.42    11.34    1.92    1.92    0.00   0.11  63.36
sdb            2505.00     0.00 5973.00    0.00 33910.20     0.00    11.35    11.03    1.85    1.85    0.00   0.10  59.81
sdd            2516.50     0.00 5889.40    0.00 33623.60     0.00    11.42    11.15    1.89    1.89    0.00   0.10  61.27
md0               0.00     0.00 25301.80    0.00 101207.20     0.00     8.00     0.00    0.00    0.00    0.00   0.00   0.00

