Linux 4.17.2 (bench2) 	08/03/2018 	_x86_64_	(32 CPU)

avg-cpu:  %user   %nice %system %iowait  %steal   %idle
           1.91    0.00    1.57    1.53    0.00   94.98

Device:         rrqm/s   wrqm/s     r/s     w/s    rkB/s    wkB/s avgrq-sz avgqu-sz   await r_await w_await  svctm  %util
nvme0n1         949.32     5.16 19137.97  526.93 107049.84 11883.79    12.10     1.36    0.05    0.03    0.67   0.02  40.06
sda               0.12     0.81   14.15    0.57   163.99     8.51    23.44     0.00    0.33    0.32    0.45   0.07   0.10
sdc              33.03     0.14  111.03    0.30  1672.60    82.48    31.53     1.52   13.60   12.64  373.51   0.93  10.30
sdb              30.97     0.15  113.06    0.32  1670.71    82.30    30.92     0.40    3.53    2.43  394.60   0.86   9.79
sdd              33.23     0.13  110.57    0.25  1668.61    81.97    31.59     0.68    6.17    4.43  782.19   0.93  10.30
md0               0.00     0.00  434.76    1.06  6192.14   288.97    29.74     0.00    0.00    0.00    0.00   0.00   0.00

avg-cpu:  %user   %nice %system %iowait  %steal   %idle
           0.00    0.00    0.03    0.25    0.00   99.72

Device:         rrqm/s   wrqm/s     r/s     w/s    rkB/s    wkB/s avgrq-sz avgqu-sz   await r_await w_await  svctm  %util
nvme0n1           0.00     0.00    0.00    0.00     0.00     0.00     0.00     0.00    0.00    0.00    0.00   0.00   0.00
sda               0.00     0.00    4.00    0.00   104.00     0.00    52.00     0.00    0.25    0.25    0.00   0.25   0.10
sdc               0.00     0.00  170.00    0.00   680.00     0.00     8.00    20.97  115.51  115.51    0.00   5.51  93.60
sdb               0.00     0.00  159.00    0.00   636.00     0.00     8.00    19.90  111.51  111.51    0.00   5.60  89.10
sdd               0.00     0.00  155.00    0.00   620.00     0.00     8.00    18.09  109.16  109.16    0.00   5.81  90.00
md0               0.00     0.00  512.00    0.00  2048.00     0.00     8.00     0.00    0.00    0.00    0.00   0.00   0.00

avg-cpu:  %user   %nice %system %iowait  %steal   %idle
           0.00    0.00    0.03    0.00    0.00  100.00

Device:         rrqm/s   wrqm/s     r/s     w/s    rkB/s    wkB/s avgrq-sz avgqu-sz   await r_await w_await  svctm  %util
nvme0n1           0.00     0.00    0.00    0.00     0.00     0.00     0.00     0.00    0.00    0.00    0.00   0.00   0.00
sda               0.00     0.00   83.00    0.00   544.00     0.00    13.11     0.01    0.11    0.11    0.00   0.08   0.70
sdc               0.00     0.00  153.00    0.00   612.00     0.00     8.00    19.76  115.50  115.50    0.00   5.76  88.20
sdb               0.00     0.00  169.00    0.00   676.00     0.00     8.00    20.09  116.34  116.34    0.00   5.70  96.30
sdd               0.00     0.00  153.00    0.00   612.00     0.00     8.00    17.57  111.71  111.71    0.00   5.95  91.00
md0               0.00     0.00  512.00    0.00  2048.00     0.00     8.00     0.00    0.00    0.00    0.00   0.00   0.00

avg-cpu:  %user   %nice %system %iowait  %steal   %idle
           0.00    0.00    0.00    0.00    0.00  100.12

Device:         rrqm/s   wrqm/s     r/s     w/s    rkB/s    wkB/s avgrq-sz avgqu-sz   await r_await w_await  svctm  %util
nvme0n1           0.00     0.00    0.00    0.00     0.00     0.00     0.00     0.00    0.00    0.00    0.00   0.00   0.00
sda               0.00    12.00    0.00    2.00     0.00    56.00    56.00     0.00    0.50    0.00    0.50   0.50   0.10
sdc               0.00     0.00  153.00    0.00   612.00     0.00     8.00    16.64  129.43  129.43    0.00   5.82  89.10
sdb               0.00     0.00  142.00    0.00   568.00     0.00     8.00    14.23  118.49  118.49    0.00   5.50  78.10
sdd               0.00     0.00  153.00    0.00   612.00     0.00     8.00    17.74  126.72  126.72    0.00   5.76  88.10
md0               0.00     0.00  384.00    0.00  1536.00     0.00     8.00     0.00    0.00    0.00    0.00   0.00   0.00

avg-cpu:  %user   %nice %system %iowait  %steal   %idle
           0.00    0.00    0.00    0.41    0.00   99.59

Device:         rrqm/s   wrqm/s     r/s     w/s    rkB/s    wkB/s avgrq-sz avgqu-sz   await r_await w_await  svctm  %util
nvme0n1           0.00     0.00    0.00    0.00     0.00     0.00     0.00     0.00    0.00    0.00    0.00   0.00   0.00
sda               0.00     0.00    0.00    0.00     0.00     0.00     0.00     0.00    0.00    0.00    0.00   0.00   0.00
sdc               0.00     0.00  123.00    0.00   492.00     0.00     8.00    18.28  108.98  108.98    0.00   6.67  82.00
sdb               0.00     0.00  159.00    0.00   636.00     0.00     8.00    19.29  110.31  110.31    0.00   5.49  87.30
sdd               0.00     0.00  168.00    0.00   672.00     0.00     8.00    21.71  120.38  120.38    0.00   5.89  98.90
md0               0.00     0.00  511.00    0.00  2044.00     0.00     8.00     0.00    0.00    0.00    0.00   0.00   0.00

avg-cpu:  %user   %nice %system %iowait  %steal   %idle
           0.00    0.00    0.03    0.41    0.00   99.56

Device:         rrqm/s   wrqm/s     r/s     w/s    rkB/s    wkB/s avgrq-sz avgqu-sz   await r_await w_await  svctm  %util
nvme0n1           0.00     0.00    0.00    0.00     0.00     0.00     0.00     0.00    0.00    0.00    0.00   0.00   0.00
sda               0.00     0.00    0.00    0.00     0.00     0.00     0.00     0.00    0.00    0.00    0.00   0.00   0.00
sdc               0.00     0.00  157.00    0.00   628.00     0.00     8.00    15.94  134.24  134.24    0.00   5.43  85.20
sdb               0.00     0.00  138.00    0.00   552.00     0.00     8.00    13.75  112.38  112.38    0.00   5.58  77.00
sdd               0.00     0.00  150.00    0.00   600.00     0.00     8.00    17.10  121.98  121.98    0.00   5.53  83.00
md0               0.00     0.00  384.00    0.00  1536.00     0.00     8.00     0.00    0.00    0.00    0.00   0.00   0.00

avg-cpu:  %user   %nice %system %iowait  %steal   %idle
           0.00    0.00    0.00    0.00    0.00  100.06

Device:         rrqm/s   wrqm/s     r/s     w/s    rkB/s    wkB/s avgrq-sz avgqu-sz   await r_await w_await  svctm  %util
nvme0n1           0.00     0.00    0.00    0.00     0.00     0.00     0.00     0.00    0.00    0.00    0.00   0.00   0.00
sda               0.00     0.00    0.00    0.00     0.00     0.00     0.00     0.00    0.00    0.00    0.00   0.00   0.00
sdc               0.00     0.00  165.00    0.00   660.00     0.00     8.00    19.38  113.50  113.50    0.00   5.74  94.70
sdb               0.00     0.00  171.00    0.00   684.00     0.00     8.00    19.52  111.61  111.61    0.00   5.39  92.10
sdd               0.00     0.00  162.00    0.00   648.00     0.00     8.00    19.98  113.02  113.02    0.00   5.74  93.00
md0               0.00     0.00  511.00    0.00  2044.00     0.00     8.00     0.00    0.00    0.00    0.00   0.00   0.00

avg-cpu:  %user   %nice %system %iowait  %steal   %idle
           0.00    0.00    0.00    0.19    0.00   99.81

Device:         rrqm/s   wrqm/s     r/s     w/s    rkB/s    wkB/s avgrq-sz avgqu-sz   await r_await w_await  svctm  %util
nvme0n1           0.00     0.00    0.00    0.00     0.00     0.00     0.00     0.00    0.00    0.00    0.00   0.00   0.00
sda               0.00     1.00    0.00    3.00     0.00    16.00    10.67     0.00    0.00    0.00    0.00   0.00   0.00
sdc               0.00     0.00  154.00    0.00   616.00     0.00     8.00    18.37  112.85  112.85    0.00   5.76  88.70
sdb               0.00     0.00  132.00    0.00   528.00     0.00     8.00    14.75   93.95   93.95    0.00   5.69  75.10
sdd               0.00     0.00  180.00    0.00   720.00     0.00     8.00    23.59  124.32  124.32    0.00   5.51  99.20
md0               0.00     0.00  512.00    0.00  2048.00     0.00     8.00     0.00    0.00    0.00    0.00   0.00   0.00

avg-cpu:  %user   %nice %system %iowait  %steal   %idle
           0.00    0.00    0.03    0.00    0.00  100.19

Device:         rrqm/s   wrqm/s     r/s     w/s    rkB/s    wkB/s avgrq-sz avgqu-sz   await r_await w_await  svctm  %util
nvme0n1           0.00     0.00    0.00    0.00     0.00     0.00     0.00     0.00    0.00    0.00    0.00   0.00   0.00
sda               0.00     4.00    0.00    2.00     0.00    24.00    24.00     0.00    0.00    0.00    0.00   0.00   0.00
sdc               0.00     0.00  151.00    0.00   604.00     0.00     8.00    17.31  116.88  116.88    0.00   5.72  86.40
sdb               0.00     0.00  161.00    0.00   644.00     0.00     8.00    18.89  122.32  122.32    0.00   5.73  92.20
sdd               0.00     0.00  155.00    0.00   620.00     0.00     8.00    16.43  117.07  117.07    0.00   5.70  88.40
md0               0.00     0.00  512.00    0.00  2048.00     0.00     8.00     0.00    0.00    0.00    0.00   0.00   0.00

avg-cpu:  %user   %nice %system %iowait  %steal   %idle
           0.00    0.00    0.00    0.16    0.00   99.84

Device:         rrqm/s   wrqm/s     r/s     w/s    rkB/s    wkB/s avgrq-sz avgqu-sz   await r_await w_await  svctm  %util
nvme0n1           0.00     0.00    0.00    0.00     0.00     0.00     0.00     0.00    0.00    0.00    0.00   0.00   0.00
sda               0.00     0.00    0.00    0.00     0.00     0.00     0.00     0.00    0.00    0.00    0.00   0.00   0.00
sdc               0.00     0.00  148.00    0.00   592.00     0.00     8.00    15.46  111.78  111.78    0.00   5.68  84.10
sdb               0.00     0.00  182.00    0.00   728.00     0.00     8.00    24.15  129.14  129.14    0.00   5.38  98.00
sdd               0.00     0.00  143.00    0.00   572.00     0.00     8.00    14.79  108.94  108.94    0.00   5.97  85.30
md0               0.00     0.00  384.00    0.00  1536.00     0.00     8.00     0.00    0.00    0.00    0.00   0.00   0.00

avg-cpu:  %user   %nice %system %iowait  %steal   %idle
           0.00    0.00    0.00    0.22    0.00   99.78

Device:         rrqm/s   wrqm/s     r/s     w/s    rkB/s    wkB/s avgrq-sz avgqu-sz   await r_await w_await  svctm  %util
nvme0n1           0.00     0.00    0.00    0.00     0.00     0.00     0.00     0.00    0.00    0.00    0.00   0.00   0.00
sda               0.00     0.00    0.00    0.00     0.00     0.00     0.00     0.00    0.00    0.00    0.00   0.00   0.00
sdc               0.00     0.00  159.00    0.00   636.00     0.00     8.00    19.84  114.57  114.57    0.00   5.44  86.50
sdb               0.00     0.00  168.00    0.00   672.00     0.00     8.00    18.84  113.95  113.95    0.00   5.24  88.10
sdd               0.00     0.00  132.00    0.00   528.00     0.00     8.00    14.23   93.65   93.65    0.00   5.58  73.70
md0               0.00     0.00  512.00    0.00  2048.00     0.00     8.00     0.00    0.00    0.00    0.00   0.00   0.00

avg-cpu:  %user   %nice %system %iowait  %steal   %idle
           0.00    0.00    0.00    0.00    0.00  100.22

Device:         rrqm/s   wrqm/s     r/s     w/s    rkB/s    wkB/s avgrq-sz avgqu-sz   await r_await w_await  svctm  %util
nvme0n1           0.00     0.00    0.00    0.00     0.00     0.00     0.00     0.00    0.00    0.00    0.00   0.00   0.00
sda               0.00     0.00    0.00    0.00     0.00     0.00     0.00     0.00    0.00    0.00    0.00   0.00   0.00
sdc               0.00     0.00  153.00    0.00   612.00     0.00     8.00    17.69  123.94  123.94    0.00   6.20  94.90
sdb               0.00     0.00  147.00    0.00   588.00     0.00     8.00    17.41  130.20  130.20    0.00   5.98  87.90
sdd               0.00     0.00  157.00    0.00   628.00     0.00     8.00    17.01  120.87  120.87    0.00   5.71  89.70
md0               0.00     0.00  512.00    0.00  2048.00     0.00     8.00     0.00    0.00    0.00    0.00   0.00   0.00

avg-cpu:  %user   %nice %system %iowait  %steal   %idle
           0.03    0.00    0.03    0.06    0.00   99.88

Device:         rrqm/s   wrqm/s     r/s     w/s    rkB/s    wkB/s avgrq-sz avgqu-sz   await r_await w_await  svctm  %util
nvme0n1           0.00     0.00    0.00    0.00     0.00     0.00     0.00     0.00    0.00    0.00    0.00   0.00   0.00
sda               0.00     0.99    0.00    1.98     0.00    27.72    28.00     0.00    0.00    0.00    0.00   0.00   0.00
sdc               0.00     0.00  158.42    0.00   633.66     0.00     8.00    17.17  107.08  107.08    0.00   5.58  88.32
sdb               0.00     0.00  180.20    0.00   720.79     0.00     8.00    23.74  123.29  123.29    0.00   5.38  96.93
sdd               0.00     0.00  147.52    0.00   590.10     0.00     8.00    15.16  103.89  103.89    0.00   5.61  82.77
md0               0.00     0.00  380.20    0.00  1520.79     0.00     8.00     0.00    0.00    0.00    0.00   0.00   0.00

avg-cpu:  %user   %nice %system %iowait  %steal   %idle
           0.00    0.00    0.00    0.13    0.00   99.87

Device:         rrqm/s   wrqm/s     r/s     w/s    rkB/s    wkB/s avgrq-sz avgqu-sz   await r_await w_await  svctm  %util
nvme0n1           0.00     0.00    0.00    0.00     0.00     0.00     0.00     0.00    0.00    0.00    0.00   0.00   0.00
sda               0.00     4.00    0.00    2.00     0.00    24.00    24.00     0.00    0.00    0.00    0.00   0.00   0.00
sdc               0.00     0.00  141.00    0.00   564.00     0.00     8.00    15.84  101.69  101.69    0.00   5.57  78.50
sdb               0.00     0.00  142.00    0.00   568.00     0.00     8.00    14.78  107.33  107.33    0.00   5.68  80.60
sdd               0.00     0.00  160.00    0.00   640.00     0.00     8.00    22.16  125.20  125.20    0.00   5.76  92.10
md0               0.00     0.00  511.00    0.00  2044.00     0.00     8.00     0.00    0.00    0.00    0.00   0.00   0.00

avg-cpu:  %user   %nice %system %iowait  %steal   %idle
           0.00    0.00    0.00    0.00    0.00  100.06

Device:         rrqm/s   wrqm/s     r/s     w/s    rkB/s    wkB/s avgrq-sz avgqu-sz   await r_await w_await  svctm  %util
nvme0n1           0.00     0.00    0.00    0.00     0.00     0.00     0.00     0.00    0.00    0.00    0.00   0.00   0.00
sda               0.00     0.00    0.00    0.00     0.00     0.00     0.00     0.00    0.00    0.00    0.00   0.00   0.00
sdc               0.00     0.00  151.00    0.00   604.00     0.00     8.00    16.70  120.48  120.48    0.00   5.84  88.20
sdb               0.00     0.00  148.00    0.00   592.00     0.00     8.00    15.89  118.72  118.72    0.00   5.80  85.80
sdd               0.00     0.00  165.00    0.00   660.00     0.00     8.00    18.10  124.93  124.93    0.00   5.56  91.70
md0               0.00     0.00  382.00    0.00  1528.00     0.00     8.00     0.00    0.00    0.00    0.00   0.00   0.00

avg-cpu:  %user   %nice %system %iowait  %steal   %idle
           0.00    0.00    0.00    0.00    0.00  100.00

Device:         rrqm/s   wrqm/s     r/s     w/s    rkB/s    wkB/s avgrq-sz avgqu-sz   await r_await w_await  svctm  %util
nvme0n1           0.00     0.00    0.00    0.00     0.00     0.00     0.00     0.00    0.00    0.00    0.00   0.00   0.00
sda               0.00     0.00    0.00    0.00     0.00     0.00     0.00     0.00    0.00    0.00    0.00   0.00   0.00
sdc               0.00     0.00  160.00    0.00   640.00     0.00     8.00    18.91  108.33  108.33    0.00   5.50  88.00
sdb               0.00     0.00  149.00    0.00   596.00     0.00     8.00    15.48  100.50  100.50    0.00   5.64  84.00
sdd               0.00     0.00  177.00    0.00   708.00     0.00     8.00    22.60  116.23  116.23    0.00   5.54  98.10
md0               0.00     0.00  512.00    0.00  2048.00     0.00     8.00     0.00    0.00    0.00    0.00   0.00   0.00

avg-cpu:  %user   %nice %system %iowait  %steal   %idle
           0.00    0.00    0.00    0.28    0.00   99.72

Device:         rrqm/s   wrqm/s     r/s     w/s    rkB/s    wkB/s avgrq-sz avgqu-sz   await r_await w_await  svctm  %util
nvme0n1           0.00     0.00    0.00    0.00     0.00     0.00     0.00     0.00    0.00    0.00    0.00   0.00   0.00
sda               0.00     0.00    0.00    0.00     0.00     0.00     0.00     0.00    0.00    0.00    0.00   0.00   0.00
sdc               0.00     0.00  158.00    0.00   632.00     0.00     8.00    17.28  110.44  110.44    0.00   5.47  86.50
sdb               0.00     0.00  158.00    0.00   632.00     0.00     8.00    19.60  107.36  107.36    0.00   5.50  86.90
sdd               0.00     0.00  157.00    0.00   628.00     0.00     8.00    17.09  111.75  111.75    0.00   5.66  88.90
md0               0.00     0.00  510.00    0.00  2040.00     0.00     8.00     0.00    0.00    0.00    0.00   0.00   0.00

avg-cpu:  %user   %nice %system %iowait  %steal   %idle
           0.00    0.00    0.03    0.00    0.00  100.06

Device:         rrqm/s   wrqm/s     r/s     w/s    rkB/s    wkB/s avgrq-sz avgqu-sz   await r_await w_await  svctm  %util
nvme0n1           0.00     0.00    0.00    0.00     0.00     0.00     0.00     0.00    0.00    0.00    0.00   0.00   0.00
sda               0.00     1.00    0.00   14.00     0.00    60.00     8.57     0.00    0.00    0.00    0.00   0.00   0.00
sdc               0.00     0.00  147.00    0.00   588.00     0.00     8.00    16.07  124.30  124.30    0.00   6.10  89.70
sdb               0.00     0.00  163.00    0.00   652.00     0.00     8.00    19.35  136.21  136.21    0.00   5.59  91.10
sdd               0.00     0.00  139.00    0.00   556.00     0.00     8.00    15.88  125.50  125.50    0.00   6.09  84.70
md0               0.00     0.00  384.00    0.00  1536.00     0.00     8.00     0.00    0.00    0.00    0.00   0.00   0.00

avg-cpu:  %user   %nice %system %iowait  %steal   %idle
           0.00    0.00    0.00    0.56    0.00   99.44

Device:         rrqm/s   wrqm/s     r/s     w/s    rkB/s    wkB/s avgrq-sz avgqu-sz   await r_await w_await  svctm  %util
nvme0n1           0.00     0.00    0.00    0.00     0.00     0.00     0.00     0.00    0.00    0.00    0.00   0.00   0.00
sda               0.00     1.00    0.00    2.00     0.00    12.00    12.00     0.00    0.00    0.00    0.00   0.00   0.00
sdc               0.00     0.00  154.00    0.00   616.00     0.00     8.00    19.74  110.40  110.40    0.00   5.69  87.70
sdb               0.00     0.00  161.00    0.00   644.00     0.00     8.00    21.23  121.61  121.61    0.00   6.02  96.90
sdd               0.00     0.00  160.00    0.00   640.00     0.00     8.00    18.34  106.54  106.54    0.00   5.39  86.30
md0               0.00     0.00  511.00    0.00  2044.00     0.00     8.00     0.00    0.00    0.00    0.00   0.00   0.00

avg-cpu:  %user   %nice %system %iowait  %steal   %idle
           0.00    0.00    0.00    0.00    0.00  100.28

Device:         rrqm/s   wrqm/s     r/s     w/s    rkB/s    wkB/s avgrq-sz avgqu-sz   await r_await w_await  svctm  %util
nvme0n1           0.00     0.00    0.00    0.00     0.00     0.00     0.00     0.00    0.00    0.00    0.00   0.00   0.00
sda               0.00     0.00    0.00    0.00     0.00     0.00     0.00     0.00    0.00    0.00    0.00   0.00   0.00
sdc               0.00     0.00  163.00    0.00   652.00     0.00     8.00    18.34  114.94  114.94    0.00   5.41  88.20
sdb               0.00     0.00  141.00    0.00   564.00     0.00     8.00    14.72  108.28  108.28    0.00   5.95  83.90
sdd               0.00     0.00  160.00    0.00   640.00     0.00     8.00    19.98  118.33  118.33    0.00   5.70  91.20
md0               0.00     0.00  510.00    0.00  2040.00     0.00     8.00     0.00    0.00    0.00    0.00   0.00   0.00

avg-cpu:  %user   %nice %system %iowait  %steal   %idle
           0.00    0.00    0.00    0.16    0.00   99.84

Device:         rrqm/s   wrqm/s     r/s     w/s    rkB/s    wkB/s avgrq-sz avgqu-sz   await r_await w_await  svctm  %util
nvme0n1           0.00     0.00    0.00    0.00     0.00     0.00     0.00     0.00    0.00    0.00    0.00   0.00   0.00
sda               0.00     0.00    0.00    0.00     0.00     0.00     0.00     0.00    0.00    0.00    0.00   0.00   0.00
sdc               0.00     0.00  156.00    0.00   624.00     0.00     8.00    17.43  119.14  119.14    0.00   5.97  93.20
sdb               0.00     0.00  162.00    0.00   648.00     0.00     8.00    18.62  116.81  116.81    0.00   5.73  92.90
sdd               0.00     0.00  162.00    0.00   648.00     0.00     8.00    17.39  113.95  113.95    0.00   5.59  90.60
md0               0.00     0.00  511.00    0.00  2044.00     0.00     8.00     0.00    0.00    0.00    0.00   0.00   0.00

