Linux 4.17.2 (bench2) 	08/03/2018 	_x86_64_	(32 CPU)

avg-cpu:  %user   %nice %system %iowait  %steal   %idle
           1.92    0.00    1.57    1.53    0.00   94.98

Device:         rrqm/s   wrqm/s     r/s     w/s    rkB/s    wkB/s avgrq-sz avgqu-sz   await r_await w_await  svctm  %util
nvme0n1         950.57     5.16 19163.19  527.62 107190.90 11899.45    12.10     1.36    0.05    0.03    0.67   0.02  40.12
sda               0.11     0.81   14.14    0.57   163.98     8.51    23.44     0.00    0.33    0.32    0.45   0.07   0.10
sdc              33.05     0.14  110.18    0.30  1653.39    82.58    31.43     1.51   13.70   12.73  373.51   0.93  10.25
sdb              30.98     0.15  112.21    0.32  1651.52    82.41    30.82     0.40    3.54    2.43  394.60   0.87   9.74
sdd              33.25     0.13  109.72    0.25  1649.40    82.07    31.49     0.68    6.20    4.45  782.19   0.93  10.25
md0               0.00     0.00  432.27    1.06  6114.22   289.35    29.56     0.00    0.00    0.00    0.00   0.00   0.00

avg-cpu:  %user   %nice %system %iowait  %steal   %idle
           0.03    0.00    0.47    2.57    0.00   96.93

Device:         rrqm/s   wrqm/s     r/s     w/s    rkB/s    wkB/s avgrq-sz avgqu-sz   await r_await w_await  svctm  %util
nvme0n1           0.00     0.00    0.00    0.00     0.00     0.00     0.00     0.00    0.00    0.00    0.00   0.00   0.00
sda               0.00     0.00    4.00    0.00   104.00     0.00    52.00     0.00    0.25    0.25    0.00   0.25   0.10
sdc               0.00     0.00 2599.00    0.00 10396.00     0.00     8.00     0.29    0.11    0.11    0.00   0.11  29.50
sdb               0.00     0.00 2554.00    0.00 10216.00     0.00     8.00     0.30    0.12    0.12    0.00   0.12  30.30
sdd               0.00     0.00 2811.00    0.00 11244.00     0.00     8.00     0.30    0.11    0.11    0.00   0.11  30.20
md0               0.00     0.00 7967.00    0.00 31868.00     0.00     8.00     0.00    0.00    0.00    0.00   0.00   0.00

avg-cpu:  %user   %nice %system %iowait  %steal   %idle
           0.03    0.00    0.53    2.60    0.00   96.84

Device:         rrqm/s   wrqm/s     r/s     w/s    rkB/s    wkB/s avgrq-sz avgqu-sz   await r_await w_await  svctm  %util
nvme0n1           0.00     0.00    0.00    0.00     0.00     0.00     0.00     0.00    0.00    0.00    0.00   0.00   0.00
sda               0.00     0.00    0.00    0.00     0.00     0.00     0.00     0.00    0.00    0.00    0.00   0.00   0.00
sdc               0.00     0.00 2829.00    0.00 11316.00     0.00     8.00     0.29    0.10    0.10    0.00   0.10  29.40
sdb               0.00     0.00 2916.00    0.00 11664.00     0.00     8.00     0.30    0.10    0.10    0.00   0.10  30.20
sdd               0.00     0.00 2956.00    0.00 11824.00     0.00     8.00     0.31    0.11    0.11    0.00   0.11  31.40
md0               0.00     0.00 8699.00    0.00 34796.00     0.00     8.00     0.00    0.00    0.00    0.00   0.00   0.00

avg-cpu:  %user   %nice %system %iowait  %steal   %idle
           0.03    0.00    0.47    2.60    0.00   96.90

Device:         rrqm/s   wrqm/s     r/s     w/s    rkB/s    wkB/s avgrq-sz avgqu-sz   await r_await w_await  svctm  %util
nvme0n1           0.00     0.00    0.00    0.00     0.00     0.00     0.00     0.00    0.00    0.00    0.00   0.00   0.00
sda               0.00     0.00    0.00    0.00     0.00     0.00     0.00     0.00    0.00    0.00    0.00   0.00   0.00
sdc               0.00     0.00 2875.00    0.00 11500.00     0.00     8.00     0.30    0.10    0.10    0.00   0.10  29.70
sdb               0.00     0.00 3089.00    0.00 12356.00     0.00     8.00     0.32    0.10    0.10    0.00   0.10  32.20
sdd               0.00     0.00 2846.00    0.00 11384.00     0.00     8.00     0.29    0.10    0.10    0.00   0.10  28.70
md0               0.00     0.00 8811.00    0.00 35244.00     0.00     8.00     0.00    0.00    0.00    0.00   0.00   0.00

avg-cpu:  %user   %nice %system %iowait  %steal   %idle
           0.00    0.00    0.53    2.60    0.00   96.87

Device:         rrqm/s   wrqm/s     r/s     w/s    rkB/s    wkB/s avgrq-sz avgqu-sz   await r_await w_await  svctm  %util
nvme0n1           0.00     0.00    0.00    0.00     0.00     0.00     0.00     0.00    0.00    0.00    0.00   0.00   0.00
sda               0.00     0.00    0.00    0.00     0.00     0.00     0.00     0.00    0.00    0.00    0.00   0.00   0.00
sdc               0.00     0.00 2930.00    0.00 11720.00     0.00     8.00     0.29    0.10    0.10    0.00   0.10  29.30
sdb               0.00     0.00 2914.00    0.00 11656.00     0.00     8.00     0.30    0.10    0.10    0.00   0.10  29.60
sdd               0.00     0.00 2947.00    0.00 11788.00     0.00     8.00     0.30    0.10    0.10    0.00   0.10  30.00
md0               0.00     0.00 8790.00    0.00 35160.00     0.00     8.00     0.00    0.00    0.00    0.00   0.00   0.00

avg-cpu:  %user   %nice %system %iowait  %steal   %idle
           0.03    0.00    0.50    2.60    0.00   96.87

Device:         rrqm/s   wrqm/s     r/s     w/s    rkB/s    wkB/s avgrq-sz avgqu-sz   await r_await w_await  svctm  %util
nvme0n1           0.00     0.00    0.00    0.00     0.00     0.00     0.00     0.00    0.00    0.00    0.00   0.00   0.00
sda               0.00     7.00    0.00    2.00     0.00    36.00    36.00     0.00    0.50    0.00    0.50   0.50   0.10
sdc               0.00     0.00 2974.00    0.00 11896.00     0.00     8.00     0.31    0.10    0.10    0.00   0.10  30.60
sdb               0.00     0.00 2988.00    0.00 11952.00     0.00     8.00     0.30    0.10    0.10    0.00   0.10  29.80
sdd               0.00     0.00 2898.00    0.00 11592.00     0.00     8.00     0.29    0.10    0.10    0.00   0.10  29.40
md0               0.00     0.00 8860.00    0.00 35440.00     0.00     8.00     0.00    0.00    0.00    0.00   0.00   0.00

avg-cpu:  %user   %nice %system %iowait  %steal   %idle
           0.00    0.00    0.59    2.60    0.00   96.81

Device:         rrqm/s   wrqm/s     r/s     w/s    rkB/s    wkB/s avgrq-sz avgqu-sz   await r_await w_await  svctm  %util
nvme0n1           0.00     0.00    0.00    0.00     0.00     0.00     0.00     0.00    0.00    0.00    0.00   0.00   0.00
sda               0.00     0.00    0.00    0.00     0.00     0.00     0.00     0.00    0.00    0.00    0.00   0.00   0.00
sdc               0.00     0.00 2938.00    0.00 11752.00     0.00     8.00     0.31    0.10    0.10    0.00   0.10  30.60
sdb               0.00     0.00 2859.00    0.00 11436.00     0.00     8.00     0.29    0.10    0.10    0.00   0.10  29.10
sdd               0.00     0.00 3074.00    0.00 12296.00     0.00     8.00     0.31    0.10    0.10    0.00   0.10  30.60
md0               0.00     0.00 8872.00    0.00 35488.00     0.00     8.00     0.00    0.00    0.00    0.00   0.00   0.00

avg-cpu:  %user   %nice %system %iowait  %steal   %idle
           0.03    0.00    0.47    2.60    0.00   96.90

Device:         rrqm/s   wrqm/s     r/s     w/s    rkB/s    wkB/s avgrq-sz avgqu-sz   await r_await w_await  svctm  %util
nvme0n1           0.00     0.00    0.00    0.00     0.00     0.00     0.00     0.00    0.00    0.00    0.00   0.00   0.00
sda               0.00     1.00    0.00    2.00     0.00    12.00    12.00     0.00    0.00    0.00    0.00   0.00   0.00
sdc               0.00     0.00 2876.00    0.00 11504.00     0.00     8.00     0.31    0.11    0.11    0.00   0.11  30.80
sdb               0.00     0.00 2926.00    0.00 11704.00     0.00     8.00     0.30    0.10    0.10    0.00   0.10  29.80
sdd               0.00     0.00 3001.00    0.00 12004.00     0.00     8.00     0.31    0.10    0.10    0.00   0.10  31.20
md0               0.00     0.00 8803.00    0.00 35212.00     0.00     8.00     0.00    0.00    0.00    0.00   0.00   0.00

avg-cpu:  %user   %nice %system %iowait  %steal   %idle
           0.03    0.00    0.53    2.60    0.00   96.84

Device:         rrqm/s   wrqm/s     r/s     w/s    rkB/s    wkB/s avgrq-sz avgqu-sz   await r_await w_await  svctm  %util
nvme0n1           0.00     0.00    0.00    0.00     0.00     0.00     0.00     0.00    0.00    0.00    0.00   0.00   0.00
sda               0.00     0.00    0.00    0.00     0.00     0.00     0.00     0.00    0.00    0.00    0.00   0.00   0.00
sdc               0.00     0.00 3079.00    0.00 12316.00     0.00     8.00     0.31    0.10    0.10    0.00   0.10  30.80
sdb               0.00     0.00 2861.00    0.00 11444.00     0.00     8.00     0.29    0.10    0.10    0.00   0.10  28.90
sdd               0.00     0.00 2913.00    0.00 11652.00     0.00     8.00     0.30    0.10    0.10    0.00   0.10  29.90
md0               0.00     0.00 8852.00    0.00 35408.00     0.00     8.00     0.00    0.00    0.00    0.00   0.00   0.00

avg-cpu:  %user   %nice %system %iowait  %steal   %idle
           0.03    0.00    0.44    2.60    0.00   96.93

Device:         rrqm/s   wrqm/s     r/s     w/s    rkB/s    wkB/s avgrq-sz avgqu-sz   await r_await w_await  svctm  %util
nvme0n1           0.00     0.00    0.00    0.00     0.00     0.00     0.00     0.00    0.00    0.00    0.00   0.00   0.00
sda               0.00     0.00    0.00    0.00     0.00     0.00     0.00     0.00    0.00    0.00    0.00   0.00   0.00
sdc               0.00     0.00 2929.00    0.00 11716.00     0.00     8.00     0.29    0.10    0.10    0.00   0.10  28.80
sdb               0.00     0.00 2915.00    0.00 11660.00     0.00     8.00     0.31    0.10    0.10    0.00   0.10  30.60
sdd               0.00     0.00 3007.00    0.00 12028.00     0.00     8.00     0.31    0.10    0.10    0.00   0.10  31.30
md0               0.00     0.00 8851.00    0.00 35404.00     0.00     8.00     0.00    0.00    0.00    0.00   0.00   0.00

avg-cpu:  %user   %nice %system %iowait  %steal   %idle
           0.03    0.00    0.53    2.60    0.00   96.84

Device:         rrqm/s   wrqm/s     r/s     w/s    rkB/s    wkB/s avgrq-sz avgqu-sz   await r_await w_await  svctm  %util
nvme0n1           0.00     0.00    0.00    0.00     0.00     0.00     0.00     0.00    0.00    0.00    0.00   0.00   0.00
sda               0.00     4.00    0.00    2.00     0.00    24.00    24.00     0.00    0.00    0.00    0.00   0.00   0.00
sdc               0.00     0.00 2899.00    0.00 11596.00     0.00     8.00     0.29    0.10    0.10    0.00   0.10  29.40
sdb               0.00     0.00 2990.00    0.00 11960.00     0.00     8.00     0.31    0.10    0.10    0.00   0.10  30.60
sdd               0.00     0.00 2946.00    0.00 11784.00     0.00     8.00     0.30    0.10    0.10    0.00   0.10  30.00
md0               0.00     0.00 8835.00    0.00 35340.00     0.00     8.00     0.00    0.00    0.00    0.00   0.00   0.00

avg-cpu:  %user   %nice %system %iowait  %steal   %idle
           0.03    0.00    0.50    2.60    0.00   96.87

Device:         rrqm/s   wrqm/s     r/s     w/s    rkB/s    wkB/s avgrq-sz avgqu-sz   await r_await w_await  svctm  %util
nvme0n1           0.00     0.00    0.00    0.00     0.00     0.00     0.00     0.00    0.00    0.00    0.00   0.00   0.00
sda               0.00     0.00    0.00    0.00     0.00     0.00     0.00     0.00    0.00    0.00    0.00   0.00   0.00
sdc               0.00     0.00 2857.00    0.00 11428.00     0.00     8.00     0.29    0.10    0.10    0.00   0.10  29.50
sdb               0.00     0.00 3054.00    0.00 12216.00     0.00     8.00     0.31    0.10    0.10    0.00   0.10  30.80
sdd               0.00     0.00 3016.00    0.00 12064.00     0.00     8.00     0.31    0.10    0.10    0.00   0.10  31.10
md0               0.00     0.00 8927.00    0.00 35708.00     0.00     8.00     0.00    0.00    0.00    0.00   0.00   0.00

avg-cpu:  %user   %nice %system %iowait  %steal   %idle
           0.03    0.00    0.53    2.60    0.00   96.84

Device:         rrqm/s   wrqm/s     r/s     w/s    rkB/s    wkB/s avgrq-sz avgqu-sz   await r_await w_await  svctm  %util
nvme0n1           0.00     0.00    0.00    0.00     0.00     0.00     0.00     0.00    0.00    0.00    0.00   0.00   0.00
sda               0.00     1.00    0.00    4.00     0.00    60.00    30.00     0.00    0.00    0.00    0.00   0.00   0.00
sdc               0.00     0.00 2993.00    0.00 11972.00     0.00     8.00     0.30    0.10    0.10    0.00   0.10  30.40
sdb               0.00     0.00 2898.00    0.00 11592.00     0.00     8.00     0.29    0.10    0.10    0.00   0.10  29.50
sdd               0.00     0.00 3014.00    0.00 12056.00     0.00     8.00     0.31    0.10    0.10    0.00   0.10  30.90
md0               0.00     0.00 8905.00    0.00 35620.00     0.00     8.00     0.00    0.00    0.00    0.00   0.00   0.00

avg-cpu:  %user   %nice %system %iowait  %steal   %idle
           0.03    0.00    0.50    2.60    0.00   96.87

Device:         rrqm/s   wrqm/s     r/s     w/s    rkB/s    wkB/s avgrq-sz avgqu-sz   await r_await w_await  svctm  %util
nvme0n1           0.00     0.00    0.00    0.00     0.00     0.00     0.00     0.00    0.00    0.00    0.00   0.00   0.00
sda               0.00     0.00    0.00    0.00     0.00     0.00     0.00     0.00    0.00    0.00    0.00   0.00   0.00
sdc               0.00     0.00 2981.00    0.00 11924.00     0.00     8.00     0.29    0.10    0.10    0.00   0.10  29.10
sdb               0.00     0.00 3120.00    0.00 12480.00     0.00     8.00     0.31    0.10    0.10    0.00   0.10  31.30
sdd               0.00     0.00 2807.00    0.00 11228.00     0.00     8.00     0.29    0.10    0.10    0.00   0.10  29.30
md0               0.00     0.00 8908.00    0.00 35632.00     0.00     8.00     0.00    0.00    0.00    0.00   0.00   0.00

avg-cpu:  %user   %nice %system %iowait  %steal   %idle
           0.00    0.00    0.50    2.60    0.00   96.90

Device:         rrqm/s   wrqm/s     r/s     w/s    rkB/s    wkB/s avgrq-sz avgqu-sz   await r_await w_await  svctm  %util
nvme0n1           0.00     0.00    0.00    0.00     0.00     0.00     0.00     0.00    0.00    0.00    0.00   0.00   0.00
sda               0.00     0.00    0.00    0.00     0.00     0.00     0.00     0.00    0.00    0.00    0.00   0.00   0.00
sdc               0.00     0.00 2808.00    0.00 11232.00     0.00     8.00     0.29    0.10    0.10    0.00   0.10  28.80
sdb               0.00     0.00 3090.00    0.00 12360.00     0.00     8.00     0.33    0.11    0.11    0.00   0.11  32.70
sdd               0.00     0.00 2980.00    0.00 11920.00     0.00     8.00     0.30    0.10    0.10    0.00   0.10  30.20
md0               0.00     0.00 8878.00    0.00 35512.00     0.00     8.00     0.00    0.00    0.00    0.00   0.00   0.00

avg-cpu:  %user   %nice %system %iowait  %steal   %idle
           0.06    0.00    0.50    2.60    0.00   96.84

Device:         rrqm/s   wrqm/s     r/s     w/s    rkB/s    wkB/s avgrq-sz avgqu-sz   await r_await w_await  svctm  %util
nvme0n1           0.00     0.00    0.00    0.00     0.00     0.00     0.00     0.00    0.00    0.00    0.00   0.00   0.00
sda               0.00     8.00    0.00    2.00     0.00    40.00    40.00     0.00    0.00    0.00    0.00   0.00   0.00
sdc               0.00     0.00 2989.00    0.00 11956.00     0.00     8.00     0.30    0.10    0.10    0.00   0.10  30.10
sdb               0.00     0.00 3038.00    0.00 12152.00     0.00     8.00     0.31    0.10    0.10    0.00   0.10  31.10
sdd               0.00     0.00 2880.00    0.00 11520.00     0.00     8.00     0.29    0.10    0.10    0.00   0.10  29.10
md0               0.00     0.00 8908.00    0.00 35628.00     0.00     8.00     0.00    0.00    0.00    0.00   0.00   0.00

avg-cpu:  %user   %nice %system %iowait  %steal   %idle
           0.03    0.00    0.50    2.60    0.00   96.87

Device:         rrqm/s   wrqm/s     r/s     w/s    rkB/s    wkB/s avgrq-sz avgqu-sz   await r_await w_await  svctm  %util
nvme0n1           0.00     0.00    0.00    0.00     0.00     0.00     0.00     0.00    0.00    0.00    0.00   0.00   0.00
sda               0.00     0.00    0.00    0.00     0.00     0.00     0.00     0.00    0.00    0.00    0.00   0.00   0.00
sdc               0.00     0.00 2903.00    0.00 11612.00     0.00     8.00     0.30    0.10    0.10    0.00   0.10  29.90
sdb               0.00     0.00 3129.00    0.00 12516.00     0.00     8.00     0.30    0.10    0.10    0.00   0.10  30.50
sdd               0.00     0.00 2857.00    0.00 11428.00     0.00     8.00     0.30    0.10    0.10    0.00   0.10  29.70
md0               0.00     0.00 8889.00    0.00 35560.00     0.00     8.00     0.00    0.00    0.00    0.00   0.00   0.00

avg-cpu:  %user   %nice %system %iowait  %steal   %idle
           0.03    0.00    0.53    2.60    0.00   96.84

Device:         rrqm/s   wrqm/s     r/s     w/s    rkB/s    wkB/s avgrq-sz avgqu-sz   await r_await w_await  svctm  %util
nvme0n1           0.00     0.00    0.00    0.00     0.00     0.00     0.00     0.00    0.00    0.00    0.00   0.00   0.00
sda               0.00     0.00    0.00    0.00     0.00     0.00     0.00     0.00    0.00    0.00    0.00   0.00   0.00
sdc               0.00     0.00 2926.00    0.00 11704.00     0.00     8.00     0.31    0.11    0.11    0.00   0.11  31.10
sdb               0.00     0.00 3007.00    0.00 12028.00     0.00     8.00     0.32    0.10    0.10    0.00   0.10  31.50
sdd               0.00     0.00 2898.00    0.00 11592.00     0.00     8.00     0.29    0.10    0.10    0.00   0.10  29.30
md0               0.00     0.00 8830.00    0.00 35320.00     0.00     8.00     0.00    0.00    0.00    0.00   0.00   0.00

avg-cpu:  %user   %nice %system %iowait  %steal   %idle
           0.00    0.00    0.53    2.60    0.00   96.87

Device:         rrqm/s   wrqm/s     r/s     w/s    rkB/s    wkB/s avgrq-sz avgqu-sz   await r_await w_await  svctm  %util
nvme0n1           0.00     0.00    0.00    0.00     0.00     0.00     0.00     0.00    0.00    0.00    0.00   0.00   0.00
sda               0.00     0.00    0.00    0.00     0.00     0.00     0.00     0.00    0.00    0.00    0.00   0.00   0.00
sdc               0.00     0.00 2854.00    0.00 11416.00     0.00     8.00     0.30    0.10    0.10    0.00   0.10  29.60
sdb               0.00     0.00 2883.00    0.00 11532.00     0.00     8.00     0.30    0.10    0.10    0.00   0.10  30.00
sdd               0.00     0.00 3076.00    0.00 12304.00     0.00     8.00     0.32    0.10    0.10    0.00   0.10  32.20
md0               0.00     0.00 8813.00    0.00 35252.00     0.00     8.00     0.00    0.00    0.00    0.00   0.00   0.00

avg-cpu:  %user   %nice %system %iowait  %steal   %idle
           0.03    0.00    0.53    2.60    0.00   96.84

Device:         rrqm/s   wrqm/s     r/s     w/s    rkB/s    wkB/s avgrq-sz avgqu-sz   await r_await w_await  svctm  %util
nvme0n1           0.00     0.00    0.00    0.00     0.00     0.00     0.00     0.00    0.00    0.00    0.00   0.00   0.00
sda               0.00     0.00    0.00    0.00     0.00     0.00     0.00     0.00    0.00    0.00    0.00   0.00   0.00
sdc               0.00     0.00 2966.00    0.00 11864.00     0.00     8.00     0.30    0.10    0.10    0.00   0.10  30.40
sdb               0.00     0.00 2837.00    0.00 11348.00     0.00     8.00     0.29    0.10    0.10    0.00   0.10  28.80
sdd               0.00     0.00 3107.00    0.00 12428.00     0.00     8.00     0.33    0.10    0.10    0.00   0.10  32.50
md0               0.00     0.00 8910.00    0.00 35640.00     0.00     8.00     0.00    0.00    0.00    0.00   0.00   0.00

avg-cpu:  %user   %nice %system %iowait  %steal   %idle
           0.03    0.00    0.56    2.60    0.00   96.81

Device:         rrqm/s   wrqm/s     r/s     w/s    rkB/s    wkB/s avgrq-sz avgqu-sz   await r_await w_await  svctm  %util
nvme0n1           0.00     0.00    0.00    0.00     0.00     0.00     0.00     0.00    0.00    0.00    0.00   0.00   0.00
sda               0.00     1.00    0.00    2.00     0.00    12.00    12.00     0.00    0.00    0.00    0.00   0.00   0.00
sdc               0.00     0.00 2841.00    0.00 11364.00     0.00     8.00     0.28    0.10    0.10    0.00   0.10  28.20
sdb               0.00     0.00 2931.00    0.00 11724.00     0.00     8.00     0.29    0.10    0.10    0.00   0.10  29.30
sdd               0.00     0.00 3022.00    0.00 12088.00     0.00     8.00     0.30    0.10    0.10    0.00   0.10  30.50
md0               0.00     0.00 8794.00    0.00 35176.00     0.00     8.00     0.00    0.00    0.00    0.00   0.00   0.00

