Linux 4.17.2 (bench2) 	08/03/2018 	_x86_64_	(32 CPU)

avg-cpu:  %user   %nice %system %iowait  %steal   %idle
           1.92    0.00    1.57    1.52    0.00   94.99

Device:         rrqm/s   wrqm/s     r/s     w/s    rkB/s    wkB/s avgrq-sz avgqu-sz   await r_await w_await  svctm  %util
nvme0n1         953.21     5.18 19216.28  529.08 107487.86 11932.42    12.10     1.37    0.05    0.03    0.67   0.02  40.23
sda               0.11     0.81   14.13    0.57   163.93     8.51    23.45     0.00    0.33    0.32    0.45   0.07   0.10
sdc              32.66     0.14  108.22    0.30  1634.52    82.81    31.65     1.50   13.77   12.78  373.51   0.93  10.14
sdb              30.59     0.15  110.26    0.32  1632.63    82.63    31.02     0.38    3.41    2.27  394.60   0.87   9.63
sdd              32.86     0.13  107.76    0.25  1630.55    82.30    31.72     0.66    6.12    4.32  782.19   0.94  10.14
md0               0.00     0.00  425.24    1.07  6046.14   290.15    29.73     0.00    0.00    0.00    0.00   0.00   0.00

avg-cpu:  %user   %nice %system %iowait  %steal   %idle
           0.00    0.00    0.03    3.06    0.00   96.90

Device:         rrqm/s   wrqm/s     r/s     w/s    rkB/s    wkB/s avgrq-sz avgqu-sz   await r_await w_await  svctm  %util
nvme0n1           0.00     0.00    0.00    0.00     0.00     0.00     0.00     0.00    0.00    0.00    0.00   0.00   0.00
sda               0.00     0.00   18.00    0.00    76.00     0.00     8.44     0.00    0.00    0.00    0.00   0.00   0.00
sdc              14.00     0.00  336.00    0.00  1372.00     0.00     8.17   100.31  274.65  274.65    0.00   2.91  97.80
sdb               9.00     0.00  316.00    0.00  1284.00     0.00     8.13    88.26  257.19  257.19    0.00   2.88  91.10
sdd               6.00     0.00  325.00    0.00  1324.00     0.00     8.15   101.32  291.26  291.26    0.00   3.07  99.70
md0               0.00     0.00 1268.00    0.00  5072.00     0.00     8.00     0.00    0.00    0.00    0.00   0.00   0.00

avg-cpu:  %user   %nice %system %iowait  %steal   %idle
           0.00    0.00    0.03    3.06    0.00   96.91

Device:         rrqm/s   wrqm/s     r/s     w/s    rkB/s    wkB/s avgrq-sz avgqu-sz   await r_await w_await  svctm  %util
nvme0n1           0.00     0.00    0.00    0.00     0.00     0.00     0.00     0.00    0.00    0.00    0.00   0.00   0.00
sda               0.00     0.00    0.00    0.00     0.00     0.00     0.00     0.00    0.00    0.00    0.00   0.00   0.00
sdc               2.00     0.00  335.00    0.00  1368.00     0.00     8.17    92.18  258.75  258.75    0.00   2.73  91.60
sdb              11.00     0.00  325.00    0.00  1332.00     0.00     8.20    96.04  272.17  272.17    0.00   3.07  99.80
sdd               8.00     0.00  315.00    0.00  1284.00     0.00     8.15    92.64  277.25  277.25    0.00   3.11  98.00
md0               0.00     0.00  951.00    0.00  3804.00     0.00     8.00     0.00    0.00    0.00    0.00   0.00   0.00

