Linux 4.17.2 (bench2) 	08/03/2018 	_x86_64_	(32 CPU)

avg-cpu:  %user   %nice %system %iowait  %steal   %idle
           1.92    0.00    1.58    1.51    0.00   94.99

Device:         rrqm/s   wrqm/s     r/s     w/s    rkB/s    wkB/s avgrq-sz avgqu-sz   await r_await w_await  svctm  %util
nvme0n1         955.80     5.19 19268.51  530.52 107779.99 11964.85    12.10     1.37    0.05    0.03    0.67   0.02  40.34
sda               0.11     0.81   14.13    0.57   163.92     8.50    23.46     0.00    0.33    0.32    0.45   0.07   0.10
sdc              32.60     0.14  106.49    0.30  1599.98    83.04    31.52     1.49   13.91   12.90  373.51   0.94  10.02
sdb              30.52     0.15  108.53    0.32  1598.11    82.86    30.89     0.37    3.35    2.20  394.60   0.87   9.52
sdd              32.80     0.13  106.03    0.25  1596.03    82.52    31.59     0.65    6.11    4.28  782.19   0.94  10.02
md0               0.00     0.00  419.84    1.07  5908.54   290.94    29.46     0.00    0.00    0.00    0.00   0.00   0.00

avg-cpu:  %user   %nice %system %iowait  %steal   %idle
           3.09    0.00    0.18    0.29    0.00   96.44

Device:         rrqm/s   wrqm/s     r/s     w/s    rkB/s    wkB/s avgrq-sz avgqu-sz   await r_await w_await  svctm  %util
nvme0n1           0.00     0.00    0.00    0.00     0.00     0.00     0.00     0.00    0.00    0.00    0.00   0.00   0.00
sda               0.20     1.25   19.80    1.50    99.60    11.80    10.46     0.01    0.35    0.38    0.00   0.03   0.07
sdc               0.00     0.00 1525.65    0.00  6103.80     0.00     8.00     0.32    0.21    0.21    0.00   0.21  32.04
sdb               0.00     0.00 1499.10    0.00  5996.40     0.00     8.00     0.30    0.20    0.20    0.00   0.20  30.32
sdd               0.00     0.00 1506.20    0.00  6024.80     0.00     8.00     0.33    0.22    0.22    0.00   0.22  32.80
md0               0.00     0.00 4531.00    0.00 18125.20     0.00     8.00     0.00    0.00    0.00    0.00   0.00   0.00

