Linux 4.17.2 (bench2) 	08/03/2018 	_x86_64_	(32 CPU)

avg-cpu:  %user   %nice %system %iowait  %steal   %idle
           1.93    0.00    1.58    1.49    0.00   95.00

Device:         rrqm/s   wrqm/s     r/s     w/s    rkB/s    wkB/s avgrq-sz avgqu-sz   await r_await w_await  svctm  %util
nvme0n1         961.04     5.22 19374.17  533.43 108371.02 12030.46    12.10     1.38    0.05    0.03    0.67   0.02  40.56
sda               0.11     0.81   14.10    0.57   163.81     8.50    23.49     0.00    0.33    0.32    0.46   0.07   0.10
sdc              32.17     0.14  102.93    0.30  1549.45    83.49    31.64     1.45   14.08   13.03  373.51   0.95   9.78
sdb              30.08     0.15  104.98    0.32  1547.61    83.31    30.98     0.33    3.12    1.92  394.60   0.88   9.30
sdd              32.37     0.13  102.47    0.25  1545.48    82.98    31.71     0.61    5.98    4.07  782.19   0.95   9.79
md0               0.00     0.00  407.89    1.08  5713.69   292.54    29.37     0.00    0.00    0.00    0.00   0.00   0.00

avg-cpu:  %user   %nice %system %iowait  %steal   %idle
           3.07    0.00    0.33    2.77    0.00   93.84

Device:         rrqm/s   wrqm/s     r/s     w/s    rkB/s    wkB/s avgrq-sz avgqu-sz   await r_await w_await  svctm  %util
nvme0n1           0.00     0.00    0.00    0.00     0.00     0.00     0.00     0.00    0.00    0.00    0.00   0.00   0.00
sda               0.00     1.10    4.55    1.10    30.80     9.60    14.30     0.00    0.14    0.15    0.09   0.07   0.04
sdc               0.00     0.00 1979.00    0.00  7916.00     0.00     8.00     0.31    0.16    0.16    0.00   0.16  30.70
sdb               0.00     0.00 2010.50    0.00  8042.00     0.00     8.00     0.31    0.15    0.15    0.00   0.15  30.62
sdd               0.00     0.00 1986.50    0.00  7946.00     0.00     8.00     0.31    0.16    0.16    0.00   0.16  30.89
md0               0.00     0.00 5976.05    0.00 23904.20     0.00     8.00     0.00    0.00    0.00    0.00   0.00   0.00

