Linux 4.17.2 (bench2) 	08/03/2018 	_x86_64_	(32 CPU)

avg-cpu:  %user   %nice %system %iowait  %steal   %idle
           1.93    0.00    1.59    1.49    0.00   95.00

Device:         rrqm/s   wrqm/s     r/s     w/s    rkB/s    wkB/s avgrq-sz avgqu-sz   await r_await w_await  svctm  %util
nvme0n1         962.10     5.23 19395.47  534.02 108490.16 12043.68    12.10     1.38    0.05    0.03    0.67   0.02  40.60
sda               0.11     0.81   14.10    0.57   163.80     8.50    23.49     0.00    0.33    0.32    0.46   0.07   0.10
sdc              32.06     0.14  101.96    0.30  1546.24    83.58    31.88     1.45   14.21   13.15  373.51   0.95   9.75
sdb              29.97     0.15  104.02    0.32  1544.42    83.40    31.20     0.33    3.13    1.92  394.60   0.89   9.26
sdd              32.26     0.13  101.50    0.25  1542.29    83.07    31.95     0.61    6.02    4.10  782.19   0.96   9.75
md0               0.00     0.00  404.66    1.08  5705.27   292.86    29.57     0.00    0.00    0.00    0.00   0.00   0.00

avg-cpu:  %user   %nice %system %iowait  %steal   %idle
           3.13    0.00    0.06    2.94    0.00   93.87

Device:         rrqm/s   wrqm/s     r/s     w/s    rkB/s    wkB/s avgrq-sz avgqu-sz   await r_await w_await  svctm  %util
nvme0n1           0.00     0.00    0.00    0.00     0.00     0.00     0.00     0.00    0.00    0.00    0.00   0.00   0.00
sda               0.00     0.00   21.00    0.00   124.00     0.00    11.81     0.00    0.05    0.05    0.00   0.00   0.00
sdc               0.00     0.00  169.00    0.00   676.00     0.00     8.00     0.24    1.44    1.44    0.00   1.44  24.30
sdb               0.00     0.00  175.00    0.00   700.00     0.00     8.00     0.39    2.25    2.25    0.00   2.25  39.40
sdd               0.00     0.00  160.00    0.00   640.00     0.00     8.00     0.34    2.14    2.14    0.00   2.15  34.40
md0               0.00     0.00  505.00    0.00  2020.00     0.00     8.00     0.00    0.00    0.00    0.00   0.00   0.00

avg-cpu:  %user   %nice %system %iowait  %steal   %idle
           3.09    0.00    0.06    3.06    0.00   93.78

Device:         rrqm/s   wrqm/s     r/s     w/s    rkB/s    wkB/s avgrq-sz avgqu-sz   await r_await w_await  svctm  %util
nvme0n1           0.00     0.00    0.00    0.00     0.00     0.00     0.00     0.00    0.00    0.00    0.00   0.00   0.00
sda               0.00     0.00    0.00    0.00     0.00     0.00     0.00     0.00    0.00    0.00    0.00   0.00   0.00
sdc               0.00     0.00  171.00    0.00   684.00     0.00     8.00     0.38    2.21    2.21    0.00   2.21  37.80
sdb               0.00     0.00  162.00    0.00   648.00     0.00     8.00     0.29    1.80    1.80    0.00   1.80  29.10
sdd               0.00     0.00  157.00    0.00   628.00     0.00     8.00     0.32    2.05    2.05    0.00   2.04  32.00
md0               0.00     0.00  490.00    0.00  1960.00     0.00     8.00     0.00    0.00    0.00    0.00   0.00   0.00

avg-cpu:  %user   %nice %system %iowait  %steal   %idle
           3.13    0.00    0.03    3.06    0.00   93.78

Device:         rrqm/s   wrqm/s     r/s     w/s    rkB/s    wkB/s avgrq-sz avgqu-sz   await r_await w_await  svctm  %util
nvme0n1           0.00     0.00    0.00    0.00     0.00     0.00     0.00     0.00    0.00    0.00    0.00   0.00   0.00
sda               0.00     1.00    0.00    8.00     0.00    36.00     9.00     0.00    0.00    0.00    0.00   0.00   0.00
sdc               0.00     0.00  168.00    0.00   672.00     0.00     8.00     0.26    1.52    1.52    0.00   1.52  25.60
sdb               0.00     0.00  152.00    0.00   608.00     0.00     8.00     0.31    2.05    2.05    0.00   2.05  31.10
sdd               0.00     0.00  126.00    0.00   504.00     0.00     8.00     0.42    3.33    3.33    0.00   3.33  41.90
md0               0.00     0.00  446.00    0.00  1784.00     0.00     8.00     0.00    0.00    0.00    0.00   0.00   0.00

avg-cpu:  %user   %nice %system %iowait  %steal   %idle
           3.13    0.00    0.03    3.06    0.00   93.78

Device:         rrqm/s   wrqm/s     r/s     w/s    rkB/s    wkB/s avgrq-sz avgqu-sz   await r_await w_await  svctm  %util
nvme0n1           0.00     0.00    0.00    0.00     0.00     0.00     0.00     0.00    0.00    0.00    0.00   0.00   0.00
sda               0.00     0.00    0.00    0.00     0.00     0.00     0.00     0.00    0.00    0.00    0.00   0.00   0.00
sdc               0.00     0.00  160.00    0.00   640.00     0.00     8.00     0.24    1.48    1.48    0.00   1.48  23.70
sdb               0.00     0.00  165.00    0.00   660.00     0.00     8.00     0.35    2.11    2.11    0.00   2.11  34.80
sdd               0.00     0.00  188.00    0.00   752.00     0.00     8.00     0.41    2.16    2.16    0.00   2.16  40.70
md0               0.00     0.00  513.00    0.00  2052.00     0.00     8.00     0.00    0.00    0.00    0.00   0.00   0.00

avg-cpu:  %user   %nice %system %iowait  %steal   %idle
           3.13    0.00    0.03    3.06    0.00   93.78

Device:         rrqm/s   wrqm/s     r/s     w/s    rkB/s    wkB/s avgrq-sz avgqu-sz   await r_await w_await  svctm  %util
nvme0n1           0.00     0.00    0.00    0.00     0.00     0.00     0.00     0.00    0.00    0.00    0.00   0.00   0.00
sda               0.00     8.00    0.00    2.00     0.00    40.00    40.00     0.00    0.00    0.00    0.00   0.00   0.00
sdc               0.00     0.00  164.00    0.00   656.00     0.00     8.00     0.33    2.00    2.00    0.00   2.00  32.80
sdb               0.00     0.00  172.00    0.00   688.00     0.00     8.00     0.28    1.60    1.60    0.00   1.60  27.50
sdd               0.00     0.00  160.00    0.00   640.00     0.00     8.00     0.38    2.36    2.36    0.00   2.40  38.40
md0               0.00     0.00  496.00    0.00  1984.00     0.00     8.00     0.00    0.00    0.00    0.00   0.00   0.00

avg-cpu:  %user   %nice %system %iowait  %steal   %idle
           3.13    0.00    0.03    3.06    0.00   93.78

Device:         rrqm/s   wrqm/s     r/s     w/s    rkB/s    wkB/s avgrq-sz avgqu-sz   await r_await w_await  svctm  %util
nvme0n1           0.00     0.00    0.00    0.00     0.00     0.00     0.00     0.00    0.00    0.00    0.00   0.00   0.00
sda               0.00     0.00    0.00    0.00     0.00     0.00     0.00     0.00    0.00    0.00    0.00   0.00   0.00
sdc               0.00     0.00  170.00    0.00   680.00     0.00     8.00     0.33    1.94    1.94    0.00   1.94  33.00
sdb               0.00     0.00  157.00    0.00   628.00     0.00     8.00     0.17    1.10    1.10    0.00   1.10  17.20
sdd               0.00     0.00  168.00    0.00   672.00     0.00     8.00     0.49    2.95    2.95    0.00   2.92  49.10
md0               0.00     0.00  495.00    0.00  1980.00     0.00     8.00     0.00    0.00    0.00    0.00   0.00   0.00

avg-cpu:  %user   %nice %system %iowait  %steal   %idle
           3.13    0.00    0.03    3.06    0.00   93.78

Device:         rrqm/s   wrqm/s     r/s     w/s    rkB/s    wkB/s avgrq-sz avgqu-sz   await r_await w_await  svctm  %util
nvme0n1           0.00     0.00    0.00    0.00     0.00     0.00     0.00     0.00    0.00    0.00    0.00   0.00   0.00
sda               0.00     0.00    0.00    0.00     0.00     0.00     0.00     0.00    0.00    0.00    0.00   0.00   0.00
sdc               0.00     0.00  154.00    0.00   616.00     0.00     8.00     0.43    2.79    2.79    0.00   2.79  42.90
sdb               0.00     0.00  183.00    0.00   732.00     0.00     8.00     0.34    1.83    1.83    0.00   1.83  33.50
sdd               0.00     0.00  145.00    0.00   580.00     0.00     8.00     0.23    1.59    1.59    0.00   1.57  22.80
md0               0.00     0.00  482.00    0.00  1928.00     0.00     8.00     0.00    0.00    0.00    0.00   0.00   0.00

avg-cpu:  %user   %nice %system %iowait  %steal   %idle
           3.13    0.00    0.06    3.09    0.00   93.72

Device:         rrqm/s   wrqm/s     r/s     w/s    rkB/s    wkB/s avgrq-sz avgqu-sz   await r_await w_await  svctm  %util
nvme0n1           0.00     0.00    0.00    0.00     0.00     0.00     0.00     0.00    0.00    0.00    0.00   0.00   0.00
sda               0.00     0.00   60.00    0.00   452.00     0.00    15.07     0.02    0.37    0.37    0.00   0.07   0.40
sdc               0.00     0.00  156.00    0.00   624.00     0.00     8.00     0.52    3.32    3.32    0.00   3.32  51.80
sdb               0.00     0.00  153.00    0.00   612.00     0.00     8.00     0.17    1.08    1.08    0.00   1.08  16.50
sdd               0.00     0.00  157.00    0.00   628.00     0.00     8.00     0.31    1.96    1.96    0.00   1.96  30.80
md0               0.00     0.00  466.00    0.00  1864.00     0.00     8.00     0.00    0.00    0.00    0.00   0.00   0.00

avg-cpu:  %user   %nice %system %iowait  %steal   %idle
           3.13    0.00    0.03    3.06    0.00   93.78

Device:         rrqm/s   wrqm/s     r/s     w/s    rkB/s    wkB/s avgrq-sz avgqu-sz   await r_await w_await  svctm  %util
nvme0n1           0.00     0.00    0.00    0.00     0.00     0.00     0.00     0.00    0.00    0.00    0.00   0.00   0.00
sda               0.00     0.00    0.00    0.00     0.00     0.00     0.00     0.00    0.00    0.00    0.00   0.00   0.00
sdc               0.00     0.00  168.00    0.00   672.00     0.00     8.00     0.24    1.44    1.44    0.00   1.44  24.20
sdb               0.00     0.00  173.00    0.00   692.00     0.00     8.00     0.43    2.50    2.50    0.00   2.50  43.20
sdd               0.00     0.00  170.00    0.00   680.00     0.00     8.00     0.31    1.83    1.83    0.00   1.83  31.10
md0               0.00     0.00  511.00    0.00  2044.00     0.00     8.00     0.00    0.00    0.00    0.00   0.00   0.00

avg-cpu:  %user   %nice %system %iowait  %steal   %idle
           3.13    0.00    0.06    3.06    0.00   93.75

Device:         rrqm/s   wrqm/s     r/s     w/s    rkB/s    wkB/s avgrq-sz avgqu-sz   await r_await w_await  svctm  %util
nvme0n1           0.00     0.00    0.00    0.00     0.00     0.00     0.00     0.00    0.00    0.00    0.00   0.00   0.00
sda               0.00     3.00    0.00    2.00     0.00    20.00    20.00     0.00    0.00    0.00    0.00   0.00   0.00
sdc               0.00     0.00  162.00    0.00   648.00     0.00     8.00     0.36    2.20    2.20    0.00   2.20  35.70
sdb               0.00     0.00  148.00    0.00   592.00     0.00     8.00     0.37    2.49    2.49    0.00   2.49  36.90
sdd               0.00     0.00  161.00    0.00   644.00     0.00     8.00     0.26    1.65    1.65    0.00   1.64  26.40
md0               0.00     0.00  471.00    0.00  1884.00     0.00     8.00     0.00    0.00    0.00    0.00   0.00   0.00

avg-cpu:  %user   %nice %system %iowait  %steal   %idle
           3.13    0.00    0.00    3.07    0.00   93.81

Device:         rrqm/s   wrqm/s     r/s     w/s    rkB/s    wkB/s avgrq-sz avgqu-sz   await r_await w_await  svctm  %util
nvme0n1           0.00     0.00    0.00    0.00     0.00     0.00     0.00     0.00    0.00    0.00    0.00   0.00   0.00
sda               0.00     0.00    0.00    0.00     0.00     0.00     0.00     0.00    0.00    0.00    0.00   0.00   0.00
sdc               0.00     0.00  155.00    0.00   620.00     0.00     8.00     0.27    1.73    1.73    0.00   1.73  26.80
sdb               0.00     0.00  173.00    0.00   692.00     0.00     8.00     0.25    1.43    1.43    0.00   1.43  24.70
sdd               0.00     0.00  143.00    0.00   572.00     0.00     8.00     0.48    3.32    3.32    0.00   3.34  47.70
md0               0.00     0.00  471.00    0.00  1884.00     0.00     8.00     0.00    0.00    0.00    0.00   0.00   0.00

avg-cpu:  %user   %nice %system %iowait  %steal   %idle
           3.12    0.00    0.03    3.09    0.00   93.75

Device:         rrqm/s   wrqm/s     r/s     w/s    rkB/s    wkB/s avgrq-sz avgqu-sz   await r_await w_await  svctm  %util
nvme0n1           0.00     0.00    0.00    0.00     0.00     0.00     0.00     0.00    0.00    0.00    0.00   0.00   0.00
sda               0.00     0.00    0.00    0.00     0.00     0.00     0.00     0.00    0.00    0.00    0.00   0.00   0.00
sdc               0.00     0.00  148.00    0.00   592.00     0.00     8.00     0.45    3.01    3.01    0.00   3.02  44.70
sdb               0.00     0.00  167.00    0.00   668.00     0.00     8.00     0.20    1.21    1.21    0.00   1.21  20.20
sdd               0.00     0.00  184.00    0.00   736.00     0.00     8.00     0.34    1.85    1.85    0.00   1.84  33.90
md0               0.00     0.00  499.00    0.00  1996.00     0.00     8.00     0.00    0.00    0.00    0.00   0.00   0.00

avg-cpu:  %user   %nice %system %iowait  %steal   %idle
           3.09    0.00    0.09    3.06    0.00   93.75

Device:         rrqm/s   wrqm/s     r/s     w/s    rkB/s    wkB/s avgrq-sz avgqu-sz   await r_await w_await  svctm  %util
nvme0n1           0.00     0.00    0.00    0.00     0.00     0.00     0.00     0.00    0.00    0.00    0.00   0.00   0.00
sda               0.00     1.00    0.00    3.00     0.00    32.00    21.33     0.00    0.00    0.00    0.00   0.00   0.00
sdc               0.00     0.00  172.00    0.00   688.00     0.00     8.00     0.46    2.67    2.67    0.00   2.66  45.70
sdb               0.00     0.00  142.00    0.00   568.00     0.00     8.00     0.20    1.39    1.39    0.00   1.42  20.20
sdd               0.00     0.00  175.00    0.00   700.00     0.00     8.00     0.33    1.86    1.86    0.00   1.86  32.50
md0               0.00     0.00  489.00    0.00  1956.00     0.00     8.00     0.00    0.00    0.00    0.00   0.00   0.00

avg-cpu:  %user   %nice %system %iowait  %steal   %idle
           3.13    0.00    0.06    3.06    0.00   93.75

Device:         rrqm/s   wrqm/s     r/s     w/s    rkB/s    wkB/s avgrq-sz avgqu-sz   await r_await w_await  svctm  %util
nvme0n1           0.00     0.00    0.00    0.00     0.00     0.00     0.00     0.00    0.00    0.00    0.00   0.00   0.00
sda               0.00     0.00    0.00    0.00     0.00     0.00     0.00     0.00    0.00    0.00    0.00   0.00   0.00
sdc               0.00     0.00  169.00    0.00   676.00     0.00     8.00     0.31    1.82    1.82    0.00   1.82  30.80
sdb               0.00     0.00  138.00    0.00   552.00     0.00     8.00     0.33    2.45    2.45    0.00   2.41  33.30
sdd               0.00     0.00  145.00    0.00   580.00     0.00     8.00     0.34    2.38    2.38    0.00   2.38  34.50
md0               0.00     0.00  452.00    0.00  1808.00     0.00     8.00     0.00    0.00    0.00    0.00   0.00   0.00

avg-cpu:  %user   %nice %system %iowait  %steal   %idle
           3.13    0.00    0.03    3.06    0.00   93.78

Device:         rrqm/s   wrqm/s     r/s     w/s    rkB/s    wkB/s avgrq-sz avgqu-sz   await r_await w_await  svctm  %util
nvme0n1           0.00     0.00    0.00    0.00     0.00     0.00     0.00     0.00    0.00    0.00    0.00   0.00   0.00
sda               0.00     3.00    0.00    2.00     0.00    20.00    20.00     0.00    0.00    0.00    0.00   0.00   0.00
sdc               0.00     0.00  159.00    0.00   636.00     0.00     8.00     0.41    2.55    2.55    0.00   2.55  40.50
sdb               0.00     0.00  169.00    0.00   676.00     0.00     8.00     0.27    1.57    1.57    0.00   1.57  26.50
sdd               0.00     0.00  165.00    0.00   660.00     0.00     8.00     0.32    1.93    1.93    0.00   1.94  32.00
md0               0.00     0.00  493.00    0.00  1972.00     0.00     8.00     0.00    0.00    0.00    0.00   0.00   0.00

avg-cpu:  %user   %nice %system %iowait  %steal   %idle
           3.13    0.00    0.03    3.06    0.00   93.78

Device:         rrqm/s   wrqm/s     r/s     w/s    rkB/s    wkB/s avgrq-sz avgqu-sz   await r_await w_await  svctm  %util
nvme0n1           0.00     0.00    0.00    0.00     0.00     0.00     0.00     0.00    0.00    0.00    0.00   0.00   0.00
sda               0.00     0.00    0.00    0.00     0.00     0.00     0.00     0.00    0.00    0.00    0.00   0.00   0.00
sdc               0.00     0.00  161.00    0.00   644.00     0.00     8.00     0.21    1.30    1.30    0.00   1.30  20.90
sdb               0.00     0.00  170.00    0.00   680.00     0.00     8.00     0.26    1.55    1.55    0.00   1.55  26.30
sdd               0.00     0.00  166.00    0.00   664.00     0.00     8.00     0.51    3.10    3.10    0.00   3.10  51.40
md0               0.00     0.00  497.00    0.00  1988.00     0.00     8.00     0.00    0.00    0.00    0.00   0.00   0.00

avg-cpu:  %user   %nice %system %iowait  %steal   %idle
           3.12    0.00    0.06    3.06    0.00   93.75

Device:         rrqm/s   wrqm/s     r/s     w/s    rkB/s    wkB/s avgrq-sz avgqu-sz   await r_await w_await  svctm  %util
nvme0n1           0.00     0.00    0.00    0.00     0.00     0.00     0.00     0.00    0.00    0.00    0.00   0.00   0.00
sda               0.00     0.00    0.00    0.00     0.00     0.00     0.00     0.00    0.00    0.00    0.00   0.00   0.00
sdc               0.00     0.00  183.00    0.00   732.00     0.00     8.00     0.24    1.30    1.30    0.00   1.30  23.70
sdb               0.00     0.00  177.00    0.00   708.00     0.00     8.00     0.41    2.29    2.29    0.00   2.29  40.60
sdd               0.00     0.00  178.00    0.00   712.00     0.00     8.00     0.34    1.92    1.92    0.00   1.93  34.40
md0               0.00     0.00  538.00    0.00  2152.00     0.00     8.00     0.00    0.00    0.00    0.00   0.00   0.00

avg-cpu:  %user   %nice %system %iowait  %steal   %idle
           3.10    0.00    0.03    3.07    0.00   93.81

Device:         rrqm/s   wrqm/s     r/s     w/s    rkB/s    wkB/s avgrq-sz avgqu-sz   await r_await w_await  svctm  %util
nvme0n1           0.00     0.00    0.00    0.00     0.00     0.00     0.00     0.00    0.00    0.00    0.00   0.00   0.00
sda               0.00     0.00    0.00    0.00     0.00     0.00     0.00     0.00    0.00    0.00    0.00   0.00   0.00
sdc               0.00     0.00  167.00    0.00   668.00     0.00     8.00     0.35    2.11    2.11    0.00   2.11  35.30
sdb               0.00     0.00  152.00    0.00   608.00     0.00     8.00     0.23    1.50    1.50    0.00   1.51  22.90
sdd               0.00     0.00  164.00    0.00   656.00     0.00     8.00     0.41    2.50    2.50    0.00   2.48  40.70
md0               0.00     0.00  483.00    0.00  1932.00     0.00     8.00     0.00    0.00    0.00    0.00   0.00   0.00

avg-cpu:  %user   %nice %system %iowait  %steal   %idle
           3.13    0.00    0.03    3.06    0.00   93.78

Device:         rrqm/s   wrqm/s     r/s     w/s    rkB/s    wkB/s avgrq-sz avgqu-sz   await r_await w_await  svctm  %util
nvme0n1           0.00     0.00    0.00    0.00     0.00     0.00     0.00     0.00    0.00    0.00    0.00   0.00   0.00
sda               0.00     0.00    0.00    0.00     0.00     0.00     0.00     0.00    0.00    0.00    0.00   0.00   0.00
sdc               0.00     0.00  148.00    0.00   592.00     0.00     8.00     0.33    2.20    2.20    0.00   2.20  32.50
sdb               0.00     0.00  156.00    0.00   624.00     0.00     8.00     0.24    1.57    1.57    0.00   1.56  24.40
sdd               0.00     0.00  164.00    0.00   656.00     0.00     8.00     0.42    2.54    2.54    0.00   2.54  41.60
md0               0.00     0.00  468.00    0.00  1872.00     0.00     8.00     0.00    0.00    0.00    0.00   0.00   0.00

avg-cpu:  %user   %nice %system %iowait  %steal   %idle
           3.13    0.00    0.03    3.06    0.00   93.78

Device:         rrqm/s   wrqm/s     r/s     w/s    rkB/s    wkB/s avgrq-sz avgqu-sz   await r_await w_await  svctm  %util
nvme0n1           0.00     0.00    0.00    0.00     0.00     0.00     0.00     0.00    0.00    0.00    0.00   0.00   0.00
sda               0.00     1.00    0.00    2.00     0.00    12.00    12.00     0.00    0.00    0.00    0.00   0.00   0.00
sdc               0.00     0.00  186.00    0.00   744.00     0.00     8.00     0.27    1.42    1.42    0.00   1.42  26.50
sdb               0.00     0.00  154.00    0.00   616.00     0.00     8.00     0.21    1.39    1.39    0.00   1.39  21.40
sdd               0.00     0.00  176.00    0.00   704.00     0.00     8.00     0.51    2.90    2.90    0.00   2.91  51.30
md0               0.00     0.00  516.00    0.00  2064.00     0.00     8.00     0.00    0.00    0.00    0.00   0.00   0.00

