Linux 4.17.2 (bench2) 	08/03/2018 	_x86_64_	(32 CPU)

avg-cpu:  %user   %nice %system %iowait  %steal   %idle
           1.92    0.00    1.58    1.51    0.00   94.99

Device:         rrqm/s   wrqm/s     r/s     w/s    rkB/s    wkB/s avgrq-sz avgqu-sz   await r_await w_await  svctm  %util
nvme0n1         956.30     5.19 19278.52  530.80 107836.01 11971.06    12.10     1.37    0.05    0.03    0.67   0.02  40.36
sda               0.11     0.81   14.13    0.57   163.91     8.50    23.46     0.00    0.33    0.32    0.45   0.07   0.10
sdc              32.56     0.14  106.05    0.30  1598.62    83.08    31.63     1.48   13.94   12.92  373.51   0.94  10.00
sdb              30.48     0.15  108.09    0.32  1596.76    82.90    30.99     0.36    3.33    2.17  394.60   0.88   9.50
sdd              32.76     0.13  105.59    0.25  1594.67    82.57    31.69     0.65    6.11    4.27  782.19   0.94  10.00
md0               0.00     0.00  418.42    1.07  5905.05   291.09    29.54     0.00    0.00    0.00    0.00   0.00   0.00

avg-cpu:  %user   %nice %system %iowait  %steal   %idle
           3.10    0.00    0.16    2.91    0.00   93.84

Device:         rrqm/s   wrqm/s     r/s     w/s    rkB/s    wkB/s avgrq-sz avgqu-sz   await r_await w_await  svctm  %util
nvme0n1           0.00     0.00    0.00    0.00     0.00     0.00     0.00     0.00    0.00    0.00    0.00   0.00   0.00
sda               0.00     0.00   20.00    0.00   108.00     0.00    10.80     0.02    0.90    0.90    0.00   0.05   0.10
sdc               0.00     0.00 1337.00    0.00  5372.00     0.00     8.04     0.20    0.15    0.15    0.00   0.15  20.40
sdb               0.00     0.00 1353.00    0.00  5412.00     0.00     8.00     0.34    0.25    0.25    0.00   0.25  34.00
sdd               0.00     0.00 1442.00    0.00  5768.00     0.00     8.00     0.41    0.29    0.29    0.00   0.29  41.30
md0               0.00     0.00 4132.00    0.00 16540.00     0.00     8.01     0.00    0.00    0.00    0.00   0.00   0.00

avg-cpu:  %user   %nice %system %iowait  %steal   %idle
           3.09    0.00    0.22    2.94    0.00   93.75

Device:         rrqm/s   wrqm/s     r/s     w/s    rkB/s    wkB/s avgrq-sz avgqu-sz   await r_await w_await  svctm  %util
nvme0n1           0.00     0.00    0.00    0.00     0.00     0.00     0.00     0.00    0.00    0.00    0.00   0.00   0.00
sda               0.00     0.00    0.00    0.00     0.00     0.00     0.00     0.00    0.00    0.00    0.00   0.00   0.00
sdc               0.00     0.00 1409.00    0.00  5636.00     0.00     8.00     0.28    0.20    0.20    0.00   0.20  27.90
sdb               0.00     0.00 1455.00    0.00  5820.00     0.00     8.00     0.25    0.17    0.17    0.00   0.17  24.90
sdd               0.00     0.00 1486.00    0.00  5944.00     0.00     8.00     0.43    0.29    0.29    0.00   0.29  43.00
md0               0.00     0.00 4350.00    0.00 17400.00     0.00     8.00     0.00    0.00    0.00    0.00   0.00   0.00

avg-cpu:  %user   %nice %system %iowait  %steal   %idle
           3.10    0.00    0.22    2.91    0.00   93.78

Device:         rrqm/s   wrqm/s     r/s     w/s    rkB/s    wkB/s avgrq-sz avgqu-sz   await r_await w_await  svctm  %util
nvme0n1           0.00     0.00    0.00    0.00     0.00     0.00     0.00     0.00    0.00    0.00    0.00   0.00   0.00
sda               0.00     0.00    0.00    0.00     0.00     0.00     0.00     0.00    0.00    0.00    0.00   0.00   0.00
sdc               0.00     0.00 1452.00    0.00  5808.00     0.00     8.00     0.44    0.30    0.30    0.00   0.30  44.20
sdb               0.00     0.00 1519.00    0.00  6076.00     0.00     8.00     0.21    0.14    0.14    0.00   0.14  21.10
sdd               0.00     0.00 1411.00    0.00  5644.00     0.00     8.00     0.32    0.22    0.22    0.00   0.22  31.60
md0               0.00     0.00 4382.00    0.00 17528.00     0.00     8.00     0.00    0.00    0.00    0.00   0.00   0.00

avg-cpu:  %user   %nice %system %iowait  %steal   %idle
           3.13    0.00    0.22    2.91    0.00   93.75

Device:         rrqm/s   wrqm/s     r/s     w/s    rkB/s    wkB/s avgrq-sz avgqu-sz   await r_await w_await  svctm  %util
nvme0n1           0.00     0.00    0.00    0.00     0.00     0.00     0.00     0.00    0.00    0.00    0.00   0.00   0.00
sda               0.00     0.00    0.00    0.00     0.00     0.00     0.00     0.00    0.00    0.00    0.00   0.00   0.00
sdc               0.00     0.00 1519.00    0.00  6076.00     0.00     8.00     0.32    0.21    0.21    0.00   0.21  32.20
sdb               0.00     0.00 1562.00    0.00  6248.00     0.00     8.00     0.28    0.18    0.18    0.00   0.18  28.40
sdd               0.00     0.00 1497.00    0.00  5988.00     0.00     8.00     0.36    0.24    0.24    0.00   0.24  35.70
md0               0.00     0.00 4578.00    0.00 18312.00     0.00     8.00     0.00    0.00    0.00    0.00   0.00   0.00

avg-cpu:  %user   %nice %system %iowait  %steal   %idle
           3.10    0.00    0.19    2.94    0.00   93.78

Device:         rrqm/s   wrqm/s     r/s     w/s    rkB/s    wkB/s avgrq-sz avgqu-sz   await r_await w_await  svctm  %util
nvme0n1           0.00     0.00    0.00    0.00     0.00     0.00     0.00     0.00    0.00    0.00    0.00   0.00   0.00
sda               0.00     0.00    0.00    0.00     0.00     0.00     0.00     0.00    0.00    0.00    0.00   0.00   0.00
sdc               0.00     0.00 1435.00    0.00  5740.00     0.00     8.00     0.29    0.20    0.20    0.00   0.20  29.20
sdb               0.00     0.00 1505.00    0.00  6020.00     0.00     8.00     0.31    0.20    0.20    0.00   0.20  30.70
sdd               0.00     0.00 1423.00    0.00  5692.00     0.00     8.00     0.36    0.26    0.26    0.00   0.26  36.50
md0               0.00     0.00 4363.00    0.00 17452.00     0.00     8.00     0.00    0.00    0.00    0.00   0.00   0.00

avg-cpu:  %user   %nice %system %iowait  %steal   %idle
           3.10    0.00    0.22    2.91    0.00   93.78

Device:         rrqm/s   wrqm/s     r/s     w/s    rkB/s    wkB/s avgrq-sz avgqu-sz   await r_await w_await  svctm  %util
nvme0n1           0.00     0.00    0.00    0.00     0.00     0.00     0.00     0.00    0.00    0.00    0.00   0.00   0.00
sda               0.00     9.00    0.00    2.00     0.00    44.00    44.00     0.00    0.50    0.00    0.50   0.50   0.10
sdc               0.00     0.00 1488.00    0.00  5952.00     0.00     8.00     0.28    0.18    0.18    0.00   0.18  27.50
sdb               0.00     0.00 1450.00    0.00  5800.00     0.00     8.00     0.42    0.29    0.29    0.00   0.29  42.10
sdd               0.00     0.00 1503.00    0.00  6012.00     0.00     8.00     0.27    0.18    0.18    0.00   0.18  26.80
md0               0.00     0.00 4441.00    0.00 17764.00     0.00     8.00     0.00    0.00    0.00    0.00   0.00   0.00

avg-cpu:  %user   %nice %system %iowait  %steal   %idle
           3.12    0.00    0.19    2.97    0.00   93.72

Device:         rrqm/s   wrqm/s     r/s     w/s    rkB/s    wkB/s avgrq-sz avgqu-sz   await r_await w_await  svctm  %util
nvme0n1           0.00     0.00    0.00    0.00     0.00     0.00     0.00     0.00    0.00    0.00    0.00   0.00   0.00
sda               0.00     0.00    0.00    0.00     0.00     0.00     0.00     0.00    0.00    0.00    0.00   0.00   0.00
sdc               0.00     0.00 1414.00    0.00  5656.00     0.00     8.00     0.43    0.30    0.30    0.00   0.30  42.80
sdb               0.00     0.00 1336.00    0.00  5344.00     0.00     8.00     0.20    0.15    0.15    0.00   0.15  19.90
sdd               0.00     0.00 1399.00    0.00  5596.00     0.00     8.00     0.34    0.24    0.24    0.00   0.24  33.50
md0               0.00     0.00 4149.00    0.00 16596.00     0.00     8.00     0.00    0.00    0.00    0.00   0.00   0.00

avg-cpu:  %user   %nice %system %iowait  %steal   %idle
           3.10    0.00    0.22    2.91    0.00   93.78

Device:         rrqm/s   wrqm/s     r/s     w/s    rkB/s    wkB/s avgrq-sz avgqu-sz   await r_await w_await  svctm  %util
nvme0n1           0.00     0.00    0.00    0.00     0.00     0.00     0.00     0.00    0.00    0.00    0.00   0.00   0.00
sda               0.00     0.00    0.00    0.00     0.00     0.00     0.00     0.00    0.00    0.00    0.00   0.00   0.00
sdc               0.00     0.00 1465.00    0.00  5860.00     0.00     8.00     0.32    0.18    0.18    0.00   0.22  31.50
sdb               0.00     0.00 1497.00    0.00  5988.00     0.00     8.00     0.24    0.16    0.16    0.00   0.16  23.90
sdd               0.00     0.00 1449.00    0.00  5796.00     0.00     8.00     0.41    0.28    0.28    0.00   0.28  41.10
md0               0.00     0.00 4411.00    0.00 17644.00     0.00     8.00     0.00    0.00    0.00    0.00   0.00   0.00

avg-cpu:  %user   %nice %system %iowait  %steal   %idle
           3.13    0.00    0.19    2.94    0.00   93.75

Device:         rrqm/s   wrqm/s     r/s     w/s    rkB/s    wkB/s avgrq-sz avgqu-sz   await r_await w_await  svctm  %util
nvme0n1           0.00     0.00    0.00    0.00     0.00     0.00     0.00     0.00    0.00    0.00    0.00   0.00   0.00
sda               0.00     0.00    0.00    0.00     0.00     0.00     0.00     0.00    0.00    0.00    0.00   0.00   0.00
sdc               0.00     0.00 1467.00    0.00  5868.00     0.00     8.00     0.42    0.30    0.30    0.00   0.29  42.30
sdb               0.00     0.00 1542.00    0.00  6168.00     0.00     8.00     0.25    0.16    0.16    0.00   0.16  24.80
sdd               0.00     0.00 1506.00    0.00  6024.00     0.00     8.00     0.29    0.19    0.19    0.00   0.19  29.10
md0               0.00     0.00 4515.00    0.00 18060.00     0.00     8.00     0.00    0.00    0.00    0.00   0.00   0.00

avg-cpu:  %user   %nice %system %iowait  %steal   %idle
           3.10    0.00    0.25    2.91    0.00   93.75

Device:         rrqm/s   wrqm/s     r/s     w/s    rkB/s    wkB/s avgrq-sz avgqu-sz   await r_await w_await  svctm  %util
nvme0n1           0.00     0.00    0.00    0.00     0.00     0.00     0.00     0.00    0.00    0.00    0.00   0.00   0.00
sda               0.00     0.00   56.00    0.00   436.00     0.00    15.57     0.00    0.04    0.04    0.00   0.04   0.20
sdc               0.00     0.00 1566.00    0.00  6264.00     0.00     8.00     0.40    0.28    0.28    0.00   0.26  40.10
sdb               0.00     0.00 1517.00    0.00  6068.00     0.00     8.00     0.33    0.22    0.22    0.00   0.22  33.20
sdd               0.00     0.00 1502.00    0.00  6008.00     0.00     8.00     0.23    0.15    0.15    0.00   0.15  22.90
md0               0.00     0.00 4585.00    0.00 18340.00     0.00     8.00     0.00    0.00    0.00    0.00   0.00   0.00

avg-cpu:  %user   %nice %system %iowait  %steal   %idle
           3.09    0.00    0.31    2.91    0.00   93.69

Device:         rrqm/s   wrqm/s     r/s     w/s    rkB/s    wkB/s avgrq-sz avgqu-sz   await r_await w_await  svctm  %util
nvme0n1           0.00     0.00    0.00    0.00     0.00     0.00     0.00     0.00    0.00    0.00    0.00   0.00   0.00
sda               0.00     3.00    0.00    2.00     0.00    20.00    20.00     0.00    0.00    0.00    0.00   0.00   0.00
sdc               0.00     0.00 1609.00    0.00  6436.00     0.00     8.00     0.31    0.19    0.19    0.00   0.19  31.20
sdb               0.00     0.00 1614.00    0.00  6456.00     0.00     8.00     0.34    0.21    0.21    0.00   0.21  33.50
sdd               0.00     0.00 1583.00    0.00  6332.00     0.00     8.00     0.30    0.19    0.19    0.00   0.19  30.10
md0               0.00     0.00 4806.00    0.00 19224.00     0.00     8.00     0.00    0.00    0.00    0.00   0.00   0.00

avg-cpu:  %user   %nice %system %iowait  %steal   %idle
           3.09    0.00    0.22    2.94    0.00   93.75

Device:         rrqm/s   wrqm/s     r/s     w/s    rkB/s    wkB/s avgrq-sz avgqu-sz   await r_await w_await  svctm  %util
nvme0n1           0.00     0.00    0.00    0.00     0.00     0.00     0.00     0.00    0.00    0.00    0.00   0.00   0.00
sda               0.00     1.00    0.00    3.00     0.00    32.00    21.33     0.00    0.00    0.00    0.00   0.00   0.00
sdc               0.00     0.00 1488.00    0.00  5952.00     0.00     8.00     0.40    0.27    0.27    0.00   0.27  39.50
sdb               0.00     0.00 1529.00    0.00  6116.00     0.00     8.00     0.28    0.18    0.18    0.00   0.18  27.50
sdd               0.00     0.00 1493.00    0.00  5972.00     0.00     8.00     0.29    0.20    0.20    0.00   0.20  29.30
md0               0.00     0.00 4511.00    0.00 18044.00     0.00     8.00     0.00    0.00    0.00    0.00   0.00   0.00

avg-cpu:  %user   %nice %system %iowait  %steal   %idle
           3.10    0.00    0.22    2.91    0.00   93.78

Device:         rrqm/s   wrqm/s     r/s     w/s    rkB/s    wkB/s avgrq-sz avgqu-sz   await r_await w_await  svctm  %util
nvme0n1           0.00     0.00    0.00    0.00     0.00     0.00     0.00     0.00    0.00    0.00    0.00   0.00   0.00
sda               0.00     0.00    0.00    0.00     0.00     0.00     0.00     0.00    0.00    0.00    0.00   0.00   0.00
sdc               0.00     0.00 1467.00    0.00  5868.00     0.00     8.00     0.34    0.24    0.24    0.00   0.24  34.50
sdb               0.00     0.00 1434.00    0.00  5736.00     0.00     8.00     0.31    0.21    0.21    0.00   0.21  30.70
sdd               0.00     0.00 1521.00    0.00  6084.00     0.00     8.00     0.30    0.20    0.20    0.00   0.20  30.40
md0               0.00     0.00 4422.00    0.00 17688.00     0.00     8.00     0.00    0.00    0.00    0.00   0.00   0.00

avg-cpu:  %user   %nice %system %iowait  %steal   %idle
           3.06    0.00    0.25    2.91    0.00   93.78

Device:         rrqm/s   wrqm/s     r/s     w/s    rkB/s    wkB/s avgrq-sz avgqu-sz   await r_await w_await  svctm  %util
nvme0n1           0.00     0.00    0.00    0.00     0.00     0.00     0.00     0.00    0.00    0.00    0.00   0.00   0.00
sda               0.00     0.00    0.00    0.00     0.00     0.00     0.00     0.00    0.00    0.00    0.00   0.00   0.00
sdc               0.00     0.00 1642.00    0.00  6568.00     0.00     8.00     0.38    0.23    0.23    0.00   0.23  37.80
sdb               0.00     0.00 1615.00    0.00  6460.00     0.00     8.00     0.30    0.19    0.19    0.00   0.19  30.50
sdd               0.00     0.00 1657.00    0.00  6628.00     0.00     8.00     0.27    0.16    0.16    0.00   0.16  26.60
md0               0.00     0.00 4913.00    0.00 19652.00     0.00     8.00     0.00    0.00    0.00    0.00   0.00   0.00

avg-cpu:  %user   %nice %system %iowait  %steal   %idle
           3.09    0.00    0.22    2.94    0.00   93.75

Device:         rrqm/s   wrqm/s     r/s     w/s    rkB/s    wkB/s avgrq-sz avgqu-sz   await r_await w_await  svctm  %util
nvme0n1           0.00     0.00    0.00    0.00     0.00     0.00     0.00     0.00    0.00    0.00    0.00   0.00   0.00
sda               0.00     0.00    0.00    0.00     0.00     0.00     0.00     0.00    0.00    0.00    0.00   0.00   0.00
sdc               0.00     0.00 1536.00    0.00  6144.00     0.00     8.00     0.30    0.19    0.19    0.00   0.19  29.70
sdb               0.00     0.00 1544.00    0.00  6176.00     0.00     8.00     0.38    0.25    0.25    0.00   0.25  37.90
sdd               0.00     0.00 1651.00    0.00  6604.00     0.00     8.00     0.29    0.17    0.17    0.00   0.17  28.60
md0               0.00     0.00 4731.00    0.00 18924.00     0.00     8.00     0.00    0.00    0.00    0.00   0.00   0.00

avg-cpu:  %user   %nice %system %iowait  %steal   %idle
           3.13    0.00    0.25    2.91    0.00   93.72

Device:         rrqm/s   wrqm/s     r/s     w/s    rkB/s    wkB/s avgrq-sz avgqu-sz   await r_await w_await  svctm  %util
nvme0n1           0.00     0.00    0.00    0.00     0.00     0.00     0.00     0.00    0.00    0.00    0.00   0.00   0.00
sda               0.00     3.00    0.00    2.00     0.00    20.00    20.00     0.00    0.00    0.00    0.00   0.00   0.00
sdc               0.00     0.00 1550.00    0.00  6200.00     0.00     8.00     0.37    0.24    0.24    0.00   0.24  36.80
sdb               0.00     0.00 1604.00    0.00  6416.00     0.00     8.00     0.33    0.21    0.21    0.00   0.21  33.10
sdd               0.00     0.00 1576.00    0.00  6304.00     0.00     8.00     0.26    0.16    0.16    0.00   0.16  25.90
md0               0.00     0.00 4730.00    0.00 18920.00     0.00     8.00     0.00    0.00    0.00    0.00   0.00   0.00

avg-cpu:  %user   %nice %system %iowait  %steal   %idle
           3.09    0.00    0.25    2.91    0.00   93.75

Device:         rrqm/s   wrqm/s     r/s     w/s    rkB/s    wkB/s avgrq-sz avgqu-sz   await r_await w_await  svctm  %util
nvme0n1           0.00     0.00    0.00    0.00     0.00     0.00     0.00     0.00    0.00    0.00    0.00   0.00   0.00
sda               0.00     0.00    0.00    0.00     0.00     0.00     0.00     0.00    0.00    0.00    0.00   0.00   0.00
sdc               0.00     0.00 1586.00    0.00  6344.00     0.00     8.00     0.38    0.24    0.24    0.00   0.24  38.20
sdb               0.00     0.00 1620.00    0.00  6480.00     0.00     8.00     0.29    0.18    0.18    0.00   0.18  28.80
sdd               0.00     0.00 1538.00    0.00  6152.00     0.00     8.00     0.29    0.19    0.19    0.00   0.19  29.30
md0               0.00     0.00 4744.00    0.00 18976.00     0.00     8.00     0.00    0.00    0.00    0.00   0.00   0.00

avg-cpu:  %user   %nice %system %iowait  %steal   %idle
           3.09    0.00    0.25    2.91    0.00   93.75

Device:         rrqm/s   wrqm/s     r/s     w/s    rkB/s    wkB/s avgrq-sz avgqu-sz   await r_await w_await  svctm  %util
nvme0n1           0.00     0.00    0.00    0.00     0.00     0.00     0.00     0.00    0.00    0.00    0.00   0.00   0.00
sda               0.00     2.00    0.00   14.00     0.00    64.00     9.14     0.00    0.00    0.00    0.00   0.00   0.00
sdc               0.00     0.00 1542.00    0.00  6168.00     0.00     8.00     0.27    0.18    0.18    0.00   0.18  27.30
sdb               0.00     0.00 1612.00    0.00  6448.00     0.00     8.00     0.34    0.21    0.21    0.00   0.21  33.70
sdd               0.00     0.00 1609.00    0.00  6436.00     0.00     8.00     0.36    0.22    0.22    0.00   0.22  35.70
md0               0.00     0.00 4763.00    0.00 19052.00     0.00     8.00     0.00    0.00    0.00    0.00   0.00   0.00

avg-cpu:  %user   %nice %system %iowait  %steal   %idle
           3.10    0.00    0.19    2.91    0.00   93.81

Device:         rrqm/s   wrqm/s     r/s     w/s    rkB/s    wkB/s avgrq-sz avgqu-sz   await r_await w_await  svctm  %util
nvme0n1           0.00     0.00    0.00    0.00     0.00     0.00     0.00     0.00    0.00    0.00    0.00   0.00   0.00
sda               0.00     0.00    0.00    0.00     0.00     0.00     0.00     0.00    0.00    0.00    0.00   0.00   0.00
sdc               0.00     0.00 1609.00    0.00  6436.00     0.00     8.00     0.31    0.19    0.19    0.00   0.19  31.30
sdb               0.00     0.00 1600.00    0.00  6400.00     0.00     8.00     0.33    0.21    0.21    0.00   0.21  33.00
sdd               0.00     0.00 1564.00    0.00  6256.00     0.00     8.00     0.31    0.20    0.20    0.00   0.20  31.00
md0               0.00     0.00 4774.00    0.00 19096.00     0.00     8.00     0.00    0.00    0.00    0.00   0.00   0.00

avg-cpu:  %user   %nice %system %iowait  %steal   %idle
           3.10    0.00    0.22    2.94    0.00   93.75

Device:         rrqm/s   wrqm/s     r/s     w/s    rkB/s    wkB/s avgrq-sz avgqu-sz   await r_await w_await  svctm  %util
nvme0n1           0.00     0.00    0.00    0.00     0.00     0.00     0.00     0.00    0.00    0.00    0.00   0.00   0.00
sda               0.00     0.00    0.00    0.00     0.00     0.00     0.00     0.00    0.00    0.00    0.00   0.00   0.00
sdc               0.00     0.00 1423.00    0.00  5692.00     0.00     8.00     0.40    0.28    0.28    0.00   0.28  40.20
sdb               0.00     0.00 1464.00    0.00  5856.00     0.00     8.00     0.21    0.14    0.14    0.00   0.14  21.00
sdd               0.00     0.00 1388.00    0.00  5552.00     0.00     8.00     0.34    0.25    0.25    0.00   0.25  34.10
md0               0.00     0.00 4274.00    0.00 17096.00     0.00     8.00     0.00    0.00    0.00    0.00   0.00   0.00

