Linux 4.17.2 (bench2) 	08/03/2018 	_x86_64_	(32 CPU)

avg-cpu:  %user   %nice %system %iowait  %steal   %idle
           1.91    0.00    1.57    1.54    0.00   94.98

Device:         rrqm/s   wrqm/s     r/s     w/s    rkB/s    wkB/s avgrq-sz avgqu-sz   await r_await w_await  svctm  %util
nvme0n1         948.65     5.15 19124.49  526.56 106974.43 11875.42    12.10     1.36    0.05    0.03    0.67   0.02  40.03
sda               0.12     0.81   14.15    0.58   163.99     8.51    23.43     0.00    0.33    0.32    0.45   0.07   0.10
sdc              33.05     0.14  111.41    0.30  1679.47    82.42    31.55     1.52   13.59   12.63  373.51   0.93  10.34
sdb              30.99     0.15  113.43    0.32  1677.58    82.24    30.94     0.40    3.55    2.45  394.60   0.86   9.82
sdd              33.25     0.13  110.95    0.25  1675.48    81.91    31.61     0.69    6.18    4.45  782.19   0.93  10.34
md0               0.00     0.00  435.94    1.06  6218.46   288.77    29.78     0.00    0.00    0.00    0.00   0.00   0.00

avg-cpu:  %user   %nice %system %iowait  %steal   %idle
           2.89    0.00    0.57    0.81    0.00   95.73

Device:         rrqm/s   wrqm/s     r/s     w/s    rkB/s    wkB/s avgrq-sz avgqu-sz   await r_await w_await  svctm  %util
nvme0n1           0.00     0.00    0.00    0.00     0.00     0.00     0.00     0.00    0.00    0.00    0.00   0.00   0.00
sda               0.00     1.25    0.25    1.00     5.40    10.80    25.92     0.00    0.08    0.00    0.10   0.08   0.01
sdc             118.70     0.00  161.10    0.00 64135.20     0.00   796.22     1.44    8.92    8.92    0.00   4.36  70.25
sdb             119.45     0.00  158.55    0.00 64247.20     0.00   810.43     1.27    8.02    8.02    0.00   3.97  63.01
sdd             119.05     0.00  158.15    0.00 64204.60     0.00   811.95     1.44    9.09    9.09    0.00   4.27  67.50
md0               0.00     0.00  835.20    0.00 283975.40     0.00   680.02     0.00    0.00    0.00    0.00   0.00   0.00

