Linux 4.17.2 (bench2) 	08/03/2018 	_x86_64_	(32 CPU)

avg-cpu:  %user   %nice %system %iowait  %steal   %idle
           1.92    0.00    1.57    1.52    0.00   94.99

Device:         rrqm/s   wrqm/s     r/s     w/s    rkB/s    wkB/s avgrq-sz avgqu-sz   await r_await w_await  svctm  %util
nvme0n1         953.95     5.18 19231.24  529.50 107571.55 11941.71    12.10     1.37    0.05    0.03    0.67   0.02  40.26
sda               0.11     0.81   14.13    0.57   163.93     8.51    23.45     0.00    0.33    0.32    0.45   0.07   0.10
sdc              32.60     0.14  107.74    0.30  1623.07    82.88    31.58     1.49   13.77   12.77  373.51   0.93  10.10
sdb              30.53     0.15  109.77    0.32  1621.19    82.70    30.95     0.37    3.35    2.21  394.60   0.87   9.60
sdd              32.80     0.13  107.28    0.25  1619.11    82.37    31.65     0.65    6.08    4.27  782.19   0.94  10.10
md0               0.00     0.00  423.59    1.07  6000.58   290.38    29.63     0.00    0.00    0.00    0.00   0.00   0.00

avg-cpu:  %user   %nice %system %iowait  %steal   %idle
           3.12    0.00    0.03    3.08    0.00   93.77

Device:         rrqm/s   wrqm/s     r/s     w/s    rkB/s    wkB/s avgrq-sz avgqu-sz   await r_await w_await  svctm  %util
nvme0n1           0.00     0.00    0.00    0.00     0.00     0.00     0.00     0.00    0.00    0.00    0.00   0.00   0.00
sda               0.00     1.30    0.20    1.65     5.20    14.00    20.76     0.00    0.00    0.00    0.00   0.00   0.00
sdc               0.00     0.00  143.70    0.00   622.20     0.00     8.66     0.32    2.25    2.25    0.00   2.24  32.26
sdb               0.00     0.00  145.95    0.00   628.60     0.00     8.61     0.29    1.99    1.99    0.00   1.99  29.06
sdd               0.00     0.00  147.35    0.00   650.60     0.00     8.83     0.38    2.57    2.57    0.00   2.57  37.85
md0               0.00     0.00  437.05    0.00  1911.60     0.00     8.75     0.00    0.00    0.00    0.00   0.00   0.00

