Linux 4.17.2 (bench2) 	08/03/2018 	_x86_64_	(32 CPU)

avg-cpu:  %user   %nice %system %iowait  %steal   %idle
           1.92    0.00    1.57    1.53    0.00   94.98

Device:         rrqm/s   wrqm/s     r/s     w/s    rkB/s    wkB/s avgrq-sz avgqu-sz   await r_await w_await  svctm  %util
nvme0n1         950.72     5.16 19166.17  527.70 107207.56 11901.30    12.10     1.36    0.05    0.03    0.67   0.02  40.12
sda               0.11     0.81   14.14    0.57   163.98     8.51    23.44     0.00    0.33    0.32    0.45   0.07   0.10
sdc              33.05     0.14  110.04    0.30  1650.20    82.60    31.41     1.51   13.72   12.75  373.51   0.93  10.25
sdb              30.98     0.15  112.07    0.32  1648.33    82.42    30.80     0.40    3.54    2.43  394.60   0.87   9.74
sdd              33.25     0.13  109.58    0.25  1646.22    82.09    31.47     0.68    6.21    4.45  782.19   0.93  10.25
md0               0.00     0.00  431.83    1.06  6101.66   289.40    29.53     0.00    0.00    0.00    0.00   0.00   0.00

avg-cpu:  %user   %nice %system %iowait  %steal   %idle
           3.10    0.00    0.06    3.03    0.00   93.81

Device:         rrqm/s   wrqm/s     r/s     w/s    rkB/s    wkB/s avgrq-sz avgqu-sz   await r_await w_await  svctm  %util
nvme0n1           0.00     0.00    0.00    0.00     0.00     0.00     0.00     0.00    0.00    0.00    0.00   0.00   0.00
sda               0.00     0.00    4.00   15.00   104.00    60.00    17.26     0.00    0.11    0.50    0.00   0.11   0.20
sdc               2.00     0.00  193.00    0.00  6324.00     0.00    65.53     0.35    1.82    1.82    0.00   1.36  26.30
sdb               4.00     0.00  197.00    0.00  7048.00     0.00    71.55     0.49    2.47    2.47    0.00   1.63  32.20
sdd               4.00     0.00  220.00    0.00  7132.00     0.00    64.84     0.78    3.56    3.56    0.00   2.35  51.70
md0               0.00     0.00  621.00    0.00 25840.00     0.00    83.22     0.00    0.00    0.00    0.00   0.00   0.00

avg-cpu:  %user   %nice %system %iowait  %steal   %idle
           3.13    0.00    0.03    3.06    0.00   93.78

Device:         rrqm/s   wrqm/s     r/s     w/s    rkB/s    wkB/s avgrq-sz avgqu-sz   await r_await w_await  svctm  %util
nvme0n1           0.00     0.00    0.00    0.00     0.00     0.00     0.00     0.00    0.00    0.00    0.00   0.00   0.00
sda               0.00     0.00    0.00    0.00     0.00     0.00     0.00     0.00    0.00    0.00    0.00   0.00   0.00
sdc               1.00     0.00  193.00    0.00  3496.00     0.00    36.23     0.22    1.12    1.12    0.00   1.04  20.00
sdb               0.00     0.00  185.00    0.00  3016.00     0.00    32.61     0.51    2.74    2.74    0.00   2.60  48.10
sdd               0.00     0.00  194.00    0.00  3084.00     0.00    31.79     0.39    1.98    1.98    0.00   1.83  35.50
md0               0.00     0.00  573.00    0.00 10388.00     0.00    36.26     0.00    0.00    0.00    0.00   0.00   0.00

avg-cpu:  %user   %nice %system %iowait  %steal   %idle
           3.13    0.00    0.06    3.03    0.00   93.78

Device:         rrqm/s   wrqm/s     r/s     w/s    rkB/s    wkB/s avgrq-sz avgqu-sz   await r_await w_await  svctm  %util
nvme0n1           0.00     0.00    0.00    0.00     0.00     0.00     0.00     0.00    0.00    0.00    0.00   0.00   0.00
sda               0.00     0.00    0.00    0.00     0.00     0.00     0.00     0.00    0.00    0.00    0.00   0.00   0.00
sdc               0.00     0.00  216.00    0.00  3616.00     0.00    33.48     0.27    1.27    1.27    0.00   1.25  26.90
sdb               0.00     0.00  193.00    0.00  3608.00     0.00    37.39     0.44    2.30    2.30    0.00   2.24  43.30
sdd               1.00     0.00  188.00    0.00  3044.00     0.00    32.38     0.33    1.74    1.74    0.00   1.71  32.20
md0               0.00     0.00  598.00    0.00 11548.00     0.00    38.62     0.00    0.00    0.00    0.00   0.00   0.00

avg-cpu:  %user   %nice %system %iowait  %steal   %idle
           3.09    0.00    0.06    3.06    0.00   93.78

Device:         rrqm/s   wrqm/s     r/s     w/s    rkB/s    wkB/s avgrq-sz avgqu-sz   await r_await w_await  svctm  %util
nvme0n1           0.00     0.00    0.00    0.00     0.00     0.00     0.00     0.00    0.00    0.00    0.00   0.00   0.00
sda               0.00     0.00    0.00    0.00     0.00     0.00     0.00     0.00    0.00    0.00    0.00   0.00   0.00
sdc               1.00     0.00  212.00    0.00  3716.00     0.00    35.06     0.39    1.82    1.82    0.00   1.75  37.00
sdb               1.00     0.00  215.00    0.00  4704.00     0.00    43.76     0.34    1.59    1.59    0.00   1.55  33.40
sdd               2.00     0.00  162.00    0.00  3856.00     0.00    47.60     0.33    2.06    2.06    0.00   1.99  32.20
md0               0.00     0.00  593.00    0.00 14636.00     0.00    49.36     0.00    0.00    0.00    0.00   0.00   0.00

avg-cpu:  %user   %nice %system %iowait  %steal   %idle
           3.09    0.00    0.06    3.06    0.00   93.78

Device:         rrqm/s   wrqm/s     r/s     w/s    rkB/s    wkB/s avgrq-sz avgqu-sz   await r_await w_await  svctm  %util
nvme0n1           0.00     0.00    0.00    0.00     0.00     0.00     0.00     0.00    0.00    0.00    0.00   0.00   0.00
sda               0.00     0.00    0.00    0.00     0.00     0.00     0.00     0.00    0.00    0.00    0.00   0.00   0.00
sdc               0.00     0.00  207.00    0.00  2484.00     0.00    24.00     0.24    1.17    1.17    0.00   1.15  23.90
sdb               1.00     0.00  198.00    0.00  3216.00     0.00    32.48     0.38    1.91    1.91    0.00   1.88  37.30
sdd               0.00     0.00  191.00    0.00  4016.00     0.00    42.05     0.42    2.21    2.21    0.00   2.14  40.90
md0               0.00     0.00  597.00    0.00 10856.00     0.00    36.37     0.00    0.00    0.00    0.00   0.00   0.00

avg-cpu:  %user   %nice %system %iowait  %steal   %idle
           3.12    0.00    0.06    3.06    0.00   93.75

Device:         rrqm/s   wrqm/s     r/s     w/s    rkB/s    wkB/s avgrq-sz avgqu-sz   await r_await w_await  svctm  %util
nvme0n1           0.00     0.00    0.00    0.00     0.00     0.00     0.00     0.00    0.00    0.00    0.00   0.00   0.00
sda               0.00     8.00    0.00    5.00     0.00    52.00    20.80     0.00    0.20    0.00    0.20   0.20   0.10
sdc               0.00     0.00  238.00    0.00  4192.00     0.00    35.23     0.46    1.93    1.93    0.00   1.89  45.00
sdb               1.00     0.00  174.00    0.00  2944.00     0.00    33.84     0.20    1.14    1.14    0.00   1.10  19.20
sdd               0.00     0.00  205.00    0.00  4116.00     0.00    40.16     0.37    1.82    1.82    0.00   1.80  37.00
md0               0.00     0.00  618.00    0.00 12692.00     0.00    41.07     0.00    0.00    0.00    0.00   0.00   0.00

avg-cpu:  %user   %nice %system %iowait  %steal   %idle
           3.12    0.00    0.06    3.06    0.00   93.75

Device:         rrqm/s   wrqm/s     r/s     w/s    rkB/s    wkB/s avgrq-sz avgqu-sz   await r_await w_await  svctm  %util
nvme0n1           0.00     0.00    0.00    0.00     0.00     0.00     0.00     0.00    0.00    0.00    0.00   0.00   0.00
sda               0.00     0.00    0.00    0.00     0.00     0.00     0.00     0.00    0.00    0.00    0.00   0.00   0.00
sdc               2.00     0.00  186.00    0.00  3944.00     0.00    42.41     0.46    2.40    2.40    0.00   2.39  44.40
sdb               0.00     0.00  192.00    0.00  2656.00     0.00    27.67     0.26    1.37    1.37    0.00   1.34  25.70
sdd               0.00     0.00  197.00    0.00  3024.00     0.00    30.70     0.32    1.61    1.61    0.00   1.56  30.80
md0               0.00     0.00  577.00    0.00 11356.00     0.00    39.36     0.00    0.00    0.00    0.00   0.00   0.00

avg-cpu:  %user   %nice %system %iowait  %steal   %idle
           3.10    0.00    0.06    3.03    0.00   93.81

Device:         rrqm/s   wrqm/s     r/s     w/s    rkB/s    wkB/s avgrq-sz avgqu-sz   await r_await w_await  svctm  %util
nvme0n1           0.00     0.00    0.00    0.00     0.00     0.00     0.00     0.00    0.00    0.00    0.00   0.00   0.00
sda               0.00     0.00    0.00    0.00     0.00     0.00     0.00     0.00    0.00    0.00    0.00   0.00   0.00
sdc               0.00     0.00  201.00    0.00  2464.00     0.00    24.52     0.44    2.24    2.24    0.00   2.14  43.00
sdb               0.00     0.00  201.00    0.00  2988.00     0.00    29.73     0.25    1.22    1.22    0.00   1.19  23.90
sdd               1.00     0.00  202.00    0.00  4248.00     0.00    42.06     0.37    1.83    1.83    0.00   1.75  35.40
md0               0.00     0.00  605.00    0.00 10656.00     0.00    35.23     0.00    0.00    0.00    0.00   0.00   0.00

avg-cpu:  %user   %nice %system %iowait  %steal   %idle
           3.12    0.00    0.09    1.25    0.00   95.53

Device:         rrqm/s   wrqm/s     r/s     w/s    rkB/s    wkB/s avgrq-sz avgqu-sz   await r_await w_await  svctm  %util
nvme0n1           0.00     0.00    0.00    0.00     0.00     0.00     0.00     0.00    0.00    0.00    0.00   0.00   0.00
sda               0.00     0.00    0.00    0.00     0.00     0.00     0.00     0.00    0.00    0.00    0.00   0.00   0.00
sdc               0.00     0.00  219.00    0.00  3992.00     0.00    36.46     0.36    1.67    1.67    0.00   1.64  35.90
sdb               1.00     0.00  226.00    0.00  4072.00     0.00    36.04     0.28    1.22    1.22    0.00   1.12  25.40
sdd               0.00     0.00  231.00    0.00  4868.00     0.00    42.15     0.39    1.70    1.70    0.00   1.67  38.50
md0               0.00     0.00  677.00    0.00 14708.00     0.00    43.45     0.00    0.00    0.00    0.00   0.00   0.00

avg-cpu:  %user   %nice %system %iowait  %steal   %idle
           3.16    0.00    0.03    1.22    0.00   95.59

Device:         rrqm/s   wrqm/s     r/s     w/s    rkB/s    wkB/s avgrq-sz avgqu-sz   await r_await w_await  svctm  %util
nvme0n1           0.00     0.00    0.00    0.00     0.00     0.00     0.00     0.00    0.00    0.00    0.00   0.00   0.00
sda               0.00     0.00    0.00    0.00     0.00     0.00     0.00     0.00    0.00    0.00    0.00   0.00   0.00
sdc               2.00     0.00  190.00    0.00  3796.00     0.00    39.96     0.49    2.58    2.58    0.00   2.53  48.10
sdb               2.00     0.00  200.00    0.00  4232.00     0.00    42.32     0.33    1.64    1.64    0.00   1.63  32.60
sdd               1.00     0.00  172.00    0.00  3980.00     0.00    46.28     0.23    1.35    1.35    0.00   1.34  23.10
md0               0.00     0.00  567.00    0.00 13288.00     0.00    46.87     0.00    0.00    0.00    0.00   0.00   0.00

avg-cpu:  %user   %nice %system %iowait  %steal   %idle
           3.09    0.00    0.09    1.38    0.00   95.44

Device:         rrqm/s   wrqm/s     r/s     w/s    rkB/s    wkB/s avgrq-sz avgqu-sz   await r_await w_await  svctm  %util
nvme0n1           0.00     0.00    0.00    0.00     0.00     0.00     0.00     0.00    0.00    0.00    0.00   0.00   0.00
sda               0.00     5.00    0.00    3.00     0.00    48.00    32.00     0.00    0.00    0.00    0.00   0.00   0.00
sdc               0.00     0.00  172.00    0.00  2300.00     0.00    26.74     0.48    2.79    2.79    0.00   2.77  47.60
sdb               0.00     0.00  161.00    0.00  2508.00     0.00    31.16     0.18    1.15    1.15    0.00   1.06  17.10
sdd               0.00     0.00  169.00    0.00  2488.00     0.00    29.44     0.36    2.14    2.14    0.00   2.11  35.60
md0               0.00     0.00  502.00    0.00  7808.00     0.00    31.11     0.00    0.00    0.00    0.00   0.00   0.00

avg-cpu:  %user   %nice %system %iowait  %steal   %idle
           3.09    0.00    0.12    1.12    0.00   95.66

Device:         rrqm/s   wrqm/s     r/s     w/s    rkB/s    wkB/s avgrq-sz avgqu-sz   await r_await w_await  svctm  %util
nvme0n1           0.00     0.00    0.00    0.00     0.00     0.00     0.00     0.00    0.00    0.00    0.00   0.00   0.00
sda               0.00     0.00    0.00    0.00     0.00     0.00     0.00     0.00    0.00    0.00    0.00   0.00   0.00
sdc               0.00     0.00  188.00    0.00  2628.00     0.00    27.96     0.46    2.47    2.47    0.00   2.45  46.00
sdb               0.00     0.00  202.00    0.00  3496.00     0.00    34.61     0.25    1.25    1.25    0.00   1.22  24.70
sdd               0.00     0.00  192.00    0.00  3192.00     0.00    33.25     0.30    1.56    1.56    0.00   1.51  29.00
md0               0.00     0.00  582.00    0.00 10284.00     0.00    35.34     0.00    0.00    0.00    0.00   0.00   0.00

avg-cpu:  %user   %nice %system %iowait  %steal   %idle
           3.13    0.00    0.06    1.00    0.00   95.81

Device:         rrqm/s   wrqm/s     r/s     w/s    rkB/s    wkB/s avgrq-sz avgqu-sz   await r_await w_await  svctm  %util
nvme0n1           0.00     0.00    0.00    0.00     0.00     0.00     0.00     0.00    0.00    0.00    0.00   0.00   0.00
sda               0.00     0.00    0.00    0.00     0.00     0.00     0.00     0.00    0.00    0.00    0.00   0.00   0.00
sdc               0.00     0.00  195.00    0.00  2076.00     0.00    21.29     0.36    1.85    1.85    0.00   1.84  35.80
sdb               0.00     0.00  216.00    0.00  3116.00     0.00    28.85     0.24    1.10    1.10    0.00   1.12  24.10
sdd               0.00     0.00  214.00    0.00  4872.00     0.00    45.53     0.42    2.00    2.00    0.00   1.93  41.20
md0               0.00     0.00  625.00    0.00 10996.00     0.00    35.19     0.00    0.00    0.00    0.00   0.00   0.00

avg-cpu:  %user   %nice %system %iowait  %steal   %idle
           3.09    0.00    0.12    1.16    0.00   95.62

Device:         rrqm/s   wrqm/s     r/s     w/s    rkB/s    wkB/s avgrq-sz avgqu-sz   await r_await w_await  svctm  %util
nvme0n1           0.00     0.00    0.00    0.00     0.00     0.00     0.00     0.00    0.00    0.00    0.00   0.00   0.00
sda               0.00     0.00    0.00    0.00     0.00     0.00     0.00     0.00    0.00    0.00    0.00   0.00   0.00
sdc               0.00     0.00  208.00    0.00  2900.00     0.00    27.88     0.26    1.23    1.23    0.00   1.22  25.40
sdb               1.00     0.00  189.00    0.00  3316.00     0.00    35.09     0.42    2.25    2.25    0.00   2.18  41.20
sdd               0.00     0.00  197.00    0.00  3608.00     0.00    36.63     0.36    1.82    1.82    0.00   1.75  34.50
md0               0.00     0.00  596.00    0.00 11204.00     0.00    37.60     0.00    0.00    0.00    0.00   0.00   0.00

avg-cpu:  %user   %nice %system %iowait  %steal   %idle
           3.13    0.00    0.06    1.16    0.00   95.65

Device:         rrqm/s   wrqm/s     r/s     w/s    rkB/s    wkB/s avgrq-sz avgqu-sz   await r_await w_await  svctm  %util
nvme0n1           0.00     0.00    0.00    0.00     0.00     0.00     0.00     0.00    0.00    0.00    0.00   0.00   0.00
sda               0.00     0.00    0.00    0.00     0.00     0.00     0.00     0.00    0.00    0.00    0.00   0.00   0.00
sdc               0.00     0.00  186.00    0.00  2736.00     0.00    29.42     0.25    1.35    1.35    0.00   1.31  24.40
sdb               0.00     0.00  190.00    0.00  3224.00     0.00    33.94     0.48    2.52    2.52    0.00   2.47  47.00
sdd               0.00     0.00  191.00    0.00  3736.00     0.00    39.12     0.31    1.62    1.62    0.00   1.59  30.40
md0               0.00     0.00  566.00    0.00 10804.00     0.00    38.18     0.00    0.00    0.00    0.00   0.00   0.00

avg-cpu:  %user   %nice %system %iowait  %steal   %idle
           3.10    0.00    0.09    1.06    0.00   95.75

Device:         rrqm/s   wrqm/s     r/s     w/s    rkB/s    wkB/s avgrq-sz avgqu-sz   await r_await w_await  svctm  %util
nvme0n1           0.00     0.00    0.00    0.00     0.00     0.00     0.00     0.00    0.00    0.00    0.00   0.00   0.00
sda               0.00     3.00    0.00    2.00     0.00    20.00    20.00     0.00    0.00    0.00    0.00   0.00   0.00
sdc               0.00     0.00  216.00    0.00  3380.00     0.00    31.30     0.23    1.06    1.06    0.00   1.05  22.70
sdb               0.00     0.00  200.00    0.00  2892.00     0.00    28.92     0.41    2.06    2.06    0.00   2.01  40.20
sdd               0.00     0.00  214.00    0.00  3784.00     0.00    35.36     0.38    1.79    1.79    0.00   1.76  37.60
md0               0.00     0.00  630.00    0.00 10900.00     0.00    34.60     0.00    0.00    0.00    0.00   0.00   0.00

avg-cpu:  %user   %nice %system %iowait  %steal   %idle
           3.10    0.00    0.09    1.19    0.00   95.62

Device:         rrqm/s   wrqm/s     r/s     w/s    rkB/s    wkB/s avgrq-sz avgqu-sz   await r_await w_await  svctm  %util
nvme0n1           0.00     0.00    0.00    0.00     0.00     0.00     0.00     0.00    0.00    0.00    0.00   0.00   0.00
sda               0.00     0.00    0.00    0.00     0.00     0.00     0.00     0.00    0.00    0.00    0.00   0.00   0.00
sdc               0.00     0.00  205.00    0.00  3300.00     0.00    32.20     0.33    1.62    1.62    0.00   1.56  31.90
sdb               1.00     0.00  213.00    0.00  3888.00     0.00    36.51     0.40    1.87    1.87    0.00   1.85  39.30
sdd               0.00     0.00  196.00    0.00  3088.00     0.00    31.51     0.29    1.46    1.46    0.00   1.45  28.50
md0               0.00     0.00  615.00    0.00 11180.00     0.00    36.36     0.00    0.00    0.00    0.00   0.00   0.00

avg-cpu:  %user   %nice %system %iowait  %steal   %idle
           3.10    0.00    0.06    1.25    0.00   95.59

Device:         rrqm/s   wrqm/s     r/s     w/s    rkB/s    wkB/s avgrq-sz avgqu-sz   await r_await w_await  svctm  %util
nvme0n1           0.00     0.00    0.00    0.00     0.00     0.00     0.00     0.00    0.00    0.00    0.00   0.00   0.00
sda               0.00     0.00    0.00    0.00     0.00     0.00     0.00     0.00    0.00    0.00    0.00   0.00   0.00
sdc               0.00     0.00  236.00    0.00  3344.00     0.00    28.34     0.23    0.99    0.99    0.00   0.97  22.90
sdb               1.00     0.00  190.00    0.00  2992.00     0.00    31.49     0.34    1.78    1.78    0.00   1.76  33.50
sdd               0.00     0.00  210.00    0.00  3000.00     0.00    28.57     0.44    2.13    2.13    0.00   2.07  43.40
md0               0.00     0.00  637.00    0.00 10696.00     0.00    33.58     0.00    0.00    0.00    0.00   0.00   0.00

avg-cpu:  %user   %nice %system %iowait  %steal   %idle
           3.13    0.00    0.09    1.09    0.00   95.69

Device:         rrqm/s   wrqm/s     r/s     w/s    rkB/s    wkB/s avgrq-sz avgqu-sz   await r_await w_await  svctm  %util
nvme0n1           0.00     0.00    0.00    0.00     0.00     0.00     0.00     0.00    0.00    0.00    0.00   0.00   0.00
sda               0.00     0.00    0.00    0.00     0.00     0.00     0.00     0.00    0.00    0.00    0.00   0.00   0.00
sdc               0.00     0.00  223.00    0.00  3260.00     0.00    29.24     0.43    1.92    1.92    0.00   1.91  42.50
sdb               0.00     0.00  184.00    0.00  2728.00     0.00    29.65     0.38    2.04    2.04    0.00   2.02  37.20
sdd               0.00     0.00  182.00    0.00  3288.00     0.00    36.13     0.21    1.15    1.15    0.00   1.13  20.60
md0               0.00     0.00  589.00    0.00  9956.00     0.00    33.81     0.00    0.00    0.00    0.00   0.00   0.00

avg-cpu:  %user   %nice %system %iowait  %steal   %idle
           3.10    0.00    0.13    1.03    0.00   95.75

Device:         rrqm/s   wrqm/s     r/s     w/s    rkB/s    wkB/s avgrq-sz avgqu-sz   await r_await w_await  svctm  %util
nvme0n1           0.00     0.00    0.00    0.00     0.00     0.00     0.00     0.00    0.00    0.00    0.00   0.00   0.00
sda               0.00     0.00    0.00    0.00     0.00     0.00     0.00     0.00    0.00    0.00    0.00   0.00   0.00
sdc               0.00     0.00  198.00    0.00  3464.00     0.00    34.99     0.33    1.68    1.68    0.00   1.58  31.20
sdb               0.00     0.00  204.00    0.00  2844.00     0.00    27.88     0.41    2.00    2.00    0.00   1.98  40.30
sdd               0.00     0.00  234.00    0.00  3220.00     0.00    27.52     0.28    1.21    1.21    0.00   1.18  27.60
md0               0.00     0.00  636.00    0.00  9928.00     0.00    31.22     0.00    0.00    0.00    0.00   0.00   0.00

