Linux 4.17.2 (bench2) 	08/03/2018 	_x86_64_	(32 CPU)

avg-cpu:  %user   %nice %system %iowait  %steal   %idle
           1.92    0.00    1.58    1.50    0.00   95.00

Device:         rrqm/s   wrqm/s     r/s     w/s    rkB/s    wkB/s avgrq-sz avgqu-sz   await r_await w_await  svctm  %util
nvme0n1         959.78     5.21 19348.70  532.73 108228.58 12014.65    12.10     1.38    0.05    0.03    0.67   0.02  40.50
sda               0.11     0.81   14.11    0.57   163.85     8.50    23.48     0.00    0.33    0.32    0.46   0.07   0.10
sdc              32.19     0.14  103.86    0.30  1562.00    83.38    31.59     1.46   13.99   12.95  373.51   0.94   9.83
sdb              30.11     0.15  105.91    0.32  1560.16    83.20    30.94     0.33    3.14    1.95  394.60   0.88   9.35
sdd              32.39     0.13  103.40    0.25  1558.03    82.87    31.66     0.62    5.97    4.08  782.19   0.95   9.84
md0               0.00     0.00  410.75    1.07  5762.44   292.15    29.40     0.00    0.00    0.00    0.00   0.00   0.00

avg-cpu:  %user   %nice %system %iowait  %steal   %idle
           3.12    0.00    0.00    0.03    0.00   96.84

Device:         rrqm/s   wrqm/s     r/s     w/s    rkB/s    wkB/s avgrq-sz avgqu-sz   await r_await w_await  svctm  %util
nvme0n1           0.00     0.00    0.00    0.00     0.00     0.00     0.00     0.00    0.00    0.00    0.00   0.00   0.00
sda               0.00     0.00   18.00    0.00    76.00     0.00     8.44     0.02    0.94    0.94    0.00   0.06   0.10
sdc               0.00     0.00   47.00    0.00   200.00     0.00     8.51     0.36    7.72    7.72    0.00   7.68  36.10
sdb               0.00     0.00   34.00    0.00   136.00     0.00     8.00     0.28    8.32    8.32    0.00   8.32  28.30
sdd               0.00     0.00   44.00    0.00   176.00     0.00     8.00     0.35    8.00    8.00    0.00   8.00  35.20
md0               0.00     0.00  125.00    0.00   500.00     0.00     8.00     0.00    0.00    0.00    0.00   0.00   0.00

avg-cpu:  %user   %nice %system %iowait  %steal   %idle
           3.12    0.00    0.03    0.00    0.00   96.84

Device:         rrqm/s   wrqm/s     r/s     w/s    rkB/s    wkB/s avgrq-sz avgqu-sz   await r_await w_await  svctm  %util
nvme0n1           0.00     0.00    0.00    0.00     0.00     0.00     0.00     0.00    0.00    0.00    0.00   0.00   0.00
sda               0.00     8.00    0.00    2.00     0.00    40.00    40.00     0.00    0.50    0.00    0.50   0.50   0.10
sdc               0.00     0.00   48.00    0.00   192.00     0.00     8.00     0.38    7.92    7.92    0.00   7.92  38.00
sdb               0.00     0.00   41.00    0.00   164.00     0.00     8.00     0.29    7.12    7.12    0.00   7.12  29.20
sdd               0.00     0.00   43.00    0.00   172.00     0.00     8.00     0.32    7.40    7.40    0.00   7.40  31.80
md0               0.00     0.00  132.00    0.00   528.00     0.00     8.00     0.00    0.00    0.00    0.00   0.00   0.00

avg-cpu:  %user   %nice %system %iowait  %steal   %idle
           3.12    0.00    0.03    0.03    0.00   96.81

Device:         rrqm/s   wrqm/s     r/s     w/s    rkB/s    wkB/s avgrq-sz avgqu-sz   await r_await w_await  svctm  %util
nvme0n1           0.00     0.00    0.00    0.00     0.00     0.00     0.00     0.00    0.00    0.00    0.00   0.00   0.00
sda               0.00     0.00    0.00    0.00     0.00     0.00     0.00     0.00    0.00    0.00    0.00   0.00   0.00
sdc               0.00     0.00   34.00    0.00   136.00     0.00     8.00     0.27    7.68    7.68    0.00   7.88  26.80
sdb               0.00     0.00   46.00    0.00   184.00     0.00     8.00     0.37    8.07    8.07    0.00   8.07  37.10
sdd               0.00     0.00   43.00    0.00   172.00     0.00     8.00     0.35    8.16    8.16    0.00   8.16  35.10
md0               0.00     0.00  123.00    0.00   492.00     0.00     8.00     0.00    0.00    0.00    0.00   0.00   0.00

