Linux 4.17.2 (bench2) 	08/03/2018 	_x86_64_	(32 CPU)

avg-cpu:  %user   %nice %system %iowait  %steal   %idle
           1.93    0.00    1.59    1.49    0.00   95.00

Device:         rrqm/s   wrqm/s     r/s     w/s    rkB/s    wkB/s avgrq-sz avgqu-sz   await r_await w_await  svctm  %util
nvme0n1         962.19     5.23 19397.32  534.07 108500.55 12044.84    12.10     1.38    0.05    0.03    0.67   0.02  40.61
sda               0.11     0.81   14.10    0.57   163.79     8.50    23.49     0.00    0.33    0.32    0.46   0.07   0.10
sdc              32.06     0.14  101.89    0.30  1546.07    83.59    31.89     1.45   14.22   13.16  373.51   0.95   9.74
sdb              29.97     0.15  103.95    0.32  1544.24    83.41    31.22     0.33    3.14    1.92  394.60   0.89   9.26
sdd              32.26     0.13  101.43    0.25  1542.11    83.08    31.96     0.61    6.03    4.10  782.19   0.96   9.75
md0               0.00     0.00  404.46    1.08  5704.85   292.89    29.58     0.00    0.00    0.00    0.00   0.00   0.00

avg-cpu:  %user   %nice %system %iowait  %steal   %idle
           3.01    0.00    0.63    0.31    0.00   96.05

Device:         rrqm/s   wrqm/s     r/s     w/s    rkB/s    wkB/s avgrq-sz avgqu-sz   await r_await w_await  svctm  %util
nvme0n1           0.00     0.00    0.00    0.00     0.00     0.00     0.00     0.00    0.00    0.00    0.00   0.00   0.00
sda               0.00     0.00   21.00    0.00   124.00     0.00    11.81     0.01    0.38    0.38    0.00   0.05   0.10
sdc               0.00     0.00 2019.00    0.00  8076.00     0.00     8.00     0.28    0.14    0.14    0.00   0.14  27.70
sdb               0.00     0.00 2099.00    0.00  8396.00     0.00     8.00     0.28    0.13    0.13    0.00   0.13  28.20
sdd               0.00     0.00 1999.00    0.00  7996.00     0.00     8.00     0.29    0.14    0.14    0.00   0.14  28.70
md0               0.00     0.00 6117.00    0.00 24468.00     0.00     8.00     0.00    0.00    0.00    0.00   0.00   0.00

avg-cpu:  %user   %nice %system %iowait  %steal   %idle
           2.95    0.00    0.75    0.22    0.00   96.08

Device:         rrqm/s   wrqm/s     r/s     w/s    rkB/s    wkB/s avgrq-sz avgqu-sz   await r_await w_await  svctm  %util
nvme0n1           0.00     0.00    0.00    0.00     0.00     0.00     0.00     0.00    0.00    0.00    0.00   0.00   0.00
sda               0.00     0.00    0.00    0.00     0.00     0.00     0.00     0.00    0.00    0.00    0.00   0.00   0.00
sdc               0.00     0.00 2059.00    0.00  8236.00     0.00     8.00     0.27    0.13    0.13    0.00   0.13  27.00
sdb               0.00     0.00 2231.00    0.00  8924.00     0.00     8.00     0.29    0.13    0.13    0.00   0.13  29.00
sdd               0.00     0.00 2010.00    0.00  8040.00     0.00     8.00     0.27    0.13    0.13    0.00   0.13  27.00
md0               0.00     0.00 6301.00    0.00 25204.00     0.00     8.00     0.00    0.00    0.00    0.00   0.00   0.00

avg-cpu:  %user   %nice %system %iowait  %steal   %idle
           2.98    0.00    0.69    0.19    0.00   96.14

Device:         rrqm/s   wrqm/s     r/s     w/s    rkB/s    wkB/s avgrq-sz avgqu-sz   await r_await w_await  svctm  %util
nvme0n1           0.00     0.00    0.00    0.00     0.00     0.00     0.00     0.00    0.00    0.00    0.00   0.00   0.00
sda              31.00     0.00    4.00    2.00   140.00    32.00    57.33     0.00    0.33    0.50    0.00   0.17   0.10
sdc               0.00     0.00 2194.00    0.00  8776.00     0.00     8.00     0.29    0.13    0.13    0.00   0.13  29.40
sdb               0.00     0.00 2159.00    0.00  8636.00     0.00     8.00     0.28    0.13    0.13    0.00   0.13  27.70
sdd               0.00     0.00 2068.00    0.00  8272.00     0.00     8.00     0.28    0.13    0.13    0.00   0.13  27.60
md0               0.00     0.00 6420.00    0.00 25680.00     0.00     8.00     0.00    0.00    0.00    0.00   0.00   0.00

avg-cpu:  %user   %nice %system %iowait  %steal   %idle
           2.98    0.00    0.60    0.25    0.00   96.17

Device:         rrqm/s   wrqm/s     r/s     w/s    rkB/s    wkB/s avgrq-sz avgqu-sz   await r_await w_await  svctm  %util
nvme0n1           0.00     0.00    0.00    0.00     0.00     0.00     0.00     0.00    0.00    0.00    0.00   0.00   0.00
sda               0.00     0.00    0.00    0.00     0.00     0.00     0.00     0.00    0.00    0.00    0.00   0.00   0.00
sdc               0.00     0.00 2140.00    0.00  8560.00     0.00     8.00     0.29    0.13    0.13    0.00   0.13  28.80
sdb               0.00     0.00 2108.00    0.00  8432.00     0.00     8.00     0.29    0.14    0.14    0.00   0.14  28.60
sdd               0.00     0.00 2208.00    0.00  8832.00     0.00     8.00     0.28    0.13    0.13    0.00   0.13  27.70
md0               0.00     0.00 6456.00    0.00 25824.00     0.00     8.00     0.00    0.00    0.00    0.00   0.00   0.00

avg-cpu:  %user   %nice %system %iowait  %steal   %idle
           2.98    0.00    0.75    0.19    0.00   96.08

Device:         rrqm/s   wrqm/s     r/s     w/s    rkB/s    wkB/s avgrq-sz avgqu-sz   await r_await w_await  svctm  %util
nvme0n1           0.00     0.00    0.00    0.00     0.00     0.00     0.00     0.00    0.00    0.00    0.00   0.00   0.00
sda               0.00    12.00    0.00    2.00     0.00    56.00    56.00     0.00    0.50    0.00    0.50   0.50   0.10
sdc               0.00     0.00 2014.00    0.00  8056.00     0.00     8.00     0.26    0.13    0.13    0.00   0.13  26.20
sdb               0.00     0.00 2135.00    0.00  8540.00     0.00     8.00     0.28    0.13    0.13    0.00   0.13  27.90
sdd               0.00     0.00 2223.00    0.00  8892.00     0.00     8.00     0.30    0.14    0.14    0.00   0.14  30.20
md0               0.00     0.00 6372.00    0.00 25488.00     0.00     8.00     0.00    0.00    0.00    0.00   0.00   0.00

avg-cpu:  %user   %nice %system %iowait  %steal   %idle
           2.94    0.00    0.78    0.22    0.00   96.05

Device:         rrqm/s   wrqm/s     r/s     w/s    rkB/s    wkB/s avgrq-sz avgqu-sz   await r_await w_await  svctm  %util
nvme0n1           0.00     0.00    0.00    0.00     0.00     0.00     0.00     0.00    0.00    0.00    0.00   0.00   0.00
sda               0.00     0.00    0.00    0.00     0.00     0.00     0.00     0.00    0.00    0.00    0.00   0.00   0.00
sdc               0.00     0.00 2148.00    0.00  8592.00     0.00     8.00     0.28    0.13    0.13    0.00   0.13  27.70
sdb               0.00     0.00 2101.00    0.00  8404.00     0.00     8.00     0.28    0.13    0.13    0.00   0.13  28.10
sdd               0.00     0.00 2143.00    0.00  8572.00     0.00     8.00     0.28    0.13    0.13    0.00   0.13  28.20
md0               0.00     0.00 6392.00    0.00 25568.00     0.00     8.00     0.00    0.00    0.00    0.00   0.00   0.00

avg-cpu:  %user   %nice %system %iowait  %steal   %idle
           2.95    0.00    0.69    0.22    0.00   96.14

Device:         rrqm/s   wrqm/s     r/s     w/s    rkB/s    wkB/s avgrq-sz avgqu-sz   await r_await w_await  svctm  %util
nvme0n1           0.00     0.00    0.00    0.00     0.00     0.00     0.00     0.00    0.00    0.00    0.00   0.00   0.00
sda               0.00     0.00    0.00    0.00     0.00     0.00     0.00     0.00    0.00    0.00    0.00   0.00   0.00
sdc               0.00     0.00 2151.00    0.00  8604.00     0.00     8.00     0.29    0.13    0.13    0.00   0.13  28.70
sdb               0.00     0.00 2197.00    0.00  8788.00     0.00     8.00     0.30    0.14    0.14    0.00   0.14  30.10
sdd               0.00     0.00 2004.00    0.00  8016.00     0.00     8.00     0.28    0.14    0.14    0.00   0.14  28.00
md0               0.00     0.00 6352.00    0.00 25408.00     0.00     8.00     0.00    0.00    0.00    0.00   0.00   0.00

avg-cpu:  %user   %nice %system %iowait  %steal   %idle
           2.98    0.00    0.63    0.28    0.00   96.11

Device:         rrqm/s   wrqm/s     r/s     w/s    rkB/s    wkB/s avgrq-sz avgqu-sz   await r_await w_await  svctm  %util
nvme0n1           0.00     0.00    0.00    0.00     0.00     0.00     0.00     0.00    0.00    0.00    0.00   0.00   0.00
sda               0.00     0.00    0.00    0.00     0.00     0.00     0.00     0.00    0.00    0.00    0.00   0.00   0.00
sdc               0.00     0.00 2005.00    0.00  8020.00     0.00     8.00     0.33    0.16    0.16    0.00   0.16  32.60
sdb               0.00     0.00 1962.00    0.00  7848.00     0.00     8.00     0.26    0.13    0.13    0.00   0.13  25.60
sdd               0.00     0.00 2044.00    0.00  8176.00     0.00     8.00     0.28    0.14    0.14    0.00   0.13  27.50
md0               0.00     0.00 6012.00    0.00 24048.00     0.00     8.00     0.00    0.00    0.00    0.00   0.00   0.00

avg-cpu:  %user   %nice %system %iowait  %steal   %idle
           2.98    0.00    0.69    0.22    0.00   96.11

Device:         rrqm/s   wrqm/s     r/s     w/s    rkB/s    wkB/s avgrq-sz avgqu-sz   await r_await w_await  svctm  %util
nvme0n1           0.00     0.00    0.00    0.00     0.00     0.00     0.00     0.00    0.00    0.00    0.00   0.00   0.00
sda               0.00     0.00    0.00    0.00     0.00     0.00     0.00     0.00    0.00    0.00    0.00   0.00   0.00
sdc               0.00     0.00 2021.00    0.00  8084.00     0.00     8.00     0.27    0.13    0.13    0.00   0.13  27.20
sdb               0.00     0.00 2180.00    0.00  8720.00     0.00     8.00     0.30    0.14    0.14    0.00   0.14  30.40
sdd               0.00     0.00 2121.00    0.00  8484.00     0.00     8.00     0.28    0.13    0.13    0.00   0.13  28.20
md0               0.00     0.00 6321.00    0.00 25284.00     0.00     8.00     0.00    0.00    0.00    0.00   0.00   0.00

avg-cpu:  %user   %nice %system %iowait  %steal   %idle
           2.98    0.00    0.66    0.28    0.00   96.08

Device:         rrqm/s   wrqm/s     r/s     w/s    rkB/s    wkB/s avgrq-sz avgqu-sz   await r_await w_await  svctm  %util
nvme0n1           0.00     0.00    0.00    0.00     0.00     0.00     0.00     0.00    0.00    0.00    0.00   0.00   0.00
sda               0.00     1.00    0.00    2.00     0.00    12.00    12.00     0.00    0.50    0.00    0.50   0.50   0.10
sdc               0.00     0.00 2031.00    0.00  8124.00     0.00     8.00     0.34    0.17    0.17    0.00   0.17  33.90
sdb               0.00     0.00 2083.00    0.00  8332.00     0.00     8.00     0.27    0.13    0.13    0.00   0.13  26.70
sdd               0.00     0.00 1845.00    0.00  7380.00     0.00     8.00     0.24    0.13    0.13    0.00   0.13  24.10
md0               0.00     0.00 5960.00    0.00 23840.00     0.00     8.00     0.00    0.00    0.00    0.00   0.00   0.00

avg-cpu:  %user   %nice %system %iowait  %steal   %idle
           2.94    0.00    0.69    0.31    0.00   96.05

Device:         rrqm/s   wrqm/s     r/s     w/s    rkB/s    wkB/s avgrq-sz avgqu-sz   await r_await w_await  svctm  %util
nvme0n1           0.00     0.00    0.00    0.00     0.00     0.00     0.00     0.00    0.00    0.00    0.00   0.00   0.00
sda               0.00     0.00    0.00    0.00     0.00     0.00     0.00     0.00    0.00    0.00    0.00   0.00   0.00
sdc               0.00     0.00 2003.00    0.00  8012.00     0.00     8.00     0.38    0.19    0.19    0.00   0.19  37.50
sdb               0.00     0.00 1886.00    0.00  7544.00     0.00     8.00     0.24    0.13    0.13    0.00   0.13  24.00
sdd               0.00     0.00 1857.00    0.00  7428.00     0.00     8.00     0.23    0.13    0.13    0.00   0.13  23.40
md0               0.00     0.00 5744.00    0.00 22976.00     0.00     8.00     0.00    0.00    0.00    0.00   0.00   0.00

avg-cpu:  %user   %nice %system %iowait  %steal   %idle
           2.97    0.00    0.81    0.19    0.00   96.02

Device:         rrqm/s   wrqm/s     r/s     w/s    rkB/s    wkB/s avgrq-sz avgqu-sz   await r_await w_await  svctm  %util
nvme0n1           0.00     0.00    0.00    0.00     0.00     0.00     0.00     0.00    0.00    0.00    0.00   0.00   0.00
sda               0.00     0.00    0.00    0.00     0.00     0.00     0.00     0.00    0.00    0.00    0.00   0.00   0.00
sdc               0.00     0.00 2103.00    0.00  8412.00     0.00     8.00     0.26    0.13    0.13    0.00   0.13  26.30
sdb               0.00     0.00 2150.00    0.00  8600.00     0.00     8.00     0.29    0.13    0.13    0.00   0.13  28.90
sdd               0.00     0.00 2113.00    0.00  8452.00     0.00     8.00     0.28    0.13    0.13    0.00   0.13  27.50
md0               0.00     0.00 6367.00    0.00 25468.00     0.00     8.00     0.00    0.00    0.00    0.00   0.00   0.00

avg-cpu:  %user   %nice %system %iowait  %steal   %idle
           2.98    0.00    0.60    0.22    0.00   96.20

Device:         rrqm/s   wrqm/s     r/s     w/s    rkB/s    wkB/s avgrq-sz avgqu-sz   await r_await w_await  svctm  %util
nvme0n1           0.00     0.00    0.00    0.00     0.00     0.00     0.00     0.00    0.00    0.00    0.00   0.00   0.00
sda               0.00     1.00    0.00    4.00     0.00    36.00    18.00     0.00    0.00    0.00    0.00   0.00   0.00
sdc               0.00     0.00 2033.00    0.00  8132.00     0.00     8.00     0.26    0.13    0.13    0.00   0.13  26.40
sdb               0.00     0.00 2112.00    0.00  8448.00     0.00     8.00     0.30    0.14    0.14    0.00   0.14  29.90
sdd               0.00     0.00 2081.00    0.00  8324.00     0.00     8.00     0.29    0.14    0.14    0.00   0.14  28.90
md0               0.00     0.00 6226.00    0.00 24900.00     0.00     8.00     0.00    0.00    0.00    0.00   0.00   0.00

avg-cpu:  %user   %nice %system %iowait  %steal   %idle
           3.01    0.00    0.60    0.28    0.00   96.11

Device:         rrqm/s   wrqm/s     r/s     w/s    rkB/s    wkB/s avgrq-sz avgqu-sz   await r_await w_await  svctm  %util
nvme0n1           0.00     0.00    0.00    0.00     0.00     0.00     0.00     0.00    0.00    0.00    0.00   0.00   0.00
sda               0.00     0.00    0.00    0.00     0.00     0.00     0.00     0.00    0.00    0.00    0.00   0.00   0.00
sdc               0.00     0.00 1975.00    0.00  7900.00     0.00     8.00     0.34    0.17    0.17    0.00   0.17  34.50
sdb               0.00     0.00 1949.00    0.00  7796.00     0.00     8.00     0.25    0.13    0.13    0.00   0.13  25.40
sdd               0.00     0.00 2012.00    0.00  8048.00     0.00     8.00     0.27    0.13    0.13    0.00   0.13  26.50
md0               0.00     0.00 5936.00    0.00 23748.00     0.00     8.00     0.00    0.00    0.00    0.00   0.00   0.00

avg-cpu:  %user   %nice %system %iowait  %steal   %idle
           3.01    0.00    0.56    0.25    0.00   96.17

Device:         rrqm/s   wrqm/s     r/s     w/s    rkB/s    wkB/s avgrq-sz avgqu-sz   await r_await w_await  svctm  %util
nvme0n1           0.00     0.00    0.00    0.00     0.00     0.00     0.00     0.00    0.00    0.00    0.00   0.00   0.00
sda               0.00     3.00    0.00    2.00     0.00    20.00    20.00     0.00    0.00    0.00    0.00   0.00   0.00
sdc               0.00     0.00 2030.00    0.00  8120.00     0.00     8.00     0.34    0.17    0.17    0.00   0.17  33.70
sdb               0.00     0.00 2055.00    0.00  8220.00     0.00     8.00     0.27    0.13    0.13    0.00   0.13  27.00
sdd               0.00     0.00 2022.00    0.00  8088.00     0.00     8.00     0.26    0.13    0.13    0.00   0.13  25.80
md0               0.00     0.00 6107.00    0.00 24428.00     0.00     8.00     0.00    0.00    0.00    0.00   0.00   0.00

avg-cpu:  %user   %nice %system %iowait  %steal   %idle
           2.95    0.00    0.69    0.22    0.00   96.14

Device:         rrqm/s   wrqm/s     r/s     w/s    rkB/s    wkB/s avgrq-sz avgqu-sz   await r_await w_await  svctm  %util
nvme0n1           0.00     0.00    0.00    0.00     0.00     0.00     0.00     0.00    0.00    0.00    0.00   0.00   0.00
sda               0.00     0.00    0.00    0.00     0.00     0.00     0.00     0.00    0.00    0.00    0.00   0.00   0.00
sdc               0.00     0.00 1965.00    0.00  7860.00     0.00     8.00     0.27    0.14    0.14    0.00   0.14  27.00
sdb               0.00     0.00 2182.00    0.00  8728.00     0.00     8.00     0.28    0.13    0.13    0.00   0.13  28.20
sdd               0.00     0.00 2126.00    0.00  8504.00     0.00     8.00     0.29    0.14    0.14    0.00   0.14  29.00
md0               0.00     0.00 6273.00    0.00 25092.00     0.00     8.00     0.00    0.00    0.00    0.00   0.00   0.00

avg-cpu:  %user   %nice %system %iowait  %steal   %idle
           2.92    0.00    0.66    0.22    0.00   96.20

Device:         rrqm/s   wrqm/s     r/s     w/s    rkB/s    wkB/s avgrq-sz avgqu-sz   await r_await w_await  svctm  %util
nvme0n1           0.00     0.00    0.00    0.00     0.00     0.00     0.00     0.00    0.00    0.00    0.00   0.00   0.00
sda               0.00     0.00    0.00    0.00     0.00     0.00     0.00     0.00    0.00    0.00    0.00   0.00   0.00
sdc               0.00     0.00 2121.00    0.00  8484.00     0.00     8.00     0.28    0.13    0.13    0.00   0.13  27.70
sdb               0.00     0.00 2152.00    0.00  8608.00     0.00     8.00     0.28    0.13    0.13    0.00   0.13  28.50
sdd               0.00     0.00 2053.00    0.00  8212.00     0.00     8.00     0.28    0.14    0.14    0.00   0.14  28.50
md0               0.00     0.00 6326.00    0.00 25304.00     0.00     8.00     0.00    0.00    0.00    0.00   0.00   0.00

avg-cpu:  %user   %nice %system %iowait  %steal   %idle
           2.98    0.00    0.72    0.19    0.00   96.11

Device:         rrqm/s   wrqm/s     r/s     w/s    rkB/s    wkB/s avgrq-sz avgqu-sz   await r_await w_await  svctm  %util
nvme0n1           0.00     0.00    0.00    0.00     0.00     0.00     0.00     0.00    0.00    0.00    0.00   0.00   0.00
sda               0.00     0.00    0.00    0.00     0.00     0.00     0.00     0.00    0.00    0.00    0.00   0.00   0.00
sdc               0.00     0.00 2098.00    0.00  8392.00     0.00     8.00     0.27    0.13    0.13    0.00   0.13  27.20
sdb               0.00     0.00 2114.00    0.00  8456.00     0.00     8.00     0.28    0.13    0.13    0.00   0.13  28.00
sdd               0.00     0.00 2144.00    0.00  8576.00     0.00     8.00     0.28    0.13    0.13    0.00   0.13  27.90
md0               0.00     0.00 6356.00    0.00 25424.00     0.00     8.00     0.00    0.00    0.00    0.00   0.00   0.00

avg-cpu:  %user   %nice %system %iowait  %steal   %idle
           2.98    0.00    0.66    0.22    0.00   96.14

Device:         rrqm/s   wrqm/s     r/s     w/s    rkB/s    wkB/s avgrq-sz avgqu-sz   await r_await w_await  svctm  %util
nvme0n1           0.00     0.00    0.00    0.00     0.00     0.00     0.00     0.00    0.00    0.00    0.00   0.00   0.00
sda               0.00     0.00    0.00    0.00     0.00     0.00     0.00     0.00    0.00    0.00    0.00   0.00   0.00
sdc               0.00     0.00 2095.00    0.00  8380.00     0.00     8.00     0.28    0.13    0.13    0.00   0.13  27.70
sdb               0.00     0.00 2113.00    0.00  8452.00     0.00     8.00     0.28    0.13    0.13    0.00   0.13  27.90
sdd               0.00     0.00 2109.00    0.00  8436.00     0.00     8.00     0.28    0.14    0.14    0.00   0.14  28.50
md0               0.00     0.00 6317.00    0.00 25268.00     0.00     8.00     0.00    0.00    0.00    0.00   0.00   0.00

avg-cpu:  %user   %nice %system %iowait  %steal   %idle
           2.92    0.00    0.69    0.22    0.00   96.17

Device:         rrqm/s   wrqm/s     r/s     w/s    rkB/s    wkB/s avgrq-sz avgqu-sz   await r_await w_await  svctm  %util
nvme0n1           0.00     0.00    0.00    0.00     0.00     0.00     0.00     0.00    0.00    0.00    0.00   0.00   0.00
sda               0.00     1.00    0.00    2.00     0.00    12.00    12.00     0.00    0.00    0.00    0.00   0.00   0.00
sdc               0.00     0.00 2253.00    0.00  9012.00     0.00     8.00     0.28    0.13    0.13    0.00   0.13  28.50
sdb               0.00     0.00 2068.00    0.00  8272.00     0.00     8.00     0.26    0.13    0.13    0.00   0.12  25.60
sdd               0.00     0.00 2247.00    0.00  8988.00     0.00     8.00     0.29    0.13    0.13    0.00   0.13  29.20
md0               0.00     0.00 6568.00    0.00 26272.00     0.00     8.00     0.00    0.00    0.00    0.00   0.00   0.00

