Linux 4.17.2 (bench2) 	08/03/2018 	_x86_64_	(32 CPU)

avg-cpu:  %user   %nice %system %iowait  %steal   %idle
           1.92    0.00    1.57    1.53    0.00   94.98

Device:         rrqm/s   wrqm/s     r/s     w/s    rkB/s    wkB/s avgrq-sz avgqu-sz   await r_await w_await  svctm  %util
nvme0n1         949.82     5.16 19147.89  527.20 107105.34 11889.95    12.10     1.36    0.05    0.03    0.67   0.02  40.08
sda               0.12     0.81   14.15    0.57   163.99     8.51    23.44     0.00    0.33    0.32    0.45   0.07   0.10
sdc              33.04     0.14  110.53    0.30  1661.15    82.52    31.47     1.51   13.66   12.69  373.51   0.93  10.28
sdb              30.97     0.15  112.56    0.32  1659.26    82.34    30.86     0.40    3.53    2.43  394.60   0.87   9.77
sdd              33.23     0.13  110.08    0.25  1657.15    82.01    31.53     0.68    6.19    4.44  782.19   0.93  10.28
md0               0.00     0.00  433.27    1.06  6145.79   289.12    29.63     0.00    0.00    0.00    0.00   0.00   0.00

avg-cpu:  %user   %nice %system %iowait  %steal   %idle
           3.09    0.00    0.06    0.34    0.00   96.50

Device:         rrqm/s   wrqm/s     r/s     w/s    rkB/s    wkB/s avgrq-sz avgqu-sz   await r_await w_await  svctm  %util
nvme0n1           0.00     0.00    0.00    0.00     0.00     0.00     0.00     0.00    0.00    0.00    0.00   0.00   0.00
sda               0.00     0.00   19.00    0.00   104.00     0.00    10.95     0.02    0.89    0.89    0.00   0.05   0.10
sdc               0.00     0.00  175.00    0.00  2668.00     0.00    30.49     0.39    2.22    2.22    0.00   2.19  38.30
sdb               0.00     0.00  174.00    0.00  2796.00     0.00    32.14     0.28    1.63    1.63    0.00   1.57  27.40
sdd               1.00     0.00  177.00    0.00  2716.00     0.00    30.69     0.35    1.99    1.99    0.00   1.93  34.20
md0               0.00     0.00  527.00    0.00  9580.00     0.00    36.36     0.00    0.00    0.00    0.00   0.00   0.00

avg-cpu:  %user   %nice %system %iowait  %steal   %idle
           3.13    0.00    0.03    0.38    0.00   96.47

Device:         rrqm/s   wrqm/s     r/s     w/s    rkB/s    wkB/s avgrq-sz avgqu-sz   await r_await w_await  svctm  %util
nvme0n1           0.00     0.00    0.00    0.00     0.00     0.00     0.00     0.00    0.00    0.00    0.00   0.00   0.00
sda               0.00     9.00    0.00    2.00     0.00    44.00    44.00     0.00    0.00    0.00    0.00   0.00   0.00
sdc               0.00     0.00  202.00    0.00  3072.00     0.00    30.42     0.38    1.88    1.88    0.00   1.84  37.10
sdb               0.00     0.00  239.00    0.00  4016.00     0.00    33.61     0.43    1.78    1.78    0.00   1.77  42.20
sdd               0.00     0.00  202.00    0.00  3108.00     0.00    30.77     0.22    1.09    1.09    0.00   1.05  21.30
md0               0.00     0.00  643.00    0.00 10888.00     0.00    33.87     0.00    0.00    0.00    0.00   0.00   0.00

avg-cpu:  %user   %nice %system %iowait  %steal   %idle
           3.13    0.00    0.03    0.53    0.00   96.31

Device:         rrqm/s   wrqm/s     r/s     w/s    rkB/s    wkB/s avgrq-sz avgqu-sz   await r_await w_await  svctm  %util
nvme0n1           0.00     0.00    0.00    0.00     0.00     0.00     0.00     0.00    0.00    0.00    0.00   0.00   0.00
sda               0.00     0.00    0.00    0.00     0.00     0.00     0.00     0.00    0.00    0.00    0.00   0.00   0.00
sdc               0.00     0.00  175.00    0.00  3252.00     0.00    37.17     0.38    2.16    2.16    0.00   2.10  36.80
sdb               0.00     0.00  175.00    0.00  2160.00     0.00    24.69     0.27    1.55    1.55    0.00   1.51  26.50
sdd               1.00     0.00  190.00    0.00  3360.00     0.00    35.37     0.40    2.08    2.08    0.00   2.02  38.40
md0               0.00     0.00  541.00    0.00  8964.00     0.00    33.14     0.00    0.00    0.00    0.00   0.00   0.00

