Linux 4.17.2 (bench2) 	08/03/2018 	_x86_64_	(32 CPU)

avg-cpu:  %user   %nice %system %iowait  %steal   %idle
           1.93    0.00    1.58    1.49    0.00   95.00

Device:         rrqm/s   wrqm/s     r/s     w/s    rkB/s    wkB/s avgrq-sz avgqu-sz   await r_await w_await  svctm  %util
nvme0n1         961.52     5.22 19383.76  533.69 108424.67 12036.41    12.10     1.38    0.05    0.03    0.67   0.02  40.58
sda               0.11     0.81   14.10    0.57   163.80     8.50    23.49     0.00    0.33    0.32    0.46   0.07   0.10
sdc              32.13     0.14  102.48    0.30  1548.01    83.53    31.75     1.45   14.14   13.08  373.51   0.95   9.77
sdb              30.05     0.15  104.53    0.32  1546.17    83.35    31.08     0.33    3.12    1.92  394.60   0.89   9.28
sdd              32.34     0.13  102.02    0.25  1544.04    83.02    31.82     0.61    5.99    4.08  782.19   0.96   9.77
md0               0.00     0.00  406.44    1.08  5709.90   292.68    29.46     0.00    0.00    0.00    0.00   0.00   0.00

avg-cpu:  %user   %nice %system %iowait  %steal   %idle
           3.10    0.00    0.22    2.82    0.00   93.86

Device:         rrqm/s   wrqm/s     r/s     w/s    rkB/s    wkB/s avgrq-sz avgqu-sz   await r_await w_await  svctm  %util
nvme0n1           0.00     0.00    0.00    0.00     0.00     0.00     0.00     0.00    0.00    0.00    0.00   0.00   0.00
sda               0.00     0.00   21.00    0.00   124.00     0.00    11.81     0.01    0.57    0.57    0.00   0.05   0.10
sdc               0.00     0.00 1871.00    0.00  7484.00     0.00     8.00     0.30    0.16    0.16    0.00   0.16  30.10
sdb               0.00     0.00 1904.00    0.00  7616.00     0.00     8.00     0.31    0.16    0.16    0.00   0.16  31.00
sdd               0.00     0.00 2043.00    0.00  8172.00     0.00     8.00     0.34    0.17    0.17    0.00   0.17  34.00
md0               0.00     0.00 5819.00    0.00 23276.00     0.00     8.00     0.00    0.00    0.00    0.00   0.00   0.00

avg-cpu:  %user   %nice %system %iowait  %steal   %idle
           3.13    0.00    0.25    2.85    0.00   93.77

Device:         rrqm/s   wrqm/s     r/s     w/s    rkB/s    wkB/s avgrq-sz avgqu-sz   await r_await w_await  svctm  %util
nvme0n1           0.00     0.00    0.00    0.00     0.00     0.00     0.00     0.00    0.00    0.00    0.00   0.00   0.00
sda               0.00     0.00    0.00    0.00     0.00     0.00     0.00     0.00    0.00    0.00    0.00   0.00   0.00
sdc               0.00     0.00 1997.00    0.00  7988.00     0.00     8.00     0.33    0.16    0.16    0.00   0.16  32.90
sdb               0.00     0.00 1884.00    0.00  7536.00     0.00     8.00     0.28    0.14    0.14    0.00   0.15  27.90
sdd               0.00     0.00 1979.00    0.00  7916.00     0.00     8.00     0.35    0.18    0.18    0.00   0.18  34.70
md0               0.00     0.00 5860.00    0.00 23440.00     0.00     8.00     0.00    0.00    0.00    0.00   0.00   0.00

avg-cpu:  %user   %nice %system %iowait  %steal   %idle
           3.07    0.00    0.31    2.82    0.00   93.80

Device:         rrqm/s   wrqm/s     r/s     w/s    rkB/s    wkB/s avgrq-sz avgqu-sz   await r_await w_await  svctm  %util
nvme0n1           0.00     0.00    0.00    0.00     0.00     0.00     0.00     0.00    0.00    0.00    0.00   0.00   0.00
sda               0.00     0.00    0.00    0.00     0.00     0.00     0.00     0.00    0.00    0.00    0.00   0.00   0.00
sdc               0.00     0.00 1967.00    0.00  7868.00     0.00     8.00     0.31    0.16    0.16    0.00   0.16  30.90
sdb               0.00     0.00 2057.00    0.00  8228.00     0.00     8.00     0.34    0.17    0.17    0.00   0.16  33.70
sdd               0.00     0.00 1839.00    0.00  7356.00     0.00     8.00     0.29    0.16    0.16    0.00   0.16  28.70
md0               0.00     0.00 5863.00    0.00 23452.00     0.00     8.00     0.00    0.00    0.00    0.00   0.00   0.00

avg-cpu:  %user   %nice %system %iowait  %steal   %idle
           3.07    0.00    0.25    2.85    0.00   93.83

Device:         rrqm/s   wrqm/s     r/s     w/s    rkB/s    wkB/s avgrq-sz avgqu-sz   await r_await w_await  svctm  %util
nvme0n1           0.00     0.00    0.00    0.00     0.00     0.00     0.00     0.00    0.00    0.00    0.00   0.00   0.00
sda               0.00     0.00    0.00    0.00     0.00     0.00     0.00     0.00    0.00    0.00    0.00   0.00   0.00
sdc               0.00     0.00 2101.00    0.00  8404.00     0.00     8.00     0.31    0.15    0.15    0.00   0.15  31.20
sdb               0.00     0.00 2026.00    0.00  8104.00     0.00     8.00     0.32    0.16    0.16    0.00   0.16  31.50
sdd               0.00     0.00 1934.00    0.00  7736.00     0.00     8.00     0.32    0.16    0.16    0.00   0.16  31.60
md0               0.00     0.00 6061.00    0.00 24244.00     0.00     8.00     0.00    0.00    0.00    0.00   0.00   0.00

avg-cpu:  %user   %nice %system %iowait  %steal   %idle
           3.10    0.00    0.22    2.85    0.00   93.83

Device:         rrqm/s   wrqm/s     r/s     w/s    rkB/s    wkB/s avgrq-sz avgqu-sz   await r_await w_await  svctm  %util
nvme0n1           0.00     0.00    0.00    0.00     0.00     0.00     0.00     0.00    0.00    0.00    0.00   0.00   0.00
sda               0.00    10.00    0.00    2.00     0.00    48.00    48.00     0.00    0.00    0.00    0.00   0.00   0.00
sdc               0.00     0.00 2083.00    0.00  8332.00     0.00     8.00     0.35    0.17    0.17    0.00   0.17  35.30
sdb               0.00     0.00 2031.00    0.00  8124.00     0.00     8.00     0.30    0.15    0.15    0.00   0.15  30.30
sdd               0.00     0.00 2058.00    0.00  8232.00     0.00     8.00     0.29    0.14    0.14    0.00   0.14  29.30
md0               0.00     0.00 6172.00    0.00 24688.00     0.00     8.00     0.00    0.00    0.00    0.00   0.00   0.00

avg-cpu:  %user   %nice %system %iowait  %steal   %idle
           3.13    0.00    0.25    2.82    0.00   93.80

Device:         rrqm/s   wrqm/s     r/s     w/s    rkB/s    wkB/s avgrq-sz avgqu-sz   await r_await w_await  svctm  %util
nvme0n1           0.00     0.00    0.00    0.00     0.00     0.00     0.00     0.00    0.00    0.00    0.00   0.00   0.00
sda               0.00     0.00    0.00    0.00     0.00     0.00     0.00     0.00    0.00    0.00    0.00   0.00   0.00
sdc               0.00     0.00 1901.00    0.00  7604.00     0.00     8.00     0.31    0.16    0.16    0.00   0.16  30.60
sdb               0.00     0.00 1910.00    0.00  7640.00     0.00     8.00     0.29    0.15    0.15    0.00   0.15  28.70
sdd               0.00     0.00 2077.00    0.00  8308.00     0.00     8.00     0.35    0.17    0.17    0.00   0.17  34.70
md0               0.00     0.00 5889.00    0.00 23556.00     0.00     8.00     0.00    0.00    0.00    0.00   0.00   0.00

avg-cpu:  %user   %nice %system %iowait  %steal   %idle
           3.07    0.00    0.28    2.85    0.00   93.80

Device:         rrqm/s   wrqm/s     r/s     w/s    rkB/s    wkB/s avgrq-sz avgqu-sz   await r_await w_await  svctm  %util
nvme0n1           0.00     0.00    0.00    0.00     0.00     0.00     0.00     0.00    0.00    0.00    0.00   0.00   0.00
sda               0.00     0.00    0.00    0.00     0.00     0.00     0.00     0.00    0.00    0.00    0.00   0.00   0.00
sdc               0.00     0.00 2089.00    0.00  8356.00     0.00     8.00     0.28    0.13    0.13    0.00   0.13  28.10
sdb               0.00     0.00 2040.00    0.00  8160.00     0.00     8.00     0.36    0.18    0.18    0.00   0.18  35.80
sdd               0.00     0.00 2145.00    0.00  8580.00     0.00     8.00     0.30    0.14    0.14    0.00   0.14  30.40
md0               0.00     0.00 6273.00    0.00 25092.00     0.00     8.00     0.00    0.00    0.00    0.00   0.00   0.00

avg-cpu:  %user   %nice %system %iowait  %steal   %idle
           3.10    0.00    0.28    2.85    0.00   93.77

Device:         rrqm/s   wrqm/s     r/s     w/s    rkB/s    wkB/s avgrq-sz avgqu-sz   await r_await w_await  svctm  %util
nvme0n1           0.00     0.00    0.00    0.00     0.00     0.00     0.00     0.00    0.00    0.00    0.00   0.00   0.00
sda               0.00     0.00    0.00    0.00     0.00     0.00     0.00     0.00    0.00    0.00    0.00   0.00   0.00
sdc               0.00     0.00 2129.00    0.00  8516.00     0.00     8.00     0.32    0.15    0.15    0.00   0.15  32.40
sdb               0.00     0.00 2036.00    0.00  8144.00     0.00     8.00     0.30    0.15    0.15    0.00   0.15  30.40
sdd               0.00     0.00 1921.00    0.00  7684.00     0.00     8.00     0.32    0.17    0.17    0.00   0.17  32.10
md0               0.00     0.00 6087.00    0.00 24348.00     0.00     8.00     0.00    0.00    0.00    0.00   0.00   0.00

avg-cpu:  %user   %nice %system %iowait  %steal   %idle
           3.07    0.00    0.22    2.82    0.00   93.89

Device:         rrqm/s   wrqm/s     r/s     w/s    rkB/s    wkB/s avgrq-sz avgqu-sz   await r_await w_await  svctm  %util
nvme0n1           0.00     0.00    0.00    0.00     0.00     0.00     0.00     0.00    0.00    0.00    0.00   0.00   0.00
sda               0.00     0.00    0.00    0.00     0.00     0.00     0.00     0.00    0.00    0.00    0.00   0.00   0.00
sdc               0.00     0.00 1925.00    0.00  7700.00     0.00     8.00     0.28    0.15    0.15    0.00   0.15  28.10
sdb               0.00     0.00 2031.00    0.00  8124.00     0.00     8.00     0.31    0.15    0.15    0.00   0.15  30.60
sdd               0.00     0.00 2272.00    0.00  9088.00     0.00     8.00     0.36    0.16    0.16    0.00   0.16  35.90
md0               0.00     0.00 6227.00    0.00 24908.00     0.00     8.00     0.00    0.00    0.00    0.00   0.00   0.00

avg-cpu:  %user   %nice %system %iowait  %steal   %idle
           3.10    0.00    0.25    2.85    0.00   93.80

Device:         rrqm/s   wrqm/s     r/s     w/s    rkB/s    wkB/s avgrq-sz avgqu-sz   await r_await w_await  svctm  %util
nvme0n1           0.00     0.00    0.00    0.00     0.00     0.00     0.00     0.00    0.00    0.00    0.00   0.00   0.00
sda               0.00     1.00    0.00    2.00     0.00    12.00    12.00     0.00    0.00    0.00    0.00   0.00   0.00
sdc               0.00     0.00 1966.00    0.00  7864.00     0.00     8.00     0.29    0.15    0.15    0.00   0.15  29.10
sdb               0.00     0.00 2104.00    0.00  8416.00     0.00     8.00     0.36    0.17    0.17    0.00   0.17  36.00
sdd               0.00     0.00 1995.00    0.00  7980.00     0.00     8.00     0.30    0.15    0.15    0.00   0.15  29.70
md0               0.00     0.00 6065.00    0.00 24260.00     0.00     8.00     0.00    0.00    0.00    0.00   0.00   0.00

avg-cpu:  %user   %nice %system %iowait  %steal   %idle
           3.10    0.00    0.25    2.85    0.00   93.80

Device:         rrqm/s   wrqm/s     r/s     w/s    rkB/s    wkB/s avgrq-sz avgqu-sz   await r_await w_await  svctm  %util
nvme0n1           0.00     0.00    0.00    0.00     0.00     0.00     0.00     0.00    0.00    0.00    0.00   0.00   0.00
sda               0.00     0.00    0.00    0.00     0.00     0.00     0.00     0.00    0.00    0.00    0.00   0.00   0.00
sdc               0.00     0.00 1866.00    0.00  7464.00     0.00     8.00     0.30    0.16    0.16    0.00   0.16  29.80
sdb               0.00     0.00 2090.00    0.00  8360.00     0.00     8.00     0.34    0.17    0.17    0.00   0.17  34.50
sdd               0.00     0.00 1816.00    0.00  7264.00     0.00     8.00     0.30    0.17    0.17    0.00   0.17  30.20
md0               0.00     0.00 5772.00    0.00 23088.00     0.00     8.00     0.00    0.00    0.00    0.00   0.00   0.00

avg-cpu:  %user   %nice %system %iowait  %steal   %idle
           3.07    0.00    0.25    2.85    0.00   93.83

Device:         rrqm/s   wrqm/s     r/s     w/s    rkB/s    wkB/s avgrq-sz avgqu-sz   await r_await w_await  svctm  %util
nvme0n1           0.00     0.00    0.00    0.00     0.00     0.00     0.00     0.00    0.00    0.00    0.00   0.00   0.00
sda               0.00     0.00    0.00    0.00     0.00     0.00     0.00     0.00    0.00    0.00    0.00   0.00   0.00
sdc               0.00     0.00 2065.00    0.00  8260.00     0.00     8.00     0.33    0.16    0.16    0.00   0.16  33.10
sdb               0.00     0.00 1960.00    0.00  7840.00     0.00     8.00     0.31    0.16    0.16    0.00   0.16  30.70
sdd               0.00     0.00 1893.00    0.00  7572.00     0.00     8.00     0.30    0.16    0.16    0.00   0.16  29.80
md0               0.00     0.00 5918.00    0.00 23672.00     0.00     8.00     0.00    0.00    0.00    0.00   0.00   0.00

avg-cpu:  %user   %nice %system %iowait  %steal   %idle
           3.07    0.00    0.34    2.85    0.00   93.74

Device:         rrqm/s   wrqm/s     r/s     w/s    rkB/s    wkB/s avgrq-sz avgqu-sz   await r_await w_await  svctm  %util
nvme0n1           0.00     0.00    0.00    0.00     0.00     0.00     0.00     0.00    0.00    0.00    0.00   0.00   0.00
sda               0.00     1.00    0.00    5.00     0.00    64.00    25.60     0.00    0.00    0.00    0.00   0.00   0.00
sdc               0.00     0.00 2133.00    0.00  8532.00     0.00     8.00     0.31    0.15    0.15    0.00   0.15  31.20
sdb               0.00     0.00 1928.00    0.00  7712.00     0.00     8.00     0.34    0.17    0.17    0.00   0.17  33.50
sdd               0.00     0.00 1871.00    0.00  7484.00     0.00     8.00     0.29    0.15    0.15    0.00   0.15  28.70
md0               0.00     0.00 5933.00    0.00 23732.00     0.00     8.00     0.00    0.00    0.00    0.00   0.00   0.00

avg-cpu:  %user   %nice %system %iowait  %steal   %idle
           3.10    0.00    0.22    2.82    0.00   93.86

Device:         rrqm/s   wrqm/s     r/s     w/s    rkB/s    wkB/s avgrq-sz avgqu-sz   await r_await w_await  svctm  %util
nvme0n1           0.00     0.00    0.00    0.00     0.00     0.00     0.00     0.00    0.00    0.00    0.00   0.00   0.00
sda               0.00     0.00    0.00    0.00     0.00     0.00     0.00     0.00    0.00    0.00    0.00   0.00   0.00
sdc               0.00     0.00 1982.00    0.00  7928.00     0.00     8.00     0.31    0.16    0.16    0.00   0.16  31.00
sdb               0.00     0.00 2121.00    0.00  8484.00     0.00     8.00     0.34    0.16    0.16    0.00   0.16  34.40
sdd               0.00     0.00 1827.00    0.00  7308.00     0.00     8.00     0.29    0.16    0.16    0.00   0.16  28.60
md0               0.00     0.00 5929.00    0.00 23716.00     0.00     8.00     0.00    0.00    0.00    0.00   0.00   0.00

avg-cpu:  %user   %nice %system %iowait  %steal   %idle
           3.10    0.00    0.25    2.85    0.00   93.80

Device:         rrqm/s   wrqm/s     r/s     w/s    rkB/s    wkB/s avgrq-sz avgqu-sz   await r_await w_await  svctm  %util
nvme0n1           0.00     0.00    0.00    0.00     0.00     0.00     0.00     0.00    0.00    0.00    0.00   0.00   0.00
sda               0.00     8.00    0.00    2.00     0.00    40.00    40.00     0.00    0.50    0.00    0.50   0.50   0.10
sdc               0.00     0.00 1849.00    0.00  7396.00     0.00     8.00     0.28    0.15    0.15    0.00   0.15  28.40
sdb               0.00     0.00 2075.00    0.00  8300.00     0.00     8.00     0.33    0.16    0.16    0.00   0.16  33.00
sdd               0.00     0.00 1947.00    0.00  7788.00     0.00     8.00     0.33    0.17    0.17    0.00   0.17  33.40
md0               0.00     0.00 5871.00    0.00 23484.00     0.00     8.00     0.00    0.00    0.00    0.00   0.00   0.00

avg-cpu:  %user   %nice %system %iowait  %steal   %idle
           3.10    0.00    0.25    2.82    0.00   93.83

Device:         rrqm/s   wrqm/s     r/s     w/s    rkB/s    wkB/s avgrq-sz avgqu-sz   await r_await w_await  svctm  %util
nvme0n1           0.00     0.00    0.00    0.00     0.00     0.00     0.00     0.00    0.00    0.00    0.00   0.00   0.00
sda               0.00     0.00    0.00    0.00     0.00     0.00     0.00     0.00    0.00    0.00    0.00   0.00   0.00
sdc               0.00     0.00 2117.00    0.00  8468.00     0.00     8.00     0.31    0.15    0.15    0.00   0.15  31.40
sdb               0.00     0.00 2184.00    0.00  8736.00     0.00     8.00     0.31    0.14    0.14    0.00   0.14  31.20
sdd               0.00     0.00 2132.00    0.00  8528.00     0.00     8.00     0.31    0.15    0.15    0.00   0.15  31.40
md0               0.00     0.00 6434.00    0.00 25736.00     0.00     8.00     0.00    0.00    0.00    0.00   0.00   0.00

avg-cpu:  %user   %nice %system %iowait  %steal   %idle
           3.10    0.00    0.22    2.85    0.00   93.83

Device:         rrqm/s   wrqm/s     r/s     w/s    rkB/s    wkB/s avgrq-sz avgqu-sz   await r_await w_await  svctm  %util
nvme0n1           0.00     0.00    0.00    0.00     0.00     0.00     0.00     0.00    0.00    0.00    0.00   0.00   0.00
sda               0.00     0.00    0.00    0.00     0.00     0.00     0.00     0.00    0.00    0.00    0.00   0.00   0.00
sdc               0.00     0.00 2119.00    0.00  8476.00     0.00     8.00     0.31    0.15    0.15    0.00   0.15  31.10
sdb               0.00     0.00 2164.00    0.00  8656.00     0.00     8.00     0.34    0.16    0.16    0.00   0.16  34.30
sdd               0.00     0.00 1997.00    0.00  7988.00     0.00     8.00     0.30    0.15    0.15    0.00   0.15  29.80
md0               0.00     0.00 6280.00    0.00 25120.00     0.00     8.00     0.00    0.00    0.00    0.00   0.00   0.00

avg-cpu:  %user   %nice %system %iowait  %steal   %idle
           3.10    0.00    0.25    2.85    0.00   93.80

Device:         rrqm/s   wrqm/s     r/s     w/s    rkB/s    wkB/s avgrq-sz avgqu-sz   await r_await w_await  svctm  %util
nvme0n1           0.00     0.00    0.00    0.00     0.00     0.00     0.00     0.00    0.00    0.00    0.00   0.00   0.00
sda               0.00     0.00    0.00    0.00     0.00     0.00     0.00     0.00    0.00    0.00    0.00   0.00   0.00
sdc               0.00     0.00 1830.00    0.00  7320.00     0.00     8.00     0.31    0.17    0.17    0.00   0.17  31.10
sdb               0.00     0.00 1871.00    0.00  7484.00     0.00     8.00     0.33    0.18    0.18    0.00   0.18  32.80
sdd               0.00     0.00 1873.00    0.00  7492.00     0.00     8.00     0.32    0.17    0.17    0.00   0.17  31.80
md0               0.00     0.00 5573.00    0.00 22292.00     0.00     8.00     0.00    0.00    0.00    0.00   0.00   0.00

avg-cpu:  %user   %nice %system %iowait  %steal   %idle
           3.10    0.00    0.25    2.85    0.00   93.80

Device:         rrqm/s   wrqm/s     r/s     w/s    rkB/s    wkB/s avgrq-sz avgqu-sz   await r_await w_await  svctm  %util
nvme0n1           0.00     0.00    0.00    0.00     0.00     0.00     0.00     0.00    0.00    0.00    0.00   0.00   0.00
sda               0.00     0.00    0.00    0.00     0.00     0.00     0.00     0.00    0.00    0.00    0.00   0.00   0.00
sdc               0.00     0.00 1904.00    0.00  7616.00     0.00     8.00     0.30    0.16    0.16    0.00   0.16  30.40
sdb               0.00     0.00 2016.00    0.00  8064.00     0.00     8.00     0.32    0.16    0.16    0.00   0.16  32.10
sdd               0.00     0.00 1829.00    0.00  7316.00     0.00     8.00     0.32    0.17    0.17    0.00   0.17  31.70
md0               0.00     0.00 5749.00    0.00 22996.00     0.00     8.00     0.00    0.00    0.00    0.00   0.00   0.00

avg-cpu:  %user   %nice %system %iowait  %steal   %idle
           3.13    0.00    0.22    2.85    0.00   93.80

Device:         rrqm/s   wrqm/s     r/s     w/s    rkB/s    wkB/s avgrq-sz avgqu-sz   await r_await w_await  svctm  %util
nvme0n1           0.00     0.00    0.00    0.00     0.00     0.00     0.00     0.00    0.00    0.00    0.00   0.00   0.00
sda               0.00     1.00    0.00    2.00     0.00    12.00    12.00     0.00    0.00    0.00    0.00   0.00   0.00
sdc               0.00     0.00 1946.00    0.00  7784.00     0.00     8.00     0.31    0.16    0.16    0.00   0.16  31.40
sdb               0.00     0.00 1980.00    0.00  7920.00     0.00     8.00     0.32    0.16    0.16    0.00   0.16  32.20
sdd               0.00     0.00 1767.00    0.00  7068.00     0.00     8.00     0.32    0.18    0.18    0.00   0.18  31.80
md0               0.00     0.00 5693.00    0.00 22772.00     0.00     8.00     0.00    0.00    0.00    0.00   0.00   0.00

