Linux 4.17.2 (bench2) 	08/03/2018 	_x86_64_	(32 CPU)

avg-cpu:  %user   %nice %system %iowait  %steal   %idle
           1.91    0.00    1.57    1.54    0.00   94.98

Device:         rrqm/s   wrqm/s     r/s     w/s    rkB/s    wkB/s avgrq-sz avgqu-sz   await r_await w_await  svctm  %util
nvme0n1         948.19     5.15 19115.16  526.30 106922.24 11869.63    12.10     1.36    0.05    0.03    0.67   0.02  40.02
sda               0.12     0.81   14.15    0.58   163.98     8.51    23.43     0.00    0.33    0.32    0.45   0.07   0.10
sdc              33.09     0.14  111.54    0.30  1683.64    82.38    31.58     1.53   13.67   12.71  373.51   0.93  10.36
sdb              31.02     0.15  113.57    0.32  1681.75    82.20    30.98     0.42    3.65    2.55  394.60   0.86   9.85
sdd              33.28     0.13  111.08    0.25  1679.65    81.87    31.64     0.70    6.28    4.55  782.19   0.93  10.36
md0               0.00     0.00  436.45    1.06  6236.03   288.63    29.83     0.00    0.00    0.00    0.00   0.00   0.00

avg-cpu:  %user   %nice %system %iowait  %steal   %idle
           3.09    0.00    0.06    0.84    0.00   96.00

Device:         rrqm/s   wrqm/s     r/s     w/s    rkB/s    wkB/s avgrq-sz avgqu-sz   await r_await w_await  svctm  %util
nvme0n1           0.00     0.00    0.00    0.00     0.00     0.00     0.00     0.00    0.00    0.00    0.00   0.00   0.00
sda               0.00     0.00    4.00    0.00   104.00     0.00    52.00     0.00    0.00    0.00    0.00   0.00   0.00
sdc               0.00     0.00  179.00    0.00  2316.00     0.00    25.88     0.40    2.25    2.25    0.00   2.15  38.40
sdb               1.00     0.00  209.00    0.00  3096.00     0.00    29.63     0.33    1.56    1.56    0.00   1.48  31.00
sdd               0.00     0.00  189.00    0.00  2792.00     0.00    29.54     0.32    1.68    1.68    0.00   1.64  31.00
md0               0.00     0.00  579.00    0.00  8684.00     0.00    30.00     0.00    0.00    0.00    0.00   0.00   0.00

avg-cpu:  %user   %nice %system %iowait  %steal   %idle
           3.13    0.00    0.03    0.13    0.00   96.72

Device:         rrqm/s   wrqm/s     r/s     w/s    rkB/s    wkB/s avgrq-sz avgqu-sz   await r_await w_await  svctm  %util
nvme0n1           0.00     0.00    0.00    0.00     0.00     0.00     0.00     0.00    0.00    0.00    0.00   0.00   0.00
sda               0.00    12.00    0.00    2.00     0.00    56.00    56.00     0.00    0.50    0.00    0.50   0.50   0.10
sdc               0.00     0.00  169.00    0.00  2736.00     0.00    32.38     0.30    1.78    1.78    0.00   1.70  28.70
sdb               0.00     0.00  196.00    0.00  2448.00     0.00    24.98     0.43    2.18    2.18    0.00   2.10  41.20
sdd               0.00     0.00  209.00    0.00  3236.00     0.00    30.97     0.32    1.54    1.54    0.00   1.47  30.80
md0               0.00     0.00  574.00    0.00  9552.00     0.00    33.28     0.00    0.00    0.00    0.00   0.00   0.00

avg-cpu:  %user   %nice %system %iowait  %steal   %idle
           3.12    0.00    0.06    0.62    0.00   96.19

Device:         rrqm/s   wrqm/s     r/s     w/s    rkB/s    wkB/s avgrq-sz avgqu-sz   await r_await w_await  svctm  %util
nvme0n1           0.00     0.00    0.00    0.00     0.00     0.00     0.00     0.00    0.00    0.00    0.00   0.00   0.00
sda               0.00     0.00    0.00    0.00     0.00     0.00     0.00     0.00    0.00    0.00    0.00   0.00   0.00
sdc               0.00     0.00  198.00    0.00  3404.00     0.00    34.38     0.27    1.34    1.34    0.00   1.29  25.60
sdb               0.00     0.00  190.00    0.00  2492.00     0.00    26.23     0.32    1.65    1.65    0.00   1.61  30.60
sdd               0.00     0.00  206.00    0.00  3664.00     0.00    35.57     0.46    2.22    2.22    0.00   2.12  43.60
md0               0.00     0.00  594.00    0.00 10588.00     0.00    35.65     0.00    0.00    0.00    0.00   0.00   0.00

avg-cpu:  %user   %nice %system %iowait  %steal   %idle
           3.09    0.00    0.06    0.41    0.00   96.44

Device:         rrqm/s   wrqm/s     r/s     w/s    rkB/s    wkB/s avgrq-sz avgqu-sz   await r_await w_await  svctm  %util
nvme0n1           0.00     0.00    0.00    0.00     0.00     0.00     0.00     0.00    0.00    0.00    0.00   0.00   0.00
sda               0.00     0.00    0.00    0.00     0.00     0.00     0.00     0.00    0.00    0.00    0.00   0.00   0.00
sdc               0.00     0.00  197.00    0.00  3204.00     0.00    32.53     0.47    2.35    2.35    0.00   2.22  43.80
sdb               0.00     0.00  194.00    0.00  3012.00     0.00    31.05     0.23    1.22    1.22    0.00   1.18  22.90
sdd               1.00     0.00  196.00    0.00  3412.00     0.00    34.82     0.37    1.88    1.88    0.00   1.81  35.40
md0               0.00     0.00  588.00    0.00 10912.00     0.00    37.12     0.00    0.00    0.00    0.00   0.00   0.00

avg-cpu:  %user   %nice %system %iowait  %steal   %idle
           3.13    0.00    0.03    0.19    0.00   96.66

Device:         rrqm/s   wrqm/s     r/s     w/s    rkB/s    wkB/s avgrq-sz avgqu-sz   await r_await w_await  svctm  %util
nvme0n1           0.00     0.00    0.00    0.00     0.00     0.00     0.00     0.00    0.00    0.00    0.00   0.00   0.00
sda               0.00     0.00    0.00    0.00     0.00     0.00     0.00     0.00    0.00    0.00    0.00   0.00   0.00
sdc               0.00     0.00  181.00    0.00  2524.00     0.00    27.89     0.43    2.43    2.43    0.00   2.35  42.60
sdb               1.00     0.00  199.00    0.00  3444.00     0.00    34.61     0.21    1.04    1.04    0.00   1.02  20.20
sdd               0.00     0.00  199.00    0.00  2976.00     0.00    29.91     0.40    2.03    2.03    0.00   1.95  38.80
md0               0.00     0.00  580.00    0.00  9724.00     0.00    33.53     0.00    0.00    0.00    0.00   0.00   0.00

avg-cpu:  %user   %nice %system %iowait  %steal   %idle
           3.13    0.00    0.03    0.81    0.00   96.03

Device:         rrqm/s   wrqm/s     r/s     w/s    rkB/s    wkB/s avgrq-sz avgqu-sz   await r_await w_await  svctm  %util
nvme0n1           0.00     0.00    0.00    0.00     0.00     0.00     0.00     0.00    0.00    0.00    0.00   0.00   0.00
sda               0.00     0.00    0.00    0.00     0.00     0.00     0.00     0.00    0.00    0.00    0.00   0.00   0.00
sdc               0.00     0.00  162.00    0.00  1740.00     0.00    21.48     0.39    2.38    2.38    0.00   2.35  38.10
sdb               0.00     0.00  180.00    0.00  2520.00     0.00    28.00     0.16    0.87    0.87    0.00   0.85  15.30
sdd               0.00     0.00  200.00    0.00  2368.00     0.00    23.68     0.48    2.38    2.38    0.00   2.35  47.00
md0               0.00     0.00  542.00    0.00  7052.00     0.00    26.02     0.00    0.00    0.00    0.00   0.00   0.00

avg-cpu:  %user   %nice %system %iowait  %steal   %idle
           3.12    0.00    0.06    0.66    0.00   96.16

Device:         rrqm/s   wrqm/s     r/s     w/s    rkB/s    wkB/s avgrq-sz avgqu-sz   await r_await w_await  svctm  %util
nvme0n1           0.00     0.00    0.00    0.00     0.00     0.00     0.00     0.00    0.00    0.00    0.00   0.00   0.00
sda               0.00     1.00    0.00    2.00     0.00    12.00    12.00     0.00    0.00    0.00    0.00   0.00   0.00
sdc               0.00     0.00  229.00    0.00  2552.00     0.00    22.29     0.54    2.37    2.37    0.00   2.34  53.70
sdb               1.00     0.00  171.00    0.00  2532.00     0.00    29.61     0.24    1.40    1.40    0.00   1.36  23.20
sdd               0.00     0.00  222.00    0.00  3696.00     0.00    33.30     0.26    1.16    1.16    0.00   1.08  24.00
md0               0.00     0.00  623.00    0.00  9180.00     0.00    29.47     0.00    0.00    0.00    0.00   0.00   0.00

avg-cpu:  %user   %nice %system %iowait  %steal   %idle
           3.10    0.00    0.00    0.69    0.00   96.22

Device:         rrqm/s   wrqm/s     r/s     w/s    rkB/s    wkB/s avgrq-sz avgqu-sz   await r_await w_await  svctm  %util
nvme0n1           0.00     0.00    0.00    0.00     0.00     0.00     0.00     0.00    0.00    0.00    0.00   0.00   0.00
sda               0.00     4.00    0.00   21.00     0.00   116.00    11.05     0.00    0.00    0.00    0.00   0.00   0.00
sdc               1.00     0.00  184.00    0.00  3748.00     0.00    40.74     0.41    2.21    2.21    0.00   2.14  39.40
sdb               0.00     0.00  210.00    0.00  3880.00     0.00    36.95     0.30    1.44    1.44    0.00   1.35  28.40
sdd               0.00     0.00  208.00    0.00  3324.00     0.00    31.96     0.37    1.76    1.76    0.00   1.71  35.50
md0               0.00     0.00  603.00    0.00 12940.00     0.00    42.92     0.00    0.00    0.00    0.00   0.00   0.00

avg-cpu:  %user   %nice %system %iowait  %steal   %idle
           3.13    0.00    0.03    0.34    0.00   96.50

Device:         rrqm/s   wrqm/s     r/s     w/s    rkB/s    wkB/s avgrq-sz avgqu-sz   await r_await w_await  svctm  %util
nvme0n1           0.00     0.00    0.00    0.00     0.00     0.00     0.00     0.00    0.00    0.00    0.00   0.00   0.00
sda               0.00     0.00    0.00    0.00     0.00     0.00     0.00     0.00    0.00    0.00    0.00   0.00   0.00
sdc               1.00     0.00  203.00    0.00  3576.00     0.00    35.23     0.36    1.80    1.80    0.00   1.72  34.90
sdb               1.00     0.00  231.00    0.00  4500.00     0.00    38.96     0.30    1.30    1.30    0.00   1.29  29.80
sdd               1.00     0.00  191.00    0.00  3408.00     0.00    35.69     0.38    2.01    2.01    0.00   1.97  37.60
md0               0.00     0.00  628.00    0.00 13116.00     0.00    41.77     0.00    0.00    0.00    0.00   0.00   0.00

avg-cpu:  %user   %nice %system %iowait  %steal   %idle
           3.12    0.00    0.06    0.00    0.00   96.81

Device:         rrqm/s   wrqm/s     r/s     w/s    rkB/s    wkB/s avgrq-sz avgqu-sz   await r_await w_await  svctm  %util
nvme0n1           0.00     0.00    0.00    0.00     0.00     0.00     0.00     0.00    0.00    0.00    0.00   0.00   0.00
sda               0.00     0.00    0.00    0.00     0.00     0.00     0.00     0.00    0.00    0.00    0.00   0.00   0.00
sdc               0.00     0.00  203.00    0.00  3704.00     0.00    36.49     0.45    2.22    2.22    0.00   2.05  41.60
sdb               0.00     0.00  229.00    0.00  3860.00     0.00    33.71     0.28    1.26    1.26    0.00   1.19  27.30
sdd               0.00     0.00  190.00    0.00  3584.00     0.00    37.73     0.32    1.66    1.66    0.00   1.66  31.50
md0               0.00     0.00  622.00    0.00 12488.00     0.00    40.15     0.00    0.00    0.00    0.00   0.00   0.00

avg-cpu:  %user   %nice %system %iowait  %steal   %idle
           3.13    0.00    0.03    0.41    0.00   96.44

Device:         rrqm/s   wrqm/s     r/s     w/s    rkB/s    wkB/s avgrq-sz avgqu-sz   await r_await w_await  svctm  %util
nvme0n1           0.00     0.00    0.00    0.00     0.00     0.00     0.00     0.00    0.00    0.00    0.00   0.00   0.00
sda               0.00     0.00    0.00    0.00     0.00     0.00     0.00     0.00    0.00    0.00    0.00   0.00   0.00
sdc               1.00     0.00  190.00    0.00  5100.00     0.00    53.68     0.49    2.57    2.57    0.00   2.54  48.20
sdb               0.00     0.00  210.00    0.00  3304.00     0.00    31.47     0.23    1.10    1.10    0.00   1.08  22.60
sdd               0.00     0.00  244.00    0.00  3688.00     0.00    30.23     0.33    1.36    1.36    0.00   1.32  32.20
md0               0.00     0.00  645.00    0.00 13216.00     0.00    40.98     0.00    0.00    0.00    0.00   0.00   0.00

avg-cpu:  %user   %nice %system %iowait  %steal   %idle
           3.09    0.00    0.06    0.44    0.00   96.41

Device:         rrqm/s   wrqm/s     r/s     w/s    rkB/s    wkB/s avgrq-sz avgqu-sz   await r_await w_await  svctm  %util
nvme0n1           0.00     0.00    0.00    0.00     0.00     0.00     0.00     0.00    0.00    0.00    0.00   0.00   0.00
sda               0.00     6.00    0.00    2.00     0.00    32.00    32.00     0.00    0.00    0.00    0.00   0.00   0.00
sdc               0.00     0.00  219.00    0.00  2832.00     0.00    25.86     0.36    1.65    1.65    0.00   1.63  35.70
sdb               0.00     0.00  181.00    0.00  3012.00     0.00    33.28     0.33    1.84    1.84    0.00   1.81  32.80
sdd               0.00     0.00  207.00    0.00  3508.00     0.00    33.89     0.34    1.63    1.63    0.00   1.58  32.80
md0               0.00     0.00  607.00    0.00 10440.00     0.00    34.40     0.00    0.00    0.00    0.00   0.00   0.00

avg-cpu:  %user   %nice %system %iowait  %steal   %idle
           3.13    0.00    0.03    0.16    0.00   96.69

Device:         rrqm/s   wrqm/s     r/s     w/s    rkB/s    wkB/s avgrq-sz avgqu-sz   await r_await w_await  svctm  %util
nvme0n1           0.00     0.00    0.00    0.00     0.00     0.00     0.00     0.00    0.00    0.00    0.00   0.00   0.00
sda               0.00     0.00    0.00    0.00     0.00     0.00     0.00     0.00    0.00    0.00    0.00   0.00   0.00
sdc               1.00     0.00  211.00    0.00  3840.00     0.00    36.40     0.35    1.65    1.65    0.00   1.61  33.90
sdb               0.00     0.00  192.00    0.00  2792.00     0.00    29.08     0.16    0.82    0.82    0.00   0.82  15.70
sdd               0.00     0.00  176.00    0.00  3216.00     0.00    36.55     0.52    2.95    2.95    0.00   2.90  51.10
md0               0.00     0.00  580.00    0.00 11600.00     0.00    40.00     0.00    0.00    0.00    0.00   0.00   0.00

avg-cpu:  %user   %nice %system %iowait  %steal   %idle
           3.12    0.00    0.06    0.88    0.00   95.94

Device:         rrqm/s   wrqm/s     r/s     w/s    rkB/s    wkB/s avgrq-sz avgqu-sz   await r_await w_await  svctm  %util
nvme0n1           0.00     0.00    0.00    0.00     0.00     0.00     0.00     0.00    0.00    0.00    0.00   0.00   0.00
sda               0.00     0.00    0.00    0.00     0.00     0.00     0.00     0.00    0.00    0.00    0.00   0.00   0.00
sdc               0.00     0.00  212.00    0.00  2564.00     0.00    24.19     0.34    1.60    1.60    0.00   1.54  32.60
sdb               0.00     0.00  173.00    0.00  1976.00     0.00    22.84     0.34    1.99    1.99    0.00   1.95  33.70
sdd               0.00     0.00  185.00    0.00  2776.00     0.00    30.01     0.35    1.84    1.84    0.00   1.81  33.40
md0               0.00     0.00  570.00    0.00  7692.00     0.00    26.99     0.00    0.00    0.00    0.00   0.00   0.00

avg-cpu:  %user   %nice %system %iowait  %steal   %idle
           3.10    0.00    0.03    0.00    0.00   96.87

Device:         rrqm/s   wrqm/s     r/s     w/s    rkB/s    wkB/s avgrq-sz avgqu-sz   await r_await w_await  svctm  %util
nvme0n1           0.00     0.00    0.00    0.00     0.00     0.00     0.00     0.00    0.00    0.00    0.00   0.00   0.00
sda               0.00     0.00    0.00    0.00     0.00     0.00     0.00     0.00    0.00    0.00    0.00   0.00   0.00
sdc               1.00     0.00  201.00    0.00  2892.00     0.00    28.78     0.31    1.55    1.55    0.00   1.53  30.70
sdb               1.00     0.00  180.00    0.00  2612.00     0.00    29.02     0.30    1.66    1.66    0.00   1.63  29.30
sdd               0.00     0.00  199.00    0.00  3444.00     0.00    34.61     0.43    2.22    2.22    0.00   2.08  41.40
md0               0.00     0.00  582.00    0.00  9904.00     0.00    34.03     0.00    0.00    0.00    0.00   0.00   0.00

avg-cpu:  %user   %nice %system %iowait  %steal   %idle
           3.13    0.00    0.03    0.63    0.00   96.22

Device:         rrqm/s   wrqm/s     r/s     w/s    rkB/s    wkB/s avgrq-sz avgqu-sz   await r_await w_await  svctm  %util
nvme0n1           0.00     0.00    0.00    0.00     0.00     0.00     0.00     0.00    0.00    0.00    0.00   0.00   0.00
sda               0.00     0.00    0.00    0.00     0.00     0.00     0.00     0.00    0.00    0.00    0.00   0.00   0.00
sdc               0.00     0.00  224.00    0.00  4240.00     0.00    37.86     0.36    1.63    1.63    0.00   1.60  35.80
sdb               1.00     0.00  229.00    0.00  4248.00     0.00    37.10     0.24    1.03    1.03    0.00   1.01  23.20
sdd               0.00     0.00  219.00    0.00  3800.00     0.00    34.70     0.46    2.09    2.09    0.00   2.00  43.70
md0               0.00     0.00  673.00    0.00 13840.00     0.00    41.13     0.00    0.00    0.00    0.00   0.00   0.00

avg-cpu:  %user   %nice %system %iowait  %steal   %idle
           3.12    0.00    0.06    0.19    0.00   96.63

Device:         rrqm/s   wrqm/s     r/s     w/s    rkB/s    wkB/s avgrq-sz avgqu-sz   await r_await w_await  svctm  %util
nvme0n1           0.00     0.00    0.00    0.00     0.00     0.00     0.00     0.00    0.00    0.00    0.00   0.00   0.00
sda               0.00     1.00    0.00    2.00     0.00    12.00    12.00     0.00    0.00    0.00    0.00   0.00   0.00
sdc               0.00     0.00  199.00    0.00  2664.00     0.00    26.77     0.35    1.74    1.74    0.00   1.69  33.60
sdb               0.00     0.00  193.00    0.00  2740.00     0.00    28.39     0.37    1.94    1.94    0.00   1.87  36.10
sdd               0.00     0.00  205.00    0.00  3836.00     0.00    37.42     0.33    1.59    1.59    0.00   1.54  31.50
md0               0.00     0.00  597.00    0.00 10196.00     0.00    34.16     0.00    0.00    0.00    0.00   0.00   0.00

avg-cpu:  %user   %nice %system %iowait  %steal   %idle
           3.13    0.00    0.03    0.00    0.00   96.84

Device:         rrqm/s   wrqm/s     r/s     w/s    rkB/s    wkB/s avgrq-sz avgqu-sz   await r_await w_await  svctm  %util
nvme0n1           0.00     0.00    0.00    0.00     0.00     0.00     0.00     0.00    0.00    0.00    0.00   0.00   0.00
sda               0.00     0.00    0.00    0.00     0.00     0.00     0.00     0.00    0.00    0.00    0.00   0.00   0.00
sdc               1.00     0.00  217.00    0.00  3876.00     0.00    35.72     0.20    0.90    0.90    0.00   0.87  18.80
sdb               0.00     0.00  215.00    0.00  2576.00     0.00    23.96     0.38    1.74    1.74    0.00   1.74  37.40
sdd               1.00     0.00  206.00    0.00  3272.00     0.00    31.77     0.46    2.21    2.21    0.00   2.17  44.80
md0               0.00     0.00  640.00    0.00 10976.00     0.00    34.30     0.00    0.00    0.00    0.00   0.00   0.00

avg-cpu:  %user   %nice %system %iowait  %steal   %idle
           3.13    0.00    0.03    0.38    0.00   96.47

Device:         rrqm/s   wrqm/s     r/s     w/s    rkB/s    wkB/s avgrq-sz avgqu-sz   await r_await w_await  svctm  %util
nvme0n1           0.00     0.00    0.00    0.00     0.00     0.00     0.00     0.00    0.00    0.00    0.00   0.00   0.00
sda               0.00     0.00    0.00    0.00     0.00     0.00     0.00     0.00    0.00    0.00    0.00   0.00   0.00
sdc               0.00     0.00  179.00    0.00  2420.00     0.00    27.04     0.40    2.21    2.21    0.00   2.14  38.30
sdb               1.00     0.00  206.00    0.00  3200.00     0.00    31.07     0.27    1.34    1.34    0.00   1.29  26.50
sdd               0.00     0.00  202.00    0.00  2764.00     0.00    27.37     0.38    1.84    1.84    0.00   1.85  37.40
md0               0.00     0.00  588.00    0.00  9728.00     0.00    33.09     0.00    0.00    0.00    0.00   0.00   0.00

avg-cpu:  %user   %nice %system %iowait  %steal   %idle
           3.10    0.00    0.06    0.44    0.00   96.40

Device:         rrqm/s   wrqm/s     r/s     w/s    rkB/s    wkB/s avgrq-sz avgqu-sz   await r_await w_await  svctm  %util
nvme0n1           0.00     0.00    0.00    0.00     0.00     0.00     0.00     0.00    0.00    0.00    0.00   0.00   0.00
sda               0.00     0.00    0.00    0.00     0.00     0.00     0.00     0.00    0.00    0.00    0.00   0.00   0.00
sdc               0.00     0.00  190.00    0.00  2548.00     0.00    26.82     0.23    1.23    1.23    0.00   1.19  22.70
sdb               0.00     0.00  201.00    0.00  3156.00     0.00    31.40     0.25    1.25    1.25    0.00   1.21  24.40
sdd               0.00     0.00  219.00    0.00  2964.00     0.00    27.07     0.55    2.56    2.56    0.00   2.44  53.50
md0               0.00     0.00  610.00    0.00  9808.00     0.00    32.16     0.00    0.00    0.00    0.00   0.00   0.00

