Linux 4.17.2 (bench2) 	08/03/2018 	_x86_64_	(32 CPU)

avg-cpu:  %user   %nice %system %iowait  %steal   %idle
           1.92    0.00    1.57    1.52    0.00   94.99

Device:         rrqm/s   wrqm/s     r/s     w/s    rkB/s    wkB/s avgrq-sz avgqu-sz   await r_await w_await  svctm  %util
nvme0n1         952.37     5.17 19199.36  528.62 107393.22 11921.91    12.10     1.37    0.05    0.03    0.67   0.02  40.19
sda               0.11     0.81   14.13    0.57   163.94     8.51    23.45     0.00    0.33    0.32    0.45   0.07   0.10
sdc              32.91     0.14  108.66    0.30  1645.99    82.74    31.73     1.51   13.86   12.87  373.51   0.93  10.18
sdb              30.84     0.15  110.70    0.32  1644.11    82.56    31.11     0.39    3.53    2.40  394.60   0.87   9.68
sdd              33.11     0.13  108.21    0.25  1642.01    82.23    31.80     0.68    6.24    4.45  782.19   0.94  10.18
md0               0.00     0.00  427.30    1.07  6091.02   289.90    29.79     0.00    0.00    0.00    0.00   0.00   0.00

avg-cpu:  %user   %nice %system %iowait  %steal   %idle
           3.12    0.00    0.00    0.03    0.00   96.84

Device:         rrqm/s   wrqm/s     r/s     w/s    rkB/s    wkB/s avgrq-sz avgqu-sz   await r_await w_await  svctm  %util
nvme0n1           0.00     0.00    0.00    0.00     0.00     0.00     0.00     0.00    0.00    0.00    0.00   0.00   0.00
sda               0.00     0.00   21.00    0.00   124.00     0.00    11.81     0.00    0.05    0.05    0.00   0.05   0.10
sdc               0.00     0.00   38.00    0.00   152.00     0.00     8.00     0.35    9.26    9.26    0.00   9.26  35.20
sdb               0.00     0.00   34.00    0.00   136.00     0.00     8.00     0.25    7.44    7.44    0.00   7.44  25.30
sdd               0.00     0.00   47.00    0.00   188.00     0.00     8.00     0.39    8.26    8.26    0.00   8.30  39.00
md0               0.00     0.00  120.00    0.00   480.00     0.00     8.00     0.00    0.00    0.00    0.00   0.00   0.00

avg-cpu:  %user   %nice %system %iowait  %steal   %idle
           3.13    0.00    0.03    0.00    0.00   96.84

Device:         rrqm/s   wrqm/s     r/s     w/s    rkB/s    wkB/s avgrq-sz avgqu-sz   await r_await w_await  svctm  %util
nvme0n1           0.00     0.00    0.00    0.00     0.00     0.00     0.00     0.00    0.00    0.00    0.00   0.00   0.00
sda               0.00    13.00    0.00    2.00     0.00    60.00    60.00     0.00    0.00    0.00    0.00   0.00   0.00
sdc               0.00     0.00   33.00    0.00   132.00     0.00     8.00     0.27    8.12    8.12    0.00   8.30  27.40
sdb               0.00     0.00   39.00    0.00   156.00     0.00     8.00     0.32    8.15    8.15    0.00   8.15  31.80
sdd               0.00     0.00   47.00    0.00   188.00     0.00     8.00     0.40    8.55    8.55    0.00   8.51  40.00
md0               0.00     0.00  119.00    0.00   476.00     0.00     8.00     0.00    0.00    0.00    0.00   0.00   0.00

avg-cpu:  %user   %nice %system %iowait  %steal   %idle
           3.12    0.00    0.00    0.03    0.00   96.84

Device:         rrqm/s   wrqm/s     r/s     w/s    rkB/s    wkB/s avgrq-sz avgqu-sz   await r_await w_await  svctm  %util
nvme0n1           0.00     0.00    0.00    0.00     0.00     0.00     0.00     0.00    0.00    0.00    0.00   0.00   0.00
sda               0.00     0.00    0.00    0.00     0.00     0.00     0.00     0.00    0.00    0.00    0.00   0.00   0.00
sdc               0.00     0.00   51.00    0.00   204.00     0.00     8.00     0.41    8.24    8.24    0.00   8.12  41.40
sdb               0.00     0.00   40.00    0.00   160.00     0.00     8.00     0.29    7.35    7.35    0.00   7.35  29.40
sdd               0.00     0.00   37.00    0.00   148.00     0.00     8.00     0.29    7.54    7.54    0.00   7.73  28.60
md0               0.00     0.00  128.00    0.00   512.00     0.00     8.00     0.00    0.00    0.00    0.00   0.00   0.00

avg-cpu:  %user   %nice %system %iowait  %steal   %idle
           3.10    0.00    0.03    0.00    0.00   96.90

Device:         rrqm/s   wrqm/s     r/s     w/s    rkB/s    wkB/s avgrq-sz avgqu-sz   await r_await w_await  svctm  %util
nvme0n1           0.00     0.00    0.00    0.00     0.00     0.00     0.00     0.00    0.00    0.00    0.00   0.00   0.00
sda               0.00     0.00    0.00    0.00     0.00     0.00     0.00     0.00    0.00    0.00    0.00   0.00   0.00
sdc               0.00     0.00   42.00    0.00   168.00     0.00     8.00     0.35    8.21    8.21    0.00   8.26  34.70
sdb               0.00     0.00   41.00    0.00   164.00     0.00     8.00     0.30    7.37    7.37    0.00   7.37  30.20
sdd               0.00     0.00   45.00    0.00   180.00     0.00     8.00     0.35    7.89    7.89    0.00   7.73  34.80
md0               0.00     0.00  128.00    0.00   512.00     0.00     8.00     0.00    0.00    0.00    0.00   0.00   0.00

avg-cpu:  %user   %nice %system %iowait  %steal   %idle
           3.16    0.00    0.00    0.03    0.00   96.81

Device:         rrqm/s   wrqm/s     r/s     w/s    rkB/s    wkB/s avgrq-sz avgqu-sz   await r_await w_await  svctm  %util
nvme0n1           0.00     0.00    0.00    0.00     0.00     0.00     0.00     0.00    0.00    0.00    0.00   0.00   0.00
sda               0.00     2.00    0.00   15.00     0.00    68.00     9.07     0.00    0.00    0.00    0.00   0.00   0.00
sdc               0.00     0.00   42.00    0.00   168.00     0.00     8.00     0.29    6.88    6.88    0.00   6.83  28.70
sdb               0.00     0.00   43.00    0.00   172.00     0.00     8.00     0.34    7.93    7.93    0.00   7.93  34.10
sdd               0.00     0.00   44.00    0.00   176.00     0.00     8.00     0.37    8.25    8.25    0.00   8.32  36.60
md0               0.00     0.00  129.00    0.00   516.00     0.00     8.00     0.00    0.00    0.00    0.00   0.00   0.00

avg-cpu:  %user   %nice %system %iowait  %steal   %idle
           3.12    0.00    0.03    0.00    0.00   96.84

Device:         rrqm/s   wrqm/s     r/s     w/s    rkB/s    wkB/s avgrq-sz avgqu-sz   await r_await w_await  svctm  %util
nvme0n1           0.00     0.00    0.00    0.00     0.00     0.00     0.00     0.00    0.00    0.00    0.00   0.00   0.00
sda               0.00     0.00    0.00    0.00     0.00     0.00     0.00     0.00    0.00    0.00    0.00   0.00   0.00
sdc               0.00     0.00   46.00    0.00   184.00     0.00     8.00     0.36    7.87    7.87    0.00   7.91  36.40
sdb               0.00     0.00   43.00    0.00   172.00     0.00     8.00     0.32    7.42    7.42    0.00   7.42  31.90
sdd               0.00     0.00   39.00    0.00   156.00     0.00     8.00     0.31    8.05    8.05    0.00   7.97  31.10
md0               0.00     0.00  128.00    0.00   512.00     0.00     8.00     0.00    0.00    0.00    0.00   0.00   0.00

avg-cpu:  %user   %nice %system %iowait  %steal   %idle
           3.13    0.00    0.00    0.00    0.00   96.87

Device:         rrqm/s   wrqm/s     r/s     w/s    rkB/s    wkB/s avgrq-sz avgqu-sz   await r_await w_await  svctm  %util
nvme0n1           0.00     0.00    0.00    0.00     0.00     0.00     0.00     0.00    0.00    0.00    0.00   0.00   0.00
sda               0.00     0.99    0.00    1.98     0.00    11.88    12.00     0.00    0.00    0.00    0.00   0.00   0.00
sdc               0.00     0.00   36.63    0.00   146.53     0.00     8.00     0.30    8.16    8.16    0.00   8.27  30.30
sdb               0.00     0.00   41.58    0.00   166.34     0.00     8.00     0.34    8.12    8.12    0.00   8.12  33.76
sdd               0.00     0.00   45.54    0.00   182.18     0.00     8.00     0.34    7.41    7.41    0.00   7.41  33.76
md0               0.00     0.00  123.76    0.00   495.05     0.00     8.00     0.00    0.00    0.00    0.00   0.00   0.00

avg-cpu:  %user   %nice %system %iowait  %steal   %idle
           3.12    0.00    0.03    0.03    0.00   96.81

Device:         rrqm/s   wrqm/s     r/s     w/s    rkB/s    wkB/s avgrq-sz avgqu-sz   await r_await w_await  svctm  %util
nvme0n1           0.00     0.00    0.00    0.00     0.00     0.00     0.00     0.00    0.00    0.00    0.00   0.00   0.00
sda               0.00     0.00    0.00    0.00     0.00     0.00     0.00     0.00    0.00    0.00    0.00   0.00   0.00
sdc               0.00     0.00   49.00    0.00   196.00     0.00     8.00     0.38    7.86    7.86    0.00   7.73  37.90
sdb               0.00     0.00   25.00    0.00   100.00     0.00     8.00     0.20    7.96    7.96    0.00   7.96  19.90
sdd               0.00     0.00   47.00    0.00   188.00     0.00     8.00     0.42    8.74    8.74    0.00   8.83  41.50
md0               0.00     0.00  121.00    0.00   484.00     0.00     8.00     0.00    0.00    0.00    0.00   0.00   0.00

avg-cpu:  %user   %nice %system %iowait  %steal   %idle
           3.13    0.00    0.00    0.03    0.00   96.84

Device:         rrqm/s   wrqm/s     r/s     w/s    rkB/s    wkB/s avgrq-sz avgqu-sz   await r_await w_await  svctm  %util
nvme0n1           0.00     0.00    0.00    0.00     0.00     0.00     0.00     0.00    0.00    0.00    0.00   0.00   0.00
sda               0.00     0.00    0.00    0.00     0.00     0.00     0.00     0.00    0.00    0.00    0.00   0.00   0.00
sdc               0.00     0.00   35.00    0.00   140.00     0.00     8.00     0.29    8.37    8.37    0.00   8.37  29.30
sdb               0.00     0.00   39.00    0.00   156.00     0.00     8.00     0.33    8.28    8.28    0.00   8.33  32.50
sdd               0.00     0.00   50.00    0.00   200.00     0.00     8.00     0.38    7.58    7.58    0.00   7.50  37.50
md0               0.00     0.00  124.00    0.00   496.00     0.00     8.00     0.00    0.00    0.00    0.00   0.00   0.00

avg-cpu:  %user   %nice %system %iowait  %steal   %idle
           3.12    0.00    0.03    0.06    0.00   96.78

Device:         rrqm/s   wrqm/s     r/s     w/s    rkB/s    wkB/s avgrq-sz avgqu-sz   await r_await w_await  svctm  %util
nvme0n1           0.00     0.00    0.00    0.00     0.00     0.00     0.00     0.00    0.00    0.00    0.00   0.00   0.00
sda               0.00     0.00    0.00    0.00     0.00     0.00     0.00     0.00    0.00    0.00    0.00   0.00   0.00
sdc               0.00     0.00   39.00    0.00   156.00     0.00     8.00     0.34    8.59    8.59    0.00   8.59  33.50
sdb               0.00     0.00   39.00    0.00   156.00     0.00     8.00     0.31    7.72    7.72    0.00   7.85  30.60
sdd               0.00     0.00   44.00    0.00   176.00     0.00     8.00     0.35    7.98    7.98    0.00   7.98  35.10
md0               0.00     0.00  122.00    0.00   488.00     0.00     8.00     0.00    0.00    0.00    0.00   0.00   0.00

avg-cpu:  %user   %nice %system %iowait  %steal   %idle
           3.12    0.00    0.00    0.00    0.00   96.88

Device:         rrqm/s   wrqm/s     r/s     w/s    rkB/s    wkB/s avgrq-sz avgqu-sz   await r_await w_await  svctm  %util
nvme0n1           0.00     0.00    0.00    0.00     0.00     0.00     0.00     0.00    0.00    0.00    0.00   0.00   0.00
sda               0.00     0.00    0.00    0.00     0.00     0.00     0.00     0.00    0.00    0.00    0.00   0.00   0.00
sdc               0.00     0.00   36.00    0.00   144.00     0.00     8.00     0.29    8.03    8.03    0.00   8.03  28.90
sdb               0.00     0.00   46.00    0.00   184.00     0.00     8.00     0.37    8.02    8.02    0.00   7.98  36.70
sdd               0.00     0.00   41.00    0.00   164.00     0.00     8.00     0.34    8.29    8.29    0.00   8.29  34.00
md0               0.00     0.00  123.00    0.00   492.00     0.00     8.00     0.00    0.00    0.00    0.00   0.00   0.00

avg-cpu:  %user   %nice %system %iowait  %steal   %idle
           3.12    0.00    0.03    0.00    0.00   96.84

Device:         rrqm/s   wrqm/s     r/s     w/s    rkB/s    wkB/s avgrq-sz avgqu-sz   await r_await w_await  svctm  %util
nvme0n1           0.00     0.00    0.00    0.00     0.00     0.00     0.00     0.00    0.00    0.00    0.00   0.00   0.00
sda               0.00     1.00    0.00    2.00     0.00    12.00    12.00     0.00    0.00    0.00    0.00   0.00   0.00
sdc               0.00     0.00   37.00    0.00   148.00     0.00     8.00     0.30    8.00    8.00    0.00   8.11  30.00
sdb               0.00     0.00   45.00    0.00   180.00     0.00     8.00     0.36    8.18    8.18    0.00   8.07  36.30
sdd               0.00     0.00   42.00    0.00   168.00     0.00     8.00     0.33    7.83    7.83    0.00   7.83  32.90
md0               0.00     0.00  124.00    0.00   496.00     0.00     8.00     0.00    0.00    0.00    0.00   0.00   0.00

avg-cpu:  %user   %nice %system %iowait  %steal   %idle
           3.10    0.00    0.00    0.00    0.00   96.90

Device:         rrqm/s   wrqm/s     r/s     w/s    rkB/s    wkB/s avgrq-sz avgqu-sz   await r_await w_await  svctm  %util
nvme0n1           0.00     0.00    0.00    0.00     0.00     0.00     0.00     0.00    0.00    0.00    0.00   0.00   0.00
sda               0.00     0.00    0.00    0.00     0.00     0.00     0.00     0.00    0.00    0.00    0.00   0.00   0.00
sdc               0.00     0.00   44.00    0.00   176.00     0.00     8.00     0.34    7.86    7.86    0.00   7.82  34.40
sdb               0.00     0.00   41.00    0.00   164.00     0.00     8.00     0.32    7.83    7.83    0.00   7.83  32.10
sdd               0.00     0.00   43.00    0.00   172.00     0.00     8.00     0.33    7.63    7.63    0.00   7.63  32.80
md0               0.00     0.00  128.00    0.00   512.00     0.00     8.00     0.00    0.00    0.00    0.00   0.00   0.00

avg-cpu:  %user   %nice %system %iowait  %steal   %idle
           3.12    0.00    0.03    0.03    0.00   96.81

Device:         rrqm/s   wrqm/s     r/s     w/s    rkB/s    wkB/s avgrq-sz avgqu-sz   await r_await w_await  svctm  %util
nvme0n1           0.00     0.00    0.00    0.00     0.00     0.00     0.00     0.00    0.00    0.00    0.00   0.00   0.00
sda               0.00     0.00    0.00    0.00     0.00     0.00     0.00     0.00    0.00    0.00    0.00   0.00   0.00
sdc               0.00     0.00   39.00    0.00   156.00     0.00     8.00     0.31    7.97    7.97    0.00   7.92  30.90
sdb               0.00     0.00   41.00    0.00   164.00     0.00     8.00     0.34    8.27    8.27    0.00   8.27  33.90
sdd               0.00     0.00   44.00    0.00   176.00     0.00     8.00     0.35    7.84    7.84    0.00   7.93  34.90
md0               0.00     0.00  124.00    0.00   496.00     0.00     8.00     0.00    0.00    0.00    0.00   0.00   0.00

avg-cpu:  %user   %nice %system %iowait  %steal   %idle
           3.13    0.00    0.00    0.03    0.00   96.84

Device:         rrqm/s   wrqm/s     r/s     w/s    rkB/s    wkB/s avgrq-sz avgqu-sz   await r_await w_await  svctm  %util
nvme0n1           0.00     0.00    0.00    0.00     0.00     0.00     0.00     0.00    0.00    0.00    0.00   0.00   0.00
sda               0.00     2.00    2.00    3.00     8.00    36.00    17.60     0.00    0.00    0.00    0.00   0.00   0.00
sdc               0.00     0.00   43.00    0.00   172.00     0.00     8.00     0.34    7.84    7.84    0.00   8.00  34.40
sdb               0.00     0.00   47.00    0.00   188.00     0.00     8.00     0.36    7.72    7.72    0.00   7.72  36.30
sdd               0.00     0.00   41.00    0.00   164.00     0.00     8.00     0.29    7.07    7.07    0.00   6.98  28.60
md0               0.00     0.00  131.00    0.00   524.00     0.00     8.00     0.00    0.00    0.00    0.00   0.00   0.00

avg-cpu:  %user   %nice %system %iowait  %steal   %idle
           3.12    0.00    0.03    0.00    0.00   96.84

Device:         rrqm/s   wrqm/s     r/s     w/s    rkB/s    wkB/s avgrq-sz avgqu-sz   await r_await w_await  svctm  %util
nvme0n1           0.00     0.00    0.00    0.00     0.00     0.00     0.00     0.00    0.00    0.00    0.00   0.00   0.00
sda               0.00     0.00    0.00    0.00     0.00     0.00     0.00     0.00    0.00    0.00    0.00   0.00   0.00
sdc               0.00     0.00   34.00    0.00   136.00     0.00     8.00     0.29    8.62    8.62    0.00   8.41  28.60
sdb               0.00     0.00   48.00    0.00   192.00     0.00     8.00     0.35    7.31    7.31    0.00   7.31  35.10
sdd               0.00     0.00   45.00    0.00   180.00     0.00     8.00     0.35    7.84    7.84    0.00   7.84  35.30
md0               0.00     0.00  127.00    0.00   508.00     0.00     8.00     0.00    0.00    0.00    0.00   0.00   0.00

avg-cpu:  %user   %nice %system %iowait  %steal   %idle
           3.12    0.00    0.00    0.00    0.00   96.88

Device:         rrqm/s   wrqm/s     r/s     w/s    rkB/s    wkB/s avgrq-sz avgqu-sz   await r_await w_await  svctm  %util
nvme0n1           0.00     0.00    0.00    0.00     0.00     0.00     0.00     0.00    0.00    0.00    0.00   0.00   0.00
sda               0.00     6.00    0.00    2.00     0.00    32.00    32.00     0.00    0.00    0.00    0.00   0.00   0.00
sdc               0.00     0.00   34.00    0.00   136.00     0.00     8.00     0.29    8.56    8.56    0.00   8.56  29.10
sdb               0.00     0.00   48.00    0.00   192.00     0.00     8.00     0.36    7.58    7.58    0.00   7.58  36.40
sdd               0.00     0.00   40.00    0.00   160.00     0.00     8.00     0.34    8.38    8.38    0.00   8.43  33.70
md0               0.00     0.00  122.00    0.00   488.00     0.00     8.00     0.00    0.00    0.00    0.00   0.00   0.00

avg-cpu:  %user   %nice %system %iowait  %steal   %idle
           3.13    0.00    0.03    0.03    0.00   96.81

Device:         rrqm/s   wrqm/s     r/s     w/s    rkB/s    wkB/s avgrq-sz avgqu-sz   await r_await w_await  svctm  %util
nvme0n1           0.00     0.00    0.00    0.00     0.00     0.00     0.00     0.00    0.00    0.00    0.00   0.00   0.00
sda               0.00     0.00    0.00    0.00     0.00     0.00     0.00     0.00    0.00    0.00    0.00   0.00   0.00
sdc               0.00     0.00   39.00    0.00   156.00     0.00     8.00     0.32    8.28    8.28    0.00   8.28  32.30
sdb               0.00     0.00   46.00    0.00   184.00     0.00     8.00     0.37    8.07    8.07    0.00   8.09  37.20
sdd               0.00     0.00   42.00    0.00   168.00     0.00     8.00     0.30    7.10    7.10    0.00   7.05  29.60
md0               0.00     0.00  127.00    0.00   508.00     0.00     8.00     0.00    0.00    0.00    0.00   0.00   0.00

avg-cpu:  %user   %nice %system %iowait  %steal   %idle
           3.12    0.00    0.00    0.03    0.00   96.84

Device:         rrqm/s   wrqm/s     r/s     w/s    rkB/s    wkB/s avgrq-sz avgqu-sz   await r_await w_await  svctm  %util
nvme0n1           0.00     0.00    0.00    0.00     0.00     0.00     0.00     0.00    0.00    0.00    0.00   0.00   0.00
sda               0.00     0.00    0.00    0.00     0.00     0.00     0.00     0.00    0.00    0.00    0.00   0.00   0.00
sdc               0.00     0.00   42.00    0.00   168.00     0.00     8.00     0.34    8.02    8.02    0.00   8.00  33.60
sdb               0.00     0.00   49.00    0.00   196.00     0.00     8.00     0.42    8.53    8.53    0.00   8.57  42.00
sdd               0.00     0.00   30.00    0.00   120.00     0.00     8.00     0.24    7.87    7.87    0.00   7.87  23.60
md0               0.00     0.00  121.00    0.00   484.00     0.00     8.00     0.00    0.00    0.00    0.00   0.00   0.00

avg-cpu:  %user   %nice %system %iowait  %steal   %idle
           3.13    0.00    0.00    0.03    0.00   96.84

Device:         rrqm/s   wrqm/s     r/s     w/s    rkB/s    wkB/s avgrq-sz avgqu-sz   await r_await w_await  svctm  %util
nvme0n1           0.00     0.00    0.00    0.00     0.00     0.00     0.00     0.00    0.00    0.00    0.00   0.00   0.00
sda               0.00     0.00    0.00    0.00     0.00     0.00     0.00     0.00    0.00    0.00    0.00   0.00   0.00
sdc               0.00     0.00   42.00    0.00   168.00     0.00     8.00     0.36    8.60    8.60    0.00   8.60  36.10
sdb               0.00     0.00   41.00    0.00   164.00     0.00     8.00     0.31    7.54    7.54    0.00   7.46  30.60
sdd               0.00     0.00   40.00    0.00   160.00     0.00     8.00     0.32    8.00    8.00    0.00   8.07  32.30
md0               0.00     0.00  123.00    0.00   492.00     0.00     8.00     0.00    0.00    0.00    0.00   0.00   0.00

