Linux 4.17.2 (bench2) 	08/03/2018 	_x86_64_	(32 CPU)

avg-cpu:  %user   %nice %system %iowait  %steal   %idle
           1.92    0.00    1.57    1.52    0.00   94.99

Device:         rrqm/s   wrqm/s     r/s     w/s    rkB/s    wkB/s avgrq-sz avgqu-sz   await r_await w_await  svctm  %util
nvme0n1         953.15     5.18 19215.03  529.05 107480.89 11931.64    12.10     1.37    0.05    0.03    0.67   0.02  40.22
sda               0.11     0.81   14.13    0.57   163.93     8.51    23.45     0.00    0.33    0.32    0.45   0.07   0.10
sdc              32.66     0.14  108.23    0.30  1634.47    82.81    31.65     1.50   13.79   12.80  373.51   0.93  10.14
sdb              30.59     0.15  110.26    0.32  1632.58    82.63    31.02     0.38    3.43    2.29  394.60   0.87   9.64
sdd              32.86     0.13  107.77    0.25  1630.50    82.30    31.71     0.66    6.14    4.35  782.19   0.94  10.14
md0               0.00     0.00  425.25    1.07  6045.92   290.14    29.72     0.00    0.00    0.00    0.00   0.00   0.00

avg-cpu:  %user   %nice %system %iowait  %steal   %idle
           3.09    0.00    0.06    3.06    0.00   93.78

Device:         rrqm/s   wrqm/s     r/s     w/s    rkB/s    wkB/s avgrq-sz avgqu-sz   await r_await w_await  svctm  %util
nvme0n1           0.00     0.00    0.00    0.00     0.00     0.00     0.00     0.00    0.00    0.00    0.00   0.00   0.00
sda               0.00     0.00    4.00    0.00   104.00     0.00    52.00     0.00    0.25    0.25    0.00   0.25   0.10
sdc               0.00     0.00  143.00    0.00   572.00     0.00     8.00     0.31    2.14    2.14    0.00   2.17  31.00
sdb               0.00     0.00  142.00    0.00   624.00     0.00     8.79     0.33    2.30    2.30    0.00   2.30  32.60
sdd               0.00     0.00  164.00    0.00   740.00     0.00     9.02     0.35    2.15    2.15    0.00   2.15  35.20
md0               0.00     0.00  450.00    0.00  1944.00     0.00     8.64     0.00    0.00    0.00    0.00   0.00   0.00

avg-cpu:  %user   %nice %system %iowait  %steal   %idle
           3.13    0.00    0.03    3.06    0.00   93.78

Device:         rrqm/s   wrqm/s     r/s     w/s    rkB/s    wkB/s avgrq-sz avgqu-sz   await r_await w_await  svctm  %util
nvme0n1           0.00     0.00    0.00    0.00     0.00     0.00     0.00     0.00    0.00    0.00    0.00   0.00   0.00
sda               0.00     0.00    0.00    0.00     0.00     0.00     0.00     0.00    0.00    0.00    0.00   0.00   0.00
sdc               0.00     0.00  164.00    0.00   740.00     0.00     9.02     0.33    2.05    2.05    0.00   2.02  33.20
sdb               0.00     0.00  125.00    0.00   608.00     0.00     9.73     0.42    3.31    3.31    0.00   3.32  41.50
sdd               0.00     0.00  153.00    0.00   744.00     0.00     9.73     0.24    1.58    1.58    0.00   1.57  24.00
md0               0.00     0.00  442.00    0.00  2096.00     0.00     9.48     0.00    0.00    0.00    0.00   0.00   0.00

avg-cpu:  %user   %nice %system %iowait  %steal   %idle
           3.09    0.00    0.06    3.09    0.00   93.75

Device:         rrqm/s   wrqm/s     r/s     w/s    rkB/s    wkB/s avgrq-sz avgqu-sz   await r_await w_await  svctm  %util
nvme0n1           0.00     0.00    0.00    0.00     0.00     0.00     0.00     0.00    0.00    0.00    0.00   0.00   0.00
sda               0.00     0.00    0.00    0.00     0.00     0.00     0.00     0.00    0.00    0.00    0.00   0.00   0.00
sdc               0.00     0.00  151.00    0.00   628.00     0.00     8.32     0.36    2.31    2.31    0.00   2.36  35.60
sdb               0.00     0.00  138.00    0.00   612.00     0.00     8.87     0.38    2.77    2.77    0.00   2.76  38.10
sdd               0.00     0.00  153.00    0.00   624.00     0.00     8.16     0.25    1.63    1.63    0.00   1.63  25.00
md0               0.00     0.00  442.00    0.00  1864.00     0.00     8.43     0.00    0.00    0.00    0.00   0.00   0.00

avg-cpu:  %user   %nice %system %iowait  %steal   %idle
           3.13    0.00    0.00    3.09    0.00   93.78

Device:         rrqm/s   wrqm/s     r/s     w/s    rkB/s    wkB/s avgrq-sz avgqu-sz   await r_await w_await  svctm  %util
nvme0n1           0.00     0.00    0.00    0.00     0.00     0.00     0.00     0.00    0.00    0.00    0.00   0.00   0.00
sda               0.00     0.00    0.00    0.00     0.00     0.00     0.00     0.00    0.00    0.00    0.00   0.00   0.00
sdc               0.00     0.00  137.00    0.00   576.00     0.00     8.41     0.41    3.04    3.04    0.00   3.00  41.10
sdb               0.00     0.00  149.00    0.00   656.00     0.00     8.81     0.29    1.93    1.93    0.00   1.93  28.80
sdd               0.00     0.00  147.00    0.00   624.00     0.00     8.49     0.29    2.00    2.00    0.00   2.00  29.40
md0               0.00     0.00  433.00    0.00  1856.00     0.00     8.57     0.00    0.00    0.00    0.00   0.00   0.00

avg-cpu:  %user   %nice %system %iowait  %steal   %idle
           3.16    0.00    0.03    3.06    0.00   93.75

Device:         rrqm/s   wrqm/s     r/s     w/s    rkB/s    wkB/s avgrq-sz avgqu-sz   await r_await w_await  svctm  %util
nvme0n1           0.00     0.00    0.00    0.00     0.00     0.00     0.00     0.00    0.00    0.00    0.00   0.00   0.00
sda               0.00     7.00    0.00    2.00     0.00    36.00    36.00     0.00    0.50    0.00    0.50   0.50   0.10
sdc               0.00     0.00  141.00    0.00   600.00     0.00     8.51     0.32    2.28    2.28    0.00   2.27  32.00
sdb               0.00     0.00  144.00    0.00   816.00     0.00    11.33     0.40    2.78    2.78    0.00   2.78  40.10
sdd               0.00     0.00  166.00    0.00   880.00     0.00    10.60     0.28    1.66    1.66    0.00   1.66  27.60
md0               0.00     0.00  451.00    0.00  2516.00     0.00    11.16     0.00    0.00    0.00    0.00   0.00   0.00

avg-cpu:  %user   %nice %system %iowait  %steal   %idle
           3.12    0.00    0.06    3.09    0.00   93.72

Device:         rrqm/s   wrqm/s     r/s     w/s    rkB/s    wkB/s avgrq-sz avgqu-sz   await r_await w_await  svctm  %util
nvme0n1           0.00     0.00    0.00    0.00     0.00     0.00     0.00     0.00    0.00    0.00    0.00   0.00   0.00
sda               0.00     4.00    0.00   24.00     0.00   132.00    11.00     0.00    0.00    0.00    0.00   0.00   0.00
sdc               0.00     0.00  143.00    0.00   620.00     0.00     8.67     0.46    3.18    3.18    0.00   3.18  45.50
sdb               0.00     0.00  134.00    0.00   548.00     0.00     8.18     0.18    1.33    1.33    0.00   1.32  17.70
sdd               0.00     0.00  134.00    0.00   568.00     0.00     8.48     0.35    2.63    2.63    0.00   2.65  35.50
md0               0.00     0.00  411.00    0.00  1748.00     0.00     8.51     0.00    0.00    0.00    0.00   0.00   0.00

avg-cpu:  %user   %nice %system %iowait  %steal   %idle
           3.09    0.00    0.06    3.06    0.00   93.78

Device:         rrqm/s   wrqm/s     r/s     w/s    rkB/s    wkB/s avgrq-sz avgqu-sz   await r_await w_await  svctm  %util
nvme0n1           0.00     0.00    0.00    0.00     0.00     0.00     0.00     0.00    0.00    0.00    0.00   0.00   0.00
sda               0.00     0.00    0.00    0.00     0.00     0.00     0.00     0.00    0.00    0.00    0.00   0.00   0.00
sdc               0.00     0.00  132.00    0.00   540.00     0.00     8.18     0.35    2.66    2.66    0.00   2.66  35.10
sdb               0.00     0.00  131.00    0.00   620.00     0.00     9.47     0.27    1.99    1.99    0.00   2.06  27.00
sdd               0.00     0.00  152.00    0.00   704.00     0.00     9.26     0.37    2.45    2.45    0.00   2.43  36.90
md0               0.00     0.00  415.00    0.00  1864.00     0.00     8.98     0.00    0.00    0.00    0.00   0.00   0.00

avg-cpu:  %user   %nice %system %iowait  %steal   %idle
           3.13    0.00    0.00    3.09    0.00   93.78

Device:         rrqm/s   wrqm/s     r/s     w/s    rkB/s    wkB/s avgrq-sz avgqu-sz   await r_await w_await  svctm  %util
nvme0n1           0.00     0.00    0.00    0.00     0.00     0.00     0.00     0.00    0.00    0.00    0.00   0.00   0.00
sda               0.00     0.00    0.00    0.00     0.00     0.00     0.00     0.00    0.00    0.00    0.00   0.00   0.00
sdc               0.00     0.00  125.00    0.00   512.00     0.00     8.19     0.50    3.99    3.99    0.00   3.99  49.90
sdb               0.00     0.00  132.00    0.00   552.00     0.00     8.36     0.19    1.54    1.54    0.00   1.47  19.40
sdd               0.00     0.00  128.00    0.00   620.00     0.00     9.69     0.30    2.35    2.35    0.00   2.38  30.40
md0               0.00     0.00  385.00    0.00  1684.00     0.00     8.75     0.00    0.00    0.00    0.00   0.00   0.00

avg-cpu:  %user   %nice %system %iowait  %steal   %idle
           3.12    0.00    0.03    3.09    0.00   93.75

Device:         rrqm/s   wrqm/s     r/s     w/s    rkB/s    wkB/s avgrq-sz avgqu-sz   await r_await w_await  svctm  %util
nvme0n1           0.00     0.00    0.00    0.00     0.00     0.00     0.00     0.00    0.00    0.00    0.00   0.00   0.00
sda               0.00     0.00    0.00    0.00     0.00     0.00     0.00     0.00    0.00    0.00    0.00   0.00   0.00
sdc               0.00     0.00  155.00    0.00   688.00     0.00     8.88     0.34    2.21    2.21    0.00   2.21  34.30
sdb               0.00     0.00  135.00    0.00   552.00     0.00     8.18     0.29    2.12    2.12    0.00   2.13  28.70
sdd               0.00     0.00  164.00    0.00   680.00     0.00     8.29     0.36    2.20    2.20    0.00   2.18  35.70
md0               0.00     0.00  454.00    0.00  1932.00     0.00     8.51     0.00    0.00    0.00    0.00   0.00   0.00

avg-cpu:  %user   %nice %system %iowait  %steal   %idle
           3.13    0.00    0.03    3.09    0.00   93.75

Device:         rrqm/s   wrqm/s     r/s     w/s    rkB/s    wkB/s avgrq-sz avgqu-sz   await r_await w_await  svctm  %util
nvme0n1           0.00     0.00    0.00    0.00     0.00     0.00     0.00     0.00    0.00    0.00    0.00   0.00   0.00
sda               0.00     0.00    0.00    0.00     0.00     0.00     0.00     0.00    0.00    0.00    0.00   0.00   0.00
sdc               0.00     0.00  130.00    0.00   556.00     0.00     8.55     0.33    2.54    2.54    0.00   2.54  33.00
sdb               0.00     0.00  142.00    0.00   628.00     0.00     8.85     0.33    2.31    2.31    0.00   2.30  32.70
sdd               0.00     0.00  162.00    0.00   708.00     0.00     8.74     0.33    2.02    2.02    0.00   2.06  33.40
md0               0.00     0.00  434.00    0.00  1892.00     0.00     8.72     0.00    0.00    0.00    0.00   0.00   0.00

avg-cpu:  %user   %nice %system %iowait  %steal   %idle
           3.13    0.00    0.03    3.06    0.00   93.78

Device:         rrqm/s   wrqm/s     r/s     w/s    rkB/s    wkB/s avgrq-sz avgqu-sz   await r_await w_await  svctm  %util
nvme0n1           0.00     0.00    0.00    0.00     0.00     0.00     0.00     0.00    0.00    0.00    0.00   0.00   0.00
sda               0.00     4.00    0.00    2.00     0.00    24.00    24.00     0.00    0.00    0.00    0.00   0.00   0.00
sdc               0.00     0.00  173.00    0.00   800.00     0.00     9.25     0.29    1.66    1.66    0.00   1.66  28.80
sdb               0.00     0.00  146.00    0.00   596.00     0.00     8.16     0.27    1.86    1.86    0.00   1.87  27.30
sdd               0.00     0.00  137.00    0.00   548.00     0.00     8.00     0.43    3.18    3.18    0.00   3.12  42.80
md0               0.00     0.00  456.00    0.00  1944.00     0.00     8.53     0.00    0.00    0.00    0.00   0.00   0.00

avg-cpu:  %user   %nice %system %iowait  %steal   %idle
           3.13    0.00    0.00    3.09    0.00   93.78

Device:         rrqm/s   wrqm/s     r/s     w/s    rkB/s    wkB/s avgrq-sz avgqu-sz   await r_await w_await  svctm  %util
nvme0n1           0.00     0.00    0.00    0.00     0.00     0.00     0.00     0.00    0.00    0.00    0.00   0.00   0.00
sda               0.00     0.00    0.00    0.00     0.00     0.00     0.00     0.00    0.00    0.00    0.00   0.00   0.00
sdc               0.00     0.00  146.00    0.00   584.00     0.00     8.00     0.26    1.78    1.78    0.00   1.78  26.00
sdb               0.00     0.00  140.00    0.00   656.00     0.00     9.37     0.38    2.76    2.76    0.00   2.74  38.40
sdd               0.00     0.00  119.00    0.00   536.00     0.00     9.01     0.35    2.97    2.97    0.00   2.98  35.50
md0               0.00     0.00  405.00    0.00  1776.00     0.00     8.77     0.00    0.00    0.00    0.00   0.00   0.00

avg-cpu:  %user   %nice %system %iowait  %steal   %idle
           3.12    0.00    0.06    3.06    0.00   93.75

Device:         rrqm/s   wrqm/s     r/s     w/s    rkB/s    wkB/s avgrq-sz avgqu-sz   await r_await w_await  svctm  %util
nvme0n1           0.00     0.00    0.00    0.00     0.00     0.00     0.00     0.00    0.00    0.00    0.00   0.00   0.00
sda               0.00     0.00    0.00    0.00     0.00     0.00     0.00     0.00    0.00    0.00    0.00   0.00   0.00
sdc               0.00     0.00  149.00    0.00   620.00     0.00     8.32     0.25    1.66    1.66    0.00   1.67  24.90
sdb               0.00     0.00  143.00    0.00   608.00     0.00     8.50     0.22    1.53    1.53    0.00   1.53  21.90
sdd               0.00     0.00  160.00    0.00   640.00     0.00     8.00     0.52    3.24    3.24    0.00   3.24  51.80
md0               0.00     0.00  452.00    0.00  1868.00     0.00     8.27     0.00    0.00    0.00    0.00   0.00   0.00

avg-cpu:  %user   %nice %system %iowait  %steal   %idle
           3.12    0.00    0.03    3.09    0.00   93.75

Device:         rrqm/s   wrqm/s     r/s     w/s    rkB/s    wkB/s avgrq-sz avgqu-sz   await r_await w_await  svctm  %util
nvme0n1           0.00     0.00    0.00    0.00     0.00     0.00     0.00     0.00    0.00    0.00    0.00   0.00   0.00
sda               0.00     0.00    0.00    0.00     0.00     0.00     0.00     0.00    0.00    0.00    0.00   0.00   0.00
sdc               0.00     0.00  149.00    0.00   620.00     0.00     8.32     0.27    1.79    1.79    0.00   1.81  27.00
sdb               0.00     0.00  159.00    0.00   672.00     0.00     8.45     0.37    2.31    2.31    0.00   2.31  36.70
sdd               0.00     0.00  160.00    0.00   736.00     0.00     9.20     0.35    2.21    2.21    0.00   2.20  35.20
md0               0.00     0.00  468.00    0.00  2028.00     0.00     8.67     0.00    0.00    0.00    0.00   0.00   0.00

avg-cpu:  %user   %nice %system %iowait  %steal   %idle
           3.09    0.00    0.06    3.09    0.00   93.75

Device:         rrqm/s   wrqm/s     r/s     w/s    rkB/s    wkB/s avgrq-sz avgqu-sz   await r_await w_await  svctm  %util
nvme0n1           0.00     0.00    0.00    0.00     0.00     0.00     0.00     0.00    0.00    0.00    0.00   0.00   0.00
sda               0.00     0.00    0.00    0.00     0.00     0.00     0.00     0.00    0.00    0.00    0.00   0.00   0.00
sdc               0.00     0.00  146.00    0.00   620.00     0.00     8.49     0.47    3.22    3.22    0.00   3.18  46.50
sdb               0.00     0.00  156.00    0.00   696.00     0.00     8.92     0.21    1.33    1.33    0.00   1.33  20.70
sdd               0.00     0.00  166.00    0.00   688.00     0.00     8.29     0.32    1.92    1.92    0.00   1.92  31.90
md0               0.00     0.00  468.00    0.00  2004.00     0.00     8.56     0.00    0.00    0.00    0.00   0.00   0.00

avg-cpu:  %user   %nice %system %iowait  %steal   %idle
           3.16    0.00    0.00    3.06    0.00   93.78

Device:         rrqm/s   wrqm/s     r/s     w/s    rkB/s    wkB/s avgrq-sz avgqu-sz   await r_await w_await  svctm  %util
nvme0n1           0.00     0.00    0.00    0.00     0.00     0.00     0.00     0.00    0.00    0.00    0.00   0.00   0.00
sda               0.00     1.00    0.00    2.00     0.00    12.00    12.00     0.00    0.00    0.00    0.00   0.00   0.00
sdc               0.00     0.00  122.00    0.00   524.00     0.00     8.59     0.36    2.96    2.96    0.00   2.96  36.10
sdb               0.00     0.00  158.00    0.00   680.00     0.00     8.61     0.28    1.75    1.75    0.00   1.75  27.60
sdd               0.00     0.00  133.00    0.00   568.00     0.00     8.54     0.36    2.69    2.69    0.00   2.69  35.80
md0               0.00     0.00  413.00    0.00  1772.00     0.00     8.58     0.00    0.00    0.00    0.00   0.00   0.00

avg-cpu:  %user   %nice %system %iowait  %steal   %idle
           3.09    0.00    0.03    3.09    0.00   93.78

Device:         rrqm/s   wrqm/s     r/s     w/s    rkB/s    wkB/s avgrq-sz avgqu-sz   await r_await w_await  svctm  %util
nvme0n1           0.00     0.00    0.00    0.00     0.00     0.00     0.00     0.00    0.00    0.00    0.00   0.00   0.00
sda               0.00     0.00    0.00    0.00     0.00     0.00     0.00     0.00    0.00    0.00    0.00   0.00   0.00
sdc               0.00     0.00  147.00    0.00   684.00     0.00     9.31     0.38    2.55    2.55    0.00   2.55  37.50
sdb               0.00     0.00  164.00    0.00   692.00     0.00     8.44     0.36    2.19    2.19    0.00   2.19  35.90
sdd               0.00     0.00  142.00    0.00   616.00     0.00     8.68     0.26    1.81    1.81    0.00   1.81  25.70
md0               0.00     0.00  453.00    0.00  1992.00     0.00     8.79     0.00    0.00    0.00    0.00   0.00   0.00

avg-cpu:  %user   %nice %system %iowait  %steal   %idle
           3.13    0.00    0.03    3.06    0.00   93.78

Device:         rrqm/s   wrqm/s     r/s     w/s    rkB/s    wkB/s avgrq-sz avgqu-sz   await r_await w_await  svctm  %util
nvme0n1           0.00     0.00    0.00    0.00     0.00     0.00     0.00     0.00    0.00    0.00    0.00   0.00   0.00
sda               0.00     0.00    0.00    0.00     0.00     0.00     0.00     0.00    0.00    0.00    0.00   0.00   0.00
sdc               0.00     0.00  146.00    0.00   632.00     0.00     8.66     0.27    1.84    1.84    0.00   1.84  26.80
sdb               0.00     0.00  157.00    0.00   652.00     0.00     8.31     0.34    2.15    2.15    0.00   2.16  33.90
sdd               0.00     0.00  158.00    0.00   668.00     0.00     8.46     0.38    2.42    2.42    0.00   2.42  38.30
md0               0.00     0.00  461.00    0.00  1952.00     0.00     8.47     0.00    0.00    0.00    0.00   0.00   0.00

avg-cpu:  %user   %nice %system %iowait  %steal   %idle
           3.12    0.00    0.03    3.09    0.00   93.75

Device:         rrqm/s   wrqm/s     r/s     w/s    rkB/s    wkB/s avgrq-sz avgqu-sz   await r_await w_await  svctm  %util
nvme0n1           0.00     0.00    0.00    0.00     0.00     0.00     0.00     0.00    0.00    0.00    0.00   0.00   0.00
sda               0.00     0.00    0.00    0.00     0.00     0.00     0.00     0.00    0.00    0.00    0.00   0.00   0.00
sdc               0.00     0.00  145.00    0.00   600.00     0.00     8.28     0.27    1.87    1.87    0.00   1.87  27.10
sdb               0.00     0.00  160.00    0.00  1000.00     0.00    12.50     0.35    2.22    2.22    0.00   2.21  35.40
sdd               0.00     0.00  142.00    0.00   568.00     0.00     8.00     0.36    2.57    2.57    0.00   2.57  36.50
md0               0.00     0.00  447.00    0.00  2184.00     0.00     9.77     0.00    0.00    0.00    0.00   0.00   0.00

avg-cpu:  %user   %nice %system %iowait  %steal   %idle
           3.13    0.00    0.00    3.09    0.00   93.78

Device:         rrqm/s   wrqm/s     r/s     w/s    rkB/s    wkB/s avgrq-sz avgqu-sz   await r_await w_await  svctm  %util
nvme0n1           0.00     0.00    0.00    0.00     0.00     0.00     0.00     0.00    0.00    0.00    0.00   0.00   0.00
sda               0.00     0.00    0.00    0.00     0.00     0.00     0.00     0.00    0.00    0.00    0.00   0.00   0.00
sdc               0.00     0.00  173.00    0.00   716.00     0.00     8.28     0.22    1.28    1.28    0.00   1.28  22.10
sdb               0.00     0.00  163.00    0.00   700.00     0.00     8.59     0.41    2.45    2.45    0.00   2.49  40.60
sdd               0.00     0.00  138.00    0.00   588.00     0.00     8.52     0.37    2.67    2.67    0.00   2.67  36.80
md0               0.00     0.00  474.00    0.00  2004.00     0.00     8.46     0.00    0.00    0.00    0.00   0.00   0.00

