Linux 4.17.2 (bench2) 	08/03/2018 	_x86_64_	(32 CPU)

avg-cpu:  %user   %nice %system %iowait  %steal   %idle
           1.92    0.00    1.58    1.51    0.00   94.99

Device:         rrqm/s   wrqm/s     r/s     w/s    rkB/s    wkB/s avgrq-sz avgqu-sz   await r_await w_await  svctm  %util
nvme0n1         954.84     5.19 19249.17  529.99 107671.83 11952.84    12.10     1.37    0.05    0.03    0.67   0.02  40.30
sda               0.11     0.81   14.13    0.57   163.92     8.51    23.46     0.00    0.33    0.32    0.45   0.07   0.10
sdc              32.62     0.14  107.21    0.30  1611.83    82.95    31.53     1.49   13.82   12.82  373.51   0.94  10.06
sdb              30.54     0.15  109.25    0.32  1609.96    82.77    30.90     0.37    3.34    2.20  394.60   0.87   9.56
sdd              32.82     0.13  106.76    0.25  1607.89    82.44    31.59     0.65    6.08    4.27  782.19   0.94  10.06
md0               0.00     0.00  422.07    1.07  5955.28   290.65    29.52     0.00    0.00    0.00    0.00   0.00   0.00

avg-cpu:  %user   %nice %system %iowait  %steal   %idle
           3.12    0.00    0.02    0.07    0.00   96.79

Device:         rrqm/s   wrqm/s     r/s     w/s    rkB/s    wkB/s avgrq-sz avgqu-sz   await r_await w_await  svctm  %util
nvme0n1           0.00     0.00    0.00    0.00     0.00     0.00     0.00     0.00    0.00    0.00    0.00   0.00   0.00
sda               0.00     1.35    0.20    1.50     5.20    12.40    20.71     0.00    0.03    0.25    0.00   0.03   0.01
sdc               0.00     0.00   42.80    0.00   171.20     0.00     8.00     0.34    7.99    7.99    0.00   7.99  34.20
sdb               0.00     0.00   39.85    0.00   159.40     0.00     8.00     0.32    7.97    7.97    0.00   7.98  31.80
sdd               0.00     0.00   42.60    0.00   170.40     0.00     8.00     0.33    7.84    7.84    0.00   7.84  33.39
md0               0.00     0.00  125.30    0.00   501.20     0.00     8.00     0.00    0.00    0.00    0.00   0.00   0.00

