Linux 4.17.2 (bench2) 	08/03/2018 	_x86_64_	(32 CPU)

avg-cpu:  %user   %nice %system %iowait  %steal   %idle
           1.92    0.00    1.58    1.51    0.00   94.99

Device:         rrqm/s   wrqm/s     r/s     w/s    rkB/s    wkB/s avgrq-sz avgqu-sz   await r_await w_await  svctm  %util
nvme0n1         955.34     5.19 19259.33  530.27 107728.69 11959.15    12.10     1.37    0.05    0.03    0.67   0.02  40.32
sda               0.11     0.81   14.13    0.57   163.92     8.50    23.46     0.00    0.33    0.32    0.45   0.07   0.10
sdc              32.63     0.14  106.91    0.30  1605.06    83.00    31.49     1.49   13.86   12.85  373.51   0.94  10.04
sdb              30.55     0.15  108.95    0.32  1603.19    82.82    30.86     0.37    3.35    2.20  394.60   0.87   9.54
sdd              32.82     0.13  106.45    0.25  1601.12    82.49    31.56     0.65    6.10    4.27  782.19   0.94  10.04
md0               0.00     0.00  421.19    1.07  5927.86   290.80    29.45     0.00    0.00    0.00    0.00   0.00   0.00

avg-cpu:  %user   %nice %system %iowait  %steal   %idle
           0.00    0.00    0.03    0.06    0.00   99.91

Device:         rrqm/s   wrqm/s     r/s     w/s    rkB/s    wkB/s avgrq-sz avgqu-sz   await r_await w_await  svctm  %util
nvme0n1           0.00     0.00    0.00    0.00     0.00     0.00     0.00     0.00    0.00    0.00    0.00   0.00   0.00
sda               0.00     1.00   18.00    7.00    76.00    32.00     8.64     0.00    0.00    0.00    0.00   0.00   0.00
sdc               0.00     0.00   83.00    0.00   332.00     0.00     8.00     1.68   19.48   19.48    0.00   8.48  70.40
sdb               0.00     0.00   85.00    0.00   340.00     0.00     8.00     1.48   17.54   17.54    0.00   7.59  64.50
sdd               0.00     0.00   61.00    0.00   244.00     0.00     8.00     0.97   15.89   15.89    0.00   8.07  49.20
md0               0.00     0.00  224.00    0.00   896.00     0.00     8.00     0.00    0.00    0.00    0.00   0.00   0.00

avg-cpu:  %user   %nice %system %iowait  %steal   %idle
           0.00    0.00    0.00    0.00    0.00  100.00

Device:         rrqm/s   wrqm/s     r/s     w/s    rkB/s    wkB/s avgrq-sz avgqu-sz   await r_await w_await  svctm  %util
nvme0n1           0.00     0.00    0.00    0.00     0.00     0.00     0.00     0.00    0.00    0.00    0.00   0.00   0.00
sda               0.00     8.00    0.00    2.00     0.00    40.00    40.00     0.00    0.00    0.00    0.00   0.00   0.00
sdc               0.00     0.00   89.00    0.00   356.00     0.00     8.00     1.55   17.88   17.88    0.00   7.60  67.60
sdb               0.00     0.00   77.00    0.00   308.00     0.00     8.00     1.35   17.29   17.29    0.00   8.13  62.60
sdd               0.00     0.00   71.00    0.00   284.00     0.00     8.00     1.09   15.23   15.23    0.00   7.75  55.00
md0               0.00     0.00  240.00    0.00   960.00     0.00     8.00     0.00    0.00    0.00    0.00   0.00   0.00

avg-cpu:  %user   %nice %system %iowait  %steal   %idle
           0.00    0.00    0.03    0.03    0.00   99.94

Device:         rrqm/s   wrqm/s     r/s     w/s    rkB/s    wkB/s avgrq-sz avgqu-sz   await r_await w_await  svctm  %util
nvme0n1           0.00     0.00    0.00    0.00     0.00     0.00     0.00     0.00    0.00    0.00    0.00   0.00   0.00
sda               0.00     0.00    0.00    0.00     0.00     0.00     0.00     0.00    0.00    0.00    0.00   0.00   0.00
sdc               0.00     0.00   81.00    0.00   324.00     0.00     8.00     1.41   17.51   17.51    0.00   7.90  64.00
sdb               0.00     0.00   89.00    0.00   356.00     0.00     8.00     1.61   18.28   18.28    0.00   7.92  70.50
sdd               0.00     0.00   64.00    0.00   256.00     0.00     8.00     1.08   16.33   16.33    0.00   8.12  52.00
md0               0.00     0.00  232.00    0.00   928.00     0.00     8.00     0.00    0.00    0.00    0.00   0.00   0.00

avg-cpu:  %user   %nice %system %iowait  %steal   %idle
           0.00    0.00    0.00    0.00    0.00  100.00

Device:         rrqm/s   wrqm/s     r/s     w/s    rkB/s    wkB/s avgrq-sz avgqu-sz   await r_await w_await  svctm  %util
nvme0n1           0.00     0.00    0.00    0.00     0.00     0.00     0.00     0.00    0.00    0.00    0.00   0.00   0.00
sda               0.00     0.00    0.00    0.00     0.00     0.00     0.00     0.00    0.00    0.00    0.00   0.00   0.00
sdc               0.00     0.00   77.00    0.00   308.00     0.00     8.00     1.35   17.35   17.35    0.00   7.94  61.10
sdb               0.00     0.00   75.00    0.00   300.00     0.00     8.00     1.19   15.89   15.89    0.00   7.67  57.50
sdd               0.00     0.00   88.00    0.00   352.00     0.00     8.00     1.57   18.00   18.00    0.00   7.66  67.40
md0               0.00     0.00  240.00    0.00   960.00     0.00     8.00     0.00    0.00    0.00    0.00   0.00   0.00

avg-cpu:  %user   %nice %system %iowait  %steal   %idle
           0.00    0.00    0.03    0.03    0.00   99.94

Device:         rrqm/s   wrqm/s     r/s     w/s    rkB/s    wkB/s avgrq-sz avgqu-sz   await r_await w_await  svctm  %util
nvme0n1           0.00     0.00    0.00    0.00     0.00     0.00     0.00     0.00    0.00    0.00    0.00   0.00   0.00
sda               0.00     0.00    0.00    0.00     0.00     0.00     0.00     0.00    0.00    0.00    0.00   0.00   0.00
sdc               0.00     0.00   97.00    0.00   388.00     0.00     8.00     1.75   18.01   18.01    0.00   7.87  76.30
sdb               0.00     0.00   79.00    0.00   316.00     0.00     8.00     1.24   15.63   15.63    0.00   7.47  59.00
sdd               0.00     0.00   75.00    0.00   300.00     0.00     8.00     1.12   15.35   15.35    0.00   7.85  58.90
md0               0.00     0.00  248.00    0.00   992.00     0.00     8.00     0.00    0.00    0.00    0.00   0.00   0.00

avg-cpu:  %user   %nice %system %iowait  %steal   %idle
           0.00    0.00    0.00    0.00    0.00  100.00

Device:         rrqm/s   wrqm/s     r/s     w/s    rkB/s    wkB/s avgrq-sz avgqu-sz   await r_await w_await  svctm  %util
nvme0n1           0.00     0.00    0.00    0.00     0.00     0.00     0.00     0.00    0.00    0.00    0.00   0.00   0.00
sda               0.00     1.00    0.00    3.00     0.00    48.00    32.00     0.00    0.00    0.00    0.00   0.00   0.00
sdc               0.00     0.00   86.00    0.00   344.00     0.00     8.00     1.34   15.90   15.90    0.00   7.71  66.30
sdb               0.00     0.00   85.00    0.00   340.00     0.00     8.00     1.56   17.94   17.94    0.00   7.92  67.30
sdd               0.00     0.00   75.00    0.00   300.00     0.00     8.00     1.34   17.69   17.69    0.00   8.15  61.10
md0               0.00     0.00  248.00    0.00   992.00     0.00     8.00     0.00    0.00    0.00    0.00   0.00   0.00

