Linux 4.17.2 (bench2) 	08/03/2018 	_x86_64_	(32 CPU)

avg-cpu:  %user   %nice %system %iowait  %steal   %idle
           1.92    0.00    1.58    1.50    0.00   95.00

Device:         rrqm/s   wrqm/s     r/s     w/s    rkB/s    wkB/s avgrq-sz avgqu-sz   await r_await w_await  svctm  %util
nvme0n1         958.80     5.21 19329.11  532.19 108119.00 12002.48    12.10     1.38    0.05    0.03    0.67   0.02  40.46
sda               0.11     0.81   14.11    0.57   163.86     8.50    23.48     0.00    0.33    0.32    0.45   0.07   0.10
sdc              32.17     0.14  104.40    0.30  1573.30    83.30    31.64     1.46   13.94   12.90  373.51   0.94   9.88
sdb              30.09     0.15  106.44    0.32  1571.45    83.12    30.99     0.34    3.15    1.97  394.60   0.88   9.39
sdd              32.37     0.13  103.94    0.25  1569.33    82.78    31.71     0.62    5.96    4.09  782.19   0.95   9.88
md0               0.00     0.00  412.31    1.07  5808.20   291.86    29.51     0.00    0.00    0.00    0.00   0.00   0.00

avg-cpu:  %user   %nice %system %iowait  %steal   %idle
           0.00    0.00    0.03    1.60    0.00   98.37

Device:         rrqm/s   wrqm/s     r/s     w/s    rkB/s    wkB/s avgrq-sz avgqu-sz   await r_await w_await  svctm  %util
nvme0n1           0.00     0.00    0.00    0.00     0.00     0.00     0.00     0.00    0.00    0.00    0.00   0.00   0.00
sda               0.00     0.00    4.00    0.00   104.00     0.00    52.00     0.00    0.00    0.00    0.00   0.00   0.00
sdc               2.00     0.00  250.00    0.00  1008.00     0.00     8.06    16.32   62.45   62.45    0.00   3.34  83.40
sdb               1.00     0.00  242.00    0.00   972.00     0.00     8.03    18.12   69.45   69.45    0.00   3.72  90.10
sdd               3.00     0.00  221.00    0.00   888.00     0.00     8.04    14.67   59.77   59.77    0.00   3.66  80.80
md0               0.00     0.00  793.00    0.00  3172.00     0.00     8.00     0.00    0.00    0.00    0.00   0.00   0.00

avg-cpu:  %user   %nice %system %iowait  %steal   %idle
           0.03    0.00    0.03    1.97    0.00   97.97

Device:         rrqm/s   wrqm/s     r/s     w/s    rkB/s    wkB/s avgrq-sz avgqu-sz   await r_await w_await  svctm  %util
nvme0n1           0.00     0.00    0.00    0.00     0.00     0.00     0.00     0.00    0.00    0.00    0.00   0.00   0.00
sda               0.00     0.00    0.00    0.00     0.00     0.00     0.00     0.00    0.00    0.00    0.00   0.00   0.00
sdc               0.00     0.00  236.00    0.00   944.00     0.00     8.00    13.29   59.32   59.32    0.00   3.37  79.60
sdb               0.00     0.00  256.00    0.00  1024.00     0.00     8.00    16.32   68.88   68.88    0.00   3.39  86.70
sdd               0.00     0.00  275.00    0.00  1108.00     0.00     8.06    17.70   69.12   69.12    0.00   3.30  90.80
md0               0.00     0.00  694.00    0.00  2776.00     0.00     8.00     0.00    0.00    0.00    0.00   0.00   0.00

avg-cpu:  %user   %nice %system %iowait  %steal   %idle
           0.00    0.00    0.06    1.56    0.00   98.37

Device:         rrqm/s   wrqm/s     r/s     w/s    rkB/s    wkB/s avgrq-sz avgqu-sz   await r_await w_await  svctm  %util
nvme0n1           0.00     0.00    0.00    0.00     0.00     0.00     0.00     0.00    0.00    0.00    0.00   0.00   0.00
sda               0.00     0.00    0.00    0.00     0.00     0.00     0.00     0.00    0.00    0.00    0.00   0.00   0.00
sdc               1.00     0.00  261.00    0.00  1048.00     0.00     8.03    16.04   61.47   61.47    0.00   3.20  83.50
sdb               1.00     0.00  281.00    0.00  1128.00     0.00     8.03    18.87   67.16   67.16    0.00   3.41  95.90
sdd               1.00     0.00  250.00    0.00  1004.00     0.00     8.03    16.48   59.99   59.99    0.00   3.32  82.90
md0               0.00     0.00  810.00    0.00  3240.00     0.00     8.00     0.00    0.00    0.00    0.00   0.00   0.00

avg-cpu:  %user   %nice %system %iowait  %steal   %idle
           0.00    0.00    0.06    1.75    0.00   98.19

Device:         rrqm/s   wrqm/s     r/s     w/s    rkB/s    wkB/s avgrq-sz avgqu-sz   await r_await w_await  svctm  %util
nvme0n1           0.00     0.00    0.00    0.00     0.00     0.00     0.00     0.00    0.00    0.00    0.00   0.00   0.00
sda               0.00    11.00    0.00    2.00     0.00    52.00    52.00     0.00    0.00    0.00    0.00   0.00   0.00
sdc               0.00     0.00  277.00    0.00  1108.00     0.00     8.00    18.53   63.33   63.33    0.00   3.30  91.30
sdb               0.00     0.00  253.00    0.00  1012.00     0.00     8.00    15.01   57.04   57.04    0.00   3.33  84.30
sdd               0.00     0.00  258.00    0.00  1032.00     0.00     8.00    16.52   63.98   63.98    0.00   3.33  85.80
md0               0.00     0.00  811.00    0.00  3244.00     0.00     8.00     0.00    0.00    0.00    0.00   0.00   0.00

avg-cpu:  %user   %nice %system %iowait  %steal   %idle
           0.03    0.00    0.03    1.53    0.00   98.40

Device:         rrqm/s   wrqm/s     r/s     w/s    rkB/s    wkB/s avgrq-sz avgqu-sz   await r_await w_await  svctm  %util
nvme0n1           0.00     0.00    0.00    0.00     0.00     0.00     0.00     0.00    0.00    0.00    0.00   0.00   0.00
sda               0.00     0.00    0.00    0.00     0.00     0.00     0.00     0.00    0.00    0.00    0.00   0.00   0.00
sdc               0.00     0.00  267.00    0.00  1068.00     0.00     8.00    17.76   68.02   68.02    0.00   3.46  92.30
sdb               0.00     0.00  274.00    0.00  1096.00     0.00     8.00    15.36   57.73   57.73    0.00   2.89  79.30
sdd               0.00     0.00  293.00    0.00  1172.00     0.00     8.00    17.04   63.76   63.76    0.00   2.99  87.70
md0               0.00     0.00  801.00    0.00  3204.00     0.00     8.00     0.00    0.00    0.00    0.00   0.00   0.00

avg-cpu:  %user   %nice %system %iowait  %steal   %idle
           0.00    0.00    0.00    2.00    0.00   98.00

Device:         rrqm/s   wrqm/s     r/s     w/s    rkB/s    wkB/s avgrq-sz avgqu-sz   await r_await w_await  svctm  %util
nvme0n1           0.00     0.00    0.00    0.00     0.00     0.00     0.00     0.00    0.00    0.00    0.00   0.00   0.00
sda               0.00     0.00    0.00    0.00     0.00     0.00     0.00     0.00    0.00    0.00    0.00   0.00   0.00
sdc               0.00     0.00  230.00    0.00   920.00     0.00     8.00    18.52   79.70   79.70    0.00   4.14  95.30
sdb               0.00     0.00  244.00    0.00   976.00     0.00     8.00    15.00   59.02   59.02    0.00   3.08  75.20
sdd               1.00     0.00  244.00    0.00   980.00     0.00     8.03    16.94   66.31   66.31    0.00   3.32  81.10
md0               0.00     0.00  820.00    0.00  3280.00     0.00     8.00     0.00    0.00    0.00    0.00   0.00   0.00

avg-cpu:  %user   %nice %system %iowait  %steal   %idle
           0.00    0.00    0.00    1.28    0.00   98.72

Device:         rrqm/s   wrqm/s     r/s     w/s    rkB/s    wkB/s avgrq-sz avgqu-sz   await r_await w_await  svctm  %util
nvme0n1           0.00     0.00    0.00    0.00     0.00     0.00     0.00     0.00    0.00    0.00    0.00   0.00   0.00
sda               0.00     1.00    0.00    1.00     0.00     8.00    16.00     0.00    0.00    0.00    0.00   0.00   0.00
sdc               0.00     0.00  260.00    0.00  1040.00     0.00     8.00    14.87   59.47   59.47    0.00   3.26  84.70
sdb               0.00     0.00  276.00    0.00  1104.00     0.00     8.00    17.74   66.13   66.13    0.00   3.23  89.10
sdd               0.00     0.00  266.00    0.00  1064.00     0.00     8.00    16.39   63.74   63.74    0.00   3.32  88.40
md0               0.00     0.00  810.00    0.00  3240.00     0.00     8.00     0.00    0.00    0.00    0.00   0.00   0.00

avg-cpu:  %user   %nice %system %iowait  %steal   %idle
           0.00    0.00    0.03    1.69    0.00   98.28

Device:         rrqm/s   wrqm/s     r/s     w/s    rkB/s    wkB/s avgrq-sz avgqu-sz   await r_await w_await  svctm  %util
nvme0n1           0.00     0.00    0.00    0.00     0.00     0.00     0.00     0.00    0.00    0.00    0.00   0.00   0.00
sda               0.00     0.00    0.00    0.00     0.00     0.00     0.00     0.00    0.00    0.00    0.00   0.00   0.00
sdc               0.00     0.00  284.00    0.00  1136.00     0.00     8.00    15.90   54.44   54.44    0.00   3.18  90.30
sdb               1.00     0.00  291.00    0.00  1168.00     0.00     8.03    18.82   61.13   61.13    0.00   3.30  96.00
sdd               0.00     0.00  284.00    0.00  1136.00     0.00     8.00    18.40   60.58   60.58    0.00   3.28  93.20
md0               0.00     0.00  787.00    0.00  3148.00     0.00     8.00     0.00    0.00    0.00    0.00   0.00   0.00

avg-cpu:  %user   %nice %system %iowait  %steal   %idle
           0.00    0.00    0.00    1.66    0.00   98.34

Device:         rrqm/s   wrqm/s     r/s     w/s    rkB/s    wkB/s avgrq-sz avgqu-sz   await r_await w_await  svctm  %util
nvme0n1           0.00     0.00    0.00    0.00     0.00     0.00     0.00     0.00    0.00    0.00    0.00   0.00   0.00
sda               0.00     4.00    0.00    2.00     0.00    24.00    24.00     0.00    0.00    0.00    0.00   0.00   0.00
sdc               1.00     0.00  274.00    0.00  1100.00     0.00     8.03    18.02   65.95   65.95    0.00   3.27  89.60
sdb               0.00     0.00  282.00    0.00  1128.00     0.00     8.00    17.83   63.87   63.87    0.00   3.21  90.60
sdd               0.00     0.00  261.00    0.00  1044.00     0.00     8.00    15.19   60.10   60.10    0.00   3.23  84.20
md0               0.00     0.00  807.00    0.00  3228.00     0.00     8.00     0.00    0.00    0.00    0.00   0.00   0.00

avg-cpu:  %user   %nice %system %iowait  %steal   %idle
           0.03    0.00    0.09    1.84    0.00   98.03

Device:         rrqm/s   wrqm/s     r/s     w/s    rkB/s    wkB/s avgrq-sz avgqu-sz   await r_await w_await  svctm  %util
nvme0n1           0.00     0.00    0.00    0.00     0.00     0.00     0.00     0.00    0.00    0.00    0.00   0.00   0.00
sda               0.00     0.00    0.00    0.00     0.00     0.00     0.00     0.00    0.00    0.00    0.00   0.00   0.00
sdc               0.00     0.00  287.00    0.00  1148.00     0.00     8.00    19.06   64.56   64.56    0.00   3.13  89.80
sdb               0.00     0.00  264.00    0.00  1056.00     0.00     8.00    14.91   60.48   60.48    0.00   3.30  87.00
sdd               0.00     0.00  285.00    0.00  1140.00     0.00     8.00    17.54   64.68   64.68    0.00   3.16  90.20
md0               0.00     0.00  814.00    0.00  3256.00     0.00     8.00     0.00    0.00    0.00    0.00   0.00   0.00

avg-cpu:  %user   %nice %system %iowait  %steal   %idle
           0.00    0.00    0.06    1.44    0.00   98.50

Device:         rrqm/s   wrqm/s     r/s     w/s    rkB/s    wkB/s avgrq-sz avgqu-sz   await r_await w_await  svctm  %util
nvme0n1           0.00     0.00    0.00    0.00     0.00     0.00     0.00     0.00    0.00    0.00    0.00   0.00   0.00
sda               0.00     0.00    0.00    0.00     0.00     0.00     0.00     0.00    0.00    0.00    0.00   0.00   0.00
sdc               0.00     0.00  253.00    0.00  1012.00     0.00     8.00    14.48   59.47   59.47    0.00   3.45  87.20
sdb               0.00     0.00  255.00    0.00  1020.00     0.00     8.00    14.54   57.00   57.00    0.00   3.27  83.40
sdd               3.00     0.00  284.00    0.00  1148.00     0.00     8.08    19.32   65.76   65.76    0.00   3.23  91.60
md0               0.00     0.00  797.00    0.00  3188.00     0.00     8.00     0.00    0.00    0.00    0.00   0.00   0.00

avg-cpu:  %user   %nice %system %iowait  %steal   %idle
           0.00    0.00    0.06    1.22    0.00   98.72

Device:         rrqm/s   wrqm/s     r/s     w/s    rkB/s    wkB/s avgrq-sz avgqu-sz   await r_await w_await  svctm  %util
nvme0n1           0.00     0.00    0.00    0.00     0.00     0.00     0.00     0.00    0.00    0.00    0.00   0.00   0.00
sda               0.00     4.00    0.00   19.00     0.00   108.00    11.37     0.00    0.00    0.00    0.00   0.00   0.00
sdc               0.00     0.00  268.00    0.00  1072.00     0.00     8.00    15.33   57.24   57.24    0.00   3.15  84.30
sdb               0.00     0.00  267.00    0.00  1068.00     0.00     8.00    16.24   59.00   59.00    0.00   3.30  88.20
sdd               1.00     0.00  292.00    0.00  1168.00     0.00     8.00    18.32   62.45   62.45    0.00   3.31  96.60
md0               0.00     0.00  920.00    0.00  3680.00     0.00     8.00     0.00    0.00    0.00    0.00   0.00   0.00

avg-cpu:  %user   %nice %system %iowait  %steal   %idle
           0.00    0.00    0.16    1.91    0.00   97.94

Device:         rrqm/s   wrqm/s     r/s     w/s    rkB/s    wkB/s avgrq-sz avgqu-sz   await r_await w_await  svctm  %util
nvme0n1           0.00     0.00    0.00    0.00     0.00     0.00     0.00     0.00    0.00    0.00    0.00   0.00   0.00
sda               0.00     0.00    0.00    0.00     0.00     0.00     0.00     0.00    0.00    0.00    0.00   0.00   0.00
sdc               0.00     0.00  281.00    0.00  1124.00     0.00     8.00    17.79   61.01   61.01    0.00   3.30  92.60
sdb               0.00     0.00  266.00    0.00  1064.00     0.00     8.00    14.94   54.38   54.38    0.00   3.09  82.20
sdd               0.00     0.00  304.00    0.00  1220.00     0.00     8.03    18.77   60.81   60.81    0.00   2.98  90.50
md0               0.00     0.00  816.00    0.00  3264.00     0.00     8.00     0.00    0.00    0.00    0.00   0.00   0.00

avg-cpu:  %user   %nice %system %iowait  %steal   %idle
           0.03    0.00    0.13    1.56    0.00   98.28

Device:         rrqm/s   wrqm/s     r/s     w/s    rkB/s    wkB/s avgrq-sz avgqu-sz   await r_await w_await  svctm  %util
nvme0n1           0.00     0.00    0.00    0.00     0.00     0.00     0.00     0.00    0.00    0.00    0.00   0.00   0.00
sda               0.00     3.00    0.00    2.00     0.00    20.00    20.00     0.00    0.50    0.00    0.50   0.50   0.10
sdc               1.00     0.00  274.00    0.00  1100.00     0.00     8.03    17.95   65.72   65.72    0.00   3.41  93.30
sdb               0.00     0.00  275.00    0.00  1100.00     0.00     8.00    16.54   59.80   59.80    0.00   3.12  85.90
sdd               1.00     0.00  249.00    0.00   996.00     0.00     8.00    15.67   62.40   62.40    0.00   3.39  84.30
md0               0.00     0.00  813.00    0.00  3252.00     0.00     8.00     0.00    0.00    0.00    0.00   0.00   0.00

avg-cpu:  %user   %nice %system %iowait  %steal   %idle
           0.00    0.00    0.06    1.63    0.00   98.31

Device:         rrqm/s   wrqm/s     r/s     w/s    rkB/s    wkB/s avgrq-sz avgqu-sz   await r_await w_await  svctm  %util
nvme0n1           0.00     0.00    0.00    0.00     0.00     0.00     0.00     0.00    0.00    0.00    0.00   0.00   0.00
sda               0.00     0.00    0.00    0.00     0.00     0.00     0.00     0.00    0.00    0.00    0.00   0.00   0.00
sdc               0.00     0.00  274.00    0.00  1096.00     0.00     8.00    15.65   59.02   59.02    0.00   3.25  89.10
sdb               1.00     0.00  306.00    0.00  1228.00     0.00     8.03    19.87   63.96   63.96    0.00   3.17  96.90
sdd               1.00     0.00  280.00    0.00  1128.00     0.00     8.06    15.97   61.13   61.13    0.00   3.42  95.80
md0               0.00     0.00  801.00    0.00  3204.00     0.00     8.00     0.00    0.00    0.00    0.00   0.00   0.00

avg-cpu:  %user   %nice %system %iowait  %steal   %idle
           0.00    0.00    0.00    1.19    0.00   98.81

Device:         rrqm/s   wrqm/s     r/s     w/s    rkB/s    wkB/s avgrq-sz avgqu-sz   await r_await w_await  svctm  %util
nvme0n1           0.00     0.00    0.00    0.00     0.00     0.00     0.00     0.00    0.00    0.00    0.00   0.00   0.00
sda               0.00     0.00    0.00    0.00     0.00     0.00     0.00     0.00    0.00    0.00    0.00   0.00   0.00
sdc               1.00     0.00  283.00    0.00  1136.00     0.00     8.03    16.69   59.92   59.92    0.00   3.07  86.90
sdb               0.00     0.00  267.00    0.00  1068.00     0.00     8.00    15.32   60.52   60.52    0.00   3.33  89.00
sdd               0.00     0.00  262.00    0.00  1048.00     0.00     8.00    17.24   62.61   62.61    0.00   3.44  90.00
md0               0.00     0.00  809.00    0.00  3236.00     0.00     8.00     0.00    0.00    0.00    0.00   0.00   0.00

avg-cpu:  %user   %nice %system %iowait  %steal   %idle
           0.00    0.00    0.16    1.44    0.00   98.41

Device:         rrqm/s   wrqm/s     r/s     w/s    rkB/s    wkB/s avgrq-sz avgqu-sz   await r_await w_await  svctm  %util
nvme0n1           0.00     0.00    0.00    0.00     0.00     0.00     0.00     0.00    0.00    0.00    0.00   0.00   0.00
sda               0.00     0.00    0.00    0.00     0.00     0.00     0.00     0.00    0.00    0.00    0.00   0.00   0.00
sdc               0.00     0.00  267.00    0.00  1068.00     0.00     8.00    17.41   63.45   63.45    0.00   3.35  89.40
sdb               0.00     0.00  265.00    0.00  1060.00     0.00     8.00    15.42   60.17   60.17    0.00   3.27  86.70
sdd               0.00     0.00  281.00    0.00  1124.00     0.00     8.00    16.44   61.49   61.49    0.00   3.12  87.80
md0               0.00     0.00  803.00    0.00  3212.00     0.00     8.00     0.00    0.00    0.00    0.00   0.00   0.00

avg-cpu:  %user   %nice %system %iowait  %steal   %idle
           0.00    0.00    0.09    1.75    0.00   98.16

Device:         rrqm/s   wrqm/s     r/s     w/s    rkB/s    wkB/s avgrq-sz avgqu-sz   await r_await w_await  svctm  %util
nvme0n1           0.00     0.00    0.00    0.00     0.00     0.00     0.00     0.00    0.00    0.00    0.00   0.00   0.00
sda               0.00     0.00    0.00    0.00     0.00     0.00     0.00     0.00    0.00    0.00    0.00   0.00   0.00
sdc               0.00     0.00  267.00    0.00  1068.00     0.00     8.00    15.36   60.49   60.49    0.00   3.12  83.30
sdb               0.00     0.00  266.00    0.00  1064.00     0.00     8.00    17.09   63.33   63.33    0.00   3.24  86.10
sdd               0.00     0.00  281.00    0.00  1124.00     0.00     8.00    17.74   63.15   63.15    0.00   3.19  89.70
md0               0.00     0.00  810.00    0.00  3240.00     0.00     8.00     0.00    0.00    0.00    0.00   0.00   0.00

avg-cpu:  %user   %nice %system %iowait  %steal   %idle
           0.00    0.00    0.13    1.84    0.00   98.03

Device:         rrqm/s   wrqm/s     r/s     w/s    rkB/s    wkB/s avgrq-sz avgqu-sz   await r_await w_await  svctm  %util
nvme0n1           0.00     0.00    0.00    0.00     0.00     0.00     0.00     0.00    0.00    0.00    0.00   0.00   0.00
sda               0.00     1.00    0.00    2.00     0.00    12.00    12.00     0.00    0.00    0.00    0.00   0.00   0.00
sdc               2.00     0.00  279.00    0.00  1124.00     0.00     8.06    17.30   58.91   58.91    0.00   3.27  91.30
sdb               0.00     0.00  275.00    0.00  1100.00     0.00     8.00    16.09   54.24   54.24    0.00   3.17  87.20
sdd               0.00     0.00  295.00    0.00  1180.00     0.00     8.00    18.51   59.55   59.55    0.00   3.14  92.60
md0               0.00     0.00  915.00    0.00  3660.00     0.00     8.00     0.00    0.00    0.00    0.00   0.00   0.00

avg-cpu:  %user   %nice %system %iowait  %steal   %idle
           0.03    0.00    0.16    1.56    0.00   98.25

Device:         rrqm/s   wrqm/s     r/s     w/s    rkB/s    wkB/s avgrq-sz avgqu-sz   await r_await w_await  svctm  %util
nvme0n1           0.00     0.00    0.00    0.00     0.00     0.00     0.00     0.00    0.00    0.00    0.00   0.00   0.00
sda               0.00     0.00    0.00    0.00     0.00     0.00     0.00     0.00    0.00    0.00    0.00   0.00   0.00
sdc               0.00     0.00  245.00    0.00   980.00     0.00     8.00    15.75   62.47   62.47    0.00   3.18  77.80
sdb               0.00     0.00  253.00    0.00  1012.00     0.00     8.00    14.83   63.83   63.83    0.00   3.25  82.20
sdd               0.00     0.00  256.00    0.00  1024.00     0.00     8.00    16.85   67.48   67.48    0.00   3.47  88.90
md0               0.00     0.00  707.00    0.00  2828.00     0.00     8.00     0.00    0.00    0.00    0.00   0.00   0.00

