Linux 4.17.2 (bench2) 	08/03/2018 	_x86_64_	(32 CPU)

avg-cpu:  %user   %nice %system %iowait  %steal   %idle
           1.93    0.00    1.58    1.50    0.00   95.00

Device:         rrqm/s   wrqm/s     r/s     w/s    rkB/s    wkB/s avgrq-sz avgqu-sz   await r_await w_await  svctm  %util
nvme0n1         960.32     5.22 19359.76  533.03 108290.41 12021.51    12.10     1.38    0.05    0.03    0.67   0.02  40.53
sda               0.11     0.81   14.11    0.57   163.83     8.50    23.49     0.00    0.33    0.32    0.46   0.07   0.10
sdc              32.20     0.14  103.49    0.30  1552.93    83.43    31.53     1.46   14.04   13.00  373.51   0.95   9.81
sdb              30.11     0.15  105.54    0.32  1551.09    83.25    30.88     0.33    3.15    1.95  394.60   0.88   9.33
sdd              32.40     0.13  103.03    0.25  1548.98    82.92    31.60     0.62    5.99    4.09  782.19   0.95   9.82
md0               0.00     0.00  409.66    1.07  5725.33   292.32    29.30     0.00    0.00    0.00    0.00   0.00   0.00

avg-cpu:  %user   %nice %system %iowait  %steal   %idle
           0.09    0.00    0.47    2.50    0.00   96.93

Device:         rrqm/s   wrqm/s     r/s     w/s    rkB/s    wkB/s avgrq-sz avgqu-sz   await r_await w_await  svctm  %util
nvme0n1           0.00     0.00    0.00    0.00     0.00     0.00     0.00     0.00    0.00    0.00    0.00   0.00   0.00
sda               0.00     0.00   18.00   11.00    76.00    44.00     8.28     0.00    0.03    0.06    0.00   0.03   0.10
sdc              65.00     0.00  811.00    0.00 52852.00     0.00   130.34     0.63    0.76    0.76    0.00   0.53  42.80
sdb              59.00     0.00  828.00    0.00 52940.00     0.00   127.87     0.67    0.81    0.81    0.00   0.57  47.10
sdd              62.00     0.00  838.00    0.00 52556.00     0.00   125.43     0.54    0.64    0.64    0.00   0.47  39.70
md0               0.00     0.00 2664.00    0.00 217552.00     0.00   163.33     0.00    0.00    0.00    0.00   0.00   0.00

avg-cpu:  %user   %nice %system %iowait  %steal   %idle
           0.09    0.00    0.50    2.44    0.00   96.96

Device:         rrqm/s   wrqm/s     r/s     w/s    rkB/s    wkB/s avgrq-sz avgqu-sz   await r_await w_await  svctm  %util
nvme0n1           0.00     0.00    0.00    0.00     0.00     0.00     0.00     0.00    0.00    0.00    0.00   0.00   0.00
sda               0.00     0.00    0.00    0.00     0.00     0.00     0.00     0.00    0.00    0.00    0.00   0.00   0.00
sdc              68.00     0.00  863.00    0.00 55368.00     0.00   128.32     0.75    0.90    0.90    0.00   0.58  50.10
sdb              67.00     0.00  835.00    0.00 55244.00     0.00   132.32     0.57    0.68    0.68    0.00   0.49  40.70
sdd              69.00     0.00  836.00    0.00 55732.00     0.00   133.33     0.53    0.63    0.63    0.00   0.48  39.80
md0               0.00     0.00 2738.00    0.00 222148.00     0.00   162.27     0.00    0.00    0.00    0.00   0.00   0.00

