Linux 4.17.2 (bench2) 	08/03/2018 	_x86_64_	(32 CPU)

avg-cpu:  %user   %nice %system %iowait  %steal   %idle
           1.91    0.00    1.57    1.54    0.00   94.98

Device:         rrqm/s   wrqm/s     r/s     w/s    rkB/s    wkB/s avgrq-sz avgqu-sz   await r_await w_await  svctm  %util
nvme0n1         948.75     5.15 19126.36  526.61 106984.88 11876.58    12.10     1.36    0.05    0.03    0.67   0.02  40.04
sda               0.12     0.81   14.15    0.58   163.99     8.51    23.43     0.00    0.33    0.32    0.45   0.07   0.10
sdc              33.03     0.14  111.28    0.30  1676.97    82.43    31.54     1.52   13.60   12.64  373.51   0.93  10.33
sdb              30.97     0.15  113.30    0.32  1675.09    82.25    30.93     0.40    3.55    2.45  394.60   0.86   9.82
sdd              33.23     0.13  110.82    0.25  1672.98    81.92    31.60     0.69    6.19    4.45  782.19   0.93  10.33
md0               0.00     0.00  435.49    1.06  6208.75   288.80    29.77     0.00    0.00    0.00    0.00   0.00   0.00

avg-cpu:  %user   %nice %system %iowait  %steal   %idle
           0.03    0.00    0.22    0.22    0.00   99.53

Device:         rrqm/s   wrqm/s     r/s     w/s    rkB/s    wkB/s avgrq-sz avgqu-sz   await r_await w_await  svctm  %util
nvme0n1           0.00     0.00    0.00    0.00     0.00     0.00     0.00     0.00    0.00    0.00    0.00   0.00   0.00
sda               0.00     0.00    4.00    0.00   104.00     0.00    52.00     0.00    0.50    0.50    0.00   0.50   0.20
sdc              45.00     0.00 2432.00    0.00  9908.00     0.00     8.15     6.20    2.55    2.55    0.00   0.15  37.00
sdb              31.00     0.00 2383.00    0.00  9656.00     0.00     8.10     5.72    2.40    2.40    0.00   0.16  38.90
sdd              20.00     0.00 2324.00    0.00  9376.00     0.00     8.07    14.40    6.16    6.16    0.00   0.39  91.60
md0               0.00     0.00 7260.00    0.00 29040.00     0.00     8.00     0.00    0.00    0.00    0.00   0.00   0.00

avg-cpu:  %user   %nice %system %iowait  %steal   %idle
           0.00    0.00    0.19    0.16    0.00   99.66

Device:         rrqm/s   wrqm/s     r/s     w/s    rkB/s    wkB/s avgrq-sz avgqu-sz   await r_await w_await  svctm  %util
nvme0n1           0.00     0.00    0.00    0.00     0.00     0.00     0.00     0.00    0.00    0.00    0.00   0.00   0.00
sda               0.00     0.00   90.00    0.00   572.00     0.00    12.71     0.03    0.36    0.36    0.00   0.06   0.50
sdc              22.00     0.00 2332.00    0.00  9416.00     0.00     8.08     5.10    2.19    2.19    0.00   0.15  35.30
sdb              25.00     0.00 2369.00    0.00  9576.00     0.00     8.08    13.78    5.78    5.78    0.00   0.37  87.40
sdd              29.00     0.00 2343.00    0.00  9488.00     0.00     8.10     7.06    3.05    3.05    0.00   0.19  44.60
md0               0.00     0.00 7101.00    0.00 28404.00     0.00     8.00     0.00    0.00    0.00    0.00   0.00   0.00

avg-cpu:  %user   %nice %system %iowait  %steal   %idle
           0.03    0.00    0.19    0.16    0.00   99.62

Device:         rrqm/s   wrqm/s     r/s     w/s    rkB/s    wkB/s avgrq-sz avgqu-sz   await r_await w_await  svctm  %util
nvme0n1           0.00     0.00    0.00    0.00     0.00     0.00     0.00     0.00    0.00    0.00    0.00   0.00   0.00
sda               0.00     0.00    0.00    0.00     0.00     0.00     0.00     0.00    0.00    0.00    0.00   0.00   0.00
sdc              58.00     0.00 2769.00    0.00 11308.00     0.00     8.17     5.04    1.82    1.82    0.00   0.09  26.30
sdb             110.00     0.00 2826.00    0.00 11744.00     0.00     8.31     9.80    3.50    3.50    0.00   0.20  56.70
sdd              97.00     0.00 2792.00    0.00 11536.00     0.00     8.26    14.63    5.20    5.20    0.00   0.29  81.30
md0               0.00     0.00 8671.00    0.00 34684.00     0.00     8.00     0.00    0.00    0.00    0.00   0.00   0.00

avg-cpu:  %user   %nice %system %iowait  %steal   %idle
           0.03    0.00    0.13    0.16    0.00   99.69

Device:         rrqm/s   wrqm/s     r/s     w/s    rkB/s    wkB/s avgrq-sz avgqu-sz   await r_await w_await  svctm  %util
nvme0n1           0.00     0.00    0.00    0.00     0.00     0.00     0.00     0.00    0.00    0.00    0.00   0.00   0.00
sda               0.00     0.00    0.00    0.00     0.00     0.00     0.00     0.00    0.00    0.00    0.00   0.00   0.00
sdc              64.00     0.00 2449.00    0.00 10052.00     0.00     8.21     6.87    2.79    2.79    0.00   0.17  41.40
sdb              84.00     0.00 2505.00    0.00 10352.00     0.00     8.27     4.84    1.91    1.91    0.00   0.10  24.10
sdd              89.00     0.00 2488.00    0.00 10328.00     0.00     8.30    15.88    6.41    6.41    0.00   0.35  88.30
md0               0.00     0.00 7719.00    0.00 30876.00     0.00     8.00     0.00    0.00    0.00    0.00   0.00   0.00

avg-cpu:  %user   %nice %system %iowait  %steal   %idle
           0.00    0.00    0.22    0.09    0.00   99.69

Device:         rrqm/s   wrqm/s     r/s     w/s    rkB/s    wkB/s avgrq-sz avgqu-sz   await r_await w_await  svctm  %util
nvme0n1           0.00     0.00    0.00    0.00     0.00     0.00     0.00     0.00    0.00    0.00    0.00   0.00   0.00
sda               0.00     9.00    0.00    2.00     0.00    44.00    44.00     0.00    0.50    0.00    0.50   0.50   0.10
sdc              83.00     0.00 2742.00    0.00 11300.00     0.00     8.24    11.14    4.05    4.05    0.00   0.24  64.80
sdb              75.00     0.00 2774.00    0.00 11400.00     0.00     8.22     5.18    1.89    1.89    0.00   0.10  26.40
sdd              93.00     0.00 2724.00    0.00 11268.00     0.00     8.27    12.28    4.47    4.47    0.00   0.26  70.60
md0               0.00     0.00 8449.00    0.00 33796.00     0.00     8.00     0.00    0.00    0.00    0.00   0.00   0.00

avg-cpu:  %user   %nice %system %iowait  %steal   %idle
           0.03    0.00    0.09    0.13    0.00   99.75

Device:         rrqm/s   wrqm/s     r/s     w/s    rkB/s    wkB/s avgrq-sz avgqu-sz   await r_await w_await  svctm  %util
nvme0n1           0.00     0.00    0.00    0.00     0.00     0.00     0.00     0.00    0.00    0.00    0.00   0.00   0.00
sda               0.00     1.00    0.00    2.00     0.00    12.00    12.00     0.00    0.00    0.00    0.00   0.00   0.00
sdc              55.00     0.00 2165.00    0.00  8880.00     0.00     8.20    17.91    8.30    8.30    0.00   0.46  98.70
sdb              64.00     0.00 2139.00    0.00  8812.00     0.00     8.24     3.97    1.86    1.86    0.00   0.09  20.10
sdd              54.00     0.00 2140.00    0.00  8776.00     0.00     8.20     3.84    1.87    1.87    0.00   0.09  19.80
md0               0.00     0.00 6597.00    0.00 26388.00     0.00     8.00     0.00    0.00    0.00    0.00   0.00   0.00

avg-cpu:  %user   %nice %system %iowait  %steal   %idle
           0.03    0.00    0.22    0.19    0.00   99.56

Device:         rrqm/s   wrqm/s     r/s     w/s    rkB/s    wkB/s avgrq-sz avgqu-sz   await r_await w_await  svctm  %util
nvme0n1           0.00     0.00    0.00    0.00     0.00     0.00     0.00     0.00    0.00    0.00    0.00   0.00   0.00
sda               0.00     0.00    0.00    0.00     0.00     0.00     0.00     0.00    0.00    0.00    0.00   0.00   0.00
sdc              93.00     0.00 2791.00    0.00 11536.00     0.00     8.27     9.85    3.54    3.54    0.00   0.20  56.40
sdb              91.00     0.00 2847.00    0.00 11752.00     0.00     8.26     7.87    2.74    2.74    0.00   0.14  41.10
sdd              66.00     0.00 2763.00    0.00 11316.00     0.00     8.19    13.79    4.99    4.99    0.00   0.29  79.10
md0               0.00     0.00 8657.00    0.00 34628.00     0.00     8.00     0.00    0.00    0.00    0.00   0.00   0.00

avg-cpu:  %user   %nice %system %iowait  %steal   %idle
           0.00    0.00    0.16    0.13    0.00   99.72

Device:         rrqm/s   wrqm/s     r/s     w/s    rkB/s    wkB/s avgrq-sz avgqu-sz   await r_await w_await  svctm  %util
nvme0n1           0.00     0.00    0.00    0.00     0.00     0.00     0.00     0.00    0.00    0.00    0.00   0.00   0.00
sda               0.00     0.00    0.00    0.00     0.00     0.00     0.00     0.00    0.00    0.00    0.00   0.00   0.00
sdc              51.00     0.00 2459.00    0.00 10040.00     0.00     8.17    12.37    5.03    5.03    0.00   0.31  76.50
sdb              87.00     0.00 2519.00    0.00 10424.00     0.00     8.28     8.56    3.42    3.42    0.00   0.18  45.90
sdd             104.00     0.00 2622.00    0.00 10896.00     0.00     8.31     6.41    2.38    2.38    0.00   0.13  33.30
md0               0.00     0.00 7848.00    0.00 31392.00     0.00     8.00     0.00    0.00    0.00    0.00   0.00   0.00

avg-cpu:  %user   %nice %system %iowait  %steal   %idle
           0.03    0.00    0.16    0.13    0.00   99.69

Device:         rrqm/s   wrqm/s     r/s     w/s    rkB/s    wkB/s avgrq-sz avgqu-sz   await r_await w_await  svctm  %util
nvme0n1           0.00     0.00    0.00    0.00     0.00     0.00     0.00     0.00    0.00    0.00    0.00   0.00   0.00
sda               0.00     0.00    0.00    0.00     0.00     0.00     0.00     0.00    0.00    0.00    0.00   0.00   0.00
sdc              93.00     0.00 2442.00    0.00 10140.00     0.00     8.30    14.97    6.13    6.13    0.00   0.37  90.70
sdb              56.00     0.00 2429.00    0.00  9940.00     0.00     8.18     4.50    1.85    1.85    0.00   0.10  23.80
sdd             112.00     0.00 2551.00    0.00 10660.00     0.00     8.36     6.39    2.57    2.57    0.00   0.13  33.00
md0               0.00     0.00 7743.00    0.00 30972.00     0.00     8.00     0.00    0.00    0.00    0.00   0.00   0.00

avg-cpu:  %user   %nice %system %iowait  %steal   %idle
           0.03    0.00    0.19    0.13    0.00   99.66

Device:         rrqm/s   wrqm/s     r/s     w/s    rkB/s    wkB/s avgrq-sz avgqu-sz   await r_await w_await  svctm  %util
nvme0n1           0.00     0.00    0.00    0.00     0.00     0.00     0.00     0.00    0.00    0.00    0.00   0.00   0.00
sda               0.00     3.00    0.00    2.00     0.00    20.00    20.00     0.00    0.00    0.00    0.00   0.00   0.00
sdc              68.00     0.00 2696.00    0.00 11056.00     0.00     8.20    10.35    3.83    3.83    0.00   0.21  57.40
sdb             107.00     0.00 2666.00    0.00 11084.00     0.00     8.32     4.95    1.84    1.84    0.00   0.10  25.50
sdd              85.00     0.00 2727.00    0.00 11248.00     0.00     8.25    13.27    4.85    4.85    0.00   0.27  72.70
md0               0.00     0.00 8341.00    0.00 33364.00     0.00     8.00     0.00    0.00    0.00    0.00   0.00   0.00

avg-cpu:  %user   %nice %system %iowait  %steal   %idle
           0.03    0.00    0.19    0.19    0.00   99.59

Device:         rrqm/s   wrqm/s     r/s     w/s    rkB/s    wkB/s avgrq-sz avgqu-sz   await r_await w_await  svctm  %util
nvme0n1           0.00     0.00    0.00    0.00     0.00     0.00     0.00     0.00    0.00    0.00    0.00   0.00   0.00
sda               0.00     1.00    0.00    2.00     0.00    28.00    28.00     0.00    0.00    0.00    0.00   0.00   0.00
sdc              61.00     0.00 2709.00    0.00 11080.00     0.00     8.18     5.01    1.86    1.86    0.00   0.09  25.70
sdb             103.00     0.00 2724.00    0.00 11316.00     0.00     8.31     5.02    1.87    1.87    0.00   0.09  25.50
sdd              69.00     0.00 2620.00    0.00 10756.00     0.00     8.21    17.21    6.57    6.57    0.00   0.38  98.40
md0               0.00     0.00 8225.00    0.00 32900.00     0.00     8.00     0.00    0.00    0.00    0.00   0.00   0.00

avg-cpu:  %user   %nice %system %iowait  %steal   %idle
           0.00    0.00    0.19    0.13    0.00   99.69

Device:         rrqm/s   wrqm/s     r/s     w/s    rkB/s    wkB/s avgrq-sz avgqu-sz   await r_await w_await  svctm  %util
nvme0n1           0.00     0.00    0.00    0.00     0.00     0.00     0.00     0.00    0.00    0.00    0.00   0.00   0.00
sda               0.00     0.00    0.00    0.00     0.00     0.00     0.00     0.00    0.00    0.00    0.00   0.00   0.00
sdc              56.00     0.00 2632.00    0.00 10752.00     0.00     8.17     9.15    3.48    3.48    0.00   0.20  53.60
sdb              46.00     0.00 2626.00    0.00 10688.00     0.00     8.14     4.73    1.80    1.80    0.00   0.10  25.50
sdd             126.00     0.00 2748.00    0.00 11464.00     0.00     8.34    16.02    5.83    5.83    0.00   0.33  90.10
md0               0.00     0.00 8232.00    0.00 32928.00     0.00     8.00     0.00    0.00    0.00    0.00   0.00   0.00

avg-cpu:  %user   %nice %system %iowait  %steal   %idle
           0.03    0.00    0.13    0.19    0.00   99.66

Device:         rrqm/s   wrqm/s     r/s     w/s    rkB/s    wkB/s avgrq-sz avgqu-sz   await r_await w_await  svctm  %util
nvme0n1           0.00     0.00    0.00    0.00     0.00     0.00     0.00     0.00    0.00    0.00    0.00   0.00   0.00
sda               0.00     0.00    0.00    0.00     0.00     0.00     0.00     0.00    0.00    0.00    0.00   0.00   0.00
sdc              90.00     0.00 2747.00    0.00 11348.00     0.00     8.26     7.76    2.81    2.81    0.00   0.18  48.10
sdb              92.00     0.00 2722.00    0.00 11248.00     0.00     8.26    10.92    4.00    4.00    0.00   0.23  61.60
sdd              59.00     0.00 2750.00    0.00 11268.00     0.00     8.19    12.95    4.72    4.72    0.00   0.26  72.00
md0               0.00     0.00 8517.00    0.00 34068.00     0.00     8.00     0.00    0.00    0.00    0.00   0.00   0.00

avg-cpu:  %user   %nice %system %iowait  %steal   %idle
           0.03    0.00    0.19    0.16    0.00   99.62

Device:         rrqm/s   wrqm/s     r/s     w/s    rkB/s    wkB/s avgrq-sz avgqu-sz   await r_await w_await  svctm  %util
nvme0n1           0.00     0.00    0.00    0.00     0.00     0.00     0.00     0.00    0.00    0.00    0.00   0.00   0.00
sda               0.00     0.00    0.00    0.00     0.00     0.00     0.00     0.00    0.00    0.00    0.00   0.00   0.00
sdc             129.00     0.00 2820.00    0.00 11796.00     0.00     8.37     5.92    2.10    2.10    0.00   0.11  31.90
sdb              95.00     0.00 2771.00    0.00 11460.00     0.00     8.27    11.52    4.16    4.16    0.00   0.24  66.50
sdd              97.00     0.00 2746.00    0.00 11372.00     0.00     8.28    11.92    4.32    4.32    0.00   0.24  66.50
md0               0.00     0.00 8633.00    0.00 34532.00     0.00     8.00     0.00    0.00    0.00    0.00   0.00   0.00

avg-cpu:  %user   %nice %system %iowait  %steal   %idle
           0.03    0.00    0.16    0.16    0.00   99.66

Device:         rrqm/s   wrqm/s     r/s     w/s    rkB/s    wkB/s avgrq-sz avgqu-sz   await r_await w_await  svctm  %util
nvme0n1           0.00     0.00    0.00    0.00     0.00     0.00     0.00     0.00    0.00    0.00    0.00   0.00   0.00
sda               0.00     3.00    0.00    2.00     0.00    20.00    20.00     0.00    0.00    0.00    0.00   0.00   0.00
sdc             108.00     0.00 2770.00    0.00 11512.00     0.00     8.31     9.26    3.35    3.35    0.00   0.18  49.70
sdb              70.00     0.00 2718.00    0.00 11164.00     0.00     8.21     4.96    1.83    1.83    0.00   0.09  25.20
sdd             139.00     0.00 2728.00    0.00 11468.00     0.00     8.41    16.23    5.92    5.92    0.00   0.34  91.70
md0               0.00     0.00 8526.00    0.00 34104.00     0.00     8.00     0.00    0.00    0.00    0.00   0.00   0.00

avg-cpu:  %user   %nice %system %iowait  %steal   %idle
           0.00    0.00    0.16    0.19    0.00   99.66

Device:         rrqm/s   wrqm/s     r/s     w/s    rkB/s    wkB/s avgrq-sz avgqu-sz   await r_await w_await  svctm  %util
nvme0n1           0.00     0.00    0.00    0.00     0.00     0.00     0.00     0.00    0.00    0.00    0.00   0.00   0.00
sda               0.00     0.00    0.00    0.00     0.00     0.00     0.00     0.00    0.00    0.00    0.00   0.00   0.00
sdc              53.00     0.00 2580.00    0.00 10532.00     0.00     8.16     5.52    2.14    2.14    0.00   0.12  30.80
sdb              75.00     0.00 2496.00    0.00 10284.00     0.00     8.24     4.46    1.79    1.79    0.00   0.09  23.60
sdd              99.00     0.00 2637.00    0.00 10908.00     0.00     8.27    18.31    6.96    6.96    0.00   0.37  98.40
md0               0.00     0.00 7944.00    0.00 31776.00     0.00     8.00     0.00    0.00    0.00    0.00   0.00   0.00

avg-cpu:  %user   %nice %system %iowait  %steal   %idle
           0.03    0.00    0.19    0.09    0.00   99.69

Device:         rrqm/s   wrqm/s     r/s     w/s    rkB/s    wkB/s avgrq-sz avgqu-sz   await r_await w_await  svctm  %util
nvme0n1           0.00     0.00    0.00    0.00     0.00     0.00     0.00     0.00    0.00    0.00    0.00   0.00   0.00
sda               0.00     0.00    0.00    0.00     0.00     0.00     0.00     0.00    0.00    0.00    0.00   0.00   0.00
sdc              80.00     0.00 2600.00    0.00 10708.00     0.00     8.24     9.44    3.62    3.62    0.00   0.21  54.40
sdb              59.00     0.00 2583.00    0.00 10568.00     0.00     8.18     4.87    1.88    1.88    0.00   0.10  25.10
sdd              82.00     0.00 2619.00    0.00 10840.00     0.00     8.28    16.60    6.38    6.38    0.00   0.36  93.50
md0               0.00     0.00 8076.00    0.00 32304.00     0.00     8.00     0.00    0.00    0.00    0.00   0.00   0.00

avg-cpu:  %user   %nice %system %iowait  %steal   %idle
           0.03    0.00    0.16    0.16    0.00   99.66

Device:         rrqm/s   wrqm/s     r/s     w/s    rkB/s    wkB/s avgrq-sz avgqu-sz   await r_await w_await  svctm  %util
nvme0n1           0.00     0.00    0.00    0.00     0.00     0.00     0.00     0.00    0.00    0.00    0.00   0.00   0.00
sda               0.00     0.00    0.00    0.00     0.00     0.00     0.00     0.00    0.00    0.00    0.00   0.00   0.00
sdc              80.00     0.00 2659.00    0.00 10968.00     0.00     8.25     5.38    2.03    2.03    0.00   0.11  29.80
sdb              92.00     0.00 2756.00    0.00 11360.00     0.00     8.24     5.91    2.13    2.13    0.00   0.11  31.10
sdd             125.00     0.00 2751.00    0.00 11504.00     0.00     8.36    17.64    6.40    6.40    0.00   0.36  98.40
md0               0.00     0.00 8401.00    0.00 33604.00     0.00     8.00     0.00    0.00    0.00    0.00   0.00   0.00

avg-cpu:  %user   %nice %system %iowait  %steal   %idle
           0.03    0.00    0.09    0.28    0.00   99.59

Device:         rrqm/s   wrqm/s     r/s     w/s    rkB/s    wkB/s avgrq-sz avgqu-sz   await r_await w_await  svctm  %util
nvme0n1           0.00     0.00    0.00    0.00     0.00     0.00     0.00     0.00    0.00    0.00    0.00   0.00   0.00
sda               0.00     0.00    0.00    0.00     0.00     0.00     0.00     0.00    0.00    0.00    0.00   0.00   0.00
sdc              43.00     0.00 1500.00    0.00  6156.00     0.00     8.21    14.03    8.89    8.89    0.00   0.58  86.40
sdb              37.00     0.00 1362.00    0.00  5628.00     0.00     8.26     5.49    4.09    4.09    0.00   0.24  32.70
sdd              67.00     0.00 1438.00    0.00  6020.00     0.00     8.37     3.15    2.22    2.22    0.00   0.12  17.30
md0               0.00     0.00 4427.00    0.00 17708.00     0.00     8.00     0.00    0.00    0.00    0.00   0.00   0.00

avg-cpu:  %user   %nice %system %iowait  %steal   %idle
           0.00    0.00    0.16    0.00    0.00   99.87

Device:         rrqm/s   wrqm/s     r/s     w/s    rkB/s    wkB/s avgrq-sz avgqu-sz   await r_await w_await  svctm  %util
nvme0n1           0.00     0.00    0.00    0.00     0.00     0.00     0.00     0.00    0.00    0.00    0.00   0.00   0.00
sda               0.00     1.00    0.00    2.00     0.00    12.00    12.00     0.00    0.00    0.00    0.00   0.00   0.00
sdc              87.00     0.00 2512.00    0.00 10404.00     0.00     8.28     9.88    4.21    4.21    0.00   0.25  61.60
sdb              92.00     0.00 2523.00    0.00 10460.00     0.00     8.29     4.74    1.87    1.87    0.00   0.09  23.90
sdd              64.00     0.00 2469.00    0.00 10132.00     0.00     8.21    11.87    4.80    4.80    0.00   0.27  67.30
md0               0.00     0.00 7820.00    0.00 31280.00     0.00     8.00     0.00    0.00    0.00    0.00   0.00   0.00

