Linux 4.17.2 (bench2) 	08/03/2018 	_x86_64_	(32 CPU)

avg-cpu:  %user   %nice %system %iowait  %steal   %idle
           1.92    0.00    1.58    1.51    0.00   94.99

Device:         rrqm/s   wrqm/s     r/s     w/s    rkB/s    wkB/s avgrq-sz avgqu-sz   await r_await w_await  svctm  %util
nvme0n1         954.85     5.19 19249.33  529.99 107672.70 11952.94    12.10     1.37    0.05    0.03    0.67   0.02  40.30
sda               0.11     0.81   14.13    0.57   163.92     8.51    23.46     0.00    0.33    0.32    0.45   0.07   0.10
sdc              32.62     0.14  107.21    0.30  1611.84    82.95    31.53     1.49   13.82   12.82  373.51   0.94  10.06
sdb              30.54     0.15  109.25    0.32  1609.96    82.78    30.90     0.37    3.34    2.20  394.60   0.87   9.56
sdd              32.82     0.13  106.76    0.25  1607.90    82.44    31.59     0.65    6.08    4.27  782.19   0.94  10.06
md0               0.00     0.00  422.07    1.07  5955.31   290.65    29.52     0.00    0.00    0.00    0.00   0.00   0.00

avg-cpu:  %user   %nice %system %iowait  %steal   %idle
           0.00    0.00    0.06    0.09    0.00   99.85

Device:         rrqm/s   wrqm/s     r/s     w/s    rkB/s    wkB/s avgrq-sz avgqu-sz   await r_await w_await  svctm  %util
nvme0n1           0.00     0.00    0.00    0.00     0.00     0.00     0.00     0.00    0.00    0.00    0.00   0.00   0.00
sda               0.00     0.95    0.25    0.60     5.40     8.20    32.00     0.00    0.12    0.20    0.08   0.12   0.01
sdc               0.00     0.00  112.35    0.00   449.40     0.00     8.00     4.82   42.86   42.86    0.00   7.32  82.24
sdb               0.00     0.00  111.00    0.00   444.00     0.00     8.00     4.65   41.84   41.84    0.00   7.17  79.53
sdd               0.00     0.00  110.90    0.00   443.60     0.00     8.00     4.74   42.72   42.72    0.00   7.28  80.72
md0               0.00     0.00  335.75    0.00  1343.00     0.00     8.00     0.00    0.00    0.00    0.00   0.00   0.00

