Linux 4.17.2 (bench2) 	08/03/2018 	_x86_64_	(32 CPU)

avg-cpu:  %user   %nice %system %iowait  %steal   %idle
           1.93    0.00    1.58    1.50    0.00   95.00

Device:         rrqm/s   wrqm/s     r/s     w/s    rkB/s    wkB/s avgrq-sz avgqu-sz   await r_await w_await  svctm  %util
nvme0n1         960.71     5.22 19367.62  533.25 108334.40 12026.39    12.10     1.38    0.05    0.03    0.67   0.02  40.54
sda               0.11     0.81   14.10    0.57   163.82     8.50    23.49     0.00    0.33    0.32    0.46   0.07   0.10
sdc              32.17     0.14  103.11    0.30  1549.84    83.46    31.59     1.46   14.09   13.04  373.51   0.95   9.80
sdb              30.08     0.15  105.16    0.32  1548.00    83.28    30.93     0.33    3.15    1.95  394.60   0.88   9.32
sdd              32.37     0.13  102.65    0.25  1545.88    82.95    31.66     0.62    6.00    4.10  782.19   0.95   9.80
md0               0.00     0.00  408.44    1.07  5714.51   292.44    29.34     0.00    0.00    0.00    0.00   0.00   0.00

avg-cpu:  %user   %nice %system %iowait  %steal   %idle
           0.03    0.00    0.22    4.88    0.00   94.87

Device:         rrqm/s   wrqm/s     r/s     w/s    rkB/s    wkB/s avgrq-sz avgqu-sz   await r_await w_await  svctm  %util
nvme0n1           0.00     0.00    0.00    0.00     0.00     0.00     0.00     0.00    0.00    0.00    0.00   0.00   0.00
sda               0.00     0.00   32.00    0.00   168.00     0.00    10.50     0.00    0.00    0.00    0.00   0.00   0.00
sdc               0.00     0.00  753.00    0.00  3036.00     0.00     8.06     2.42    3.15    3.15    0.00   0.93  70.40
sdb               0.00     0.00  686.00    0.00  2744.00     0.00     8.00     2.12    3.07    3.07    0.00   1.10  75.60
sdd               0.00     0.00  686.00    0.00  2744.00     0.00     8.00     3.01    4.32    4.32    0.00   1.19  81.60
md0               0.00     0.00 2132.00    0.00  8556.00     0.00     8.03     0.00    0.00    0.00    0.00   0.00   0.00

avg-cpu:  %user   %nice %system %iowait  %steal   %idle
           0.00    0.00    0.19    4.26    0.00   95.56

Device:         rrqm/s   wrqm/s     r/s     w/s    rkB/s    wkB/s avgrq-sz avgqu-sz   await r_await w_await  svctm  %util
nvme0n1           0.00     0.00    0.00    0.00     0.00     0.00     0.00     0.00    0.00    0.00    0.00   0.00   0.00
sda               0.00     0.00    0.00    0.00     0.00     0.00     0.00     0.00    0.00    0.00    0.00   0.00   0.00
sdc               0.00     0.00  811.00    0.00  3244.00     0.00     8.00     1.80    2.27    2.27    0.00   0.83  67.20
sdb               0.00     0.00  756.00    0.00  3024.00     0.00     8.00     1.85    2.46    2.46    0.00   0.91  69.00
sdd               0.00     0.00  724.00    0.00  2896.00     0.00     8.00     3.68    4.93    4.93    0.00   1.21  87.30
md0               0.00     0.00 2291.00    0.00  9164.00     0.00     8.00     0.00    0.00    0.00    0.00   0.00   0.00

avg-cpu:  %user   %nice %system %iowait  %steal   %idle
           0.00    0.00    0.22    5.60    0.00   94.18

Device:         rrqm/s   wrqm/s     r/s     w/s    rkB/s    wkB/s avgrq-sz avgqu-sz   await r_await w_await  svctm  %util
nvme0n1           0.00     0.00    0.00    0.00     0.00     0.00     0.00     0.00    0.00    0.00    0.00   0.00   0.00
sda               0.00     0.00    0.00    0.00     0.00     0.00     0.00     0.00    0.00    0.00    0.00   0.00   0.00
sdc               0.00     0.00  774.00    0.00  3096.00     0.00     8.00     2.99    3.86    3.86    0.00   1.03  79.70
sdb               0.00     0.00  881.00    0.00  3524.00     0.00     8.00     1.19    1.35    1.35    0.00   0.65  57.50
sdd               0.00     0.00  826.00    0.00  3304.00     0.00     8.00     3.19    3.33    3.33    0.00   0.92  76.10
md0               0.00     0.00 2481.00    0.00  9924.00     0.00     8.00     0.00    0.00    0.00    0.00   0.00   0.00

avg-cpu:  %user   %nice %system %iowait  %steal   %idle
           0.03    0.00    0.16    3.47    0.00   96.34

Device:         rrqm/s   wrqm/s     r/s     w/s    rkB/s    wkB/s avgrq-sz avgqu-sz   await r_await w_await  svctm  %util
nvme0n1           0.00     0.00    0.00    0.00     0.00     0.00     0.00     0.00    0.00    0.00    0.00   0.00   0.00
sda               0.00     9.00    0.00    2.00     0.00    44.00    44.00     0.00    0.00    0.00    0.00   0.00   0.00
sdc               0.00     0.00  729.00    0.00  2916.00     0.00     8.00     3.21    4.40    4.40    0.00   0.93  67.70
sdb               0.00     0.00  760.00    0.00  3040.00     0.00     8.00     1.50    1.96    1.96    0.00   0.70  53.40
sdd               0.00     0.00  797.00    0.00  3188.00     0.00     8.00     2.47    3.82    3.82    0.00   0.89  70.80
md0               0.00     0.00 2281.00    0.00  9124.00     0.00     8.00     0.00    0.00    0.00    0.00   0.00   0.00

avg-cpu:  %user   %nice %system %iowait  %steal   %idle
           0.00    0.00    0.19    6.79    0.00   93.02

Device:         rrqm/s   wrqm/s     r/s     w/s    rkB/s    wkB/s avgrq-sz avgqu-sz   await r_await w_await  svctm  %util
nvme0n1           0.00     0.00    0.00    0.00     0.00     0.00     0.00     0.00    0.00    0.00    0.00   0.00   0.00
sda               0.00     0.00    0.00    0.00     0.00     0.00     0.00     0.00    0.00    0.00    0.00   0.00   0.00
sdc               0.00     0.00  747.00    0.00  2988.00     0.00     8.00     1.89    2.53    2.53    0.00   0.78  58.20
sdb               0.00     0.00  706.00    0.00  2824.00     0.00     8.00     3.78    5.23    5.23    0.00   1.13  79.90
sdd               0.00     0.00  706.00    0.00  2824.00     0.00     8.00     1.56    2.22    2.22    0.00   0.74  52.10
md0               0.00     0.00 2165.00    0.00  8660.00     0.00     8.00     0.00    0.00    0.00    0.00   0.00   0.00

avg-cpu:  %user   %nice %system %iowait  %steal   %idle
           0.03    0.00    0.16    4.00    0.00   95.81

Device:         rrqm/s   wrqm/s     r/s     w/s    rkB/s    wkB/s avgrq-sz avgqu-sz   await r_await w_await  svctm  %util
nvme0n1           0.00     0.00    0.00    0.00     0.00     0.00     0.00     0.00    0.00    0.00    0.00   0.00   0.00
sda               0.00     0.00    0.00    0.00     0.00     0.00     0.00     0.00    0.00    0.00    0.00   0.00   0.00
sdc               0.00     0.00  639.00    0.00  2556.00     0.00     8.00     2.68    4.18    4.18    0.00   0.97  62.20
sdb               0.00     0.00  728.00    0.00  2912.00     0.00     8.00     3.38    4.76    4.76    0.00   1.01  73.70
sdd               0.00     0.00  610.00    0.00  2440.00     0.00     8.00     1.06    1.71    1.71    0.00   0.83  50.40
md0               0.00     0.00 1976.00    0.00  7904.00     0.00     8.00     0.00    0.00    0.00    0.00   0.00   0.00

avg-cpu:  %user   %nice %system %iowait  %steal   %idle
           0.00    0.00    0.19    3.97    0.00   95.84

Device:         rrqm/s   wrqm/s     r/s     w/s    rkB/s    wkB/s avgrq-sz avgqu-sz   await r_await w_await  svctm  %util
nvme0n1           0.00     0.00    0.00    0.00     0.00     0.00     0.00     0.00    0.00    0.00    0.00   0.00   0.00
sda               0.00     0.00    0.00    0.00     0.00     0.00     0.00     0.00    0.00    0.00    0.00   0.00   0.00
sdc               0.00     0.00  811.00    0.00  3244.00     0.00     8.00     2.17    2.69    2.69    0.00   0.90  73.20
sdb               0.00     0.00  750.00    0.00  3000.00     0.00     8.00     2.11    2.79    2.79    0.00   0.87  65.30
sdd               0.00     0.00  765.00    0.00  3060.00     0.00     8.00     2.90    3.43    3.43    0.00   0.90  69.20
md0               0.00     0.00 2326.00    0.00  9304.00     0.00     8.00     0.00    0.00    0.00    0.00   0.00   0.00

avg-cpu:  %user   %nice %system %iowait  %steal   %idle
           0.00    0.00    0.22    0.50    0.00   99.28

Device:         rrqm/s   wrqm/s     r/s     w/s    rkB/s    wkB/s avgrq-sz avgqu-sz   await r_await w_await  svctm  %util
nvme0n1           0.00     0.00    0.00    0.00     0.00     0.00     0.00     0.00    0.00    0.00    0.00   0.00   0.00
sda               0.00     0.00    0.00    0.00     0.00     0.00     0.00     0.00    0.00    0.00    0.00   0.00   0.00
sdc               0.00     0.00  684.00    0.00  2736.00     0.00     8.00     1.71    2.49    2.49    0.00   0.85  58.00
sdb               0.00     0.00  687.00    0.00  2748.00     0.00     8.00     3.44    5.04    5.04    0.00   1.17  80.60
sdd               0.00     0.00  691.00    0.00  2764.00     0.00     8.00     2.19    3.57    3.57    0.00   0.94  65.00
md0               0.00     0.00 2062.00    0.00  8248.00     0.00     8.00     0.00    0.00    0.00    0.00   0.00   0.00

avg-cpu:  %user   %nice %system %iowait  %steal   %idle
           0.03    0.00    0.16    1.47    0.00   98.34

Device:         rrqm/s   wrqm/s     r/s     w/s    rkB/s    wkB/s avgrq-sz avgqu-sz   await r_await w_await  svctm  %util
nvme0n1           0.00     0.00    0.00    0.00     0.00     0.00     0.00     0.00    0.00    0.00    0.00   0.00   0.00
sda               0.00     1.00    0.00    2.00     0.00    12.00    12.00     0.00    0.00    0.00    0.00   0.00   0.00
sdc               0.00     0.00  627.00    0.00  2508.00     0.00     8.00     4.08    6.50    6.50    0.00   1.41  88.10
sdb               0.00     0.00  615.00    0.00  2460.00     0.00     8.00     1.61    2.57    2.57    0.00   0.93  57.30
sdd               0.00     0.00  629.00    0.00  2516.00     0.00     8.00     1.49    2.31    2.31    0.00   0.92  57.90
md0               0.00     0.00 1871.00    0.00  7484.00     0.00     8.00     0.00    0.00    0.00    0.00   0.00   0.00

avg-cpu:  %user   %nice %system %iowait  %steal   %idle
           0.00    0.00    0.19    1.28    0.00   98.53

Device:         rrqm/s   wrqm/s     r/s     w/s    rkB/s    wkB/s avgrq-sz avgqu-sz   await r_await w_await  svctm  %util
nvme0n1           0.00     0.00    0.00    0.00     0.00     0.00     0.00     0.00    0.00    0.00    0.00   0.00   0.00
sda               0.00     2.00    0.00    3.00     0.00    36.00    24.00     0.00    0.00    0.00    0.00   0.00   0.00
sdc               0.00     0.00  719.00    0.00  2876.00     0.00     8.00     2.30    3.20    3.20    0.00   0.94  67.30
sdb               0.00     0.00  774.00    0.00  3096.00     0.00     8.00     1.27    1.58    1.58    0.00   0.72  56.00
sdd               0.00     0.00  792.00    0.00  3168.00     0.00     8.00     3.85    4.93    4.93    0.00   1.09  86.20
md0               0.00     0.00 2285.00    0.00  9140.00     0.00     8.00     0.00    0.00    0.00    0.00   0.00   0.00

avg-cpu:  %user   %nice %system %iowait  %steal   %idle
           0.00    0.00    0.16    2.94    0.00   96.90

Device:         rrqm/s   wrqm/s     r/s     w/s    rkB/s    wkB/s avgrq-sz avgqu-sz   await r_await w_await  svctm  %util
nvme0n1           0.00     0.00    0.00    0.00     0.00     0.00     0.00     0.00    0.00    0.00    0.00   0.00   0.00
sda               0.00     0.00    0.00    0.00     0.00     0.00     0.00     0.00    0.00    0.00    0.00   0.00   0.00
sdc               0.00     0.00  785.00    0.00  3140.00     0.00     8.00     4.01    4.59    4.59    0.00   1.09  85.70
sdb               0.00     0.00  809.00    0.00  3236.00     0.00     8.00     2.01    2.60    2.60    0.00   0.69  55.80
sdd               0.00     0.00  664.00    0.00  2656.00     0.00     8.00     1.34    2.01    2.01    0.00   0.81  53.80
md0               0.00     0.00 2258.00    0.00  9032.00     0.00     8.00     0.00    0.00    0.00    0.00   0.00   0.00

avg-cpu:  %user   %nice %system %iowait  %steal   %idle
           0.00    0.00    0.16    0.47    0.00   99.37

Device:         rrqm/s   wrqm/s     r/s     w/s    rkB/s    wkB/s avgrq-sz avgqu-sz   await r_await w_await  svctm  %util
nvme0n1           0.00     0.00    0.00    0.00     0.00     0.00     0.00     0.00    0.00    0.00    0.00   0.00   0.00
sda               0.00     0.00    0.00    0.00     0.00     0.00     0.00     0.00    0.00    0.00    0.00   0.00   0.00
sdc               0.00     0.00  622.00    0.00  2488.00     0.00     8.00     3.13    5.62    5.62    0.00   1.11  69.20
sdb               0.00     0.00  707.00    0.00  2828.00     0.00     8.00     0.94    1.33    1.33    0.00   0.75  53.10
sdd               0.00     0.00  738.00    0.00  2952.00     0.00     8.00     2.75    3.72    3.72    0.00   1.00  73.80
md0               0.00     0.00 2067.00    0.00  8268.00     0.00     8.00     0.00    0.00    0.00    0.00   0.00   0.00

avg-cpu:  %user   %nice %system %iowait  %steal   %idle
           0.00    0.00    0.19    4.78    0.00   95.03

Device:         rrqm/s   wrqm/s     r/s     w/s    rkB/s    wkB/s avgrq-sz avgqu-sz   await r_await w_await  svctm  %util
nvme0n1           0.00     0.00    0.00    0.00     0.00     0.00     0.00     0.00    0.00    0.00    0.00   0.00   0.00
sda               0.00     0.00    0.00    0.00     0.00     0.00     0.00     0.00    0.00    0.00    0.00   0.00   0.00
sdc               0.00     0.00  601.00    0.00  2404.00     0.00     8.00     4.67    5.66    5.66    0.00   1.59  95.40
sdb               0.00     0.00  623.00    0.00  2492.00     0.00     8.00     1.25    2.01    2.01    0.00   0.77  48.20
sdd               0.00     0.00  649.00    0.00  2596.00     0.00     8.00     1.42    2.22    2.22    0.00   0.83  53.80
md0               0.00     0.00 1873.00    0.00  7492.00     0.00     8.00     0.00    0.00    0.00    0.00   0.00   0.00

avg-cpu:  %user   %nice %system %iowait  %steal   %idle
           0.00    0.00    0.19    0.00    0.00  101.44

Device:         rrqm/s   wrqm/s     r/s     w/s    rkB/s    wkB/s avgrq-sz avgqu-sz   await r_await w_await  svctm  %util
nvme0n1           0.00     0.00    0.00    0.00     0.00     0.00     0.00     0.00    0.00    0.00    0.00   0.00   0.00
sda               0.00     3.00    0.00    2.00     0.00    20.00    20.00     0.00    0.50    0.00    0.50   0.50   0.10
sdc               0.00     0.00  685.00    0.00  2740.00     0.00     8.00     1.50    4.12    4.12    0.00   0.70  47.80
sdb               0.00     0.00  584.00    0.00  2336.00     0.00     8.00     0.58    0.97    0.97    0.00   0.73  42.40
sdd               0.00     0.00  677.00    0.00  2708.00     0.00     8.00     4.89    7.07    7.07    0.00   1.27  85.90
md0               0.00     0.00 1946.00    0.00  7784.00     0.00     8.00     0.00    0.00    0.00    0.00   0.00   0.00

avg-cpu:  %user   %nice %system %iowait  %steal   %idle
           0.03    0.00    0.19    1.22    0.00   98.56

Device:         rrqm/s   wrqm/s     r/s     w/s    rkB/s    wkB/s avgrq-sz avgqu-sz   await r_await w_await  svctm  %util
nvme0n1           0.00     0.00    0.00    0.00     0.00     0.00     0.00     0.00    0.00    0.00    0.00   0.00   0.00
sda               0.00     0.00    0.00    0.00     0.00     0.00     0.00     0.00    0.00    0.00    0.00   0.00   0.00
sdc               0.00     0.00  659.00    0.00  2636.00     0.00     8.00     1.30    1.86    1.86    0.00   0.71  47.00
sdb               0.00     0.00  713.00    0.00  2852.00     0.00     8.00     2.70    3.79    3.79    0.00   0.99  70.50
sdd               0.00     0.00  745.00    0.00  2980.00     0.00     8.00     3.17    4.39    4.39    0.00   1.05  78.00
md0               0.00     0.00 2117.00    0.00  8468.00     0.00     8.00     0.00    0.00    0.00    0.00   0.00   0.00

avg-cpu:  %user   %nice %system %iowait  %steal   %idle
           0.00    0.00    0.28    4.88    0.00   94.84

Device:         rrqm/s   wrqm/s     r/s     w/s    rkB/s    wkB/s avgrq-sz avgqu-sz   await r_await w_await  svctm  %util
nvme0n1           0.00     0.00    0.00    0.00     0.00     0.00     0.00     0.00    0.00    0.00    0.00   0.00   0.00
sda               0.00     0.00    1.00    2.00     4.00    36.00    26.67     0.00    0.00    0.00    0.00   0.00   0.00
sdc               0.00     0.00  820.00    0.00  3280.00     0.00     8.00     2.06    2.59    2.59    0.00   0.74  60.60
sdb               0.00     0.00  796.00    0.00  3184.00     0.00     8.00     3.06    3.58    3.58    0.00   0.98  78.30
sdd               0.00     0.00  790.00    0.00  3160.00     0.00     8.00     2.21    2.75    2.75    0.00   0.78  61.40
md0               0.00     0.00 2406.00    0.00  9624.00     0.00     8.00     0.00    0.00    0.00    0.00   0.00   0.00

avg-cpu:  %user   %nice %system %iowait  %steal   %idle
           0.00    0.00    0.13    3.22    0.00   96.65

Device:         rrqm/s   wrqm/s     r/s     w/s    rkB/s    wkB/s avgrq-sz avgqu-sz   await r_await w_await  svctm  %util
nvme0n1           0.00     0.00    0.00    0.00     0.00     0.00     0.00     0.00    0.00    0.00    0.00   0.00   0.00
sda               0.00     0.00    0.00    0.00     0.00     0.00     0.00     0.00    0.00    0.00    0.00   0.00   0.00
sdc               0.00     0.00  727.00    0.00  2908.00     0.00     8.00     3.48    4.79    4.79    0.00   1.09  79.20
sdb               0.00     0.00  671.00    0.00  2684.00     0.00     8.00     1.50    2.51    2.51    0.00   0.92  61.70
sdd               0.00     0.00  684.00    0.00  2736.00     0.00     8.00     2.30    3.33    3.33    0.00   1.00  68.30
md0               0.00     0.00 2082.00    0.00  8328.00     0.00     8.00     0.00    0.00    0.00    0.00   0.00   0.00

avg-cpu:  %user   %nice %system %iowait  %steal   %idle
           0.03    0.00    0.28    3.72    0.00   95.97

Device:         rrqm/s   wrqm/s     r/s     w/s    rkB/s    wkB/s avgrq-sz avgqu-sz   await r_await w_await  svctm  %util
nvme0n1           0.00     0.00    0.00    0.00     0.00     0.00     0.00     0.00    0.00    0.00    0.00   0.00   0.00
sda               0.00     0.00    0.00    0.00     0.00     0.00     0.00     0.00    0.00    0.00    0.00   0.00   0.00
sdc               0.00     0.00  892.00    0.00  3568.00     0.00     8.00     3.54    3.97    3.97    0.00   0.97  86.60
sdb               0.00     0.00  818.00    0.00  3272.00     0.00     8.00     1.55    1.94    1.94    0.00   0.85  69.80
sdd               0.00     0.00  864.00    0.00  3456.00     0.00     8.00     2.25    2.61    2.61    0.00   0.85  73.80
md0               0.00     0.00 2574.00    0.00 10296.00     0.00     8.00     0.00    0.00    0.00    0.00   0.00   0.00

avg-cpu:  %user   %nice %system %iowait  %steal   %idle
           0.00    0.00    0.22    1.88    0.00   97.91

Device:         rrqm/s   wrqm/s     r/s     w/s    rkB/s    wkB/s avgrq-sz avgqu-sz   await r_await w_await  svctm  %util
nvme0n1           0.00     0.00    0.00    0.00     0.00     0.00     0.00     0.00    0.00    0.00    0.00   0.00   0.00
sda               0.00     5.00    0.00    2.00     0.00    28.00    28.00     0.00    0.50    0.00    0.50   0.50   0.10
sdc               0.00     0.00  532.00    0.00  2128.00     0.00     8.00     3.46    6.40    6.40    0.00   1.37  73.10
sdb               0.00     0.00  680.00    0.00  2720.00     0.00     8.00     1.15    1.64    1.64    0.00   0.78  52.90
sdd               0.00     0.00  608.00    0.00  2432.00     0.00     8.00     2.72    4.49    4.49    0.00   1.07  64.80
md0               0.00     0.00 1820.00    0.00  7280.00     0.00     8.00     0.00    0.00    0.00    0.00   0.00   0.00

avg-cpu:  %user   %nice %system %iowait  %steal   %idle
           0.00    0.00    0.16    2.75    0.00   97.09

Device:         rrqm/s   wrqm/s     r/s     w/s    rkB/s    wkB/s avgrq-sz avgqu-sz   await r_await w_await  svctm  %util
nvme0n1           0.00     0.00    0.00    0.00     0.00     0.00     0.00     0.00    0.00    0.00    0.00   0.00   0.00
sda               0.00     0.00    0.00    0.00     0.00     0.00     0.00     0.00    0.00    0.00    0.00   0.00   0.00
sdc               0.00     0.00  797.00    0.00  3188.00     0.00     8.00     3.62    4.48    4.48    0.00   1.07  85.50
sdb               0.00     0.00  766.00    0.00  3064.00     0.00     8.00     0.87    1.19    1.19    0.00   0.65  50.10
sdd               0.00     0.00  774.00    0.00  3096.00     0.00     8.00     3.01    3.95    3.95    0.00   1.06  81.70
md0               0.00     0.00 2337.00    0.00  9348.00     0.00     8.00     0.00    0.00    0.00    0.00   0.00   0.00

