Linux 4.17.2 (bench2) 	08/03/2018 	_x86_64_	(32 CPU)

avg-cpu:  %user   %nice %system %iowait  %steal   %idle
           1.92    0.00    1.58    1.50    0.00   95.00

Device:         rrqm/s   wrqm/s     r/s     w/s    rkB/s    wkB/s avgrq-sz avgqu-sz   await r_await w_await  svctm  %util
nvme0n1         959.29     5.21 19338.95  532.46 108174.03 12008.59    12.10     1.38    0.05    0.03    0.67   0.02  40.48
sda               0.11     0.81   14.11    0.57   163.86     8.50    23.48     0.00    0.33    0.32    0.46   0.07   0.10
sdc              32.18     0.14  104.06    0.30  1565.05    83.34    31.59     1.46   13.97   12.93  373.51   0.94   9.86
sdb              30.09     0.15  106.10    0.32  1563.20    83.16    30.94     0.33    3.14    1.95  394.60   0.88   9.37
sdd              32.38     0.13  103.60    0.25  1561.08    82.83    31.66     0.62    5.96    4.09  782.19   0.95   9.86
md0               0.00     0.00  411.29    1.07  5773.93   292.01    29.42     0.00    0.00    0.00    0.00   0.00   0.00

avg-cpu:  %user   %nice %system %iowait  %steal   %idle
           0.03    0.00    0.88    4.32    0.00   94.78

Device:         rrqm/s   wrqm/s     r/s     w/s    rkB/s    wkB/s avgrq-sz avgqu-sz   await r_await w_await  svctm  %util
nvme0n1           0.00     0.00    0.00    0.00     0.00     0.00     0.00     0.00    0.00    0.00    0.00   0.00   0.00
sda               0.00     0.00   31.00    0.00   212.00     0.00    13.68     0.00    0.03    0.03    0.00   0.03   0.10
sdc               0.00     0.00 1047.00    0.00  5632.00     0.00    10.76     2.33    2.22    2.22    0.00   0.44  46.10
sdb               0.00     0.00 1139.00    0.00  6172.00     0.00    10.84     2.99    2.63    2.63    0.00   0.51  58.60
sdd               0.00     0.00 1061.00    0.00  5400.00     0.00    10.18     1.68    1.57    1.57    0.00   0.30  31.90
md0               0.00     0.00 3253.00    0.00 17340.00     0.00    10.66     0.00    0.00    0.00    0.00   0.00   0.00

avg-cpu:  %user   %nice %system %iowait  %steal   %idle
           0.06    0.00    0.35    3.99    0.00   95.60

Device:         rrqm/s   wrqm/s     r/s     w/s    rkB/s    wkB/s avgrq-sz avgqu-sz   await r_await w_await  svctm  %util
nvme0n1           0.00     0.00    0.00    0.00     0.00     0.00     0.00     0.00    0.00    0.00    0.00   0.00   0.00
sda               0.00     0.00    0.00    0.00     0.00     0.00     0.00     0.00    0.00    0.00    0.00   0.00   0.00
sdc               0.00     0.00 1052.00    0.00  5556.00     0.00    10.56     2.54    2.42    2.42    0.00   0.55  58.10
sdb               0.00     0.00 1070.00    0.00  5904.00     0.00    11.04     2.29    2.12    2.12    0.00   0.44  46.80
sdd               0.00     0.00  995.00    0.00  5300.00     0.00    10.65     1.92    1.94    1.94    0.00   0.41  40.60
md0               0.00     0.00 3119.00    0.00 17020.00     0.00    10.91     0.00    0.00    0.00    0.00   0.00   0.00

avg-cpu:  %user   %nice %system %iowait  %steal   %idle
           0.03    0.00    0.69    3.38    0.00   95.90

Device:         rrqm/s   wrqm/s     r/s     w/s    rkB/s    wkB/s avgrq-sz avgqu-sz   await r_await w_await  svctm  %util
nvme0n1           0.00     0.00    0.00    0.00     0.00     0.00     0.00     0.00    0.00    0.00    0.00   0.00   0.00
sda               0.00     0.00    0.00    0.00     0.00     0.00     0.00     0.00    0.00    0.00    0.00   0.00   0.00
sdc               1.00     0.00  973.00    0.00  4824.00     0.00     9.92     2.68    2.74    2.74    0.00   0.79  77.10
sdb               1.00     0.00  977.00    0.00  4964.00     0.00    10.16     1.16    1.21    1.21    0.00   0.27  26.20
sdd               2.00     0.00  974.00    0.00  5640.00     0.00    11.58     1.54    1.58    1.58    0.00   0.31  30.50
md0               0.00     0.00 2926.00    0.00 16372.00     0.00    11.19     0.00    0.00    0.00    0.00   0.00   0.00

avg-cpu:  %user   %nice %system %iowait  %steal   %idle
           0.03    0.00    0.66    3.69    0.00   95.62

Device:         rrqm/s   wrqm/s     r/s     w/s    rkB/s    wkB/s avgrq-sz avgqu-sz   await r_await w_await  svctm  %util
nvme0n1           0.00     0.00    0.00    0.00     0.00     0.00     0.00     0.00    0.00    0.00    0.00   0.00   0.00
sda               0.00    16.00    0.00    2.00     0.00    72.00    72.00     0.00    0.50    0.00    0.50   0.50   0.10
sdc               0.00     0.00  749.00    0.00  3488.00     0.00     9.31     2.39    3.20    3.20    0.00   1.01  75.90
sdb               1.00     0.00  813.00    0.00  3700.00     0.00     9.10     1.16    1.43    1.43    0.00   0.42  33.90
sdd               0.00     0.00  785.00    0.00  3872.00     0.00     9.86     1.12    1.43    1.43    0.00   0.31  24.50
md0               0.00     0.00 2343.00    0.00 11148.00     0.00     9.52     0.00    0.00    0.00    0.00   0.00   0.00

avg-cpu:  %user   %nice %system %iowait  %steal   %idle
           0.00    0.00    0.63    5.10    0.00   94.27

Device:         rrqm/s   wrqm/s     r/s     w/s    rkB/s    wkB/s avgrq-sz avgqu-sz   await r_await w_await  svctm  %util
nvme0n1           0.00     0.00    0.00    0.00     0.00     0.00     0.00     0.00    0.00    0.00    0.00   0.00   0.00
sda               0.00     0.00    0.00    0.00     0.00     0.00     0.00     0.00    0.00    0.00    0.00   0.00   0.00
sdc               0.00     0.00  786.00    0.00  4116.00     0.00    10.47     2.01    2.55    2.55    0.00   0.81  63.50
sdb               0.00     0.00  789.00    0.00  3492.00     0.00     8.85     1.42    1.80    1.80    0.00   0.58  46.10
sdd               0.00     0.00  805.00    0.00  3676.00     0.00     9.13     1.30    1.62    1.62    0.00   0.43  34.90
md0               0.00     0.00 2382.00    0.00 11420.00     0.00     9.59     0.00    0.00    0.00    0.00   0.00   0.00

avg-cpu:  %user   %nice %system %iowait  %steal   %idle
           0.06    0.00    0.44    4.98    0.00   94.52

Device:         rrqm/s   wrqm/s     r/s     w/s    rkB/s    wkB/s avgrq-sz avgqu-sz   await r_await w_await  svctm  %util
nvme0n1           0.00     0.00    0.00    0.00     0.00     0.00     0.00     0.00    0.00    0.00    0.00   0.00   0.00
sda               0.00     0.00    0.00    0.00     0.00     0.00     0.00     0.00    0.00    0.00    0.00   0.00   0.00
sdc               0.00     0.00  757.00    0.00  3380.00     0.00     8.93     1.22    1.63    1.63    0.00   0.40  30.40
sdb               0.00     0.00  730.00    0.00  3272.00     0.00     8.96     2.00    2.73    2.73    0.00   0.85  62.10
sdd               0.00     0.00  741.00    0.00  3312.00     0.00     8.94     1.75    2.36    2.36    0.00   0.68  50.70
md0               0.00     0.00 2232.00    0.00  9984.00     0.00     8.95     0.00    0.00    0.00    0.00   0.00   0.00

avg-cpu:  %user   %nice %system %iowait  %steal   %idle
           0.06    0.00    0.78    4.68    0.00   94.47

Device:         rrqm/s   wrqm/s     r/s     w/s    rkB/s    wkB/s avgrq-sz avgqu-sz   await r_await w_await  svctm  %util
nvme0n1           0.00     0.00    0.00    0.00     0.00     0.00     0.00     0.00    0.00    0.00    0.00   0.00   0.00
sda               0.00     0.00    0.00    0.00     0.00     0.00     0.00     0.00    0.00    0.00    0.00   0.00   0.00
sdc               1.00     0.00  762.00    0.00  4252.00     0.00    11.16     0.74    0.97    0.97    0.00   0.24  18.00
sdb               0.00     0.00  807.00    0.00  4576.00     0.00    11.34     2.22    2.77    2.77    0.00   0.79  64.00
sdd               1.00     0.00  750.00    0.00  3824.00     0.00    10.20     1.84    2.46    2.46    0.00   0.74  55.30
md0               0.00     0.00 2318.00    0.00 13396.00     0.00    11.56     0.00    0.00    0.00    0.00   0.00   0.00

avg-cpu:  %user   %nice %system %iowait  %steal   %idle
           0.03    0.00    0.53    5.92    0.00   93.51

Device:         rrqm/s   wrqm/s     r/s     w/s    rkB/s    wkB/s avgrq-sz avgqu-sz   await r_await w_await  svctm  %util
nvme0n1           0.00     0.00    0.00    0.00     0.00     0.00     0.00     0.00    0.00    0.00    0.00   0.00   0.00
sda               0.00     0.00    0.00    3.00     0.00    12.00     8.00     0.00    0.00    0.00    0.00   0.00   0.00
sdc               2.00     0.00  853.00    0.00  5140.00     0.00    12.05     1.26    1.48    1.48    0.00   0.33  28.20
sdb               1.00     0.00  851.00    0.00  4488.00     0.00    10.55     2.88    3.37    3.37    0.00   0.92  78.60
sdd               0.00     0.00  869.00    0.00  4540.00     0.00    10.45     1.28    1.48    1.48    0.00   0.29  25.30
md0               0.00     0.00 2581.00    0.00 14944.00     0.00    11.58     0.00    0.00    0.00    0.00   0.00   0.00

avg-cpu:  %user   %nice %system %iowait  %steal   %idle
           0.06    0.00    0.78    5.29    0.00   93.87

Device:         rrqm/s   wrqm/s     r/s     w/s    rkB/s    wkB/s avgrq-sz avgqu-sz   await r_await w_await  svctm  %util
nvme0n1           0.00     0.00    0.00    0.00     0.00     0.00     0.00     0.00    0.00    0.00    0.00   0.00   0.00
sda               0.00     4.00    0.00    2.00     0.00    24.00    24.00     0.00    0.50    0.00    0.50   0.50   0.10
sdc               0.00     0.00  982.00    0.00  4448.00     0.00     9.06     2.16    2.21    2.21    0.00   0.56  55.00
sdb               0.00     0.00 1021.00    0.00  4916.00     0.00     9.63     1.57    1.54    1.54    0.00   0.33  33.50
sdd               0.00     0.00 1032.00    0.00  5036.00     0.00     9.76     2.52    2.44    2.44    0.00   0.49  50.10
md0               0.00     0.00 3035.00    0.00 14612.00     0.00     9.63     0.00    0.00    0.00    0.00   0.00   0.00

avg-cpu:  %user   %nice %system %iowait  %steal   %idle
           0.03    0.00    0.97    4.41    0.00   94.59

Device:         rrqm/s   wrqm/s     r/s     w/s    rkB/s    wkB/s avgrq-sz avgqu-sz   await r_await w_await  svctm  %util
nvme0n1           0.00     0.00    0.00    0.00     0.00     0.00     0.00     0.00    0.00    0.00    0.00   0.00   0.00
sda               0.00     0.00    0.00    0.00     0.00     0.00     0.00     0.00    0.00    0.00    0.00   0.00   0.00
sdc               0.00     0.00 1143.00    0.00  5156.00     0.00     9.02     2.15    1.86    1.86    0.00   0.39  44.90
sdb               0.00     0.00 1146.00    0.00  5372.00     0.00     9.38     2.67    2.36    2.36    0.00   0.48  54.90
sdd               0.00     0.00 1161.00    0.00  5164.00     0.00     8.90     2.12    1.83    1.83    0.00   0.38  44.30
md0               0.00     0.00 3446.00    0.00 15884.00     0.00     9.22     0.00    0.00    0.00    0.00   0.00   0.00

avg-cpu:  %user   %nice %system %iowait  %steal   %idle
           0.09    0.00    0.94    5.13    0.00   93.84

Device:         rrqm/s   wrqm/s     r/s     w/s    rkB/s    wkB/s avgrq-sz avgqu-sz   await r_await w_await  svctm  %util
nvme0n1           0.00     0.00    0.00    0.00     0.00     0.00     0.00     0.00    0.00    0.00    0.00   0.00   0.00
sda               0.00     0.00   56.00    0.00   436.00     0.00    15.57     0.00    0.05    0.05    0.00   0.05   0.30
sdc               0.00     0.00 1070.00    0.00  4968.00     0.00     9.29     3.81    3.58    3.58    0.00   0.69  73.40
sdb               0.00     0.00 1108.00    0.00  4908.00     0.00     8.86     1.39    1.26    1.26    0.00   0.26  29.10
sdd               0.00     0.00 1062.00    0.00  4712.00     0.00     8.87     1.85    1.74    1.74    0.00   0.35  37.40
md0               0.00     0.00 3237.00    0.00 14592.00     0.00     9.02     0.00    0.00    0.00    0.00   0.00   0.00

avg-cpu:  %user   %nice %system %iowait  %steal   %idle
           0.03    0.00    0.60    4.11    0.00   95.27

Device:         rrqm/s   wrqm/s     r/s     w/s    rkB/s    wkB/s avgrq-sz avgqu-sz   await r_await w_await  svctm  %util
nvme0n1           0.00     0.00    0.00    0.00     0.00     0.00     0.00     0.00    0.00    0.00    0.00   0.00   0.00
sda               0.00     0.00    0.00    0.00     0.00     0.00     0.00     0.00    0.00    0.00    0.00   0.00   0.00
sdc               0.00     0.00  985.00    0.00  5204.00     0.00    10.57     1.73    1.77    1.77    0.00   0.44  43.30
sdb               0.00     0.00 1012.00    0.00  4376.00     0.00     8.65     2.28    2.25    2.25    0.00   0.46  46.60
sdd               0.00     0.00  939.00    0.00  4280.00     0.00     9.12     2.32    2.47    2.47    0.00   0.53  49.70
md0               0.00     0.00 2943.00    0.00 13956.00     0.00     9.48     0.00    0.00    0.00    0.00   0.00   0.00

avg-cpu:  %user   %nice %system %iowait  %steal   %idle
           0.06    0.00    0.75    4.26    0.00   94.92

Device:         rrqm/s   wrqm/s     r/s     w/s    rkB/s    wkB/s avgrq-sz avgqu-sz   await r_await w_await  svctm  %util
nvme0n1           0.00     0.00    0.00    0.00     0.00     0.00     0.00     0.00    0.00    0.00    0.00   0.00   0.00
sda               0.00     2.00    0.00    1.00     0.00    28.00    56.00     0.00    0.00    0.00    0.00   0.00   0.00
sdc               0.00     0.00 1103.00    0.00  5304.00     0.00     9.62     1.22    1.11    1.11    0.00   0.26  28.50
sdb               0.00     0.00 1132.00    0.00  5244.00     0.00     9.27     2.56    2.26    2.26    0.00   0.48  54.90
sdd               0.00     0.00 1157.00    0.00  5976.00     0.00    10.33     3.19    2.76    2.76    0.00   0.56  64.60
md0               0.00     0.00 3399.00    0.00 16864.00     0.00     9.92     0.00    0.00    0.00    0.00   0.00   0.00

avg-cpu:  %user   %nice %system %iowait  %steal   %idle
           0.06    0.00    0.75    3.92    0.00   95.27

Device:         rrqm/s   wrqm/s     r/s     w/s    rkB/s    wkB/s avgrq-sz avgqu-sz   await r_await w_await  svctm  %util
nvme0n1           0.00     0.00    0.00    0.00     0.00     0.00     0.00     0.00    0.00    0.00    0.00   0.00   0.00
sda               0.00     6.00    0.00    2.00     0.00    32.00    32.00     0.00    0.00    0.00    0.00   0.00   0.00
sdc               3.00     0.00 1086.00    0.00  6568.00     0.00    12.10     2.45    2.26    2.26    0.00   0.47  51.20
sdb               2.00     0.00 1110.00    0.00  6480.00     0.00    11.68     1.59    1.43    1.43    0.00   0.29  32.60
sdd               3.00     0.00 1069.00    0.00  6320.00     0.00    11.82     2.83    2.64    2.64    0.00   0.57  60.60
md0               0.00     0.00 3274.00    0.00 21972.00     0.00    13.42     0.00    0.00    0.00    0.00   0.00   0.00

avg-cpu:  %user   %nice %system %iowait  %steal   %idle
           0.03    0.00    0.66    2.76    0.00   96.55

Device:         rrqm/s   wrqm/s     r/s     w/s    rkB/s    wkB/s avgrq-sz avgqu-sz   await r_await w_await  svctm  %util
nvme0n1           0.00     0.00    0.00    0.00     0.00     0.00     0.00     0.00    0.00    0.00    0.00   0.00   0.00
sda               0.00     0.00    0.00    0.00     0.00     0.00     0.00     0.00    0.00    0.00    0.00   0.00   0.00
sdc               0.00     0.00  926.00    0.00  4444.00     0.00     9.60     2.05    2.21    2.21    0.00   0.56  52.10
sdb               0.00     0.00  968.00    0.00  4444.00     0.00     9.18     1.78    1.85    1.85    0.00   0.38  36.50
sdd               0.00     0.00 1001.00    0.00  4868.00     0.00     9.73     2.28    2.28    2.28    0.00   0.52  51.70
md0               0.00     0.00 2894.00    0.00 13800.00     0.00     9.54     0.00    0.00    0.00    0.00   0.00   0.00

avg-cpu:  %user   %nice %system %iowait  %steal   %idle
           0.06    0.00    0.41    4.59    0.00   94.94

Device:         rrqm/s   wrqm/s     r/s     w/s    rkB/s    wkB/s avgrq-sz avgqu-sz   await r_await w_await  svctm  %util
nvme0n1           0.00     0.00    0.00    0.00     0.00     0.00     0.00     0.00    0.00    0.00    0.00   0.00   0.00
sda               0.00     0.00    0.00    0.00     0.00     0.00     0.00     0.00    0.00    0.00    0.00   0.00   0.00
sdc               0.00     0.00 1011.00    0.00  4912.00     0.00     9.72     2.18    2.16    2.16    0.00   0.39  39.80
sdb               0.00     0.00 1029.00    0.00  4820.00     0.00     9.37     2.68    2.61    2.61    0.00   0.53  54.20
sdd               0.00     0.00 1039.00    0.00  4728.00     0.00     9.10     2.12    2.05    2.05    0.00   0.42  44.00
md0               0.00     0.00 3066.00    0.00 14528.00     0.00     9.48     0.00    0.00    0.00    0.00   0.00   0.00

avg-cpu:  %user   %nice %system %iowait  %steal   %idle
           0.03    0.00    0.72    4.80    0.00   94.45

Device:         rrqm/s   wrqm/s     r/s     w/s    rkB/s    wkB/s avgrq-sz avgqu-sz   await r_await w_await  svctm  %util
nvme0n1           0.00     0.00    0.00    0.00     0.00     0.00     0.00     0.00    0.00    0.00    0.00   0.00   0.00
sda               0.00     0.00    0.00    0.00     0.00     0.00     0.00     0.00    0.00    0.00    0.00   0.00   0.00
sdc               0.00     0.00 1084.00    0.00  5316.00     0.00     9.81     3.05    2.82    2.82    0.00   0.57  62.00
sdb               0.00     0.00 1069.00    0.00  5284.00     0.00     9.89     1.19    1.12    1.12    0.00   0.24  26.00
sdd               0.00     0.00 1095.00    0.00  5144.00     0.00     9.40     2.64    2.41    2.41    0.00   0.48  52.40
md0               0.00     0.00 3249.00    0.00 15828.00     0.00     9.74     0.00    0.00    0.00    0.00   0.00   0.00

avg-cpu:  %user   %nice %system %iowait  %steal   %idle
           0.06    0.00    0.85    4.66    0.00   94.43

Device:         rrqm/s   wrqm/s     r/s     w/s    rkB/s    wkB/s avgrq-sz avgqu-sz   await r_await w_await  svctm  %util
nvme0n1           0.00     0.00    0.00    0.00     0.00     0.00     0.00     0.00    0.00    0.00    0.00   0.00   0.00
sda               0.00     0.00    0.00    0.00     0.00     0.00     0.00     0.00    0.00    0.00    0.00   0.00   0.00
sdc               0.00     0.00 1093.00    0.00  4988.00     0.00     9.13     2.50    2.28    2.28    0.00   0.44  48.40
sdb               0.00     0.00 1067.00    0.00  4776.00     0.00     8.95     2.24    2.11    2.11    0.00   0.48  51.60
sdd               0.00     0.00 1090.00    0.00  5020.00     0.00     9.21     1.89    1.74    1.74    0.00   0.37  40.10
md0               0.00     0.00 3249.00    0.00 14848.00     0.00     9.14     0.00    0.00    0.00    0.00   0.00   0.00

avg-cpu:  %user   %nice %system %iowait  %steal   %idle
           0.09    0.00    0.75    5.36    0.00   93.80

Device:         rrqm/s   wrqm/s     r/s     w/s    rkB/s    wkB/s avgrq-sz avgqu-sz   await r_await w_await  svctm  %util
nvme0n1           0.00     0.00    0.00    0.00     0.00     0.00     0.00     0.00    0.00    0.00    0.00   0.00   0.00
sda               0.00     2.00    0.00    2.00     0.00    16.00    16.00     0.00    0.00    0.00    0.00   0.00   0.00
sdc               0.00     0.00 1103.00    0.00  5016.00     0.00     9.10     2.36    2.12    2.12    0.00   0.43  47.30
sdb               0.00     0.00 1112.00    0.00  5420.00     0.00     9.75     2.91    2.62    2.62    0.00   0.54  59.50
sdd               0.00     0.00 1110.00    0.00  5320.00     0.00     9.59     1.70    1.53    1.53    0.00   0.33  36.70
md0               0.00     0.00 3331.00    0.00 15868.00     0.00     9.53     0.00    0.00    0.00    0.00   0.00   0.00

avg-cpu:  %user   %nice %system %iowait  %steal   %idle
           0.03    0.00    0.78    4.07    0.00   95.11

Device:         rrqm/s   wrqm/s     r/s     w/s    rkB/s    wkB/s avgrq-sz avgqu-sz   await r_await w_await  svctm  %util
nvme0n1           0.00     0.00    0.00    0.00     0.00     0.00     0.00     0.00    0.00    0.00    0.00   0.00   0.00
sda               0.00     0.00    0.00    0.00     0.00     0.00     0.00     0.00    0.00    0.00    0.00   0.00   0.00
sdc               0.00     0.00 1134.00    0.00  5124.00     0.00     9.04     2.49    2.21    2.21    0.00   0.43  48.60
sdb               0.00     0.00 1105.00    0.00  5504.00     0.00     9.96     2.31    2.10    2.10    0.00   0.41  45.70
sdd               0.00     0.00 1116.00    0.00  5116.00     0.00     9.17     2.24    2.00    2.00    0.00   0.44  49.50
md0               0.00     0.00 3362.00    0.00 15900.00     0.00     9.46     0.00    0.00    0.00    0.00   0.00   0.00

