Linux 4.17.2 (bench2) 	08/03/2018 	_x86_64_	(32 CPU)

avg-cpu:  %user   %nice %system %iowait  %steal   %idle
           1.92    0.00    1.58    1.51    0.00   94.99

Device:         rrqm/s   wrqm/s     r/s     w/s    rkB/s    wkB/s avgrq-sz avgqu-sz   await r_await w_await  svctm  %util
nvme0n1         956.64     5.20 19285.47  530.99 107874.88 11975.38    12.10     1.37    0.05    0.03    0.67   0.02  40.37
sda               0.11     0.81   14.12    0.57   163.90     8.50    23.46     0.00    0.33    0.32    0.45   0.07   0.10
sdc              32.52     0.14  105.79    0.30  1597.82    83.11    31.69     1.48   13.97   12.95  373.51   0.94   9.98
sdb              30.44     0.15  107.83    0.32  1595.95    82.93    31.05     0.36    3.33    2.17  394.60   0.88   9.49
sdd              32.72     0.13  105.33    0.25  1593.86    82.60    31.76     0.65    6.11    4.27  782.19   0.95   9.99
md0               0.00     0.00  417.53    1.07  5903.04   291.20    29.59     0.00    0.00    0.00    0.00   0.00   0.00

avg-cpu:  %user   %nice %system %iowait  %steal   %idle
           0.13    0.00    1.19   21.09    0.00   77.59

Device:         rrqm/s   wrqm/s     r/s     w/s    rkB/s    wkB/s avgrq-sz avgqu-sz   await r_await w_await  svctm  %util
nvme0n1           0.00     0.00    0.00    0.00     0.00     0.00     0.00     0.00    0.00    0.00    0.00   0.00   0.00
sda               0.00     0.00   22.00    0.00   128.00     0.00    11.64     0.00    0.09    0.09    0.00   0.09   0.20
sdc               0.00     0.00 1986.00    0.00  7944.00     0.00     8.00     3.36    1.68    1.68    0.00   0.21  42.30
sdb               0.00     0.00 2054.00    0.00  8216.00     0.00     8.00     3.10    1.50    1.50    0.00   0.20  40.80
sdd               0.00     0.00 1963.00    0.00  7852.00     0.00     8.00     3.38    1.70    1.70    0.00   0.24  47.80
md0               0.00     0.00 6011.00    0.00 24044.00     0.00     8.00     0.00    0.00    0.00    0.00   0.00   0.00

avg-cpu:  %user   %nice %system %iowait  %steal   %idle
           0.06    0.00    1.29   20.53    0.00   78.12

Device:         rrqm/s   wrqm/s     r/s     w/s    rkB/s    wkB/s avgrq-sz avgqu-sz   await r_await w_await  svctm  %util
nvme0n1           0.00     0.00    0.00    0.00     0.00     0.00     0.00     0.00    0.00    0.00    0.00   0.00   0.00
sda               0.00     0.00    0.00    0.00     0.00     0.00     0.00     0.00    0.00    0.00    0.00   0.00   0.00
sdc               0.00     0.00 1856.00    0.00  7424.00     0.00     8.00     3.66    1.97    1.97    0.00   0.27  50.00
sdb               0.00     0.00 1783.00    0.00  7132.00     0.00     8.00     3.22    1.80    1.80    0.00   0.25  44.90
sdd               0.00     0.00 1776.00    0.00  7104.00     0.00     8.00     2.78    1.57    1.57    0.00   0.22  39.40
md0               0.00     0.00 5411.00    0.00 21644.00     0.00     8.00     0.00    0.00    0.00    0.00   0.00   0.00

avg-cpu:  %user   %nice %system %iowait  %steal   %idle
           0.13    0.00    1.26   19.53    0.00   79.09

Device:         rrqm/s   wrqm/s     r/s     w/s    rkB/s    wkB/s avgrq-sz avgqu-sz   await r_await w_await  svctm  %util
nvme0n1           0.00     0.00    0.00    0.00     0.00     0.00     0.00     0.00    0.00    0.00    0.00   0.00   0.00
sda               0.00     0.00    0.00    0.00     0.00     0.00     0.00     0.00    0.00    0.00    0.00   0.00   0.00
sdc               0.00     0.00 1889.00    0.00  7556.00     0.00     8.00     3.31    1.77    1.77    0.00   0.23  43.30
sdb               0.00     0.00 1817.00    0.00  7268.00     0.00     8.00     3.64    2.00    2.00    0.00   0.26  48.10
sdd               0.00     0.00 1824.00    0.00  7296.00     0.00     8.00     2.69    1.47    1.47    0.00   0.20  37.20
md0               0.00     0.00 5537.00    0.00 22148.00     0.00     8.00     0.00    0.00    0.00    0.00   0.00   0.00

avg-cpu:  %user   %nice %system %iowait  %steal   %idle
           0.03    0.00    1.10   18.89    0.00   79.98

Device:         rrqm/s   wrqm/s     r/s     w/s    rkB/s    wkB/s avgrq-sz avgqu-sz   await r_await w_await  svctm  %util
nvme0n1           0.00     0.00    0.00    0.00     0.00     0.00     0.00     0.00    0.00    0.00    0.00   0.00   0.00
sda               0.00     0.00    0.00    0.00     0.00     0.00     0.00     0.00    0.00    0.00    0.00   0.00   0.00
sdc               0.00     0.00 1730.00    0.00  6920.00     0.00     8.00     3.35    1.94    1.94    0.00   0.26  45.70
sdb               0.00     0.00 1762.00    0.00  7048.00     0.00     8.00     3.26    1.80    1.80    0.00   0.26  45.10
sdd               0.00     0.00 1556.00    0.00  6224.00     0.00     8.00     2.98    1.93    1.93    0.00   0.24  36.80
md0               0.00     0.00 5048.00    0.00 20192.00     0.00     8.00     0.00    0.00    0.00    0.00   0.00   0.00

avg-cpu:  %user   %nice %system %iowait  %steal   %idle
           0.06    0.00    1.23   18.60    0.00   80.11

Device:         rrqm/s   wrqm/s     r/s     w/s    rkB/s    wkB/s avgrq-sz avgqu-sz   await r_await w_await  svctm  %util
nvme0n1           0.00     0.00    0.00    0.00     0.00     0.00     0.00     0.00    0.00    0.00    0.00   0.00   0.00
sda               0.00     0.00    0.00    0.00     0.00     0.00     0.00     0.00    0.00    0.00    0.00   0.00   0.00
sdc               0.00     0.00 1929.00    0.00  7716.00     0.00     8.00     3.42    1.77    1.77    0.00   0.25  48.60
sdb               0.00     0.00 1984.00    0.00  7936.00     0.00     8.00     3.16    1.65    1.65    0.00   0.23  44.70
sdd               0.00     0.00 2151.00    0.00  8604.00     0.00     8.00     3.33    1.54    1.54    0.00   0.21  44.20
md0               0.00     0.00 6055.00    0.00 24220.00     0.00     8.00     0.00    0.00    0.00    0.00   0.00   0.00

avg-cpu:  %user   %nice %system %iowait  %steal   %idle
           0.09    0.00    1.01   18.95    0.00   79.95

Device:         rrqm/s   wrqm/s     r/s     w/s    rkB/s    wkB/s avgrq-sz avgqu-sz   await r_await w_await  svctm  %util
nvme0n1           0.00     0.00    0.00    0.00     0.00     0.00     0.00     0.00    0.00    0.00    0.00   0.00   0.00
sda               0.00    10.00    0.00    2.00     0.00    48.00    48.00     0.00    0.00    0.00    0.00   0.00   0.00
sdc               0.00     0.00 1905.00    0.00  7620.00     0.00     8.00     3.68    1.92    1.92    0.00   0.25  47.00
sdb               0.00     0.00 1856.00    0.00  7424.00     0.00     8.00     2.99    1.59    1.59    0.00   0.22  41.30
sdd               0.00     0.00 1823.00    0.00  7292.00     0.00     8.00     3.15    1.74    1.74    0.00   0.23  41.90
md0               0.00     0.00 5593.00    0.00 22372.00     0.00     8.00     0.00    0.00    0.00    0.00   0.00   0.00

avg-cpu:  %user   %nice %system %iowait  %steal   %idle
           0.09    0.00    0.91   18.40    0.00   80.59

Device:         rrqm/s   wrqm/s     r/s     w/s    rkB/s    wkB/s avgrq-sz avgqu-sz   await r_await w_await  svctm  %util
nvme0n1           0.00     0.00    0.00    0.00     0.00     0.00     0.00     0.00    0.00    0.00    0.00   0.00   0.00
sda               0.00     0.00    0.00    0.00     0.00     0.00     0.00     0.00    0.00    0.00    0.00   0.00   0.00
sdc               0.00     0.00 1656.00    0.00  6624.00     0.00     8.00     3.40    2.05    2.05    0.00   0.27  44.30
sdb               0.00     0.00 1640.00    0.00  6560.00     0.00     8.00     2.69    1.66    1.66    0.00   0.23  38.50
sdd               0.00     0.00 1746.00    0.00  6984.00     0.00     8.00     3.20    1.83    1.83    0.00   0.24  42.60
md0               0.00     0.00 5033.00    0.00 20132.00     0.00     8.00     0.00    0.00    0.00    0.00   0.00   0.00

avg-cpu:  %user   %nice %system %iowait  %steal   %idle
           0.09    0.00    1.57   18.47    0.00   79.87

Device:         rrqm/s   wrqm/s     r/s     w/s    rkB/s    wkB/s avgrq-sz avgqu-sz   await r_await w_await  svctm  %util
nvme0n1           0.00     0.00    0.00    0.00     0.00     0.00     0.00     0.00    0.00    0.00    0.00   0.00   0.00
sda               0.00     0.00    0.00    0.00     0.00     0.00     0.00     0.00    0.00    0.00    0.00   0.00   0.00
sdc               0.00     0.00 1909.00    0.00  7636.00     0.00     8.00     3.27    1.72    1.72    0.00   0.25  47.10
sdb               0.00     0.00 1907.00    0.00  7628.00     0.00     8.00     2.91    1.53    1.53    0.00   0.22  42.90
sdd               0.00     0.00 1882.00    0.00  7528.00     0.00     8.00     3.36    1.79    1.79    0.00   0.23  42.60
md0               0.00     0.00 5712.00    0.00 22848.00     0.00     8.00     0.00    0.00    0.00    0.00   0.00   0.00

avg-cpu:  %user   %nice %system %iowait  %steal   %idle
           0.03    0.00    1.19   17.38    0.00   81.39

Device:         rrqm/s   wrqm/s     r/s     w/s    rkB/s    wkB/s avgrq-sz avgqu-sz   await r_await w_await  svctm  %util
nvme0n1           0.00     0.00    0.00    0.00     0.00     0.00     0.00     0.00    0.00    0.00    0.00   0.00   0.00
sda               0.00     0.00    0.00    0.00     0.00     0.00     0.00     0.00    0.00    0.00    0.00   0.00   0.00
sdc               0.00     0.00 1668.00    0.00  6672.00     0.00     8.00     2.67    1.61    1.61    0.00   0.25  42.30
sdb               0.00     0.00 1549.00    0.00  6196.00     0.00     8.00     3.42    2.19    2.19    0.00   0.31  47.80
sdd               0.00     0.00 1668.00    0.00  6672.00     0.00     8.00     2.78    1.68    1.68    0.00   0.25  40.90
md0               0.00     0.00 4876.00    0.00 19504.00     0.00     8.00     0.00    0.00    0.00    0.00   0.00   0.00

avg-cpu:  %user   %nice %system %iowait  %steal   %idle
           0.06    0.00    1.10   18.35    0.00   80.48

Device:         rrqm/s   wrqm/s     r/s     w/s    rkB/s    wkB/s avgrq-sz avgqu-sz   await r_await w_await  svctm  %util
nvme0n1           0.00     0.00    0.00    0.00     0.00     0.00     0.00     0.00    0.00    0.00    0.00   0.00   0.00
sda               0.00     0.00    0.00    0.00     0.00     0.00     0.00     0.00    0.00    0.00    0.00   0.00   0.00
sdc               0.00     0.00 1879.00    0.00  7516.00     0.00     8.00     3.09    1.64    1.64    0.00   0.22  40.90
sdb               0.00     0.00 2035.00    0.00  8140.00     0.00     8.00     3.44    1.70    1.70    0.00   0.24  48.70
sdd               0.00     0.00 1894.00    0.00  7576.00     0.00     8.00     2.93    1.55    1.55    0.00   0.23  43.40
md0               0.00     0.00 5815.00    0.00 23260.00     0.00     8.00     0.00    0.00    0.00    0.00   0.00   0.00

avg-cpu:  %user   %nice %system %iowait  %steal   %idle
           0.09    0.00    1.26   18.45    0.00   80.20

Device:         rrqm/s   wrqm/s     r/s     w/s    rkB/s    wkB/s avgrq-sz avgqu-sz   await r_await w_await  svctm  %util
nvme0n1           0.00     0.00    0.00    0.00     0.00     0.00     0.00     0.00    0.00    0.00    0.00   0.00   0.00
sda               0.00     2.00    0.00    2.00     0.00    16.00    16.00     0.00    0.00    0.00    0.00   0.00   0.00
sdc               0.00     0.00 1911.00    0.00  7644.00     0.00     8.00     4.23    2.21    2.21    0.00   0.27  52.50
sdb               0.00     0.00 1833.00    0.00  7332.00     0.00     8.00     2.41    1.32    1.32    0.00   0.19  34.30
sdd               0.00     0.00 1962.00    0.00  7848.00     0.00     8.00     2.79    1.43    1.43    0.00   0.21  40.50
md0               0.00     0.00 5703.00    0.00 22812.00     0.00     8.00     0.00    0.00    0.00    0.00   0.00   0.00

avg-cpu:  %user   %nice %system %iowait  %steal   %idle
           0.06    0.00    1.22   16.45    0.00   82.26

Device:         rrqm/s   wrqm/s     r/s     w/s    rkB/s    wkB/s avgrq-sz avgqu-sz   await r_await w_await  svctm  %util
nvme0n1           0.00     0.00    0.00    0.00     0.00     0.00     0.00     0.00    0.00    0.00    0.00   0.00   0.00
sda               0.00     0.00    0.00    0.00     0.00     0.00     0.00     0.00    0.00    0.00    0.00   0.00   0.00
sdc               0.00     0.00 1822.00    0.00  7288.00     0.00     8.00     3.68    2.02    2.02    0.00   0.30  54.50
sdb               0.00     0.00 1803.00    0.00  7212.00     0.00     8.00     2.85    1.58    1.58    0.00   0.22  40.00
sdd               0.00     0.00 1723.00    0.00  6892.00     0.00     8.00     2.62    1.51    1.51    0.00   0.21  36.00
md0               0.00     0.00 5350.00    0.00 21400.00     0.00     8.00     0.00    0.00    0.00    0.00   0.00   0.00

avg-cpu:  %user   %nice %system %iowait  %steal   %idle
           0.09    0.00    1.10   16.92    0.00   81.89

Device:         rrqm/s   wrqm/s     r/s     w/s    rkB/s    wkB/s avgrq-sz avgqu-sz   await r_await w_await  svctm  %util
nvme0n1           0.00     0.00    0.00    0.00     0.00     0.00     0.00     0.00    0.00    0.00    0.00   0.00   0.00
sda               0.00     0.00    0.00    0.00     0.00     0.00     0.00     0.00    0.00    0.00    0.00   0.00   0.00
sdc               0.00     0.00 1985.00    0.00  7940.00     0.00     8.00     3.13    1.58    1.58    0.00   0.20  39.00
sdb               0.00     0.00 1834.00    0.00  7336.00     0.00     8.00     2.87    1.56    1.56    0.00   0.21  39.30
sdd               0.00     0.00 1730.00    0.00  6920.00     0.00     8.00     3.62    2.09    2.09    0.00   0.30  51.20
md0               0.00     0.00 5552.00    0.00 22208.00     0.00     8.00     0.00    0.00    0.00    0.00   0.00   0.00

avg-cpu:  %user   %nice %system %iowait  %steal   %idle
           0.06    0.00    1.29   16.84    0.00   81.81

Device:         rrqm/s   wrqm/s     r/s     w/s    rkB/s    wkB/s avgrq-sz avgqu-sz   await r_await w_await  svctm  %util
nvme0n1           0.00     0.00    0.00    0.00     0.00     0.00     0.00     0.00    0.00    0.00    0.00   0.00   0.00
sda               0.00     1.00    1.00    6.00     4.00    72.00    21.71     0.00    0.00    0.00    0.00   0.00   0.00
sdc               0.00     0.00 2155.00    0.00  8620.00     0.00     8.00     3.05    1.42    1.42    0.00   0.20  42.20
sdb               0.00     0.00 2001.00    0.00  8004.00     0.00     8.00     3.32    1.65    1.65    0.00   0.24  47.80
sdd               0.00     0.00 2124.00    0.00  8496.00     0.00     8.00     3.13    1.47    1.47    0.00   0.22  46.40
md0               0.00     0.00 6278.00    0.00 25112.00     0.00     8.00     0.00    0.00    0.00    0.00   0.00   0.00

avg-cpu:  %user   %nice %system %iowait  %steal   %idle
           0.06    0.00    1.10   16.15    0.00   82.68

Device:         rrqm/s   wrqm/s     r/s     w/s    rkB/s    wkB/s avgrq-sz avgqu-sz   await r_await w_await  svctm  %util
nvme0n1           0.00     0.00    0.00    0.00     0.00     0.00     0.00     0.00    0.00    0.00    0.00   0.00   0.00
sda               0.00     0.00    0.00    0.00     0.00     0.00     0.00     0.00    0.00    0.00    0.00   0.00   0.00
sdc               0.00     0.00 1851.00    0.00  7404.00     0.00     8.00     2.88    1.55    1.55    0.00   0.23  43.00
sdb               0.00     0.00 1715.00    0.00  6860.00     0.00     8.00     3.47    2.02    2.02    0.00   0.26  44.60
sdd               0.00     0.00 1730.00    0.00  6920.00     0.00     8.00     2.92    1.69    1.69    0.00   0.24  40.70
md0               0.00     0.00 5290.00    0.00 21160.00     0.00     8.00     0.00    0.00    0.00    0.00   0.00   0.00

avg-cpu:  %user   %nice %system %iowait  %steal   %idle
           0.06    0.00    1.23   16.18    0.00   82.53

Device:         rrqm/s   wrqm/s     r/s     w/s    rkB/s    wkB/s avgrq-sz avgqu-sz   await r_await w_await  svctm  %util
nvme0n1           0.00     0.00    0.00    0.00     0.00     0.00     0.00     0.00    0.00    0.00    0.00   0.00   0.00
sda               0.00     8.00    0.00    2.00     0.00    40.00    40.00     0.00    0.00    0.00    0.00   0.00   0.00
sdc               0.00     0.00 1784.00    0.00  7136.00     0.00     8.00     2.84    1.59    1.59    0.00   0.23  41.50
sdb               0.00     0.00 1942.00    0.00  7768.00     0.00     8.00     3.25    1.66    1.66    0.00   0.23  45.30
sdd               0.00     0.00 1814.00    0.00  7264.00     0.00     8.01     3.10    1.72    1.72    0.00   0.24  42.70
md0               0.00     0.00 5536.00    0.00 22144.00     0.00     8.00     0.00    0.00    0.00    0.00   0.00   0.00

avg-cpu:  %user   %nice %system %iowait  %steal   %idle
           0.06    0.00    0.72   12.97    0.00   86.24

Device:         rrqm/s   wrqm/s     r/s     w/s    rkB/s    wkB/s avgrq-sz avgqu-sz   await r_await w_await  svctm  %util
nvme0n1           0.00     0.00    0.00    0.00     0.00     0.00     0.00     0.00    0.00    0.00    0.00   0.00   0.00
sda               0.00     0.00    0.00    0.00     0.00     0.00     0.00     0.00    0.00    0.00    0.00   0.00   0.00
sdc               0.00     0.00 1279.00    0.00  5116.00     0.00     8.00     2.03    1.57    1.57    0.00   0.25  31.40
sdb              17.00     0.00 1360.00    0.00  5520.00     0.00     8.12     2.88    2.13    2.13    0.00   0.43  58.00
sdd               0.00     0.00 1340.00    0.00  5360.00     0.00     8.00     2.41    1.79    1.79    0.00   0.26  35.40
md0               0.00     0.00 4000.00    0.00 16000.00     0.00     8.00     0.00    0.00    0.00    0.00   0.00   0.00

avg-cpu:  %user   %nice %system %iowait  %steal   %idle
           0.03    0.00    0.75   11.89    0.00   87.33

Device:         rrqm/s   wrqm/s     r/s     w/s    rkB/s    wkB/s avgrq-sz avgqu-sz   await r_await w_await  svctm  %util
nvme0n1           0.00     0.00    0.00    0.00     0.00     0.00     0.00     0.00    0.00    0.00    0.00   0.00   0.00
sda               0.00     0.00    0.00    0.00     0.00     0.00     0.00     0.00    0.00    0.00    0.00   0.00   0.00
sdc               0.00     0.00 1078.00    0.00  4312.00     0.00     8.00     1.52    1.42    1.42    0.00   0.25  26.80
sdb              17.00     0.00 1230.00    0.00  5056.00     0.00     8.22     3.77    3.07    3.07    0.00   0.61  74.50
sdd               0.00     0.00 1213.00    0.00  4852.00     0.00     8.00     1.46    1.21    1.21    0.00   0.21  25.40
md0               0.00     0.00 3568.00    0.00 14272.00     0.00     8.00     0.00    0.00    0.00    0.00   0.00   0.00

avg-cpu:  %user   %nice %system %iowait  %steal   %idle
           0.09    0.00    0.94   13.01    0.00   85.96

Device:         rrqm/s   wrqm/s     r/s     w/s    rkB/s    wkB/s avgrq-sz avgqu-sz   await r_await w_await  svctm  %util
nvme0n1           0.00     0.00    0.00    0.00     0.00     0.00     0.00     0.00    0.00    0.00    0.00   0.00   0.00
sda               0.00     0.00    0.00    0.00     0.00     0.00     0.00     0.00    0.00    0.00    0.00   0.00   0.00
sdc               0.00     0.00 1420.00    0.00  5680.00     0.00     8.00     2.25    1.57    1.57    0.00   0.24  33.40
sdb              13.00     0.00 1309.00    0.00  5312.00     0.00     8.12     3.19    2.44    2.44    0.00   0.50  64.90
sdd               0.00     0.00 1247.00    0.00  4988.00     0.00     8.00     1.85    1.49    1.49    0.00   0.20  24.70
md0               0.00     0.00 3983.00    0.00 15932.00     0.00     8.00     0.00    0.00    0.00    0.00   0.00   0.00

avg-cpu:  %user   %nice %system %iowait  %steal   %idle
           0.03    0.00    0.91   11.90    0.00   87.16

Device:         rrqm/s   wrqm/s     r/s     w/s    rkB/s    wkB/s avgrq-sz avgqu-sz   await r_await w_await  svctm  %util
nvme0n1           0.00     0.00    0.00    0.00     0.00     0.00     0.00     0.00    0.00    0.00    0.00   0.00   0.00
sda               0.00     2.00    0.00    2.00     0.00    16.00    16.00     0.00    0.00    0.00    0.00   0.00   0.00
sdc               0.00     0.00 1334.00    0.00  5336.00     0.00     8.00     1.93    1.46    1.46    0.00   0.21  28.40
sdb              13.00     0.00 1310.00    0.00  5328.00     0.00     8.13     3.36    2.53    2.53    0.00   0.55  72.50
sdd               0.00     0.00 1489.00    0.00  5956.00     0.00     8.00     1.74    1.17    1.17    0.00   0.15  22.40
md0               0.00     0.00 4159.00    0.00 16636.00     0.00     8.00     0.00    0.00    0.00    0.00   0.00   0.00

