Linux 4.17.2 (bench2) 	08/03/2018 	_x86_64_	(32 CPU)

avg-cpu:  %user   %nice %system %iowait  %steal   %idle
           1.92    0.00    1.57    1.52    0.00   94.99

Device:         rrqm/s   wrqm/s     r/s     w/s    rkB/s    wkB/s avgrq-sz avgqu-sz   await r_await w_await  svctm  %util
nvme0n1         953.66     5.18 19225.38  529.33 107538.77 11938.07    12.10     1.37    0.05    0.03    0.67   0.02  40.25
sda               0.11     0.81   14.13    0.57   163.94     8.51    23.45     0.00    0.33    0.32    0.45   0.07   0.10
sdc              32.61     0.14  107.88    0.30  1626.07    82.85    31.59     1.49   13.76   12.77  373.51   0.93  10.11
sdb              30.53     0.15  109.92    0.32  1624.18    82.67    30.97     0.37    3.36    2.22  394.60   0.87   9.61
sdd              32.80     0.13  107.43    0.25  1622.11    82.34    31.66     0.66    6.08    4.28  782.19   0.94  10.12
md0               0.00     0.00  424.05    1.07  6011.93   290.29    29.65     0.00    0.00    0.00    0.00   0.00   0.00

avg-cpu:  %user   %nice %system %iowait  %steal   %idle
           0.01    0.00    0.19    1.06    0.00   98.73

Device:         rrqm/s   wrqm/s     r/s     w/s    rkB/s    wkB/s avgrq-sz avgqu-sz   await r_await w_await  svctm  %util
nvme0n1           0.00     0.00    0.00    0.00     0.00     0.00     0.00     0.00    0.00    0.00    0.00   0.00   0.00
sda               0.00     1.20    0.20    0.70     5.20     9.40    32.44     0.00    0.00    0.00    0.00   0.00   0.00
sdc               0.45     0.00  625.65    0.00  5463.80     0.00    17.47     1.80    2.87    2.87    0.00   1.05  65.62
sdb               0.95     0.00  614.35    0.00  5718.00     0.00    18.61     1.57    2.56    2.56    0.00   0.99  61.12
sdd               0.65     0.00  619.10    0.00  5448.20     0.00    17.60     1.69    2.74    2.74    0.00   1.05  65.26
md0               0.00     0.00 1861.50    0.00 18434.80     0.00    19.81     0.00    0.00    0.00    0.00   0.00   0.00

