Linux 4.17.2 (bench2) 	08/03/2018 	_x86_64_	(32 CPU)

avg-cpu:  %user   %nice %system %iowait  %steal   %idle
           1.92    0.00    1.57    1.52    0.00   94.99

Device:         rrqm/s   wrqm/s     r/s     w/s    rkB/s    wkB/s avgrq-sz avgqu-sz   await r_await w_await  svctm  %util
nvme0n1         952.12     5.17 19194.32  528.48 107365.04 11918.78    12.10     1.37    0.05    0.03    0.67   0.02  40.18
sda               0.11     0.81   14.14    0.57   163.94     8.51    23.45     0.00    0.33    0.32    0.45   0.07   0.10
sdc              32.95     0.14  108.89    0.30  1646.76    82.72    31.68     1.51   13.83   12.84  373.51   0.93  10.19
sdb              30.88     0.15  110.92    0.32  1644.88    82.54    31.06     0.39    3.53    2.40  394.60   0.87   9.68
sdd              33.14     0.13  108.43    0.25  1642.78    82.21    31.74     0.68    6.23    4.45  782.19   0.94  10.19
md0               0.00     0.00  428.09    1.07  6093.02   289.82    29.75     0.00    0.00    0.00    0.00   0.00   0.00

avg-cpu:  %user   %nice %system %iowait  %steal   %idle
           0.03    0.00    0.03    2.69    0.00   97.25

Device:         rrqm/s   wrqm/s     r/s     w/s    rkB/s    wkB/s avgrq-sz avgqu-sz   await r_await w_await  svctm  %util
nvme0n1           0.00     0.00    0.00    0.00     0.00     0.00     0.00     0.00    0.00    0.00    0.00   0.00   0.00
sda               0.00     0.00   20.00    0.00   120.00     0.00    12.00     0.00    0.05    0.05    0.00   0.00   0.00
sdc               0.00     0.00   78.00    0.00   336.00     0.00     8.62     1.84   23.56   23.56    0.00   9.05  70.60
sdb               0.00     0.00   61.00    0.00   244.00     0.00     8.00     1.52   24.82   24.82    0.00  10.05  61.30
sdd               0.00     0.00   86.00    0.00   344.00     0.00     8.00     2.25   26.19   26.19    0.00   9.43  81.10
md0               0.00     0.00  225.00    0.00   912.00     0.00     8.11     0.00    0.00    0.00    0.00   0.00   0.00

avg-cpu:  %user   %nice %system %iowait  %steal   %idle
           0.00    0.00    0.03    2.78    0.00   97.19

Device:         rrqm/s   wrqm/s     r/s     w/s    rkB/s    wkB/s avgrq-sz avgqu-sz   await r_await w_await  svctm  %util
nvme0n1           0.00     0.00    0.00    0.00     0.00     0.00     0.00     0.00    0.00    0.00    0.00   0.00   0.00
sda               0.00    13.00    0.00    2.00     0.00    60.00    60.00     0.00    0.50    0.00    0.50   0.50   0.10
sdc               0.00     0.00  101.00    0.00   404.00     0.00     8.00     2.50   24.77   24.77    0.00   7.97  80.50
sdb               0.00     0.00   95.00    0.00   380.00     0.00     8.00     2.10   21.07   21.07    0.00   8.02  76.20
sdd               0.00     0.00   85.00    0.00   340.00     0.00     8.00     1.45   16.99   16.99    0.00   7.36  62.60
md0               0.00     0.00  285.00    0.00  1140.00     0.00     8.00     0.00    0.00    0.00    0.00   0.00   0.00

avg-cpu:  %user   %nice %system %iowait  %steal   %idle
           0.00    0.00    0.03    2.44    0.00   97.53

Device:         rrqm/s   wrqm/s     r/s     w/s    rkB/s    wkB/s avgrq-sz avgqu-sz   await r_await w_await  svctm  %util
nvme0n1           0.00     0.00    0.00    0.00     0.00     0.00     0.00     0.00    0.00    0.00    0.00   0.00   0.00
sda               0.00     0.00    0.00    0.00     0.00     0.00     0.00     0.00    0.00    0.00    0.00   0.00   0.00
sdc               0.00     0.00  107.00    0.00   428.00     0.00     8.00     2.44   22.76   22.76    0.00   7.69  82.30
sdb               0.00     0.00   93.00    0.00   372.00     0.00     8.00     1.57   18.04   18.04    0.00   7.71  71.70
sdd               0.00     0.00   93.00    0.00   372.00     0.00     8.00     2.06   21.35   21.35    0.00   7.84  72.90
md0               0.00     0.00  290.00    0.00  1160.00     0.00     8.00     0.00    0.00    0.00    0.00   0.00   0.00

avg-cpu:  %user   %nice %system %iowait  %steal   %idle
           0.00    0.00    0.03    4.00    0.00   95.97

Device:         rrqm/s   wrqm/s     r/s     w/s    rkB/s    wkB/s avgrq-sz avgqu-sz   await r_await w_await  svctm  %util
nvme0n1           0.00     0.00    0.00    0.00     0.00     0.00     0.00     0.00    0.00    0.00    0.00   0.00   0.00
sda               0.00     0.00    0.00    0.00     0.00     0.00     0.00     0.00    0.00    0.00    0.00   0.00   0.00
sdc               0.00     0.00   79.00    0.00   316.00     0.00     8.00     1.20   14.62   14.62    0.00   8.27  65.30
sdb               0.00     0.00  109.00    0.00   436.00     0.00     8.00     2.42   22.15   22.15    0.00   7.95  86.70
sdd               0.00     0.00  105.00    0.00   420.00     0.00     8.00     2.32   22.82   22.82    0.00   7.77  81.60
md0               0.00     0.00  299.00    0.00  1196.00     0.00     8.00     0.00    0.00    0.00    0.00   0.00   0.00

avg-cpu:  %user   %nice %system %iowait  %steal   %idle
           0.00    0.00    0.03    3.35    0.00   96.62

Device:         rrqm/s   wrqm/s     r/s     w/s    rkB/s    wkB/s avgrq-sz avgqu-sz   await r_await w_await  svctm  %util
nvme0n1           0.00     0.00    0.00    0.00     0.00     0.00     0.00     0.00    0.00    0.00    0.00   0.00   0.00
sda               0.00     0.00    0.00    0.00     0.00     0.00     0.00     0.00    0.00    0.00    0.00   0.00   0.00
sdc               0.00     0.00  106.00    0.00   424.00     0.00     8.00     2.04   19.67   19.67    0.00   7.97  84.50
sdb               0.00     0.00   98.00    0.00   392.00     0.00     8.00     1.87   18.65   18.65    0.00   7.67  75.20
sdd               0.00     0.00  108.00    0.00   432.00     0.00     8.00     2.04   18.82   18.82    0.00   7.49  80.90
md0               0.00     0.00  307.00    0.00  1228.00     0.00     8.00     0.00    0.00    0.00    0.00   0.00   0.00

avg-cpu:  %user   %nice %system %iowait  %steal   %idle
           0.00    0.00    0.03    3.03    0.00   96.94

Device:         rrqm/s   wrqm/s     r/s     w/s    rkB/s    wkB/s avgrq-sz avgqu-sz   await r_await w_await  svctm  %util
nvme0n1           0.00     0.00    0.00    0.00     0.00     0.00     0.00     0.00    0.00    0.00    0.00   0.00   0.00
sda               0.00     0.00    0.00    0.00     0.00     0.00     0.00     0.00    0.00    0.00    0.00   0.00   0.00
sdc               0.00     0.00  105.00    0.00   420.00     0.00     8.00     1.87   17.05   17.05    0.00   8.00  84.00
sdb               0.00     0.00  101.00    0.00   404.00     0.00     8.00     1.82   18.08   18.08    0.00   7.75  78.30
sdd               0.00     0.00  106.00    0.00   424.00     0.00     8.00     2.31   21.81   21.81    0.00   7.94  84.20
md0               0.00     0.00  317.00    0.00  1268.00     0.00     8.00     0.00    0.00    0.00    0.00   0.00   0.00

avg-cpu:  %user   %nice %system %iowait  %steal   %idle
           0.00    0.00    0.06    2.44    0.00   97.50

Device:         rrqm/s   wrqm/s     r/s     w/s    rkB/s    wkB/s avgrq-sz avgqu-sz   await r_await w_await  svctm  %util
nvme0n1           0.00     0.00    0.00    0.00     0.00     0.00     0.00     0.00    0.00    0.00    0.00   0.00   0.00
sda               0.00     1.00    0.00    2.00     0.00    12.00    12.00     0.00    0.00    0.00    0.00   0.00   0.00
sdc               0.00     0.00  104.00    0.00   416.00     0.00     8.00     2.20   21.55   21.55    0.00   7.97  82.90
sdb               0.00     0.00  107.00    0.00   428.00     0.00     8.00     2.33   21.93   21.93    0.00   7.81  83.60
sdd               0.00     0.00   95.00    0.00   380.00     0.00     8.00     1.57   16.61   16.61    0.00   7.69  73.10
md0               0.00     0.00  306.00    0.00  1224.00     0.00     8.00     0.00    0.00    0.00    0.00   0.00   0.00

avg-cpu:  %user   %nice %system %iowait  %steal   %idle
           0.00    0.00    0.03    2.41    0.00   97.56

Device:         rrqm/s   wrqm/s     r/s     w/s    rkB/s    wkB/s avgrq-sz avgqu-sz   await r_await w_await  svctm  %util
nvme0n1           0.00     0.00    0.00    0.00     0.00     0.00     0.00     0.00    0.00    0.00    0.00   0.00   0.00
sda               0.00     2.00    0.00   15.00     0.00    68.00     9.07     0.00    0.00    0.00    0.00   0.00   0.00
sdc               0.00     0.00   93.00    0.00   372.00     0.00     8.00     2.19   24.01   24.01    0.00   8.19  76.20
sdb               0.00     0.00  102.00    0.00   408.00     0.00     8.00     2.11   20.79   20.79    0.00   7.66  78.10
sdd               0.00     0.00   88.00    0.00   352.00     0.00     8.00     1.50   17.05   17.05    0.00   7.98  70.20
md0               0.00     0.00  276.00    0.00  1104.00     0.00     8.00     0.00    0.00    0.00    0.00   0.00   0.00

avg-cpu:  %user   %nice %system %iowait  %steal   %idle
           0.00    0.00    0.03    2.75    0.00   97.22

Device:         rrqm/s   wrqm/s     r/s     w/s    rkB/s    wkB/s avgrq-sz avgqu-sz   await r_await w_await  svctm  %util
nvme0n1           0.00     0.00    0.00    0.00     0.00     0.00     0.00     0.00    0.00    0.00    0.00   0.00   0.00
sda               0.00     0.00    0.00    0.00     0.00     0.00     0.00     0.00    0.00    0.00    0.00   0.00   0.00
sdc               0.00     0.00  100.00    0.00   400.00     0.00     8.00     1.96   18.42   18.42    0.00   7.40  74.00
sdb               0.00     0.00   95.00    0.00   380.00     0.00     8.00     1.90   20.20   20.20    0.00   7.79  74.00
sdd               0.00     0.00  108.00    0.00   432.00     0.00     8.00     2.02   18.64   18.64    0.00   7.56  81.60
md0               0.00     0.00  309.00    0.00  1236.00     0.00     8.00     0.00    0.00    0.00    0.00   0.00   0.00

avg-cpu:  %user   %nice %system %iowait  %steal   %idle
           0.00    0.00    0.06    2.38    0.00   97.56

Device:         rrqm/s   wrqm/s     r/s     w/s    rkB/s    wkB/s avgrq-sz avgqu-sz   await r_await w_await  svctm  %util
nvme0n1           0.00     0.00    0.00    0.00     0.00     0.00     0.00     0.00    0.00    0.00    0.00   0.00   0.00
sda               0.00     0.00    0.00    0.00     0.00     0.00     0.00     0.00    0.00    0.00    0.00   0.00   0.00
sdc               0.00     0.00   73.00    0.00   292.00     0.00     8.00     1.06   15.73   15.73    0.00   8.15  59.50
sdb               0.00     0.00  109.00    0.00   436.00     0.00     8.00     3.16   27.77   27.77    0.00   7.89  86.00
sdd               0.00     0.00   82.00    0.00   328.00     0.00     8.00     1.40   17.05   17.05    0.00   7.77  63.70
md0               0.00     0.00  262.00    0.00  1048.00     0.00     8.00     0.00    0.00    0.00    0.00   0.00   0.00

avg-cpu:  %user   %nice %system %iowait  %steal   %idle
           0.00    0.00    0.00    1.88    0.00   98.12

Device:         rrqm/s   wrqm/s     r/s     w/s    rkB/s    wkB/s avgrq-sz avgqu-sz   await r_await w_await  svctm  %util
nvme0n1           0.00     0.00    0.00    0.00     0.00     0.00     0.00     0.00    0.00    0.00    0.00   0.00   0.00
sda               0.00     0.00    0.00    0.00     0.00     0.00     0.00     0.00    0.00    0.00    0.00   0.00   0.00
sdc               0.00     0.00  103.00    0.00   412.00     0.00     8.00     2.08   20.44   20.44    0.00   7.55  77.80
sdb               0.00     0.00  109.00    0.00   436.00     0.00     8.00     2.33   22.63   22.63    0.00   7.64  83.30
sdd               0.00     0.00   85.00    0.00   340.00     0.00     8.00     1.38   16.04   16.04    0.00   7.76  66.00
md0               0.00     0.00  293.00    0.00  1172.00     0.00     8.00     0.00    0.00    0.00    0.00   0.00   0.00

avg-cpu:  %user   %nice %system %iowait  %steal   %idle
           0.00    0.00    0.06    2.41    0.00   97.53

Device:         rrqm/s   wrqm/s     r/s     w/s    rkB/s    wkB/s avgrq-sz avgqu-sz   await r_await w_await  svctm  %util
nvme0n1           0.00     0.00    0.00    0.00     0.00     0.00     0.00     0.00    0.00    0.00    0.00   0.00   0.00
sda               0.00     1.00    0.00    2.00     0.00    12.00    12.00     0.00    0.00    0.00    0.00   0.00   0.00
sdc               0.00     0.00   89.00    0.00   356.00     0.00     8.00     1.51   16.62   16.62    0.00   7.76  69.10
sdb               0.00     0.00  106.00    0.00   424.00     0.00     8.00     2.32   21.81   21.81    0.00   7.55  80.00
sdd               0.00     0.00   96.00    0.00   384.00     0.00     8.00     2.03   21.19   21.19    0.00   8.36  80.30
md0               0.00     0.00  298.00    0.00  1192.00     0.00     8.00     0.00    0.00    0.00    0.00   0.00   0.00

avg-cpu:  %user   %nice %system %iowait  %steal   %idle
           0.00    0.00    0.06    2.41    0.00   97.53

Device:         rrqm/s   wrqm/s     r/s     w/s    rkB/s    wkB/s avgrq-sz avgqu-sz   await r_await w_await  svctm  %util
nvme0n1           0.00     0.00    0.00    0.00     0.00     0.00     0.00     0.00    0.00    0.00    0.00   0.00   0.00
sda               0.00     1.00    0.00    3.00     0.00    32.00    21.33     0.00    0.00    0.00    0.00   0.00   0.00
sdc               0.00     0.00   96.00    0.00   384.00     0.00     8.00     1.67   17.80   17.80    0.00   7.85  75.40
sdb               0.00     0.00   92.00    0.00   368.00     0.00     8.00     1.64   17.25   17.25    0.00   7.92  72.90
sdd               0.00     0.00  105.00    0.00   420.00     0.00     8.00     2.45   23.17   23.17    0.00   7.92  83.20
md0               0.00     0.00  293.00    0.00  1172.00     0.00     8.00     0.00    0.00    0.00    0.00   0.00   0.00

avg-cpu:  %user   %nice %system %iowait  %steal   %idle
           0.00    0.00    0.03    2.59    0.00   97.37

Device:         rrqm/s   wrqm/s     r/s     w/s    rkB/s    wkB/s avgrq-sz avgqu-sz   await r_await w_await  svctm  %util
nvme0n1           0.00     0.00    0.00    0.00     0.00     0.00     0.00     0.00    0.00    0.00    0.00   0.00   0.00
sda               0.00     0.00    0.00    0.00     0.00     0.00     0.00     0.00    0.00    0.00    0.00   0.00   0.00
sdc               0.00     0.00  109.00    0.00   436.00     0.00     8.00     2.34   21.09   21.09    0.00   7.90  86.10
sdb               0.00     0.00  109.00    0.00   436.00     0.00     8.00     1.89   17.84   17.84    0.00   7.70  83.90
sdd               0.00     0.00  101.00    0.00   404.00     0.00     8.00     2.01   19.88   19.88    0.00   7.92  80.00
md0               0.00     0.00  319.00    0.00  1276.00     0.00     8.00     0.00    0.00    0.00    0.00   0.00   0.00

avg-cpu:  %user   %nice %system %iowait  %steal   %idle
           0.00    0.00    0.00    2.60    0.00   97.40

Device:         rrqm/s   wrqm/s     r/s     w/s    rkB/s    wkB/s avgrq-sz avgqu-sz   await r_await w_await  svctm  %util
nvme0n1           0.00     0.00    0.00    0.00     0.00     0.00     0.00     0.00    0.00    0.00    0.00   0.00   0.00
sda               0.00     0.00    0.00    0.00     0.00     0.00     0.00     0.00    0.00    0.00    0.00   0.00   0.00
sdc               0.00     0.00  103.00    0.00   412.00     0.00     8.00     2.02   19.89   19.89    0.00   7.80  80.30
sdb               0.00     0.00  114.00    0.00   456.00     0.00     8.00     2.66   22.54   22.54    0.00   7.66  87.30
sdd               0.00     0.00   88.00    0.00   352.00     0.00     8.00     1.30   15.03   15.03    0.00   7.62  67.10
md0               0.00     0.00  303.00    0.00  1212.00     0.00     8.00     0.00    0.00    0.00    0.00   0.00   0.00

avg-cpu:  %user   %nice %system %iowait  %steal   %idle
           0.00    0.00    0.06    2.75    0.00   97.19

Device:         rrqm/s   wrqm/s     r/s     w/s    rkB/s    wkB/s avgrq-sz avgqu-sz   await r_await w_await  svctm  %util
nvme0n1           0.00     0.00    0.00    0.00     0.00     0.00     0.00     0.00    0.00    0.00    0.00   0.00   0.00
sda               0.00     0.00    0.00    0.00     0.00     0.00     0.00     0.00    0.00    0.00    0.00   0.00   0.00
sdc               0.00     0.00   98.00    0.00   392.00     0.00     8.00     1.93   19.06   19.06    0.00   7.89  77.30
sdb               0.00     0.00  100.00    0.00   400.00     0.00     8.00     2.06   21.34   21.34    0.00   7.88  78.80
sdd               0.00     0.00  103.00    0.00   412.00     0.00     8.00     1.96   18.92   18.92    0.00   7.87  81.10
md0               0.00     0.00  303.00    0.00  1212.00     0.00     8.00     0.00    0.00    0.00    0.00   0.00   0.00

avg-cpu:  %user   %nice %system %iowait  %steal   %idle
           0.00    0.00    0.03    0.16    0.00   99.81

Device:         rrqm/s   wrqm/s     r/s     w/s    rkB/s    wkB/s avgrq-sz avgqu-sz   await r_await w_await  svctm  %util
nvme0n1           0.00     0.00    0.00    0.00     0.00     0.00     0.00     0.00    0.00    0.00    0.00   0.00   0.00
sda               0.00     3.00    0.00    2.00     0.00    20.00    20.00     0.00    0.00    0.00    0.00   0.00   0.00
sdc               0.00     0.00  110.00    0.00   440.00     0.00     8.00     2.30   21.23   21.23    0.00   7.80  85.80
sdb               0.00     0.00   96.00    0.00   384.00     0.00     8.00     1.56   16.31   16.31    0.00   7.38  70.80
sdd               0.00     0.00  104.00    0.00   416.00     0.00     8.00     2.04   19.57   19.57    0.00   7.39  76.90
md0               0.00     0.00  307.00    0.00  1228.00     0.00     8.00     0.00    0.00    0.00    0.00   0.00   0.00

avg-cpu:  %user   %nice %system %iowait  %steal   %idle
           0.03    0.00    0.03    0.47    0.00   99.47

Device:         rrqm/s   wrqm/s     r/s     w/s    rkB/s    wkB/s avgrq-sz avgqu-sz   await r_await w_await  svctm  %util
nvme0n1           0.00     0.00    0.00    0.00     0.00     0.00     0.00     0.00    0.00    0.00    0.00   0.00   0.00
sda               0.00     0.00    0.00    0.00     0.00     0.00     0.00     0.00    0.00    0.00    0.00   0.00   0.00
sdc               0.00     0.00   95.00    0.00   380.00     0.00     8.00     2.20   21.84   21.84    0.00   7.82  74.30
sdb               0.00     0.00   95.00    0.00   380.00     0.00     8.00     1.87   19.98   19.98    0.00   7.91  75.10
sdd               0.00     0.00   96.00    0.00   384.00     0.00     8.00     1.64   17.17   17.17    0.00   7.93  76.10
md0               0.00     0.00  286.00    0.00  1144.00     0.00     8.00     0.00    0.00    0.00    0.00   0.00   0.00

avg-cpu:  %user   %nice %system %iowait  %steal   %idle
           0.00    0.00    0.03    0.03    0.00   99.94

Device:         rrqm/s   wrqm/s     r/s     w/s    rkB/s    wkB/s avgrq-sz avgqu-sz   await r_await w_await  svctm  %util
nvme0n1           0.00     0.00    0.00    0.00     0.00     0.00     0.00     0.00    0.00    0.00    0.00   0.00   0.00
sda               0.00     0.00    0.00    0.00     0.00     0.00     0.00     0.00    0.00    0.00    0.00   0.00   0.00
sdc               0.00     0.00  103.00    0.00   412.00     0.00     8.00     2.31   24.06   24.06    0.00   7.77  80.00
sdb               0.00     0.00  104.00    0.00   416.00     0.00     8.00     2.07   19.23   19.23    0.00   7.75  80.60
sdd               0.00     0.00   86.00    0.00   344.00     0.00     8.00     1.56   18.14   18.14    0.00   7.88  67.80
md0               0.00     0.00  289.00    0.00  1156.00     0.00     8.00     0.00    0.00    0.00    0.00   0.00   0.00

avg-cpu:  %user   %nice %system %iowait  %steal   %idle
           0.00    0.00    0.03    0.31    0.00   99.66

Device:         rrqm/s   wrqm/s     r/s     w/s    rkB/s    wkB/s avgrq-sz avgqu-sz   await r_await w_await  svctm  %util
nvme0n1           0.00     0.00    0.00    0.00     0.00     0.00     0.00     0.00    0.00    0.00    0.00   0.00   0.00
sda               0.00     0.00    0.00    0.00     0.00     0.00     0.00     0.00    0.00    0.00    0.00   0.00   0.00
sdc               0.00     0.00   87.00    0.00   348.00     0.00     8.00     1.67   19.18   19.18    0.00   8.36  72.70
sdb               0.00     0.00   84.00    0.00   336.00     0.00     8.00     1.31   16.38   16.38    0.00   7.50  63.00
sdd               0.00     0.00  119.00    0.00   476.00     0.00     8.00     2.84   23.80   23.80    0.00   7.64  90.90
md0               0.00     0.00  290.00    0.00  1160.00     0.00     8.00     0.00    0.00    0.00    0.00   0.00   0.00

