Linux 4.17.2 (bench2) 	08/03/2018 	_x86_64_	(32 CPU)

avg-cpu:  %user   %nice %system %iowait  %steal   %idle
           1.92    0.00    1.57    1.52    0.00   94.99

Device:         rrqm/s   wrqm/s     r/s     w/s    rkB/s    wkB/s avgrq-sz avgqu-sz   await r_await w_await  svctm  %util
nvme0n1         954.21     5.18 19236.53  529.64 107601.10 11944.99    12.10     1.37    0.05    0.03    0.67   0.02  40.27
sda               0.11     0.81   14.13    0.57   163.93     8.51    23.45     0.00    0.33    0.32    0.45   0.07   0.10
sdc              32.61     0.14  107.66    0.30  1621.13    82.90    31.57     1.49   13.77   12.77  373.51   0.93  10.08
sdb              30.53     0.15  109.70    0.32  1619.25    82.72    30.94     0.37    3.34    2.20  394.60   0.87   9.58
sdd              32.81     0.13  107.20    0.25  1617.17    82.39    31.63     0.65    6.07    4.26  782.19   0.94  10.09
md0               0.00     0.00  423.38    1.07  5992.21   290.46    29.60     0.00    0.00    0.00    0.00   0.00   0.00

avg-cpu:  %user   %nice %system %iowait  %steal   %idle
           0.06    0.00    1.42    0.67    0.00   97.85

Device:         rrqm/s   wrqm/s     r/s     w/s    rkB/s    wkB/s avgrq-sz avgqu-sz   await r_await w_await  svctm  %util
nvme0n1           0.00     0.00    0.00    0.00     0.00     0.00     0.00     0.00    0.00    0.00    0.00   0.00   0.00
sda               0.00     1.45    3.95    1.55    30.80    12.80    15.85     0.00    0.15    0.19    0.06   0.06   0.04
sdc               0.00     0.00 2985.25    0.00 11941.00     0.00     8.00     5.55    1.86    1.86    0.00   0.12  36.73
sdb               0.85     0.00 2909.40    0.00 11641.00     0.00     8.00     5.39    1.85    1.85    0.00   0.12  36.19
sdd               1.65     0.00 2927.20    0.00 11715.60     0.00     8.00     5.32    1.82    1.82    0.00   0.12  35.73
md0               0.00     0.00 8824.85    0.00 35299.40     0.00     8.00     0.00    0.00    0.00    0.00   0.00   0.00

