Linux 4.17.2 (bench2) 	08/03/2018 	_x86_64_	(32 CPU)

avg-cpu:  %user   %nice %system %iowait  %steal   %idle
           1.93    0.00    1.58    1.49    0.00   95.00

Device:         rrqm/s   wrqm/s     r/s     w/s    rkB/s    wkB/s avgrq-sz avgqu-sz   await r_await w_await  svctm  %util
nvme0n1         961.48     5.22 19383.05  533.67 108420.68 12035.97    12.10     1.38    0.05    0.03    0.67   0.02  40.58
sda               0.11     0.81   14.10    0.57   163.80     8.50    23.49     0.00    0.33    0.32    0.46   0.07   0.10
sdc              32.13     0.14  102.55    0.30  1548.26    83.53    31.73     1.45   14.13   13.07  373.51   0.95   9.77
sdb              30.05     0.15  104.60    0.32  1546.42    83.35    31.07     0.33    3.12    1.91  394.60   0.88   9.28
sdd              32.34     0.13  102.09    0.25  1544.30    83.02    31.80     0.61    5.99    4.08  782.19   0.95   9.77
md0               0.00     0.00  406.65    1.08  5710.62   292.67    29.45     0.00    0.00    0.00    0.00   0.00   0.00

avg-cpu:  %user   %nice %system %iowait  %steal   %idle
           0.11    0.00    2.08   30.19    0.00   67.63

Device:         rrqm/s   wrqm/s     r/s     w/s    rkB/s    wkB/s avgrq-sz avgqu-sz   await r_await w_await  svctm  %util
nvme0n1           0.00     0.00    0.00    0.00     0.00     0.00     0.00     0.00    0.00    0.00    0.00   0.00   0.00
sda               0.00     1.05    1.05    1.20     6.00     9.80    14.04     0.00    0.11    0.19    0.04   0.04   0.01
sdc               0.00     0.00 3044.35    0.00 12178.60     0.00     8.00     3.92    1.28    1.28    0.00   0.12  36.36
sdb               0.00     0.00 3014.65    0.00 12058.60     0.00     8.00     3.91    1.30    1.30    0.00   0.12  36.27
sdd               0.00     0.00 2997.20    0.00 11988.80     0.00     8.00     3.97    1.32    1.32    0.00   0.12  36.75
md0               0.00     0.00 9056.95    0.00 36228.40     0.00     8.00     0.00    0.00    0.00    0.00   0.00   0.00

