Linux 4.17.2 (bench2) 	08/03/2018 	_x86_64_	(32 CPU)

avg-cpu:  %user   %nice %system %iowait  %steal   %idle
           1.92    0.00    1.58    1.50    0.00   94.99

Device:         rrqm/s   wrqm/s     r/s     w/s    rkB/s    wkB/s avgrq-sz avgqu-sz   await r_await w_await  svctm  %util
nvme0n1         957.82     5.20 19309.16  531.64 108007.40 11990.09    12.10     1.37    0.05    0.03    0.67   0.02  40.42
sda               0.12     0.81   14.12    0.57   163.87     8.50    23.47     0.00    0.33    0.32    0.45   0.07   0.10
sdc              32.24     0.14  104.92    0.30  1585.39    83.21    31.72     1.47   14.01   12.98  373.51   0.94   9.93
sdb              30.16     0.15  106.96    0.32  1583.52    83.03    31.07     0.35    3.28    2.10  394.60   0.88   9.44
sdd              32.45     0.13  104.46    0.25  1581.42    82.70    31.79     0.64    6.08    4.22  782.19   0.95   9.94
md0               0.00     0.00  414.08    1.07  5856.24   291.56    29.62     0.00    0.00    0.00    0.00   0.00   0.00

avg-cpu:  %user   %nice %system %iowait  %steal   %idle
           0.00    0.00    0.09    2.91    0.00   97.00

Device:         rrqm/s   wrqm/s     r/s     w/s    rkB/s    wkB/s avgrq-sz avgqu-sz   await r_await w_await  svctm  %util
nvme0n1           0.00     0.00    0.00    0.00     0.00     0.00     0.00     0.00    0.00    0.00    0.00   0.00   0.00
sda               0.00     0.00   18.00    0.00    76.00     0.00     8.44     0.01    0.83    0.83    0.00   0.06   0.10
sdc              23.00     0.00  278.00    0.00 31308.00     0.00   225.24     0.34    1.22    1.22    0.00   0.94  26.10
sdb              24.00     0.00  261.00    0.00 31064.00     0.00   238.04     0.68    2.61    2.61    0.00   2.08  54.30
sdd              24.00     0.00  284.00    0.00 32848.00     0.00   231.32     0.86    3.00    3.00    0.00   2.13  60.50
md0               0.00     0.00  894.00    0.00 132280.00     0.00   295.93     0.00    0.00    0.00    0.00   0.00   0.00

avg-cpu:  %user   %nice %system %iowait  %steal   %idle
           0.00    0.00    0.13    2.94    0.00   96.94

Device:         rrqm/s   wrqm/s     r/s     w/s    rkB/s    wkB/s avgrq-sz avgqu-sz   await r_await w_await  svctm  %util
nvme0n1           0.00     0.00    0.00    0.00     0.00     0.00     0.00     0.00    0.00    0.00    0.00   0.00   0.00
sda               0.00     0.00    0.00    0.00     0.00     0.00     0.00     0.00    0.00    0.00    0.00   0.00   0.00
sdc               9.00     0.00  310.00    0.00 23612.00     0.00   152.34     0.48    1.53    1.53    0.00   1.24  38.40
sdb               6.00     0.00  299.00    0.00 24752.00     0.00   165.57     0.54    1.82    1.82    0.00   1.55  46.40
sdd               9.00     0.00  292.00    0.00 24964.00     0.00   170.99     0.52    1.82    1.82    0.00   1.54  44.90
md0               0.00     0.00  926.00    0.00 94760.00     0.00   204.67     0.00    0.00    0.00    0.00   0.00   0.00

