Linux 4.17.2 (bench2) 	08/03/2018 	_x86_64_	(32 CPU)

avg-cpu:  %user   %nice %system %iowait  %steal   %idle
           1.91    0.00    1.57    1.54    0.00   94.98

Device:         rrqm/s   wrqm/s     r/s     w/s    rkB/s    wkB/s avgrq-sz avgqu-sz   await r_await w_await  svctm  %util
nvme0n1         948.75     5.15 19126.36  526.61 106984.88 11876.58    12.10     1.36    0.05    0.03    0.67   0.02  40.04
sda               0.12     0.81   14.15    0.58   163.99     8.51    23.43     0.00    0.33    0.32    0.45   0.07   0.10
sdc              33.03     0.14  111.28    0.30  1676.97    82.43    31.54     1.52   13.60   12.64  373.51   0.93  10.33
sdb              30.97     0.15  113.30    0.32  1675.09    82.25    30.93     0.40    3.55    2.45  394.60   0.86   9.82
sdd              33.23     0.13  110.82    0.25  1672.98    81.92    31.60     0.69    6.19    4.45  782.19   0.93  10.33
md0               0.00     0.00  435.49    1.06  6208.75   288.80    29.77     0.00    0.00    0.00    0.00   0.00   0.00

avg-cpu:  %user   %nice %system %iowait  %steal   %idle
           0.02    0.00    0.17    0.15    0.00   99.66

Device:         rrqm/s   wrqm/s     r/s     w/s    rkB/s    wkB/s avgrq-sz avgqu-sz   await r_await w_await  svctm  %util
nvme0n1           0.00     0.00    0.00    0.00     0.00     0.00     0.00     0.00    0.00    0.00    0.00   0.00   0.00
sda               0.00     0.90    4.70    0.60    33.80     6.80    15.32     0.00    0.33    0.36    0.08   0.08   0.04
sdc              70.85     0.00 2540.05    0.00 10443.60     0.00     8.22     9.06    3.57    3.57    0.00   0.21  52.82
sdb              74.55     0.00 2536.65    0.00 10444.80     0.00     8.24     6.59    2.60    2.60    0.00   0.14  36.52
sdd              83.80     0.00 2548.75    0.00 10530.20     0.00     8.26    12.49    4.90    4.90    0.00   0.28  70.39
md0               0.00     0.00 7854.65    0.00 31418.60     0.00     8.00     0.00    0.00    0.00    0.00   0.00   0.00

