Linux 4.17.2 (bench2) 	08/03/2018 	_x86_64_	(32 CPU)

avg-cpu:  %user   %nice %system %iowait  %steal   %idle
           1.93    0.00    1.59    1.49    0.00   95.00

Device:         rrqm/s   wrqm/s     r/s     w/s    rkB/s    wkB/s avgrq-sz avgqu-sz   await r_await w_await  svctm  %util
nvme0n1         962.05     5.23 19394.61  533.99 108485.36 12043.15    12.10     1.38    0.05    0.03    0.67   0.02  40.60
sda               0.11     0.81   14.10    0.57   163.79     8.50    23.49     0.00    0.33    0.32    0.46   0.07   0.10
sdc              32.06     0.14  101.97    0.30  1546.22    83.58    31.87     1.45   14.21   13.15  373.51   0.95   9.75
sdb              29.97     0.15  104.02    0.32  1544.39    83.40    31.20     0.33    3.13    1.92  394.60   0.89   9.27
sdd              32.26     0.13  101.51    0.25  1542.26    83.06    31.94     0.61    6.02    4.10  782.19   0.96   9.75
md0               0.00     0.00  404.68    1.08  5705.15   292.85    29.56     0.00    0.00    0.00    0.00   0.00   0.00

avg-cpu:  %user   %nice %system %iowait  %steal   %idle
           0.02    0.00    0.21   11.01    0.00   88.76

Device:         rrqm/s   wrqm/s     r/s     w/s    rkB/s    wkB/s avgrq-sz avgqu-sz   await r_await w_await  svctm  %util
nvme0n1           0.00     0.00    0.00    0.00     0.00     0.00     0.00     0.00    0.00    0.00    0.00   0.00   0.00
sda               0.00     1.15    3.80    0.95    27.80     9.20    15.58     0.00    0.28    0.33    0.11   0.07   0.04
sdc               0.00     0.00  315.25    0.00  1262.20     0.00     8.01     1.39    4.42    4.42    0.00   1.64  51.70
sdb               0.00     0.00  321.15    0.00  1284.60     0.00     8.00     1.42    4.44    4.44    0.00   1.60  51.30
sdd               0.00     0.00  317.80    0.00  1271.20     0.00     8.00     1.40    4.39    4.39    0.00   1.60  50.95
md0               0.00     0.00  954.45    0.00  3818.40     0.00     8.00     0.00    0.00    0.00    0.00   0.00   0.00

