Linux 4.17.2 (bench2) 	08/03/2018 	_x86_64_	(32 CPU)

avg-cpu:  %user   %nice %system %iowait  %steal   %idle
           1.92    0.00    1.57    1.53    0.00   94.99

Device:         rrqm/s   wrqm/s     r/s     w/s    rkB/s    wkB/s avgrq-sz avgqu-sz   await r_await w_await  svctm  %util
nvme0n1         951.84     5.17 19188.73  528.32 107333.74 11915.31    12.10     1.37    0.05    0.03    0.67   0.02  40.17
sda               0.11     0.81   14.14    0.57   163.95     8.51    23.45     0.00    0.33    0.32    0.45   0.07   0.10
sdc              32.95     0.14  109.03    0.30  1647.01    82.69    31.64     1.51   13.81   12.83  373.51   0.93  10.20
sdb              30.88     0.15  111.07    0.32  1645.14    82.51    31.02     0.39    3.53    2.40  394.60   0.87   9.69
sdd              33.14     0.13  108.58    0.25  1643.04    82.18    31.71     0.68    6.22    4.44  782.19   0.94  10.20
md0               0.00     0.00  428.51    1.06  6093.45   289.74    29.72     0.00    0.00    0.00    0.00   0.00   0.00

avg-cpu:  %user   %nice %system %iowait  %steal   %idle
           0.10    0.00    2.07   19.81    0.00   78.02

Device:         rrqm/s   wrqm/s     r/s     w/s    rkB/s    wkB/s avgrq-sz avgqu-sz   await r_await w_await  svctm  %util
nvme0n1           0.00     0.00    0.00    0.00     0.00     0.00     0.00     0.00    0.00    0.00    0.00   0.00   0.00
sda               0.00     0.85    1.00    1.05     6.00     8.40    14.05     0.00    0.44    0.85    0.05   0.05   0.01
sdc               0.00     0.00 1387.50    0.00  5551.20     0.00     8.00     4.29    3.10    3.10    0.00   0.35  48.70
sdb               0.00     0.00 1369.15    0.00  5476.60     0.00     8.00     4.36    3.20    3.20    0.00   0.36  49.63
sdd               0.00     0.00 1401.05    0.00  5604.20     0.00     8.00     3.91    2.80    2.80    0.00   0.32  44.49
md0               0.00     0.00 4158.45    0.00 16634.40     0.00     8.00     0.00    0.00    0.00    0.00   0.00   0.00

