Linux 4.17.2 (bench2) 	08/03/2018 	_x86_64_	(32 CPU)

avg-cpu:  %user   %nice %system %iowait  %steal   %idle
           1.92    0.00    1.57    1.52    0.00   94.99

Device:         rrqm/s   wrqm/s     r/s     w/s    rkB/s    wkB/s avgrq-sz avgqu-sz   await r_await w_await  svctm  %util
nvme0n1         954.05     5.18 19233.33  529.55 107583.23 11943.00    12.10     1.37    0.05    0.03    0.67   0.02  40.26
sda               0.11     0.81   14.13    0.57   163.93     8.51    23.45     0.00    0.33    0.32    0.45   0.07   0.10
sdc              32.60     0.14  107.73    0.30  1623.16    82.89    31.59     1.49   13.77   12.77  373.51   0.93  10.09
sdb              30.53     0.15  109.77    0.32  1621.28    82.71    30.96     0.37    3.35    2.21  394.60   0.87   9.59
sdd              32.80     0.13  107.27    0.25  1619.20    82.37    31.65     0.65    6.07    4.27  782.19   0.94  10.09
md0               0.00     0.00  423.58    1.07  6000.97   290.41    29.63     0.00    0.00    0.00    0.00   0.00   0.00

avg-cpu:  %user   %nice %system %iowait  %steal   %idle
           0.03    0.00    0.03   43.29    0.00   56.64

Device:         rrqm/s   wrqm/s     r/s     w/s    rkB/s    wkB/s avgrq-sz avgqu-sz   await r_await w_await  svctm  %util
nvme0n1           0.00     0.00    0.00    0.00     0.00     0.00     0.00     0.00    0.00    0.00    0.00   0.00   0.00
sda               0.00     0.00    3.00    0.00   100.00     0.00    66.67     0.00    0.67    0.67    0.00   0.67   0.20
sdc               0.00     0.00   68.00    0.00   272.00     0.00     8.00     5.88   75.59   75.59    0.00  13.38  91.00
sdb               0.00     0.00   70.00    0.00   280.00     0.00     8.00    11.19  133.10  133.10    0.00  13.97  97.80
sdd               0.00     0.00   72.00    0.00   288.00     0.00     8.00     7.74  104.44  104.44    0.00  13.29  95.70
md0               0.00     0.00  231.00    0.00   924.00     0.00     8.00     0.00    0.00    0.00    0.00   0.00   0.00

avg-cpu:  %user   %nice %system %iowait  %steal   %idle
           0.00    0.00    0.06   36.51    0.00   63.43

Device:         rrqm/s   wrqm/s     r/s     w/s    rkB/s    wkB/s avgrq-sz avgqu-sz   await r_await w_await  svctm  %util
nvme0n1           0.00     0.00    0.00    0.00     0.00     0.00     0.00     0.00    0.00    0.00    0.00   0.00   0.00
sda               0.00     0.00    0.00    0.00     0.00     0.00     0.00     0.00    0.00    0.00    0.00   0.00   0.00
sdc               0.00     0.00  111.00    0.00   444.00     0.00     8.00     9.84   93.64   93.64    0.00   7.99  88.70
sdb               0.00     0.00  110.00    0.00   440.00     0.00     8.00     6.26   72.04   72.04    0.00   8.26  90.90
sdd               0.00     0.00   89.00    0.00   356.00     0.00     8.00     3.56   38.51   38.51    0.00   9.07  80.70
md0               0.00     0.00  321.00    0.00  1284.00     0.00     8.00     0.00    0.00    0.00    0.00   0.00   0.00

avg-cpu:  %user   %nice %system %iowait  %steal   %idle
           0.00    0.00    0.03   41.57    0.00   58.40

Device:         rrqm/s   wrqm/s     r/s     w/s    rkB/s    wkB/s avgrq-sz avgqu-sz   await r_await w_await  svctm  %util
nvme0n1           0.00     0.00    0.00    0.00     0.00     0.00     0.00     0.00    0.00    0.00    0.00   0.00   0.00
sda               0.00     7.00    0.00    2.00     0.00    36.00    36.00     0.00    0.50    0.00    0.50   0.50   0.10
sdc               0.00     0.00  140.00    0.00   560.00     0.00     8.00     7.89   52.85   52.85    0.00   6.61  92.60
sdb               0.00     0.00  141.00    0.00   564.00     0.00     8.00     6.88   46.33   46.33    0.00   6.80  95.90
sdd               0.00     0.00  149.00    0.00   596.00     0.00     8.00     8.61   58.46   58.46    0.00   6.30  93.90
md0               0.00     0.00  430.00    0.00  1720.00     0.00     8.00     0.00    0.00    0.00    0.00   0.00   0.00

avg-cpu:  %user   %nice %system %iowait  %steal   %idle
           0.00    0.00    0.16   38.69    0.00   61.15

Device:         rrqm/s   wrqm/s     r/s     w/s    rkB/s    wkB/s avgrq-sz avgqu-sz   await r_await w_await  svctm  %util
nvme0n1           0.00     0.00    0.00    0.00     0.00     0.00     0.00     0.00    0.00    0.00    0.00   0.00   0.00
sda               0.00     0.00    0.00    0.00     0.00     0.00     0.00     0.00    0.00    0.00    0.00   0.00   0.00
sdc               0.00     0.00  168.00    0.00   672.00     0.00     8.00     9.92   60.05   60.05    0.00   5.79  97.30
sdb               0.00     0.00  134.00    0.00   536.00     0.00     8.00     5.74   44.00   44.00    0.00   6.39  85.60
sdd               0.00     0.00  130.00    0.00   520.00     0.00     8.00     5.95   47.68   47.68    0.00   6.88  89.40
md0               0.00     0.00  413.00    0.00  1652.00     0.00     8.00     0.00    0.00    0.00    0.00   0.00   0.00

avg-cpu:  %user   %nice %system %iowait  %steal   %idle
           0.00    0.00    0.06   35.71    0.00   64.23

Device:         rrqm/s   wrqm/s     r/s     w/s    rkB/s    wkB/s avgrq-sz avgqu-sz   await r_await w_await  svctm  %util
nvme0n1           0.00     0.00    0.00    0.00     0.00     0.00     0.00     0.00    0.00    0.00    0.00   0.00   0.00
sda               0.00     0.00    0.00    0.00     0.00     0.00     0.00     0.00    0.00    0.00    0.00   0.00   0.00
sdc               0.00     0.00  124.00    0.00   496.00     0.00     8.00     6.90   53.27   53.27    0.00   7.24  89.80
sdb               0.00     0.00  130.00    0.00   520.00     0.00     8.00     5.56   45.85   45.85    0.00   6.83  88.80
sdd               0.00     0.00  137.00    0.00   548.00     0.00     8.00     8.06   58.72   58.72    0.00   6.54  89.60
md0               0.00     0.00  387.00    0.00  1548.00     0.00     8.00     0.00    0.00    0.00    0.00   0.00   0.00

avg-cpu:  %user   %nice %system %iowait  %steal   %idle
           0.00    0.00    0.06   33.73    0.00   66.21

Device:         rrqm/s   wrqm/s     r/s     w/s    rkB/s    wkB/s avgrq-sz avgqu-sz   await r_await w_await  svctm  %util
nvme0n1           0.00     0.00    0.00    0.00     0.00     0.00     0.00     0.00    0.00    0.00    0.00   0.00   0.00
sda               0.00     3.00    0.00    2.00     0.00    36.00    36.00     0.00    0.00    0.00    0.00   0.00   0.00
sdc               0.00     0.00  136.00    0.00   544.00     0.00     8.00     6.26   51.99   51.99    0.00   6.69  91.00
sdb               0.00     0.00  121.00    0.00   484.00     0.00     8.00     6.63   54.83   54.83    0.00   6.61  80.00
sdd               0.00     0.00  139.00    0.00   556.00     0.00     8.00     6.97   48.33   48.33    0.00   6.60  91.70
md0               0.00     0.00  390.00    0.00  1560.00     0.00     8.00     0.00    0.00    0.00    0.00   0.00   0.00

avg-cpu:  %user   %nice %system %iowait  %steal   %idle
           0.00    0.00    0.06   35.88    0.00   64.06

Device:         rrqm/s   wrqm/s     r/s     w/s    rkB/s    wkB/s avgrq-sz avgqu-sz   await r_await w_await  svctm  %util
nvme0n1           0.00     0.00    0.00    0.00     0.00     0.00     0.00     0.00    0.00    0.00    0.00   0.00   0.00
sda               0.00     0.00    0.00    0.00     0.00     0.00     0.00     0.00    0.00    0.00    0.00   0.00   0.00
sdc               0.00     0.00  130.00    0.00   520.00     0.00     8.00     6.39   45.23   45.23    0.00   7.03  91.40
sdb               0.00     0.00  141.00    0.00   564.00     0.00     8.00     9.01   63.09   63.09    0.00   6.73  94.90
sdd               0.00     0.00  128.00    0.00   512.00     0.00     8.00     5.87   47.20   47.20    0.00   6.62  84.80
md0               0.00     0.00  428.00    0.00  1712.00     0.00     8.00     0.00    0.00    0.00    0.00   0.00   0.00

avg-cpu:  %user   %nice %system %iowait  %steal   %idle
           0.03    0.00    0.03   38.06    0.00   61.88

Device:         rrqm/s   wrqm/s     r/s     w/s    rkB/s    wkB/s avgrq-sz avgqu-sz   await r_await w_await  svctm  %util
nvme0n1           0.00     0.00    0.00    0.00     0.00     0.00     0.00     0.00    0.00    0.00    0.00   0.00   0.00
sda               0.00     4.00    0.00    2.00     0.00    24.00    24.00     0.00    0.00    0.00    0.00   0.00   0.00
sdc               0.00     0.00  138.00    0.00   552.00     0.00     8.00     7.51   54.32   54.32    0.00   6.52  90.00
sdb               0.00     0.00  137.00    0.00   548.00     0.00     8.00     6.77   47.88   47.88    0.00   6.88  94.30
sdd               0.00     0.00  128.00    0.00   512.00     0.00     8.00     6.14   46.52   46.52    0.00   6.31  80.80
md0               0.00     0.00  403.00    0.00  1612.00     0.00     8.00     0.00    0.00    0.00    0.00   0.00   0.00

avg-cpu:  %user   %nice %system %iowait  %steal   %idle
           0.00    0.00    0.06   39.01    0.00   60.93

Device:         rrqm/s   wrqm/s     r/s     w/s    rkB/s    wkB/s avgrq-sz avgqu-sz   await r_await w_await  svctm  %util
nvme0n1           0.00     0.00    0.00    0.00     0.00     0.00     0.00     0.00    0.00    0.00    0.00   0.00   0.00
sda               0.00     0.00    0.00    0.00     0.00     0.00     0.00     0.00    0.00    0.00    0.00   0.00   0.00
sdc               0.00     0.00  140.00    0.00   560.00     0.00     8.00     8.14   58.38   58.38    0.00   6.44  90.10
sdb               0.00     0.00  145.00    0.00   580.00     0.00     8.00     6.55   43.30   43.30    0.00   6.73  97.60
sdd               0.00     0.00  155.00    0.00   620.00     0.00     8.00     8.50   55.00   55.00    0.00   6.32  97.90
md0               0.00     0.00  429.00    0.00  1716.00     0.00     8.00     0.00    0.00    0.00    0.00   0.00   0.00

avg-cpu:  %user   %nice %system %iowait  %steal   %idle
           0.00    0.00    0.06   36.49    0.00   63.45

Device:         rrqm/s   wrqm/s     r/s     w/s    rkB/s    wkB/s avgrq-sz avgqu-sz   await r_await w_await  svctm  %util
nvme0n1           0.00     0.00    0.00    0.00     0.00     0.00     0.00     0.00    0.00    0.00    0.00   0.00   0.00
sda               0.00     0.00    0.00    0.00     0.00     0.00     0.00     0.00    0.00    0.00    0.00   0.00   0.00
sdc               0.00     0.00  152.00    0.00   608.00     0.00     8.00     8.78   58.91   58.91    0.00   6.49  98.60
sdb               0.00     0.00  125.00    0.00   500.00     0.00     8.00     6.23   53.95   53.95    0.00   6.94  86.80
sdd               0.00     0.00  129.00    0.00   516.00     0.00     8.00     6.00   48.30   48.30    0.00   6.84  88.30
md0               0.00     0.00  398.00    0.00  1592.00     0.00     8.00     0.00    0.00    0.00    0.00   0.00   0.00

avg-cpu:  %user   %nice %system %iowait  %steal   %idle
           0.00    0.00    0.03   33.78    0.00   66.19

Device:         rrqm/s   wrqm/s     r/s     w/s    rkB/s    wkB/s avgrq-sz avgqu-sz   await r_await w_await  svctm  %util
nvme0n1           0.00     0.00    0.00    0.00     0.00     0.00     0.00     0.00    0.00    0.00    0.00   0.00   0.00
sda               0.00     0.00    0.00    2.00     0.00    32.00    32.00     0.00    0.00    0.00    0.00   0.00   0.00
sdc               0.00     0.00  158.00    0.00   632.00     0.00     8.00     9.86   62.86   62.86    0.00   6.28  99.30
sdb               0.00     0.00  147.00    0.00   588.00     0.00     8.00     7.00   47.33   47.33    0.00   6.55  96.30
sdd               0.00     0.00  106.00    0.00   424.00     0.00     8.00     3.60   32.88   32.88    0.00   6.92  73.30
md0               0.00     0.00  430.00    0.00  1720.00     0.00     8.00     0.00    0.00    0.00    0.00   0.00   0.00

avg-cpu:  %user   %nice %system %iowait  %steal   %idle
           0.00    0.00    0.06   38.13    0.00   61.81

Device:         rrqm/s   wrqm/s     r/s     w/s    rkB/s    wkB/s avgrq-sz avgqu-sz   await r_await w_await  svctm  %util
nvme0n1           0.00     0.00    0.00    0.00     0.00     0.00     0.00     0.00    0.00    0.00    0.00   0.00   0.00
sda               0.00     0.00    0.00    0.00     0.00     0.00     0.00     0.00    0.00    0.00    0.00   0.00   0.00
sdc               0.00     0.00  143.00    0.00   572.00     0.00     8.00     8.04   55.05   55.05    0.00   6.05  86.50
sdb               0.00     0.00  128.00    0.00   512.00     0.00     8.00     6.25   46.51   46.51    0.00   6.70  85.80
sdd               0.00     0.00  143.00    0.00   572.00     0.00     8.00     7.08   47.66   47.66    0.00   6.39  91.40
md0               0.00     0.00  413.00    0.00  1652.00     0.00     8.00     0.00    0.00    0.00    0.00   0.00   0.00

avg-cpu:  %user   %nice %system %iowait  %steal   %idle
           0.03    0.00    0.06   39.51    0.00   60.39

Device:         rrqm/s   wrqm/s     r/s     w/s    rkB/s    wkB/s avgrq-sz avgqu-sz   await r_await w_await  svctm  %util
nvme0n1           0.00     0.00    0.00    0.00     0.00     0.00     0.00     0.00    0.00    0.00    0.00   0.00   0.00
sda               0.00     5.00    0.00    2.00     0.00    28.00    28.00     0.00    0.00    0.00    0.00   0.00   0.00
sdc               0.00     0.00  144.00    0.00   576.00     0.00     8.00     7.96   50.90   50.90    0.00   6.57  94.60
sdb               0.00     0.00  145.00    0.00   580.00     0.00     8.00     7.77   55.87   55.87    0.00   6.63  96.20
sdd               0.00     0.00  122.00    0.00   488.00     0.00     8.00     6.20   47.93   47.93    0.00   7.11  86.70
md0               0.00     0.00  406.00    0.00  1624.00     0.00     8.00     0.00    0.00    0.00    0.00   0.00   0.00

avg-cpu:  %user   %nice %system %iowait  %steal   %idle
           0.00    0.00    0.09   35.38    0.00   64.53

Device:         rrqm/s   wrqm/s     r/s     w/s    rkB/s    wkB/s avgrq-sz avgqu-sz   await r_await w_await  svctm  %util
nvme0n1           0.00     0.00    0.00    0.00     0.00     0.00     0.00     0.00    0.00    0.00    0.00   0.00   0.00
sda               0.00     0.00    0.00    0.00     0.00     0.00     0.00     0.00    0.00    0.00    0.00   0.00   0.00
sdc               0.00     0.00  141.00    0.00   564.00     0.00     8.00     8.23   62.20   62.20    0.00   6.28  88.60
sdb               0.00     0.00  155.00    0.00   620.00     0.00     8.00     8.19   53.14   53.14    0.00   6.22  96.40
sdd               0.00     0.00  127.00    0.00   508.00     0.00     8.00     5.41   47.43   47.43    0.00   7.09  90.00
md0               0.00     0.00  412.00    0.00  1648.00     0.00     8.00     0.00    0.00    0.00    0.00   0.00   0.00

avg-cpu:  %user   %nice %system %iowait  %steal   %idle
           0.00    0.00    0.03   31.72    0.00   68.25

Device:         rrqm/s   wrqm/s     r/s     w/s    rkB/s    wkB/s avgrq-sz avgqu-sz   await r_await w_await  svctm  %util
nvme0n1           0.00     0.00    0.00    0.00     0.00     0.00     0.00     0.00    0.00    0.00    0.00   0.00   0.00
sda               0.00     0.00    0.00    0.00     0.00     0.00     0.00     0.00    0.00    0.00    0.00   0.00   0.00
sdc               0.00     0.00  129.00    0.00   516.00     0.00     8.00     6.13   50.43   50.43    0.00   6.60  85.10
sdb               0.00     0.00  117.00    0.00   468.00     0.00     8.00     4.38   37.86   37.86    0.00   6.75  79.00
sdd               0.00     0.00  158.00    0.00   632.00     0.00     8.00     9.55   61.30   61.30    0.00   6.00  94.80
md0               0.00     0.00  393.00    0.00  1572.00     0.00     8.00     0.00    0.00    0.00    0.00   0.00   0.00

avg-cpu:  %user   %nice %system %iowait  %steal   %idle
           0.00    0.00    0.09   39.46    0.00   60.44

Device:         rrqm/s   wrqm/s     r/s     w/s    rkB/s    wkB/s avgrq-sz avgqu-sz   await r_await w_await  svctm  %util
nvme0n1           0.00     0.00    0.00    0.00     0.00     0.00     0.00     0.00    0.00    0.00    0.00   0.00   0.00
sda               0.00     0.00    0.00    0.00     0.00     0.00     0.00     0.00    0.00    0.00    0.00   0.00   0.00
sdc               0.00     0.00  132.00    0.00   528.00     0.00     8.00     7.15   52.08   52.08    0.00   7.02  92.70
sdb               0.00     0.00  148.00    0.00   592.00     0.00     8.00     7.74   48.96   48.96    0.00   6.23  92.20
sdd               0.00     0.00  147.00    0.00   588.00     0.00     8.00     7.32   45.82   45.82    0.00   6.35  93.40
md0               0.00     0.00  455.00    0.00  1820.00     0.00     8.00     0.00    0.00    0.00    0.00   0.00   0.00

avg-cpu:  %user   %nice %system %iowait  %steal   %idle
           0.00    0.00    0.06   34.99    0.00   64.95

Device:         rrqm/s   wrqm/s     r/s     w/s    rkB/s    wkB/s avgrq-sz avgqu-sz   await r_await w_await  svctm  %util
nvme0n1           0.00     0.00    0.00    0.00     0.00     0.00     0.00     0.00    0.00    0.00    0.00   0.00   0.00
sda               0.00     0.00    0.00    0.00     0.00     0.00     0.00     0.00    0.00    0.00    0.00   0.00   0.00
sdc               0.00     0.00  144.00    0.00   576.00     0.00     8.00     8.99   60.38   60.38    0.00   6.22  89.60
sdb               0.00     0.00  147.00    0.00   588.00     0.00     8.00     7.42   49.36   49.36    0.00   6.50  95.50
sdd               0.00     0.00  122.00    0.00   488.00     0.00     8.00     4.84   42.13   42.13    0.00   6.81  83.10
md0               0.00     0.00  409.00    0.00  1636.00     0.00     8.00     0.00    0.00    0.00    0.00   0.00   0.00

avg-cpu:  %user   %nice %system %iowait  %steal   %idle
           0.00    0.00    0.06   33.55    0.00   66.39

Device:         rrqm/s   wrqm/s     r/s     w/s    rkB/s    wkB/s avgrq-sz avgqu-sz   await r_await w_await  svctm  %util
nvme0n1           0.00     0.00    0.00    0.00     0.00     0.00     0.00     0.00    0.00    0.00    0.00   0.00   0.00
sda               0.00     1.00    0.00    2.00     0.00    12.00    12.00     0.00    0.00    0.00    0.00   0.00   0.00
sdc               0.00     0.00  129.00    0.00   516.00     0.00     8.00     6.18   48.23   48.23    0.00   6.88  88.80
sdb               0.00     0.00  134.00    0.00   536.00     0.00     8.00     7.51   59.87   59.87    0.00   6.67  89.40
sdd               0.00     0.00  134.00    0.00   536.00     0.00     8.00     7.43   54.57   54.57    0.00   6.32  84.70
md0               0.00     0.00  393.00    0.00  1572.00     0.00     8.00     0.00    0.00    0.00    0.00   0.00   0.00

avg-cpu:  %user   %nice %system %iowait  %steal   %idle
           0.00    0.00    0.09   32.45    0.00   67.46

Device:         rrqm/s   wrqm/s     r/s     w/s    rkB/s    wkB/s avgrq-sz avgqu-sz   await r_await w_await  svctm  %util
nvme0n1           0.00     0.00    0.00    0.00     0.00     0.00     0.00     0.00    0.00    0.00    0.00   0.00   0.00
sda               0.00     0.00    0.00    0.00     0.00     0.00     0.00     0.00    0.00    0.00    0.00   0.00   0.00
sdc               0.00     0.00  126.00    0.00   504.00     0.00     8.00     5.35   45.87   45.87    0.00   6.75  85.00
sdb               0.00     0.00  146.00    0.00   584.00     0.00     8.00     8.49   59.08   59.08    0.00   6.23  90.90
sdd               0.00     0.00  142.00    0.00   568.00     0.00     8.00     7.25   52.15   52.15    0.00   6.37  90.40
md0               0.00     0.00  400.00    0.00  1600.00     0.00     8.00     0.00    0.00    0.00    0.00   0.00   0.00

avg-cpu:  %user   %nice %system %iowait  %steal   %idle
           0.03    0.00    0.09   35.97    0.00   63.91

Device:         rrqm/s   wrqm/s     r/s     w/s    rkB/s    wkB/s avgrq-sz avgqu-sz   await r_await w_await  svctm  %util
nvme0n1           0.00     0.00    0.00    0.00     0.00     0.00     0.00     0.00    0.00    0.00    0.00   0.00   0.00
sda               0.00     0.00    0.00    0.00     0.00     0.00     0.00     0.00    0.00    0.00    0.00   0.00   0.00
sdc               0.00     0.00  141.00    0.00   564.00     0.00     8.00     7.60   53.41   53.41    0.00   6.65  93.70
sdb               0.00     0.00  133.00    0.00   532.00     0.00     8.00     7.09   51.83   51.83    0.00   6.76  89.90
sdd               0.00     0.00  137.00    0.00   548.00     0.00     8.00     6.54   46.31   46.31    0.00   6.61  90.50
md0               0.00     0.00  433.00    0.00  1732.00     0.00     8.00     0.00    0.00    0.00    0.00   0.00   0.00

