Linux 4.17.2 (bench2) 	08/03/2018 	_x86_64_	(32 CPU)

avg-cpu:  %user   %nice %system %iowait  %steal   %idle
           1.93    0.00    1.59    1.49    0.00   95.00

Device:         rrqm/s   wrqm/s     r/s     w/s    rkB/s    wkB/s avgrq-sz avgqu-sz   await r_await w_await  svctm  %util
nvme0n1         962.18     5.23 19397.18  534.06 108499.75 12044.75    12.10     1.38    0.05    0.03    0.67   0.02  40.61
sda               0.11     0.81   14.10    0.57   163.79     8.50    23.49     0.00    0.33    0.32    0.46   0.07   0.10
sdc              32.06     0.14  101.91    0.30  1546.12    83.59    31.89     1.45   14.22   13.16  373.51   0.95   9.74
sdb              29.97     0.15  103.96    0.32  1544.29    83.41    31.22     0.33    3.14    1.92  394.60   0.89   9.26
sdd              32.26     0.13  101.45    0.25  1542.16    83.08    31.96     0.61    6.02    4.10  782.19   0.96   9.75
md0               0.00     0.00  404.50    1.08  5705.00   292.89    29.58     0.00    0.00    0.00    0.00   0.00   0.00

avg-cpu:  %user   %nice %system %iowait  %steal   %idle
           0.07    0.00    0.45    0.26    0.00   99.22

Device:         rrqm/s   wrqm/s     r/s     w/s    rkB/s    wkB/s avgrq-sz avgqu-sz   await r_await w_await  svctm  %util
nvme0n1           0.00     0.00    0.00    0.00     0.00     0.00     0.00     0.00    0.00    0.00    0.00   0.00   0.00
sda               0.00     0.95    5.00    1.00    32.00     8.60    13.53     0.00    0.33    0.39    0.05   0.07   0.04
sdc               0.00     0.00 2076.40    0.00  8306.80     0.00     8.00     0.31    0.15    0.15    0.00   0.15  30.51
sdb               0.00     0.00 2049.75    0.00  8199.00     0.00     8.00     0.28    0.14    0.14    0.00   0.14  28.16
sdd               0.00     0.00 2092.95    0.00  8371.80     0.00     8.00     0.28    0.14    0.14    0.00   0.14  28.27
md0               0.00     0.00 6219.05    0.00 24876.20     0.00     8.00     0.00    0.00    0.00    0.00   0.00   0.00

