Linux 4.17.2 (bench2) 	08/03/2018 	_x86_64_	(32 CPU)

avg-cpu:  %user   %nice %system %iowait  %steal   %idle
           1.92    0.00    1.57    1.52    0.00   94.99

Device:         rrqm/s   wrqm/s     r/s     w/s    rkB/s    wkB/s avgrq-sz avgqu-sz   await r_await w_await  svctm  %util
nvme0n1         952.62     5.17 19204.49  528.76 107421.94 11925.10    12.10     1.37    0.05    0.03    0.67   0.02  40.20
sda               0.11     0.81   14.13    0.57   163.93     8.51    23.45     0.00    0.33    0.32    0.45   0.07   0.10
sdc              32.80     0.14  108.49    0.30  1641.84    82.76    31.71     1.51   13.88   12.89  373.51   0.93  10.17
sdb              30.72     0.15  110.52    0.32  1639.96    82.58    31.08     0.39    3.53    2.40  394.60   0.87   9.67
sdd              32.99     0.13  108.03    0.25  1637.86    82.25    31.77     0.68    6.24    4.45  782.19   0.94  10.17
md0               0.00     0.00  426.42    1.07  6074.38   289.98    29.78     0.00    0.00    0.00    0.00   0.00   0.00

avg-cpu:  %user   %nice %system %iowait  %steal   %idle
           0.06    0.00    0.22    2.81    0.00   96.91

Device:         rrqm/s   wrqm/s     r/s     w/s    rkB/s    wkB/s avgrq-sz avgqu-sz   await r_await w_await  svctm  %util
nvme0n1           0.00     0.00    0.00    0.00     0.00     0.00     0.00     0.00    0.00    0.00    0.00   0.00   0.00
sda               0.00     0.00    1.00    0.00     8.00     0.00    16.00     0.00    0.00    0.00    0.00   0.00   0.00
sdc             120.00     0.00  175.00    0.00 66232.00     0.00   756.94     1.18    6.75    6.75    0.00   3.59  62.90
sdb             123.00     0.00  153.00    0.00 64784.00     0.00   846.85     1.88   11.94   11.94    0.00   5.58  85.30
sdd             121.00     0.00  163.00    0.00 66228.00     0.00   812.61     1.57    9.66    9.66    0.00   4.58  74.70
md0               0.00     0.00  857.00    0.00 312916.00     0.00   730.26     0.00    0.00    0.00    0.00   0.00   0.00

avg-cpu:  %user   %nice %system %iowait  %steal   %idle
           0.03    0.00    0.31    2.66    0.00   97.00

Device:         rrqm/s   wrqm/s     r/s     w/s    rkB/s    wkB/s avgrq-sz avgqu-sz   await r_await w_await  svctm  %util
nvme0n1           0.00     0.00    0.00    0.00     0.00     0.00     0.00     0.00    0.00    0.00    0.00   0.00   0.00
sda               0.00     0.00    0.00    0.00     0.00     0.00     0.00     0.00    0.00    0.00    0.00   0.00   0.00
sdc             139.00     0.00  190.00    0.00 74548.00     0.00   784.72     1.89    9.87    9.87    0.00   4.58  87.10
sdb             147.00     0.00  172.00    0.00 75872.00     0.00   882.23     1.42    8.51    8.51    0.00   4.20  72.30
sdd             149.00     0.00  175.00    0.00 74796.00     0.00   854.81     1.56    8.85    8.85    0.00   4.38  76.60
md0               0.00     0.00  979.00    0.00 313800.00     0.00   641.06     0.00    0.00    0.00    0.00   0.00   0.00

avg-cpu:  %user   %nice %system %iowait  %steal   %idle
           0.03    0.00    0.28    2.75    0.00   96.94

Device:         rrqm/s   wrqm/s     r/s     w/s    rkB/s    wkB/s avgrq-sz avgqu-sz   await r_await w_await  svctm  %util
nvme0n1           0.00     0.00    0.00    0.00     0.00     0.00     0.00     0.00    0.00    0.00    0.00   0.00   0.00
sda               0.00     8.00    0.00    2.00     0.00    40.00    40.00     0.00    0.50    0.00    0.50   0.50   0.10
sdc             143.00     0.00  169.00    0.00 76996.00     0.00   911.20     1.39    8.02    8.02    0.00   3.75  63.40
sdb             147.00     0.00  173.00    0.00 78192.00     0.00   903.95     1.20    7.01    7.01    0.00   3.54  61.20
sdd             145.00     0.00  176.00    0.00 77464.00     0.00   880.27     2.11   12.03   12.03    0.00   5.10  89.70
md0               0.00     0.00  945.00    0.00 324932.00     0.00   687.69     0.00    0.00    0.00    0.00   0.00   0.00

