Linux 4.17.2 (bench2) 	08/03/2018 	_x86_64_	(32 CPU)

avg-cpu:  %user   %nice %system %iowait  %steal   %idle
           1.92    0.00    1.57    1.53    0.00   94.98

Device:         rrqm/s   wrqm/s     r/s     w/s    rkB/s    wkB/s avgrq-sz avgqu-sz   await r_await w_await  svctm  %util
nvme0n1         950.00     5.16 19151.52  527.30 107125.59 11892.20    12.10     1.36    0.05    0.03    0.67   0.02  40.09
sda               0.11     0.81   14.14    0.57   163.98     8.51    23.44     0.00    0.33    0.32    0.45   0.07   0.10
sdc              33.04     0.14  110.52    0.30  1661.22    82.53    31.47     1.51   13.66   12.69  373.51   0.93  10.27
sdb              30.98     0.15  112.54    0.32  1659.32    82.35    30.86     0.40    3.53    2.42  394.60   0.86   9.76
sdd              33.24     0.13  110.06    0.25  1657.22    82.02    31.53     0.68    6.19    4.44  782.19   0.93  10.27
md0               0.00     0.00  433.24    1.06  6146.17   289.18    29.64     0.00    0.00    0.00    0.00   0.00   0.00

avg-cpu:  %user   %nice %system %iowait  %steal   %idle
           0.00    0.00    0.12    0.34    0.00   99.53

Device:         rrqm/s   wrqm/s     r/s     w/s    rkB/s    wkB/s avgrq-sz avgqu-sz   await r_await w_await  svctm  %util
nvme0n1           0.00     0.00    0.00    0.00     0.00     0.00     0.00     0.00    0.00    0.00    0.00   0.00   0.00
sda               0.00     0.00    1.00    0.00     8.00     0.00    16.00     0.00    0.00    0.00    0.00   0.00   0.00
sdc               0.00     0.00   67.00    0.00   268.00     0.00     8.00     5.43   77.75   77.75    0.00  13.69  91.70
sdb               0.00     0.00   54.00    0.00   216.00     0.00     8.00     3.43   63.69   63.69    0.00  13.07  70.60
sdd               0.00     0.00   69.00    0.00   276.00     0.00     8.00     5.54   80.51   80.51    0.00  12.87  88.80
md0               0.00     0.00  160.00    0.00   640.00     0.00     8.00     0.00    0.00    0.00    0.00   0.00   0.00

avg-cpu:  %user   %nice %system %iowait  %steal   %idle
           0.03    0.00    0.13    0.19    0.00   99.66

Device:         rrqm/s   wrqm/s     r/s     w/s    rkB/s    wkB/s avgrq-sz avgqu-sz   await r_await w_await  svctm  %util
nvme0n1           0.00     0.00    0.00    0.00     0.00     0.00     0.00     0.00    0.00    0.00    0.00   0.00   0.00
sda               0.00     0.00    0.00    0.00     0.00     0.00     0.00     0.00    0.00    0.00    0.00   0.00   0.00
sdc               0.00     0.00   96.00    0.00   384.00     0.00     8.00     4.60   49.30   49.30    0.00   8.09  77.70
sdb               0.00     0.00   96.00    0.00   384.00     0.00     8.00     5.32   54.27   54.27    0.00   9.08  87.20
sdd               0.00     0.00   90.00    0.00   360.00     0.00     8.00     4.40   46.51   46.51    0.00   8.10  72.90
md0               0.00     0.00  288.00    0.00  1152.00     0.00     8.00     0.00    0.00    0.00    0.00   0.00   0.00

avg-cpu:  %user   %nice %system %iowait  %steal   %idle
           0.00    0.00    0.09    0.28    0.00   99.62

Device:         rrqm/s   wrqm/s     r/s     w/s    rkB/s    wkB/s avgrq-sz avgqu-sz   await r_await w_await  svctm  %util
nvme0n1           0.00     0.00    0.00    0.00     0.00     0.00     0.00     0.00    0.00    0.00    0.00   0.00   0.00
sda               0.00     0.00    0.00    0.00     0.00     0.00     0.00     0.00    0.00    0.00    0.00   0.00   0.00
sdc               0.00     0.00  106.00    0.00   424.00     0.00     8.00     4.45   43.01   43.01    0.00   7.22  76.50
sdb               0.00     0.00   97.00    0.00   388.00     0.00     8.00     4.19   44.33   44.33    0.00   7.64  74.10
sdd               0.00     0.00  122.00    0.00   488.00     0.00     8.00     5.80   47.45   47.45    0.00   7.45  90.90
md0               0.00     0.00  320.00    0.00  1280.00     0.00     8.00     0.00    0.00    0.00    0.00   0.00   0.00

avg-cpu:  %user   %nice %system %iowait  %steal   %idle
           0.00    0.00    0.03    0.06    0.00   99.91

Device:         rrqm/s   wrqm/s     r/s     w/s    rkB/s    wkB/s avgrq-sz avgqu-sz   await r_await w_await  svctm  %util
nvme0n1           0.00     0.00    0.00    0.00     0.00     0.00     0.00     0.00    0.00    0.00    0.00   0.00   0.00
sda               0.00     0.00    0.00    0.00     0.00     0.00     0.00     0.00    0.00    0.00    0.00   0.00   0.00
sdc               0.00     0.00  118.00    0.00   472.00     0.00     8.00     5.23   41.84   41.84    0.00   7.03  82.90
sdb               0.00     0.00  114.00    0.00   456.00     0.00     8.00     4.82   40.68   40.68    0.00   7.06  80.50
sdd               0.00     0.00  105.00    0.00   420.00     0.00     8.00     3.96   38.16   38.16    0.00   7.03  73.80
md0               0.00     0.00  352.00    0.00  1408.00     0.00     8.00     0.00    0.00    0.00    0.00   0.00   0.00

avg-cpu:  %user   %nice %system %iowait  %steal   %idle
           0.00    0.00    0.19    0.06    0.00   99.75

Device:         rrqm/s   wrqm/s     r/s     w/s    rkB/s    wkB/s avgrq-sz avgqu-sz   await r_await w_await  svctm  %util
nvme0n1           0.00     0.00    0.00    0.00     0.00     0.00     0.00     0.00    0.00    0.00    0.00   0.00   0.00
sda               0.00     0.00    0.00    0.00     0.00     0.00     0.00     0.00    0.00    0.00    0.00   0.00   0.00
sdc               0.00     0.00  122.00    0.00   488.00     0.00     8.00     5.16   43.34   43.34    0.00   7.08  86.40
sdb               0.00     0.00  103.00    0.00   412.00     0.00     8.00     4.03   38.80   38.80    0.00   7.17  73.90
sdd               0.00     0.00  123.00    0.00   492.00     0.00     8.00     5.21   42.65   42.65    0.00   6.88  84.60
md0               0.00     0.00  352.00    0.00  1408.00     0.00     8.00     0.00    0.00    0.00    0.00   0.00   0.00

