Linux 4.17.2 (bench2) 	08/03/2018 	_x86_64_	(32 CPU)

avg-cpu:  %user   %nice %system %iowait  %steal   %idle
           1.93    0.00    1.58    1.49    0.00   95.00

Device:         rrqm/s   wrqm/s     r/s     w/s    rkB/s    wkB/s avgrq-sz avgqu-sz   await r_await w_await  svctm  %util
nvme0n1         961.91     5.22 19391.76  533.91 108469.40 12041.38    12.10     1.38    0.05    0.03    0.67   0.02  40.59
sda               0.11     0.81   14.10    0.57   163.80     8.50    23.49     0.00    0.33    0.32    0.46   0.07   0.10
sdc              32.10     0.14  102.17    0.30  1547.05    83.57    31.82     1.45   14.18   13.12  373.51   0.95   9.75
sdb              30.01     0.15  104.23    0.32  1545.22    83.39    31.15     0.33    3.13    1.92  394.60   0.89   9.27
sdd              32.30     0.13  101.72    0.25  1543.09    83.05    31.90     0.61    6.01    4.09  782.19   0.96   9.76
md0               0.00     0.00  405.41    1.08  5707.48   292.80    29.52     0.00    0.00    0.00    0.00   0.00   0.00

avg-cpu:  %user   %nice %system %iowait  %steal   %idle
           0.22    0.00    1.79    8.78    0.00   89.21

Device:         rrqm/s   wrqm/s     r/s     w/s    rkB/s    wkB/s avgrq-sz avgqu-sz   await r_await w_await  svctm  %util
nvme0n1           0.00     0.00    0.00    0.00     0.00     0.00     0.00     0.00    0.00    0.00    0.00   0.00   0.00
sda               0.00     0.00   20.00    0.00   108.00     0.00    10.80     0.00    0.05    0.05    0.00   0.05   0.10
sdc               0.00     0.00 2875.00    0.00 11500.00     0.00     8.00     1.75    0.61    0.61    0.00   0.12  33.70
sdb               0.00     0.00 2949.00    0.00 11796.00     0.00     8.00     1.43    0.49    0.49    0.00   0.09  27.50
sdd               0.00     0.00 2712.00    0.00 10848.00     0.00     8.00     1.45    0.54    0.54    0.00   0.11  28.90
md0               0.00     0.00 8536.00    0.00 34144.00     0.00     8.00     0.00    0.00    0.00    0.00   0.00   0.00

avg-cpu:  %user   %nice %system %iowait  %steal   %idle
           0.16    0.00    1.60    8.81    0.00   89.43

Device:         rrqm/s   wrqm/s     r/s     w/s    rkB/s    wkB/s avgrq-sz avgqu-sz   await r_await w_await  svctm  %util
nvme0n1           0.00     0.00    0.00    0.00     0.00     0.00     0.00     0.00    0.00    0.00    0.00   0.00   0.00
sda               0.00     0.00    0.00    0.00     0.00     0.00     0.00     0.00    0.00    0.00    0.00   0.00   0.00
sdc               0.00     0.00 2744.00    0.00 10976.00     0.00     8.00     1.31    0.48    0.48    0.00   0.10  26.30
sdb               0.00     0.00 2928.00    0.00 11712.00     0.00     8.00     1.53    0.52    0.52    0.00   0.10  30.70
sdd               0.00     0.00 3058.00    0.00 12232.00     0.00     8.00     1.68    0.55    0.55    0.00   0.11  34.10
md0               0.00     0.00 8728.00    0.00 34912.00     0.00     8.00     0.00    0.00    0.00    0.00   0.00   0.00

avg-cpu:  %user   %nice %system %iowait  %steal   %idle
           0.19    0.00    1.57    8.60    0.00   89.64

Device:         rrqm/s   wrqm/s     r/s     w/s    rkB/s    wkB/s avgrq-sz avgqu-sz   await r_await w_await  svctm  %util
nvme0n1           0.00     0.00    0.00    0.00     0.00     0.00     0.00     0.00    0.00    0.00    0.00   0.00   0.00
sda               0.00     0.00    0.00    0.00     0.00     0.00     0.00     0.00    0.00    0.00    0.00   0.00   0.00
sdc               0.00     0.00 2487.00    0.00  9948.00     0.00     8.00     1.42    0.57    0.57    0.00   0.12  29.30
sdb               0.00     0.00 2825.00    0.00 11300.00     0.00     8.00     1.63    0.58    0.58    0.00   0.11  31.40
sdd               0.00     0.00 2791.00    0.00 11164.00     0.00     8.00     1.50    0.54    0.54    0.00   0.11  31.20
md0               0.00     0.00 8104.00    0.00 32416.00     0.00     8.00     0.00    0.00    0.00    0.00   0.00   0.00

avg-cpu:  %user   %nice %system %iowait  %steal   %idle
           0.13    0.00    1.82    8.61    0.00   89.44

Device:         rrqm/s   wrqm/s     r/s     w/s    rkB/s    wkB/s avgrq-sz avgqu-sz   await r_await w_await  svctm  %util
nvme0n1           0.00     0.00    0.00    0.00     0.00     0.00     0.00     0.00    0.00    0.00    0.00   0.00   0.00
sda               0.00     0.00    0.00    0.00     0.00     0.00     0.00     0.00    0.00    0.00    0.00   0.00   0.00
sdc               0.00     0.00 3151.00    0.00 12604.00     0.00     8.00     1.59    0.51    0.51    0.00   0.10  32.00
sdb               0.00     0.00 2805.00    0.00 11220.00     0.00     8.00     1.38    0.50    0.50    0.00   0.10  27.80
sdd               0.00     0.00 3037.00    0.00 12148.00     0.00     8.00     1.54    0.51    0.51    0.00   0.10  30.60
md0               0.00     0.00 8992.00    0.00 35968.00     0.00     8.00     0.00    0.00    0.00    0.00   0.00   0.00

avg-cpu:  %user   %nice %system %iowait  %steal   %idle
           0.16    0.00    1.73    8.78    0.00   89.34

Device:         rrqm/s   wrqm/s     r/s     w/s    rkB/s    wkB/s avgrq-sz avgqu-sz   await r_await w_await  svctm  %util
nvme0n1           0.00     0.00    0.00    0.00     0.00     0.00     0.00     0.00    0.00    0.00    0.00   0.00   0.00
sda               0.00     8.00    0.00    2.00     0.00    40.00    40.00     0.00    0.00    0.00    0.00   0.00   0.00
sdc               0.00     0.00 2905.00    0.00 11620.00     0.00     8.00     1.71    0.59    0.59    0.00   0.12  33.70
sdb               0.00     0.00 2748.00    0.00 10992.00     0.00     8.00     1.35    0.50    0.50    0.00   0.10  28.80
sdd               0.00     0.00 2675.00    0.00 10700.00     0.00     8.00     1.68    0.63    0.63    0.00   0.12  32.20
md0               0.00     0.00 8328.00    0.00 33312.00     0.00     8.00     0.00    0.00    0.00    0.00   0.00   0.00

avg-cpu:  %user   %nice %system %iowait  %steal   %idle
           0.13    0.00    1.54    8.82    0.00   89.52

Device:         rrqm/s   wrqm/s     r/s     w/s    rkB/s    wkB/s avgrq-sz avgqu-sz   await r_await w_await  svctm  %util
nvme0n1           0.00     0.00    0.00    0.00     0.00     0.00     0.00     0.00    0.00    0.00    0.00   0.00   0.00
sda               0.00     0.00    0.00    0.00     0.00     0.00     0.00     0.00    0.00    0.00    0.00   0.00   0.00
sdc               0.00     0.00 2978.00    0.00 11912.00     0.00     8.00     1.54    0.52    0.52    0.00   0.10  28.80
sdb               0.00     0.00 2977.00    0.00 11908.00     0.00     8.00     1.63    0.55    0.55    0.00   0.11  32.30
sdd               0.00     0.00 3004.00    0.00 12016.00     0.00     8.00     1.59    0.53    0.53    0.00   0.10  31.10
md0               0.00     0.00 8960.00    0.00 35840.00     0.00     8.00     0.00    0.00    0.00    0.00   0.00   0.00

avg-cpu:  %user   %nice %system %iowait  %steal   %idle
           0.16    0.00    1.63    8.73    0.00   89.48

Device:         rrqm/s   wrqm/s     r/s     w/s    rkB/s    wkB/s avgrq-sz avgqu-sz   await r_await w_await  svctm  %util
nvme0n1           0.00     0.00    0.00    0.00     0.00     0.00     0.00     0.00    0.00    0.00    0.00   0.00   0.00
sda               0.00     0.00    0.00    0.00     0.00     0.00     0.00     0.00    0.00    0.00    0.00   0.00   0.00
sdc               0.00     0.00 2826.00    0.00 11304.00     0.00     8.00     1.46    0.52    0.52    0.00   0.11  29.80
sdb               0.00     0.00 2703.00    0.00 10812.00     0.00     8.00     1.40    0.52    0.52    0.00   0.10  27.10
sdd               0.00     0.00 2808.00    0.00 11232.00     0.00     8.00     1.79    0.64    0.64    0.00   0.12  35.00
md0               0.00     0.00 8336.00    0.00 33344.00     0.00     8.00     0.00    0.00    0.00    0.00   0.00   0.00

avg-cpu:  %user   %nice %system %iowait  %steal   %idle
           0.19    0.00    1.85    8.86    0.00   89.10

Device:         rrqm/s   wrqm/s     r/s     w/s    rkB/s    wkB/s avgrq-sz avgqu-sz   await r_await w_await  svctm  %util
nvme0n1           0.00     0.00    0.00    0.00     0.00     0.00     0.00     0.00    0.00    0.00    0.00   0.00   0.00
sda               0.00     0.00    0.00    0.00     0.00     0.00     0.00     0.00    0.00    0.00    0.00   0.00   0.00
sdc               0.00     0.00 2519.00    0.00 10076.00     0.00     8.00     1.49    0.60    0.60    0.00   0.12  30.10
sdb               0.00     0.00 2803.00    0.00 11212.00     0.00     8.00     1.48    0.54    0.54    0.00   0.11  30.10
sdd               0.00     0.00 2806.00    0.00 11224.00     0.00     8.00     1.59    0.57    0.57    0.00   0.12  32.40
md0               0.00     0.00 8128.00    0.00 32512.00     0.00     8.00     0.00    0.00    0.00    0.00   0.00   0.00

avg-cpu:  %user   %nice %system %iowait  %steal   %idle
           0.13    0.00    1.63    8.74    0.00   89.50

Device:         rrqm/s   wrqm/s     r/s     w/s    rkB/s    wkB/s avgrq-sz avgqu-sz   await r_await w_await  svctm  %util
nvme0n1           0.00     0.00    0.00    0.00     0.00     0.00     0.00     0.00    0.00    0.00    0.00   0.00   0.00
sda               0.00     0.00    0.00    0.00     0.00     0.00     0.00     0.00    0.00    0.00    0.00   0.00   0.00
sdc               0.00     0.00 2935.00    0.00 11740.00     0.00     8.00     1.39    0.48    0.48    0.00   0.10  28.20
sdb               0.00     0.00 2832.00    0.00 11328.00     0.00     8.00     1.63    0.58    0.58    0.00   0.11  31.90
sdd               0.00     0.00 2999.00    0.00 11996.00     0.00     8.00     1.55    0.52    0.52    0.00   0.11  32.40
md0               0.00     0.00 8768.00    0.00 35072.00     0.00     8.00     0.00    0.00    0.00    0.00   0.00   0.00

avg-cpu:  %user   %nice %system %iowait  %steal   %idle
           0.25    0.00    1.76    8.59    0.00   89.40

Device:         rrqm/s   wrqm/s     r/s     w/s    rkB/s    wkB/s avgrq-sz avgqu-sz   await r_await w_await  svctm  %util
nvme0n1           0.00     0.00    0.00    0.00     0.00     0.00     0.00     0.00    0.00    0.00    0.00   0.00   0.00
sda               0.00     1.00    0.00    2.00     0.00    12.00    12.00     0.00    0.00    0.00    0.00   0.00   0.00
sdc               0.00     0.00 2715.00    0.00 10860.00     0.00     8.00     1.39    0.52    0.52    0.00   0.11  31.20
sdb               0.00     0.00 2723.00    0.00 10892.00     0.00     8.00     1.55    0.57    0.57    0.00   0.11  30.60
sdd               0.00     0.00 3026.00    0.00 12104.00     0.00     8.00     1.68    0.56    0.56    0.00   0.11  33.30
md0               0.00     0.00 8464.00    0.00 33856.00     0.00     8.00     0.00    0.00    0.00    0.00   0.00   0.00

avg-cpu:  %user   %nice %system %iowait  %steal   %idle
           0.16    0.00    1.79    8.84    0.00   89.22

Device:         rrqm/s   wrqm/s     r/s     w/s    rkB/s    wkB/s avgrq-sz avgqu-sz   await r_await w_await  svctm  %util
nvme0n1           0.00     0.00    0.00    0.00     0.00     0.00     0.00     0.00    0.00    0.00    0.00   0.00   0.00
sda               0.00     0.00    0.00    0.00     0.00     0.00     0.00     0.00    0.00    0.00    0.00   0.00   0.00
sdc               0.00     0.00 2900.00    0.00 11600.00     0.00     8.00     1.43    0.50    0.50    0.00   0.10  30.00
sdb               0.00     0.00 2742.00    0.00 10968.00     0.00     8.00     1.60    0.59    0.59    0.00   0.12  31.60
sdd               0.00     0.00 2630.00    0.00 10520.00     0.00     8.00     1.52    0.58    0.58    0.00   0.12  30.80
md0               0.00     0.00 8264.00    0.00 33056.00     0.00     8.00     0.00    0.00    0.00    0.00   0.00   0.00

avg-cpu:  %user   %nice %system %iowait  %steal   %idle
           0.16    0.00    1.51    8.96    0.00   89.37

Device:         rrqm/s   wrqm/s     r/s     w/s    rkB/s    wkB/s avgrq-sz avgqu-sz   await r_await w_await  svctm  %util
nvme0n1           0.00     0.00    0.00    0.00     0.00     0.00     0.00     0.00    0.00    0.00    0.00   0.00   0.00
sda               0.00     0.00    0.00    0.00     0.00     0.00     0.00     0.00    0.00    0.00    0.00   0.00   0.00
sdc               0.00     0.00 2723.00    0.00 10892.00     0.00     8.00     1.56    0.57    0.57    0.00   0.11  30.80
sdb               0.00     0.00 2794.00    0.00 11176.00     0.00     8.00     1.53    0.55    0.55    0.00   0.10  29.20
sdd               0.00     0.00 2844.00    0.00 11376.00     0.00     8.00     1.69    0.59    0.59    0.00   0.12  33.20
md0               0.00     0.00 8368.00    0.00 33472.00     0.00     8.00     0.00    0.00    0.00    0.00   0.00   0.00

avg-cpu:  %user   %nice %system %iowait  %steal   %idle
           0.16    0.00    1.45    8.68    0.00   89.72

Device:         rrqm/s   wrqm/s     r/s     w/s    rkB/s    wkB/s avgrq-sz avgqu-sz   await r_await w_await  svctm  %util
nvme0n1           0.00     0.00    0.00    0.00     0.00     0.00     0.00     0.00    0.00    0.00    0.00   0.00   0.00
sda               0.00     3.00    0.00    2.00     0.00    36.00    36.00     0.00    0.00    0.00    0.00   0.00   0.00
sdc               0.00     0.00 2645.00    0.00 10580.00     0.00     8.00     1.62    0.62    0.62    0.00   0.12  32.20
sdb               0.00     0.00 2648.00    0.00 10592.00     0.00     8.00     1.49    0.57    0.57    0.00   0.13  33.20
sdd               0.00     0.00 2602.00    0.00 10408.00     0.00     8.00     1.45    0.56    0.56    0.00   0.11  27.70
md0               0.00     0.00 7896.00    0.00 31580.00     0.00     8.00     0.00    0.00    0.00    0.00   0.00   0.00

avg-cpu:  %user   %nice %system %iowait  %steal   %idle
           0.16    0.00    1.69    8.44    0.00   89.71

Device:         rrqm/s   wrqm/s     r/s     w/s    rkB/s    wkB/s avgrq-sz avgqu-sz   await r_await w_await  svctm  %util
nvme0n1           0.00     0.00    0.00    0.00     0.00     0.00     0.00     0.00    0.00    0.00    0.00   0.00   0.00
sda               0.00     0.00    0.00    0.00     0.00     0.00     0.00     0.00    0.00    0.00    0.00   0.00   0.00
sdc               0.00     0.00 2771.00    0.00 11084.00     0.00     8.00     1.56    0.57    0.57    0.00   0.11  31.00
sdb               0.00     0.00 2643.00    0.00 10572.00     0.00     8.00     1.55    0.59    0.59    0.00   0.12  32.40
sdd               0.00     0.00 2562.00    0.00 10248.00     0.00     8.00     1.52    0.60    0.60    0.00   0.12  30.30
md0               0.00     0.00 7976.00    0.00 31908.00     0.00     8.00     0.00    0.00    0.00    0.00   0.00   0.00

avg-cpu:  %user   %nice %system %iowait  %steal   %idle
           0.16    0.00    1.63    8.83    0.00   89.37

Device:         rrqm/s   wrqm/s     r/s     w/s    rkB/s    wkB/s avgrq-sz avgqu-sz   await r_await w_await  svctm  %util
nvme0n1           0.00     0.00    0.00    0.00     0.00     0.00     0.00     0.00    0.00    0.00    0.00   0.00   0.00
sda               0.00     6.00    0.00    2.00     0.00    32.00    32.00     0.00    0.50    0.00    0.50   0.50   0.10
sdc               0.00     0.00 2971.00    0.00 11884.00     0.00     8.00     1.66    0.57    0.57    0.00   0.11  32.80
sdb               0.00     0.00 2840.00    0.00 11360.00     0.00     8.00     1.41    0.50    0.50    0.00   0.10  28.30
sdd               0.00     0.00 2978.00    0.00 11912.00     0.00     8.00     1.62    0.55    0.55    0.00   0.11  31.70
md0               0.00     0.00 8784.00    0.00 35136.00     0.00     8.00     0.00    0.00    0.00    0.00   0.00   0.00

avg-cpu:  %user   %nice %system %iowait  %steal   %idle
           0.19    0.00    1.88    8.79    0.00   89.14

Device:         rrqm/s   wrqm/s     r/s     w/s    rkB/s    wkB/s avgrq-sz avgqu-sz   await r_await w_await  svctm  %util
nvme0n1           0.00     0.00    0.00    0.00     0.00     0.00     0.00     0.00    0.00    0.00    0.00   0.00   0.00
sda               0.00     0.00    0.00    0.00     0.00     0.00     0.00     0.00    0.00    0.00    0.00   0.00   0.00
sdc               0.00     0.00 2690.00    0.00 10760.00     0.00     8.00     1.51    0.57    0.57    0.00   0.12  31.90
sdb               0.00     0.00 2846.00    0.00 11384.00     0.00     8.00     1.66    0.59    0.59    0.00   0.11  32.10
sdd               0.00     0.00 2556.00    0.00 10224.00     0.00     8.00     1.32    0.52    0.52    0.00   0.11  27.90
md0               0.00     0.00 8096.00    0.00 32384.00     0.00     8.00     0.00    0.00    0.00    0.00   0.00   0.00

avg-cpu:  %user   %nice %system %iowait  %steal   %idle
           0.16    0.00    1.85    8.69    0.00   89.30

Device:         rrqm/s   wrqm/s     r/s     w/s    rkB/s    wkB/s avgrq-sz avgqu-sz   await r_await w_await  svctm  %util
nvme0n1           0.00     0.00    0.00    0.00     0.00     0.00     0.00     0.00    0.00    0.00    0.00   0.00   0.00
sda               0.00     0.00    0.00    0.00     0.00     0.00     0.00     0.00    0.00    0.00    0.00   0.00   0.00
sdc               0.00     0.00 2968.00    0.00 11872.00     0.00     8.00     1.62    0.55    0.55    0.00   0.10  31.10
sdb               0.00     0.00 2963.00    0.00 11852.00     0.00     8.00     1.51    0.51    0.51    0.00   0.10  30.10
sdd               0.00     0.00 2772.00    0.00 11088.00     0.00     8.00     1.47    0.53    0.53    0.00   0.11  30.40
md0               0.00     0.00 8704.00    0.00 34816.00     0.00     8.00     0.00    0.00    0.00    0.00   0.00   0.00

avg-cpu:  %user   %nice %system %iowait  %steal   %idle
           0.16    0.00    1.73    8.54    0.00   89.58

Device:         rrqm/s   wrqm/s     r/s     w/s    rkB/s    wkB/s avgrq-sz avgqu-sz   await r_await w_await  svctm  %util
nvme0n1           0.00     0.00    0.00    0.00     0.00     0.00     0.00     0.00    0.00    0.00    0.00   0.00   0.00
sda               0.00     2.00    0.00   12.00     0.00    56.00     9.33     0.00    0.00    0.00    0.00   0.00   0.00
sdc               0.00     0.00 2793.00    0.00 11172.00     0.00     8.00     1.50    0.54    0.54    0.00   0.11  30.80
sdb               0.00     0.00 2757.00    0.00 11028.00     0.00     8.00     1.43    0.53    0.53    0.00   0.10  28.60
sdd               0.00     0.00 2956.00    0.00 11824.00     0.00     8.00     1.66    0.56    0.56    0.00   0.12  35.40
md0               0.00     0.00 8504.00    0.00 34016.00     0.00     8.00     0.00    0.00    0.00    0.00   0.00   0.00

avg-cpu:  %user   %nice %system %iowait  %steal   %idle
           0.19    0.00    1.79    8.71    0.00   89.32

Device:         rrqm/s   wrqm/s     r/s     w/s    rkB/s    wkB/s avgrq-sz avgqu-sz   await r_await w_await  svctm  %util
nvme0n1           0.00     0.00    0.00    0.00     0.00     0.00     0.00     0.00    0.00    0.00    0.00   0.00   0.00
sda               0.00     0.00    0.00    0.00     0.00     0.00     0.00     0.00    0.00    0.00    0.00   0.00   0.00
sdc               0.00     0.00 2657.00    0.00 10628.00     0.00     8.00     1.50    0.57    0.57    0.00   0.11  29.50
sdb               0.00     0.00 2695.00    0.00 10780.00     0.00     8.00     1.43    0.54    0.54    0.00   0.11  30.60
sdd               0.00     0.00 2760.00    0.00 11040.00     0.00     8.00     1.71    0.63    0.63    0.00   0.12  33.30
md0               0.00     0.00 8112.00    0.00 32448.00     0.00     8.00     0.00    0.00    0.00    0.00   0.00   0.00

avg-cpu:  %user   %nice %system %iowait  %steal   %idle
           0.22    0.00    1.67    8.67    0.00   89.44

Device:         rrqm/s   wrqm/s     r/s     w/s    rkB/s    wkB/s avgrq-sz avgqu-sz   await r_await w_await  svctm  %util
nvme0n1           0.00     0.00    0.00    0.00     0.00     0.00     0.00     0.00    0.00    0.00    0.00   0.00   0.00
sda               0.00     1.00    0.00    2.00     0.00    12.00    12.00     0.00    0.00    0.00    0.00   0.00   0.00
sdc               0.00     0.00 3079.00    0.00 12316.00     0.00     8.00     1.64    0.54    0.54    0.00   0.10  32.20
sdb               0.00     0.00 2781.00    0.00 11124.00     0.00     8.00     1.55    0.56    0.56    0.00   0.11  29.90
sdd               0.00     0.00 3074.00    0.00 12296.00     0.00     8.00     1.46    0.48    0.48    0.00   0.09  28.50
md0               0.00     0.00 8928.00    0.00 35712.00     0.00     8.00     0.00    0.00    0.00    0.00   0.00   0.00

