Linux 4.17.2 (bench2) 	08/03/2018 	_x86_64_	(32 CPU)

avg-cpu:  %user   %nice %system %iowait  %steal   %idle
           1.92    0.00    1.58    1.51    0.00   94.99

Device:         rrqm/s   wrqm/s     r/s     w/s    rkB/s    wkB/s avgrq-sz avgqu-sz   await r_await w_await  svctm  %util
nvme0n1         957.47     5.20 19302.19  531.45 107968.41 11985.76    12.10     1.37    0.05    0.03    0.67   0.02  40.41
sda               0.11     0.81   14.12    0.57   163.88     8.50    23.47     0.00    0.33    0.32    0.45   0.07   0.10
sdc              32.37     0.14  105.16    0.30  1592.86    83.18    31.78     1.48   14.05   13.02  373.51   0.94   9.95
sdb              30.29     0.15  107.20    0.32  1590.99    83.00    31.14     0.36    3.34    2.17  394.60   0.88   9.46
sdd              32.57     0.13  104.70    0.25  1588.91    82.67    31.85     0.64    6.14    4.28  782.19   0.95   9.96
md0               0.00     0.00  415.19    1.07  5885.45   291.45    29.68     0.00    0.00    0.00    0.00   0.00   0.00

avg-cpu:  %user   %nice %system %iowait  %steal   %idle
           0.04    0.00    0.22    0.04    0.00   99.70

Device:         rrqm/s   wrqm/s     r/s     w/s    rkB/s    wkB/s avgrq-sz avgqu-sz   await r_await w_await  svctm  %util
nvme0n1           0.00     0.00    0.00    0.00     0.00     0.00     0.00     0.00    0.00    0.00    0.00   0.00   0.00
sda               0.00     1.30    5.40    1.45    36.60    11.80    14.13     0.00    0.04    0.04    0.03   0.04   0.03
sdc            6984.55     0.00 1804.00    0.00 35154.20     0.00    38.97    13.74    7.62    7.62    0.00   0.37  66.67
sdb            6879.30     0.00 1800.15    0.00 34717.80     0.00    38.57     9.55    5.30    5.30    0.00   0.24  42.87
sdd            6844.90     0.00 1802.05    0.00 34581.80     0.00    38.38    16.60    9.21    9.21    0.00   0.44  78.83
md0               0.00     0.00 26115.15    0.00 104460.60     0.00     8.00     0.00    0.00    0.00    0.00   0.00   0.00

