Linux 4.17.2 (bench2) 	08/03/2018 	_x86_64_	(32 CPU)

avg-cpu:  %user   %nice %system %iowait  %steal   %idle
           1.92    0.00    1.58    1.50    0.00   95.00

Device:         rrqm/s   wrqm/s     r/s     w/s    rkB/s    wkB/s avgrq-sz avgqu-sz   await r_await w_await  svctm  %util
nvme0n1         959.32     5.21 19339.44  532.47 108176.77 12008.89    12.10     1.38    0.05    0.03    0.67   0.02  40.48
sda               0.11     0.81   14.11    0.57   163.86     8.50    23.48     0.00    0.33    0.32    0.46   0.07   0.10
sdc              32.18     0.14  104.03    0.30  1564.84    83.34    31.60     1.46   13.97   12.93  373.51   0.94   9.86
sdb              30.09     0.15  106.08    0.32  1562.99    83.16    30.94     0.33    3.14    1.95  394.60   0.88   9.37
sdd              32.38     0.13  103.57    0.25  1560.86    82.83    31.66     0.62    5.97    4.09  782.19   0.95   9.86
md0               0.00     0.00  411.22    1.07  5773.20   292.01    29.42     0.00    0.00    0.00    0.00   0.00   0.00

avg-cpu:  %user   %nice %system %iowait  %steal   %idle
           0.03    0.00    0.44    9.30    0.00   90.23

Device:         rrqm/s   wrqm/s     r/s     w/s    rkB/s    wkB/s avgrq-sz avgqu-sz   await r_await w_await  svctm  %util
nvme0n1           0.00     0.00    0.00    0.00     0.00     0.00     0.00     0.00    0.00    0.00    0.00   0.00   0.00
sda               0.00     0.00   18.00    0.00    76.00     0.00     8.44     0.00    0.00    0.00    0.00   0.00   0.00
sdc               0.00     0.00 1028.00    0.00  5188.00     0.00    10.09     1.57    1.53    1.53    0.00   0.51  52.50
sdb               0.00     0.00  948.00    0.00  5344.00     0.00    11.27     1.59    1.67    1.67    0.00   0.63  60.00
sdd               0.00     0.00  938.00    0.00  4812.00     0.00    10.26     0.72    0.77    0.77    0.00   0.28  26.10
md0               0.00     0.00 2915.00    0.00 15656.00     0.00    10.74     0.00    0.00    0.00    0.00   0.00   0.00

avg-cpu:  %user   %nice %system %iowait  %steal   %idle
           0.00    0.00    0.25    5.73    0.00   94.02

Device:         rrqm/s   wrqm/s     r/s     w/s    rkB/s    wkB/s avgrq-sz avgqu-sz   await r_await w_await  svctm  %util
nvme0n1           0.00     0.00    0.00    0.00     0.00     0.00     0.00     0.00    0.00    0.00    0.00   0.00   0.00
sda               0.00     8.00    0.00    2.00     0.00    40.00    40.00     0.00    0.50    0.00    0.50   0.50   0.10
sdc               1.00     0.00  602.00    0.00  4860.00     0.00    16.15     1.33    2.21    2.21    0.00   1.02  61.50
sdb               2.00     0.00  578.00    0.00  4712.00     0.00    16.30     0.87    1.51    1.51    0.00   0.70  40.70
sdd               1.00     0.00  545.00    0.00  3772.00     0.00    13.84     0.92    1.66    1.66    0.00   0.89  48.70
md0               0.00     0.00 1726.00    0.00 15376.00     0.00    17.82     0.00    0.00    0.00    0.00   0.00   0.00

