Linux 4.17.2 (bench2) 	08/03/2018 	_x86_64_	(32 CPU)

avg-cpu:  %user   %nice %system %iowait  %steal   %idle
           1.92    0.00    1.58    1.51    0.00   94.99

Device:         rrqm/s   wrqm/s     r/s     w/s    rkB/s    wkB/s avgrq-sz avgqu-sz   await r_await w_await  svctm  %util
nvme0n1         955.55     5.19 19263.52  530.38 107752.08 11961.75    12.10     1.37    0.05    0.03    0.67   0.02  40.33
sda               0.11     0.81   14.13    0.57   163.92     8.50    23.46     0.00    0.33    0.32    0.45   0.07   0.10
sdc              32.63     0.14  106.72    0.30  1600.79    83.02    31.47     1.49   13.89   12.88  373.51   0.94  10.03
sdb              30.55     0.15  108.76    0.32  1598.92    82.84    30.84     0.37    3.35    2.20  394.60   0.87   9.53
sdd              32.83     0.13  106.26    0.25  1596.85    82.50    31.53     0.65    6.11    4.28  782.19   0.94  10.03
md0               0.00     0.00  420.62    1.07  5910.71   290.87    29.41     0.00    0.00    0.00    0.00   0.00   0.00

avg-cpu:  %user   %nice %system %iowait  %steal   %idle
           0.03    0.00    0.13    2.97    0.00   96.87

Device:         rrqm/s   wrqm/s     r/s     w/s    rkB/s    wkB/s avgrq-sz avgqu-sz   await r_await w_await  svctm  %util
nvme0n1           0.00     0.00    0.00    0.00     0.00     0.00     0.00     0.00    0.00    0.00    0.00   0.00   0.00
sda               0.00     0.00   18.00    0.00    76.00     0.00     8.44     0.00    0.00    0.00    0.00   0.00   0.00
sdc               2.00     0.00  184.00    0.00  3820.00     0.00    41.52     0.19    1.01    1.01    0.00   1.00  18.40
sdb               2.00     0.00  177.00    0.00  4412.00     0.00    49.85     0.42    2.39    2.39    0.00   2.34  41.40
sdd               4.00     0.00  173.00    0.00  4344.00     0.00    50.22     0.42    2.43    2.43    0.00   2.36  40.80
md0               0.00     0.00  542.00    0.00 15196.00     0.00    56.07     0.00    0.00    0.00    0.00   0.00   0.00

