Linux 4.17.2 (bench2) 	08/03/2018 	_x86_64_	(32 CPU)

avg-cpu:  %user   %nice %system %iowait  %steal   %idle
           1.92    0.00    1.58    1.51    0.00   94.99

Device:         rrqm/s   wrqm/s     r/s     w/s    rkB/s    wkB/s avgrq-sz avgqu-sz   await r_await w_await  svctm  %util
nvme0n1         955.13     5.19 19255.00  530.15 107704.46 11956.46    12.10     1.37    0.05    0.03    0.67   0.02  40.31
sda               0.11     0.81   14.13    0.57   163.92     8.51    23.46     0.00    0.33    0.32    0.45   0.07   0.10
sdc              32.62     0.14  106.95    0.30  1606.24    82.98    31.50     1.49   13.85   12.85  373.51   0.94  10.04
sdb              30.54     0.15  108.99    0.32  1604.37    82.80    30.87     0.37    3.35    2.20  394.60   0.87   9.55
sdd              32.82     0.13  106.50    0.25  1602.29    82.47    31.57     0.65    6.09    4.27  782.19   0.94  10.05
md0               0.00     0.00  421.30    1.07  5932.43   290.74    29.47     0.00    0.00    0.00    0.00   0.00   0.00

avg-cpu:  %user   %nice %system %iowait  %steal   %idle
           0.03    0.00    0.38    1.03    0.00   98.56

Device:         rrqm/s   wrqm/s     r/s     w/s    rkB/s    wkB/s avgrq-sz avgqu-sz   await r_await w_await  svctm  %util
nvme0n1           0.00     0.00    0.00    0.00     0.00     0.00     0.00     0.00    0.00    0.00    0.00   0.00   0.00
sda               0.00     0.00    4.00    0.00   104.00     0.00    52.00     0.00    0.50    0.50    0.00   0.50   0.20
sdc               3.00     0.00  887.00    0.00  3572.00     0.00     8.05     1.05    1.19    1.19    0.00   0.44  39.40
sdb               0.00     0.00 1080.00    0.00  4320.00     0.00     8.00     0.81    0.75    0.75    0.00   0.21  22.40
sdd               0.00     0.00 1127.00    0.00  4508.00     0.00     8.00     1.59    1.41    1.41    0.00   0.36  40.60
md0               0.00     0.00 3101.00    0.00 12404.00     0.00     8.00     0.00    0.00    0.00    0.00   0.00   0.00

avg-cpu:  %user   %nice %system %iowait  %steal   %idle
           0.03    0.00    0.38    1.00    0.00   98.59

Device:         rrqm/s   wrqm/s     r/s     w/s    rkB/s    wkB/s avgrq-sz avgqu-sz   await r_await w_await  svctm  %util
nvme0n1           0.00     0.00    0.00    0.00     0.00     0.00     0.00     0.00    0.00    0.00    0.00   0.00   0.00
sda               0.00    11.00    0.00   13.00     0.00    96.00    14.77     0.00    0.00    0.00    0.00   0.00   0.00
sdc               3.00     0.00  727.00    0.00  2944.00     0.00     8.10     0.82    1.13    1.13    0.00   0.58  42.50
sdb               1.00     0.00  699.00    0.00  2816.00     0.00     8.06     1.07    1.53    1.53    0.00   0.70  49.10
sdd               0.00     0.00  574.00    0.00  2296.00     0.00     8.00     0.46    0.79    0.79    0.00   0.22  12.60
md0               0.00     0.00 2015.00    0.00  8060.00     0.00     8.00     0.00    0.00    0.00    0.00   0.00   0.00

avg-cpu:  %user   %nice %system %iowait  %steal   %idle
           0.03    0.00    0.28    1.00    0.00   98.69

Device:         rrqm/s   wrqm/s     r/s     w/s    rkB/s    wkB/s avgrq-sz avgqu-sz   await r_await w_await  svctm  %util
nvme0n1           0.00     0.00    0.00    0.00     0.00     0.00     0.00     0.00    0.00    0.00    0.00   0.00   0.00
sda               0.00     0.00    0.00    0.00     0.00     0.00     0.00     0.00    0.00    0.00    0.00   0.00   0.00
sdc               1.00     0.00  591.00    0.00  2380.00     0.00     8.05     1.16    1.89    1.89    0.00   0.86  50.70
sdb               0.00     0.00  549.00    0.00  2204.00     0.00     8.03     1.08    1.97    1.97    0.00   0.77  42.20
sdd               0.00     0.00  548.00    0.00  2192.00     0.00     8.00     0.37    0.68    0.68    0.00   0.18   9.80
md0               0.00     0.00 1695.00    0.00  6780.00     0.00     8.00     0.00    0.00    0.00    0.00   0.00   0.00

avg-cpu:  %user   %nice %system %iowait  %steal   %idle
           0.06    0.00    0.41    0.78    0.00   98.75

Device:         rrqm/s   wrqm/s     r/s     w/s    rkB/s    wkB/s avgrq-sz avgqu-sz   await r_await w_await  svctm  %util
nvme0n1           0.00     0.00    0.00    0.00     0.00     0.00     0.00     0.00    0.00    0.00    0.00   0.00   0.00
sda               0.00     0.00    0.00    0.00     0.00     0.00     0.00     0.00    0.00    0.00    0.00   0.00   0.00
sdc               0.00     0.00  473.00    0.00  1892.00     0.00     8.00     1.27    2.78    2.78    0.00   0.87  41.10
sdb               2.00     0.00  489.00    0.00  1964.00     0.00     8.03     1.29    2.65    2.65    0.00   0.88  43.20
sdd               0.00     0.00  564.00    0.00  2256.00     0.00     8.00     0.44    0.78    0.78    0.00   0.34  19.00
md0               0.00     0.00 1526.00    0.00  6104.00     0.00     8.00     0.00    0.00    0.00    0.00   0.00   0.00

avg-cpu:  %user   %nice %system %iowait  %steal   %idle
           0.03    0.00    0.31    0.72    0.00   98.94

Device:         rrqm/s   wrqm/s     r/s     w/s    rkB/s    wkB/s avgrq-sz avgqu-sz   await r_await w_await  svctm  %util
nvme0n1           0.00     0.00    0.00    0.00     0.00     0.00     0.00     0.00    0.00    0.00    0.00   0.00   0.00
sda               0.00     0.00    0.00    0.00     0.00     0.00     0.00     0.00    0.00    0.00    0.00   0.00   0.00
sdc               0.00     0.00  329.00    0.00  1316.00     0.00     8.00     0.28    0.88    0.88    0.00   0.26   8.70
sdb               0.00     0.00  580.00    0.00  2320.00     0.00     8.00     2.00    3.45    3.45    0.00   0.92  53.30
sdd               4.00     0.00  593.00    0.00  2424.00     0.00     8.18     0.81    1.38    1.38    0.00   0.68  40.30
md0               0.00     0.00 1521.00    0.00  6084.00     0.00     8.00     0.00    0.00    0.00    0.00   0.00   0.00

avg-cpu:  %user   %nice %system %iowait  %steal   %idle
           0.00    0.00    0.34    0.97    0.00   98.69

Device:         rrqm/s   wrqm/s     r/s     w/s    rkB/s    wkB/s avgrq-sz avgqu-sz   await r_await w_await  svctm  %util
nvme0n1           0.00     0.00    0.00    0.00     0.00     0.00     0.00     0.00    0.00    0.00    0.00   0.00   0.00
sda               0.00     0.00    0.00    0.00     0.00     0.00     0.00     0.00    0.00    0.00    0.00   0.00   0.00
sdc               0.00     0.00  452.00    0.00  1808.00     0.00     8.00     1.18    2.61    2.61    0.00   0.66  29.90
sdb               0.00     0.00  504.00    0.00  2016.00     0.00     8.00     1.51    2.90    2.90    0.00   0.95  47.90
sdd               0.00     0.00  436.00    0.00  1748.00     0.00     8.02     0.65    1.50    1.50    0.00   0.66  28.90
md0               0.00     0.00 1393.00    0.00  5572.00     0.00     8.00     0.00    0.00    0.00    0.00   0.00   0.00

avg-cpu:  %user   %nice %system %iowait  %steal   %idle
           0.06    0.00    0.37    0.81    0.00   98.75

Device:         rrqm/s   wrqm/s     r/s     w/s    rkB/s    wkB/s avgrq-sz avgqu-sz   await r_await w_await  svctm  %util
nvme0n1           0.00     0.00    0.00    0.00     0.00     0.00     0.00     0.00    0.00    0.00    0.00   0.00   0.00
sda               0.00     2.00    1.00    4.00     4.00    24.00    11.20     0.00    0.00    0.00    0.00   0.00   0.00
sdc               0.00     0.00  410.00    0.00  1640.00     0.00     8.00     1.09    2.67    2.67    0.00   0.74  30.40
sdb               0.00     0.00  438.00    0.00  1752.00     0.00     8.00     1.45    3.45    3.45    0.00   1.10  48.20
sdd               3.00     0.00  336.00    0.00  1360.00     0.00     8.10     0.54    1.57    1.57    0.00   0.83  27.80
md0               0.00     0.00 1183.00    0.00  4732.00     0.00     8.00     0.00    0.00    0.00    0.00   0.00   0.00

avg-cpu:  %user   %nice %system %iowait  %steal   %idle
           0.03    0.00    0.22    0.63    0.00   99.12

Device:         rrqm/s   wrqm/s     r/s     w/s    rkB/s    wkB/s avgrq-sz avgqu-sz   await r_await w_await  svctm  %util
nvme0n1           0.00     0.00    0.00    0.00     0.00     0.00     0.00     0.00    0.00    0.00    0.00   0.00   0.00
sda               0.00     6.00    0.00    2.00     0.00    32.00    32.00     0.00    0.00    0.00    0.00   0.00   0.00
sdc               0.00     0.00  467.00    0.00  1868.00     0.00     8.00     1.73    3.67    3.67    0.00   1.06  49.30
sdb               0.00     0.00  325.00    0.00  1300.00     0.00     8.00     0.91    2.79    2.79    0.00   0.83  26.90
sdd               0.00     0.00  432.00    0.00  1732.00     0.00     8.02     0.75    1.78    1.78    0.00   0.72  31.20
md0               0.00     0.00 1228.00    0.00  4912.00     0.00     8.00     0.00    0.00    0.00    0.00   0.00   0.00

avg-cpu:  %user   %nice %system %iowait  %steal   %idle
           0.03    0.00    0.22    0.75    0.00   99.00

Device:         rrqm/s   wrqm/s     r/s     w/s    rkB/s    wkB/s avgrq-sz avgqu-sz   await r_await w_await  svctm  %util
nvme0n1           0.00     0.00    0.00    0.00     0.00     0.00     0.00     0.00    0.00    0.00    0.00   0.00   0.00
sda               0.00     0.00    0.00    0.00     0.00     0.00     0.00     0.00    0.00    0.00    0.00   0.00   0.00
sdc               0.00     0.00  555.00    0.00  2220.00     0.00     8.00     1.56    2.84    2.84    0.00   0.81  44.90
sdb               0.00     0.00  381.00    0.00  1524.00     0.00     8.00     0.66    1.72    1.72    0.00   0.47  18.00
sdd               3.00     0.00  486.00    0.00  1960.00     0.00     8.07     1.04    2.14    2.14    0.00   0.87  42.50
md0               0.00     0.00 1422.00    0.00  5688.00     0.00     8.00     0.00    0.00    0.00    0.00   0.00   0.00

avg-cpu:  %user   %nice %system %iowait  %steal   %idle
           0.03    0.00    0.31    0.75    0.00   98.90

Device:         rrqm/s   wrqm/s     r/s     w/s    rkB/s    wkB/s avgrq-sz avgqu-sz   await r_await w_await  svctm  %util
nvme0n1           0.00     0.00    0.00    0.00     0.00     0.00     0.00     0.00    0.00    0.00    0.00   0.00   0.00
sda               0.00     0.00    0.00    0.00     0.00     0.00     0.00     0.00    0.00    0.00    0.00   0.00   0.00
sdc               0.00     0.00  477.00    0.00  1908.00     0.00     8.00     0.81    1.68    1.68    0.00   0.54  25.90
sdb               0.00     0.00  547.00    0.00  2188.00     0.00     8.00     0.84    1.53    1.53    0.00   0.55  30.30
sdd               8.00     0.00  523.00    0.00  2184.00     0.00     8.35     1.17    2.24    2.24    0.00   0.95  49.80
md0               0.00     0.00 1570.00    0.00  6280.00     0.00     8.00     0.00    0.00    0.00    0.00   0.00   0.00

avg-cpu:  %user   %nice %system %iowait  %steal   %idle
           0.03    0.00    0.34    0.94    0.00   98.69

Device:         rrqm/s   wrqm/s     r/s     w/s    rkB/s    wkB/s avgrq-sz avgqu-sz   await r_await w_await  svctm  %util
nvme0n1           0.00     0.00    0.00    0.00     0.00     0.00     0.00     0.00    0.00    0.00    0.00   0.00   0.00
sda               0.00     0.00    0.00    0.00     0.00     0.00     0.00     0.00    0.00    0.00    0.00   0.00   0.00
sdc               0.00     0.00  442.00    0.00  1768.00     0.00     8.00     0.67    1.55    1.55    0.00   0.55  24.10
sdb               0.00     0.00  474.00    0.00  1896.00     0.00     8.00     0.70    1.49    1.49    0.00   0.48  22.80
sdd               5.00     0.00  704.00    0.00  2852.00     0.00     8.10     1.35    1.91    1.91    0.00   0.79  55.40
md0               0.00     0.00 1633.00    0.00  6532.00     0.00     8.00     0.00    0.00    0.00    0.00   0.00   0.00

avg-cpu:  %user   %nice %system %iowait  %steal   %idle
           0.03    0.00    0.28    0.88    0.00   98.81

Device:         rrqm/s   wrqm/s     r/s     w/s    rkB/s    wkB/s avgrq-sz avgqu-sz   await r_await w_await  svctm  %util
nvme0n1           0.00     0.00    0.00    0.00     0.00     0.00     0.00     0.00    0.00    0.00    0.00   0.00   0.00
sda               0.00     1.00    0.00    2.00     0.00    28.00    28.00     0.00    0.00    0.00    0.00   0.00   0.00
sdc               0.00     0.00  416.00    0.00  1664.00     0.00     8.00     1.59    3.82    3.82    0.00   0.95  39.50
sdb               0.00     0.00  384.00    0.00  1536.00     0.00     8.00     1.18    2.92    2.92    0.00   0.74  28.40
sdd               1.00     0.00  462.00    0.00  1864.00     0.00     8.07     0.71    1.56    1.56    0.00   0.75  34.60
md0               0.00     0.00 1267.00    0.00  5068.00     0.00     8.00     0.00    0.00    0.00    0.00   0.00   0.00

avg-cpu:  %user   %nice %system %iowait  %steal   %idle
           0.03    0.00    0.22    0.66    0.00   99.09

Device:         rrqm/s   wrqm/s     r/s     w/s    rkB/s    wkB/s avgrq-sz avgqu-sz   await r_await w_await  svctm  %util
nvme0n1           0.00     0.00    0.00    0.00     0.00     0.00     0.00     0.00    0.00    0.00    0.00   0.00   0.00
sda               0.00     3.00    0.00    2.00     0.00    20.00    20.00     0.00    0.00    0.00    0.00   0.00   0.00
sdc               0.00     0.00  453.00    0.00  1812.00     0.00     8.00     1.16    2.57    2.57    0.00   0.76  34.30
sdb               0.00     0.00  433.00    0.00  1732.00     0.00     8.00     1.41    3.28    3.28    0.00   1.07  46.20
sdd               3.00     0.00  303.00    0.00  1236.00     0.00     8.16     0.59    1.96    1.96    0.00   0.80  24.20
md0               0.00     0.00 1192.00    0.00  4768.00     0.00     8.00     0.00    0.00    0.00    0.00   0.00   0.00

avg-cpu:  %user   %nice %system %iowait  %steal   %idle
           0.03    0.00    0.31    0.81    0.00   98.84

Device:         rrqm/s   wrqm/s     r/s     w/s    rkB/s    wkB/s avgrq-sz avgqu-sz   await r_await w_await  svctm  %util
nvme0n1           0.00     0.00    0.00    0.00     0.00     0.00     0.00     0.00    0.00    0.00    0.00   0.00   0.00
sda               0.00     0.00    0.00    0.00     0.00     0.00     0.00     0.00    0.00    0.00    0.00   0.00   0.00
sdc               0.00     0.00  491.00    0.00  1964.00     0.00     8.00     0.74    1.50    1.50    0.00   0.40  19.70
sdb               0.00     0.00  626.00    0.00  2504.00     0.00     8.00     0.96    1.60    1.60    0.00   0.40  25.10
sdd               1.00     0.00  562.00    0.00  2256.00     0.00     8.03     1.98    3.53    3.53    0.00   1.05  58.80
md0               0.00     0.00 1679.00    0.00  6716.00     0.00     8.00     0.00    0.00    0.00    0.00   0.00   0.00

avg-cpu:  %user   %nice %system %iowait  %steal   %idle
           0.03    0.00    0.22    0.75    0.00   99.00

Device:         rrqm/s   wrqm/s     r/s     w/s    rkB/s    wkB/s avgrq-sz avgqu-sz   await r_await w_await  svctm  %util
nvme0n1           0.00     0.00    0.00    0.00     0.00     0.00     0.00     0.00    0.00    0.00    0.00   0.00   0.00
sda               0.00     0.00   58.00    0.00   444.00     0.00    15.31     0.02    0.41    0.41    0.00   0.05   0.30
sdc               0.00     0.00  455.00    0.00  1820.00     0.00     8.00     1.80    3.93    3.93    0.00   1.11  50.50
sdb               0.00     0.00  194.00    0.00   776.00     0.00     8.00     0.68    3.56    3.56    0.00   1.23  23.90
sdd               0.00     0.00  363.00    0.00  1452.00     0.00     8.00     1.17    3.23    3.23    0.00   0.87  31.60
md0               0.00     0.00 1014.00    0.00  4056.00     0.00     8.00     0.00    0.00    0.00    0.00   0.00   0.00

avg-cpu:  %user   %nice %system %iowait  %steal   %idle
           0.03    0.00    0.19    0.66    0.00   99.12

Device:         rrqm/s   wrqm/s     r/s     w/s    rkB/s    wkB/s avgrq-sz avgqu-sz   await r_await w_await  svctm  %util
nvme0n1           0.00     0.00    0.00    0.00     0.00     0.00     0.00     0.00    0.00    0.00    0.00   0.00   0.00
sda               0.00     0.00    0.00    0.00     0.00     0.00     0.00     0.00    0.00    0.00    0.00   0.00   0.00
sdc               0.00     0.00  199.01    0.00   796.04     0.00     8.00     0.38    2.02    2.02    0.00   0.56  11.09
sdb               0.00     0.00  468.32    0.00  1873.27     0.00     8.00     1.65    3.51    3.51    0.00   1.00  46.63
sdd               0.99     0.00  400.00    0.00  1603.96     0.00     8.02     1.47    3.68    3.68    0.00   1.14  45.54
md0               0.00     0.00 1066.34    0.00  4265.35     0.00     8.00     0.00    0.00    0.00    0.00   0.00   0.00

avg-cpu:  %user   %nice %system %iowait  %steal   %idle
           0.00    0.00    0.28    0.81    0.00   98.91

Device:         rrqm/s   wrqm/s     r/s     w/s    rkB/s    wkB/s avgrq-sz avgqu-sz   await r_await w_await  svctm  %util
nvme0n1           0.00     0.00    0.00    0.00     0.00     0.00     0.00     0.00    0.00    0.00    0.00   0.00   0.00
sda               0.00     0.00    0.00    0.00     0.00     0.00     0.00     0.00    0.00    0.00    0.00   0.00   0.00
sdc               0.00     0.00  543.00    0.00  2172.00     0.00     8.00     1.78    3.28    3.28    0.00   0.99  53.70
sdb               0.00     0.00  374.00    0.00  1496.00     0.00     8.00     0.65    1.76    1.76    0.00   0.59  22.20
sdd               0.00     0.00  434.00    0.00  1736.00     0.00     8.00     1.14    2.51    2.51    0.00   0.70  30.50
md0               0.00     0.00 1357.00    0.00  5428.00     0.00     8.00     0.00    0.00    0.00    0.00   0.00   0.00

avg-cpu:  %user   %nice %system %iowait  %steal   %idle
           0.03    0.00    0.25    0.38    0.00   99.34

Device:         rrqm/s   wrqm/s     r/s     w/s    rkB/s    wkB/s avgrq-sz avgqu-sz   await r_await w_await  svctm  %util
nvme0n1           0.00     0.00    0.00    0.00     0.00     0.00     0.00     0.00    0.00    0.00    0.00   0.00   0.00
sda               0.00     3.00    0.00    2.00     0.00    20.00    20.00     0.00    0.00    0.00    0.00   0.00   0.00
sdc               0.00     0.00  531.00    0.00  2124.00     0.00     8.00     1.54    2.88    2.88    0.00   1.08  57.10
sdb               0.00     0.00  407.00    0.00  1628.00     0.00     8.00     0.68    1.64    1.64    0.00   0.51  20.60
sdd               0.00     0.00  449.00    0.00  1796.00     0.00     8.00     1.00    2.35    2.35    0.00   0.63  28.40
md0               0.00     0.00 1385.00    0.00  5540.00     0.00     8.00     0.00    0.00    0.00    0.00   0.00   0.00

avg-cpu:  %user   %nice %system %iowait  %steal   %idle
           0.00    0.00    0.25    0.81    0.00   98.94

Device:         rrqm/s   wrqm/s     r/s     w/s    rkB/s    wkB/s avgrq-sz avgqu-sz   await r_await w_await  svctm  %util
nvme0n1           0.00     0.00    0.00    0.00     0.00     0.00     0.00     0.00    0.00    0.00    0.00   0.00   0.00
sda               0.00     0.00    0.00    0.00     0.00     0.00     0.00     0.00    0.00    0.00    0.00   0.00   0.00
sdc               1.00     0.00  481.00    0.00  1928.00     0.00     8.02     1.16    2.43    2.43    0.00   0.80  38.60
sdb               0.00     0.00  356.00    0.00  1424.00     0.00     8.00     0.97    2.76    2.76    0.00   0.67  24.00
sdd               0.00     0.00  464.00    0.00  1856.00     0.00     8.00     1.57    3.24    3.24    0.00   0.88  40.90
md0               0.00     0.00 1302.00    0.00  5208.00     0.00     8.00     0.00    0.00    0.00    0.00   0.00   0.00

avg-cpu:  %user   %nice %system %iowait  %steal   %idle
           0.03    0.00    0.19    0.72    0.00   99.06

Device:         rrqm/s   wrqm/s     r/s     w/s    rkB/s    wkB/s avgrq-sz avgqu-sz   await r_await w_await  svctm  %util
nvme0n1           0.00     0.00    0.00    0.00     0.00     0.00     0.00     0.00    0.00    0.00    0.00   0.00   0.00
sda               0.00     0.00    0.00    0.00     0.00     0.00     0.00     0.00    0.00    0.00    0.00   0.00   0.00
sdc               0.00     0.00  307.00    0.00  1228.00     0.00     8.00     0.54    1.77    1.77    0.00   0.65  20.00
sdb               0.00     0.00  452.00    0.00  1808.00     0.00     8.00     1.38    3.06    3.06    0.00   0.84  37.80
sdd               0.00     0.00  450.00    0.00  1800.00     0.00     8.00     1.67    3.84    3.84    0.00   1.07  48.20
md0               0.00     0.00 1209.00    0.00  4836.00     0.00     8.00     0.00    0.00    0.00    0.00   0.00   0.00

