Linux 4.17.2 (bench2) 	08/03/2018 	_x86_64_	(32 CPU)

avg-cpu:  %user   %nice %system %iowait  %steal   %idle
           1.93    0.00    1.59    1.49    0.00   95.00

Device:         rrqm/s   wrqm/s     r/s     w/s    rkB/s    wkB/s avgrq-sz avgqu-sz   await r_await w_await  svctm  %util
nvme0n1         962.20     5.23 19397.61  534.08 108502.14 12045.01    12.10     1.38    0.05    0.03    0.67   0.02  40.61
sda               0.11     0.81   14.10    0.57   163.79     8.50    23.49     0.00    0.33    0.32    0.46   0.07   0.10
sdc              32.06     0.14  101.87    0.30  1545.98    83.59    31.90     1.45   14.23   13.16  373.51   0.95   9.74
sdb              29.97     0.15  103.92    0.32  1544.16    83.41    31.23     0.33    3.14    1.92  394.60   0.89   9.26
sdd              32.26     0.13  101.41    0.25  1542.03    83.08    31.97     0.61    6.03    4.10  782.19   0.96   9.75
md0               0.00     0.00  404.39    1.08  5704.62   292.89    29.58     0.00    0.00    0.00    0.00   0.00   0.00

avg-cpu:  %user   %nice %system %iowait  %steal   %idle
           0.06    0.00    0.38    0.63    0.00   98.94

Device:         rrqm/s   wrqm/s     r/s     w/s    rkB/s    wkB/s avgrq-sz avgqu-sz   await r_await w_await  svctm  %util
nvme0n1           0.00     0.00    0.00    0.00     0.00     0.00     0.00     0.00    0.00    0.00    0.00   0.00   0.00
sda               0.00     0.00    2.00    0.00    36.00     0.00    36.00     0.00    0.00    0.00    0.00   0.00   0.00
sdc               0.00     0.00 1431.00    0.00  5748.00     0.00     8.03     0.24    0.17    0.17    0.00   0.17  24.40
sdb               0.00     0.00 1482.00    0.00  5928.00     0.00     8.00     0.32    0.22    0.22    0.00   0.22  32.30
sdd               0.00     0.00 1393.00    0.00  5572.00     0.00     8.00     0.32    0.23    0.23    0.00   0.23  31.50
md0               0.00     0.00 4306.00    0.00 17236.00     0.00     8.01     0.00    0.00    0.00    0.00   0.00   0.00

avg-cpu:  %user   %nice %system %iowait  %steal   %idle
           0.06    0.00    0.31    0.63    0.00   99.00

Device:         rrqm/s   wrqm/s     r/s     w/s    rkB/s    wkB/s avgrq-sz avgqu-sz   await r_await w_await  svctm  %util
nvme0n1           0.00     0.00    0.00    0.00     0.00     0.00     0.00     0.00    0.00    0.00    0.00   0.00   0.00
sda               0.00     0.00    0.00    0.00     0.00     0.00     0.00     0.00    0.00    0.00    0.00   0.00   0.00
sdc               0.00     0.00 1533.00    0.00  6132.00     0.00     8.00     0.32    0.21    0.21    0.00   0.21  32.00
sdb               0.00     0.00 1532.00    0.00  6128.00     0.00     8.00     0.24    0.16    0.16    0.00   0.16  23.90
sdd               0.00     0.00 1589.00    0.00  6356.00     0.00     8.00     0.33    0.21    0.21    0.00   0.21  33.30
md0               0.00     0.00 4654.00    0.00 18616.00     0.00     8.00     0.00    0.00    0.00    0.00   0.00   0.00

avg-cpu:  %user   %nice %system %iowait  %steal   %idle
           0.06    0.00    0.31    0.60    0.00   99.03

Device:         rrqm/s   wrqm/s     r/s     w/s    rkB/s    wkB/s avgrq-sz avgqu-sz   await r_await w_await  svctm  %util
nvme0n1           0.00     0.00    0.00    0.00     0.00     0.00     0.00     0.00    0.00    0.00    0.00   0.00   0.00
sda               0.00     0.00    0.00    0.00     0.00     0.00     0.00     0.00    0.00    0.00    0.00   0.00   0.00
sdc               0.00     0.00 1508.00    0.00  6032.00     0.00     8.00     0.29    0.19    0.19    0.00   0.19  29.30
sdb               0.00     0.00 1530.00    0.00  6120.00     0.00     8.00     0.32    0.21    0.21    0.00   0.21  31.90
sdd               0.00     0.00 1552.00    0.00  6208.00     0.00     8.00     0.29    0.19    0.19    0.00   0.19  28.90
md0               0.00     0.00 4590.00    0.00 18360.00     0.00     8.00     0.00    0.00    0.00    0.00   0.00   0.00

avg-cpu:  %user   %nice %system %iowait  %steal   %idle
           0.03    0.00    0.31    0.56    0.00   99.09

Device:         rrqm/s   wrqm/s     r/s     w/s    rkB/s    wkB/s avgrq-sz avgqu-sz   await r_await w_await  svctm  %util
nvme0n1           0.00     0.00    0.00    0.00     0.00     0.00     0.00     0.00    0.00    0.00    0.00   0.00   0.00
sda               0.00     0.00    0.00    0.00     0.00     0.00     0.00     0.00    0.00    0.00    0.00   0.00   0.00
sdc               0.00     0.00 1637.00    0.00  6548.00     0.00     8.00     0.26    0.16    0.16    0.00   0.16  25.70
sdb               0.00     0.00 1638.00    0.00  6552.00     0.00     8.00     0.31    0.19    0.19    0.00   0.19  30.70
sdd               0.00     0.00 1608.00    0.00  6432.00     0.00     8.00     0.33    0.21    0.21    0.00   0.21  33.30
md0               0.00     0.00 4883.00    0.00 19532.00     0.00     8.00     0.00    0.00    0.00    0.00   0.00   0.00

avg-cpu:  %user   %nice %system %iowait  %steal   %idle
           0.06    0.00    0.28    0.60    0.00   99.06

Device:         rrqm/s   wrqm/s     r/s     w/s    rkB/s    wkB/s avgrq-sz avgqu-sz   await r_await w_await  svctm  %util
nvme0n1           0.00     0.00    0.00    0.00     0.00     0.00     0.00     0.00    0.00    0.00    0.00   0.00   0.00
sda               0.00     8.00    0.00    2.00     0.00    40.00    40.00     0.00    0.00    0.00    0.00   0.00   0.00
sdc               0.00     0.00 1510.00    0.00  6040.00     0.00     8.00     0.34    0.22    0.22    0.00   0.22  33.50
sdb               0.00     0.00 1507.00    0.00  6028.00     0.00     8.00     0.28    0.19    0.19    0.00   0.19  28.30
sdd               0.00     0.00 1542.00    0.00  6168.00     0.00     8.00     0.26    0.17    0.17    0.00   0.17  26.40
md0               0.00     0.00 4559.00    0.00 18236.00     0.00     8.00     0.00    0.00    0.00    0.00   0.00   0.00

avg-cpu:  %user   %nice %system %iowait  %steal   %idle
           0.03    0.00    0.31    0.69    0.00   98.97

Device:         rrqm/s   wrqm/s     r/s     w/s    rkB/s    wkB/s avgrq-sz avgqu-sz   await r_await w_await  svctm  %util
nvme0n1           0.00     0.00    0.00    0.00     0.00     0.00     0.00     0.00    0.00    0.00    0.00   0.00   0.00
sda               0.00     0.00    0.00    0.00     0.00     0.00     0.00     0.00    0.00    0.00    0.00   0.00   0.00
sdc               0.00     0.00 1385.00    0.00  5540.00     0.00     8.00     0.34    0.23    0.23    0.00   0.24  33.90
sdb               0.00     0.00 1366.00    0.00  5464.00     0.00     8.00     0.31    0.23    0.23    0.00   0.23  30.90
sdd               0.00     0.00 1439.00    0.00  5756.00     0.00     8.00     0.25    0.18    0.18    0.00   0.18  25.30
md0               0.00     0.00 4190.00    0.00 16760.00     0.00     8.00     0.00    0.00    0.00    0.00   0.00   0.00

avg-cpu:  %user   %nice %system %iowait  %steal   %idle
           0.06    0.00    0.38    0.53    0.00   99.03

Device:         rrqm/s   wrqm/s     r/s     w/s    rkB/s    wkB/s avgrq-sz avgqu-sz   await r_await w_await  svctm  %util
nvme0n1           0.00     0.00    0.00    0.00     0.00     0.00     0.00     0.00    0.00    0.00    0.00   0.00   0.00
sda               0.00     0.00    0.00    0.00     0.00     0.00     0.00     0.00    0.00    0.00    0.00   0.00   0.00
sdc               0.00     0.00 1481.00    0.00  5924.00     0.00     8.00     0.41    0.29    0.29    0.00   0.28  41.10
sdb               0.00     0.00 1459.00    0.00  5836.00     0.00     8.00     0.21    0.14    0.14    0.00   0.14  21.00
sdd               0.00     0.00 1502.00    0.00  6008.00     0.00     8.00     0.25    0.17    0.17    0.00   0.17  25.40
md0               0.00     0.00 4442.00    0.00 17768.00     0.00     8.00     0.00    0.00    0.00    0.00   0.00   0.00

avg-cpu:  %user   %nice %system %iowait  %steal   %idle
           0.03    0.00    0.28    0.50    0.00   99.19

Device:         rrqm/s   wrqm/s     r/s     w/s    rkB/s    wkB/s avgrq-sz avgqu-sz   await r_await w_await  svctm  %util
nvme0n1           0.00     0.00    0.00    0.00     0.00     0.00     0.00     0.00    0.00    0.00    0.00   0.00   0.00
sda               0.00     0.00    0.00    0.00     0.00     0.00     0.00     0.00    0.00    0.00    0.00   0.00   0.00
sdc               0.00     0.00 1525.00    0.00  6100.00     0.00     8.00     0.42    0.28    0.28    0.00   0.28  42.20
sdb               0.00     0.00 1427.00    0.00  5708.00     0.00     8.00     0.27    0.19    0.19    0.00   0.19  27.30
sdd               0.00     0.00 1371.00    0.00  5484.00     0.00     8.00     0.21    0.15    0.15    0.00   0.15  21.10
md0               0.00     0.00 4323.00    0.00 17292.00     0.00     8.00     0.00    0.00    0.00    0.00   0.00   0.00

avg-cpu:  %user   %nice %system %iowait  %steal   %idle
           0.06    0.00    0.38    0.50    0.00   99.06

Device:         rrqm/s   wrqm/s     r/s     w/s    rkB/s    wkB/s avgrq-sz avgqu-sz   await r_await w_await  svctm  %util
nvme0n1           0.00     0.00    0.00    0.00     0.00     0.00     0.00     0.00    0.00    0.00    0.00   0.00   0.00
sda               0.00     0.00    0.00    0.00     0.00     0.00     0.00     0.00    0.00    0.00    0.00   0.00   0.00
sdc               0.00     0.00 1447.00    0.00  5788.00     0.00     8.00     0.44    0.31    0.31    0.00   0.31  44.40
sdb               0.00     0.00 1407.00    0.00  5628.00     0.00     8.00     0.23    0.16    0.16    0.00   0.16  23.10
sdd               0.00     0.00 1515.00    0.00  6060.00     0.00     8.00     0.21    0.14    0.14    0.00   0.14  20.90
md0               0.00     0.00 4369.00    0.00 17476.00     0.00     8.00     0.00    0.00    0.00    0.00   0.00   0.00

avg-cpu:  %user   %nice %system %iowait  %steal   %idle
           0.03    0.00    0.38    0.63    0.00   98.97

Device:         rrqm/s   wrqm/s     r/s     w/s    rkB/s    wkB/s avgrq-sz avgqu-sz   await r_await w_await  svctm  %util
nvme0n1           0.00     0.00    0.00    0.00     0.00     0.00     0.00     0.00    0.00    0.00    0.00   0.00   0.00
sda               0.00     1.00   84.00    2.00   548.00    12.00    13.02     0.01    0.06    0.06    0.00   0.05   0.40
sdc               0.00     0.00 1456.00    0.00  5824.00     0.00     8.00     0.26    0.18    0.18    0.00   0.18  26.00
sdb               0.00     0.00 1444.00    0.00  5776.00     0.00     8.00     0.23    0.16    0.16    0.00   0.16  23.10
sdd               0.00     0.00 1521.00    0.00  6084.00     0.00     8.00     0.39    0.25    0.25    0.00   0.25  38.50
md0               0.00     0.00 4421.00    0.00 17684.00     0.00     8.00     0.00    0.00    0.00    0.00   0.00   0.00

avg-cpu:  %user   %nice %system %iowait  %steal   %idle
           0.09    0.00    0.34    0.59    0.00   98.97

Device:         rrqm/s   wrqm/s     r/s     w/s    rkB/s    wkB/s avgrq-sz avgqu-sz   await r_await w_await  svctm  %util
nvme0n1           0.00     0.00    0.00    0.00     0.00     0.00     0.00     0.00    0.00    0.00    0.00   0.00   0.00
sda               0.00     0.00    0.00    0.00     0.00     0.00     0.00     0.00    0.00    0.00    0.00   0.00   0.00
sdc               0.00     0.00 1446.00    0.00  5784.00     0.00     8.00     0.32    0.22    0.22    0.00   0.22  31.70
sdb               0.00     0.00 1471.00    0.00  5884.00     0.00     8.00     0.30    0.20    0.20    0.00   0.20  29.80
sdd               0.00     0.00 1469.00    0.00  5876.00     0.00     8.00     0.28    0.19    0.19    0.00   0.19  27.50
md0               0.00     0.00 4386.00    0.00 17544.00     0.00     8.00     0.00    0.00    0.00    0.00   0.00   0.00

avg-cpu:  %user   %nice %system %iowait  %steal   %idle
           0.06    0.00    0.31    0.53    0.00   99.09

Device:         rrqm/s   wrqm/s     r/s     w/s    rkB/s    wkB/s avgrq-sz avgqu-sz   await r_await w_await  svctm  %util
nvme0n1           0.00     0.00    0.00    0.00     0.00     0.00     0.00     0.00    0.00    0.00    0.00   0.00   0.00
sda               0.00     0.00    0.00    0.00     0.00     0.00     0.00     0.00    0.00    0.00    0.00   0.00   0.00
sdc               0.00     0.00 1350.00    0.00  5400.00     0.00     8.00     0.37    0.28    0.28    0.00   0.28  37.20
sdb               0.00     0.00 1325.00    0.00  5300.00     0.00     8.00     0.25    0.19    0.19    0.00   0.19  25.30
sdd               0.00     0.00 1454.00    0.00  5816.00     0.00     8.00     0.26    0.18    0.18    0.00   0.18  26.40
md0               0.00     0.00 4128.00    0.00 16512.00     0.00     8.00     0.00    0.00    0.00    0.00   0.00   0.00

avg-cpu:  %user   %nice %system %iowait  %steal   %idle
           0.03    0.00    0.31    0.47    0.00   99.19

Device:         rrqm/s   wrqm/s     r/s     w/s    rkB/s    wkB/s avgrq-sz avgqu-sz   await r_await w_await  svctm  %util
nvme0n1           0.00     0.00    0.00    0.00     0.00     0.00     0.00     0.00    0.00    0.00    0.00   0.00   0.00
sda               0.00     1.00    0.00    4.00     0.00    36.00    18.00     0.00    0.00    0.00    0.00   0.00   0.00
sdc               0.00     0.00 1476.00    0.00  5904.00     0.00     8.00     0.34    0.23    0.23    0.00   0.23  34.10
sdb               0.00     0.00 1509.00    0.00  6036.00     0.00     8.00     0.27    0.18    0.18    0.00   0.18  26.80
sdd               0.00     0.00 1570.00    0.00  6280.00     0.00     8.00     0.29    0.18    0.18    0.00   0.18  28.60
md0               0.00     0.00 4556.00    0.00 18224.00     0.00     8.00     0.00    0.00    0.00    0.00   0.00   0.00

avg-cpu:  %user   %nice %system %iowait  %steal   %idle
           0.06    0.00    0.41    0.59    0.00   98.94

Device:         rrqm/s   wrqm/s     r/s     w/s    rkB/s    wkB/s avgrq-sz avgqu-sz   await r_await w_await  svctm  %util
nvme0n1           0.00     0.00    0.00    0.00     0.00     0.00     0.00     0.00    0.00    0.00    0.00   0.00   0.00
sda               0.00     0.00    0.00    0.00     0.00     0.00     0.00     0.00    0.00    0.00    0.00   0.00   0.00
sdc               0.00     0.00 1607.00    0.00  6428.00     0.00     8.00     0.27    0.17    0.17    0.00   0.17  26.70
sdb               0.00     0.00 1525.00    0.00  6100.00     0.00     8.00     0.33    0.22    0.22    0.00   0.22  33.30
sdd               0.00     0.00 1613.00    0.00  6452.00     0.00     8.00     0.27    0.17    0.17    0.00   0.17  26.80
md0               0.00     0.00 4745.00    0.00 18980.00     0.00     8.00     0.00    0.00    0.00    0.00   0.00   0.00

avg-cpu:  %user   %nice %system %iowait  %steal   %idle
           0.06    0.00    0.41    0.59    0.00   98.94

Device:         rrqm/s   wrqm/s     r/s     w/s    rkB/s    wkB/s avgrq-sz avgqu-sz   await r_await w_await  svctm  %util
nvme0n1           0.00     0.00    0.00    0.00     0.00     0.00     0.00     0.00    0.00    0.00    0.00   0.00   0.00
sda               0.00     5.00    0.00    2.00     0.00    28.00    28.00     0.00    0.00    0.00    0.00   0.00   0.00
sdc               0.00     0.00 1493.00    0.00  5972.00     0.00     8.00     0.33    0.22    0.22    0.00   0.22  33.10
sdb               0.00     0.00 1482.00    0.00  5928.00     0.00     8.00     0.25    0.17    0.17    0.00   0.17  25.30
sdd               0.00     0.00 1605.00    0.00  6420.00     0.00     8.00     0.29    0.18    0.18    0.00   0.18  29.40
md0               0.00     0.00 4580.00    0.00 18320.00     0.00     8.00     0.00    0.00    0.00    0.00   0.00   0.00

avg-cpu:  %user   %nice %system %iowait  %steal   %idle
           0.06    0.00    0.38    0.56    0.00   99.00

Device:         rrqm/s   wrqm/s     r/s     w/s    rkB/s    wkB/s avgrq-sz avgqu-sz   await r_await w_await  svctm  %util
nvme0n1           0.00     0.00    0.00    0.00     0.00     0.00     0.00     0.00    0.00    0.00    0.00   0.00   0.00
sda               0.00     0.00    0.00    0.00     0.00     0.00     0.00     0.00    0.00    0.00    0.00   0.00   0.00
sdc               0.00     0.00 1500.00    0.00  6000.00     0.00     8.00     0.31    0.21    0.21    0.00   0.21  31.30
sdb               0.00     0.00 1546.00    0.00  6184.00     0.00     8.00     0.26    0.17    0.17    0.00   0.17  26.00
sdd               0.00     0.00 1491.00    0.00  5964.00     0.00     8.00     0.32    0.21    0.21    0.00   0.21  31.90
md0               0.00     0.00 4537.00    0.00 18148.00     0.00     8.00     0.00    0.00    0.00    0.00   0.00   0.00

avg-cpu:  %user   %nice %system %iowait  %steal   %idle
           0.03    0.00    0.34    0.63    0.00   99.00

Device:         rrqm/s   wrqm/s     r/s     w/s    rkB/s    wkB/s avgrq-sz avgqu-sz   await r_await w_await  svctm  %util
nvme0n1           0.00     0.00    0.00    0.00     0.00     0.00     0.00     0.00    0.00    0.00    0.00   0.00   0.00
sda               0.00     0.00    0.00    0.00     0.00     0.00     0.00     0.00    0.00    0.00    0.00   0.00   0.00
sdc               0.00     0.00 1492.00    0.00  5968.00     0.00     8.00     0.23    0.16    0.16    0.00   0.16  23.30
sdb               0.00     0.00 1472.00    0.00  5888.00     0.00     8.00     0.30    0.21    0.21    0.00   0.21  30.40
sdd               0.00     0.00 1475.00    0.00  5900.00     0.00     8.00     0.34    0.23    0.23    0.00   0.23  34.50
md0               0.00     0.00 4439.00    0.00 17756.00     0.00     8.00     0.00    0.00    0.00    0.00   0.00   0.00

avg-cpu:  %user   %nice %system %iowait  %steal   %idle
           0.06    0.00    0.41    0.44    0.00   99.09

Device:         rrqm/s   wrqm/s     r/s     w/s    rkB/s    wkB/s avgrq-sz avgqu-sz   await r_await w_await  svctm  %util
nvme0n1           0.00     0.00    0.00    0.00     0.00     0.00     0.00     0.00    0.00    0.00    0.00   0.00   0.00
sda               0.00     0.00    0.00    0.00     0.00     0.00     0.00     0.00    0.00    0.00    0.00   0.00   0.00
sdc               0.00     0.00 1544.00    0.00  6176.00     0.00     8.00     0.21    0.14    0.14    0.00   0.14  20.90
sdb               0.00     0.00 1535.00    0.00  6140.00     0.00     8.00     0.23    0.15    0.15    0.00   0.15  23.50
sdd               0.00     0.00 1572.00    0.00  6288.00     0.00     8.00     0.41    0.26    0.26    0.00   0.26  41.40
md0               0.00     0.00 4651.00    0.00 18604.00     0.00     8.00     0.00    0.00    0.00    0.00   0.00   0.00

avg-cpu:  %user   %nice %system %iowait  %steal   %idle
           0.06    0.00    0.28    0.63    0.00   99.03

Device:         rrqm/s   wrqm/s     r/s     w/s    rkB/s    wkB/s avgrq-sz avgqu-sz   await r_await w_await  svctm  %util
nvme0n1           0.00     0.00    0.00    0.00     0.00     0.00     0.00     0.00    0.00    0.00    0.00   0.00   0.00
sda               0.00     0.00    0.00    0.00     0.00     0.00     0.00     0.00    0.00    0.00    0.00   0.00   0.00
sdc               0.00     0.00 1425.00    0.00  5700.00     0.00     8.00     0.24    0.17    0.17    0.00   0.17  23.60
sdb               0.00     0.00 1466.00    0.00  5864.00     0.00     8.00     0.26    0.18    0.18    0.00   0.18  26.30
sdd               0.00     0.00 1467.00    0.00  5868.00     0.00     8.00     0.39    0.27    0.27    0.00   0.27  39.30
md0               0.00     0.00 4358.00    0.00 17432.00     0.00     8.00     0.00    0.00    0.00    0.00   0.00   0.00

avg-cpu:  %user   %nice %system %iowait  %steal   %idle
           0.06    0.00    0.34    0.60    0.00   99.00

Device:         rrqm/s   wrqm/s     r/s     w/s    rkB/s    wkB/s avgrq-sz avgqu-sz   await r_await w_await  svctm  %util
nvme0n1           0.00     0.00    0.00    0.00     0.00     0.00     0.00     0.00    0.00    0.00    0.00   0.00   0.00
sda               0.00     1.00    0.00    2.00     0.00    12.00    12.00     0.00    0.50    0.00    0.50   0.50   0.10
sdc               0.00     0.00 1505.00    0.00  6020.00     0.00     8.00     0.32    0.21    0.21    0.00   0.21  31.90
sdb               0.00     0.00 1584.00    0.00  6336.00     0.00     8.00     0.29    0.19    0.19    0.00   0.19  29.40
sdd               0.00     0.00 1483.00    0.00  5932.00     0.00     8.00     0.26    0.17    0.17    0.00   0.17  25.70
md0               0.00     0.00 4572.00    0.00 18288.00     0.00     8.00     0.00    0.00    0.00    0.00   0.00   0.00

