Linux 4.17.2 (bench2) 	08/05/2018 	_x86_64_	(32 CPU)

avg-cpu:  %user   %nice %system %iowait  %steal   %idle
           1.86    0.00    1.67    1.70    0.00   94.76

Device:         rrqm/s   wrqm/s     r/s     w/s    rkB/s    wkB/s avgrq-sz avgqu-sz   await r_await w_await  svctm  %util
nvme0n1        1046.70     4.83 21984.53  493.63 121619.56 11180.22    11.82     1.41    0.04    0.03    0.70   0.02  40.70
sda               0.13     0.83   14.35    0.60   164.77     8.62    23.21     0.00    0.33    0.32    0.42   0.07   0.11
sdc              34.32     0.17  126.20    0.29  1870.52    92.57    31.04     0.20    1.55    0.66  381.84   0.89  11.22
sdb              32.39     0.18  128.10    0.31  1868.73    92.40    30.54     0.60    4.71    3.71  413.03   0.83  10.69
sdd              34.51     0.16  125.77    0.25  1866.79    92.09    31.09     0.91    7.21    5.44  909.23   0.89  11.27
md0               0.00     0.00  483.99    1.15  6944.61   333.93    30.01     0.00    0.00    0.00    0.00   0.00   0.00

avg-cpu:  %user   %nice %system %iowait  %steal   %idle
           0.38    0.00    0.72    0.00    0.00   98.90

Device:         rrqm/s   wrqm/s     r/s     w/s    rkB/s    wkB/s avgrq-sz avgqu-sz   await r_await w_await  svctm  %util
nvme0n1           0.00     0.00 86510.85    0.00 346043.40     0.00     8.00     1.00    0.01    0.01    0.00   0.01 100.00
sda               0.00     0.95    4.85    0.60    32.00     7.00    14.31     0.00    0.28    0.31    0.00   0.05   0.03
sdc               0.00     0.00    0.00    0.00     0.00     0.00     0.00     0.00    0.00    0.00    0.00   0.00   0.00
sdb               0.00     0.00    0.00    0.00     0.00     0.00     0.00     0.00    0.00    0.00    0.00   0.00   0.00
sdd               0.00     0.00    0.00    0.00     0.00     0.00     0.00     0.00    0.00    0.00    0.00   0.00   0.00
md0               0.00     0.00    0.00    0.00     0.00     0.00     0.00     0.00    0.00    0.00    0.00   0.00   0.00

