Linux 4.17.2 (bench2) 	08/05/2018 	_x86_64_	(32 CPU)

avg-cpu:  %user   %nice %system %iowait  %steal   %idle
           1.86    0.00    1.67    1.71    0.00   94.75

Device:         rrqm/s   wrqm/s     r/s     w/s    rkB/s    wkB/s avgrq-sz avgqu-sz   await r_await w_await  svctm  %util
nvme0n1        1066.71     4.81 22244.17  492.18 122683.60 11147.34    11.77     1.42    0.04    0.03    0.70   0.02  40.83
sda               0.13     0.85   14.42    0.60   165.08     8.68    23.14     0.00    0.33    0.32    0.45   0.07   0.11
sdc              34.22     0.17  125.83    0.29  1865.02    92.29    31.04     0.20    1.55    0.66  381.84   0.89  11.19
sdb              32.29     0.18  127.72    0.31  1863.23    92.13    30.54     0.60    4.71    3.71  413.03   0.83  10.66
sdd              34.41     0.16  125.40    0.25  1861.30    91.82    31.09     0.91    7.21    5.44  909.23   0.89  11.24
md0               0.00     0.00  482.56    1.14  6924.19   332.95    30.01     0.00    0.00    0.00    0.00   0.00   0.00

avg-cpu:  %user   %nice %system %iowait  %steal   %idle
           0.80    0.00    2.33    0.00    0.00   96.87

Device:         rrqm/s   wrqm/s     r/s     w/s    rkB/s    wkB/s avgrq-sz avgqu-sz   await r_await w_await  svctm  %util
nvme0n1           0.00     0.00   52.45    0.00   209.80     0.00     8.00     0.22    0.01    0.01    0.00   4.25  22.30
sda               0.00     0.75    0.20    1.10     5.20     8.20    20.62     0.00    0.04    0.25    0.00   0.04   0.01
sdc               0.00     0.00    0.00    0.00     0.00     0.00     0.00     0.00    0.00    0.00    0.00   0.00   0.00
sdb               0.00     0.00    0.00    0.00     0.00     0.00     0.00     0.00    0.00    0.00    0.00   0.00   0.00
sdd               0.00     0.00    0.00    0.00     0.00     0.00     0.00     0.00    0.00    0.00    0.00   0.00   0.00
md0               0.00     0.00    0.00    0.00     0.00     0.00     0.00     0.00    0.00    0.00    0.00   0.00   0.00

