Linux 4.17.2 (bench2) 	08/05/2018 	_x86_64_	(32 CPU)

avg-cpu:  %user   %nice %system %iowait  %steal   %idle
           1.87    0.00    1.66    1.71    0.00   94.77

Device:         rrqm/s   wrqm/s     r/s     w/s    rkB/s    wkB/s avgrq-sz avgqu-sz   await r_await w_await  svctm  %util
nvme0n1        1049.96     4.84 22009.65  495.18 121739.90 11215.18    11.82     1.41    0.04    0.03    0.70   0.02  40.66
sda               0.13     0.83   14.34    0.60   164.79     8.62    23.22     0.00    0.33    0.32    0.42   0.07   0.11
sdc              34.43     0.17  126.60    0.30  1876.37    92.86    31.04     0.20    1.55    0.66  381.84   0.89  11.26
sdb              32.49     0.18  128.50    0.32  1874.57    92.69    30.54     0.61    4.71    3.71  413.03   0.83  10.73
sdd              34.62     0.16  126.16    0.25  1872.63    92.38    31.09     0.91    7.21    5.44  909.23   0.89  11.31
md0               0.00     0.00  485.50    1.15  6966.33   334.97    30.01     0.00    0.00    0.00    0.00   0.00   0.00

avg-cpu:  %user   %nice %system %iowait  %steal   %idle
           0.96    0.00    2.16    0.00    0.00   96.87

Device:         rrqm/s   wrqm/s     r/s     w/s    rkB/s    wkB/s avgrq-sz avgqu-sz   await r_await w_await  svctm  %util
nvme0n1           0.00     0.00    7.95    0.00    31.80     0.00     8.00     0.20    0.01    0.01    0.00  25.65  20.39
sda               0.00     0.55    0.20    0.80     5.20     6.20    22.80     0.00    0.15    0.50    0.06   0.15   0.01
sdc               0.00     0.00    0.00    0.00     0.00     0.00     0.00     0.00    0.00    0.00    0.00   0.00   0.00
sdb               0.00     0.00    0.00    0.00     0.00     0.00     0.00     0.00    0.00    0.00    0.00   0.00   0.00
sdd               0.00     0.00    0.00    0.00     0.00     0.00     0.00     0.00    0.00    0.00    0.00   0.00   0.00
md0               0.00     0.00    0.00    0.00     0.00     0.00     0.00     0.00    0.00    0.00    0.00   0.00   0.00

