Linux 4.17.2 (bench2) 	08/05/2018 	_x86_64_	(32 CPU)

avg-cpu:  %user   %nice %system %iowait  %steal   %idle
           1.86    0.00    1.68    1.71    0.00   94.75

Device:         rrqm/s   wrqm/s     r/s     w/s    rkB/s    wkB/s avgrq-sz avgqu-sz   await r_await w_await  svctm  %util
nvme0n1        1064.59     4.80 22226.62  491.20 122601.52 11125.13    11.77     1.42    0.04    0.03    0.70   0.02  40.85
sda               0.14     0.85   14.42    0.60   165.05     8.68    23.13     0.00    0.33    0.32    0.45   0.07   0.11
sdc              34.15     0.16  125.58    0.29  1861.31    92.11    31.04     0.20    1.55    0.66  381.84   0.89  11.17
sdb              32.23     0.18  127.46    0.31  1859.52    91.94    30.54     0.60    4.71    3.71  413.03   0.83  10.64
sdd              34.34     0.16  125.15    0.25  1857.59    91.64    31.09     0.90    7.21    5.44  909.23   0.89  11.22
md0               0.00     0.00  481.60    1.14  6910.39   332.28    30.01     0.00    0.00    0.00    0.00   0.00   0.00

avg-cpu:  %user   %nice %system %iowait  %steal   %idle
           2.16    0.00    1.98    0.38    0.00   95.48

Device:         rrqm/s   wrqm/s     r/s     w/s    rkB/s    wkB/s avgrq-sz avgqu-sz   await r_await w_await  svctm  %util
nvme0n1           0.00     0.00 10025.00    0.00 759780.00     0.00   151.58     1.10    0.04    0.04    0.00   0.10  99.90
sda               0.00     0.00    1.00    0.00     8.00     0.00    16.00     0.00    0.00    0.00    0.00   0.00   0.00
sdc               0.00     0.00    0.00    0.00     0.00     0.00     0.00     0.00    0.00    0.00    0.00   0.00   0.00
sdb               0.00     0.00    0.00    0.00     0.00     0.00     0.00     0.00    0.00    0.00    0.00   0.00   0.00
sdd               0.00     0.00    0.00    0.00     0.00     0.00     0.00     0.00    0.00    0.00    0.00   0.00   0.00
md0               0.00     0.00    0.00    0.00     0.00     0.00     0.00     0.00    0.00    0.00    0.00   0.00   0.00

avg-cpu:  %user   %nice %system %iowait  %steal   %idle
           2.07    0.00    2.01    0.31    0.00   95.60

Device:         rrqm/s   wrqm/s     r/s     w/s    rkB/s    wkB/s avgrq-sz avgqu-sz   await r_await w_await  svctm  %util
nvme0n1           0.00     0.00 10321.00    0.00 757284.00     0.00   146.75     1.10    0.04    0.04    0.00   0.10 100.00
sda               0.00     8.00    0.00    2.00     0.00    40.00    40.00     0.00    0.00    0.00    0.00   0.00   0.00
sdc               0.00     0.00    0.00    0.00     0.00     0.00     0.00     0.00    0.00    0.00    0.00   0.00   0.00
sdb               0.00     0.00    0.00    0.00     0.00     0.00     0.00     0.00    0.00    0.00    0.00   0.00   0.00
sdd               0.00     0.00    0.00    0.00     0.00     0.00     0.00     0.00    0.00    0.00    0.00   0.00   0.00
md0               0.00     0.00    0.00    0.00     0.00     0.00     0.00     0.00    0.00    0.00    0.00   0.00   0.00

