Linux 4.17.2 (bench2) 	08/05/2018 	_x86_64_	(32 CPU)

avg-cpu:  %user   %nice %system %iowait  %steal   %idle
           1.86    0.00    1.68    1.71    0.00   94.75

Device:         rrqm/s   wrqm/s     r/s     w/s    rkB/s    wkB/s avgrq-sz avgqu-sz   await r_await w_await  svctm  %util
nvme0n1        1066.45     4.80 22251.42  491.02 122699.91 11121.06    11.77     1.42    0.04    0.03    0.70   0.02  40.87
sda               0.14     0.85   14.42    0.60   165.06     8.68    23.13     0.00    0.33    0.32    0.45   0.07   0.11
sdc              34.14     0.16  125.53    0.29  1860.63    92.08    31.04     0.20    1.55    0.66  381.84   0.89  11.16
sdb              32.22     0.18  127.42    0.31  1858.84    91.91    30.54     0.60    4.71    3.71  413.03   0.83  10.64
sdd              34.33     0.16  125.10    0.25  1856.91    91.60    31.09     0.90    7.21    5.44  909.23   0.89  11.21
md0               0.00     0.00  481.42    1.14  6907.87   332.16    30.01     0.00    0.00    0.00    0.00   0.00   0.00

avg-cpu:  %user   %nice %system %iowait  %steal   %idle
           2.49    0.00    1.60    1.38    0.00   94.53

Device:         rrqm/s   wrqm/s     r/s     w/s    rkB/s    wkB/s avgrq-sz avgqu-sz   await r_await w_await  svctm  %util
nvme0n1           0.00     0.00 70806.90    0.00 283227.60     0.00     8.00     1.00    0.01    0.01    0.00   0.01  99.99
sda               0.00     1.20    4.85    0.45    32.00     7.40    14.87     0.00    0.04    0.04    0.00   0.03   0.01
sdc               0.00     0.00    0.00    0.00     0.00     0.00     0.00     0.00    0.00    0.00    0.00   0.00   0.00
sdb               0.00     0.00    0.00    0.00     0.00     0.00     0.00     0.00    0.00    0.00    0.00   0.00   0.00
sdd               0.00     0.00    0.00    0.00     0.00     0.00     0.00     0.00    0.00    0.00    0.00   0.00   0.00
md0               0.00     0.00    0.00    0.00     0.00     0.00     0.00     0.00    0.00    0.00    0.00   0.00   0.00

