Linux 4.17.2 (bench2) 	08/05/2018 	_x86_64_	(32 CPU)

avg-cpu:  %user   %nice %system %iowait  %steal   %idle
           1.86    0.00    1.68    1.71    0.00   94.75

Device:         rrqm/s   wrqm/s     r/s     w/s    rkB/s    wkB/s avgrq-sz avgqu-sz   await r_await w_await  svctm  %util
nvme0n1        1067.69     4.80 22254.77  491.00 122716.90 11120.54    11.77     1.42    0.04    0.03    0.70   0.02  40.87
sda               0.14     0.85   14.42    0.60   165.06     8.69    23.13     0.00    0.33    0.32    0.45   0.07   0.11
sdc              34.14     0.16  125.53    0.29  1860.54    92.07    31.04     0.20    1.55    0.66  381.84   0.89  11.16
sdb              32.22     0.18  127.41    0.31  1858.75    91.91    30.54     0.60    4.71    3.71  413.03   0.83  10.64
sdd              34.32     0.16  125.10    0.25  1856.82    91.60    31.09     0.90    7.21    5.44  909.23   0.89  11.21
md0               0.00     0.00  481.40    1.14  6907.54   332.15    30.01     0.00    0.00    0.00    0.00   0.00   0.00

avg-cpu:  %user   %nice %system %iowait  %steal   %idle
           2.45    0.00    1.83    1.36    0.00   94.36

Device:         rrqm/s   wrqm/s     r/s     w/s    rkB/s    wkB/s avgrq-sz avgqu-sz   await r_await w_await  svctm  %util
nvme0n1           0.00     0.00 69061.05    0.00 276244.20     0.00     8.00     1.00    0.01    0.01    0.00   0.01 100.00
sda               0.00     0.80    2.15    0.60    10.60     6.40    12.36     0.00    0.13    0.16    0.00   0.04   0.01
sdc               0.00     0.00    0.00    0.00     0.00     0.00     0.00     0.00    0.00    0.00    0.00   0.00   0.00
sdb               0.00     0.00    0.00    0.00     0.00     0.00     0.00     0.00    0.00    0.00    0.00   0.00   0.00
sdd               0.00     0.00    0.00    0.00     0.00     0.00     0.00     0.00    0.00    0.00    0.00   0.00   0.00
md0               0.00     0.00    0.00    0.00     0.00     0.00     0.00     0.00    0.00    0.00    0.00   0.00   0.00

