Linux 4.17.2 (bench2) 	08/05/2018 	_x86_64_	(32 CPU)

avg-cpu:  %user   %nice %system %iowait  %steal   %idle
           1.86    0.00    1.68    1.71    0.00   94.74

Device:         rrqm/s   wrqm/s     r/s     w/s    rkB/s    wkB/s avgrq-sz avgqu-sz   await r_await w_await  svctm  %util
nvme0n1        1073.15     4.80 22352.67  490.70 123112.86 11113.93    11.75     1.42    0.04    0.03    0.70   0.02  40.91
sda               0.14     0.85   14.42    0.60   165.07     8.69    23.13     0.00    0.33    0.32    0.45   0.07   0.11
sdc              34.12     0.16  125.45    0.29  1859.43    92.02    31.04     0.20    1.55    0.66  381.84   0.89  11.16
sdb              32.20     0.18  127.34    0.31  1857.65    91.85    30.54     0.60    4.71    3.71  413.03   0.83  10.63
sdd              34.30     0.16  125.02    0.25  1855.72    91.54    31.09     0.90    7.21    5.44  909.23   0.89  11.21
md0               0.00     0.00  481.12    1.14  6903.44   331.95    30.01     0.00    0.00    0.00    0.00   0.00   0.00

avg-cpu:  %user   %nice %system %iowait  %steal   %idle
           2.57    0.00    1.34    1.62    0.00   94.46

Device:         rrqm/s   wrqm/s     r/s     w/s    rkB/s    wkB/s avgrq-sz avgqu-sz   await r_await w_await  svctm  %util
nvme0n1           0.00     0.00 83644.80    0.00 334579.20     0.00     8.00     1.00    0.01    0.01    0.00   0.01  99.99
sda               0.00     0.90    2.10    0.65    10.40     7.00    12.65     0.00    0.29    0.36    0.08   0.04   0.01
sdc               0.00     0.00    0.00    0.00     0.00     0.00     0.00     0.00    0.00    0.00    0.00   0.00   0.00
sdb               0.00     0.00    0.00    0.00     0.00     0.00     0.00     0.00    0.00    0.00    0.00   0.00   0.00
sdd               0.00     0.00    0.00    0.00     0.00     0.00     0.00     0.00    0.00    0.00    0.00   0.00   0.00
md0               0.00     0.00    0.00    0.00     0.00     0.00     0.00     0.00    0.00    0.00    0.00   0.00   0.00

