Linux 4.17.2 (bench2) 	08/05/2018 	_x86_64_	(32 CPU)

avg-cpu:  %user   %nice %system %iowait  %steal   %idle
           1.86    0.00    1.68    1.72    0.00   94.74

Device:         rrqm/s   wrqm/s     r/s     w/s    rkB/s    wkB/s avgrq-sz avgqu-sz   await r_await w_await  svctm  %util
nvme0n1        1082.16     4.80 22452.62  490.46 123533.78 11108.30    11.74     1.43    0.04    0.03    0.70   0.02  40.94
sda               0.14     0.85   14.42    0.60   165.08     8.69    23.13     0.00    0.33    0.32    0.45   0.07   0.11
sdc              34.10     0.16  125.39    0.29  1858.49    91.97    31.04     0.20    1.55    0.66  381.84   0.89  11.15
sdb              32.18     0.18  127.27    0.31  1856.71    91.81    30.54     0.60    4.71    3.71  413.03   0.83  10.63
sdd              34.29     0.16  124.96    0.25  1854.78    91.50    31.09     0.90    7.21    5.44  909.23   0.89  11.20
md0               0.00     0.00  480.87    1.14  6899.94   331.78    30.01     0.00    0.00    0.00    0.00   0.00   0.00

avg-cpu:  %user   %nice %system %iowait  %steal   %idle
           0.78    0.00    6.13   75.95    0.00   17.14

Device:         rrqm/s   wrqm/s     r/s     w/s    rkB/s    wkB/s avgrq-sz avgqu-sz   await r_await w_await  svctm  %util
nvme0n1           0.00     0.00 522248.80    0.00 2088995.20     0.00     8.00    40.62    0.05    0.05    0.00   0.00 129.69
sda               0.00     0.80    4.00    0.45    28.60     5.80    15.46     0.00    0.07    0.07    0.00   0.03   0.01
sdc               0.00     0.00    0.00    0.00     0.00     0.00     0.00     0.00    0.00    0.00    0.00   0.00   0.00
sdb               0.00     0.00    0.00    0.00     0.00     0.00     0.00     0.00    0.00    0.00    0.00   0.00   0.00
sdd               0.00     0.00    0.00    0.00     0.00     0.00     0.00     0.00    0.00    0.00    0.00   0.00   0.00
md0               0.00     0.00    0.00    0.00     0.00     0.00     0.00     0.00    0.00    0.00    0.00   0.00   0.00

