Linux 4.17.2 (bench2) 	08/05/2018 	_x86_64_	(32 CPU)

avg-cpu:  %user   %nice %system %iowait  %steal   %idle
           1.86    0.00    1.69    1.72    0.00   94.73

Device:         rrqm/s   wrqm/s     r/s     w/s    rkB/s    wkB/s avgrq-sz avgqu-sz   await r_await w_await  svctm  %util
nvme0n1        1082.82     4.78 22472.69  489.00 123599.62 11075.30    11.73     1.43    0.04    0.03    0.70   0.02  41.00
sda               0.14     0.85   14.43    0.60   165.09     8.69    23.12     0.00    0.33    0.32    0.45   0.07   0.11
sdc              34.00     0.16  125.02    0.29  1852.97    91.70    31.04     0.19    1.55    0.66  381.84   0.89  11.12
sdb              32.09     0.18  126.89    0.31  1851.19    91.53    30.54     0.60    4.71    3.71  413.03   0.83  10.59
sdd              34.18     0.16  124.59    0.25  1849.27    91.23    31.09     0.90    7.21    5.44  909.23   0.89  11.17
md0               0.00     0.00  479.44    1.14  6879.44   330.80    30.01     0.00    0.00    0.00    0.00   0.00   0.00

avg-cpu:  %user   %nice %system %iowait  %steal   %idle
           1.42    0.00    3.79    0.00    0.00   94.79

Device:         rrqm/s   wrqm/s     r/s     w/s    rkB/s    wkB/s avgrq-sz avgqu-sz   await r_await w_await  svctm  %util
nvme0n1           0.00     0.00  703.20    0.00  2812.80     0.00     8.00     0.56    0.01    0.01    0.00   0.78  54.69
sda               0.00     1.00    0.25    1.35     5.40    11.60    21.25     0.00    0.09    0.20    0.07   0.09   0.01
sdc               0.00     0.00    0.00    0.00     0.00     0.00     0.00     0.00    0.00    0.00    0.00   0.00   0.00
sdb               0.00     0.00    0.00    0.00     0.00     0.00     0.00     0.00    0.00    0.00    0.00   0.00   0.00
sdd               0.00     0.00    0.00    0.00     0.00     0.00     0.00     0.00    0.00    0.00    0.00   0.00   0.00
md0               0.00     0.00    0.00    0.00     0.00     0.00     0.00     0.00    0.00    0.00    0.00   0.00   0.00

