Linux 4.17.2 (bench2) 	08/05/2018 	_x86_64_	(32 CPU)

avg-cpu:  %user   %nice %system %iowait  %steal   %idle
           1.86    0.00    1.67    1.71    0.00   94.76

Device:         rrqm/s   wrqm/s     r/s     w/s    rkB/s    wkB/s avgrq-sz avgqu-sz   await r_await w_await  svctm  %util
nvme0n1        1052.94     4.82 22064.02  493.30 121942.47 11172.63    11.80     1.41    0.04    0.03    0.70   0.02  40.74
sda               0.13     0.83   14.35    0.60   164.79     8.62    23.20     0.00    0.33    0.32    0.42   0.07   0.11
sdc              34.30     0.17  126.12    0.29  1869.25    92.50    31.04     0.20    1.55    0.66  381.84   0.89  11.22
sdb              32.37     0.18  128.01    0.31  1867.46    92.34    30.54     0.60    4.71    3.71  413.03   0.83  10.69
sdd              34.48     0.16  125.68    0.25  1865.52    92.03    31.09     0.91    7.21    5.44  909.23   0.89  11.27
md0               0.00     0.00  483.66    1.15  6939.90   333.70    30.01     0.00    0.00    0.00    0.00   0.00   0.00

avg-cpu:  %user   %nice %system %iowait  %steal   %idle
           0.13    0.00    0.68    1.67    0.00   97.52

Device:         rrqm/s   wrqm/s     r/s     w/s    rkB/s    wkB/s avgrq-sz avgqu-sz   await r_await w_await  svctm  %util
nvme0n1           0.00     0.00 81092.20    0.00 324368.80     0.00     8.00     1.00    0.01    0.01    0.00   0.01 100.00
sda               0.00     0.80    0.15    0.65     2.60     7.80    26.00     0.00    0.12    0.33    0.08   0.12   0.01
sdc               0.00     0.00    0.00    0.00     0.00     0.00     0.00     0.00    0.00    0.00    0.00   0.00   0.00
sdb               0.00     0.00    0.00    0.00     0.00     0.00     0.00     0.00    0.00    0.00    0.00   0.00   0.00
sdd               0.00     0.00    0.00    0.00     0.00     0.00     0.00     0.00    0.00    0.00    0.00   0.00   0.00
md0               0.00     0.00    0.00    0.00     0.00     0.00     0.00     0.00    0.00    0.00    0.00   0.00   0.00

