Linux 4.17.2 (bench2) 	08/05/2018 	_x86_64_	(32 CPU)

avg-cpu:  %user   %nice %system %iowait  %steal   %idle
           1.87    0.00    1.66    1.71    0.00   94.77

Device:         rrqm/s   wrqm/s     r/s     w/s    rkB/s    wkB/s avgrq-sz avgqu-sz   await r_await w_await  svctm  %util
nvme0n1        1050.25     4.84 22000.29  495.31 121706.57 11218.29    11.82     1.41    0.04    0.03    0.70   0.02  40.65
sda               0.13     0.83   14.34    0.60   164.79     8.62    23.22     0.00    0.33    0.32    0.42   0.07   0.11
sdc              34.44     0.17  126.63    0.30  1876.89    92.88    31.04     0.20    1.55    0.66  381.84   0.89  11.26
sdb              32.50     0.18  128.53    0.32  1875.09    92.71    30.54     0.61    4.71    3.71  413.03   0.83  10.73
sdd              34.63     0.16  126.20    0.25  1873.15    92.40    31.09     0.91    7.21    5.44  909.23   0.89  11.31
md0               0.00     0.00  485.63    1.15  6968.26   335.07    30.01     0.00    0.00    0.00    0.00   0.00   0.00

avg-cpu:  %user   %nice %system %iowait  %steal   %idle
           0.42    0.00    4.77   16.43    0.00   78.38

Device:         rrqm/s   wrqm/s     r/s     w/s    rkB/s    wkB/s avgrq-sz avgqu-sz   await r_await w_await  svctm  %util
nvme0n1           0.00     0.00 537734.90    0.00 2150939.60     0.00     8.00     8.38    0.01    0.01    0.00   0.00 110.82
sda               0.00     0.90   18.35    1.00    93.00     8.40    10.48     0.00    0.16    0.16    0.15   0.05   0.09
sdc               0.00     0.00    0.00    0.00     0.00     0.00     0.00     0.00    0.00    0.00    0.00   0.00   0.00
sdb               0.00     0.00    0.00    0.00     0.00     0.00     0.00     0.00    0.00    0.00    0.00   0.00   0.00
sdd               0.00     0.00    0.00    0.00     0.00     0.00     0.00     0.00    0.00    0.00    0.00   0.00   0.00
md0               0.00     0.00    0.00    0.00     0.00     0.00     0.00     0.00    0.00    0.00    0.00   0.00   0.00

