Linux 4.17.2 (bench2) 	08/05/2018 	_x86_64_	(32 CPU)

avg-cpu:  %user   %nice %system %iowait  %steal   %idle
           1.86    0.00    1.67    1.71    0.00   94.75

Device:         rrqm/s   wrqm/s     r/s     w/s    rkB/s    wkB/s avgrq-sz avgqu-sz   await r_await w_await  svctm  %util
nvme0n1        1066.88     4.81 22245.83  492.26 122689.92 11149.20    11.77     1.42    0.04    0.03    0.70   0.02  40.83
sda               0.13     0.85   14.42    0.60   165.08     8.68    23.14     0.00    0.33    0.32    0.45   0.07   0.11
sdc              34.22     0.17  125.85    0.29  1865.33    92.31    31.04     0.20    1.55    0.66  381.84   0.89  11.19
sdb              32.30     0.18  127.74    0.31  1863.54    92.14    30.54     0.60    4.71    3.71  413.03   0.83  10.66
sdd              34.41     0.16  125.42    0.25  1861.61    91.83    31.09     0.91    7.21    5.44  909.23   0.89  11.24
md0               0.00     0.00  482.64    1.14  6925.34   333.00    30.01     0.00    0.00    0.00    0.00   0.00   0.00

avg-cpu:  %user   %nice %system %iowait  %steal   %idle
           2.25    0.00    8.48    0.00    0.00   89.27

Device:         rrqm/s   wrqm/s     r/s     w/s    rkB/s    wkB/s avgrq-sz avgqu-sz   await r_await w_await  svctm  %util
nvme0n1           0.00     0.00   98.95    0.00   463.00     0.00     9.36     0.43    0.01    0.01    0.00   4.07  40.26
sda               0.00     1.20    3.50    1.30    29.00    11.00    16.67     0.00    0.15    0.20    0.00   0.03   0.01
sdc               0.00     0.00    0.00    0.00     0.00     0.00     0.00     0.00    0.00    0.00    0.00   0.00   0.00
sdb               0.00     0.00    0.00    0.00     0.00     0.00     0.00     0.00    0.00    0.00    0.00   0.00   0.00
sdd               0.00     0.00    0.00    0.00     0.00     0.00     0.00     0.00    0.00    0.00    0.00   0.00   0.00
md0               0.00     0.00    0.00    0.00     0.00     0.00     0.00     0.00    0.00    0.00    0.00   0.00   0.00

