Linux 4.17.2 (bench2) 	08/05/2018 	_x86_64_	(32 CPU)

avg-cpu:  %user   %nice %system %iowait  %steal   %idle
           1.86    0.00    1.69    1.72    0.00   94.73

Device:         rrqm/s   wrqm/s     r/s     w/s    rkB/s    wkB/s avgrq-sz avgqu-sz   await r_await w_await  svctm  %util
nvme0n1        1083.04     4.78 22474.19  489.10 123609.18 11077.54    11.73     1.43    0.04    0.03    0.70   0.02  41.00
sda               0.14     0.85   14.43    0.60   165.10     8.69    23.12     0.00    0.33    0.32    0.45   0.07   0.11
sdc              34.00     0.16  125.04    0.29  1853.34    91.72    31.04     0.19    1.55    0.66  381.84   0.89  11.12
sdb              32.09     0.18  126.92    0.31  1851.57    91.55    30.54     0.60    4.71    3.71  413.03   0.83  10.60
sdd              34.19     0.16  124.61    0.25  1849.64    91.24    31.09     0.90    7.21    5.44  909.23   0.89  11.17
md0               0.00     0.00  479.54    1.14  6880.83   330.86    30.01     0.00    0.00    0.00    0.00   0.00   0.00

avg-cpu:  %user   %nice %system %iowait  %steal   %idle
           0.99    0.00   10.66    0.00    0.00   88.35

Device:         rrqm/s   wrqm/s     r/s     w/s    rkB/s    wkB/s avgrq-sz avgqu-sz   await r_await w_await  svctm  %util
nvme0n1           0.00     0.00  136.55    0.00   546.20     0.00     8.00     0.35    0.01    0.01    0.00   2.53  34.55
sda               0.00     1.00    0.20    1.25     5.20    11.00    22.34     0.00    0.07    0.25    0.04   0.07   0.01
sdc               0.00     0.00    0.00    0.00     0.00     0.00     0.00     0.00    0.00    0.00    0.00   0.00   0.00
sdb               0.00     0.00    0.00    0.00     0.00     0.00     0.00     0.00    0.00    0.00    0.00   0.00   0.00
sdd               0.00     0.00    0.00    0.00     0.00     0.00     0.00     0.00    0.00    0.00    0.00   0.00   0.00
md0               0.00     0.00    0.00    0.00     0.00     0.00     0.00     0.00    0.00    0.00    0.00   0.00   0.00

