Linux 4.17.2 (bench2) 	08/05/2018 	_x86_64_	(32 CPU)

avg-cpu:  %user   %nice %system %iowait  %steal   %idle
           1.86    0.00    1.68    1.71    0.00   94.75

Device:         rrqm/s   wrqm/s     r/s     w/s    rkB/s    wkB/s avgrq-sz avgqu-sz   await r_await w_await  svctm  %util
nvme0n1        1064.44     4.80 22230.00  491.13 122612.75 11123.54    11.77     1.42    0.04    0.03    0.70   0.02  40.86
sda               0.14     0.85   14.42    0.60   165.05     8.68    23.13     0.00    0.33    0.32    0.45   0.07   0.11
sdc              34.15     0.16  125.56    0.29  1861.04    92.10    31.04     0.20    1.55    0.66  381.84   0.89  11.17
sdb              32.23     0.18  127.45    0.31  1859.26    91.93    30.54     0.60    4.71    3.71  413.03   0.83  10.64
sdd              34.33     0.16  125.13    0.25  1857.33    91.62    31.09     0.90    7.21    5.44  909.23   0.89  11.22
md0               0.00     0.00  481.53    1.14  6909.41   332.24    30.01     0.00    0.00    0.00    0.00   0.00   0.00

avg-cpu:  %user   %nice %system %iowait  %steal   %idle
           0.39    0.00    1.27    1.30    0.00   97.04

Device:         rrqm/s   wrqm/s     r/s     w/s    rkB/s    wkB/s avgrq-sz avgqu-sz   await r_await w_await  svctm  %util
nvme0n1           0.00     0.00 65957.05    0.00 263828.20     0.00     8.00     1.00    0.01    0.01    0.00   0.02 100.00
sda               0.00     0.90    6.05    1.35    36.80     9.80    12.59     0.00    0.05    0.06    0.00   0.03   0.03
sdc               0.00     0.00    0.00    0.00     0.00     0.00     0.00     0.00    0.00    0.00    0.00   0.00   0.00
sdb               0.00     0.00    0.00    0.00     0.00     0.00     0.00     0.00    0.00    0.00    0.00   0.00   0.00
sdd               0.00     0.00    0.00    0.00     0.00     0.00     0.00     0.00    0.00    0.00    0.00   0.00   0.00
md0               0.00     0.00    0.00    0.00     0.00     0.00     0.00     0.00    0.00    0.00    0.00   0.00   0.00

