Linux 4.17.2 (bench2) 	08/05/2018 	_x86_64_	(32 CPU)

avg-cpu:  %user   %nice %system %iowait  %steal   %idle
           1.87    0.00    1.66    1.71    0.00   94.77

Device:         rrqm/s   wrqm/s     r/s     w/s    rkB/s    wkB/s avgrq-sz avgqu-sz   await r_await w_await  svctm  %util
nvme0n1        1049.26     4.84 22004.39  494.85 121713.78 11207.73    11.82     1.41    0.04    0.03    0.70   0.02  40.68
sda               0.13     0.83   14.34    0.60   164.79     8.62    23.21     0.00    0.33    0.32    0.42   0.07   0.11
sdc              34.40     0.17  126.51    0.30  1875.13    92.79    31.04     0.20    1.55    0.66  381.84   0.89  11.25
sdb              32.47     0.18  128.41    0.32  1873.33    92.63    30.54     0.61    4.71    3.71  413.03   0.83  10.72
sdd              34.59     0.16  126.08    0.25  1871.38    92.32    31.09     0.91    7.21    5.44  909.23   0.89  11.30
md0               0.00     0.00  485.18    1.15  6961.70   334.75    30.01     0.00    0.00    0.00    0.00   0.00   0.00

avg-cpu:  %user   %nice %system %iowait  %steal   %idle
           2.39    0.00   22.04    0.00    0.00   75.56

Device:         rrqm/s   wrqm/s     r/s     w/s    rkB/s    wkB/s avgrq-sz avgqu-sz   await r_await w_await  svctm  %util
nvme0n1           0.00     0.00  429.45    0.00  1919.40     0.00     8.94     0.54    0.01    0.01    0.00   1.25  53.75
sda               0.00     0.90    3.20    0.95    27.80     8.20    17.35     0.00    0.30    0.39    0.00   0.06   0.03
sdc               0.00     0.00    0.00    0.00     0.00     0.00     0.00     0.00    0.00    0.00    0.00   0.00   0.00
sdb               0.00     0.00    0.00    0.00     0.00     0.00     0.00     0.00    0.00    0.00    0.00   0.00   0.00
sdd               0.00     0.00    0.00    0.00     0.00     0.00     0.00     0.00    0.00    0.00    0.00   0.00   0.00
md0               0.00     0.00    0.00    0.00     0.00     0.00     0.00     0.00    0.00    0.00    0.00   0.00   0.00

