Linux 4.17.2 (bench) 	08/03/2018 	_x86_64_	(4 CPU)

avg-cpu:  %user   %nice %system %iowait  %steal   %idle
          10.28    0.02    4.04    2.53    0.00   83.12

Device:         rrqm/s   wrqm/s     r/s     w/s    rkB/s    wkB/s avgrq-sz avgqu-sz   await r_await w_await  svctm  %util
sda              44.32     4.25 1640.43  102.84 20840.26  3138.38    27.51     1.03    0.59    0.26    5.91   0.06  10.66
sdb              44.19     4.21 1640.35  102.98 20829.67  3135.03    27.49     1.03    0.59    0.26    5.85   0.06  10.54
sdc              82.19     4.27 1600.25  102.53 20821.81  3137.50    28.14     1.45    0.85    0.45    7.12   0.08  13.99
sdd              75.59     4.24 1606.02  102.60 20806.66  3133.68    28.02     1.46    0.85    0.44    7.32   0.08  14.08
sde              77.63     4.28 1611.11  102.70 20866.69  3137.94    28.01     1.48    0.86    0.44    7.43   0.08  14.10
sdf              74.74     4.25 1613.28  102.64 20847.86  3134.80    27.95     1.52    0.89    0.44    7.90   0.08  14.13
sdg               0.00     3.17   26.16   73.31   323.37   391.95    14.38     0.44    4.42    0.20    5.93   0.08   0.78
sdh               0.00     0.13    0.02    0.24     2.22     5.08    56.82     0.00    1.15    0.65    1.19   0.21   0.01
md0               0.00     0.00 10116.59  481.80 142697.85 21489.15    30.98     0.00    0.00    0.00    0.00   0.00   0.00

avg-cpu:  %user   %nice %system %iowait  %steal   %idle
           0.00    0.00    2.05    2.31    0.00   95.64

Device:         rrqm/s   wrqm/s     r/s     w/s    rkB/s    wkB/s avgrq-sz avgqu-sz   await r_await w_await  svctm  %util
sda               0.00     0.00 1477.00    0.00  5908.00     0.00     8.00     0.17    0.12    0.12    0.00   0.12  17.20
sdb               0.00     0.00 1443.00    0.00  5772.00     0.00     8.00     0.14    0.10    0.10    0.00   0.10  14.20
sdc               0.00     0.00 1366.00    0.00  5464.00     0.00     8.00     0.13    0.10    0.10    0.00   0.10  13.40
sdd               0.00     0.00 1399.00    0.00  5596.00     0.00     8.00     0.15    0.11    0.11    0.00   0.11  15.50
sde               0.00     0.00 1383.00    0.00  5532.00     0.00     8.00     0.16    0.11    0.11    0.00   0.11  15.70
sdf               0.00     0.00 1390.00    0.00  5560.00     0.00     8.00     0.18    0.13    0.13    0.00   0.13  17.70
sdg               0.00   155.00    3.00 1446.00    88.00  7376.00    10.30     8.76    6.04    0.33    6.05   0.05   6.60
sdh               0.00     0.00    0.00    0.00     0.00     0.00     0.00     0.00    0.00    0.00    0.00   0.00   0.00
md0               0.00     0.00 8459.00    0.00 33836.00     0.00     8.00     0.00    0.00    0.00    0.00   0.00   0.00

avg-cpu:  %user   %nice %system %iowait  %steal   %idle
           0.26    0.00    1.79    1.02    0.00   96.93

Device:         rrqm/s   wrqm/s     r/s     w/s    rkB/s    wkB/s avgrq-sz avgqu-sz   await r_await w_await  svctm  %util
sda               0.00     0.00 1432.00    0.00  5728.00     0.00     8.00     0.15    0.11    0.11    0.00   0.11  15.40
sdb               0.00     0.00 1405.00    0.00  5620.00     0.00     8.00     0.17    0.12    0.12    0.00   0.12  17.20
sdc               0.00     0.00 1361.00    0.00  5444.00     0.00     8.00     0.15    0.11    0.11    0.00   0.11  15.20
sdd               0.00     0.00 1438.00    0.00  5752.00     0.00     8.00     0.17    0.12    0.12    0.00   0.12  16.80
sde               0.00     0.00 1352.00    0.00  5408.00     0.00     8.00     0.15    0.11    0.11    0.00   0.11  14.90
sdf               0.00     0.00 1431.00    0.00  5724.00     0.00     8.00     0.15    0.11    0.11    0.00   0.11  15.10
sdg               0.00     0.00    0.00    0.00     0.00     0.00     0.00     0.00    0.00    0.00    0.00   0.00   0.00
sdh               0.00     0.00    0.00    0.00     0.00     0.00     0.00     0.00    0.00    0.00    0.00   0.00   0.00
md0               0.00     0.00 8419.00    0.00 33676.00     0.00     8.00     0.00    0.00    0.00    0.00   0.00   0.00

avg-cpu:  %user   %nice %system %iowait  %steal   %idle
           0.00    0.00    1.54    1.28    0.00   97.18

Device:         rrqm/s   wrqm/s     r/s     w/s    rkB/s    wkB/s avgrq-sz avgqu-sz   await r_await w_await  svctm  %util
sda               0.00     0.00 1460.00    0.00  5840.00     0.00     8.00     0.17    0.11    0.11    0.00   0.11  16.70
sdb               0.00     0.00 1345.00    0.00  5380.00     0.00     8.00     0.13    0.10    0.10    0.00   0.10  13.40
sdc               0.00     0.00 1418.00    0.00  5672.00     0.00     8.00     0.17    0.12    0.12    0.00   0.12  17.10
sdd               0.00     0.00 1443.00    0.00  5772.00     0.00     8.00     0.17    0.12    0.12    0.00   0.12  17.20
sde               0.00     0.00 1394.00    0.00  5576.00     0.00     8.00     0.17    0.12    0.12    0.00   0.12  17.00
sdf               0.00     0.00 1359.00    0.00  5436.00     0.00     8.00     0.14    0.10    0.10    0.00   0.10  14.00
sdg               0.00     0.00    0.00    0.00     0.00     0.00     0.00     0.00    0.00    0.00    0.00   0.00   0.00
sdh               0.00     0.00    0.00    0.00     0.00     0.00     0.00     0.00    0.00    0.00    0.00   0.00   0.00
md0               0.00     0.00 8420.00    0.00 33680.00     0.00     8.00     0.00    0.00    0.00    0.00   0.00   0.00

avg-cpu:  %user   %nice %system %iowait  %steal   %idle
           0.00    0.00    2.79   13.45    0.00   83.76

Device:         rrqm/s   wrqm/s     r/s     w/s    rkB/s    wkB/s avgrq-sz avgqu-sz   await r_await w_await  svctm  %util
sda               0.00     0.00 1543.00    0.00  6172.00     0.00     8.00     0.15    0.10    0.10    0.00   0.10  15.00
sdb               0.00     0.00 1500.00    0.00  6000.00     0.00     8.00     0.16    0.11    0.11    0.00   0.11  15.80
sdc               0.00     0.00 1507.00    0.00  6028.00     0.00     8.00     0.19    0.13    0.13    0.00   0.13  19.10
sdd               0.00     0.00 1414.00    0.00  5656.00     0.00     8.00     0.15    0.10    0.10    0.00   0.10  14.60
sde               0.00     0.00 1358.00    0.00  5432.00     0.00     8.00     0.14    0.11    0.11    0.00   0.11  14.40
sdf               0.00     0.00 1379.00    0.00  5516.00     0.00     8.00     0.15    0.11    0.11    0.00   0.11  15.10
sdg               0.00     0.00    0.00    0.00     0.00     0.00     0.00     0.00    0.00    0.00    0.00   0.00   0.00
sdh               0.00     0.00    0.00    0.00     0.00     0.00     0.00     0.00    0.00    0.00    0.00   0.00   0.00
md0               0.00     0.00 8701.00    0.00 34804.00     0.00     8.00     0.00    0.00    0.00    0.00   0.00   0.00

avg-cpu:  %user   %nice %system %iowait  %steal   %idle
           0.00    0.00    2.29    6.87    0.00   90.84

Device:         rrqm/s   wrqm/s     r/s     w/s    rkB/s    wkB/s avgrq-sz avgqu-sz   await r_await w_await  svctm  %util
sda               0.00     0.00 1435.00    0.00  5740.00     0.00     8.00     0.15    0.10    0.10    0.00   0.10  15.00
sdb               0.00     0.00 1408.00    0.00  5632.00     0.00     8.00     0.15    0.11    0.11    0.00   0.11  15.10
sdc               0.00     0.00 1367.00    0.00  5468.00     0.00     8.00     0.14    0.10    0.10    0.00   0.10  14.10
sdd               0.00     0.00 1435.00    0.00  5740.00     0.00     8.00     0.17    0.12    0.12    0.00   0.12  16.70
sde               0.00     0.00 1450.00    0.00  5800.00     0.00     8.00     0.16    0.11    0.11    0.00   0.11  16.10
sdf               0.00     0.00 1448.00    0.00  5792.00     0.00     8.00     0.17    0.12    0.12    0.00   0.12  17.10
sdg               0.00     0.00    0.00    0.00     0.00     0.00     0.00     0.00    0.00    0.00    0.00   0.00   0.00
sdh               0.00     0.00    0.00    0.00     0.00     0.00     0.00     0.00    0.00    0.00    0.00   0.00   0.00
md0               0.00     0.00 8543.00    0.00 34172.00     0.00     8.00     0.00    0.00    0.00    0.00   0.00   0.00

avg-cpu:  %user   %nice %system %iowait  %steal   %idle
           0.00    0.00    1.79   12.82    0.00   85.38

Device:         rrqm/s   wrqm/s     r/s     w/s    rkB/s    wkB/s avgrq-sz avgqu-sz   await r_await w_await  svctm  %util
sda               0.00     0.00 1463.00    0.00  5860.00     0.00     8.01     0.16    0.11    0.11    0.00   0.11  15.90
sdb               0.00     0.00 1433.00    0.00  5732.00     0.00     8.00     0.17    0.12    0.12    0.00   0.12  16.80
sdc               0.00     0.00 1409.00    0.00  5644.00     0.00     8.01     0.17    0.12    0.12    0.00   0.12  16.70
sdd               0.00     0.00 1435.00    0.00  5740.00     0.00     8.00     0.17    0.11    0.11    0.00   0.11  16.50
sde               0.00     0.00 1458.00    0.00  5832.00     0.00     8.00     0.15    0.11    0.11    0.00   0.11  15.40
sdf               0.00     0.00 1430.00    0.00  5720.00     0.00     8.00     0.15    0.10    0.10    0.00   0.10  14.60
sdg               0.00     0.00    0.00    0.00     0.00     0.00     0.00     0.00    0.00    0.00    0.00   0.00   0.00
sdh               0.00     0.00    0.00    0.00     0.00     0.00     0.00     0.00    0.00    0.00    0.00   0.00   0.00
md0               0.00     0.00 8628.00    0.00 34528.00     0.00     8.00     0.00    0.00    0.00    0.00   0.00   0.00

avg-cpu:  %user   %nice %system %iowait  %steal   %idle
           0.00    0.00    2.05    2.30    0.00   95.65

Device:         rrqm/s   wrqm/s     r/s     w/s    rkB/s    wkB/s avgrq-sz avgqu-sz   await r_await w_await  svctm  %util
sda               0.00     0.00 1448.00    0.00  5800.00     0.00     8.01     0.15    0.10    0.10    0.00   0.10  15.20
sdb               0.00     0.00 1368.00    0.00  5480.00     0.00     8.01     0.17    0.13    0.13    0.00   0.13  17.40
sdc               0.00     0.00 1433.00    0.00  5732.00     0.00     8.00     0.16    0.11    0.11    0.00   0.11  16.40
sdd               0.00     0.00 1379.00    0.00  5532.00     0.00     8.02     0.15    0.11    0.11    0.00   0.11  14.70
sde               0.00     0.00 1393.00    0.00  5580.00     0.00     8.01     0.14    0.10    0.10    0.00   0.10  13.70
sdf               0.00     0.00 1425.00    0.00  5700.00     0.00     8.00     0.16    0.11    0.11    0.00   0.11  16.30
sdg               0.00     0.00    0.00    0.00     0.00     0.00     0.00     0.00    0.00    0.00    0.00   0.00   0.00
sdh               0.00     0.00    0.00    0.00     0.00     0.00     0.00     0.00    0.00    0.00    0.00   0.00   0.00
md0               0.00     0.00 8446.00    0.00 33824.00     0.00     8.01     0.00    0.00    0.00    0.00   0.00   0.00

avg-cpu:  %user   %nice %system %iowait  %steal   %idle
           0.00    0.00    2.04    1.53    0.00   96.43

Device:         rrqm/s   wrqm/s     r/s     w/s    rkB/s    wkB/s avgrq-sz avgqu-sz   await r_await w_await  svctm  %util
sda               0.00     0.00 1439.00    0.00  5764.00     0.00     8.01     0.15    0.10    0.10    0.00   0.10  14.70
sdb               0.00     0.00 1383.00    0.00  5532.00     0.00     8.00     0.14    0.10    0.10    0.00   0.10  14.20
sdc               0.00     0.00 1418.00    0.00  5672.00     0.00     8.00     0.16    0.11    0.11    0.00   0.11  16.20
sdd               0.00     0.00 1424.00    0.00  5704.00     0.00     8.01     0.17    0.12    0.12    0.00   0.12  17.50
sde               0.00     0.00 1446.00    0.00  5800.00     0.00     8.02     0.17    0.11    0.11    0.00   0.11  16.50
sdf               0.00     0.00 1363.00    0.00  5460.00     0.00     8.01     0.15    0.11    0.11    0.00   0.11  14.80
sdg               0.00     0.00    0.00    0.00     0.00     0.00     0.00     0.00    0.00    0.00    0.00   0.00   0.00
sdh               0.00     0.00    0.00    0.00     0.00     0.00     0.00     0.00    0.00    0.00    0.00   0.00   0.00
md0               0.00     0.00 8473.00    0.00 33932.00     0.00     8.01     0.00    0.00    0.00    0.00   0.00   0.00

avg-cpu:  %user   %nice %system %iowait  %steal   %idle
           0.26    0.00    2.30    3.32    0.00   94.12

Device:         rrqm/s   wrqm/s     r/s     w/s    rkB/s    wkB/s avgrq-sz avgqu-sz   await r_await w_await  svctm  %util
sda               0.00     0.00 1426.00    0.00  5712.00     0.00     8.01     0.14    0.10    0.10    0.00   0.10  14.10
sdb               0.00     0.00 1373.00    0.00  5500.00     0.00     8.01     0.14    0.10    0.10    0.00   0.10  14.00
sdc               0.00     0.00 1464.00    0.00  5864.00     0.00     8.01     0.15    0.10    0.10    0.00   0.10  14.90
sdd               0.00     0.00 1466.00    0.00  5900.00     0.00     8.05     0.18    0.12    0.12    0.00   0.12  17.80
sde               0.00     0.00 1436.00    0.00  5744.00     0.00     8.00     0.18    0.12    0.12    0.00   0.12  17.70
sdf               0.00     0.00 1427.00    0.00  5716.00     0.00     8.01     0.17    0.12    0.12    0.00   0.12  16.80
sdg               0.00     0.00    5.00    0.00    20.00     0.00     8.00     0.00    0.20    0.20    0.00   0.20   0.10
sdh               0.00     0.00    0.00    0.00     0.00     0.00     0.00     0.00    0.00    0.00    0.00   0.00   0.00
md0               0.00     0.00 8592.00    0.00 34436.00     0.00     8.02     0.00    0.00    0.00    0.00   0.00   0.00

avg-cpu:  %user   %nice %system %iowait  %steal   %idle
           0.00    0.00    2.78   19.75    0.00   77.47

Device:         rrqm/s   wrqm/s     r/s     w/s    rkB/s    wkB/s avgrq-sz avgqu-sz   await r_await w_await  svctm  %util
sda               0.00     0.00 1457.00    0.00  5836.00     0.00     8.01     0.17    0.12    0.12    0.00   0.12  16.90
sdb               0.00     0.00 1496.00    0.00  5984.00     0.00     8.00     0.16    0.10    0.10    0.00   0.10  15.60
sdc               0.00     0.00 1490.00    0.00  5960.00     0.00     8.00     0.16    0.11    0.11    0.00   0.11  15.70
sdd               0.00     0.00 1405.00    0.00  5652.00     0.00     8.05     0.14    0.10    0.10    0.00   0.10  14.30
sde               0.00     0.00 1457.00    0.00  5852.00     0.00     8.03     0.17    0.11    0.11    0.00   0.11  16.70
sdf               0.00     0.00 1457.00    0.00  5836.00     0.00     8.01     0.16    0.11    0.11    0.00   0.11  16.10
sdg               0.00     0.00    0.00    0.00     0.00     0.00     0.00     0.00    0.00    0.00    0.00   0.00   0.00
sdh               0.00     0.00    0.00    0.00     0.00     0.00     0.00     0.00    0.00    0.00    0.00   0.00   0.00
md0               0.00     0.00 8762.00    0.00 35120.00     0.00     8.02     0.00    0.00    0.00    0.00   0.00   0.00

avg-cpu:  %user   %nice %system %iowait  %steal   %idle
           0.00    0.00    2.30   21.17    0.00   76.53

Device:         rrqm/s   wrqm/s     r/s     w/s    rkB/s    wkB/s avgrq-sz avgqu-sz   await r_await w_await  svctm  %util
sda               0.00     0.00 1437.00    0.00  5748.00     0.00     8.00     0.15    0.10    0.10    0.00   0.10  15.00
sdb               0.00     0.00 1457.00    0.00  5852.00     0.00     8.03     0.16    0.11    0.11    0.00   0.11  16.00
sdc               0.00     0.00 1356.00    0.00  5424.00     0.00     8.00     0.16    0.12    0.12    0.00   0.12  15.90
sdd               0.00     0.00 1494.00    0.00  5984.00     0.00     8.01     0.16    0.11    0.11    0.00   0.11  16.30
sde               0.00     0.00 1489.00    0.00  5956.00     0.00     8.00     0.16    0.11    0.11    0.00   0.11  15.90
sdf               0.00     0.00 1483.00    0.00  5940.00     0.00     8.01     0.16    0.11    0.11    0.00   0.11  16.20
sdg               0.00     2.00    9.00    7.00    36.00    60.00    12.00     0.00    0.25    0.11    0.43   0.12   0.20
sdh               0.00     0.00    0.00    0.00     0.00     0.00     0.00     0.00    0.00    0.00    0.00   0.00   0.00
md0               0.00     0.00 8717.00    0.00 34908.00     0.00     8.01     0.00    0.00    0.00    0.00   0.00   0.00

avg-cpu:  %user   %nice %system %iowait  %steal   %idle
           0.00    0.00    2.30   21.17    0.00   76.53

Device:         rrqm/s   wrqm/s     r/s     w/s    rkB/s    wkB/s avgrq-sz avgqu-sz   await r_await w_await  svctm  %util
sda               0.00     0.00 1472.00    0.00  5896.00     0.00     8.01     0.15    0.10    0.10    0.00   0.10  14.80
sdb               0.00     0.00 1476.00    0.00  5912.00     0.00     8.01     0.17    0.12    0.12    0.00   0.12  17.30
sdc               0.00     0.00 1442.00    0.00  5768.00     0.00     8.00     0.15    0.10    0.10    0.00   0.10  15.00
sdd               0.00     0.00 1421.00    0.00  5684.00     0.00     8.00     0.15    0.11    0.11    0.00   0.11  15.40
sde               0.00     0.00 1442.00    0.00  5768.00     0.00     8.00     0.14    0.10    0.10    0.00   0.10  14.50
sdf               0.00     0.00 1497.00    0.00  5988.00     0.00     8.00     0.18    0.12    0.12    0.00   0.12  17.70
sdg               0.00     0.00    0.00    0.00     0.00     0.00     0.00     0.00    0.00    0.00    0.00   0.00   0.00
sdh               0.00     0.00    0.00    0.00     0.00     0.00     0.00     0.00    0.00    0.00    0.00   0.00   0.00
md0               0.00     0.00 8748.00    0.00 35008.00     0.00     8.00     0.00    0.00    0.00    0.00   0.00   0.00

avg-cpu:  %user   %nice %system %iowait  %steal   %idle
           0.26    0.00    2.05   21.23    0.00   76.47

Device:         rrqm/s   wrqm/s     r/s     w/s    rkB/s    wkB/s avgrq-sz avgqu-sz   await r_await w_await  svctm  %util
sda               0.00     0.00 1458.00    0.00  5840.00     0.00     8.01     0.16    0.11    0.11    0.00   0.11  15.90
sdb               0.00     0.00 1488.00    0.00  5988.00     0.00     8.05     0.15    0.10    0.10    0.00   0.10  15.00
sdc               0.00     0.00 1465.00    0.00  5860.00     0.00     8.00     0.17    0.11    0.11    0.00   0.11  16.50
sdd               0.00     0.00 1414.00    0.00  5708.00     0.00     8.07     0.15    0.11    0.11    0.00   0.11  15.00
sde               0.00     0.00 1452.00    0.00  5840.00     0.00     8.04     0.16    0.11    0.11    0.00   0.11  16.20
sdf               0.00     0.00 1464.00    0.00  5860.00     0.00     8.01     0.17    0.12    0.12    0.00   0.12  17.10
sdg               0.00     0.00   16.00    0.00   296.00     0.00    37.00     0.01    0.31    0.31    0.00   0.31   0.50
sdh               0.00     0.00    0.00    0.00     0.00     0.00     0.00     0.00    0.00    0.00    0.00   0.00   0.00
md0               0.00     0.00 8742.00    0.00 35120.00     0.00     8.03     0.00    0.00    0.00    0.00   0.00   0.00

avg-cpu:  %user   %nice %system %iowait  %steal   %idle
           0.00    0.00    2.78   21.27    0.00   75.95

Device:         rrqm/s   wrqm/s     r/s     w/s    rkB/s    wkB/s avgrq-sz avgqu-sz   await r_await w_await  svctm  %util
sda               0.00     0.00 1444.00    0.00  5788.00     0.00     8.02     0.14    0.09    0.09    0.00   0.09  13.70
sdb               0.00     0.00 1427.00    0.00  5732.00     0.00     8.03     0.17    0.12    0.12    0.00   0.12  16.60
sdc               0.00     0.00 1425.00    0.00  5720.00     0.00     8.03     0.15    0.11    0.11    0.00   0.11  15.40
sdd               0.00     0.00 1477.00    0.00  5924.00     0.00     8.02     0.17    0.11    0.11    0.00   0.11  16.90
sde               0.00     0.00 1504.00    0.00  6024.00     0.00     8.01     0.15    0.10    0.10    0.00   0.10  15.20
sdf               0.00     0.00 1459.00    0.00  5844.00     0.00     8.01     0.17    0.11    0.11    0.00   0.11  16.50
sdg               0.00     0.00    0.00    0.00     0.00     0.00     0.00     0.00    0.00    0.00    0.00   0.00   0.00
sdh               0.00     0.00    0.00    0.00     0.00     0.00     0.00     0.00    0.00    0.00    0.00   0.00   0.00
md0               0.00     0.00 8736.00    0.00 35032.00     0.00     8.02     0.00    0.00    0.00    0.00   0.00   0.00

avg-cpu:  %user   %nice %system %iowait  %steal   %idle
           0.25    0.00    2.54   19.04    0.00   78.17

Device:         rrqm/s   wrqm/s     r/s     w/s    rkB/s    wkB/s avgrq-sz avgqu-sz   await r_await w_await  svctm  %util
sda               0.00     0.00 1417.00    0.00  5676.00     0.00     8.01     0.16    0.11    0.11    0.00   0.11  16.10
sdb               0.00     0.00 1415.00    0.00  5668.00     0.00     8.01     0.12    0.08    0.08    0.00   0.08  11.90
sdc               0.00     0.00 1499.00    0.00  5996.00     0.00     8.00     0.16    0.11    0.11    0.00   0.11  16.10
sdd               0.00     0.00 1489.00    0.00  5964.00     0.00     8.01     0.17    0.11    0.11    0.00   0.11  16.80
sde               0.00     0.00 1476.00    0.00  5912.00     0.00     8.01     0.19    0.13    0.13    0.00   0.13  18.60
sdf               0.00     0.00 1432.00    0.00  5736.00     0.00     8.01     0.15    0.10    0.10    0.00   0.10  14.90
sdg               0.00     0.00    0.00    7.00     0.00   144.00    41.14     0.00    0.57    0.00    0.57   0.14   0.10
sdh               0.00     0.00    0.00    0.00     0.00     0.00     0.00     0.00    0.00    0.00    0.00   0.00   0.00
md0               0.00     0.00 8727.00    0.00 34948.00     0.00     8.01     0.00    0.00    0.00    0.00   0.00   0.00

avg-cpu:  %user   %nice %system %iowait  %steal   %idle
           0.00    0.00    2.04    7.91    0.00   90.05

Device:         rrqm/s   wrqm/s     r/s     w/s    rkB/s    wkB/s avgrq-sz avgqu-sz   await r_await w_await  svctm  %util
sda               0.00     0.00 1464.00    0.00  5864.00     0.00     8.01     0.15    0.10    0.10    0.00   0.10  15.20
sdb               0.00     0.00 1410.00    0.00  5640.00     0.00     8.00     0.14    0.10    0.10    0.00   0.10  14.40
sdc               0.00     0.00 1390.00    0.00  5568.00     0.00     8.01     0.16    0.12    0.12    0.00   0.12  16.30
sdd               0.00     0.00 1439.00    0.00  5776.00     0.00     8.03     0.16    0.11    0.11    0.00   0.11  16.00
sde               0.00     0.00 1433.00    0.00  5756.00     0.00     8.03     0.17    0.12    0.12    0.00   0.12  16.70
sdf               0.00     0.00 1419.00    0.00  5692.00     0.00     8.02     0.17    0.12    0.12    0.00   0.12  16.50
sdg               0.00     0.00    0.00    0.00     0.00     0.00     0.00     0.00    0.00    0.00    0.00   0.00   0.00
sdh               0.00     0.00    0.00    0.00     0.00     0.00     0.00     0.00    0.00    0.00    0.00   0.00   0.00
md0               0.00     0.00 8556.00    0.00 34300.00     0.00     8.02     0.00    0.00    0.00    0.00   0.00   0.00

avg-cpu:  %user   %nice %system %iowait  %steal   %idle
           0.00    0.00    2.80   17.30    0.00   79.90

Device:         rrqm/s   wrqm/s     r/s     w/s    rkB/s    wkB/s avgrq-sz avgqu-sz   await r_await w_await  svctm  %util
sda               0.00     0.00 1455.00    0.00  5864.00     0.00     8.06     0.15    0.10    0.10    0.00   0.10  15.10
sdb               0.00     0.00 1441.00    0.00  5780.00     0.00     8.02     0.15    0.10    0.10    0.00   0.10  15.00
sdc               0.00     0.00 1435.00    0.00  5764.00     0.00     8.03     0.18    0.13    0.13    0.00   0.13  18.00
sdd               0.00     0.00 1369.00    0.00  5492.00     0.00     8.02     0.16    0.11    0.11    0.00   0.11  15.60
sde               0.00     0.00 1496.00    0.00  5992.00     0.00     8.01     0.17    0.11    0.11    0.00   0.11  16.80
sdf               0.00     0.00 1492.00    0.00  5988.00     0.00     8.03     0.14    0.10    0.10    0.00   0.10  14.50
sdg               0.00     0.00    0.00    0.00     0.00     0.00     0.00     0.00    0.00    0.00    0.00   0.00   0.00
sdh               0.00     0.00    0.00    0.00     0.00     0.00     0.00     0.00    0.00    0.00    0.00   0.00   0.00
md0               0.00     0.00 8688.00    0.00 34880.00     0.00     8.03     0.00    0.00    0.00    0.00   0.00   0.00

avg-cpu:  %user   %nice %system %iowait  %steal   %idle
           0.00    0.00    1.79    1.28    0.00   96.93

Device:         rrqm/s   wrqm/s     r/s     w/s    rkB/s    wkB/s avgrq-sz avgqu-sz   await r_await w_await  svctm  %util
sda               0.00     0.00 1457.00    0.00  5836.00     0.00     8.01     0.15    0.10    0.10    0.00   0.10  15.20
sdb               0.00     0.00 1408.00    0.00  5644.00     0.00     8.02     0.16    0.11    0.11    0.00   0.11  15.90
sdc               0.00     0.00 1339.00    0.00  5364.00     0.00     8.01     0.17    0.13    0.13    0.00   0.13  16.80
sdd               0.00     0.00 1372.00    0.00  5508.00     0.00     8.03     0.16    0.11    0.11    0.00   0.12  15.80
sde               0.00     0.00 1477.00    0.00  5916.00     0.00     8.01     0.16    0.11    0.11    0.00   0.11  16.00
sdf               0.00     0.00 1399.00    0.00  5596.00     0.00     8.00     0.15    0.11    0.11    0.00   0.11  14.70
sdg               0.00     0.00    0.00    0.00     0.00     0.00     0.00     0.00    0.00    0.00    0.00   0.00   0.00
sdh               0.00     0.00    0.00    0.00     0.00     0.00     0.00     0.00    0.00    0.00    0.00   0.00   0.00
md0               0.00     0.00 8452.00    0.00 33864.00     0.00     8.01     0.00    0.00    0.00    0.00   0.00   0.00

avg-cpu:  %user   %nice %system %iowait  %steal   %idle
           0.00    0.26    2.30    1.02    0.00   96.43

Device:         rrqm/s   wrqm/s     r/s     w/s    rkB/s    wkB/s avgrq-sz avgqu-sz   await r_await w_await  svctm  %util
sda               0.00     0.00 1388.00    0.00  5576.00     0.00     8.03     0.13    0.10    0.10    0.00   0.10  13.30
sdb               0.00     0.00 1360.00    0.00  5464.00     0.00     8.04     0.16    0.11    0.11    0.00   0.11  15.60
sdc               0.00     0.00 1435.00    0.00  5788.00     0.00     8.07     0.14    0.10    0.10    0.00   0.10  14.50
sdd               0.00     0.00 1488.00    0.00  5964.00     0.00     8.02     0.17    0.11    0.11    0.00   0.11  16.60
sde               0.00     0.00 1347.00    0.00  5404.00     0.00     8.02     0.17    0.13    0.13    0.00   0.13  17.10
sdf               0.00     0.00 1439.00    0.00  5772.00     0.00     8.02     0.16    0.11    0.11    0.00   0.11  16.10
sdg               0.00     0.00    4.00    0.00    16.00     0.00     8.00     0.00    0.50    0.50    0.00   0.50   0.20
sdh               0.00     0.00    0.00    0.00     0.00     0.00     0.00     0.00    0.00    0.00    0.00   0.00   0.00
md0               0.00     0.00 8457.00    0.00 33984.00     0.00     8.04     0.00    0.00    0.00    0.00   0.00   0.00

avg-cpu:  %user   %nice %system %iowait  %steal   %idle
           0.00    0.00    2.29    1.02    0.00   96.69

Device:         rrqm/s   wrqm/s     r/s     w/s    rkB/s    wkB/s avgrq-sz avgqu-sz   await r_await w_await  svctm  %util
sda               0.00     0.00 1407.00    0.00  5628.00     0.00     8.00     0.17    0.12    0.12    0.00   0.12  16.80
sdb               0.00     0.00 1430.00    0.00  5740.00     0.00     8.03     0.14    0.10    0.10    0.00   0.10  13.90
sdc               0.00     0.00 1426.00    0.00  5740.00     0.00     8.05     0.17    0.12    0.12    0.00   0.12  16.50
sdd               0.00     0.00 1425.00    0.00  5732.00     0.00     8.04     0.15    0.11    0.11    0.00   0.11  15.50
sde               0.00     0.00 1369.00    0.00  5528.00     0.00     8.08     0.14    0.10    0.10    0.00   0.10  13.90
sdf               0.00     0.00 1403.00    0.00  5644.00     0.00     8.05     0.16    0.11    0.11    0.00   0.11  15.80
sdg               0.00     0.00    0.00    0.00     0.00     0.00     0.00     0.00    0.00    0.00    0.00   0.00   0.00
sdh               0.00     0.00    0.00    0.00     0.00     0.00     0.00     0.00    0.00    0.00    0.00   0.00   0.00
md0               0.00     0.00 8460.00    0.00 34012.00     0.00     8.04     0.00    0.00    0.00    0.00   0.00   0.00

