Linux 4.17.2 (bench) 	08/03/2018 	_x86_64_	(4 CPU)

avg-cpu:  %user   %nice %system %iowait  %steal   %idle
          10.29    0.02    3.99    2.43    0.00   83.27

Device:         rrqm/s   wrqm/s     r/s     w/s    rkB/s    wkB/s avgrq-sz avgqu-sz   await r_await w_await  svctm  %util
sda              40.29     4.28 1604.12  103.61 20658.54  3161.88    27.90     1.03    0.60    0.26    5.91   0.06  10.50
sdb              40.18     4.24 1604.01  103.75 20647.92  3158.51    27.88     1.02    0.60    0.26    5.85   0.06  10.38
sdc              78.36     4.30 1563.75  103.30 20640.16  3161.00    28.55     1.44    0.87    0.45    7.12   0.08  13.81
sdd              71.69     4.27 1569.57  103.37 20624.79  3157.15    28.43     1.45    0.87    0.44    7.32   0.08  13.90
sde              73.77     4.31 1574.72  103.47 20685.51  3161.44    28.42     1.47    0.88    0.45    7.43   0.08  13.93
sdf              70.85     4.28 1576.89  103.41 20666.47  3158.27    28.36     1.52    0.90    0.44    7.90   0.08  13.96
sdg               0.00     3.18   25.90   73.35   322.37   392.01    14.39     0.44    4.44    0.20    5.93   0.08   0.77
sdh               0.00     0.13    0.02    0.24     2.23     5.12    56.82     0.00    1.15    0.65    1.19   0.21   0.01
md0               0.00     0.00 9874.41  485.40 141451.26 21650.10    31.49     0.00    0.00    0.00    0.00   0.00   0.00

avg-cpu:  %user   %nice %system %iowait  %steal   %idle
           0.25    0.00    2.53    0.00    0.00   97.22

Device:         rrqm/s   wrqm/s     r/s     w/s    rkB/s    wkB/s avgrq-sz avgqu-sz   await r_await w_await  svctm  %util
sda               0.00     0.00 1530.00    0.00  6120.00     0.00     8.00     0.15    0.10    0.10    0.00   0.10  15.40
sdb               0.00     0.00 1605.00    0.00  6420.00     0.00     8.00     0.15    0.10    0.10    0.00   0.10  15.40
sdc               0.00     0.00 1425.00    0.00  5700.00     0.00     8.00     0.15    0.11    0.11    0.00   0.11  15.10
sdd               0.00     0.00 1517.00    0.00  6068.00     0.00     8.00     0.16    0.11    0.11    0.00   0.10  15.80
sde               0.00     0.00 1456.00    0.00  5824.00     0.00     8.00     0.15    0.10    0.10    0.00   0.10  14.80
sdf               0.00     0.00 1524.00    0.00  6096.00     0.00     8.00     0.17    0.11    0.11    0.00   0.11  16.80
sdg               0.00     0.00    4.00   12.00    80.00   160.00    30.00     0.00    0.25    0.25    0.25   0.12   0.20
sdh               0.00     0.00    0.00    0.00     0.00     0.00     0.00     0.00    0.00    0.00    0.00   0.00   0.00
md0               0.00     0.00 9058.00    0.00 36232.00     0.00     8.00     0.00    0.00    0.00    0.00   0.00   0.00

avg-cpu:  %user   %nice %system %iowait  %steal   %idle
           0.25    0.00    2.04    0.00    0.00   97.71

Device:         rrqm/s   wrqm/s     r/s     w/s    rkB/s    wkB/s avgrq-sz avgqu-sz   await r_await w_await  svctm  %util
sda               0.00     0.00 1450.00    0.00  5800.00     0.00     8.00     0.14    0.10    0.10    0.00   0.10  14.30
sdb               0.00     0.00 1428.00    0.00  5712.00     0.00     8.00     0.14    0.10    0.10    0.00   0.10  14.40
sdc               0.00     0.00 1524.00    0.00  6096.00     0.00     8.00     0.15    0.10    0.10    0.00   0.10  15.00
sdd               0.00     0.00 1502.00    0.00  6008.00     0.00     8.00     0.15    0.10    0.10    0.00   0.10  15.40
sde               0.00     0.00 1609.00    0.00  6436.00     0.00     8.00     0.16    0.10    0.10    0.00   0.10  16.10
sdf               0.00     0.00 1467.00    0.00  5868.00     0.00     8.00     0.15    0.10    0.10    0.00   0.10  15.10
sdg               0.00     0.00    0.00    0.00     0.00     0.00     0.00     0.00    0.00    0.00    0.00   0.00   0.00
sdh               0.00     0.00    0.00    0.00     0.00     0.00     0.00     0.00    0.00    0.00    0.00   0.00   0.00
md0               0.00     0.00 8981.00    0.00 35924.00     0.00     8.00     0.00    0.00    0.00    0.00   0.00   0.00

avg-cpu:  %user   %nice %system %iowait  %steal   %idle
           0.00    0.00    1.79    0.00    0.00   98.21

Device:         rrqm/s   wrqm/s     r/s     w/s    rkB/s    wkB/s avgrq-sz avgqu-sz   await r_await w_await  svctm  %util
sda               0.00     0.00 1491.00    0.00  5964.00     0.00     8.00     0.15    0.10    0.10    0.00   0.10  14.70
sdb               0.00     0.00 1566.00    0.00  6264.00     0.00     8.00     0.16    0.10    0.10    0.00   0.10  15.60
sdc               0.00     0.00 1427.00    0.00  5708.00     0.00     8.00     0.14    0.10    0.10    0.00   0.10  14.40
sdd               0.00     0.00 1457.00    0.00  5828.00     0.00     8.00     0.15    0.11    0.11    0.00   0.11  15.50
sde               0.00     0.00 1536.00    0.00  6144.00     0.00     8.00     0.16    0.10    0.10    0.00   0.10  16.00
sdf               0.00     0.00 1553.00    0.00  6212.00     0.00     8.00     0.17    0.11    0.11    0.00   0.11  16.80
sdg               0.00     0.00    0.00    0.00     0.00     0.00     0.00     0.00    0.00    0.00    0.00   0.00   0.00
sdh               0.00     0.00    0.00    0.00     0.00     0.00     0.00     0.00    0.00    0.00    0.00   0.00   0.00
md0               0.00     0.00 9030.00    0.00 36120.00     0.00     8.00     0.00    0.00    0.00    0.00   0.00   0.00

avg-cpu:  %user   %nice %system %iowait  %steal   %idle
           0.26    0.00    1.28    0.00    0.00   98.46

Device:         rrqm/s   wrqm/s     r/s     w/s    rkB/s    wkB/s avgrq-sz avgqu-sz   await r_await w_await  svctm  %util
sda               0.00     0.00 1517.00    0.00  6068.00     0.00     8.00     0.15    0.10    0.10    0.00   0.10  14.80
sdb               0.00     0.00 1620.00    0.00  6480.00     0.00     8.00     0.15    0.10    0.10    0.00   0.10  15.40
sdc               0.00     0.00 1474.00    0.00  5896.00     0.00     8.00     0.16    0.11    0.11    0.00   0.11  16.30
sdd               0.00     0.00 1461.00    0.00  5844.00     0.00     8.00     0.15    0.10    0.10    0.00   0.10  14.60
sde               0.00     0.00 1531.00    0.00  6124.00     0.00     8.00     0.17    0.11    0.11    0.00   0.11  17.00
sdf               0.00     0.00 1445.00    0.00  5780.00     0.00     8.00     0.15    0.11    0.11    0.00   0.11  15.20
sdg               0.00     0.00    0.00    0.00     0.00     0.00     0.00     0.00    0.00    0.00    0.00   0.00   0.00
sdh               0.00     0.00    0.00    0.00     0.00     0.00     0.00     0.00    0.00    0.00    0.00   0.00   0.00
md0               0.00     0.00 9048.00    0.00 36192.00     0.00     8.00     0.00    0.00    0.00    0.00   0.00   0.00

avg-cpu:  %user   %nice %system %iowait  %steal   %idle
           0.00    0.00    2.04    0.00    0.00   97.96

Device:         rrqm/s   wrqm/s     r/s     w/s    rkB/s    wkB/s avgrq-sz avgqu-sz   await r_await w_await  svctm  %util
sda               0.00     0.00 1468.00    0.00  5872.00     0.00     8.00     0.14    0.09    0.09    0.00   0.09  13.70
sdb               0.00     0.00 1461.00    0.00  5844.00     0.00     8.00     0.14    0.10    0.10    0.00   0.10  14.10
sdc               0.00     0.00 1576.00    0.00  6304.00     0.00     8.00     0.17    0.11    0.11    0.00   0.11  16.90
sdd               0.00     0.00 1584.00    0.00  6336.00     0.00     8.00     0.17    0.11    0.11    0.00   0.11  16.70
sde               0.00     0.00 1469.00    0.00  5876.00     0.00     8.00     0.15    0.10    0.10    0.00   0.10  15.00
sdf               0.00     0.00 1464.00    0.00  5856.00     0.00     8.00     0.16    0.11    0.11    0.00   0.11  16.00
sdg               0.00     0.00    0.00    0.00     0.00     0.00     0.00     0.00    0.00    0.00    0.00   0.00   0.00
sdh               0.00     0.00    0.00    0.00     0.00     0.00     0.00     0.00    0.00    0.00    0.00   0.00   0.00
md0               0.00     0.00 9021.00    0.00 36084.00     0.00     8.00     0.00    0.00    0.00    0.00   0.00   0.00

avg-cpu:  %user   %nice %system %iowait  %steal   %idle
           0.25    0.00    2.03    0.00    0.00   97.72

Device:         rrqm/s   wrqm/s     r/s     w/s    rkB/s    wkB/s avgrq-sz avgqu-sz   await r_await w_await  svctm  %util
sda               0.00     0.00 1526.00    0.00  6104.00     0.00     8.00     0.15    0.10    0.10    0.00   0.10  14.70
sdb               0.00     0.00 1474.00    0.00  5896.00     0.00     8.00     0.15    0.10    0.10    0.00   0.10  14.80
sdc               0.00     0.00 1503.00    0.00  6012.00     0.00     8.00     0.16    0.11    0.11    0.00   0.11  15.90
sdd               0.00     0.00 1531.00    0.00  6124.00     0.00     8.00     0.16    0.11    0.11    0.00   0.11  16.30
sde               0.00     0.00 1489.00    0.00  5956.00     0.00     8.00     0.16    0.11    0.11    0.00   0.11  15.90
sdf               0.00     0.00 1512.00    0.00  6048.00     0.00     8.00     0.16    0.10    0.10    0.00   0.10  15.70
sdg               0.00     0.00    0.00    0.00     0.00     0.00     0.00     0.00    0.00    0.00    0.00   0.00   0.00
sdh               0.00     0.00    0.00    0.00     0.00     0.00     0.00     0.00    0.00    0.00    0.00   0.00   0.00
md0               0.00     0.00 9035.00    0.00 36140.00     0.00     8.00     0.00    0.00    0.00    0.00   0.00   0.00

avg-cpu:  %user   %nice %system %iowait  %steal   %idle
           0.00    0.00    1.29    0.00    0.00   98.71

Device:         rrqm/s   wrqm/s     r/s     w/s    rkB/s    wkB/s avgrq-sz avgqu-sz   await r_await w_await  svctm  %util
sda               0.00     0.00 1501.00    0.00  6004.00     0.00     8.00     0.15    0.10    0.10    0.00   0.10  14.60
sdb               0.00     0.00 1600.00    0.00  6400.00     0.00     8.00     0.16    0.10    0.10    0.00   0.10  16.00
sdc               0.00     0.00 1510.00    0.00  6040.00     0.00     8.00     0.16    0.10    0.10    0.00   0.10  15.70
sdd               0.00     0.00 1429.00    0.00  5716.00     0.00     8.00     0.15    0.11    0.11    0.00   0.11  15.20
sde               0.00     0.00 1499.00    0.00  5996.00     0.00     8.00     0.15    0.10    0.10    0.00   0.10  15.10
sdf               0.00     0.00 1520.00    0.00  6080.00     0.00     8.00     0.17    0.11    0.11    0.00   0.11  17.40
sdg               0.00     0.00    0.00    0.00     0.00     0.00     0.00     0.00    0.00    0.00    0.00   0.00   0.00
sdh               0.00     0.00    0.00    0.00     0.00     0.00     0.00     0.00    0.00    0.00    0.00   0.00   0.00
md0               0.00     0.00 9060.00    0.00 36240.00     0.00     8.00     0.00    0.00    0.00    0.00   0.00   0.00

avg-cpu:  %user   %nice %system %iowait  %steal   %idle
           0.26    0.00    1.79    0.00    0.00   97.96

Device:         rrqm/s   wrqm/s     r/s     w/s    rkB/s    wkB/s avgrq-sz avgqu-sz   await r_await w_await  svctm  %util
sda               0.00     0.00 1576.00    0.00  6304.00     0.00     8.00     0.15    0.09    0.09    0.00   0.09  14.80
sdb               0.00     0.00 1536.00    0.00  6144.00     0.00     8.00     0.15    0.10    0.10    0.00   0.10  15.00
sdc               0.00     0.00 1478.00    0.00  5912.00     0.00     8.00     0.16    0.11    0.11    0.00   0.11  15.90
sdd               0.00     0.00 1498.00    0.00  5992.00     0.00     8.00     0.16    0.11    0.11    0.00   0.11  15.80
sde               0.00     0.00 1496.00    0.00  5984.00     0.00     8.00     0.16    0.10    0.10    0.00   0.10  15.70
sdf               0.00     0.00 1481.00    0.00  5924.00     0.00     8.00     0.15    0.10    0.10    0.00   0.10  15.40
sdg               0.00     0.00    0.00    0.00     0.00     0.00     0.00     0.00    0.00    0.00    0.00   0.00   0.00
sdh               0.00     0.00    0.00    0.00     0.00     0.00     0.00     0.00    0.00    0.00    0.00   0.00   0.00
md0               0.00     0.00 9064.00    0.00 36256.00     0.00     8.00     0.00    0.00    0.00    0.00   0.00   0.00

avg-cpu:  %user   %nice %system %iowait  %steal   %idle
           0.00    0.00    2.04    0.00    0.00   97.96

Device:         rrqm/s   wrqm/s     r/s     w/s    rkB/s    wkB/s avgrq-sz avgqu-sz   await r_await w_await  svctm  %util
sda               0.00     0.00 1375.00    0.00  5500.00     0.00     8.00     0.14    0.10    0.10    0.00   0.10  14.10
sdb               0.00     0.00 1507.00    0.00  6028.00     0.00     8.00     0.14    0.09    0.09    0.00   0.09  14.30
sdc               0.00     0.00 1519.00    0.00  6076.00     0.00     8.00     0.16    0.11    0.11    0.00   0.11  16.00
sdd               0.00     0.00 1620.00    0.00  6480.00     0.00     8.00     0.17    0.11    0.11    0.00   0.11  17.30
sde               0.00     0.00 1529.00    0.00  6116.00     0.00     8.00     0.16    0.11    0.11    0.00   0.11  16.20
sdf               0.00     0.00 1540.00    0.00  6160.00     0.00     8.00     0.16    0.10    0.10    0.00   0.10  15.90
sdg               0.00     1.00    6.00    1.00    24.00    20.00    12.57     0.00    0.43    0.50    0.00   0.43   0.30
sdh               0.00     0.00    0.00    0.00     0.00     0.00     0.00     0.00    0.00    0.00    0.00   0.00   0.00
md0               0.00     0.00 9090.00    0.00 36360.00     0.00     8.00     0.00    0.00    0.00    0.00   0.00   0.00

avg-cpu:  %user   %nice %system %iowait  %steal   %idle
           0.26    0.26    1.79    0.00    0.00   97.70

Device:         rrqm/s   wrqm/s     r/s     w/s    rkB/s    wkB/s avgrq-sz avgqu-sz   await r_await w_await  svctm  %util
sda               0.00     0.00 1435.00    0.00  5740.00     0.00     8.00     0.14    0.10    0.10    0.00   0.10  14.40
sdb               0.00     0.00 1555.00    0.00  6220.00     0.00     8.00     0.15    0.10    0.10    0.00   0.10  15.30
sdc               0.00     0.00 1440.00    0.00  5760.00     0.00     8.00     0.15    0.11    0.11    0.00   0.11  15.40
sdd               0.00     0.00 1504.00    0.00  6016.00     0.00     8.00     0.16    0.11    0.11    0.00   0.11  16.10
sde               0.00     0.00 1519.00    0.00  6076.00     0.00     8.00     0.16    0.11    0.11    0.00   0.11  16.40
sdf               0.00     0.00 1484.00    0.00  5936.00     0.00     8.00     0.16    0.11    0.11    0.00   0.11  16.00
sdg               0.00     0.00   38.00    0.00   464.00     0.00    24.42     0.01    0.18    0.18    0.00   0.16   0.60
sdh               0.00     0.00    0.00    0.00     0.00     0.00     0.00     0.00    0.00    0.00    0.00   0.00   0.00
md0               0.00     0.00 8938.00    0.00 35752.00     0.00     8.00     0.00    0.00    0.00    0.00   0.00   0.00

avg-cpu:  %user   %nice %system %iowait  %steal   %idle
           0.26    0.00    1.79    0.00    0.00   97.96

Device:         rrqm/s   wrqm/s     r/s     w/s    rkB/s    wkB/s avgrq-sz avgqu-sz   await r_await w_await  svctm  %util
sda               0.00     0.00 1456.00    0.00  5824.00     0.00     8.00     0.14    0.10    0.10    0.00   0.10  14.40
sdb               0.00     0.00 1538.00    0.00  6152.00     0.00     8.00     0.15    0.10    0.10    0.00   0.10  14.70
sdc               0.00     0.00 1626.00    0.00  6504.00     0.00     8.00     0.17    0.10    0.10    0.00   0.10  16.80
sdd               0.00     0.00 1422.00    0.00  5688.00     0.00     8.00     0.15    0.10    0.10    0.00   0.10  14.80
sde               0.00     0.00 1523.00    0.00  6092.00     0.00     8.00     0.15    0.10    0.10    0.00   0.10  15.30
sdf               0.00     0.00 1519.00    0.00  6076.00     0.00     8.00     0.16    0.10    0.10    0.00   0.10  15.60
sdg               0.00     0.00    0.00    0.00     0.00     0.00     0.00     0.00    0.00    0.00    0.00   0.00   0.00
sdh               0.00     0.00    0.00    0.00     0.00     0.00     0.00     0.00    0.00    0.00    0.00   0.00   0.00
md0               0.00     0.00 9084.00    0.00 36336.00     0.00     8.00     0.00    0.00    0.00    0.00   0.00   0.00

avg-cpu:  %user   %nice %system %iowait  %steal   %idle
           0.00    0.00    1.53    0.00    0.00   98.47

Device:         rrqm/s   wrqm/s     r/s     w/s    rkB/s    wkB/s avgrq-sz avgqu-sz   await r_await w_await  svctm  %util
sda               0.00     0.00 1566.00    0.00  6264.00     0.00     8.00     0.16    0.10    0.10    0.00   0.10  15.90
sdb               0.00     0.00 1586.00    0.00  6344.00     0.00     8.00     0.16    0.10    0.10    0.00   0.10  15.60
sdc               0.00     0.00 1511.00    0.00  6044.00     0.00     8.00     0.16    0.11    0.11    0.00   0.11  16.00
sdd               0.00     0.00 1423.00    0.00  5692.00     0.00     8.00     0.15    0.11    0.11    0.00   0.11  15.40
sde               0.00     0.00 1487.00    0.00  5948.00     0.00     8.00     0.14    0.10    0.10    0.00   0.10  14.50
sdf               0.00     0.00 1481.00    0.00  5924.00     0.00     8.00     0.16    0.11    0.11    0.00   0.11  16.20
sdg               0.00     0.00    0.00    0.00     0.00     0.00     0.00     0.00    0.00    0.00    0.00   0.00   0.00
sdh               0.00     0.00    0.00    0.00     0.00     0.00     0.00     0.00    0.00    0.00    0.00   0.00   0.00
md0               0.00     0.00 9053.00    0.00 36212.00     0.00     8.00     0.00    0.00    0.00    0.00   0.00   0.00

avg-cpu:  %user   %nice %system %iowait  %steal   %idle
           0.26    0.00    1.53    0.00    0.00   98.21

Device:         rrqm/s   wrqm/s     r/s     w/s    rkB/s    wkB/s avgrq-sz avgqu-sz   await r_await w_await  svctm  %util
sda               0.00     0.00 1429.00    0.00  5716.00     0.00     8.00     0.14    0.10    0.10    0.00   0.10  13.90
sdb               0.00     0.00 1478.00    0.00  5912.00     0.00     8.00     0.15    0.10    0.10    0.00   0.10  14.70
sdc               0.00     0.00 1556.00    0.00  6224.00     0.00     8.00     0.17    0.11    0.11    0.00   0.11  16.80
sdd               0.00     0.00 1505.00    0.00  6020.00     0.00     8.00     0.16    0.11    0.11    0.00   0.11  16.20
sde               0.00     0.00 1510.00    0.00  6040.00     0.00     8.00     0.16    0.11    0.11    0.00   0.11  16.40
sdf               0.00     0.00 1566.00    0.00  6264.00     0.00     8.00     0.17    0.11    0.11    0.00   0.11  16.50
sdg               0.00     0.00    0.00    0.00     0.00     0.00     0.00     0.00    0.00    0.00    0.00   0.00   0.00
sdh               0.00     0.00    0.00    0.00     0.00     0.00     0.00     0.00    0.00    0.00    0.00   0.00   0.00
md0               0.00     0.00 9044.00    0.00 36176.00     0.00     8.00     0.00    0.00    0.00    0.00   0.00   0.00

avg-cpu:  %user   %nice %system %iowait  %steal   %idle
           0.26    0.00    1.53    0.00    0.00   98.21

Device:         rrqm/s   wrqm/s     r/s     w/s    rkB/s    wkB/s avgrq-sz avgqu-sz   await r_await w_await  svctm  %util
sda               0.00     0.00 1419.00    0.00  5676.00     0.00     8.00     0.14    0.10    0.10    0.00   0.10  14.50
sdb               0.00     0.00 1452.00    0.00  5808.00     0.00     8.00     0.15    0.10    0.10    0.00   0.10  15.00
sdc               0.00     0.00 1492.00    0.00  5968.00     0.00     8.00     0.15    0.10    0.10    0.00   0.10  15.20
sdd               0.00     0.00 1550.00    0.00  6200.00     0.00     8.00     0.17    0.11    0.11    0.00   0.11  16.60
sde               0.00     0.00 1525.00    0.00  6100.00     0.00     8.00     0.16    0.10    0.10    0.00   0.10  15.60
sdf               0.00     0.00 1564.00    0.00  6256.00     0.00     8.00     0.17    0.11    0.11    0.00   0.11  17.10
sdg               0.00     0.00    6.00    3.00    24.00    36.00    13.33     0.00    0.11    0.17    0.00   0.11   0.10
sdh               0.00     0.00    0.00    0.00     0.00     0.00     0.00     0.00    0.00    0.00    0.00   0.00   0.00
md0               0.00     0.00 9003.00    0.00 36012.00     0.00     8.00     0.00    0.00    0.00    0.00   0.00   0.00

avg-cpu:  %user   %nice %system %iowait  %steal   %idle
           0.00    0.00    1.54    0.00    0.00   98.46

Device:         rrqm/s   wrqm/s     r/s     w/s    rkB/s    wkB/s avgrq-sz avgqu-sz   await r_await w_await  svctm  %util
sda               0.00     0.00 1446.00    0.00  5784.00     0.00     8.00     0.14    0.10    0.10    0.00   0.10  13.90
sdb               0.00     0.00 1558.00    0.00  6232.00     0.00     8.00     0.15    0.10    0.10    0.00   0.10  15.30
sdc               0.00     0.00 1464.00    0.00  5856.00     0.00     8.00     0.15    0.11    0.11    0.00   0.11  15.40
sdd               0.00     0.00 1547.00    0.00  6188.00     0.00     8.00     0.17    0.11    0.11    0.00   0.11  16.60
sde               0.00     0.00 1504.00    0.00  6016.00     0.00     8.00     0.16    0.11    0.11    0.00   0.11  15.90
sdf               0.00     0.00 1516.00    0.00  6064.00     0.00     8.00     0.16    0.11    0.11    0.00   0.11  16.30
sdg               0.00     0.00    0.00    0.00     0.00     0.00     0.00     0.00    0.00    0.00    0.00   0.00   0.00
sdh               0.00     0.00    0.00    0.00     0.00     0.00     0.00     0.00    0.00    0.00    0.00   0.00   0.00
md0               0.00     0.00 9035.00    0.00 36140.00     0.00     8.00     0.00    0.00    0.00    0.00   0.00   0.00

avg-cpu:  %user   %nice %system %iowait  %steal   %idle
           0.26    0.00    1.53    0.00    0.00   98.21

Device:         rrqm/s   wrqm/s     r/s     w/s    rkB/s    wkB/s avgrq-sz avgqu-sz   await r_await w_await  svctm  %util
sda               0.00     0.00 1484.00    0.00  5936.00     0.00     8.00     0.15    0.10    0.10    0.00   0.10  15.00
sdb               0.00     0.00 1554.00    0.00  6216.00     0.00     8.00     0.15    0.09    0.09    0.00   0.09  14.60
sdc               0.00     0.00 1564.00    0.00  6256.00     0.00     8.00     0.16    0.10    0.10    0.00   0.10  16.20
sdd               0.00     0.00 1407.00    0.00  5628.00     0.00     8.00     0.15    0.11    0.11    0.00   0.11  15.20
sde               0.00     0.00 1578.00    0.00  6312.00     0.00     8.00     0.17    0.11    0.11    0.00   0.11  17.10
sdf               0.00     0.00 1476.00    0.00  5904.00     0.00     8.00     0.16    0.11    0.11    0.00   0.11  15.80
sdg               0.00     0.00    0.00    0.00     0.00     0.00     0.00     0.00    0.00    0.00    0.00   0.00   0.00
sdh               0.00     0.00    0.00    0.00     0.00     0.00     0.00     0.00    0.00    0.00    0.00   0.00   0.00
md0               0.00     0.00 9063.00    0.00 36252.00     0.00     8.00     0.00    0.00    0.00    0.00   0.00   0.00

avg-cpu:  %user   %nice %system %iowait  %steal   %idle
           0.26    0.00    1.53    0.00    0.00   98.21

Device:         rrqm/s   wrqm/s     r/s     w/s    rkB/s    wkB/s avgrq-sz avgqu-sz   await r_await w_await  svctm  %util
sda               0.00     0.00 1494.00    0.00  5976.00     0.00     8.00     0.15    0.10    0.10    0.00   0.10  14.70
sdb               0.00     0.00 1527.00    0.00  6108.00     0.00     8.00     0.15    0.10    0.10    0.00   0.10  15.20
sdc               0.00     0.00 1441.00    0.00  5764.00     0.00     8.00     0.15    0.10    0.10    0.00   0.10  15.10
sdd               0.00     0.00 1551.00    0.00  6204.00     0.00     8.00     0.16    0.10    0.10    0.00   0.10  15.70
sde               0.00     0.00 1473.00    0.00  5892.00     0.00     8.00     0.16    0.11    0.11    0.00   0.11  15.70
sdf               0.00     0.00 1587.00    0.00  6348.00     0.00     8.00     0.17    0.11    0.11    0.00   0.11  16.80
sdg               0.00     0.00    0.00    0.00     0.00     0.00     0.00     0.00    0.00    0.00    0.00   0.00   0.00
sdh               0.00     0.00    0.00    0.00     0.00     0.00     0.00     0.00    0.00    0.00    0.00   0.00   0.00
md0               0.00     0.00 9072.00    0.00 36288.00     0.00     8.00     0.00    0.00    0.00    0.00   0.00   0.00

avg-cpu:  %user   %nice %system %iowait  %steal   %idle
           0.00    0.00    2.53    0.00    0.00   97.47

Device:         rrqm/s   wrqm/s     r/s     w/s    rkB/s    wkB/s avgrq-sz avgqu-sz   await r_await w_await  svctm  %util
sda               0.00     0.00 1535.00    0.00  6140.00     0.00     8.00     0.15    0.10    0.10    0.00   0.10  15.50
sdb               0.00     0.00 1393.00    0.00  5572.00     0.00     8.00     0.14    0.10    0.10    0.00   0.10  13.60
sdc               0.00     0.00 1560.00    0.00  6240.00     0.00     8.00     0.17    0.11    0.11    0.00   0.11  16.50
sdd               0.00     0.00 1486.00    0.00  5944.00     0.00     8.00     0.16    0.11    0.11    0.00   0.11  15.70
sde               0.00     0.00 1552.00    0.00  6208.00     0.00     8.00     0.16    0.10    0.10    0.00   0.10  16.10
sdf               0.00     0.00 1546.00    0.00  6184.00     0.00     8.00     0.17    0.11    0.11    0.00   0.11  16.80
sdg               0.00     0.00    0.00    0.00     0.00     0.00     0.00     0.00    0.00    0.00    0.00   0.00   0.00
sdh               0.00     0.00    0.00    0.00     0.00     0.00     0.00     0.00    0.00    0.00    0.00   0.00   0.00
md0               0.00     0.00 9073.00    0.00 36292.00     0.00     8.00     0.00    0.00    0.00    0.00   0.00   0.00

avg-cpu:  %user   %nice %system %iowait  %steal   %idle
           0.26    0.00    1.53    0.00    0.00   98.21

Device:         rrqm/s   wrqm/s     r/s     w/s    rkB/s    wkB/s avgrq-sz avgqu-sz   await r_await w_await  svctm  %util
sda               0.00     0.00 1444.00    0.00  5776.00     0.00     8.00     0.15    0.10    0.10    0.00   0.10  14.90
sdb               0.00     0.00 1533.00    0.00  6132.00     0.00     8.00     0.15    0.10    0.10    0.00   0.10  15.00
sdc               0.00     0.00 1455.00    0.00  5820.00     0.00     8.00     0.16    0.11    0.11    0.00   0.11  15.60
sdd               0.00     0.00 1518.00    0.00  6072.00     0.00     8.00     0.17    0.11    0.11    0.00   0.11  16.90
sde               0.00     0.00 1514.00    0.00  6056.00     0.00     8.00     0.16    0.11    0.11    0.00   0.11  16.10
sdf               0.00     0.00 1433.00    0.00  5732.00     0.00     8.00     0.15    0.11    0.11    0.00   0.11  15.20
sdg               0.00     0.00    0.00    0.00     0.00     0.00     0.00     0.00    0.00    0.00    0.00   0.00   0.00
sdh               0.00     0.00    0.00    0.00     0.00     0.00     0.00     0.00    0.00    0.00    0.00   0.00   0.00
md0               0.00     0.00 8897.00    0.00 35588.00     0.00     8.00     0.00    0.00    0.00    0.00   0.00   0.00

avg-cpu:  %user   %nice %system %iowait  %steal   %idle
           0.26    0.00    2.05    2.05    0.00   95.64

Device:         rrqm/s   wrqm/s     r/s     w/s    rkB/s    wkB/s avgrq-sz avgqu-sz   await r_await w_await  svctm  %util
sda               0.00     0.00 1444.00    0.00  5776.00     0.00     8.00     0.14    0.09    0.09    0.00   0.09  13.60
sdb               0.00     0.00 1511.00    0.00  6044.00     0.00     8.00     0.15    0.10    0.10    0.00   0.10  15.10
sdc               0.00     0.00 1597.00    0.00  6388.00     0.00     8.00     0.16    0.10    0.10    0.00   0.10  16.30
sdd               0.00     0.00 1611.00    0.00  6444.00     0.00     8.00     0.18    0.11    0.11    0.00   0.11  17.70
sde               0.00     0.00 1500.00    0.00  6000.00     0.00     8.00     0.16    0.11    0.11    0.00   0.11  16.40
sdf               0.00     0.00 1447.00    0.00  5788.00     0.00     8.00     0.15    0.10    0.10    0.00   0.10  14.80
sdg               0.00     0.00 1339.00    0.00  5356.00     0.00     8.00     0.16    0.12    0.12    0.00   0.12  16.30
sdh               0.00     0.00    0.00    0.00     0.00     0.00     0.00     0.00    0.00    0.00    0.00   0.00   0.00
md0               0.00     0.00 9109.00    0.00 36436.00     0.00     8.00     0.00    0.00    0.00    0.00   0.00   0.00

