Linux 4.17.2 (bench) 	08/03/2018 	_x86_64_	(4 CPU)

avg-cpu:  %user   %nice %system %iowait  %steal   %idle
          10.28    0.02    4.03    2.50    0.00   83.17

Device:         rrqm/s   wrqm/s     r/s     w/s    rkB/s    wkB/s avgrq-sz avgqu-sz   await r_await w_await  svctm  %util
sda              42.38     4.26 1630.40  103.09 20806.03  3145.78    27.63     1.03    0.59    0.26    5.91   0.06  10.62
sdb              42.27     4.22 1630.29  103.23 20795.40  3142.43    27.62     1.03    0.59    0.26    5.85   0.06  10.50
sdc              80.31     4.28 1590.16  102.77 20787.57  3144.90    28.27     1.45    0.86    0.45    7.12   0.08  13.94
sdd              73.68     4.25 1595.95  102.84 20772.35  3141.08    28.15     1.46    0.86    0.44    7.32   0.08  14.03
sde              75.74     4.29 1601.06  102.94 20832.63  3145.35    28.14     1.48    0.87    0.44    7.43   0.08  14.05
sdf              72.84     4.26 1603.23  102.89 20813.71  3142.20    28.08     1.52    0.89    0.44    7.90   0.08  14.09
sdg               0.00     3.18   26.08   73.33   323.11   392.00    14.39     0.44    4.43    0.20    5.93   0.08   0.78
sdh               0.00     0.13    0.02    0.24     2.22     5.09    56.82     0.00    1.15    0.65    1.19   0.21   0.01
md0               0.00     0.00 10044.76  482.93 142481.31 21539.87    31.16     0.00    0.00    0.00    0.00   0.00   0.00

avg-cpu:  %user   %nice %system %iowait  %steal   %idle
           1.00    0.00   14.29    0.50    0.00   84.21

Device:         rrqm/s   wrqm/s     r/s     w/s    rkB/s    wkB/s avgrq-sz avgqu-sz   await r_await w_await  svctm  %util
sda             170.00     0.00  220.00    0.00 86748.00     0.00   788.62     0.48    2.17    2.17    0.00   1.21  26.60
sdb             173.00     0.00  220.00    0.00 86612.00     0.00   787.38     0.49    2.22    2.22    0.00   1.21  26.60
sdc             167.00     0.00  248.00    0.00 86864.00     0.00   700.52     1.00    4.04    4.04    0.00   1.76  43.70
sdd             169.00     0.00  228.00    0.00 86948.00     0.00   762.70     0.93    4.08    4.08    0.00   1.87  42.60
sde             170.00     0.00  224.00    0.00 87612.00     0.00   782.25     0.95    4.23    4.23    0.00   1.97  44.10
sdf             171.00     0.00  230.00    0.00 87408.00     0.00   760.07     0.94    4.06    4.06    0.00   1.86  42.80
sdg               0.00     0.00   18.00    0.00   196.00     0.00    21.78     0.00    0.17    0.17    0.00   0.17   0.30
sdh               0.00     0.00    0.00    0.00     0.00     0.00     0.00     0.00    0.00    0.00    0.00   0.00   0.00
md0               0.00     0.00 2402.00    0.00 764776.00     0.00   636.78     0.00    0.00    0.00    0.00   0.00   0.00

avg-cpu:  %user   %nice %system %iowait  %steal   %idle
           0.50    0.00    7.81   16.37    0.00   75.31

Device:         rrqm/s   wrqm/s     r/s     w/s    rkB/s    wkB/s avgrq-sz avgqu-sz   await r_await w_await  svctm  %util
sda             325.00     0.00  362.00    0.00 169628.00     0.00   937.17     0.94    2.59    2.59    0.00   1.33  48.10
sdb             326.00     0.00  363.00    0.00 169416.00     0.00   933.42     0.98    2.68    2.68    0.00   1.35  49.10
sdc             325.00     0.00  383.00    0.00 168336.00     0.00   879.04     1.91    4.97    4.97    0.00   2.08  79.70
sdd             327.00     0.00  366.00    0.00 167952.00     0.00   917.77     1.92    5.22    5.22    0.00   2.19  80.00
sde             323.00     0.00  370.00    0.00 168032.00     0.00   908.28     1.91    5.14    5.14    0.00   2.23  82.40
sdf             330.00     0.00  364.00    0.00 168236.00     0.00   924.37     1.88    5.14    5.14    0.00   2.20  80.00
sdg               0.00     0.00    0.00    0.00     0.00     0.00     0.00     0.00    0.00    0.00    0.00   0.00   0.00
sdh               0.00     0.00    0.00    0.00     0.00     0.00     0.00     0.00    0.00    0.00    0.00   0.00   0.00
md0               0.00     0.00 4168.00    0.00 1494848.00     0.00   717.30     0.00    0.00    0.00    0.00   0.00   0.00

avg-cpu:  %user   %nice %system %iowait  %steal   %idle
           0.50    0.00    7.54   16.58    0.00   75.38

Device:         rrqm/s   wrqm/s     r/s     w/s    rkB/s    wkB/s avgrq-sz avgqu-sz   await r_await w_await  svctm  %util
sda             326.00     0.00  348.00    0.00 169288.00     0.00   972.92     0.88    2.55    2.55    0.00   1.38  48.10
sdb             326.00     0.00  361.00    0.00 169076.00     0.00   936.71     0.93    2.59    2.59    0.00   1.35  48.60
sdc             327.00     0.00  380.00    0.00 168016.00     0.00   884.29     1.85    4.87    4.87    0.00   2.10  79.70
sdd             330.00     0.00  351.00    0.00 169156.00     0.00   963.85     1.86    5.30    5.30    0.00   2.26  79.20
sde             328.00     0.00  380.00    0.00 168572.00     0.00   887.22     1.96    5.15    5.15    0.00   2.13  81.00
sdf             327.00     0.00  383.00    0.00 168836.00     0.00   881.65     1.94    5.07    5.07    0.00   2.10  80.30
sdg               0.00     0.00    0.00    0.00     0.00     0.00     0.00     0.00    0.00    0.00    0.00   0.00   0.00
sdh               0.00     0.00    0.00    0.00     0.00     0.00     0.00     0.00    0.00    0.00    0.00   0.00   0.00
md0               0.00     0.00 4159.00    0.00 1441212.00     0.00   693.06     0.00    0.00    0.00    0.00   0.00   0.00

avg-cpu:  %user   %nice %system %iowait  %steal   %idle
           0.51    0.00    7.07   16.67    0.00   75.76

Device:         rrqm/s   wrqm/s     r/s     w/s    rkB/s    wkB/s avgrq-sz avgqu-sz   await r_await w_await  svctm  %util
sda             307.00     0.00  359.00    0.00 163684.00     0.00   911.89     0.86    2.37    2.37    0.00   1.31  47.10
sdb             314.00     0.00  336.00    0.00 164140.00     0.00   977.02     0.87    2.57    2.57    0.00   1.41  47.50
sdc             309.00     0.00  345.00    0.00 164716.00     0.00   954.88     1.73    5.01    5.01    0.00   2.26  77.80
sdd             307.00     0.00  370.00    0.00 164424.00     0.00   888.78     1.79    4.85    4.85    0.00   2.11  78.10
sde             307.00     0.00  366.00    0.00 164576.00     0.00   899.32     1.81    4.95    4.95    0.00   2.18  79.70
sdf             314.00     0.00  350.00    0.00 164660.00     0.00   940.91     1.74    4.97    4.97    0.00   2.24  78.50
sdg               0.00     0.00    0.00    0.00     0.00     0.00     0.00     0.00    0.00    0.00    0.00   0.00   0.00
sdh               0.00     0.00    0.00    0.00     0.00     0.00     0.00     0.00    0.00    0.00    0.00   0.00   0.00
md0               0.00     0.00 3993.00    0.00 1489520.00     0.00   746.07     0.00    0.00    0.00    0.00   0.00   0.00

avg-cpu:  %user   %nice %system %iowait  %steal   %idle
           0.51    0.00    7.58   16.16    0.00   75.76

Device:         rrqm/s   wrqm/s     r/s     w/s    rkB/s    wkB/s avgrq-sz avgqu-sz   await r_await w_await  svctm  %util
sda             334.00     0.00  372.00    0.00 173596.00     0.00   933.31     0.94    2.55    2.55    0.00   1.36  50.60
sdb             332.00     0.00  361.00    0.00 173740.00     0.00   962.55     0.96    2.68    2.68    0.00   1.43  51.50
sdc             329.00     0.00  364.00    0.00 172900.00     0.00   950.00     1.97    5.39    5.39    0.00   2.26  82.40
sdd             334.00     0.00  361.00    0.00 172596.00     0.00   956.21     1.97    5.45    5.45    0.00   2.26  81.70
sde             333.00     0.00  355.00    0.00 172896.00     0.00   974.06     2.04    5.74    5.74    0.00   2.37  84.20
sdf             332.00     0.00  383.00    0.00 172424.00     0.00   900.39     2.08    5.41    5.41    0.00   2.15  82.20
sdg               0.00     0.00    0.00    0.00     0.00     0.00     0.00     0.00    0.00    0.00    0.00   0.00   0.00
sdh               0.00     0.00    0.00    0.00     0.00     0.00     0.00     0.00    0.00    0.00    0.00   0.00   0.00
md0               0.00     0.00 4193.00    0.00 1498784.00     0.00   714.90     0.00    0.00    0.00    0.00   0.00   0.00

avg-cpu:  %user   %nice %system %iowait  %steal   %idle
           0.25    0.00    7.81   16.37    0.00   75.57

Device:         rrqm/s   wrqm/s     r/s     w/s    rkB/s    wkB/s avgrq-sz avgqu-sz   await r_await w_await  svctm  %util
sda             327.00     0.00  374.00    0.00 171136.00     0.00   915.17     0.92    2.47    2.47    0.00   1.28  47.90
sdb             333.00     0.00  370.00    0.00 171220.00     0.00   925.51     0.93    2.50    2.50    0.00   1.32  48.90
sdc             329.00     0.00  366.00    0.00 171736.00     0.00   938.45     1.93    5.29    5.29    0.00   2.20  80.60
sdd             334.00     0.00  368.00    0.00 172252.00     0.00   936.15     1.90    5.18    5.18    0.00   2.20  81.00
sde             330.00     0.00  376.00    0.00 171668.00     0.00   913.13     1.99    5.30    5.30    0.00   2.22  83.50
sdf             327.00     0.00  361.00    0.00 171552.00     0.00   950.43     1.86    5.16    5.16    0.00   2.24  80.80
sdg               0.00     0.00    1.00    7.00    16.00   148.00    41.00     0.01    0.75    0.00    0.86   0.12   0.10
sdh               0.00     0.00    0.00    0.00     0.00     0.00     0.00     0.00    0.00    0.00    0.00   0.00   0.00
md0               0.00     0.00 4195.00    0.00 1507584.00     0.00   718.75     0.00    0.00    0.00    0.00   0.00   0.00

avg-cpu:  %user   %nice %system %iowait  %steal   %idle
           0.25    0.00    9.85   16.16    0.00   73.74

Device:         rrqm/s   wrqm/s     r/s     w/s    rkB/s    wkB/s avgrq-sz avgqu-sz   await r_await w_await  svctm  %util
sda             328.00     0.00  375.00    0.00 169284.00     0.00   902.85     0.89    2.38    2.38    0.00   1.29  48.20
sdb             331.00     0.00  371.00    0.00 169556.00     0.00   914.05     0.91    2.46    2.46    0.00   1.33  49.40
sdc             324.00     0.00  367.00    0.00 169924.00     0.00   926.02     1.91    5.22    5.22    0.00   2.19  80.30
sdd             323.00     0.00  366.00    0.00 170180.00     0.00   929.95     1.90    5.23    5.23    0.00   2.21  80.90
sde             326.00     0.00  370.00    0.00 170268.00     0.00   920.37     1.98    5.37    5.37    0.00   2.24  83.00
sdf             326.00     0.00  375.00    0.00 170156.00     0.00   907.50     1.95    5.23    5.23    0.00   2.16  80.90
sdg               0.00    25.00   10.00 1440.00    40.00  7476.00    10.37     8.71    6.00    1.30    6.04   0.05   7.10
sdh               0.00     0.00    0.00    0.00     0.00     0.00     0.00     0.00    0.00    0.00    0.00   0.00   0.00
md0               0.00     0.00 4162.00    0.00 1632856.00     0.00   784.65     0.00    0.00    0.00    0.00   0.00   0.00

avg-cpu:  %user   %nice %system %iowait  %steal   %idle
           0.51    0.00    9.85   15.66    0.00   73.99

Device:         rrqm/s   wrqm/s     r/s     w/s    rkB/s    wkB/s avgrq-sz avgqu-sz   await r_await w_await  svctm  %util
sda             336.00     0.00  382.00    0.00 174300.00     0.00   912.57     0.96    2.52    2.52    0.00   1.30  49.50
sdb             338.00     0.00  358.00    0.00 174316.00     0.00   973.83     0.97    2.72    2.72    0.00   1.43  51.20
sdc             339.00     0.00  384.00    0.00 174020.00     0.00   906.35     1.97    5.14    5.14    0.00   2.16  83.00
sdd             335.00     0.00  383.00    0.00 173976.00     0.00   908.49     1.95    5.09    5.09    0.00   2.16  82.90
sde             336.00     0.00  360.00    0.00 174328.00     0.00   968.49     2.04    5.67    5.67    0.00   2.36  85.00
sdf             338.00     0.00  372.00    0.00 173896.00     0.00   934.92     2.00    5.37    5.37    0.00   2.21  82.30
sdg               0.00     0.00    1.00    0.00     4.00     0.00     8.00     0.00    1.00    1.00    0.00   1.00   0.10
sdh               0.00     0.00    0.00    0.00     0.00     0.00     0.00     0.00    0.00    0.00    0.00   0.00   0.00
md0               0.00     0.00 4261.00    0.00 1514892.00     0.00   711.05     0.00    0.00    0.00    0.00   0.00   0.00

avg-cpu:  %user   %nice %system %iowait  %steal   %idle
           0.50    0.00   10.30   15.58    0.00   73.62

Device:         rrqm/s   wrqm/s     r/s     w/s    rkB/s    wkB/s avgrq-sz avgqu-sz   await r_await w_await  svctm  %util
sda             343.00     0.00  367.00    0.00 175304.00     0.00   955.34     0.93    2.55    2.55    0.00   1.35  49.60
sdb             337.00     0.00  375.00    0.00 175220.00     0.00   934.51     0.99    2.65    2.65    0.00   1.37  51.30
sdc             344.00     0.00  371.00    0.00 173804.00     0.00   936.95     1.96    5.25    5.25    0.00   2.21  82.10
sdd             340.00     0.00  355.00    0.00 173948.00     0.00   979.99     1.94    5.44    5.44    0.00   2.31  81.90
sde             339.00     0.00  367.00    0.00 173788.00     0.00   947.07     2.07    5.61    5.61    0.00   2.31  84.60
sdf             344.00     0.00  377.00    0.00 174676.00     0.00   926.66     1.99    5.27    5.27    0.00   2.19  82.60
sdg               0.00     0.00    0.00    0.00     0.00     0.00     0.00     0.00    0.00    0.00    0.00   0.00   0.00
sdh               0.00     0.00    0.00    0.00     0.00     0.00     0.00     0.00    0.00    0.00    0.00   0.00   0.00
md0               0.00     0.00 4266.00    0.00 1461016.00     0.00   684.96     0.00    0.00    0.00    0.00   0.00   0.00

avg-cpu:  %user   %nice %system %iowait  %steal   %idle
           0.50    0.00   10.08   15.62    0.00   73.80

Device:         rrqm/s   wrqm/s     r/s     w/s    rkB/s    wkB/s avgrq-sz avgqu-sz   await r_await w_await  svctm  %util
sda             337.00     0.00  366.00    0.00 172824.00     0.00   944.39     0.91    2.48    2.48    0.00   1.31  47.80
sdb             334.00     0.00  397.00    0.00 172572.00     0.00   869.38     0.96    2.42    2.42    0.00   1.27  50.30
sdc             338.00     0.00  359.00    0.00 173100.00     0.00   964.35     1.95    5.43    5.43    0.00   2.27  81.60
sdd             336.00     0.00  362.00    0.00 173164.00     0.00   956.71     1.94    5.36    5.36    0.00   2.26  81.90
sde             336.00     0.00  369.00    0.00 173708.00     0.00   941.51     2.03    5.50    5.50    0.00   2.28  84.30
sdf             340.00     0.00  363.00    0.00 173304.00     0.00   954.84     1.92    5.29    5.29    0.00   2.25  81.70
sdg               0.00     0.00    0.00    0.00     0.00     0.00     0.00     0.00    0.00    0.00    0.00   0.00   0.00
sdh               0.00     0.00    0.00    0.00     0.00     0.00     0.00     0.00    0.00    0.00    0.00   0.00   0.00
md0               0.00     0.00 4244.00    0.00 1604504.00     0.00   756.13     0.00    0.00    0.00    0.00   0.00   0.00

avg-cpu:  %user   %nice %system %iowait  %steal   %idle
           0.51    0.25   10.89   16.20    0.00   72.15

Device:         rrqm/s   wrqm/s     r/s     w/s    rkB/s    wkB/s avgrq-sz avgqu-sz   await r_await w_await  svctm  %util
sda             327.00     0.00  351.00    0.00 169172.00     0.00   963.94     0.91    2.60    2.60    0.00   1.32  46.40
sdb             326.00     0.00  356.00    0.00 169016.00     0.00   949.53     0.98    2.75    2.75    0.00   1.37  48.60
sdc             325.00     0.00  375.00    0.00 169836.00     0.00   905.79     1.88    5.03    5.03    0.00   2.12  79.50
sdd             326.00     0.00  345.00    0.00 169848.00     0.00   984.63     1.89    5.52    5.52    0.00   2.32  80.00
sde             327.00     0.00  351.00    0.00 169356.00     0.00   964.99     1.99    5.70    5.70    0.00   2.37  83.10
sdf             326.00     0.00  377.00    0.00 169488.00     0.00   899.14     1.93    5.15    5.15    0.00   2.12  80.10
sdg               0.00     0.00 1850.00    0.00  7400.00     0.00     8.00     0.22    0.12    0.12    0.00   0.12  22.20
sdh               0.00     0.00    0.00    0.00     0.00     0.00     0.00     0.00    0.00    0.00    0.00   0.00   0.00
md0               0.00     0.00 4100.00    0.00 1413956.00     0.00   689.73     0.00    0.00    0.00    0.00   0.00   0.00

avg-cpu:  %user   %nice %system %iowait  %steal   %idle
           0.25    0.00   10.38   15.95    0.00   73.42

Device:         rrqm/s   wrqm/s     r/s     w/s    rkB/s    wkB/s avgrq-sz avgqu-sz   await r_await w_await  svctm  %util
sda             318.00     0.00  358.00    0.00 165812.00     0.00   926.32     0.86    2.41    2.41    0.00   1.35  48.30
sdb             320.00     0.00  368.00    0.00 165804.00     0.00   901.11     0.88    2.40    2.40    0.00   1.33  48.90
sdc             320.00     0.00  353.00    0.00 166168.00     0.00   941.46     1.79    5.07    5.07    0.00   2.24  79.20
sdd             318.00     0.00  369.00    0.00 166276.00     0.00   901.22     1.80    4.88    4.88    0.00   2.18  80.30
sde             321.00     0.00  354.00    0.00 165840.00     0.00   936.95     1.82    5.13    5.13    0.00   2.31  81.60
sdf             317.00     0.00  341.00    0.00 165468.00     0.00   970.49     1.80    5.26    5.26    0.00   2.33  79.60
sdg               0.00   109.00    0.00 1434.00     0.00  7412.00    10.34     8.64    6.02    0.00    6.02   0.05   6.50
sdh               0.00     0.00    0.00    0.00     0.00     0.00     0.00     0.00    0.00    0.00    0.00   0.00   0.00
md0               0.00     0.00 4068.00    0.00 1512372.00     0.00   743.55     0.00    0.00    0.00    0.00   0.00   0.00

avg-cpu:  %user   %nice %system %iowait  %steal   %idle
           0.50    0.00   10.08   15.87    0.00   73.55

Device:         rrqm/s   wrqm/s     r/s     w/s    rkB/s    wkB/s avgrq-sz avgqu-sz   await r_await w_await  svctm  %util
sda             317.00     0.00  363.00    0.00 165404.00     0.00   911.32     0.83    2.30    2.30    0.00   1.29  47.00
sdb             320.00     0.00  352.00    0.00 165684.00     0.00   941.39     0.89    2.52    2.52    0.00   1.38  48.50
sdc             323.00     0.00  357.00    0.00 165872.00     0.00   929.25     1.82    5.11    5.11    0.00   2.23  79.50
sdd             320.00     0.00  366.00    0.00 165620.00     0.00   905.03     1.82    4.99    4.99    0.00   2.18  79.70
sde             321.00     0.00  371.00    0.00 165204.00     0.00   890.59     1.92    5.16    5.16    0.00   2.22  82.30
sdf             322.00     0.00  363.00    0.00 165668.00     0.00   912.77     1.83    5.04    5.04    0.00   2.19  79.60
sdg               0.00     0.00    1.00    0.00     4.00     0.00     8.00     0.00    0.00    0.00    0.00   0.00   0.00
sdh               0.00     0.00    0.00    0.00     0.00     0.00     0.00     0.00    0.00    0.00    0.00   0.00   0.00
md0               0.00     0.00 4084.00    0.00 1441712.00     0.00   706.03     0.00    0.00    0.00    0.00   0.00   0.00

avg-cpu:  %user   %nice %system %iowait  %steal   %idle
           0.50    0.00    9.82   11.08    0.00   78.59

Device:         rrqm/s   wrqm/s     r/s     w/s    rkB/s    wkB/s avgrq-sz avgqu-sz   await r_await w_await  svctm  %util
sda             333.00     0.00  342.00    0.00 169656.00     0.00   992.14     0.91    2.65    2.65    0.00   1.41  48.20
sdb             328.00     0.00  366.00    0.00 169200.00     0.00   924.59     0.98    2.68    2.68    0.00   1.36  49.80
sdc             322.00     0.00  368.00    0.00 168588.00     0.00   916.24     1.92    5.22    5.22    0.00   2.21  81.50
sdd             328.00     0.00  359.00    0.00 168500.00     0.00   938.72     1.91    5.32    5.32    0.00   2.26  81.20
sde             329.00     0.00  389.00    0.00 168336.00     0.00   865.48     1.94    5.02    5.02    0.00   2.12  82.30
sdf             329.00     0.00  359.00    0.00 169128.00     0.00   942.22     1.91    5.35    5.35    0.00   2.26  81.30
sdg               0.00     0.00    0.00    0.00     0.00     0.00     0.00     0.00    0.00    0.00    0.00   0.00   0.00
sdh               0.00     0.00    0.00    0.00     0.00     0.00     0.00     0.00    0.00    0.00    0.00   0.00   0.00
md0               0.00     0.00 4152.00    0.00 1403004.00     0.00   675.82     0.00    0.00    0.00    0.00   0.00   0.00

avg-cpu:  %user   %nice %system %iowait  %steal   %idle
           0.51    0.00    9.60   16.16    0.00   73.74

Device:         rrqm/s   wrqm/s     r/s     w/s    rkB/s    wkB/s avgrq-sz avgqu-sz   await r_await w_await  svctm  %util
sda             318.00     0.00  371.00    0.00 163648.00     0.00   882.20     0.86    2.31    2.31    0.00   1.27  47.20
sdb             319.00     0.00  359.00    0.00 164020.00     0.00   913.76     0.88    2.43    2.43    0.00   1.32  47.50
sdc             322.00     0.00  355.00    0.00 163100.00     0.00   918.87     1.78    5.00    5.00    0.00   2.21  78.60
sdd             320.00     0.00  346.00    0.00 163044.00     0.00   942.45     1.81    5.20    5.20    0.00   2.26  78.10
sde             315.00     0.00  352.00    0.00 162816.00     0.00   925.09     1.87    5.30    5.30    0.00   2.28  80.30
sdf             318.00     0.00  365.00    0.00 162600.00     0.00   890.96     1.74    4.75    4.75    0.00   2.15  78.30
sdg               0.00     0.00    6.00    0.00   104.00     0.00    34.67     0.00    0.00    0.00    0.00   0.00   0.00
sdh               0.00     0.00    0.00    0.00     0.00     0.00     0.00     0.00    0.00    0.00    0.00   0.00   0.00
md0               0.00     0.00 4069.00    0.00 1499316.00     0.00   736.95     0.00    0.00    0.00    0.00   0.00   0.00

avg-cpu:  %user   %nice %system %iowait  %steal   %idle
           0.50    0.00   10.58   15.87    0.00   73.05

Device:         rrqm/s   wrqm/s     r/s     w/s    rkB/s    wkB/s avgrq-sz avgqu-sz   await r_await w_await  svctm  %util
sda             315.00     0.00  371.00    0.00 164716.00     0.00   887.96     0.86    2.32    2.32    0.00   1.30  48.30
sdb             320.00     0.00  361.00    0.00 164896.00     0.00   913.55     0.86    2.39    2.39    0.00   1.35  48.60
sdc             315.00     0.00  354.00    0.00 164308.00     0.00   928.29     1.82    5.12    5.12    0.00   2.24  79.30
sdd             319.00     0.00  369.00    0.00 164328.00     0.00   890.67     1.82    4.95    4.95    0.00   2.12  78.40
sde             318.00     0.00  381.00    0.00 164076.00     0.00   861.29     1.82    4.78    4.78    0.00   2.07  78.90
sdf             318.00     0.00  360.00    0.00 164332.00     0.00   912.96     1.80    5.00    5.00    0.00   2.20  79.20
sdg               0.00     0.00    0.00    0.00     0.00     0.00     0.00     0.00    0.00    0.00    0.00   0.00   0.00
sdh               0.00     0.00    0.00    0.00     0.00     0.00     0.00     0.00    0.00    0.00    0.00   0.00   0.00
md0               0.00     0.00 4098.00    0.00 1553436.00     0.00   758.14     0.00    0.00    0.00    0.00   0.00   0.00

avg-cpu:  %user   %nice %system %iowait  %steal   %idle
           0.50    0.00   10.58   15.62    0.00   73.30

Device:         rrqm/s   wrqm/s     r/s     w/s    rkB/s    wkB/s avgrq-sz avgqu-sz   await r_await w_await  svctm  %util
sda             335.00     0.00  370.00    0.00 171980.00     0.00   929.62     0.91    2.46    2.46    0.00   1.31  48.40
sdb             336.00     0.00  356.00    0.00 171380.00     0.00   962.81     0.96    2.69    2.69    0.00   1.42  50.40
sdc             338.00     0.00  373.00    0.00 172648.00     0.00   925.73     1.90    5.11    5.11    0.00   2.20  82.00
sdd             340.00     0.00  366.00    0.00 173212.00     0.00   946.51     1.93    5.28    5.28    0.00   2.26  82.60
sde             337.00     0.00  362.00    0.00 172936.00     0.00   955.45     1.96    5.40    5.40    0.00   2.26  81.90
sdf             339.00     0.00  379.00    0.00 172336.00     0.00   909.42     1.99    5.24    5.24    0.00   2.18  82.50
sdg               0.00     0.00    0.00    0.00     0.00     0.00     0.00     0.00    0.00    0.00    0.00   0.00   0.00
sdh               0.00     0.00    0.00    0.00     0.00     0.00     0.00     0.00    0.00    0.00    0.00   0.00   0.00
md0               0.00     0.00 4246.00    0.00 1644732.00     0.00   774.72     0.00    0.00    0.00    0.00   0.00   0.00

avg-cpu:  %user   %nice %system %iowait  %steal   %idle
           0.25    0.00   10.83    8.31    0.00   80.60

Device:         rrqm/s   wrqm/s     r/s     w/s    rkB/s    wkB/s avgrq-sz avgqu-sz   await r_await w_await  svctm  %util
sda             319.00     0.00  357.00    0.00 165888.00     0.00   929.34     0.92    2.59    2.59    0.00   1.34  47.70
sdb             321.00     0.00  389.00    0.00 166572.00     0.00   856.41     0.92    2.40    2.40    0.00   1.25  48.50
sdc             318.00     0.00  355.00    0.00 166148.00     0.00   936.05     1.84    5.16    5.16    0.00   2.23  79.20
sdd             320.00     0.00  361.00    0.00 165696.00     0.00   917.98     1.83    5.06    5.06    0.00   2.19  79.00
sde             317.00     0.00  368.00    0.00 164820.00     0.00   895.76     1.84    4.98    4.98    0.00   2.15  79.20
sdf             319.00     0.00  344.00    0.00 165696.00     0.00   963.35     1.80    5.22    5.22    0.00   2.28  78.30
sdg               0.00     0.00    0.00    0.00     0.00     0.00     0.00     0.00    0.00    0.00    0.00   0.00   0.00
sdh               0.00     0.00    0.00    0.00     0.00     0.00     0.00     0.00    0.00    0.00    0.00   0.00   0.00
md0               0.00     0.00 4082.00    0.00 1498896.00     0.00   734.39     0.00    0.00    0.00    0.00   0.00   0.00

avg-cpu:  %user   %nice %system %iowait  %steal   %idle
           0.76    0.00    9.37    9.11    0.00   80.76

Device:         rrqm/s   wrqm/s     r/s     w/s    rkB/s    wkB/s avgrq-sz avgqu-sz   await r_await w_await  svctm  %util
sda             308.00     0.00  360.00    0.00 161180.00     0.00   895.44     0.82    2.30    2.30    0.00   1.31  47.00
sdb             311.00     0.00  357.00    0.00 160876.00     0.00   901.27     0.82    2.31    2.31    0.00   1.31  46.70
sdc             312.00     0.00  377.00    0.00 161560.00     0.00   857.08     1.74    4.65    4.65    0.00   2.04  77.00
sdd             310.00     0.00  367.00    0.00 161500.00     0.00   880.11     1.71    4.69    4.69    0.00   2.10  76.90
sde             314.00     0.00  361.00    0.00 162148.00     0.00   898.33     1.71    4.81    4.81    0.00   2.14  77.10
sdf             312.00     0.00  351.00    0.00 161872.00     0.00   922.35     1.75    5.03    5.03    0.00   2.21  77.50
sdg               0.00     0.00    0.00    0.00     0.00     0.00     0.00     0.00    0.00    0.00    0.00   0.00   0.00
sdh               0.00     0.00    0.00    0.00     0.00     0.00     0.00     0.00    0.00    0.00    0.00   0.00   0.00
md0               0.00     0.00 4026.00    0.00 1438108.00     0.00   714.41     0.00    0.00    0.00    0.00   0.00   0.00

avg-cpu:  %user   %nice %system %iowait  %steal   %idle
           0.25    0.00    9.87   15.44    0.00   74.43

Device:         rrqm/s   wrqm/s     r/s     w/s    rkB/s    wkB/s avgrq-sz avgqu-sz   await r_await w_await  svctm  %util
sda             334.00     0.00  363.00    0.00 169584.00     0.00   934.35     0.92    2.55    2.55    0.00   1.33  48.30
sdb             327.00     0.00  368.00    0.00 169372.00     0.00   920.50     0.94    2.56    2.56    0.00   1.36  50.00
sdc             330.00     0.00  374.00    0.00 169976.00     0.00   908.96     1.88    5.03    5.03    0.00   2.18  81.70
sdd             327.00     0.00  362.00    0.00 170040.00     0.00   939.45     1.88    5.20    5.20    0.00   2.23  80.90
sde             330.00     0.00  369.00    0.00 169668.00     0.00   919.61     1.95    5.27    5.27    0.00   2.21  81.40
sdf             334.00     0.00  373.00    0.00 169988.00     0.00   911.46     1.92    5.16    5.16    0.00   2.20  82.20
sdg               0.00     0.00    1.00    0.00     4.00     0.00     8.00     0.00    0.00    0.00    0.00   0.00   0.00
sdh               0.00     0.00    0.00    0.00     0.00     0.00     0.00     0.00    0.00    0.00    0.00   0.00   0.00
md0               0.00     0.00 4191.00    0.00 1422112.00     0.00   678.65     0.00    0.00    0.00    0.00   0.00   0.00

