Linux 4.17.2 (bench) 	08/03/2018 	_x86_64_	(4 CPU)

avg-cpu:  %user   %nice %system %iowait  %steal   %idle
          10.29    0.02    4.00    2.47    0.00   83.22

Device:         rrqm/s   wrqm/s     r/s     w/s    rkB/s    wkB/s avgrq-sz avgqu-sz   await r_await w_await  svctm  %util
sda              41.51     4.27 1615.20  103.33 20691.92  3153.22    27.75     1.03    0.60    0.26    5.91   0.06  10.56
sdb              41.40     4.23 1615.09  103.47 20681.35  3149.86    27.73     1.02    0.60    0.26    5.85   0.06  10.44
sdc              79.47     4.29 1574.93  103.02 20673.55  3152.34    28.40     1.44    0.86    0.45    7.12   0.08  13.87
sdd              72.83     4.26 1580.73  103.09 20658.25  3148.51    28.28     1.45    0.86    0.44    7.32   0.08  13.96
sde              74.90     4.30 1585.86  103.18 20718.77  3152.79    28.27     1.47    0.87    0.44    7.43   0.08  13.98
sdf              71.99     4.27 1588.04  103.13 20699.78  3149.62    28.20     1.52    0.90    0.44    7.90   0.08  14.01
sdg               0.00     3.18   25.97   73.33   322.58   391.97    14.39     0.44    4.43    0.20    5.93   0.08   0.78
sdh               0.00     0.13    0.02    0.24     2.23     5.10    56.82     0.00    1.15    0.65    1.19   0.21   0.01
md0               0.00     0.00 9948.16  484.07 141660.95 21590.79    31.30     0.00    0.00    0.00    0.00   0.00   0.00

avg-cpu:  %user   %nice %system %iowait  %steal   %idle
           0.25    0.00    3.02   16.62    0.00   80.10

Device:         rrqm/s   wrqm/s     r/s     w/s    rkB/s    wkB/s avgrq-sz avgqu-sz   await r_await w_await  svctm  %util
sda               0.00     0.00 1314.00    0.00  5744.00     0.00     8.74     0.15    0.11    0.11    0.00   0.11  14.70
sdb               0.00     0.00 1390.00    0.00  6116.00     0.00     8.80     0.14    0.10    0.10    0.00   0.10  14.40
sdc               0.00     0.00 1351.00    0.00  5784.00     0.00     8.56     0.18    0.13    0.13    0.00   0.13  17.80
sdd               0.00     0.00 1372.00    0.00  6008.00     0.00     8.76     0.16    0.12    0.12    0.00   0.12  16.20
sde               0.00     0.00 1328.00    0.00  5672.00     0.00     8.54     0.14    0.10    0.10    0.00   0.10  13.50
sdf               0.00     0.00 1334.00    0.00  5736.00     0.00     8.60     0.14    0.10    0.10    0.00   0.10  13.70
sdg               0.00     0.00    3.00    0.00    88.00     0.00    58.67     0.00    0.00    0.00    0.00   0.00   0.00
sdh               0.00     0.00    0.00    0.00     0.00     0.00     0.00     0.00    0.00    0.00    0.00   0.00   0.00
md0               0.00     0.00 8091.00    0.00 35104.00     0.00     8.68     0.00    0.00    0.00    0.00   0.00   0.00

avg-cpu:  %user   %nice %system %iowait  %steal   %idle
           0.51    0.00    1.79    1.28    0.00   96.43

Device:         rrqm/s   wrqm/s     r/s     w/s    rkB/s    wkB/s avgrq-sz avgqu-sz   await r_await w_await  svctm  %util
sda               0.00     0.00 1353.00    0.00  6220.00     0.00     9.19     0.14    0.11    0.11    0.00   0.11  14.40
sdb               0.00     0.00 1344.00    0.00  5684.00     0.00     8.46     0.15    0.11    0.11    0.00   0.11  15.20
sdc               0.00     0.00 1331.00    0.00  5772.00     0.00     8.67     0.17    0.13    0.13    0.00   0.13  17.40
sdd               0.00     0.00 1281.00    0.00  5920.00     0.00     9.24     0.15    0.12    0.12    0.00   0.11  14.60
sde               0.00     0.00 1352.00    0.00  6132.00     0.00     9.07     0.17    0.13    0.13    0.00   0.13  17.10
sdf               0.00     0.00 1352.00    0.00  5692.00     0.00     8.42     0.14    0.10    0.10    0.00   0.10  13.50
sdg               0.00     0.00    0.00    0.00     0.00     0.00     0.00     0.00    0.00    0.00    0.00   0.00   0.00
sdh               0.00     0.00    0.00    0.00     0.00     0.00     0.00     0.00    0.00    0.00    0.00   0.00   0.00
md0               0.00     0.00 8012.00    0.00 35808.00     0.00     8.94     0.00    0.00    0.00    0.00   0.00   0.00

avg-cpu:  %user   %nice %system %iowait  %steal   %idle
           0.26    0.00    1.79    1.03    0.00   96.92

Device:         rrqm/s   wrqm/s     r/s     w/s    rkB/s    wkB/s avgrq-sz avgqu-sz   await r_await w_await  svctm  %util
sda               0.00     0.00 1349.00    0.00  5708.00     0.00     8.46     0.14    0.10    0.10    0.00   0.10  13.80
sdb               0.00     0.00 1326.00    0.00  5764.00     0.00     8.69     0.14    0.10    0.10    0.00   0.10  13.90
sdc               0.00     0.00 1312.00    0.00  5916.00     0.00     9.02     0.17    0.13    0.13    0.00   0.13  16.90
sdd               0.00     0.00 1279.00    0.00  5440.00     0.00     8.51     0.15    0.11    0.11    0.00   0.11  14.60
sde               0.00     0.00 1306.00    0.00  5480.00     0.00     8.39     0.15    0.12    0.12    0.00   0.12  15.40
sdf               0.00     0.00 1428.00    0.00  6216.00     0.00     8.71     0.17    0.12    0.12    0.00   0.12  17.50
sdg               0.00     0.00    0.00    0.00     0.00     0.00     0.00     0.00    0.00    0.00    0.00   0.00   0.00
sdh               0.00     0.00    0.00    0.00     0.00     0.00     0.00     0.00    0.00    0.00    0.00   0.00   0.00
md0               0.00     0.00 8001.00    0.00 34664.00     0.00     8.66     0.00    0.00    0.00    0.00   0.00   0.00

avg-cpu:  %user   %nice %system %iowait  %steal   %idle
           0.26    0.00    1.79    1.53    0.00   96.43

Device:         rrqm/s   wrqm/s     r/s     w/s    rkB/s    wkB/s avgrq-sz avgqu-sz   await r_await w_await  svctm  %util
sda               0.00     0.00 1277.00    0.00  5556.00     0.00     8.70     0.13    0.10    0.10    0.00   0.10  12.70
sdb               0.00     0.00 1320.00    0.00  5592.00     0.00     8.47     0.13    0.10    0.10    0.00   0.10  12.80
sdc               0.00     0.00 1376.00    0.00  5920.00     0.00     8.60     0.18    0.13    0.13    0.00   0.13  18.50
sdd               0.00     0.00 1401.00    0.00  5864.00     0.00     8.37     0.16    0.11    0.11    0.00   0.11  15.70
sde               0.00     0.00 1299.00    0.00  5644.00     0.00     8.69     0.15    0.12    0.12    0.00   0.12  15.20
sdf               0.00     0.00 1406.00    0.00  6140.00     0.00     8.73     0.17    0.12    0.12    0.00   0.12  17.20
sdg               0.00     0.00    0.00    0.00     0.00     0.00     0.00     0.00    0.00    0.00    0.00   0.00   0.00
sdh               0.00     0.00    0.00    0.00     0.00     0.00     0.00     0.00    0.00    0.00    0.00   0.00   0.00
md0               0.00     0.00 8079.00    0.00 34792.00     0.00     8.61     0.00    0.00    0.00    0.00   0.00   0.00

avg-cpu:  %user   %nice %system %iowait  %steal   %idle
           0.25    0.00    2.54    9.14    0.00   88.07

Device:         rrqm/s   wrqm/s     r/s     w/s    rkB/s    wkB/s avgrq-sz avgqu-sz   await r_await w_await  svctm  %util
sda               0.00     0.00 1350.00    0.00  6056.00     0.00     8.97     0.12    0.09    0.09    0.00   0.09  12.40
sdb               0.00     0.00 1377.00    0.00  6000.00     0.00     8.71     0.15    0.11    0.11    0.00   0.11  14.90
sdc               0.00     0.00 1384.00    0.00  5964.00     0.00     8.62     0.17    0.12    0.12    0.00   0.12  16.70
sdd               0.00     0.00 1375.00    0.00  6308.00     0.00     9.18     0.14    0.10    0.10    0.00   0.10  13.60
sde               1.00     0.00 1395.00    0.00  7148.00     0.00    10.25     0.17    0.12    0.12    0.00   0.12  16.70
sdf               1.00     0.00 1373.00    0.00  6604.00     0.00     9.62     0.19    0.14    0.14    0.00   0.14  18.80
sdg               0.00     0.00    0.00    0.00     0.00     0.00     0.00     0.00    0.00    0.00    0.00   0.00   0.00
sdh               0.00     0.00    0.00    0.00     0.00     0.00     0.00     0.00    0.00    0.00    0.00   0.00   0.00
md0               0.00     0.00 8256.00    0.00 38484.00     0.00     9.32     0.00    0.00    0.00    0.00   0.00   0.00

avg-cpu:  %user   %nice %system %iowait  %steal   %idle
           0.25    0.00    2.28   21.32    0.00   76.14

Device:         rrqm/s   wrqm/s     r/s     w/s    rkB/s    wkB/s avgrq-sz avgqu-sz   await r_await w_await  svctm  %util
sda               0.00     0.00 1411.00    0.00  6528.00     0.00     9.25     0.15    0.11    0.11    0.00   0.11  15.40
sdb               0.00     0.00 1400.00    0.00  5976.00     0.00     8.54     0.13    0.10    0.10    0.00   0.10  13.40
sdc               0.00     0.00 1388.00    0.00  6216.00     0.00     8.96     0.20    0.15    0.15    0.00   0.15  20.20
sdd               0.00     0.00 1376.00    0.00  6400.00     0.00     9.30     0.14    0.11    0.11    0.00   0.10  14.40
sde               0.00     0.00 1440.00    0.00  6428.00     0.00     8.93     0.17    0.12    0.12    0.00   0.12  16.80
sdf               0.00     0.00 1382.00    0.00  6128.00     0.00     8.87     0.14    0.10    0.10    0.00   0.10  13.50
sdg               0.00     0.00    0.00    0.00     0.00     0.00     0.00     0.00    0.00    0.00    0.00   0.00   0.00
sdh               0.00     0.00    0.00    0.00     0.00     0.00     0.00     0.00    0.00    0.00    0.00   0.00   0.00
md0               0.00     0.00 8396.00    0.00 38008.00     0.00     9.05     0.00    0.00    0.00    0.00   0.00   0.00

avg-cpu:  %user   %nice %system %iowait  %steal   %idle
           0.51    0.25    2.54   18.78    0.00   77.92

Device:         rrqm/s   wrqm/s     r/s     w/s    rkB/s    wkB/s avgrq-sz avgqu-sz   await r_await w_await  svctm  %util
sda               0.00     0.00 1378.00    0.00  5836.00     0.00     8.47     0.13    0.09    0.09    0.00   0.09  13.00
sdb               0.00     0.00 1378.00    0.00  6280.00     0.00     9.11     0.15    0.11    0.11    0.00   0.11  14.50
sdc               0.00     0.00 1350.00    0.00  5664.00     0.00     8.39     0.18    0.13    0.13    0.00   0.13  17.80
sdd               0.00     0.00 1474.00    0.00  6452.00     0.00     8.75     0.17    0.11    0.11    0.00   0.11  16.60
sde               0.00     0.00 1419.00    0.00  6304.00     0.00     8.89     0.14    0.10    0.10    0.00   0.10  14.30
sdf               0.00     0.00 1429.00    0.00  6480.00     0.00     9.07     0.17    0.12    0.12    0.00   0.11  16.40
sdg               0.00     0.00   40.00    0.00   472.00     0.00    23.60     0.01    0.20    0.20    0.00   0.15   0.60
sdh               0.00     0.00    0.00    0.00     0.00     0.00     0.00     0.00    0.00    0.00    0.00   0.00   0.00
md0               0.00     0.00 8428.00    0.00 37064.00     0.00     8.80     0.00    0.00    0.00    0.00   0.00   0.00

avg-cpu:  %user   %nice %system %iowait  %steal   %idle
           0.51    0.00    1.78    1.27    0.00   96.44

Device:         rrqm/s   wrqm/s     r/s     w/s    rkB/s    wkB/s avgrq-sz avgqu-sz   await r_await w_await  svctm  %util
sda               0.00     0.00 1329.00    0.00  5564.00     0.00     8.37     0.13    0.10    0.10    0.00   0.10  13.30
sdb               0.00     0.00 1378.00    0.00  5816.00     0.00     8.44     0.15    0.11    0.11    0.00   0.11  15.40
sdc               0.00     0.00 1351.00    0.00  5744.00     0.00     8.50     0.19    0.14    0.14    0.00   0.14  18.70
sdd               0.00     0.00 1299.00    0.00  5644.00     0.00     8.69     0.12    0.09    0.09    0.00   0.09  12.10
sde               0.00     0.00 1385.00    0.00  5828.00     0.00     8.42     0.18    0.13    0.13    0.00   0.13  17.70
sdf               0.00     0.00 1330.00    0.00  5692.00     0.00     8.56     0.16    0.12    0.12    0.00   0.12  15.60
sdg               0.00     0.00    0.00    0.00     0.00     0.00     0.00     0.00    0.00    0.00    0.00   0.00   0.00
sdh               0.00     0.00    0.00    0.00     0.00     0.00     0.00     0.00    0.00    0.00    0.00   0.00   0.00
md0               0.00     0.00 8072.00    0.00 34368.00     0.00     8.52     0.00    0.00    0.00    0.00   0.00   0.00

avg-cpu:  %user   %nice %system %iowait  %steal   %idle
           0.26    0.00    2.05    1.02    0.00   96.68

Device:         rrqm/s   wrqm/s     r/s     w/s    rkB/s    wkB/s avgrq-sz avgqu-sz   await r_await w_await  svctm  %util
sda               0.00     0.00 1369.00    0.00  5924.00     0.00     8.65     0.14    0.10    0.10    0.00   0.10  13.70
sdb               0.00     0.00 1390.00    0.00  6148.00     0.00     8.85     0.16    0.11    0.11    0.00   0.11  15.80
sdc               0.00     0.00 1363.00    0.00  6296.00     0.00     9.24     0.16    0.12    0.12    0.00   0.11  15.40
sdd               0.00     0.00 1373.00    0.00  6172.00     0.00     8.99     0.16    0.11    0.11    0.00   0.11  15.60
sde               0.00     0.00 1382.00    0.00  5956.00     0.00     8.62     0.15    0.11    0.11    0.00   0.11  14.70
sdf               0.00     0.00 1415.00    0.00  6316.00     0.00     8.93     0.17    0.12    0.12    0.00   0.12  17.30
sdg               0.00     1.00    5.00   19.00    20.00   112.00    11.00     0.01    0.58    0.00    0.74   0.04   0.10
sdh               0.00     0.00    0.00    0.00     0.00     0.00     0.00     0.00    0.00    0.00    0.00   0.00   0.00
md0               0.00     0.00 8293.00    0.00 37072.00     0.00     8.94     0.00    0.00    0.00    0.00   0.00   0.00

avg-cpu:  %user   %nice %system %iowait  %steal   %idle
           0.51    0.00    1.79    1.02    0.00   96.68

Device:         rrqm/s   wrqm/s     r/s     w/s    rkB/s    wkB/s avgrq-sz avgqu-sz   await r_await w_await  svctm  %util
sda               0.00     0.00 1367.00    0.00  5732.00     0.00     8.39     0.14    0.11    0.11    0.00   0.11  14.50
sdb               0.00     0.00 1338.00    0.00  5760.00     0.00     8.61     0.15    0.11    0.11    0.00   0.11  15.10
sdc               0.00     0.00 1384.00    0.00  6500.00     0.00     9.39     0.15    0.11    0.11    0.00   0.11  15.50
sdd               0.00     0.00 1408.00    0.00  6236.00     0.00     8.86     0.16    0.12    0.12    0.00   0.11  15.90
sde               0.00     0.00 1404.00    0.00  5920.00     0.00     8.43     0.15    0.11    0.11    0.00   0.11  14.90
sdf               0.00     0.00 1392.00    0.00  5944.00     0.00     8.54     0.17    0.12    0.12    0.00   0.12  16.90
sdg               0.00     0.00    0.00    0.00     0.00     0.00     0.00     0.00    0.00    0.00    0.00   0.00   0.00
sdh               0.00     0.00    0.00    0.00     0.00     0.00     0.00     0.00    0.00    0.00    0.00   0.00   0.00
md0               0.00     0.00 8292.00    0.00 36288.00     0.00     8.75     0.00    0.00    0.00    0.00   0.00   0.00

avg-cpu:  %user   %nice %system %iowait  %steal   %idle
           0.25    0.00    2.54    8.63    0.00   88.58

Device:         rrqm/s   wrqm/s     r/s     w/s    rkB/s    wkB/s avgrq-sz avgqu-sz   await r_await w_await  svctm  %util
sda               0.00     0.00 1420.00    0.00  6172.00     0.00     8.69     0.16    0.11    0.11    0.00   0.11  15.90
sdb               0.00     0.00 1434.00    0.00  6452.00     0.00     9.00     0.16    0.11    0.11    0.00   0.11  15.80
sdc               0.00     0.00 1381.00    0.00  6284.00     0.00     9.10     0.16    0.12    0.12    0.00   0.12  16.20
sdd               0.00     0.00 1407.00    0.00  5996.00     0.00     8.52     0.14    0.10    0.10    0.00   0.10  13.90
sde               0.00     0.00 1385.00    0.00  5912.00     0.00     8.54     0.16    0.12    0.12    0.00   0.11  15.90
sdf               0.00     0.00 1450.00    0.00  6548.00     0.00     9.03     0.14    0.10    0.10    0.00   0.10  14.10
sdg               0.00     0.00   14.00    0.00   288.00     0.00    41.14     0.01    0.36    0.36    0.00   0.36   0.50
sdh               0.00     0.00    0.00    0.00     0.00     0.00     0.00     0.00    0.00    0.00    0.00   0.00   0.00
md0               0.00     0.00 8478.00    0.00 37492.00     0.00     8.84     0.00    0.00    0.00    0.00   0.00   0.00

avg-cpu:  %user   %nice %system %iowait  %steal   %idle
           0.25    0.00    2.79   20.81    0.00   76.14

Device:         rrqm/s   wrqm/s     r/s     w/s    rkB/s    wkB/s avgrq-sz avgqu-sz   await r_await w_await  svctm  %util
sda               0.00     0.00 1449.00    0.00  6608.00     0.00     9.12     0.14    0.10    0.10    0.00   0.10  14.10
sdb               0.00     0.00 1421.00    0.00  6284.00     0.00     8.84     0.14    0.10    0.10    0.00   0.10  14.10
sdc               0.00     0.00 1451.00    0.00  6464.00     0.00     8.91     0.16    0.11    0.11    0.00   0.11  15.50
sdd               0.00     0.00 1466.00    0.00  6492.00     0.00     8.86     0.19    0.13    0.13    0.00   0.13  18.90
sde               0.00     0.00 1386.00    0.00  6252.00     0.00     9.02     0.17    0.13    0.13    0.00   0.12  16.80
sdf               1.00     0.00 1419.00    0.00  6660.00     0.00     9.39     0.15    0.11    0.11    0.00   0.11  15.20
sdg               0.00     0.00    0.00    0.00     0.00     0.00     0.00     0.00    0.00    0.00    0.00   0.00   0.00
sdh               0.00     0.00    0.00    0.00     0.00     0.00     0.00     0.00    0.00    0.00    0.00   0.00   0.00
md0               0.00     0.00 8593.00    0.00 39368.00     0.00     9.16     0.00    0.00    0.00    0.00   0.00   0.00

avg-cpu:  %user   %nice %system %iowait  %steal   %idle
           0.51    0.00    2.28   21.07    0.00   76.14

Device:         rrqm/s   wrqm/s     r/s     w/s    rkB/s    wkB/s avgrq-sz avgqu-sz   await r_await w_await  svctm  %util
sda               0.00     0.00 1424.00    0.00  6256.00     0.00     8.79     0.16    0.11    0.11    0.00   0.11  15.80
sdb               0.00     0.00 1438.00    0.00  6772.00     0.00     9.42     0.15    0.11    0.11    0.00   0.10  15.00
sdc               0.00     0.00 1414.00    0.00  6032.00     0.00     8.53     0.12    0.09    0.09    0.00   0.09  12.50
sdd               0.00     0.00 1404.00    0.00  6280.00     0.00     8.95     0.14    0.10    0.10    0.00   0.10  14.10
sde               0.00     0.00 1471.00    0.00  6244.00     0.00     8.49     0.16    0.11    0.11    0.00   0.11  16.30
sdf               0.00     0.00 1460.00    0.00  6360.00     0.00     8.71     0.19    0.13    0.13    0.00   0.13  19.20
sdg               0.00     0.00    0.00    0.00     0.00     0.00     0.00     0.00    0.00    0.00    0.00   0.00   0.00
sdh               0.00     0.00    0.00    0.00     0.00     0.00     0.00     0.00    0.00    0.00    0.00   0.00   0.00
md0               0.00     0.00 8610.00    0.00 38080.00     0.00     8.85     0.00    0.00    0.00    0.00   0.00   0.00

avg-cpu:  %user   %nice %system %iowait  %steal   %idle
           0.51    0.00    2.53   10.38    0.00   86.58

Device:         rrqm/s   wrqm/s     r/s     w/s    rkB/s    wkB/s avgrq-sz avgqu-sz   await r_await w_await  svctm  %util
sda               0.00     0.00 1368.00    0.00  5864.00     0.00     8.57     0.16    0.12    0.12    0.00   0.11  15.70
sdb               0.00     0.00 1394.00    0.00  6056.00     0.00     8.69     0.16    0.11    0.11    0.00   0.11  15.60
sdc               0.00     0.00 1382.00    0.00  6176.00     0.00     8.94     0.17    0.12    0.12    0.00   0.12  16.40
sdd               0.00     0.00 1441.00    0.00  6520.00     0.00     9.05     0.16    0.11    0.11    0.00   0.11  16.00
sde               0.00     0.00 1406.00    0.00  6032.00     0.00     8.58     0.14    0.10    0.10    0.00   0.10  13.50
sdf               0.00     0.00 1416.00    0.00  6236.00     0.00     8.81     0.16    0.11    0.11    0.00   0.11  15.70
sdg               0.00     0.00    0.00    0.00     0.00     0.00     0.00     0.00    0.00    0.00    0.00   0.00   0.00
sdh               0.00     0.00    0.00    0.00     0.00     0.00     0.00     0.00    0.00    0.00    0.00   0.00   0.00
md0               0.00     0.00 8408.00    0.00 37040.00     0.00     8.81     0.00    0.00    0.00    0.00   0.00   0.00

avg-cpu:  %user   %nice %system %iowait  %steal   %idle
           0.26    0.00    1.79    1.28    0.00   96.68

Device:         rrqm/s   wrqm/s     r/s     w/s    rkB/s    wkB/s avgrq-sz avgqu-sz   await r_await w_await  svctm  %util
sda               0.00     0.00 1379.00    0.00  6168.00     0.00     8.95     0.15    0.11    0.11    0.00   0.11  14.80
sdb               0.00     0.00 1384.00    0.00  6276.00     0.00     9.07     0.15    0.11    0.11    0.00   0.11  15.30
sdc               0.00     0.00 1342.00    0.00  5712.00     0.00     8.51     0.16    0.12    0.12    0.00   0.12  15.80
sdd               0.00     0.00 1445.00    0.00  6252.00     0.00     8.65     0.17    0.11    0.11    0.00   0.11  16.50
sde               0.00     0.00 1378.00    0.00  5736.00     0.00     8.33     0.14    0.10    0.10    0.00   0.10  14.10
sdf               0.00     0.00 1444.00    0.00  6460.00     0.00     8.95     0.16    0.11    0.11    0.00   0.11  15.50
sdg               0.00     0.00    0.00    0.00     0.00     0.00     0.00     0.00    0.00    0.00    0.00   0.00   0.00
sdh               0.00     0.00    0.00    0.00     0.00     0.00     0.00     0.00    0.00    0.00    0.00   0.00   0.00
md0               0.00     0.00 8373.00    0.00 36852.00     0.00     8.80     0.00    0.00    0.00    0.00   0.00   0.00

avg-cpu:  %user   %nice %system %iowait  %steal   %idle
           0.26    0.00    1.79    1.03    0.00   96.92

Device:         rrqm/s   wrqm/s     r/s     w/s    rkB/s    wkB/s avgrq-sz avgqu-sz   await r_await w_await  svctm  %util
sda               0.00     0.00 1402.00    0.00  6052.00     0.00     8.63     0.14    0.10    0.10    0.00   0.10  13.90
sdb               0.00     0.00 1422.00    0.00  6364.00     0.00     8.95     0.14    0.10    0.10    0.00   0.10  14.30
sdc               0.00     0.00 1450.00    0.00  6584.00     0.00     9.08     0.15    0.11    0.11    0.00   0.11  15.30
sdd               1.00     0.00 1423.00    0.00  7464.00     0.00    10.49     0.18    0.12    0.12    0.00   0.12  16.60
sde               0.00     0.00 1463.00    0.00  6844.00     0.00     9.36     0.17    0.12    0.12    0.00   0.12  16.90
sdf               0.00     0.00 1441.00    0.00  6724.00     0.00     9.33     0.17    0.12    0.12    0.00   0.12  16.90
sdg               0.00     0.00    0.00    0.00     0.00     0.00     0.00     0.00    0.00    0.00    0.00   0.00   0.00
sdh               0.00     0.00    0.00    0.00     0.00     0.00     0.00     0.00    0.00    0.00    0.00   0.00   0.00
md0               0.00     0.00 8601.00    0.00 40420.00     0.00     9.40     0.00    0.00    0.00    0.00   0.00   0.00

avg-cpu:  %user   %nice %system %iowait  %steal   %idle
           0.51    0.00    2.54    3.31    0.00   93.64

Device:         rrqm/s   wrqm/s     r/s     w/s    rkB/s    wkB/s avgrq-sz avgqu-sz   await r_await w_await  svctm  %util
sda               0.00     0.00 1439.00    0.00  6680.00     0.00     9.28     0.15    0.10    0.10    0.00   0.10  14.70
sdb               0.00     0.00 1440.00    0.00  6540.00     0.00     9.08     0.15    0.10    0.10    0.00   0.10  14.90
sdc               0.00     0.00 1425.00    0.00  6352.00     0.00     8.92     0.14    0.10    0.10    0.00   0.10  13.90
sdd               0.00     0.00 1440.00    0.00  6228.00     0.00     8.65     0.15    0.10    0.10    0.00   0.10  14.70
sde               0.00     0.00 1428.00    0.00  6784.00     0.00     9.50     0.17    0.12    0.12    0.00   0.12  16.70
sdf               0.00     0.00 1410.00    0.00  6348.00     0.00     9.00     0.17    0.12    0.12    0.00   0.12  17.10
sdg               0.00     0.00    5.00    0.00    20.00     0.00     8.00     0.00    0.40    0.40    0.00   0.40   0.20
sdh               0.00     0.00    0.00    0.00     0.00     0.00     0.00     0.00    0.00    0.00    0.00   0.00   0.00
md0               0.00     0.00 8582.00    0.00 39124.00     0.00     9.12     0.00    0.00    0.00    0.00   0.00   0.00

avg-cpu:  %user   %nice %system %iowait  %steal   %idle
           0.25    0.00    2.54   19.29    0.00   77.92

Device:         rrqm/s   wrqm/s     r/s     w/s    rkB/s    wkB/s avgrq-sz avgqu-sz   await r_await w_await  svctm  %util
sda               0.00     0.00 1379.00    0.00  6008.00     0.00     8.71     0.13    0.09    0.09    0.00   0.09  12.80
sdb               1.00     0.00 1465.00    0.00  6572.00     0.00     8.97     0.16    0.11    0.11    0.00   0.11  15.50
sdc               0.00     0.00 1369.00    0.00  6384.00     0.00     9.33     0.17    0.12    0.12    0.00   0.12  16.40
sdd               0.00     0.00 1454.00    0.00  7140.00     0.00     9.82     0.17    0.12    0.12    0.00   0.11  16.30
sde               0.00     0.00 1461.00    0.00  6532.00     0.00     8.94     0.15    0.11    0.11    0.00   0.10  15.30
sdf               0.00     0.00 1439.00    0.00  6232.00     0.00     8.66     0.16    0.11    0.11    0.00   0.11  16.40
sdg               0.00     0.00    0.00    0.00     0.00     0.00     0.00     0.00    0.00    0.00    0.00   0.00   0.00
sdh               0.00     0.00    0.00    0.00     0.00     0.00     0.00     0.00    0.00    0.00    0.00   0.00   0.00
md0               0.00     0.00 8568.00    0.00 39260.00     0.00     9.16     0.00    0.00    0.00    0.00   0.00   0.00

avg-cpu:  %user   %nice %system %iowait  %steal   %idle
           0.51    0.00    2.04    6.87    0.00   90.59

Device:         rrqm/s   wrqm/s     r/s     w/s    rkB/s    wkB/s avgrq-sz avgqu-sz   await r_await w_await  svctm  %util
sda               0.00     0.00 1382.00    0.00  6100.00     0.00     8.83     0.14    0.10    0.10    0.00   0.10  14.50
sdb               0.00     0.00 1420.00    0.00  6376.00     0.00     8.98     0.16    0.11    0.11    0.00   0.11  16.00
sdc               0.00     0.00 1435.00    0.00  6796.00     0.00     9.47     0.17    0.12    0.12    0.00   0.12  16.80
sdd               0.00     0.00 1427.00    0.00  6136.00     0.00     8.60     0.15    0.10    0.10    0.00   0.10  14.70
sde               0.00     0.00 1446.00    0.00  6392.00     0.00     8.84     0.16    0.11    0.11    0.00   0.11  15.80
sdf               0.00     0.00 1433.00    0.00  6336.00     0.00     8.84     0.15    0.11    0.11    0.00   0.11  15.40
sdg               0.00     0.00    0.00    0.00     0.00     0.00     0.00     0.00    0.00    0.00    0.00   0.00   0.00
sdh               0.00     0.00    0.00    0.00     0.00     0.00     0.00     0.00    0.00    0.00    0.00   0.00   0.00
md0               0.00     0.00 8543.00    0.00 38344.00     0.00     8.98     0.00    0.00    0.00    0.00   0.00   0.00

avg-cpu:  %user   %nice %system %iowait  %steal   %idle
           0.51    0.00    1.79    1.02    0.00   96.68

Device:         rrqm/s   wrqm/s     r/s     w/s    rkB/s    wkB/s avgrq-sz avgqu-sz   await r_await w_await  svctm  %util
sda               0.00     0.00 1475.00    0.00  6600.00     0.00     8.95     0.15    0.10    0.10    0.00   0.10  14.80
sdb               0.00     0.00 1402.00    0.00  6056.00     0.00     8.64     0.15    0.11    0.11    0.00   0.11  15.00
sdc               0.00     0.00 1384.00    0.00  6400.00     0.00     9.25     0.14    0.10    0.10    0.00   0.10  14.10
sdd               0.00     0.00 1443.00    0.00  6168.00     0.00     8.55     0.17    0.12    0.12    0.00   0.12  16.80
sde               0.00     0.00 1431.00    0.00  6088.00     0.00     8.51     0.16    0.12    0.12    0.00   0.11  16.40
sdf               0.00     0.00 1457.00    0.00  6240.00     0.00     8.57     0.15    0.10    0.10    0.00   0.10  14.70
sdg               0.00     0.00    0.00    0.00     0.00     0.00     0.00     0.00    0.00    0.00    0.00   0.00   0.00
sdh               0.00     0.00    0.00    0.00     0.00     0.00     0.00     0.00    0.00    0.00    0.00   0.00   0.00
md0               0.00     0.00 8592.00    0.00 37656.00     0.00     8.77     0.00    0.00    0.00    0.00   0.00   0.00

