Linux 4.17.2 (bench) 	08/03/2018 	_x86_64_	(4 CPU)

avg-cpu:  %user   %nice %system %iowait  %steal   %idle
          10.29    0.02    3.98    2.43    0.00   83.27

Device:         rrqm/s   wrqm/s     r/s     w/s    rkB/s    wkB/s avgrq-sz avgqu-sz   await r_await w_await  svctm  %util
sda              39.37     4.28 1600.96  103.67 20628.50  3163.45    27.91     1.02    0.60    0.26    5.91   0.06  10.49
sdb              39.27     4.24 1600.83  103.80 20617.86  3160.07    27.90     1.02    0.60    0.26    5.85   0.06  10.37
sdc              77.41     4.30 1560.62  103.35 20610.12  3162.56    28.57     1.44    0.87    0.45    7.12   0.08  13.80
sdd              70.74     4.27 1566.44  103.42 20594.75  3158.72    28.45     1.45    0.87    0.44    7.32   0.08  13.89
sde              72.82     4.32 1571.59  103.52 20655.52  3163.01    28.44     1.47    0.88    0.45    7.43   0.08  13.91
sdf              69.91     4.29 1573.76  103.46 20636.49  3159.84    28.38     1.51    0.90    0.44    7.90   0.08  13.94
sdg               0.00     3.18   25.87   73.35   322.22   391.99    14.40     0.44    4.44    0.20    5.93   0.08   0.77
sdh               0.00     0.13    0.02    0.24     2.24     5.12    56.82     0.00    1.15    0.65    1.19   0.21   0.01
md0               0.00     0.00 9849.84  485.64 141232.66 21660.82    31.52     0.00    0.00    0.00    0.00   0.00   0.00

avg-cpu:  %user   %nice %system %iowait  %steal   %idle
           0.25    0.00    3.80   15.70    0.00   80.25

Device:         rrqm/s   wrqm/s     r/s     w/s    rkB/s    wkB/s avgrq-sz avgqu-sz   await r_await w_await  svctm  %util
sda               4.00     0.00 1879.00    0.00 41188.00     0.00    43.84     1.32    0.70    0.70    0.00   0.11  20.90
sdb               8.00     0.00 2065.00    0.00 41896.00     0.00    40.58     1.45    0.70    0.70    0.00   0.11  22.60
sdc               1.00     0.00 2026.00    0.00 41324.00     0.00    40.79     2.25    1.11    1.11    0.00   0.14  28.90
sdd               4.00     0.00 1965.00    0.00 40708.00     0.00    41.43     2.25    1.14    1.14    0.00   0.14  27.60
sde               4.00     0.00 1977.00    0.00 41304.00     0.00    41.78     2.36    1.19    1.19    0.00   0.15  28.90
sdf               6.00     0.00 1854.00    0.00 41964.00     0.00    45.27     2.38    1.28    1.28    0.00   0.15  26.90
sdg               0.00     0.00    0.00    0.00     0.00     0.00     0.00     0.00    0.00    0.00    0.00   0.00   0.00
sdh               0.00     0.00    0.00    0.00     0.00     0.00     0.00     0.00    0.00    0.00    0.00   0.00   0.00
md0               0.00     0.00 11795.00    0.00 263480.00     0.00    44.68     0.00    0.00    0.00    0.00   0.00   0.00

avg-cpu:  %user   %nice %system %iowait  %steal   %idle
           0.00    0.00    2.04    1.78    0.00   96.18

Device:         rrqm/s   wrqm/s     r/s     w/s    rkB/s    wkB/s avgrq-sz avgqu-sz   await r_await w_await  svctm  %util
sda              28.00     0.00 1131.00    0.00 22964.00     0.00    40.61     0.19    0.17    0.17    0.00   0.15  16.90
sdb              28.00     0.00 1092.00    0.00 22868.00     0.00    41.88     0.19    0.17    0.17    0.00   0.16  17.10
sdc              28.00     0.00 1148.00    0.00 23616.00     0.00    41.14     0.25    0.22    0.22    0.00   0.19  21.40
sdd              27.00     0.00 1117.00    0.00 23428.00     0.00    41.95     0.26    0.23    0.23    0.00   0.19  20.90
sde              29.00     0.00 1074.00    0.00 24136.00     0.00    44.95     0.26    0.24    0.24    0.00   0.19  20.50
sdf              26.00     0.00 1109.00    0.00 22592.00     0.00    40.74     0.25    0.23    0.23    0.00   0.19  20.70
sdg               0.00     0.00    0.00    0.00     0.00     0.00     0.00     0.00    0.00    0.00    0.00   0.00   0.00
sdh               0.00     0.00    0.00    0.00     0.00     0.00     0.00     0.00    0.00    0.00    0.00   0.00   0.00
md0               0.00     0.00 6838.00    0.00 183496.00     0.00    53.67     0.00    0.00    0.00    0.00   0.00   0.00

avg-cpu:  %user   %nice %system %iowait  %steal   %idle
           0.00    0.00    2.29    1.27    0.00   96.44

Device:         rrqm/s   wrqm/s     r/s     w/s    rkB/s    wkB/s avgrq-sz avgqu-sz   await r_await w_await  svctm  %util
sda              16.00     0.00 1129.00    0.00 17640.00     0.00    31.25     0.16    0.14    0.14    0.00   0.14  15.60
sdb              16.00     0.00 1144.00    0.00 17996.00     0.00    31.46     0.16    0.14    0.14    0.00   0.14  15.90
sdc              14.00     0.00 1206.00    0.00 16616.00     0.00    27.56     0.20    0.16    0.16    0.00   0.15  18.40
sdd              11.00     0.00 1204.00    0.00 16144.00     0.00    26.82     0.19    0.16    0.16    0.00   0.15  18.10
sde              14.00     0.00 1157.00    0.00 17416.00     0.00    30.11     0.19    0.16    0.16    0.00   0.16  18.30
sdf              15.00     0.00 1080.00    0.00 16312.00     0.00    30.21     0.18    0.17    0.17    0.00   0.16  17.70
sdg               0.00     0.00    0.00    0.00     0.00     0.00     0.00     0.00    0.00    0.00    0.00   0.00   0.00
sdh               0.00     0.00    0.00    0.00     0.00     0.00     0.00     0.00    0.00    0.00    0.00   0.00   0.00
md0               0.00     0.00 7003.00    0.00 127792.00     0.00    36.50     0.00    0.00    0.00    0.00   0.00   0.00

avg-cpu:  %user   %nice %system %iowait  %steal   %idle
           0.25    0.00    2.78   11.36    0.00   85.61

Device:         rrqm/s   wrqm/s     r/s     w/s    rkB/s    wkB/s avgrq-sz avgqu-sz   await r_await w_await  svctm  %util
sda              15.00     0.00 1127.00    0.00 17060.00     0.00    30.28     0.16    0.15    0.15    0.00   0.14  16.10
sdb              18.00     0.00 1078.00    0.00 17744.00     0.00    32.92     0.16    0.15    0.15    0.00   0.15  15.80
sdc              16.00     0.00 1093.00    0.00 17048.00     0.00    31.19     0.19    0.17    0.17    0.00   0.16  17.80
sdd              15.00     0.00 1153.00    0.00 16720.00     0.00    29.00     0.20    0.18    0.18    0.00   0.17  19.60
sde              16.00     0.00 1144.00    0.00 18436.00     0.00    32.23     0.19    0.17    0.17    0.00   0.16  18.50
sdf              16.00     0.00 1137.00    0.00 18216.00     0.00    32.04     0.20    0.17    0.17    0.00   0.17  19.00
sdg               0.00     0.00    0.00    0.00     0.00     0.00     0.00     0.00    0.00    0.00    0.00   0.00   0.00
sdh               0.00     0.00    0.00    0.00     0.00     0.00     0.00     0.00    0.00    0.00    0.00   0.00   0.00
md0               0.00     0.00 6830.00    0.00 130124.00     0.00    38.10     0.00    0.00    0.00    0.00   0.00   0.00

avg-cpu:  %user   %nice %system %iowait  %steal   %idle
           0.00    0.00    3.26   17.29    0.00   79.45

Device:         rrqm/s   wrqm/s     r/s     w/s    rkB/s    wkB/s avgrq-sz avgqu-sz   await r_await w_await  svctm  %util
sda              25.00     0.00 1087.00    0.00 22712.00     0.00    41.79     0.18    0.16    0.16    0.00   0.16  17.50
sdb              27.00     0.00 1023.00    0.00 24692.00     0.00    48.27     0.17    0.16    0.16    0.00   0.16  16.00
sdc              24.00     0.00 1096.00    0.00 21472.00     0.00    39.18     0.21    0.19    0.19    0.00   0.18  20.10
sdd              27.00     0.00 1121.00    0.00 20716.00     0.00    36.96     0.21    0.18    0.18    0.00   0.18  20.30
sde              25.00     0.00 1089.00    0.00 20532.00     0.00    37.71     0.22    0.20    0.20    0.00   0.19  20.30
sdf              24.00     0.00 1101.00    0.00 21612.00     0.00    39.26     0.22    0.19    0.19    0.00   0.18  19.70
sdg               0.00     0.00    0.00    0.00     0.00     0.00     0.00     0.00    0.00    0.00    0.00   0.00   0.00
sdh               0.00     0.00    0.00    0.00     0.00     0.00     0.00     0.00    0.00    0.00    0.00   0.00   0.00
md0               0.00     0.00 6682.00    0.00 190908.00     0.00    57.14     0.00    0.00    0.00    0.00   0.00   0.00

avg-cpu:  %user   %nice %system %iowait  %steal   %idle
           0.00    0.00    2.54   10.41    0.00   87.06

Device:         rrqm/s   wrqm/s     r/s     w/s    rkB/s    wkB/s avgrq-sz avgqu-sz   await r_await w_await  svctm  %util
sda              19.00     0.00 1189.00    0.00 20164.00     0.00    33.92     0.19    0.16    0.16    0.00   0.14  16.80
sdb              20.00     0.00 1118.00    0.00 20468.00     0.00    36.62     0.17    0.15    0.15    0.00   0.14  15.70
sdc              20.00     0.00 1203.00    0.00 20000.00     0.00    33.25     0.24    0.20    0.20    0.00   0.18  21.70
sdd              20.00     0.00 1143.00    0.00 20816.00     0.00    36.42     0.23    0.21    0.21    0.00   0.18  20.50
sde              22.00     0.00 1217.00    0.00 21376.00     0.00    35.13     0.26    0.22    0.22    0.00   0.17  21.20
sdf              23.00     0.00 1052.00    0.00 21368.00     0.00    40.62     0.23    0.22    0.22    0.00   0.18  18.90
sdg               0.00     0.00    0.00    0.00     0.00     0.00     0.00     0.00    0.00    0.00    0.00   0.00   0.00
sdh               0.00     0.00    0.00    0.00     0.00     0.00     0.00     0.00    0.00    0.00    0.00   0.00   0.00
md0               0.00     0.00 7033.00    0.00 144992.00     0.00    41.23     0.00    0.00    0.00    0.00   0.00   0.00

avg-cpu:  %user   %nice %system %iowait  %steal   %idle
           0.00    0.00    2.54   21.32    0.00   76.14

Device:         rrqm/s   wrqm/s     r/s     w/s    rkB/s    wkB/s avgrq-sz avgqu-sz   await r_await w_await  svctm  %util
sda              29.00     0.00 1088.00    0.00 23932.00     0.00    43.99     0.18    0.17    0.17    0.00   0.16  17.00
sdb              30.00     0.00 1087.00    0.00 24528.00     0.00    45.13     0.20    0.18    0.18    0.00   0.16  17.20
sdc              34.00     0.00 1022.00    0.00 25552.00     0.00    50.00     0.25    0.25    0.25    0.00   0.21  21.60
sdd              28.00     0.00 1082.00    0.00 24476.00     0.00    45.24     0.26    0.24    0.24    0.00   0.20  21.70
sde              25.00     0.00 1068.00    0.00 23996.00     0.00    44.94     0.25    0.23    0.23    0.00   0.20  21.40
sdf              29.00     0.00 1105.00    0.00 23988.00     0.00    43.42     0.25    0.23    0.23    0.00   0.20  22.30
sdg               0.00     0.00    0.00    0.00     0.00     0.00     0.00     0.00    0.00    0.00    0.00   0.00   0.00
sdh               0.00     0.00    0.00    0.00     0.00     0.00     0.00     0.00    0.00    0.00    0.00   0.00   0.00
md0               0.00     0.00 6627.00    0.00 194784.00     0.00    58.78     0.00    0.00    0.00    0.00   0.00   0.00

avg-cpu:  %user   %nice %system %iowait  %steal   %idle
           0.25    0.00    2.53   19.49    0.00   77.72

Device:         rrqm/s   wrqm/s     r/s     w/s    rkB/s    wkB/s avgrq-sz avgqu-sz   await r_await w_await  svctm  %util
sda              39.00     0.00 1117.00    0.00 30176.00     0.00    54.03     0.23    0.21    0.21    0.00   0.17  19.30
sdb              39.00     0.00 1102.00    0.00 30048.00     0.00    54.53     0.24    0.22    0.22    0.00   0.18  20.00
sdc              41.00     0.00 1051.00    0.00 28896.00     0.00    54.99     0.32    0.31    0.31    0.00   0.23  23.80
sdd              42.00     0.00 1039.00    0.00 30392.00     0.00    58.50     0.31    0.30    0.30    0.00   0.22  23.00
sde              41.00     0.00 1044.00    0.00 28896.00     0.00    55.36     0.33    0.31    0.31    0.00   0.23  23.90
sdf              40.00     0.00 1063.00    0.00 28848.00     0.00    54.28     0.32    0.30    0.30    0.00   0.23  24.10
sdg               0.00     0.00    0.00    0.00     0.00     0.00     0.00     0.00    0.00    0.00    0.00   0.00   0.00
sdh               0.00     0.00    0.00    0.00     0.00     0.00     0.00     0.00    0.00    0.00    0.00   0.00   0.00
md0               0.00     0.00 6657.00    0.00 253008.00     0.00    76.01     0.00    0.00    0.00    0.00   0.00   0.00

avg-cpu:  %user   %nice %system %iowait  %steal   %idle
           0.00    0.25    2.78    6.58    0.00   90.38

Device:         rrqm/s   wrqm/s     r/s     w/s    rkB/s    wkB/s avgrq-sz avgqu-sz   await r_await w_await  svctm  %util
sda              20.00     0.00 1166.00    0.00 20232.00     0.00    34.70     0.18    0.16    0.16    0.00   0.14  16.60
sdb              20.00     0.00 1152.00    0.00 20680.00     0.00    35.90     0.18    0.15    0.15    0.00   0.14  16.70
sdc              23.00     0.00 1106.00    0.00 21232.00     0.00    38.39     0.21    0.19    0.19    0.00   0.17  19.00
sdd              27.00     0.00 1132.00    0.00 21644.00     0.00    38.24     0.23    0.21    0.21    0.00   0.19  21.10
sde              27.00     0.00 1017.00    0.00 22404.00     0.00    44.06     0.23    0.23    0.23    0.00   0.20  20.70
sdf              24.00     0.00 1105.00    0.00 21424.00     0.00    38.78     0.22    0.20    0.20    0.00   0.17  19.00
sdg               0.00     0.00    2.00    0.00     8.00     0.00     8.00     0.00    0.00    0.00    0.00   0.00   0.00
sdh               0.00     0.00    0.00    0.00     0.00     0.00     0.00     0.00    0.00    0.00    0.00   0.00   0.00
md0               0.00     0.00 6819.00    0.00 169820.00     0.00    49.81     0.00    0.00    0.00    0.00   0.00   0.00

avg-cpu:  %user   %nice %system %iowait  %steal   %idle
           0.00    0.00    2.29    1.27    0.00   96.44

Device:         rrqm/s   wrqm/s     r/s     w/s    rkB/s    wkB/s avgrq-sz avgqu-sz   await r_await w_await  svctm  %util
sda              19.00     0.00 1121.00    0.00 18924.00     0.00    33.76     0.16    0.14    0.14    0.00   0.14  15.40
sdb              26.00     0.00 1026.00    0.00 23748.00     0.00    46.29     0.17    0.16    0.16    0.00   0.15  15.90
sdc              27.00     0.00 1079.00    0.00 21780.00     0.00    40.37     0.22    0.20    0.20    0.00   0.18  19.60
sdd              22.00     0.00 1146.00    0.00 19548.00     0.00    34.12     0.22    0.19    0.19    0.00   0.17  19.30
sde              20.00     0.00 1145.00    0.00 20664.00     0.00    36.09     0.22    0.19    0.19    0.00   0.17  19.90
sdf              19.00     0.00 1130.00    0.00 20208.00     0.00    35.77     0.21    0.19    0.19    0.00   0.17  19.50
sdg               0.00     0.00    0.00    0.00     0.00     0.00     0.00     0.00    0.00    0.00    0.00   0.00   0.00
sdh               0.00     0.00    0.00    0.00     0.00     0.00     0.00     0.00    0.00    0.00    0.00   0.00   0.00
md0               0.00     0.00 6780.00    0.00 158508.00     0.00    46.76     0.00    0.00    0.00    0.00   0.00   0.00

avg-cpu:  %user   %nice %system %iowait  %steal   %idle
           0.00    0.00    2.30    1.02    0.00   96.68

Device:         rrqm/s   wrqm/s     r/s     w/s    rkB/s    wkB/s avgrq-sz avgqu-sz   await r_await w_await  svctm  %util
sda              24.00     0.00 1109.00    0.00 19960.00     0.00    36.00     0.17    0.16    0.16    0.00   0.15  16.30
sdb              21.00     0.00 1167.00    0.00 20816.00     0.00    35.67     0.18    0.15    0.15    0.00   0.15  17.10
sdc              21.00     0.00 1077.00    0.00 21732.00     0.00    40.36     0.21    0.19    0.19    0.00   0.18  19.90
sdd              28.00     0.00 1039.00    0.00 23352.00     0.00    44.95     0.22    0.21    0.21    0.00   0.19  20.00
sde              24.00     0.00 1066.00    0.00 22452.00     0.00    42.12     0.22    0.21    0.21    0.00   0.19  19.90
sdf              26.00     0.00 1138.00    0.00 20728.00     0.00    36.43     0.22    0.19    0.19    0.00   0.18  20.10
sdg               0.00     0.00    0.00    0.00     0.00     0.00     0.00     0.00    0.00    0.00    0.00   0.00   0.00
sdh               0.00     0.00    0.00    0.00     0.00     0.00     0.00     0.00    0.00    0.00    0.00   0.00   0.00
md0               0.00     0.00 6740.00    0.00 169800.00     0.00    50.39     0.00    0.00    0.00    0.00   0.00   0.00

avg-cpu:  %user   %nice %system %iowait  %steal   %idle
           0.25    0.00    2.53    1.26    0.00   95.96

Device:         rrqm/s   wrqm/s     r/s     w/s    rkB/s    wkB/s avgrq-sz avgqu-sz   await r_await w_await  svctm  %util
sda              34.00     0.00 1063.00    0.00 28448.00     0.00    53.52     0.22    0.21    0.21    0.00   0.17  17.70
sdb              35.00     0.00 1096.00    0.00 25908.00     0.00    47.28     0.21    0.19    0.19    0.00   0.16  18.00
sdc              39.00     0.00 1018.00    0.00 28892.00     0.00    56.76     0.29    0.29    0.29    0.00   0.22  22.80
sdd              42.00     0.00 1041.00    0.00 30272.00     0.00    58.16     0.30    0.29    0.29    0.00   0.22  23.20
sde              40.00     0.00 1030.00    0.00 28872.00     0.00    56.06     0.31    0.30    0.30    0.00   0.21  22.10
sdf              40.00     0.00 1091.00    0.00 28028.00     0.00    51.38     0.31    0.29    0.29    0.00   0.21  22.70
sdg               0.00     0.00    0.00    0.00     0.00     0.00     0.00     0.00    0.00    0.00    0.00   0.00   0.00
sdh               0.00     0.00    0.00    0.00     0.00     0.00     0.00     0.00    0.00    0.00    0.00   0.00   0.00
md0               0.00     0.00 6569.00    0.00 221052.00     0.00    67.30     0.00    0.00    0.00    0.00   0.00   0.00

avg-cpu:  %user   %nice %system %iowait  %steal   %idle
           0.00    0.00    2.54    1.27    0.00   96.19

Device:         rrqm/s   wrqm/s     r/s     w/s    rkB/s    wkB/s avgrq-sz avgqu-sz   await r_await w_await  svctm  %util
sda              22.00     0.00 1129.00    0.00 21176.00     0.00    37.51     0.18    0.16    0.16    0.00   0.15  16.50
sdb              18.00     0.00 1116.00    0.00 19684.00     0.00    35.28     0.17    0.15    0.15    0.00   0.14  15.60
sdc              15.00     0.00 1136.00    0.00 18104.00     0.00    31.87     0.20    0.18    0.18    0.00   0.17  19.00
sdd              16.00     0.00 1186.00    0.00 18236.00     0.00    30.75     0.21    0.18    0.18    0.00   0.18  21.00
sde              18.00     0.00 1102.00    0.00 18284.00     0.00    33.18     0.19    0.17    0.17    0.00   0.17  18.50
sdf              22.00     0.00 1078.00    0.00 19624.00     0.00    36.41     0.20    0.19    0.19    0.00   0.17  18.70
sdg               0.00     0.00    0.00    0.00     0.00     0.00     0.00     0.00    0.00    0.00    0.00   0.00   0.00
sdh               0.00     0.00    0.00    0.00     0.00     0.00     0.00     0.00    0.00    0.00    0.00   0.00   0.00
md0               0.00     0.00 6858.00    0.00 153320.00     0.00    44.71     0.00    0.00    0.00    0.00   0.00   0.00

avg-cpu:  %user   %nice %system %iowait  %steal   %idle
           0.00    0.00    2.55    1.02    0.00   96.43

Device:         rrqm/s   wrqm/s     r/s     w/s    rkB/s    wkB/s avgrq-sz avgqu-sz   await r_await w_await  svctm  %util
sda              30.00     0.00 1001.00    0.00 25492.00     0.00    50.93     0.19    0.19    0.19    0.00   0.17  16.70
sdb              31.00     0.00 1050.00    0.00 23508.00     0.00    44.78     0.18    0.17    0.17    0.00   0.15  15.70
sdc              29.00     0.00 1108.00    0.00 22336.00     0.00    40.32     0.25    0.23    0.23    0.00   0.18  20.30
sdd              28.00     0.00 1087.00    0.00 22876.00     0.00    42.09     0.26    0.24    0.24    0.00   0.19  20.90
sde              26.00     0.00 1121.00    0.00 22904.00     0.00    40.86     0.26    0.23    0.23    0.00   0.19  21.20
sdf              30.00     0.00 1087.00    0.00 24008.00     0.00    44.17     0.27    0.25    0.25    0.00   0.20  21.60
sdg               0.00     0.00    0.00    0.00     0.00     0.00     0.00     0.00    0.00    0.00    0.00   0.00   0.00
sdh               0.00     0.00    0.00    0.00     0.00     0.00     0.00     0.00    0.00    0.00    0.00   0.00   0.00
md0               0.00     0.00 6629.00    0.00 193612.00     0.00    58.41     0.00    0.00    0.00    0.00   0.00   0.00

avg-cpu:  %user   %nice %system %iowait  %steal   %idle
           0.00    0.00    2.53    1.52    0.00   95.95

Device:         rrqm/s   wrqm/s     r/s     w/s    rkB/s    wkB/s avgrq-sz avgqu-sz   await r_await w_await  svctm  %util
sda              32.00     0.00 1089.00    0.00 25120.00     0.00    46.13     0.18    0.17    0.17    0.00   0.15  16.80
sdb              32.00     0.00 1088.00    0.00 25696.00     0.00    47.24     0.19    0.18    0.18    0.00   0.16  17.60
sdc              34.00     0.00 1054.00    0.00 25776.00     0.00    48.91     0.27    0.25    0.25    0.00   0.20  21.00
sdd              33.00     0.00 1091.00    0.00 24892.00     0.00    45.63     0.28    0.25    0.25    0.00   0.20  21.90
sde              30.00     0.00 1071.00    0.00 24768.00     0.00    46.25     0.26    0.24    0.24    0.00   0.19  20.10
sdf              29.00     0.00 1105.00    0.00 25616.00     0.00    46.36     0.26    0.24    0.24    0.00   0.20  22.00
sdg               0.00     0.00    0.00    0.00     0.00     0.00     0.00     0.00    0.00    0.00    0.00   0.00   0.00
sdh               0.00     0.00    0.00    0.00     0.00     0.00     0.00     0.00    0.00    0.00    0.00   0.00   0.00
md0               0.00     0.00 6688.00    0.00 215912.00     0.00    64.57     0.00    0.00    0.00    0.00   0.00   0.00

avg-cpu:  %user   %nice %system %iowait  %steal   %idle
           0.00    0.00    2.54    3.82    0.00   93.64

Device:         rrqm/s   wrqm/s     r/s     w/s    rkB/s    wkB/s avgrq-sz avgqu-sz   await r_await w_await  svctm  %util
sda              15.00     0.00 1149.00    0.00 19064.00     0.00    33.18     0.17    0.15    0.15    0.00   0.14  15.80
sdb              17.00     0.00 1207.00    0.00 18388.00     0.00    30.47     0.18    0.15    0.15    0.00   0.14  17.30
sdc              18.00     0.00 1112.00    0.00 18352.00     0.00    33.01     0.19    0.17    0.17    0.00   0.17  18.90
sdd              17.00     0.00 1091.00    0.00 16868.00     0.00    30.92     0.18    0.17    0.17    0.00   0.16  17.50
sde              18.00     0.00 1178.00    0.00 18568.00     0.00    31.52     0.21    0.18    0.18    0.00   0.17  19.70
sdf              17.00     0.00 1112.00    0.00 18456.00     0.00    33.19     0.21    0.19    0.19    0.00   0.16  18.10
sdg               0.00     0.00    1.00    9.00    16.00   176.00    38.40     0.01    0.70    0.00    0.78   0.10   0.10
sdh               0.00     0.00    0.00    0.00     0.00     0.00     0.00     0.00    0.00    0.00    0.00   0.00   0.00
md0               0.00     0.00 6951.00    0.00 142792.00     0.00    41.09     0.00    0.00    0.00    0.00   0.00   0.00

avg-cpu:  %user   %nice %system %iowait  %steal   %idle
           0.00    0.00    2.78    1.26    0.00   95.96

Device:         rrqm/s   wrqm/s     r/s     w/s    rkB/s    wkB/s avgrq-sz avgqu-sz   await r_await w_await  svctm  %util
sda              27.00     0.00 1041.00    0.00 24872.00     0.00    47.78     0.19    0.18    0.18    0.00   0.16  16.50
sdb              28.00     0.00 1095.00    0.00 23700.00     0.00    43.29     0.21    0.19    0.19    0.00   0.16  17.40
sdc              27.00     0.00 1118.00    0.00 22048.00     0.00    39.44     0.24    0.21    0.21    0.00   0.18  19.90
sdd              26.00     0.00 1083.00    0.00 22228.00     0.00    41.05     0.24    0.22    0.22    0.00   0.19  20.10
sde              26.00     0.00 1145.00    0.00 22744.00     0.00    39.73     0.24    0.21    0.21    0.00   0.18  20.30
sdf              23.00     0.00 1113.00    0.00 23532.00     0.00    42.29     0.26    0.23    0.23    0.00   0.19  21.10
sdg               0.00     0.00    0.00    0.00     0.00     0.00     0.00     0.00    0.00    0.00    0.00   0.00   0.00
sdh               0.00     0.00    0.00    0.00     0.00     0.00     0.00     0.00    0.00    0.00    0.00   0.00   0.00
md0               0.00     0.00 6753.00    0.00 180792.00     0.00    53.54     0.00    0.00    0.00    0.00   0.00   0.00

avg-cpu:  %user   %nice %system %iowait  %steal   %idle
           0.25    0.00    2.53    1.27    0.00   95.95

Device:         rrqm/s   wrqm/s     r/s     w/s    rkB/s    wkB/s avgrq-sz avgqu-sz   await r_await w_await  svctm  %util
sda              24.00     0.00 1143.00    0.00 21724.00     0.00    38.01     0.18    0.16    0.16    0.00   0.15  16.70
sdb              22.00     0.00 1109.00    0.00 20684.00     0.00    37.30     0.17    0.15    0.15    0.00   0.14  15.40
sdc              26.00     0.00 1105.00    0.00 21032.00     0.00    38.07     0.24    0.22    0.22    0.00   0.19  20.90
sdd              22.00     0.00 1162.00    0.00 19868.00     0.00    34.20     0.24    0.21    0.21    0.00   0.17  20.00
sde              24.00     0.00 1145.00    0.00 21024.00     0.00    36.72     0.24    0.21    0.21    0.00   0.18  20.40
sdf              24.00     0.00 1159.00    0.00 20672.00     0.00    35.67     0.23    0.20    0.20    0.00   0.17  19.50
sdg               0.00     0.00    0.00    0.00     0.00     0.00     0.00     0.00    0.00    0.00    0.00   0.00   0.00
sdh               0.00     0.00    0.00    0.00     0.00     0.00     0.00     0.00    0.00    0.00    0.00   0.00   0.00
md0               0.00     0.00 6963.00    0.00 167036.00     0.00    47.98     0.00    0.00    0.00    0.00   0.00   0.00

avg-cpu:  %user   %nice %system %iowait  %steal   %idle
           0.00    0.00    3.07    3.32    0.00   93.61

Device:         rrqm/s   wrqm/s     r/s     w/s    rkB/s    wkB/s avgrq-sz avgqu-sz   await r_await w_await  svctm  %util
sda              15.00     0.00 1087.00    0.00 17416.00     0.00    32.04     0.16    0.15    0.15    0.00   0.14  15.40
sdb              18.00     0.00 1157.00    0.00 17804.00     0.00    30.78     0.16    0.14    0.14    0.00   0.14  15.70
sdc              19.00     0.00 1106.00    0.00 21164.00     0.00    38.27     0.20    0.18    0.18    0.00   0.17  19.20
sdd              17.00     0.00 1081.00    0.00 20164.00     0.00    37.31     0.20    0.19    0.19    0.00   0.17  18.90
sde              22.00     0.00 1098.00    0.00 19356.00     0.00    35.26     0.20    0.18    0.18    0.00   0.17  19.00
sdf              16.00     0.00 1122.00    0.00 18852.00     0.00    33.60     0.19    0.17    0.17    0.00   0.17  18.70
sdg               0.00    78.00 1343.00 2617.00  5416.00 12784.00     9.19    16.05    4.05    0.12    6.07   0.07  27.90
sdh               0.00     0.00    0.00    0.00     0.00     0.00     0.00     0.00    0.00    0.00    0.00   0.00   0.00
md0               0.00     0.00 6759.00    0.00 140304.00     0.00    41.52     0.00    0.00    0.00    0.00   0.00   0.00

avg-cpu:  %user   %nice %system %iowait  %steal   %idle
           0.00    0.00    2.54    1.27    0.00   96.19

Device:         rrqm/s   wrqm/s     r/s     w/s    rkB/s    wkB/s avgrq-sz avgqu-sz   await r_await w_await  svctm  %util
sda              35.00     0.00 1028.00    0.00 26404.00     0.00    51.37     0.20    0.19    0.19    0.00   0.17  17.90
sdb              32.00     0.00 1076.00    0.00 23840.00     0.00    44.31     0.19    0.17    0.17    0.00   0.16  16.90
sdc              31.00     0.00 1106.00    0.00 24756.00     0.00    44.77     0.25    0.22    0.22    0.00   0.20  21.90
sdd              30.00     0.00 1064.00    0.00 24284.00     0.00    45.65     0.25    0.23    0.23    0.00   0.20  21.10
sde              32.00     0.00 1075.00    0.00 25408.00     0.00    47.27     0.26    0.24    0.24    0.00   0.21  22.80
sdf              34.00     0.00 1039.00    0.00 26512.00     0.00    51.03     0.24    0.23    0.23    0.00   0.21  21.50
sdg               0.00     0.00    0.00    0.00     0.00     0.00     0.00     0.00    0.00    0.00    0.00   0.00   0.00
sdh               0.00     0.00    0.00    0.00     0.00     0.00     0.00     0.00    0.00    0.00    0.00   0.00   0.00
md0               0.00     0.00 6582.00    0.00 209196.00     0.00    63.57     0.00    0.00    0.00    0.00   0.00   0.00

