Linux 4.17.2 (bench) 	08/03/2018 	_x86_64_	(4 CPU)

avg-cpu:  %user   %nice %system %iowait  %steal   %idle
          10.29    0.02    4.02    2.49    0.00   83.19

Device:         rrqm/s   wrqm/s     r/s     w/s    rkB/s    wkB/s avgrq-sz avgqu-sz   await r_await w_await  svctm  %util
sda              41.74     4.26 1625.06  103.15 20770.23  3147.72    27.68     1.03    0.59    0.26    5.91   0.06  10.60
sdb              41.63     4.22 1624.95  103.29 20759.65  3144.36    27.66     1.03    0.59    0.26    5.85   0.06  10.48
sdc              79.64     4.28 1584.86  102.84 20751.83  3146.84    28.32     1.45    0.86    0.45    7.12   0.08  13.92
sdd              73.00     4.25 1590.66  102.91 20736.58  3143.01    28.20     1.45    0.86    0.44    7.32   0.08  14.01
sde              75.07     4.29 1595.77  103.00 20796.93  3147.28    28.19     1.47    0.87    0.44    7.43   0.08  14.03
sdf              72.16     4.27 1597.94  102.95 20777.99  3144.13    28.13     1.52    0.89    0.44    7.90   0.08  14.06
sdg               0.00     3.18   26.06   73.33   322.96   391.99    14.39     0.44    4.43    0.20    5.93   0.08   0.78
sdh               0.00     0.13    0.02    0.24     2.22     5.09    56.82     0.00    1.15    0.65    1.19   0.21   0.01
md0               0.00     0.00 10008.86  483.23 142245.59 21553.11    31.22     0.00    0.00    0.00    0.00   0.00   0.00

avg-cpu:  %user   %nice %system %iowait  %steal   %idle
           7.00    0.00   23.32    0.00    0.00   69.68

Device:         rrqm/s   wrqm/s     r/s     w/s    rkB/s    wkB/s avgrq-sz avgqu-sz   await r_await w_await  svctm  %util
sda               0.00     0.00 27437.00    0.00 109748.00     0.00     8.00     4.09    0.15    0.15    0.00   0.03  68.80
sdb               0.00     0.00 27451.00    0.00 109804.00     0.00     8.00     4.04    0.15    0.15    0.00   0.03  69.00
sdc               0.00     0.00 27501.00    0.00 110004.00     0.00     8.00     5.83    0.21    0.21    0.00   0.03  70.90
sdd               0.00     0.00 27330.00    0.00 109320.00     0.00     8.00     6.01    0.22    0.22    0.00   0.03  70.20
sde               0.00     0.00 27386.00    0.00 109544.00     0.00     8.00     6.00    0.22    0.22    0.00   0.03  70.50
sdf               0.00     0.00 27169.00    0.00 108676.00     0.00     8.00     5.89    0.22    0.22    0.00   0.03  70.80
sdg               0.00    19.00   21.00   77.00   336.00  1340.00    34.20     0.17    1.69    0.24    2.09   0.10   1.00
sdh               0.00     0.00    0.00    0.00     0.00     0.00     0.00     0.00    0.00    0.00    0.00   0.00   0.00
md0               0.00     0.00 164147.00    0.00 656588.00     0.00     8.00     0.00    0.00    0.00    0.00   0.00   0.00

avg-cpu:  %user   %nice %system %iowait  %steal   %idle
           6.53    0.00   23.15    0.00    0.00   70.33

Device:         rrqm/s   wrqm/s     r/s     w/s    rkB/s    wkB/s avgrq-sz avgqu-sz   await r_await w_await  svctm  %util
sda               0.00     0.00 26610.00    0.00 106440.00     0.00     8.00     3.88    0.15    0.15    0.00   0.03  69.00
sdb               0.00     0.00 26720.00    0.00 106880.00     0.00     8.00     3.92    0.15    0.15    0.00   0.03  68.80
sdc               0.00     0.00 26641.00    0.00 106564.00     0.00     8.00     5.50    0.21    0.21    0.00   0.03  70.40
sdd               0.00     0.00 27071.00    0.00 108284.00     0.00     8.00     5.73    0.21    0.21    0.00   0.03  71.10
sde               0.00     0.00 26733.00    0.00 106932.00     0.00     8.00     5.64    0.21    0.21    0.00   0.03  70.40
sdf               0.00     0.00 26899.00    0.00 107596.00     0.00     8.00     5.86    0.22    0.22    0.00   0.03  70.20
sdg               0.00   187.00    0.00 2558.00     0.00 12652.00     9.89    15.53    6.07    0.00    6.07   0.04  11.30
sdh               0.00     0.00    0.00    0.00     0.00     0.00     0.00     0.00    0.00    0.00    0.00   0.00   0.00
md0               0.00     0.00 160682.00    0.00 642728.00     0.00     8.00     0.00    0.00    0.00    0.00   0.00   0.00

