Linux 4.17.2 (bench) 	08/03/2018 	_x86_64_	(4 CPU)

avg-cpu:  %user   %nice %system %iowait  %steal   %idle
          10.29    0.02    4.00    2.47    0.00   83.22

Device:         rrqm/s   wrqm/s     r/s     w/s    rkB/s    wkB/s avgrq-sz avgqu-sz   await r_await w_await  svctm  %util
sda              41.51     4.27 1613.78  103.42 20676.38  3156.11    27.76     1.03    0.60    0.26    5.91   0.06  10.54
sdb              41.41     4.23 1613.67  103.56 20665.80  3152.75    27.74     1.03    0.60    0.26    5.85   0.06  10.42
sdc              79.51     4.29 1573.48  103.11 20658.02  3155.23    28.41     1.44    0.86    0.45    7.12   0.08  13.85
sdd              72.86     4.26 1579.29  103.18 20642.69  3151.39    28.28     1.45    0.86    0.44    7.32   0.08  13.94
sde              74.93     4.31 1584.42  103.28 20703.28  3155.68    28.27     1.47    0.87    0.44    7.43   0.08  13.96
sdf              72.02     4.28 1586.60  103.22 20684.29  3152.51    28.21     1.52    0.90    0.44    7.90   0.08  14.00
sdg               0.00     3.18   25.94   73.34   322.47   391.96    14.39     0.44    4.43    0.20    5.93   0.08   0.77
sdh               0.00     0.13    0.02    0.24     2.23     5.11    56.82     0.00    1.15    0.65    1.19   0.21   0.01
md0               0.00     0.00 9939.69  484.52 141526.34 21610.59    31.30     0.00    0.00    0.00    0.00   0.00   0.00

avg-cpu:  %user   %nice %system %iowait  %steal   %idle
           0.25    0.00    2.03   21.57    0.00   76.14

Device:         rrqm/s   wrqm/s     r/s     w/s    rkB/s    wkB/s avgrq-sz avgqu-sz   await r_await w_await  svctm  %util
sda               0.00     0.00 1446.00    0.00  5784.00     0.00     8.00     0.16    0.11    0.11    0.00   0.11  15.80
sdb               0.00     0.00 1413.00    0.00  5652.00     0.00     8.00     0.16    0.11    0.11    0.00   0.11  16.20
sdc               0.00     0.00 1476.00    0.00  5904.00     0.00     8.00     0.16    0.11    0.11    0.00   0.11  16.40
sdd               0.00     0.00 1443.00    0.00  5772.00     0.00     8.00     0.15    0.10    0.10    0.00   0.10  14.70
sde               0.00     0.00 1382.00    0.00  5528.00     0.00     8.00     0.15    0.11    0.11    0.00   0.11  15.40
sdf               0.00     0.00 1438.00    0.00  5752.00     0.00     8.00     0.17    0.12    0.12    0.00   0.12  16.90
sdg               0.00    19.00   17.00   84.00   272.00  1312.00    31.37     0.23    2.26    0.24    2.67   0.12   1.20
sdh               0.00     0.00    0.00    0.00     0.00     0.00     0.00     0.00    0.00    0.00    0.00   0.00   0.00
md0               0.00     0.00 8595.00    0.00 34380.00     0.00     8.00     0.00    0.00    0.00    0.00   0.00   0.00

