Linux 4.17.2 (bench) 	08/03/2018 	_x86_64_	(4 CPU)

avg-cpu:  %user   %nice %system %iowait  %steal   %idle
          10.29    0.02    4.02    2.49    0.00   83.18

Device:         rrqm/s   wrqm/s     r/s     w/s    rkB/s    wkB/s avgrq-sz avgqu-sz   await r_await w_await  svctm  %util
sda              42.22     4.26 1628.00  103.11 20790.83  3146.54    27.66     1.03    0.59    0.26    5.91   0.06  10.61
sdb              42.12     4.22 1627.88  103.25 20780.21  3143.19    27.64     1.03    0.59    0.26    5.85   0.06  10.49
sdc              80.15     4.28 1587.76  102.80 20772.38  3145.66    28.30     1.45    0.86    0.45    7.12   0.08  13.93
sdd              73.52     4.25 1593.56  102.87 20757.16  3141.84    28.18     1.45    0.86    0.44    7.32   0.08  14.02
sde              75.59     4.29 1598.66  102.97 20817.46  3146.11    28.17     1.47    0.87    0.44    7.43   0.08  14.04
sdf              72.68     4.26 1600.83  102.91 20798.55  3142.95    28.10     1.52    0.89    0.44    7.90   0.08  14.08
sdg               0.00     3.18   26.07   73.33   323.05   392.00    14.39     0.44    4.43    0.20    5.93   0.08   0.78
sdh               0.00     0.13    0.02    0.24     2.22     5.09    56.82     0.00    1.15    0.65    1.19   0.21   0.01
md0               0.00     0.00 10029.41  483.05 142381.77 21545.07    31.19     0.00    0.00    0.00    0.00   0.00   0.00

avg-cpu:  %user   %nice %system %iowait  %steal   %idle
           1.76    0.01   23.44    0.46    0.00   74.32

Device:         rrqm/s   wrqm/s     r/s     w/s    rkB/s    wkB/s avgrq-sz avgqu-sz   await r_await w_await  svctm  %util
sda               0.00     0.00 19649.65    0.00 78598.60     0.00     8.00     2.48    0.13    0.13    0.00   0.02  47.95
sdb               0.00     0.00 19624.30    0.00 78497.20     0.00     8.00     2.46    0.13    0.13    0.00   0.02  48.83
sdc               0.00     0.00 19641.40    0.00 78565.60     0.00     8.00     3.17    0.16    0.16    0.00   0.03  57.00
sdd               0.00     0.00 19709.90    0.00 78839.60     0.00     8.00     3.24    0.16    0.16    0.00   0.03  56.20
sde               0.45     0.00 19662.90    0.00 78653.40     0.00     8.00     3.61    0.18    0.18    0.00   0.03  59.84
sdf               0.00     0.00 19641.85    0.00 78567.40     0.00     8.00     3.25    0.17    0.17    0.00   0.03  55.84
sdg               0.00     0.20   93.15   72.40   379.40   382.80     9.21     0.44    2.64    0.12    5.88   0.09   1.43
sdh               0.00     0.00    0.00    0.00     0.00     0.00     0.00     0.00    0.00    0.00    0.00   0.00   0.00
md0               0.00     0.00 117932.10    0.00 471728.40     0.00     8.00     0.00    0.00    0.00    0.00   0.00   0.00

