Linux 4.17.2 (bench) 	08/03/2018 	_x86_64_	(4 CPU)

avg-cpu:  %user   %nice %system %iowait  %steal   %idle
          10.28    0.02    4.03    2.50    0.00   83.16

Device:         rrqm/s   wrqm/s     r/s     w/s    rkB/s    wkB/s avgrq-sz avgqu-sz   await r_await w_await  svctm  %util
sda              43.17     4.26 1631.94  103.02 20818.32  3143.76    27.62     1.03    0.59    0.26    5.91   0.06  10.63
sdb              43.04     4.22 1631.85  103.16 20807.70  3140.41    27.61     1.03    0.59    0.26    5.85   0.06  10.51
sdc              81.11     4.28 1591.69  102.71 20799.86  3142.88    28.26     1.45    0.85    0.45    7.12   0.08  13.95
sdd              74.49     4.24 1597.48  102.78 20784.66  3139.06    28.14     1.46    0.86    0.44    7.32   0.08  14.04
sde              76.54     4.29 1602.59  102.87 20844.88  3143.33    28.13     1.48    0.87    0.44    7.43   0.08  14.07
sdf              73.64     4.26 1604.75  102.82 20826.00  3140.17    28.07     1.52    0.89    0.44    7.90   0.08  14.10
sdg               0.00     3.18   26.11   73.33   323.24   392.00    14.39     0.44    4.43    0.20    5.93   0.08   0.78
sdh               0.00     0.13    0.02    0.24     2.22     5.09    56.82     0.00    1.15    0.65    1.19   0.21   0.01
md0               0.00     0.00 10058.82  482.62 142577.39 21526.02    31.13     0.00    0.00    0.00    0.00   0.00   0.00

avg-cpu:  %user   %nice %system %iowait  %steal   %idle
          24.27    0.03    2.28    2.18    0.00   71.25

Device:         rrqm/s   wrqm/s     r/s     w/s    rkB/s    wkB/s avgrq-sz avgqu-sz   await r_await w_await  svctm  %util
sda               0.00     0.00 1572.65    0.00  6290.60     0.00     8.00     0.15    0.10    0.10    0.00   0.10  14.96
sdb               0.00     0.00 1567.05    0.00  6268.20     0.00     8.00     0.15    0.09    0.09    0.00   0.09  14.64
sdc               0.00     0.00 1578.00    0.00  6312.00     0.00     8.00     0.16    0.10    0.10    0.00   0.10  15.98
sdd               0.00     0.00 1568.60    0.00  6274.40     0.00     8.00     0.16    0.11    0.11    0.00   0.10  16.47
sde               0.00     0.00 1569.55    0.00  6278.20     0.00     8.00     0.16    0.10    0.10    0.00   0.10  16.41
sdf               0.00     0.00 1555.00    0.00  6220.00     0.00     8.00     0.16    0.10    0.10    0.00   0.10  15.93
sdg               0.00     0.05   68.30  128.40   290.20   639.00     9.45     0.81    4.13    0.13    6.26   0.07   1.45
sdh               0.00     0.00    0.00    0.00     0.00     0.00     0.00     0.00    0.00    0.00    0.00   0.00   0.00
md0               0.00     0.00 9410.95    0.00 37643.80     0.00     8.00     0.00    0.00    0.00    0.00   0.00   0.00

