Linux 4.17.2 (bench) 	08/03/2018 	_x86_64_	(4 CPU)

avg-cpu:  %user   %nice %system %iowait  %steal   %idle
          10.29    0.02    4.02    2.49    0.00   83.18

Device:         rrqm/s   wrqm/s     r/s     w/s    rkB/s    wkB/s avgrq-sz avgqu-sz   await r_await w_await  svctm  %util
sda              41.76     4.26 1626.77  103.13 20776.11  3147.13    27.66     1.03    0.59    0.26    5.91   0.06  10.60
sdb              41.65     4.22 1626.66  103.27 20765.53  3143.77    27.64     1.03    0.59    0.26    5.85   0.06  10.48
sdc              79.66     4.28 1586.57  102.82 20757.71  3146.25    28.30     1.45    0.86    0.45    7.12   0.08  13.92
sdd              73.02     4.25 1592.37  102.89 20742.48  3142.42    28.18     1.45    0.86    0.44    7.32   0.08  14.02
sde              75.09     4.29 1597.48  102.98 20802.82  3146.69    28.17     1.47    0.87    0.44    7.43   0.08  14.04
sdf              72.18     4.26 1599.64  102.93 20783.88  3143.54    28.11     1.52    0.89    0.44    7.90   0.08  14.07
sdg               0.00     3.18   26.06   73.33   322.98   392.00    14.39     0.44    4.43    0.20    5.93   0.08   0.78
sdh               0.00     0.13    0.02    0.24     2.22     5.09    56.82     0.00    1.15    0.65    1.19   0.21   0.01
md0               0.00     0.00 10019.22  483.14 142278.56 21549.09    31.20     0.00    0.00    0.00    0.00   0.00   0.00

avg-cpu:  %user   %nice %system %iowait  %steal   %idle
          24.19    0.03    2.76    7.11    0.00   65.92

Device:         rrqm/s   wrqm/s     r/s     w/s    rkB/s    wkB/s avgrq-sz avgqu-sz   await r_await w_await  svctm  %util
sda               3.05     0.00 1269.70    0.00 22864.20     0.00    36.02     0.21    0.17    0.17    0.00   0.13  17.12
sdb               3.25     0.00 1262.35    0.00 22044.40     0.00    34.93     0.20    0.16    0.16    0.00   0.13  16.48
sdc               2.65     0.00 1278.20    0.00 22366.20     0.00    35.00     0.25    0.20    0.20    0.00   0.16  19.87
sdd               3.00     0.00 1249.50    0.00 21781.20     0.00    34.86     0.25    0.20    0.20    0.00   0.16  19.54
sde               2.45     0.00 1262.45    0.00 21874.00     0.00    34.65     0.25    0.20    0.20    0.00   0.16  20.02
sdf               2.90     0.00 1258.10    0.00 22062.20     0.00    35.07     0.25    0.20    0.20    0.00   0.16  19.92
sdg               0.00     0.05   67.90    0.55   280.60    10.20     8.50     0.01    0.12    0.12    0.36   0.12   0.79
sdh               0.00     0.00    0.00    0.00     0.00     0.00     0.00     0.00    0.00    0.00    0.00   0.00   0.00
md0               0.00     0.00 7597.65    0.00 149262.00     0.00    39.29     0.00    0.00    0.00    0.00   0.00   0.00

