Linux 4.17.2 (bench) 	08/03/2018 	_x86_64_	(4 CPU)

avg-cpu:  %user   %nice %system %iowait  %steal   %idle
          10.29    0.02    4.00    2.45    0.00   83.24

Device:         rrqm/s   wrqm/s     r/s     w/s    rkB/s    wkB/s avgrq-sz avgqu-sz   await r_await w_await  svctm  %util
sda              40.76     4.28 1609.08  103.49 20663.37  3158.09    27.82     1.03    0.60    0.26    5.91   0.06  10.52
sdb              40.65     4.24 1608.97  103.63 20652.77  3154.72    27.80     1.02    0.60    0.26    5.85   0.06  10.40
sdc              78.78     4.30 1568.76  103.18 20645.00  3157.20    28.47     1.44    0.86    0.45    7.12   0.08  13.83
sdd              72.13     4.26 1574.57  103.25 20629.66  3153.36    28.35     1.45    0.86    0.44    7.32   0.08  13.93
sde              74.20     4.31 1579.71  103.34 20690.30  3157.65    28.34     1.47    0.87    0.44    7.43   0.08  13.95
sdf              71.29     4.28 1581.89  103.29 20671.29  3154.48    28.28     1.52    0.90    0.44    7.90   0.08  13.98
sdg               0.00     3.18   25.93   73.34   322.43   391.98    14.39     0.44    4.43    0.20    5.93   0.08   0.77
sdh               0.00     0.13    0.02    0.24     2.23     5.11    56.82     0.00    1.15    0.65    1.19   0.21   0.01
md0               0.00     0.00 9907.00  484.82 141459.22 21624.10    31.39     0.00    0.00    0.00    0.00   0.00   0.00

avg-cpu:  %user   %nice %system %iowait  %steal   %idle
          24.92    0.01    1.73    3.38    0.00   69.96

Device:         rrqm/s   wrqm/s     r/s     w/s    rkB/s    wkB/s avgrq-sz avgqu-sz   await r_await w_await  svctm  %util
sda               0.00     0.00 1554.85    0.00  6219.40     0.00     8.00     0.15    0.10    0.10    0.00   0.10  14.98
sdb               0.00     0.00 1565.40    0.00  6261.60     0.00     8.00     0.15    0.10    0.10    0.00   0.10  15.07
sdc               0.00     0.00 1569.65    0.00  6278.60     0.00     8.00     0.16    0.10    0.10    0.00   0.10  15.91
sdd               0.00     0.00 1586.95    0.00  6347.80     0.00     8.00     0.16    0.10    0.10    0.00   0.10  16.22
sde               0.00     0.00 1583.40    0.00  6333.60     0.00     8.00     0.16    0.10    0.10    0.00   0.10  16.23
sdf               0.00     0.00 1571.25    0.00  6285.00     0.00     8.00     0.16    0.10    0.10    0.00   0.10  16.08
sdg               0.00     0.00    5.10    0.05    27.00     0.80    10.80     0.00    0.13    0.13    0.00   0.11   0.05
sdh               0.00     0.00    0.00    0.00     0.00     0.00     0.00     0.00    0.00    0.00    0.00   0.00   0.00
md0               0.00     0.00 9431.60    0.00 37726.40     0.00     8.00     0.00    0.00    0.00    0.00   0.00   0.00

