Linux 4.17.2 (bench) 	08/03/2018 	_x86_64_	(4 CPU)

avg-cpu:  %user   %nice %system %iowait  %steal   %idle
          10.29    0.02    3.98    2.42    0.00   83.29

Device:         rrqm/s   wrqm/s     r/s     w/s    rkB/s    wkB/s avgrq-sz avgqu-sz   await r_await w_await  svctm  %util
sda              38.89     4.28 1597.31  103.71 20605.66  3164.81    27.95     1.02    0.60    0.26    5.91   0.06  10.48
sdb              38.79     4.24 1597.18  103.85 20595.03  3161.43    27.93     1.02    0.60    0.26    5.85   0.06  10.36
sdc              76.91     4.30 1556.99  103.39 20587.29  3163.92    28.61     1.44    0.87    0.45    7.12   0.08  13.78
sdd              70.24     4.27 1562.82  103.47 20571.88  3160.08    28.48     1.45    0.87    0.44    7.32   0.08  13.87
sde              72.32     4.32 1567.97  103.56 20632.64  3164.37    28.47     1.47    0.88    0.44    7.43   0.08  13.89
sdf              69.40     4.29 1570.15  103.51 20613.63  3161.20    28.41     1.51    0.90    0.44    7.90   0.08  13.93
sdg               0.00     3.18   25.85   73.35   322.10   391.98    14.40     0.44    4.44    0.20    5.93   0.08   0.77
sdh               0.00     0.13    0.02    0.24     2.24     5.12    56.82     0.00    1.15    0.65    1.19   0.21   0.01
md0               0.00     0.00 9825.05  485.85 141084.00 21670.14    31.57     0.00    0.00    0.00    0.00   0.00   0.00

avg-cpu:  %user   %nice %system %iowait  %steal   %idle
          24.81    0.00    2.03    1.27    0.00   71.90

Device:         rrqm/s   wrqm/s     r/s     w/s    rkB/s    wkB/s avgrq-sz avgqu-sz   await r_await w_await  svctm  %util
sda               0.00     0.00 1431.00    0.00  5724.00     0.00     8.00     0.14    0.10    0.10    0.00   0.10  13.70
sdb               0.00     0.00 1459.00    0.00  5836.00     0.00     8.00     0.14    0.10    0.10    0.00   0.10  14.30
sdc               0.00     0.00 1405.00    0.00  5620.00     0.00     8.00     0.16    0.11    0.11    0.00   0.11  15.60
sdd               0.00     0.00 1491.00    0.00  5964.00     0.00     8.00     0.16    0.11    0.11    0.00   0.11  16.30
sde               0.00     0.00 1496.00    0.00  5984.00     0.00     8.00     0.18    0.12    0.12    0.00   0.12  17.80
sdf               0.00     0.00 1479.00    0.00  5916.00     0.00     8.00     0.14    0.10    0.10    0.00   0.10  14.40
sdg               0.00     0.00    0.00    0.00     0.00     0.00     0.00     0.00    0.00    0.00    0.00   0.00   0.00
sdh               0.00     0.00    0.00    0.00     0.00     0.00     0.00     0.00    0.00    0.00    0.00   0.00   0.00
md0               0.00     0.00 8764.00    0.00 35056.00     0.00     8.00     0.00    0.00    0.00    0.00   0.00   0.00

avg-cpu:  %user   %nice %system %iowait  %steal   %idle
          24.56    0.25    3.29    2.78    0.00   69.11

Device:         rrqm/s   wrqm/s     r/s     w/s    rkB/s    wkB/s avgrq-sz avgqu-sz   await r_await w_await  svctm  %util
sda               0.00     0.00 1534.00    0.00  6136.00     0.00     8.00     0.14    0.09    0.09    0.00   0.09  13.90
sdb               0.00     0.00 1499.00    0.00  5996.00     0.00     8.00     0.14    0.09    0.09    0.00   0.09  13.70
sdc               0.00     0.00 1484.00    0.00  5936.00     0.00     8.00     0.16    0.11    0.11    0.00   0.11  15.80
sdd               0.00     0.00 1539.00    0.00  6156.00     0.00     8.00     0.18    0.11    0.11    0.00   0.11  17.60
sde               0.00     0.00 1498.00    0.00  6000.00     0.00     8.01     0.16    0.11    0.11    0.00   0.10  15.70
sdf               0.00     0.00 1483.00    0.00  5932.00     0.00     8.00     0.15    0.10    0.10    0.00   0.10  14.60
sdg               0.00     0.00 1341.00    0.00  5436.00     0.00     8.11     0.14    0.11    0.11    0.00   0.11  14.40
sdh               0.00     0.00    0.00    0.00     0.00     0.00     0.00     0.00    0.00    0.00    0.00   0.00   0.00
md0               0.00     0.00 9035.00    0.00 36148.00     0.00     8.00     0.00    0.00    0.00    0.00   0.00   0.00

avg-cpu:  %user   %nice %system %iowait  %steal   %idle
          24.87    0.00    1.78    1.02    0.00   72.34

Device:         rrqm/s   wrqm/s     r/s     w/s    rkB/s    wkB/s avgrq-sz avgqu-sz   await r_await w_await  svctm  %util
sda               0.00     0.00 1520.00    0.00  6080.00     0.00     8.00     0.14    0.10    0.10    0.00   0.10  14.50
sdb               0.00     0.00 1488.00    0.00  5952.00     0.00     8.00     0.14    0.10    0.10    0.00   0.09  14.10
sdc               0.00     0.00 1536.00    0.00  6144.00     0.00     8.00     0.15    0.10    0.10    0.00   0.10  15.40
sdd               0.00     0.00 1548.00    0.00  6200.00     0.00     8.01     0.16    0.10    0.10    0.00   0.10  15.80
sde               0.00     0.00 1493.00    0.00  5972.00     0.00     8.00     0.16    0.11    0.11    0.00   0.11  15.90
sdf               0.00     0.00 1504.00    0.00  6016.00     0.00     8.00     0.16    0.11    0.11    0.00   0.11  16.00
sdg               0.00     0.00    0.00    0.00     0.00     0.00     0.00     0.00    0.00    0.00    0.00   0.00   0.00
sdh               0.00     0.00    0.00    0.00     0.00     0.00     0.00     0.00    0.00    0.00    0.00   0.00   0.00
md0               0.00     0.00 9089.00    0.00 36364.00     0.00     8.00     0.00    0.00    0.00    0.00   0.00   0.00

avg-cpu:  %user   %nice %system %iowait  %steal   %idle
          24.81    0.00    2.28    1.01    0.00   71.90

Device:         rrqm/s   wrqm/s     r/s     w/s    rkB/s    wkB/s avgrq-sz avgqu-sz   await r_await w_await  svctm  %util
sda               0.00     0.00 1581.00    0.00  6324.00     0.00     8.00     0.16    0.10    0.10    0.00   0.10  15.80
sdb               0.00     0.00 1509.00    0.00  6036.00     0.00     8.00     0.14    0.10    0.10    0.00   0.10  14.40
sdc               0.00     0.00 1541.00    0.00  6164.00     0.00     8.00     0.15    0.10    0.10    0.00   0.10  14.90
sdd               0.00     0.00 1491.00    0.00  5964.00     0.00     8.00     0.15    0.10    0.10    0.00   0.10  15.20
sde               0.00     0.00 1521.00    0.00  6084.00     0.00     8.00     0.16    0.10    0.10    0.00   0.10  15.90
sdf               0.00     0.00 1439.00    0.00  5764.00     0.00     8.01     0.15    0.10    0.10    0.00   0.10  14.70
sdg               0.00     0.00    0.00    0.00     0.00     0.00     0.00     0.00    0.00    0.00    0.00   0.00   0.00
sdh               0.00     0.00    0.00    0.00     0.00     0.00     0.00     0.00    0.00    0.00    0.00   0.00   0.00
md0               0.00     0.00 9083.00    0.00 36340.00     0.00     8.00     0.00    0.00    0.00    0.00   0.00   0.00

avg-cpu:  %user   %nice %system %iowait  %steal   %idle
          24.56    0.00    2.28    1.01    0.00   72.15

Device:         rrqm/s   wrqm/s     r/s     w/s    rkB/s    wkB/s avgrq-sz avgqu-sz   await r_await w_await  svctm  %util
sda               0.00     0.00 1488.00    0.00  5960.00     0.00     8.01     0.15    0.10    0.10    0.00   0.10  15.20
sdb               0.00     0.00 1495.00    0.00  5980.00     0.00     8.00     0.14    0.09    0.09    0.00   0.09  14.00
sdc               0.00     0.00 1557.00    0.00  6228.00     0.00     8.00     0.15    0.10    0.10    0.00   0.10  15.50
sdd               0.00     0.00 1556.00    0.00  6224.00     0.00     8.00     0.17    0.11    0.11    0.00   0.11  16.70
sde               0.00     0.00 1472.00    0.00  5888.00     0.00     8.00     0.17    0.12    0.12    0.00   0.12  17.10
sdf               0.00     0.00 1492.00    0.00  5968.00     0.00     8.00     0.12    0.08    0.08    0.00   0.08  12.50
sdg               0.00     0.00    0.00    0.00     0.00     0.00     0.00     0.00    0.00    0.00    0.00   0.00   0.00
sdh               0.00     0.00    0.00    0.00     0.00     0.00     0.00     0.00    0.00    0.00    0.00   0.00   0.00
md0               0.00     0.00 9060.00    0.00 36248.00     0.00     8.00     0.00    0.00    0.00    0.00   0.00   0.00

avg-cpu:  %user   %nice %system %iowait  %steal   %idle
          24.56    0.00    2.53    1.01    0.00   71.90

Device:         rrqm/s   wrqm/s     r/s     w/s    rkB/s    wkB/s avgrq-sz avgqu-sz   await r_await w_await  svctm  %util
sda               0.00     0.00 1455.00    0.00  5820.00     0.00     8.00     0.13    0.09    0.09    0.00   0.09  12.90
sdb               0.00     0.00 1540.00    0.00  6160.00     0.00     8.00     0.14    0.09    0.09    0.00   0.09  13.70
sdc               0.00     0.00 1504.00    0.00  6016.00     0.00     8.00     0.17    0.12    0.12    0.00   0.12  17.50
sdd               0.00     0.00 1525.00    0.00  6108.00     0.00     8.01     0.16    0.10    0.10    0.00   0.10  15.80
sde               0.00     0.00 1518.00    0.00  6072.00     0.00     8.00     0.15    0.10    0.10    0.00   0.10  14.80
sdf               0.00     0.00 1530.00    0.00  6120.00     0.00     8.00     0.15    0.10    0.10    0.00   0.10  15.30
sdg               0.00     0.00    0.00    0.00     0.00     0.00     0.00     0.00    0.00    0.00    0.00   0.00   0.00
sdh               0.00     0.00    0.00    0.00     0.00     0.00     0.00     0.00    0.00    0.00    0.00   0.00   0.00
md0               0.00     0.00 9071.00    0.00 36292.00     0.00     8.00     0.00    0.00    0.00    0.00   0.00   0.00

avg-cpu:  %user   %nice %system %iowait  %steal   %idle
          24.68    0.00    2.04    0.76    0.00   72.52

Device:         rrqm/s   wrqm/s     r/s     w/s    rkB/s    wkB/s avgrq-sz avgqu-sz   await r_await w_await  svctm  %util
sda               0.00     0.00 1544.00    0.00  6176.00     0.00     8.00     0.16    0.10    0.10    0.00   0.10  15.60
sdb               0.00     0.00 1450.00    0.00  5800.00     0.00     8.00     0.14    0.10    0.10    0.00   0.10  14.00
sdc               0.00     0.00 1508.00    0.00  6032.00     0.00     8.00     0.14    0.09    0.09    0.00   0.09  13.80
sdd               0.00     0.00 1505.00    0.00  6028.00     0.00     8.01     0.14    0.09    0.09    0.00   0.09  14.00
sde               0.00     0.00 1527.00    0.00  6124.00     0.00     8.02     0.15    0.10    0.10    0.00   0.10  15.50
sdf               0.00     0.00 1526.00    0.00  6104.00     0.00     8.00     0.18    0.12    0.12    0.00   0.12  17.80
sdg               0.00     0.00    0.00    0.00     0.00     0.00     0.00     0.00    0.00    0.00    0.00   0.00   0.00
sdh               0.00     0.00    0.00    0.00     0.00     0.00     0.00     0.00    0.00    0.00    0.00   0.00   0.00
md0               0.00     0.00 9062.00    0.00 36272.00     0.00     8.01     0.00    0.00    0.00    0.00   0.00   0.00

avg-cpu:  %user   %nice %system %iowait  %steal   %idle
          24.69    0.00    2.77   18.89    0.00   53.65

Device:         rrqm/s   wrqm/s     r/s     w/s    rkB/s    wkB/s avgrq-sz avgqu-sz   await r_await w_await  svctm  %util
sda               0.00     0.00 1482.00    0.00  5936.00     0.00     8.01     0.15    0.10    0.10    0.00   0.10  14.80
sdb               0.00     0.00 1509.00    0.00  6036.00     0.00     8.00     0.14    0.09    0.09    0.00   0.09  13.60
sdc               0.00     0.00 1455.00    0.00  5820.00     0.00     8.00     0.14    0.10    0.10    0.00   0.10  14.00
sdd               0.00     0.00 1518.00    0.00  6072.00     0.00     8.00     0.15    0.10    0.10    0.00   0.10  15.30
sde               0.00     0.00 1545.00    0.00  6188.00     0.00     8.01     0.16    0.10    0.10    0.00   0.10  16.10
sdf               0.00     0.00 1481.00    0.00  5924.00     0.00     8.00     0.16    0.11    0.11    0.00   0.11  15.90
sdg               0.00     0.00    0.00    0.00     0.00     0.00     0.00     0.00    0.00    0.00    0.00   0.00   0.00
sdh               0.00     0.00    0.00    0.00     0.00     0.00     0.00     0.00    0.00    0.00    0.00   0.00   0.00
md0               0.00     0.00 8989.00    0.00 35972.00     0.00     8.00     0.00    0.00    0.00    0.00   0.00   0.00

avg-cpu:  %user   %nice %system %iowait  %steal   %idle
          24.87    0.00    2.03    1.02    0.00   72.08

Device:         rrqm/s   wrqm/s     r/s     w/s    rkB/s    wkB/s avgrq-sz avgqu-sz   await r_await w_await  svctm  %util
sda               0.00     0.00 1500.00    0.00  6008.00     0.00     8.01     0.14    0.10    0.10    0.00   0.10  14.50
sdb               0.00     0.00 1458.00    0.00  5848.00     0.00     8.02     0.14    0.10    0.10    0.00   0.10  13.90
sdc               0.00     0.00 1511.00    0.00  6044.00     0.00     8.00     0.15    0.10    0.10    0.00   0.10  15.40
sdd               0.00     0.00 1462.00    0.00  5856.00     0.00     8.01     0.15    0.10    0.10    0.00   0.10  14.70
sde               0.00     0.00 1525.00    0.00  6100.00     0.00     8.00     0.15    0.10    0.10    0.00   0.10  14.90
sdf               0.00     0.00 1522.00    0.00  6088.00     0.00     8.00     0.17    0.11    0.11    0.00   0.11  16.80
sdg               0.00     0.00    0.00    0.00     0.00     0.00     0.00     0.00    0.00    0.00    0.00   0.00   0.00
sdh               0.00     0.00    0.00    0.00     0.00     0.00     0.00     0.00    0.00    0.00    0.00   0.00   0.00
md0               0.00     0.00 8979.00    0.00 35948.00     0.00     8.01     0.00    0.00    0.00    0.00   0.00   0.00

avg-cpu:  %user   %nice %system %iowait  %steal   %idle
          24.81    0.00    2.03    1.01    0.00   72.15

Device:         rrqm/s   wrqm/s     r/s     w/s    rkB/s    wkB/s avgrq-sz avgqu-sz   await r_await w_await  svctm  %util
sda               0.00     0.00 1465.00    0.00  5876.00     0.00     8.02     0.14    0.09    0.09    0.00   0.09  13.70
sdb               0.00     0.00 1457.00    0.00  5844.00     0.00     8.02     0.14    0.10    0.10    0.00   0.10  14.30
sdc               0.00     0.00 1509.00    0.00  6044.00     0.00     8.01     0.14    0.09    0.09    0.00   0.09  13.80
sdd               0.00     0.00 1531.00    0.00  6148.00     0.00     8.03     0.17    0.11    0.11    0.00   0.11  17.20
sde               0.00     0.00 1522.00    0.00  6096.00     0.00     8.01     0.16    0.11    0.11    0.00   0.11  16.00
sdf               0.00     0.00 1537.00    0.00  6164.00     0.00     8.02     0.16    0.11    0.11    0.00   0.11  16.40
sdg               0.00     0.00    0.00    0.00     0.00     0.00     0.00     0.00    0.00    0.00    0.00   0.00   0.00
sdh               0.00     0.00    0.00    0.00     0.00     0.00     0.00     0.00    0.00    0.00    0.00   0.00   0.00
md0               0.00     0.00 9021.00    0.00 36172.00     0.00     8.02     0.00    0.00    0.00    0.00   0.00   0.00

avg-cpu:  %user   %nice %system %iowait  %steal   %idle
          24.50    0.00    3.50   18.50    0.00   53.50

Device:         rrqm/s   wrqm/s     r/s     w/s    rkB/s    wkB/s avgrq-sz avgqu-sz   await r_await w_await  svctm  %util
sda               0.00     0.00 1485.00    0.00  5940.00     0.00     8.00     0.16    0.11    0.11    0.00   0.11  16.00
sdb               0.00     0.00 1465.00    0.00  5860.00     0.00     8.00     0.15    0.10    0.10    0.00   0.10  14.70
sdc               0.00     0.00 1542.00    0.00  6184.00     0.00     8.02     0.17    0.11    0.11    0.00   0.11  16.70
sdd               0.00     0.00 1506.00    0.00  6024.00     0.00     8.00     0.15    0.10    0.10    0.00   0.10  14.70
sde               0.00     0.00 1504.00    0.00  6024.00     0.00     8.01     0.14    0.09    0.09    0.00   0.09  13.70
sdf               0.00     0.00 1478.00    0.00  5920.00     0.00     8.01     0.14    0.10    0.10    0.00   0.10  14.30
sdg               0.00     0.00    0.00    0.00     0.00     0.00     0.00     0.00    0.00    0.00    0.00   0.00   0.00
sdh               0.00     0.00    0.00    0.00     0.00     0.00     0.00     0.00    0.00    0.00    0.00   0.00   0.00
md0               0.00     0.00 8978.00    0.00 35944.00     0.00     8.01     0.00    0.00    0.00    0.00   0.00   0.00

avg-cpu:  %user   %nice %system %iowait  %steal   %idle
          24.18    0.25    3.02    1.01    0.00   71.54

Device:         rrqm/s   wrqm/s     r/s     w/s    rkB/s    wkB/s avgrq-sz avgqu-sz   await r_await w_await  svctm  %util
sda               0.00     0.00 1387.00    0.00  5548.00     0.00     8.00     0.15    0.11    0.11    0.00   0.11  15.10
sdb               0.00     0.00 1399.00    0.00  5608.00     0.00     8.02     0.13    0.09    0.09    0.00   0.09  13.00
sdc               0.00     0.00 1434.00    0.00  5744.00     0.00     8.01     0.16    0.11    0.11    0.00   0.11  16.00
sdd               0.00     0.00 1402.00    0.00  5608.00     0.00     8.00     0.15    0.11    0.11    0.00   0.11  14.90
sde               0.00     0.00 1461.00    0.00  5860.00     0.00     8.02     0.15    0.10    0.10    0.00   0.10  14.80
sdf               0.00     0.00 1524.00    0.00  6112.00     0.00     8.02     0.18    0.12    0.12    0.00   0.12  17.70
sdg               0.00     0.00    1.00    0.00     4.00     0.00     8.00     0.00    0.00    0.00    0.00   0.00   0.00
sdh               0.00     0.00    0.00    0.00     0.00     0.00     0.00     0.00    0.00    0.00    0.00   0.00   0.00
md0               0.00     0.00 8609.00    0.00 34488.00     0.00     8.01     0.00    0.00    0.00    0.00   0.00   0.00

avg-cpu:  %user   %nice %system %iowait  %steal   %idle
          23.62    0.00    3.27    1.01    0.00   72.11

Device:         rrqm/s   wrqm/s     r/s     w/s    rkB/s    wkB/s avgrq-sz avgqu-sz   await r_await w_await  svctm  %util
sda               0.00     0.00 1443.00    0.00  5788.00     0.00     8.02     0.15    0.11    0.11    0.00   0.11  15.50
sdb               0.00     0.00 1505.00    0.00  6052.00     0.00     8.04     0.16    0.11    0.11    0.00   0.11  16.00
sdc               0.00     0.00 1476.00    0.00  5928.00     0.00     8.03     0.15    0.10    0.10    0.00   0.10  14.80
sdd               0.00     0.00 1482.00    0.00  5944.00     0.00     8.02     0.15    0.10    0.10    0.00   0.10  15.20
sde               0.00     0.00 1503.00    0.00  6020.00     0.00     8.01     0.15    0.10    0.10    0.00   0.10  15.50
sdf               0.00     0.00 1388.00    0.00  5552.00     0.00     8.00     0.14    0.10    0.10    0.00   0.10  14.30
sdg               0.00     0.00    0.00    0.00     0.00     0.00     0.00     0.00    0.00    0.00    0.00   0.00   0.00
sdh               0.00     0.00    0.00    0.00     0.00     0.00     0.00     0.00    0.00    0.00    0.00   0.00   0.00
md0               0.00     0.00 8797.00    0.00 35284.00     0.00     8.02     0.00    0.00    0.00    0.00   0.00   0.00

avg-cpu:  %user   %nice %system %iowait  %steal   %idle
          23.43    0.00    3.02    0.76    0.00   72.80

Device:         rrqm/s   wrqm/s     r/s     w/s    rkB/s    wkB/s avgrq-sz avgqu-sz   await r_await w_await  svctm  %util
sda               0.00     0.00 1490.00    0.00  5976.00     0.00     8.02     0.14    0.09    0.09    0.00   0.09  14.00
sdb               0.00     0.00 1498.00    0.00  5992.00     0.00     8.00     0.16    0.11    0.11    0.00   0.11  15.80
sdc               0.00     0.00 1492.00    0.00  5976.00     0.00     8.01     0.16    0.11    0.11    0.00   0.11  16.40
sdd               0.00     0.00 1527.00    0.00  6140.00     0.00     8.04     0.15    0.10    0.10    0.00   0.10  14.60
sde               0.00     0.00 1486.00    0.00  6028.00     0.00     8.11     0.16    0.11    0.11    0.00   0.11  15.70
sdf               0.00     0.00 1545.00    0.00  6360.00     0.00     8.23     0.15    0.10    0.10    0.00   0.10  14.80
sdg               0.00     0.00    0.00    0.00     0.00     0.00     0.00     0.00    0.00    0.00    0.00   0.00   0.00
sdh               0.00     0.00    0.00    0.00     0.00     0.00     0.00     0.00    0.00    0.00    0.00   0.00   0.00
md0               0.00     0.00 9038.00    0.00 36612.00     0.00     8.10     0.00    0.00    0.00    0.00   0.00   0.00

avg-cpu:  %user   %nice %system %iowait  %steal   %idle
          23.37    0.00    3.27    1.01    0.00   72.36

Device:         rrqm/s   wrqm/s     r/s     w/s    rkB/s    wkB/s avgrq-sz avgqu-sz   await r_await w_await  svctm  %util
sda               0.00     0.00 1538.00    0.00  6196.00     0.00     8.06     0.16    0.11    0.11    0.00   0.11  16.40
sdb               0.00     0.00 1502.00    0.00  6032.00     0.00     8.03     0.14    0.09    0.09    0.00   0.09  13.80
sdc               0.00     0.00 1496.00    0.00  6016.00     0.00     8.04     0.17    0.12    0.12    0.00   0.12  17.50
sdd               0.00     0.00 1479.00    0.00  5916.00     0.00     8.00     0.15    0.10    0.10    0.00   0.10  15.00
sde               0.00     0.00 1542.00    0.00  6188.00     0.00     8.03     0.15    0.10    0.10    0.00   0.10  14.80
sdf               0.00     0.00 1495.00    0.00  6012.00     0.00     8.04     0.14    0.09    0.09    0.00   0.09  14.00
sdg               0.00     0.00    0.00    0.00     0.00     0.00     0.00     0.00    0.00    0.00    0.00   0.00   0.00
sdh               0.00     0.00    0.00    0.00     0.00     0.00     0.00     0.00    0.00    0.00    0.00   0.00   0.00
md0               0.00     0.00 9051.00    0.00 36356.00     0.00     8.03     0.00    0.00    0.00    0.00   0.00   0.00

avg-cpu:  %user   %nice %system %iowait  %steal   %idle
          23.87    0.00    2.76    0.75    0.00   72.61

Device:         rrqm/s   wrqm/s     r/s     w/s    rkB/s    wkB/s avgrq-sz avgqu-sz   await r_await w_await  svctm  %util
sda               0.00     0.00 1550.00    0.00  6216.00     0.00     8.02     0.15    0.10    0.10    0.00   0.10  15.00
sdb               0.00     0.00 1515.00    0.00  6076.00     0.00     8.02     0.14    0.09    0.09    0.00   0.09  14.20
sdc               0.00     0.00 1543.00    0.00  6188.00     0.00     8.02     0.15    0.10    0.10    0.00   0.10  15.20
sdd               0.00     0.00 1472.00    0.00  5904.00     0.00     8.02     0.15    0.10    0.10    0.00   0.10  14.80
sde               0.00     0.00 1493.00    0.00  5980.00     0.00     8.01     0.17    0.11    0.11    0.00   0.11  16.40
sdf               0.00     0.00 1495.00    0.00  6004.00     0.00     8.03     0.16    0.10    0.10    0.00   0.10  15.60
sdg               0.00     0.00    0.00    0.00     0.00     0.00     0.00     0.00    0.00    0.00    0.00   0.00   0.00
sdh               0.00     0.00    0.00    0.00     0.00     0.00     0.00     0.00    0.00    0.00    0.00   0.00   0.00
md0               0.00     0.00 9068.00    0.00 36368.00     0.00     8.02     0.00    0.00    0.00    0.00   0.00   0.00

avg-cpu:  %user   %nice %system %iowait  %steal   %idle
          23.44    0.00    3.74    1.00    0.00   71.82

Device:         rrqm/s   wrqm/s     r/s     w/s    rkB/s    wkB/s avgrq-sz avgqu-sz   await r_await w_await  svctm  %util
sda               0.00     0.00 1492.00    0.00  6016.00     0.00     8.06     0.15    0.10    0.10    0.00   0.10  14.60
sdb               0.00     0.00 1512.00    0.00  6076.00     0.00     8.04     0.15    0.10    0.10    0.00   0.10  15.40
sdc               0.00     0.00 1476.00    0.00  5928.00     0.00     8.03     0.15    0.10    0.10    0.00   0.10  15.00
sdd               0.00     0.00 1486.00    0.00  5964.00     0.00     8.03     0.14    0.09    0.09    0.00   0.09  13.80
sde               0.00     0.00 1545.00    0.00  6228.00     0.00     8.06     0.15    0.10    0.10    0.00   0.10  15.10
sdf               0.00     0.00 1538.00    0.00  6172.00     0.00     8.03     0.16    0.10    0.10    0.00   0.10  16.10
sdg               0.00     0.00    0.00    0.00     0.00     0.00     0.00     0.00    0.00    0.00    0.00   0.00   0.00
sdh               0.00     0.00    0.00    0.00     0.00     0.00     0.00     0.00    0.00    0.00    0.00   0.00   0.00
md0               0.00     0.00 9048.00    0.00 36388.00     0.00     8.04     0.00    0.00    0.00    0.00   0.00   0.00

avg-cpu:  %user   %nice %system %iowait  %steal   %idle
          23.62    0.00    3.02    1.01    0.00   72.36

Device:         rrqm/s   wrqm/s     r/s     w/s    rkB/s    wkB/s avgrq-sz avgqu-sz   await r_await w_await  svctm  %util
sda               0.00     0.00 1476.00    0.00  5920.00     0.00     8.02     0.16    0.11    0.11    0.00   0.11  15.70
sdb               0.00     0.00 1535.00    0.00  6164.00     0.00     8.03     0.15    0.10    0.10    0.00   0.10  15.00
sdc               0.00     0.00 1523.00    0.00  6108.00     0.00     8.02     0.17    0.11    0.11    0.00   0.11  16.90
sdd               0.00     0.00 1580.00    0.00  6328.00     0.00     8.01     0.15    0.09    0.09    0.00   0.09  14.80
sde               0.00     0.00 1457.00    0.00  5844.00     0.00     8.02     0.14    0.09    0.09    0.00   0.09  13.70
sdf               0.00     0.00 1489.00    0.00  5996.00     0.00     8.05     0.16    0.11    0.11    0.00   0.11  16.00
sdg               0.00     0.00    1.00    3.00     4.00    24.00    14.00     0.00    0.00    0.00    0.00   0.00   0.00
sdh               0.00     0.00    0.00    0.00     0.00     0.00     0.00     0.00    0.00    0.00    0.00   0.00   0.00
md0               0.00     0.00 9060.00    0.00 36360.00     0.00     8.03     0.00    0.00    0.00    0.00   0.00   0.00

avg-cpu:  %user   %nice %system %iowait  %steal   %idle
          23.56    0.00    3.51    0.75    0.00   72.18

Device:         rrqm/s   wrqm/s     r/s     w/s    rkB/s    wkB/s avgrq-sz avgqu-sz   await r_await w_await  svctm  %util
sda               0.00     0.00 1508.00    0.00  6084.00     0.00     8.07     0.14    0.09    0.09    0.00   0.09  13.60
sdb               0.00     0.00 1488.00    0.00  5976.00     0.00     8.03     0.14    0.09    0.09    0.00   0.09  14.00
sdc               0.00     0.00 1495.00    0.00  5988.00     0.00     8.01     0.16    0.11    0.11    0.00   0.11  16.00
sdd               0.00     0.00 1538.00    0.00  6168.00     0.00     8.02     0.14    0.09    0.09    0.00   0.09  14.50
sde               0.00     0.00 1476.00    0.00  5928.00     0.00     8.03     0.15    0.10    0.10    0.00   0.10  15.00
sdf               0.00     0.00 1499.00    0.00  6028.00     0.00     8.04     0.16    0.11    0.11    0.00   0.11  15.90
sdg               0.00     0.00    0.00    0.00     0.00     0.00     0.00     0.00    0.00    0.00    0.00   0.00   0.00
sdh               0.00     0.00    0.00    0.00     0.00     0.00     0.00     0.00    0.00    0.00    0.00   0.00   0.00
md0               0.00     0.00 9005.00    0.00 36176.00     0.00     8.03     0.00    0.00    0.00    0.00   0.00   0.00

avg-cpu:  %user   %nice %system %iowait  %steal   %idle
          23.81    0.00    2.76    1.00    0.00   72.43

Device:         rrqm/s   wrqm/s     r/s     w/s    rkB/s    wkB/s avgrq-sz avgqu-sz   await r_await w_await  svctm  %util
sda               0.00     0.00 1506.00    0.00  6056.00     0.00     8.04     0.14    0.09    0.09    0.00   0.09  13.80
sdb               0.00     0.00 1503.00    0.00  6028.00     0.00     8.02     0.16    0.11    0.11    0.00   0.11  16.00
sdc               0.00     0.00 1542.00    0.00  6200.00     0.00     8.04     0.18    0.11    0.11    0.00   0.11  17.60
sdd               0.00     0.00 1462.00    0.00  5908.00     0.00     8.08     0.15    0.10    0.10    0.00   0.10  14.60
sde               0.00     0.00 1535.00    0.00  6156.00     0.00     8.02     0.15    0.10    0.10    0.00   0.10  14.80
sdf               0.00     0.00 1492.00    0.00  5984.00     0.00     8.02     0.14    0.09    0.09    0.00   0.09  13.60
sdg               0.00     0.00    0.00    0.00     0.00     0.00     0.00     0.00    0.00    0.00    0.00   0.00   0.00
sdh               0.00     0.00    0.00    0.00     0.00     0.00     0.00     0.00    0.00    0.00    0.00   0.00   0.00
md0               0.00     0.00 9039.00    0.00 36328.00     0.00     8.04     0.00    0.00    0.00    0.00   0.00   0.00

