Linux 4.17.2 (bench) 	08/03/2018 	_x86_64_	(4 CPU)

avg-cpu:  %user   %nice %system %iowait  %steal   %idle
          10.28    0.02    4.07    2.56    0.00   83.08

Device:         rrqm/s   wrqm/s     r/s     w/s    rkB/s    wkB/s avgrq-sz avgqu-sz   await r_await w_await  svctm  %util
sda              45.03     4.24 1655.76  102.56 20956.19  3129.56    27.40     1.03    0.59    0.26    5.91   0.06  10.73
sdb              44.90     4.20 1655.69  102.69 20945.59  3126.23    27.38     1.03    0.59    0.26    5.85   0.06  10.61
sdc              82.84     4.26 1615.65  102.24 20937.67  3128.69    28.02     1.45    0.85    0.45    7.12   0.08  14.07
sdd              76.26     4.23 1621.40  102.31 20922.57  3124.88    27.90     1.46    0.85    0.44    7.32   0.08  14.16
sde              78.30     4.27 1626.47  102.41 20982.41  3129.13    27.89     1.48    0.86    0.44    7.43   0.08  14.18
sdf              75.41     4.24 1628.63  102.36 20963.64  3125.99    27.83     1.52    0.88    0.44    7.90   0.08  14.21
sdg               0.00     3.17   26.29   73.31   323.97   391.98    14.38     0.44    4.42    0.20    5.93   0.08   0.78
sdh               0.00     0.13    0.02    0.23     2.21     5.06    56.82     0.00    1.15    0.65    1.19   0.21   0.01
md0               0.00     0.00 10213.09  480.44 143548.38 21428.81    30.86     0.00    0.00    0.00    0.00   0.00   0.00

avg-cpu:  %user   %nice %system %iowait  %steal   %idle
          24.62    0.00    2.76   21.61    0.00   51.01

Device:         rrqm/s   wrqm/s     r/s     w/s    rkB/s    wkB/s avgrq-sz avgqu-sz   await r_await w_await  svctm  %util
sda              10.00     0.00 1179.00    0.00 15428.00     0.00    26.17     0.15    0.13    0.13    0.00   0.12  14.60
sdb              11.00     0.00 1213.00    0.00 16076.00     0.00    26.51     0.16    0.13    0.13    0.00   0.13  15.90
sdc              13.00     0.00 1135.00    0.00 18028.00     0.00    31.77     0.18    0.16    0.16    0.00   0.16  18.00
sdd               8.00     0.00 1193.00    0.00 15216.00     0.00    25.51     0.18    0.15    0.15    0.00   0.15  17.60
sde               8.00     0.00 1262.00    0.00 15636.00     0.00    24.78     0.19    0.15    0.15    0.00   0.15  19.20
sdf              12.00     0.00 1170.00    0.00 16392.00     0.00    28.02     0.19    0.16    0.16    0.00   0.15  18.10
sdg               0.00     2.00    0.00   12.00     0.00   164.00    27.33     0.00    0.25    0.00    0.25   0.08   0.10
sdh               0.00     0.00    0.00    0.00     0.00     0.00     0.00     0.00    0.00    0.00    0.00   0.00   0.00
md0               0.00     0.00 7211.00    0.00 122404.00     0.00    33.95     0.00    0.00    0.00    0.00   0.00   0.00

avg-cpu:  %user   %nice %system %iowait  %steal   %idle
          24.62    0.00    2.28    2.54    0.00   70.56

Device:         rrqm/s   wrqm/s     r/s     w/s    rkB/s    wkB/s avgrq-sz avgqu-sz   await r_await w_await  svctm  %util
sda              20.00     0.00 1166.00    0.00 20708.00     0.00    35.52     0.18    0.15    0.15    0.00   0.14  16.20
sdb              19.00     0.00 1164.00    0.00 20660.00     0.00    35.50     0.19    0.16    0.16    0.00   0.15  17.10
sdc              20.00     0.00 1177.00    0.00 21064.00     0.00    35.79     0.22    0.19    0.19    0.00   0.17  20.20
sdd              21.00     0.00 1102.00    0.00 20800.00     0.00    37.75     0.22    0.20    0.20    0.00   0.18  19.40
sde              21.00     0.00 1141.00    0.00 21468.00     0.00    37.63     0.23    0.20    0.20    0.00   0.17  19.70
sdf              21.00     0.00 1124.00    0.00 22532.00     0.00    40.09     0.23    0.21    0.21    0.00   0.18  20.00
sdg               0.00     0.00    0.00    0.00     0.00     0.00     0.00     0.00    0.00    0.00    0.00   0.00   0.00
sdh               0.00     0.00    0.00    0.00     0.00     0.00     0.00     0.00    0.00    0.00    0.00   0.00   0.00
md0               0.00     0.00 6994.00    0.00 158372.00     0.00    45.29     0.00    0.00    0.00    0.00   0.00   0.00

avg-cpu:  %user   %nice %system %iowait  %steal   %idle
          24.49    0.00    2.27    1.52    0.00   71.72

Device:         rrqm/s   wrqm/s     r/s     w/s    rkB/s    wkB/s avgrq-sz avgqu-sz   await r_await w_await  svctm  %util
sda              38.00     0.00 1092.00    0.00 28556.00     0.00    52.30     0.21    0.20    0.20    0.00   0.16  17.80
sdb              34.00     0.00 1119.00    0.00 25900.00     0.00    46.29     0.21    0.19    0.19    0.00   0.16  17.50
sdc              30.00     0.00 1201.00    0.00 24476.00     0.00    40.76     0.29    0.24    0.24    0.00   0.19  22.50
sdd              30.00     0.00 1135.00    0.00 26940.00     0.00    47.47     0.28    0.25    0.25    0.00   0.20  22.20
sde              34.00     0.00 1059.00    0.00 28248.00     0.00    53.35     0.30    0.28    0.28    0.00   0.21  22.10
sdf              37.00     0.00 1019.00    0.00 29816.00     0.00    58.52     0.28    0.28    0.28    0.00   0.22  22.30
sdg               0.00     0.00    0.00    0.00     0.00     0.00     0.00     0.00    0.00    0.00    0.00   0.00   0.00
sdh               0.00     0.00    0.00    0.00     0.00     0.00     0.00     0.00    0.00    0.00    0.00   0.00   0.00
md0               0.00     0.00 6829.00    0.00 214988.00     0.00    62.96     0.00    0.00    0.00    0.00   0.00   0.00

