Linux 4.17.2 (bench) 	08/03/2018 	_x86_64_	(4 CPU)

avg-cpu:  %user   %nice %system %iowait  %steal   %idle
          10.30    0.02    3.96    2.40    0.00   83.32

Device:         rrqm/s   wrqm/s     r/s     w/s    rkB/s    wkB/s avgrq-sz avgqu-sz   await r_await w_await  svctm  %util
sda              38.66     4.30 1586.53  103.98 20511.37  3172.94    28.02     1.02    0.60    0.26    5.91   0.06  10.42
sdb              38.56     4.26 1586.40  104.12 20500.68  3169.56    28.00     1.02    0.60    0.26    5.85   0.06  10.30
sdc              76.77     4.32 1546.11  103.66 20492.91  3172.05    28.69     1.44    0.87    0.45    7.12   0.08  13.71
sdd              70.08     4.28 1551.96  103.73 20477.51  3168.20    28.56     1.45    0.87    0.44    7.32   0.08  13.81
sde              72.17     4.33 1557.13  103.83 20538.53  3172.50    28.55     1.47    0.88    0.45    7.43   0.08  13.83
sdf              69.24     4.30 1559.31  103.77 20519.46  3169.32    28.49     1.51    0.91    0.44    7.90   0.08  13.86
sdg               0.00     3.18   25.74   73.36   321.62   391.97    14.40     0.44    4.44    0.20    5.93   0.08   0.77
sdh               0.00     0.13    0.02    0.24     2.24     5.13    56.82     0.00    1.15    0.65    1.19   0.21   0.01
md0               0.00     0.00 9758.79  487.10 140356.41 21725.83    31.64     0.00    0.00    0.00    0.00   0.00   0.00

avg-cpu:  %user   %nice %system %iowait  %steal   %idle
          24.75    0.00    2.53    1.01    0.00   71.72

Device:         rrqm/s   wrqm/s     r/s     w/s    rkB/s    wkB/s avgrq-sz avgqu-sz   await r_await w_await  svctm  %util
sda               0.00     0.00 1457.00    0.00  6592.00     0.00     9.05     0.14    0.09    0.09    0.00   0.09  13.40
sdb               0.00     0.00 1444.00    0.00  6828.00     0.00     9.46     0.14    0.09    0.09    0.00   0.09  13.40
sdc               0.00     0.00 1437.00    0.00  6920.00     0.00     9.63     0.15    0.11    0.11    0.00   0.10  14.90
sdd               0.00     0.00 1382.00    0.00  6176.00     0.00     8.94     0.17    0.12    0.12    0.00   0.12  16.50
sde               0.00     0.00 1372.00    0.00  5908.00     0.00     8.61     0.14    0.10    0.10    0.00   0.10  14.20
sdf               0.00     0.00 1445.00    0.00  6320.00     0.00     8.75     0.17    0.12    0.12    0.00   0.12  17.30
sdg               0.00     0.00    3.00    0.00   100.00     0.00    66.67     0.00    0.33    0.33    0.00   0.33   0.10
sdh               0.00     0.00    0.00    0.00     0.00     0.00     0.00     0.00    0.00    0.00    0.00   0.00   0.00
md0               0.00     0.00 8539.00    0.00 39524.00     0.00     9.26     0.00    0.00    0.00    0.00   0.00   0.00

avg-cpu:  %user   %nice %system %iowait  %steal   %idle
          24.49    0.25    3.54   13.38    0.00   58.33

Device:         rrqm/s   wrqm/s     r/s     w/s    rkB/s    wkB/s avgrq-sz avgqu-sz   await r_await w_await  svctm  %util
sda               0.00     0.00 1335.00    0.00  6032.00     0.00     9.04     0.12    0.09    0.09    0.00   0.09  12.40
sdb               0.00     0.00 1428.00    0.00  6100.00     0.00     8.54     0.14    0.10    0.10    0.00   0.10  13.60
sdc               0.00     0.00 1402.00    0.00  6012.00     0.00     8.58     0.15    0.11    0.11    0.00   0.11  14.80
sdd               0.00     0.00 1472.00    0.00  6480.00     0.00     8.80     0.18    0.12    0.12    0.00   0.12  17.80
sde               0.00     0.00 1418.00    0.00  6284.00     0.00     8.86     0.15    0.11    0.11    0.00   0.11  15.10
sdf               0.00     0.00 1378.00    0.00  6044.00     0.00     8.77     0.15    0.11    0.11    0.00   0.11  14.60
sdg               0.00     0.00 1339.00    0.00  5404.00     0.00     8.07     0.16    0.12    0.12    0.00   0.12  15.80
sdh               0.00     0.00    0.00    0.00     0.00     0.00     0.00     0.00    0.00    0.00    0.00   0.00   0.00
md0               0.00     0.00 8432.00    0.00 37284.00     0.00     8.84     0.00    0.00    0.00    0.00   0.00   0.00

avg-cpu:  %user   %nice %system %iowait  %steal   %idle
          24.75    0.00    3.03   20.71    0.00   51.52

Device:         rrqm/s   wrqm/s     r/s     w/s    rkB/s    wkB/s avgrq-sz avgqu-sz   await r_await w_await  svctm  %util
sda               0.00     0.00 1373.00    0.00  5852.00     0.00     8.52     0.15    0.11    0.11    0.00   0.11  14.80
sdb               0.00     0.00 1375.00    0.00  5864.00     0.00     8.53     0.12    0.09    0.09    0.00   0.09  12.50
sdc               0.00     0.00 1388.00    0.00  6064.00     0.00     8.74     0.12    0.09    0.09    0.00   0.09  11.80
sdd               0.00     0.00 1467.00    0.00  6260.00     0.00     8.53     0.19    0.13    0.13    0.00   0.13  19.00
sde               0.00     0.00 1381.00    0.00  5800.00     0.00     8.40     0.15    0.11    0.11    0.00   0.11  15.30
sdf               0.00     0.00 1437.00    0.00  6144.00     0.00     8.55     0.14    0.10    0.10    0.00   0.10  14.50
sdg               0.00     0.00    0.00    0.00     0.00     0.00     0.00     0.00    0.00    0.00    0.00   0.00   0.00
sdh               0.00     0.00    0.00    0.00     0.00     0.00     0.00     0.00    0.00    0.00    0.00   0.00   0.00
md0               0.00     0.00 8423.00    0.00 36044.00     0.00     8.56     0.00    0.00    0.00    0.00   0.00   0.00

avg-cpu:  %user   %nice %system %iowait  %steal   %idle
          24.37    0.00    2.54    2.28    0.00   70.81

Device:         rrqm/s   wrqm/s     r/s     w/s    rkB/s    wkB/s avgrq-sz avgqu-sz   await r_await w_await  svctm  %util
sda               0.00     0.00 1407.00    0.00  6216.00     0.00     8.84     0.14    0.10    0.10    0.00   0.10  13.50
sdb               0.00     0.00 1447.00    0.00  6812.00     0.00     9.42     0.14    0.10    0.10    0.00   0.10  14.10
sdc               0.00     0.00 1401.00    0.00  6032.00     0.00     8.61     0.15    0.11    0.11    0.00   0.11  15.30
sdd               0.00     0.00 1402.00    0.00  6116.00     0.00     8.72     0.17    0.12    0.12    0.00   0.12  16.90
sde               0.00     0.00 1394.00    0.00  5904.00     0.00     8.47     0.16    0.11    0.11    0.00   0.11  15.70
sdf               0.00     0.00 1401.00    0.00  6128.00     0.00     8.75     0.14    0.10    0.10    0.00   0.10  13.90
sdg               0.00     0.00    0.00    0.00     0.00     0.00     0.00     0.00    0.00    0.00    0.00   0.00   0.00
sdh               0.00     0.00    0.00    0.00     0.00     0.00     0.00     0.00    0.00    0.00    0.00   0.00   0.00
md0               0.00     0.00 8451.00    0.00 37416.00     0.00     8.85     0.00    0.00    0.00    0.00   0.00   0.00

avg-cpu:  %user   %nice %system %iowait  %steal   %idle
          24.56    0.00    2.78    0.76    0.00   71.90

Device:         rrqm/s   wrqm/s     r/s     w/s    rkB/s    wkB/s avgrq-sz avgqu-sz   await r_await w_await  svctm  %util
sda               0.00     0.00 1380.00    0.00  5880.00     0.00     8.52     0.11    0.08    0.08    0.00   0.08  11.10
sdb               0.00     0.00 1458.00    0.00  6796.00     0.00     9.32     0.13    0.09    0.09    0.00   0.09  13.30
sdc               0.00     0.00 1438.00    0.00  6668.00     0.00     9.27     0.16    0.11    0.11    0.00   0.11  15.60
sdd               0.00     0.00 1406.00    0.00  6032.00     0.00     8.58     0.18    0.13    0.13    0.00   0.13  17.70
sde               0.00     0.00 1394.00    0.00  5996.00     0.00     8.60     0.15    0.11    0.11    0.00   0.11  15.10
sdf               0.00     0.00 1450.00    0.00  6316.00     0.00     8.71     0.16    0.11    0.11    0.00   0.11  15.60
sdg               0.00     0.00    0.00    0.00     0.00     0.00     0.00     0.00    0.00    0.00    0.00   0.00   0.00
sdh               0.00     0.00    0.00    0.00     0.00     0.00     0.00     0.00    0.00    0.00    0.00   0.00   0.00
md0               0.00     0.00 8525.00    0.00 37684.00     0.00     8.84     0.00    0.00    0.00    0.00   0.00   0.00

avg-cpu:  %user   %nice %system %iowait  %steal   %idle
          24.18    0.00    3.02    1.01    0.00   71.79

Device:         rrqm/s   wrqm/s     r/s     w/s    rkB/s    wkB/s avgrq-sz avgqu-sz   await r_await w_await  svctm  %util
sda               0.00     0.00 1398.00    0.00  6184.00     0.00     8.85     0.12    0.09    0.09    0.00   0.08  11.80
sdb               0.00     0.00 1373.00    0.00  5892.00     0.00     8.58     0.13    0.10    0.10    0.00   0.10  13.30
sdc               0.00     0.00 1380.00    0.00  6036.00     0.00     8.75     0.14    0.10    0.10    0.00   0.10  14.30
sdd               0.00     0.00 1446.00    0.00  6596.00     0.00     9.12     0.17    0.12    0.12    0.00   0.12  17.10
sde               0.00     0.00 1419.00    0.00  6448.00     0.00     9.09     0.16    0.11    0.11    0.00   0.11  16.10
sdf               0.00     0.00 1457.00    0.00  6260.00     0.00     8.59     0.14    0.10    0.10    0.00   0.10  14.30
sdg               0.00     0.00    1.00    5.00    16.00   140.00    52.00     0.00    0.50    0.00    0.60   0.17   0.10
sdh               0.00     0.00    0.00    0.00     0.00     0.00     0.00     0.00    0.00    0.00    0.00   0.00   0.00
md0               0.00     0.00 8474.00    0.00 37816.00     0.00     8.93     0.00    0.00    0.00    0.00   0.00   0.00

avg-cpu:  %user   %nice %system %iowait  %steal   %idle
          24.87    0.00    2.28    0.76    0.00   72.08

Device:         rrqm/s   wrqm/s     r/s     w/s    rkB/s    wkB/s avgrq-sz avgqu-sz   await r_await w_await  svctm  %util
sda               0.00     0.00 1438.00    0.00  6256.00     0.00     8.70     0.13    0.09    0.09    0.00   0.09  12.90
sdb               0.00     0.00 1477.00    0.00  6620.00     0.00     8.96     0.15    0.10    0.10    0.00   0.10  14.80
sdc               0.00     0.00 1406.00    0.00  6380.00     0.00     9.08     0.15    0.11    0.11    0.00   0.11  15.40
sdd               0.00     0.00 1377.00    0.00  5920.00     0.00     8.60     0.18    0.13    0.13    0.00   0.13  17.80
sde               0.00     0.00 1421.00    0.00  6296.00     0.00     8.86     0.14    0.10    0.10    0.00   0.10  13.90
sdf               0.00     0.00 1410.00    0.00  6112.00     0.00     8.67     0.16    0.11    0.11    0.00   0.11  15.70
sdg               0.00     0.00    0.00    0.00     0.00     0.00     0.00     0.00    0.00    0.00    0.00   0.00   0.00
sdh               0.00     0.00    0.00    0.00     0.00     0.00     0.00     0.00    0.00    0.00    0.00   0.00   0.00
md0               0.00     0.00 8529.00    0.00 37684.00     0.00     8.84     0.00    0.00    0.00    0.00   0.00   0.00

avg-cpu:  %user   %nice %system %iowait  %steal   %idle
          24.37    0.00    2.79    7.61    0.00   65.23

Device:         rrqm/s   wrqm/s     r/s     w/s    rkB/s    wkB/s avgrq-sz avgqu-sz   await r_await w_await  svctm  %util
sda               0.00     0.00 1424.00    0.00  6128.00     0.00     8.61     0.14    0.10    0.10    0.00   0.10  14.30
sdb               0.00     0.00 1418.00    0.00  6208.00     0.00     8.76     0.14    0.10    0.10    0.00   0.10  14.00
sdc               0.00     0.00 1469.00    0.00  6248.00     0.00     8.51     0.14    0.10    0.10    0.00   0.10  14.20
sdd               0.00     0.00 1389.00    0.00  6168.00     0.00     8.88     0.16    0.12    0.12    0.00   0.12  16.10
sde               0.00     0.00 1323.00    0.00  5660.00     0.00     8.56     0.13    0.10    0.10    0.00   0.10  12.60
sdf               0.00     0.00 1446.00    0.00  6140.00     0.00     8.49     0.15    0.11    0.11    0.00   0.11  15.20
sdg               0.00     0.00    8.00    2.00    32.00     8.00     8.00     0.00    0.10    0.12    0.00   0.10   0.10
sdh               0.00     0.00    0.00    0.00     0.00     0.00     0.00     0.00    0.00    0.00    0.00   0.00   0.00
md0               0.00     0.00 8469.00    0.00 36640.00     0.00     8.65     0.00    0.00    0.00    0.00   0.00   0.00

avg-cpu:  %user   %nice %system %iowait  %steal   %idle
          24.37    0.00    3.27   20.85    0.00   51.51

Device:         rrqm/s   wrqm/s     r/s     w/s    rkB/s    wkB/s avgrq-sz avgqu-sz   await r_await w_await  svctm  %util
sda               0.00     0.00 1411.00    0.00  6284.00     0.00     8.91     0.14    0.10    0.10    0.00   0.10  14.30
sdb               0.00     0.00 1424.00    0.00  6208.00     0.00     8.72     0.16    0.11    0.11    0.00   0.11  15.70
sdc               0.00     0.00 1347.00    0.00  5764.00     0.00     8.56     0.14    0.10    0.10    0.00   0.10  14.10
sdd               0.00     0.00 1393.00    0.00  6076.00     0.00     8.72     0.19    0.13    0.13    0.00   0.13  18.40
sde               0.00     0.00 1401.00    0.00  6224.00     0.00     8.89     0.13    0.09    0.09    0.00   0.09  12.60
sdf               0.00     0.00 1418.00    0.00  6052.00     0.00     8.54     0.13    0.09    0.09    0.00   0.09  13.30
sdg               0.00     0.00    0.00    0.00     0.00     0.00     0.00     0.00    0.00    0.00    0.00   0.00   0.00
sdh               0.00     0.00    0.00    0.00     0.00     0.00     0.00     0.00    0.00    0.00    0.00   0.00   0.00
md0               0.00     0.00 8393.00    0.00 36796.00     0.00     8.77     0.00    0.00    0.00    0.00   0.00   0.00

avg-cpu:  %user   %nice %system %iowait  %steal   %idle
          24.94    0.00    2.77   20.91    0.00   51.39

Device:         rrqm/s   wrqm/s     r/s     w/s    rkB/s    wkB/s avgrq-sz avgqu-sz   await r_await w_await  svctm  %util
sda               0.00     0.00 1382.00    0.00  5876.00     0.00     8.50     0.15    0.11    0.11    0.00   0.11  15.30
sdb               0.00     0.00 1372.00    0.00  6252.00     0.00     9.11     0.12    0.09    0.09    0.00   0.09  12.00
sdc               0.00     0.00 1433.00    0.00  6660.00     0.00     9.30     0.16    0.11    0.11    0.00   0.11  15.50
sdd               0.00     0.00 1443.00    0.00  6672.00     0.00     9.25     0.20    0.14    0.14    0.00   0.14  19.80
sde               0.00     0.00 1407.00    0.00  6068.00     0.00     8.63     0.14    0.10    0.10    0.00   0.10  14.40
sdf               0.00     0.00 1320.00    0.00  6004.00     0.00     9.10     0.13    0.10    0.10    0.00   0.10  12.80
sdg               0.00     0.00    0.00    0.00     0.00     0.00     0.00     0.00    0.00    0.00    0.00   0.00   0.00
sdh               0.00     0.00    0.00    0.00     0.00     0.00     0.00     0.00    0.00    0.00    0.00   0.00   0.00
md0               0.00     0.00 8357.00    0.00 37956.00     0.00     9.08     0.00    0.00    0.00    0.00   0.00   0.00

avg-cpu:  %user   %nice %system %iowait  %steal   %idle
          24.37    0.00    2.79    1.52    0.00   71.32

Device:         rrqm/s   wrqm/s     r/s     w/s    rkB/s    wkB/s avgrq-sz avgqu-sz   await r_await w_await  svctm  %util
sda               0.00     0.00 1358.00    0.00  5900.00     0.00     8.69     0.12    0.09    0.09    0.00   0.09  11.60
sdb               0.00     0.00 1408.00    0.00  6032.00     0.00     8.57     0.14    0.10    0.10    0.00   0.10  14.30
sdc               0.00     0.00 1423.00    0.00  6132.00     0.00     8.62     0.15    0.10    0.10    0.00   0.10  14.90
sdd               0.00     0.00 1410.00    0.00  6424.00     0.00     9.11     0.18    0.13    0.13    0.00   0.13  18.10
sde               0.00     0.00 1424.00    0.00  6368.00     0.00     8.94     0.15    0.11    0.11    0.00   0.11  15.10
sdf               0.00     0.00 1452.00    0.00  6488.00     0.00     8.94     0.15    0.10    0.10    0.00   0.10  14.40
sdg               0.00     0.00    0.00    0.00     0.00     0.00     0.00     0.00    0.00    0.00    0.00   0.00   0.00
sdh               0.00     0.00    0.00    0.00     0.00     0.00     0.00     0.00    0.00    0.00    0.00   0.00   0.00
md0               0.00     0.00 8476.00    0.00 37572.00     0.00     8.87     0.00    0.00    0.00    0.00   0.00   0.00

avg-cpu:  %user   %nice %system %iowait  %steal   %idle
          24.49    0.00    3.28   13.13    0.00   59.09

Device:         rrqm/s   wrqm/s     r/s     w/s    rkB/s    wkB/s avgrq-sz avgqu-sz   await r_await w_await  svctm  %util
sda               0.00     0.00 1446.00    0.00  6532.00     0.00     9.03     0.14    0.09    0.09    0.00   0.09  13.50
sdb               0.00     0.00 1376.00    0.00  6296.00     0.00     9.15     0.15    0.11    0.11    0.00   0.10  14.40
sdc               0.00     0.00 1397.00    0.00  6056.00     0.00     8.67     0.15    0.11    0.11    0.00   0.11  15.20
sdd               0.00     0.00 1408.00    0.00  5860.00     0.00     8.32     0.16    0.11    0.11    0.00   0.11  15.70
sde               0.00     0.00 1364.00    0.00  5972.00     0.00     8.76     0.16    0.12    0.12    0.00   0.12  15.70
sdf               0.00     0.00 1402.00    0.00  5996.00     0.00     8.55     0.14    0.10    0.10    0.00   0.10  14.30
sdg               0.00     0.00    5.00    0.00    20.00     0.00     8.00     0.00    0.00    0.00    0.00   0.00   0.00
sdh               0.00     0.00    0.00    0.00     0.00     0.00     0.00     0.00    0.00    0.00    0.00   0.00   0.00
md0               0.00     0.00 8392.00    0.00 36840.00     0.00     8.78     0.00    0.00    0.00    0.00   0.00   0.00

avg-cpu:  %user   %nice %system %iowait  %steal   %idle
          24.56    0.00    3.26   20.80    0.00   51.38

Device:         rrqm/s   wrqm/s     r/s     w/s    rkB/s    wkB/s avgrq-sz avgqu-sz   await r_await w_await  svctm  %util
sda               0.00     0.00 1387.00    0.00  6040.00     0.00     8.71     0.12    0.09    0.09    0.00   0.09  12.30
sdb               0.00     0.00 1449.00    0.00  6432.00     0.00     8.88     0.15    0.11    0.11    0.00   0.11  15.50
sdc               0.00     0.00 1471.00    0.00  6404.00     0.00     8.71     0.15    0.10    0.10    0.00   0.10  14.80
sdd               0.00     0.00 1398.00    0.00  6036.00     0.00     8.64     0.15    0.11    0.11    0.00   0.11  15.40
sde               0.00     0.00 1361.00    0.00  6044.00     0.00     8.88     0.16    0.12    0.12    0.00   0.11  15.60
sdf               0.00     0.00 1396.00    0.00  6136.00     0.00     8.79     0.15    0.11    0.11    0.00   0.11  14.70
sdg               0.00     1.00    0.00    2.00     0.00    36.00    36.00     0.00    0.00    0.00    0.00   0.00   0.00
sdh               0.00     0.00    0.00    0.00     0.00     0.00     0.00     0.00    0.00    0.00    0.00   0.00   0.00
md0               0.00     0.00 8463.00    0.00 37284.00     0.00     8.81     0.00    0.00    0.00    0.00   0.00   0.00

avg-cpu:  %user   %nice %system %iowait  %steal   %idle
          24.24    0.00    3.28    2.53    0.00   69.95

Device:         rrqm/s   wrqm/s     r/s     w/s    rkB/s    wkB/s avgrq-sz avgqu-sz   await r_await w_await  svctm  %util
sda               0.00     0.00 1437.00    0.00  6320.00     0.00     8.80     0.12    0.09    0.09    0.00   0.09  12.40
sdb               0.00     0.00 1363.00    0.00  5932.00     0.00     8.70     0.13    0.09    0.09    0.00   0.09  12.60
sdc               0.00     0.00 1394.00    0.00  5896.00     0.00     8.46     0.14    0.10    0.10    0.00   0.10  13.70
sdd               0.00     0.00 1427.00    0.00  6368.00     0.00     8.93     0.17    0.12    0.12    0.00   0.12  16.90
sde               0.00     0.00 1455.00    0.00  7304.00     0.00    10.04     0.16    0.11    0.11    0.00   0.10  15.20
sdf               0.00     0.00 1372.00    0.00  5660.00     0.00     8.25     0.14    0.10    0.10    0.00   0.10  14.20
sdg               0.00     0.00    0.00    0.00     0.00     0.00     0.00     0.00    0.00    0.00    0.00   0.00   0.00
sdh               0.00     0.00    0.00    0.00     0.00     0.00     0.00     0.00    0.00    0.00    0.00   0.00   0.00
md0               0.00     0.00 8448.00    0.00 37636.00     0.00     8.91     0.00    0.00    0.00    0.00   0.00   0.00

avg-cpu:  %user   %nice %system %iowait  %steal   %idle
          24.62    0.00    2.54    0.76    0.00   72.08

Device:         rrqm/s   wrqm/s     r/s     w/s    rkB/s    wkB/s avgrq-sz avgqu-sz   await r_await w_await  svctm  %util
sda               0.00     0.00 1465.00    0.00  6444.00     0.00     8.80     0.14    0.10    0.10    0.00   0.10  14.00
sdb               0.00     0.00 1447.00    0.00  6912.00     0.00     9.55     0.14    0.10    0.10    0.00   0.09  13.50
sdc               0.00     0.00 1465.00    0.00  7080.00     0.00     9.67     0.18    0.12    0.12    0.00   0.12  17.00
sdd               0.00     0.00 1442.00    0.00  6408.00     0.00     8.89     0.17    0.12    0.12    0.00   0.12  16.90
sde               0.00     0.00 1439.00    0.00  6864.00     0.00     9.54     0.15    0.10    0.10    0.00   0.10  14.50
sdf               0.00     0.00 1434.00    0.00  6072.00     0.00     8.47     0.14    0.10    0.10    0.00   0.10  14.00
sdg               0.00     0.00    0.00    0.00     0.00     0.00     0.00     0.00    0.00    0.00    0.00   0.00   0.00
sdh               0.00     0.00    0.00    0.00     0.00     0.00     0.00     0.00    0.00    0.00    0.00   0.00   0.00
md0               0.00     0.00 8692.00    0.00 40840.00     0.00     9.40     0.00    0.00    0.00    0.00   0.00   0.00

avg-cpu:  %user   %nice %system %iowait  %steal   %idle
          24.62    0.00    2.79    1.02    0.00   71.57

Device:         rrqm/s   wrqm/s     r/s     w/s    rkB/s    wkB/s avgrq-sz avgqu-sz   await r_await w_await  svctm  %util
sda               0.00     0.00 1434.00    0.00  6160.00     0.00     8.59     0.14    0.10    0.10    0.00   0.10  14.20
sdb               0.00     0.00 1443.00    0.00  6576.00     0.00     9.11     0.16    0.11    0.11    0.00   0.10  15.10
sdc               0.00     0.00 1411.00    0.00  6664.00     0.00     9.45     0.14    0.10    0.10    0.00   0.10  13.90
sdd               1.00     0.00 1390.00    0.00  6436.00     0.00     9.26     0.16    0.11    0.11    0.00   0.11  14.70
sde               0.00     0.00 1479.00    0.00  7016.00     0.00     9.49     0.15    0.10    0.10    0.00   0.10  14.10
sdf               0.00     0.00 1494.00    0.00  6660.00     0.00     8.92     0.16    0.11    0.11    0.00   0.10  15.60
sdg               0.00     0.00   16.00    0.00   324.00     0.00    40.50     0.00    0.25    0.25    0.00   0.25   0.40
sdh               0.00     0.00    0.00    0.00     0.00     0.00     0.00     0.00    0.00    0.00    0.00   0.00   0.00
md0               0.00     0.00 8652.00    0.00 39708.00     0.00     9.18     0.00    0.00    0.00    0.00   0.00   0.00

avg-cpu:  %user   %nice %system %iowait  %steal   %idle
          24.49    0.00    2.78    0.76    0.00   71.97

Device:         rrqm/s   wrqm/s     r/s     w/s    rkB/s    wkB/s avgrq-sz avgqu-sz   await r_await w_await  svctm  %util
sda               0.00     0.00 1471.00    0.00  6432.00     0.00     8.75     0.15    0.10    0.10    0.00   0.10  14.70
sdb               0.00     0.00 1391.00    0.00  5968.00     0.00     8.58     0.14    0.10    0.10    0.00   0.10  13.50
sdc               0.00     0.00 1451.00    0.00  6324.00     0.00     8.72     0.15    0.10    0.10    0.00   0.10  15.00
sdd               0.00     0.00 1416.00    0.00  6600.00     0.00     9.32     0.15    0.11    0.11    0.00   0.11  15.10
sde               0.00     0.00 1490.00    0.00  7016.00     0.00     9.42     0.17    0.11    0.11    0.00   0.11  16.00
sdf               0.00     0.00 1464.00    0.00  6500.00     0.00     8.88     0.15    0.10    0.10    0.00   0.10  15.10
sdg               0.00     0.00    0.00    0.00     0.00     0.00     0.00     0.00    0.00    0.00    0.00   0.00   0.00
sdh               0.00     0.00    0.00    0.00     0.00     0.00     0.00     0.00    0.00    0.00    0.00   0.00   0.00
md0               0.00     0.00 8682.00    0.00 39028.00     0.00     8.99     0.00    0.00    0.00    0.00   0.00   0.00

avg-cpu:  %user   %nice %system %iowait  %steal   %idle
          24.94    0.00    2.04    0.76    0.00   72.26

Device:         rrqm/s   wrqm/s     r/s     w/s    rkB/s    wkB/s avgrq-sz avgqu-sz   await r_await w_await  svctm  %util
sda               0.00     0.00 1417.00    0.00  6788.00     0.00     9.58     0.14    0.10    0.10    0.00   0.10  13.70
sdb               0.00     0.00 1459.00    0.00  6692.00     0.00     9.17     0.13    0.09    0.09    0.00   0.09  13.00
sdc               0.00     0.00 1427.00    0.00  6128.00     0.00     8.59     0.15    0.11    0.11    0.00   0.11  15.30
sdd               0.00     0.00 1417.00    0.00  6140.00     0.00     8.67     0.14    0.10    0.10    0.00   0.10  14.20
sde               0.00     0.00 1497.00    0.00  6544.00     0.00     8.74     0.17    0.11    0.11    0.00   0.11  16.80
sdf               0.00     0.00 1476.00    0.00  6888.00     0.00     9.33     0.16    0.11    0.11    0.00   0.11  15.80
sdg               0.00     0.00    0.00    0.00     0.00     0.00     0.00     0.00    0.00    0.00    0.00   0.00   0.00
sdh               0.00     0.00    0.00    0.00     0.00     0.00     0.00     0.00    0.00    0.00    0.00   0.00   0.00
md0               0.00     0.00 8694.00    0.00 39568.00     0.00     9.10     0.00    0.00    0.00    0.00   0.00   0.00

avg-cpu:  %user   %nice %system %iowait  %steal   %idle
          24.62    0.00    2.54    0.76    0.00   72.08

Device:         rrqm/s   wrqm/s     r/s     w/s    rkB/s    wkB/s avgrq-sz avgqu-sz   await r_await w_await  svctm  %util
sda               0.00     0.00 1453.00    0.00  6368.00     0.00     8.77     0.14    0.09    0.09    0.00   0.09  13.60
sdb               0.00     0.00 1443.00    0.00  6228.00     0.00     8.63     0.13    0.09    0.09    0.00   0.09  12.80
sdc               0.00     0.00 1449.00    0.00  6664.00     0.00     9.20     0.17    0.11    0.11    0.00   0.11  16.40
sdd               0.00     0.00 1437.00    0.00  6180.00     0.00     8.60     0.17    0.11    0.11    0.00   0.11  16.50
sde               0.00     0.00 1413.00    0.00  5960.00     0.00     8.44     0.14    0.10    0.10    0.00   0.10  14.50
sdf               0.00     0.00 1495.00    0.00  6540.00     0.00     8.75     0.16    0.11    0.11    0.00   0.11  15.70
sdg               0.00     0.00    0.00    0.00     0.00     0.00     0.00     0.00    0.00    0.00    0.00   0.00   0.00
sdh               0.00     0.00    0.00    0.00     0.00     0.00     0.00     0.00    0.00    0.00    0.00   0.00   0.00
md0               0.00     0.00 8689.00    0.00 38052.00     0.00     8.76     0.00    0.00    0.00    0.00   0.00   0.00

avg-cpu:  %user   %nice %system %iowait  %steal   %idle
          24.81    0.00    2.53    0.76    0.00   71.90

Device:         rrqm/s   wrqm/s     r/s     w/s    rkB/s    wkB/s avgrq-sz avgqu-sz   await r_await w_await  svctm  %util
sda               0.00     0.00 1439.00    0.00  6220.00     0.00     8.64     0.13    0.09    0.09    0.00   0.09  13.20
sdb               0.00     0.00 1470.00    0.00  6528.00     0.00     8.88     0.16    0.11    0.11    0.00   0.11  15.60
sdc               0.00     0.00 1443.00    0.00  6256.00     0.00     8.67     0.14    0.10    0.10    0.00   0.10  14.10
sdd               0.00     0.00 1480.00    0.00  6612.00     0.00     8.94     0.16    0.11    0.11    0.00   0.10  15.50
sde               0.00     0.00 1482.00    0.00  6600.00     0.00     8.91     0.16    0.11    0.11    0.00   0.10  15.50
sdf               0.00     0.00 1377.00    0.00  5820.00     0.00     8.45     0.15    0.11    0.11    0.00   0.11  15.00
sdg               0.00     0.00    0.00    0.00     0.00     0.00     0.00     0.00    0.00    0.00    0.00   0.00   0.00
sdh               0.00     0.00    0.00    0.00     0.00     0.00     0.00     0.00    0.00    0.00    0.00   0.00   0.00
md0               0.00     0.00 8692.00    0.00 38176.00     0.00     8.78     0.00    0.00    0.00    0.00   0.00   0.00

