Linux 4.17.2 (bench) 	08/03/2018 	_x86_64_	(4 CPU)

avg-cpu:  %user   %nice %system %iowait  %steal   %idle
          10.30    0.02    3.95    2.38    0.00   83.35

Device:         rrqm/s   wrqm/s     r/s     w/s    rkB/s    wkB/s avgrq-sz avgqu-sz   await r_await w_await  svctm  %util
sda              37.65     4.30 1579.44  104.08 20493.57  3176.24    28.12     1.02    0.61    0.26    5.91   0.06  10.39
sdb              37.55     4.26 1579.31  104.22 20482.86  3172.85    28.10     1.02    0.61    0.26    5.85   0.06  10.27
sdc              75.81     4.32 1538.97  103.77 20475.07  3175.35    28.79     1.44    0.88    0.45    7.12   0.08  13.69
sdd              69.10     4.29 1544.83  103.84 20459.63  3171.49    28.67     1.45    0.88    0.44    7.32   0.08  13.78
sde              71.19     4.33 1550.01  103.94 20520.74  3175.80    28.65     1.47    0.89    0.45    7.43   0.08  13.80
sdf              68.27     4.30 1552.19  103.88 20501.64  3172.62    28.59     1.51    0.91    0.44    7.90   0.08  13.83
sdg               0.00     3.18   25.71   73.37   321.53   392.00    14.40     0.44    4.44    0.20    5.93   0.08   0.77
sdh               0.00     0.13    0.02    0.24     2.24     5.14    56.82     0.00    1.15    0.65    1.19   0.21   0.01
md0               0.00     0.00 9710.23  487.61 140267.47 21748.42    31.77     0.00    0.00    0.00    0.00   0.00   0.00

avg-cpu:  %user   %nice %system %iowait  %steal   %idle
          24.08    0.01    2.77    3.43    0.00   69.71

Device:         rrqm/s   wrqm/s     r/s     w/s    rkB/s    wkB/s avgrq-sz avgqu-sz   await r_await w_await  svctm  %util
sda               0.00     0.00 1466.10    0.00  5864.40     0.00     8.00     0.15    0.10    0.10    0.00   0.10  14.60
sdb               0.00     0.00 1493.80    0.00  5975.20     0.00     8.00     0.15    0.10    0.10    0.00   0.10  15.12
sdc               0.00     0.00 1468.95    0.00  5875.80     0.00     8.00     0.16    0.11    0.11    0.00   0.11  15.69
sdd               0.00     0.00 1478.35    0.00  5913.40     0.00     8.00     0.16    0.11    0.11    0.00   0.11  15.82
sde               0.00     0.00 1467.05    0.00  5868.20     0.00     8.00     0.16    0.11    0.11    0.00   0.11  15.72
sdf               0.00     0.00 1468.30    0.00  5873.20     0.00     8.00     0.16    0.11    0.11    0.00   0.11  15.61
sdg               0.00     0.00   97.35    0.55   433.60     8.80     9.04     0.01    0.12    0.12    0.00   0.12   1.18
sdh               0.00     0.00    0.00    0.00     0.00     0.00     0.00     0.00    0.00    0.00    0.00   0.00   0.00
md0               0.00     0.00 8842.70    0.00 35370.80     0.00     8.00     0.00    0.00    0.00    0.00   0.00   0.00

