Linux 4.17.2 (bench) 	08/03/2018 	_x86_64_	(4 CPU)

avg-cpu:  %user   %nice %system %iowait  %steal   %idle
          10.30    0.02    3.96    2.41    0.00   83.31

Device:         rrqm/s   wrqm/s     r/s     w/s    rkB/s    wkB/s avgrq-sz avgqu-sz   await r_await w_await  svctm  %util
sda              38.65     4.29 1589.52  103.85 20537.78  3169.08    28.00     1.02    0.60    0.26    5.91   0.06  10.44
sdb              38.56     4.25 1589.39  103.99 20527.15  3165.70    27.98     1.02    0.60    0.26    5.85   0.06  10.32
sdc              76.72     4.31 1549.15  103.53 20519.40  3168.20    28.67     1.44    0.87    0.45    7.12   0.08  13.74
sdd              70.04     4.28 1554.99  103.61 20504.00  3164.34    28.54     1.45    0.87    0.44    7.32   0.08  13.83
sde              72.12     4.32 1560.15  103.70 20564.89  3168.64    28.53     1.47    0.88    0.45    7.43   0.08  13.85
sdf              69.20     4.29 1562.33  103.65 20545.83  3165.47    28.47     1.51    0.91    0.44    7.90   0.08  13.88
sdg               0.00     3.18   25.78   73.35   321.75   391.94    14.40     0.44    4.44    0.20    5.93   0.08   0.77
sdh               0.00     0.13    0.02    0.24     2.24     5.13    56.82     0.00    1.15    0.65    1.19   0.21   0.01
md0               0.00     0.00 9776.72  486.51 140569.17 21699.40    31.62     0.00    0.00    0.00    0.00   0.00   0.00

avg-cpu:  %user   %nice %system %iowait  %steal   %idle
          22.14    0.00    7.96    9.45    0.00   60.45

Device:         rrqm/s   wrqm/s     r/s     w/s    rkB/s    wkB/s avgrq-sz avgqu-sz   await r_await w_await  svctm  %util
sda              38.00     0.00  704.00    0.00 69352.00     0.00   197.02     0.34    0.49    0.49    0.00   0.35  24.70
sdb              44.00     0.00  702.00    0.00 71848.00     0.00   204.70     0.36    0.51    0.51    0.00   0.35  24.90
sdc              40.00     0.00  682.00    0.00 72800.00     0.00   213.49     0.58    0.85    0.85    0.00   0.51  34.90
sdd              52.00     0.00  738.00    0.00 68196.00     0.00   184.81     0.53    0.72    0.72    0.00   0.45  33.50
sde              37.00     0.00  726.00    0.00 67732.00     0.00   186.59     0.50    0.68    0.68    0.00   0.45  32.90
sdf              52.00     0.00  747.00    0.00 70968.00     0.00   190.01     0.53    0.70    0.70    0.00   0.46  34.30
sdg               0.00    46.00    3.00 2134.00   100.00 10584.00    10.00    13.19    7.03    2.67    7.04   0.04   9.60
sdh               0.00     0.00    0.00    0.00     0.00     0.00     0.00     0.00    0.00    0.00    0.00   0.00   0.00
md0               0.00     0.00 4574.00    0.00 554712.00     0.00   242.55     0.00    0.00    0.00    0.00   0.00   0.00

avg-cpu:  %user   %nice %system %iowait  %steal   %idle
          23.69    0.00    4.74   11.47    0.00   60.10

Device:         rrqm/s   wrqm/s     r/s     w/s    rkB/s    wkB/s avgrq-sz avgqu-sz   await r_await w_await  svctm  %util
sda              92.00     0.00  685.00    0.00 84168.00     0.00   245.75     0.40    0.58    0.58    0.00   0.40  27.60
sdb              87.00     0.00  628.00    0.00 84896.00     0.00   270.37     0.40    0.64    0.64    0.00   0.44  27.80
sdc             101.00     0.00  631.00    0.00 90072.00     0.00   285.49     0.63    1.00    1.00    0.00   0.68  43.20
sdd              86.00     0.00  641.00    0.00 88540.00     0.00   276.26     0.64    1.00    1.00    0.00   0.67  43.10
sde              99.00     0.00  624.00    0.00 90036.00     0.00   288.58     0.68    1.09    1.09    0.00   0.69  42.90
sdf              96.00     0.00  613.00    0.00 85380.00     0.00   278.56     0.63    1.03    1.03    0.00   0.68  41.80
sdg               0.00     0.00    1.00    2.00    16.00    28.00    29.33     0.00    0.00    0.00    0.00   0.00   0.00
sdh               0.00     0.00    0.00    0.00     0.00     0.00     0.00     0.00    0.00    0.00    0.00   0.00   0.00
md0               0.00     0.00 4377.00    0.00 727948.00     0.00   332.62     0.00    0.00    0.00    0.00   0.00   0.00

avg-cpu:  %user   %nice %system %iowait  %steal   %idle
          23.88    0.00    4.73   14.43    0.00   56.97

Device:         rrqm/s   wrqm/s     r/s     w/s    rkB/s    wkB/s avgrq-sz avgqu-sz   await r_await w_await  svctm  %util
sda             110.00     0.00  627.00    0.00 91948.00     0.00   293.30     0.41    0.66    0.66    0.00   0.48  30.30
sdb             106.00     0.00  572.00    0.00 89044.00     0.00   311.34     0.40    0.70    0.70    0.00   0.51  29.30
sdc             109.00     0.00  579.00    0.00 88960.00     0.00   307.29     0.62    1.07    1.07    0.00   0.76  44.20
sdd             114.00     0.00  571.00    0.00 93900.00     0.00   328.90     0.63    1.10    1.10    0.00   0.82  46.60
sde             108.00     0.00  610.00    0.00 92236.00     0.00   302.41     0.63    1.03    1.03    0.00   0.73  44.80
sdf             107.00     0.00  588.00    0.00 92604.00     0.00   314.98     0.62    1.05    1.05    0.00   0.76  44.60
sdg               0.00     0.00    0.00    0.00     0.00     0.00     0.00     0.00    0.00    0.00    0.00   0.00   0.00
sdh               0.00     0.00    0.00    0.00     0.00     0.00     0.00     0.00    0.00    0.00    0.00   0.00   0.00
md0               0.00     0.00 4200.00    0.00 778948.00     0.00   370.93     0.00    0.00    0.00    0.00   0.00   0.00

avg-cpu:  %user   %nice %system %iowait  %steal   %idle
          23.88    0.00    4.48   14.93    0.00   56.72

Device:         rrqm/s   wrqm/s     r/s     w/s    rkB/s    wkB/s avgrq-sz avgqu-sz   await r_await w_await  svctm  %util
sda             101.00     0.00  561.00    0.00 89864.00     0.00   320.37     0.38    0.68    0.68    0.00   0.51  28.70
sdb             102.00     0.00  572.00    0.00 83832.00     0.00   293.12     0.35    0.62    0.62    0.00   0.48  27.50
sdc              94.00     0.00  601.00    0.00 81816.00     0.00   272.27     0.57    0.94    0.94    0.00   0.68  40.70
sdd              89.00     0.00  656.00    0.00 84668.00     0.00   258.13     0.61    0.93    0.93    0.00   0.65  42.80
sde             103.00     0.00  695.00    0.00 94500.00     0.00   271.94     0.65    0.93    0.93    0.00   0.66  46.20
sdf             114.00     0.00  574.00    0.00 93460.00     0.00   325.64     0.63    1.10    1.10    0.00   0.79  45.60
sdg               0.00     0.00    0.00    0.00     0.00     0.00     0.00     0.00    0.00    0.00    0.00   0.00   0.00
sdh               0.00     0.00    0.00    0.00     0.00     0.00     0.00     0.00    0.00    0.00    0.00   0.00   0.00
md0               0.00     0.00 4261.00    0.00 720420.00     0.00   338.15     0.00    0.00    0.00    0.00   0.00   0.00

avg-cpu:  %user   %nice %system %iowait  %steal   %idle
          24.07    0.00    4.47   12.41    0.00   59.06

Device:         rrqm/s   wrqm/s     r/s     w/s    rkB/s    wkB/s avgrq-sz avgqu-sz   await r_await w_await  svctm  %util
sda              69.00     0.00  627.00    0.00 79844.00     0.00   254.69     0.32    0.51    0.51    0.00   0.42  26.60
sdb              76.00     0.00  603.00    0.00 81072.00     0.00   268.90     0.31    0.52    0.52    0.00   0.44  26.50
sdc              82.00     0.00  587.00    0.00 84184.00     0.00   286.83     0.47    0.80    0.80    0.00   0.67  39.20
sdd              80.00     0.00  633.00    0.00 76392.00     0.00   241.36     0.45    0.71    0.71    0.00   0.60  37.90
sde              68.00     0.00  615.00    0.00 79144.00     0.00   257.38     0.47    0.76    0.76    0.00   0.62  38.20
sdf              80.00     0.00  614.00    0.00 78308.00     0.00   255.07     0.45    0.74    0.74    0.00   0.61  37.30
sdg               0.00     0.00    0.00    0.00     0.00     0.00     0.00     0.00    0.00    0.00    0.00   0.00   0.00
sdh               0.00     0.00    0.00    0.00     0.00     0.00     0.00     0.00    0.00    0.00    0.00   0.00   0.00
md0               0.00     0.00 4136.00    0.00 663908.00     0.00   321.04     0.00    0.00    0.00    0.00   0.00   0.00

avg-cpu:  %user   %nice %system %iowait  %steal   %idle
          23.02    0.00    5.20    8.17    0.00   63.61

Device:         rrqm/s   wrqm/s     r/s     w/s    rkB/s    wkB/s avgrq-sz avgqu-sz   await r_await w_await  svctm  %util
sda             110.00     0.00  610.00    0.00 92204.00     0.00   302.31     0.40    0.66    0.66    0.00   0.49  30.10
sdb             105.00     0.00  631.00    0.00 94340.00     0.00   299.02     0.43    0.69    0.69    0.00   0.49  31.20
sdc             118.00     0.00  575.00    0.00 92812.00     0.00   322.82     0.64    1.10    1.10    0.00   0.79  45.20
sdd             110.00     0.00  617.00    0.00 94188.00     0.00   305.31     0.66    1.06    1.06    0.00   0.75  46.40
sde             108.00     0.00  603.00    0.00 92748.00     0.00   307.62     0.62    1.03    1.03    0.00   0.75  45.00
sdf             106.00     0.00  614.00    0.00 91596.00     0.00   298.36     0.65    1.05    1.05    0.00   0.73  45.00
sdg               0.00     0.00   12.00    6.00    48.00    24.00     8.00     0.00    0.06    0.08    0.00   0.06   0.10
sdh               0.00     0.00    0.00    0.00     0.00     0.00     0.00     0.00    0.00    0.00    0.00   0.00   0.00
md0               0.00     0.00 4307.00    0.00 796356.00     0.00   369.80     0.00    0.00    0.00    0.00   0.00   0.00

avg-cpu:  %user   %nice %system %iowait  %steal   %idle
          23.57    0.00    4.96    7.69    0.00   63.77

Device:         rrqm/s   wrqm/s     r/s     w/s    rkB/s    wkB/s avgrq-sz avgqu-sz   await r_await w_await  svctm  %util
sda              88.00     0.00  620.00    0.00 81408.00     0.00   262.61     0.33    0.52    0.52    0.00   0.42  25.80
sdb             100.00     0.00  638.00    0.00 88024.00     0.00   275.94     0.36    0.57    0.57    0.00   0.44  28.20
sdc              93.00     0.00  617.00    0.00 87972.00     0.00   285.16     0.57    0.91    0.91    0.00   0.68  41.80
sdd              94.00     0.00  607.00    0.00 83664.00     0.00   275.66     0.55    0.90    0.90    0.00   0.68  41.10
sde              82.00     0.00  641.00    0.00 82628.00     0.00   257.81     0.56    0.86    0.86    0.00   0.66  42.10
sdf              86.00     0.00  641.00    0.00 80716.00     0.00   251.84     0.52    0.79    0.79    0.00   0.61  39.30
sdg               0.00     0.00   22.00    0.00   136.00     0.00    12.36     0.00    0.09    0.09    0.00   0.09   0.20
sdh               0.00     0.00    0.00    0.00     0.00     0.00     0.00     0.00    0.00    0.00    0.00   0.00   0.00
md0               0.00     0.00 4318.00    0.00 707312.00     0.00   327.61     0.00    0.00    0.00    0.00   0.00   0.00

avg-cpu:  %user   %nice %system %iowait  %steal   %idle
          23.51    0.00    4.95    7.43    0.00   64.11

Device:         rrqm/s   wrqm/s     r/s     w/s    rkB/s    wkB/s avgrq-sz avgqu-sz   await r_await w_await  svctm  %util
sda              90.00     0.00  678.00    0.00 90276.00     0.00   266.30     0.39    0.58    0.58    0.00   0.43  29.40
sdb              95.00     0.00  603.00    0.00 86612.00     0.00   287.27     0.36    0.60    0.60    0.00   0.45  27.10
sdc              91.00     0.00  604.00    0.00 86216.00     0.00   285.48     0.58    0.98    0.98    0.00   0.69  41.40
sdd              89.00     0.00  591.00    0.00 85728.00     0.00   290.11     0.57    0.99    0.99    0.00   0.69  40.90
sde             101.00     0.00  607.00    0.00 86768.00     0.00   285.89     0.58    0.99    0.99    0.00   0.67  40.70
sdf              93.00     0.00  621.00    0.00 88948.00     0.00   286.47     0.60    0.99    0.99    0.00   0.68  42.30
sdg               0.00     0.00    0.00    0.00     0.00     0.00     0.00     0.00    0.00    0.00    0.00   0.00   0.00
sdh               0.00     0.00    0.00    0.00     0.00     0.00     0.00     0.00    0.00    0.00    0.00   0.00   0.00
md0               0.00     0.00 4251.00    0.00 749568.00     0.00   352.65     0.00    0.00    0.00    0.00   0.00   0.00

avg-cpu:  %user   %nice %system %iowait  %steal   %idle
          23.51    0.00    4.70    8.17    0.00   63.61

Device:         rrqm/s   wrqm/s     r/s     w/s    rkB/s    wkB/s avgrq-sz avgqu-sz   await r_await w_await  svctm  %util
sda             103.00     0.00  626.00    0.00 94072.00     0.00   300.55     0.39    0.62    0.62    0.00   0.47  29.30
sdb              93.00     0.00  642.00    0.00 90612.00     0.00   282.28     0.40    0.62    0.62    0.00   0.47  30.10
sdc             105.00     0.00  604.00    0.00 86928.00     0.00   287.84     0.58    0.96    0.96    0.00   0.72  43.70
sdd              97.00     0.00  610.00    0.00 90112.00     0.00   295.45     0.59    0.97    0.97    0.00   0.72  43.90
sde              96.00     0.00  633.00    0.00 90556.00     0.00   286.12     0.61    0.97    0.97    0.00   0.71  45.20
sdf             103.00     0.00  568.00    0.00 89496.00     0.00   315.13     0.56    0.99    0.99    0.00   0.76  43.10
sdg               0.00     0.00    0.00    0.00     0.00     0.00     0.00     0.00    0.00    0.00    0.00   0.00   0.00
sdh               0.00     0.00    0.00    0.00     0.00     0.00     0.00     0.00    0.00    0.00    0.00   0.00   0.00
md0               0.00     0.00 4278.00    0.00 754424.00     0.00   352.70     0.00    0.00    0.00    0.00   0.00   0.00

avg-cpu:  %user   %nice %system %iowait  %steal   %idle
          23.02    0.00    5.69    7.67    0.00   63.61

Device:         rrqm/s   wrqm/s     r/s     w/s    rkB/s    wkB/s avgrq-sz avgqu-sz   await r_await w_await  svctm  %util
sda              88.00     0.00  636.00    0.00 85480.00     0.00   268.81     0.36    0.57    0.57    0.00   0.44  28.00
sdb              89.00     0.00  642.00    0.00 86984.00     0.00   270.98     0.36    0.56    0.56    0.00   0.44  28.50
sdc              91.00     0.00  594.00    0.00 86660.00     0.00   291.78     0.53    0.89    0.89    0.00   0.69  40.70
sdd              90.00     0.00  607.00    0.00 87764.00     0.00   289.17     0.54    0.89    0.89    0.00   0.70  42.30
sde              89.00     0.00  598.00    0.00 83412.00     0.00   278.97     0.53    0.89    0.89    0.00   0.68  40.90
sdf              87.00     0.00  645.00    0.00 82660.00     0.00   256.31     0.55    0.85    0.85    0.00   0.64  41.40
sdg               0.00     0.00    0.00    0.00     0.00     0.00     0.00     0.00    0.00    0.00    0.00   0.00   0.00
sdh               0.00     0.00    0.00    0.00     0.00     0.00     0.00     0.00    0.00    0.00    0.00   0.00   0.00
md0               0.00     0.00 4258.00    0.00 730828.00     0.00   343.27     0.00    0.00    0.00    0.00   0.00   0.00

avg-cpu:  %user   %nice %system %iowait  %steal   %idle
          22.85    0.00    5.90    7.37    0.00   63.88

Device:         rrqm/s   wrqm/s     r/s     w/s    rkB/s    wkB/s avgrq-sz avgqu-sz   await r_await w_await  svctm  %util
sda              88.00     0.00  569.00    0.00 82308.00     0.00   289.31     0.31    0.54    0.54    0.00   0.45  25.40
sdb              79.00     0.00  638.00    0.00 82136.00     0.00   257.48     0.31    0.49    0.49    0.00   0.39  25.10
sdc              78.00     0.00  632.00    0.00 78032.00     0.00   246.94     0.47    0.75    0.75    0.00   0.60  37.80
sdd              74.00     0.00  674.00    0.00 82296.00     0.00   244.20     0.49    0.73    0.73    0.00   0.59  39.80
sde              83.00     0.00  636.00    0.00 81920.00     0.00   257.61     0.48    0.76    0.76    0.00   0.62  39.70
sdf              78.00     0.00  614.00    0.00 83196.00     0.00   271.00     0.49    0.80    0.80    0.00   0.65  40.10
sdg               0.00     0.00    0.00    3.00     0.00    36.00    24.00     0.00    0.00    0.00    0.00   0.00   0.00
sdh               0.00     0.00    0.00    0.00     0.00     0.00     0.00     0.00    0.00    0.00    0.00   0.00   0.00
md0               0.00     0.00 4247.00    0.00 667996.00     0.00   314.57     0.00    0.00    0.00    0.00   0.00   0.00

avg-cpu:  %user   %nice %system %iowait  %steal   %idle
          23.15    0.00    5.67    8.13    0.00   63.05

Device:         rrqm/s   wrqm/s     r/s     w/s    rkB/s    wkB/s avgrq-sz avgqu-sz   await r_await w_await  svctm  %util
sda             106.00     0.00  588.00    0.00 91444.00     0.00   311.03     0.38    0.65    0.65    0.00   0.49  29.00
sdb             107.00     0.00  611.00    0.00 93860.00     0.00   307.23     0.39    0.64    0.64    0.00   0.48  29.40
sdc             110.00     0.00  577.00    0.00 92744.00     0.00   321.47     0.61    1.05    1.05    0.00   0.78  45.00
sdd             103.00     0.00  592.00    0.00 90436.00     0.00   305.53     0.60    1.02    1.02    0.00   0.75  44.50
sde              99.00     0.00  591.00    0.00 86712.00     0.00   293.44     0.61    1.03    1.03    0.00   0.73  43.00
sdf             102.00     0.00  619.00    0.00 89436.00     0.00   288.97     0.60    0.97    0.97    0.00   0.71  44.20
sdg               0.00     0.00    0.00    0.00     0.00     0.00     0.00     0.00    0.00    0.00    0.00   0.00   0.00
sdh               0.00     0.00    0.00    0.00     0.00     0.00     0.00     0.00    0.00    0.00    0.00   0.00   0.00
md0               0.00     0.00 4202.00    0.00 743344.00     0.00   353.80     0.00    0.00    0.00    0.00   0.00   0.00

avg-cpu:  %user   %nice %system %iowait  %steal   %idle
          23.63    0.00    4.98    7.96    0.00   63.43

Device:         rrqm/s   wrqm/s     r/s     w/s    rkB/s    wkB/s avgrq-sz avgqu-sz   await r_await w_await  svctm  %util
sda              89.00     0.00  626.00    0.00 86208.00     0.00   275.42     0.35    0.56    0.56    0.00   0.45  28.00
sdb              86.00     0.00  645.00    0.00 86036.00     0.00   266.78     0.36    0.56    0.56    0.00   0.44  28.20
sdc              84.00     0.00  642.00    0.00 85416.00     0.00   266.09     0.54    0.84    0.84    0.00   0.63  40.20
sdd              84.00     0.00  615.00    0.00 81308.00     0.00   264.42     0.52    0.84    0.84    0.00   0.66  40.40
sde              86.00     0.00  591.00    0.00 82708.00     0.00   279.89     0.53    0.90    0.90    0.00   0.70  41.10
sdf              85.00     0.00  642.00    0.00 84316.00     0.00   262.67     0.53    0.83    0.83    0.00   0.64  41.10
sdg               0.00     0.00    0.00    0.00     0.00     0.00     0.00     0.00    0.00    0.00    0.00   0.00   0.00
sdh               0.00     0.00    0.00    0.00     0.00     0.00     0.00     0.00    0.00    0.00    0.00   0.00   0.00
md0               0.00     0.00 4275.00    0.00 704328.00     0.00   329.51     0.00    0.00    0.00    0.00   0.00   0.00

avg-cpu:  %user   %nice %system %iowait  %steal   %idle
          23.56    0.00    4.76    7.77    0.00   63.91

Device:         rrqm/s   wrqm/s     r/s     w/s    rkB/s    wkB/s avgrq-sz avgqu-sz   await r_await w_await  svctm  %util
sda              93.00     0.00  630.00    0.00 86664.00     0.00   275.12     0.36    0.57    0.57    0.00   0.45  28.30
sdb              86.00     0.00  697.00    0.00 88616.00     0.00   254.28     0.39    0.56    0.56    0.00   0.43  30.20
sdc              87.00     0.00  658.00    0.00 86100.00     0.00   261.70     0.56    0.84    0.84    0.00   0.65  43.00
sdd              89.00     0.00  607.00    0.00 84928.00     0.00   279.83     0.54    0.88    0.88    0.00   0.69  41.60
sde              86.00     0.00  631.00    0.00 85232.00     0.00   270.15     0.52    0.82    0.82    0.00   0.65  41.00
sdf              85.00     0.00  598.00    0.00 81820.00     0.00   273.65     0.53    0.88    0.88    0.00   0.66  39.20
sdg               0.00     0.00    0.00    0.00     0.00     0.00     0.00     0.00    0.00    0.00    0.00   0.00   0.00
sdh               0.00     0.00    0.00    0.00     0.00     0.00     0.00     0.00    0.00    0.00    0.00   0.00   0.00
md0               0.00     0.00 4345.00    0.00 709056.00     0.00   326.38     0.00    0.00    0.00    0.00   0.00   0.00

avg-cpu:  %user   %nice %system %iowait  %steal   %idle
          23.50    0.00    4.75    8.00    0.00   63.75

Device:         rrqm/s   wrqm/s     r/s     w/s    rkB/s    wkB/s avgrq-sz avgqu-sz   await r_await w_await  svctm  %util
sda              88.00     0.00  621.00    0.00 81276.00     0.00   261.76     0.34    0.56    0.56    0.00   0.44  27.20
sdb              83.00     0.00  578.00    0.00 80172.00     0.00   277.41     0.33    0.58    0.58    0.00   0.44  25.20
sdc              84.00     0.00  695.00    0.00 84216.00     0.00   242.35     0.56    0.81    0.81    0.00   0.59  40.90
sdd              86.00     0.00  625.00    0.00 89836.00     0.00   287.48     0.57    0.92    0.92    0.00   0.68  42.50
sde              99.00     0.00  610.00    0.00 87384.00     0.00   286.50     0.55    0.89    0.89    0.00   0.68  41.60
sdf              81.00     0.00  645.00    0.00 84132.00     0.00   260.87     0.56    0.88    0.88    0.00   0.64  41.60
sdg               0.00     0.00    0.00    0.00     0.00     0.00     0.00     0.00    0.00    0.00    0.00   0.00   0.00
sdh               0.00     0.00    0.00    0.00     0.00     0.00     0.00     0.00    0.00    0.00    0.00   0.00   0.00
md0               0.00     0.00 4296.00    0.00 709112.00     0.00   330.13     0.00    0.00    0.00    0.00   0.00   0.00

avg-cpu:  %user   %nice %system %iowait  %steal   %idle
          23.37    0.00    4.77    8.54    0.00   63.32

Device:         rrqm/s   wrqm/s     r/s     w/s    rkB/s    wkB/s avgrq-sz avgqu-sz   await r_await w_await  svctm  %util
sda             102.00     0.00  578.00    0.00 86916.00     0.00   300.75     0.38    0.66    0.66    0.00   0.48  27.90
sdb             100.00     0.00  624.00    0.00 89304.00     0.00   286.23     0.40    0.63    0.63    0.00   0.46  28.90
sdc             106.00     0.00  623.00    0.00 90600.00     0.00   290.85     0.64    1.02    1.02    0.00   0.72  44.80
sdd             101.00     0.00  622.00    0.00 92968.00     0.00   298.93     0.62    1.00    1.00    0.00   0.71  44.30
sde             101.00     0.00  637.00    0.00 91780.00     0.00   288.16     0.64    1.00    1.00    0.00   0.71  45.00
sdf             103.00     0.00  560.00    0.00 86352.00     0.00   308.40     0.60    1.08    1.08    0.00   0.76  42.30
sdg               0.00     0.00    0.00    0.00     0.00     0.00     0.00     0.00    0.00    0.00    0.00   0.00   0.00
sdh               0.00     0.00    0.00    0.00     0.00     0.00     0.00     0.00    0.00    0.00    0.00   0.00   0.00
md0               0.00     0.00 4255.00    0.00 756444.00     0.00   355.56     0.00    0.00    0.00    0.00   0.00   0.00

avg-cpu:  %user   %nice %system %iowait  %steal   %idle
          23.81    0.25    4.26    8.02    0.00   63.66

Device:         rrqm/s   wrqm/s     r/s     w/s    rkB/s    wkB/s avgrq-sz avgqu-sz   await r_await w_await  svctm  %util
sda              86.00     0.00  616.00    0.00 81892.00     0.00   265.88     0.34    0.55    0.55    0.00   0.45  27.50
sdb              83.00     0.00  603.00    0.00 78264.00     0.00   259.58     0.33    0.54    0.54    0.00   0.43  25.90
sdc              84.00     0.00  633.00    0.00 82220.00     0.00   259.78     0.52    0.81    0.81    0.00   0.63  39.90
sdd              86.00     0.00  609.00    0.00 84576.00     0.00   277.75     0.53    0.87    0.87    0.00   0.67  41.10
sde              90.00     0.00  656.00    0.00 83384.00     0.00   254.22     0.54    0.81    0.81    0.00   0.63  41.30
sdf              83.00     0.00  638.00    0.00 84372.00     0.00   264.49     0.54    0.83    0.83    0.00   0.64  41.00
sdg               0.00     0.00    3.00    0.00    12.00     0.00     8.00     0.00    0.00    0.00    0.00   0.00   0.00
sdh               0.00     0.00    0.00    0.00     0.00     0.00     0.00     0.00    0.00    0.00    0.00   0.00   0.00
md0               0.00     0.00 4277.00    0.00 696192.00     0.00   325.55     0.00    0.00    0.00    0.00   0.00   0.00

avg-cpu:  %user   %nice %system %iowait  %steal   %idle
          23.38    0.00    5.47    7.96    0.00   63.18

Device:         rrqm/s   wrqm/s     r/s     w/s    rkB/s    wkB/s avgrq-sz avgqu-sz   await r_await w_await  svctm  %util
sda             101.00     0.00  666.00    0.00 94216.00     0.00   282.93     0.43    0.66    0.66    0.00   0.44  29.50
sdb              98.00     0.00  624.00    0.00 88396.00     0.00   283.32     0.40    0.64    0.64    0.00   0.43  26.90
sdc              85.00     0.00  704.00    0.00 87028.00     0.00   247.24     0.67    0.96    0.96    0.00   0.60  42.00
sdd              92.00     0.00  750.00    0.00 91288.00     0.00   243.43     0.69    0.93    0.93    0.00   0.59  44.30
sde              92.00     0.00  757.00    0.00 93144.00     0.00   246.09     0.73    0.97    0.97    0.00   0.61  45.80
sdf              93.00     0.00  657.00    0.00 92156.00     0.00   280.54     0.71    1.09    1.09    0.00   0.68  44.90
sdg               0.00     0.00    0.00    0.00     0.00     0.00     0.00     0.00    0.00    0.00    0.00   0.00   0.00
sdh               0.00     0.00    0.00    0.00     0.00     0.00     0.00     0.00    0.00    0.00    0.00   0.00   0.00
md0               0.00     0.00 4711.00    0.00 754012.00     0.00   320.11     0.00    0.00    0.00    0.00   0.00   0.00

avg-cpu:  %user   %nice %system %iowait  %steal   %idle
          23.19    0.00    5.49    5.49    0.00   65.84

Device:         rrqm/s   wrqm/s     r/s     w/s    rkB/s    wkB/s avgrq-sz avgqu-sz   await r_await w_await  svctm  %util
sda              18.00     0.00 1159.00    0.00 81904.00     0.00   141.34     0.66    0.57    0.57    0.00   0.26  30.10
sdb              22.00     0.00 1033.00    0.00 85468.00     0.00   165.48     0.65    0.63    0.63    0.00   0.29  30.00
sdc              18.00     0.00 1016.00    0.00 83564.00     0.00   164.50     0.96    0.95    0.95    0.00   0.40  40.50
sdd              16.00     0.00 1042.00    0.00 86076.00     0.00   165.21     0.92    0.88    0.88    0.00   0.39  40.80
sde              23.00     0.00 1046.00    0.00 82912.00     0.00   158.53     0.88    0.85    0.85    0.00   0.40  41.50
sdf              20.00     0.00 1063.00    0.00 77428.00     0.00   145.68     0.91    0.86    0.86    0.00   0.37  39.30
sdg               0.00     0.00    0.00    0.00     0.00     0.00     0.00     0.00    0.00    0.00    0.00   0.00   0.00
sdh               0.00     0.00    0.00    0.00     0.00     0.00     0.00     0.00    0.00    0.00    0.00   0.00   0.00
md0               0.00     0.00 6476.00    0.00 605420.00     0.00   186.97     0.00    0.00    0.00    0.00   0.00   0.00

avg-cpu:  %user   %nice %system %iowait  %steal   %idle
          23.31    0.00    5.26    5.51    0.00   65.91

Device:         rrqm/s   wrqm/s     r/s     w/s    rkB/s    wkB/s avgrq-sz avgqu-sz   await r_await w_await  svctm  %util
sda              12.00     0.00 1094.00    0.00 78296.00     0.00   143.14     0.64    0.59    0.59    0.00   0.26  27.90
sdb              18.00     0.00 1064.00    0.00 83352.00     0.00   156.68     0.62    0.58    0.58    0.00   0.27  28.20
sdc              11.00     0.00 1043.00    0.00 79520.00     0.00   152.48     0.89    0.86    0.86    0.00   0.37  38.70
sdd              12.00     0.00 1032.00    0.00 76996.00     0.00   149.22     0.88    0.86    0.86    0.00   0.36  37.50
sde              12.00     0.00  965.00    0.00 78096.00     0.00   161.86     0.92    0.95    0.95    0.00   0.39  37.30
sdf              17.00     0.00 1029.00    0.00 76036.00     0.00   147.79     0.95    0.92    0.92    0.00   0.38  38.70
sdg               0.00     0.00    0.00    0.00     0.00     0.00     0.00     0.00    0.00    0.00    0.00   0.00   0.00
sdh               0.00     0.00    0.00    0.00     0.00     0.00     0.00     0.00    0.00    0.00    0.00   0.00   0.00
md0               0.00     0.00 6309.00    0.00 578308.00     0.00   183.33     0.00    0.00    0.00    0.00   0.00   0.00

