Linux 4.17.2 (bench) 	08/03/2018 	_x86_64_	(4 CPU)

avg-cpu:  %user   %nice %system %iowait  %steal   %idle
          10.28    0.02    4.05    2.54    0.00   83.11

Device:         rrqm/s   wrqm/s     r/s     w/s    rkB/s    wkB/s avgrq-sz avgqu-sz   await r_await w_await  svctm  %util
sda              44.30     4.25 1643.22  102.75 20857.33  3135.62    27.48     1.03    0.59    0.26    5.91   0.06  10.68
sdb              44.18     4.21 1643.14  102.89 20846.74  3132.28    27.47     1.03    0.59    0.26    5.85   0.06  10.56
sdc              82.15     4.27 1603.08  102.44 20838.89  3134.75    28.11     1.45    0.85    0.45    7.12   0.08  14.01
sdd              75.55     4.23 1608.85  102.51 20823.72  3130.93    27.99     1.46    0.85    0.44    7.32   0.08  14.10
sde              77.59     4.28 1613.93  102.61 20883.69  3135.19    27.99     1.48    0.86    0.44    7.43   0.08  14.12
sdf              74.70     4.25 1616.09  102.55 20864.89  3132.05    27.93     1.52    0.88    0.44    7.90   0.08  14.15
sdg               0.00     3.17   26.19   73.30   323.47   391.94    14.38     0.44    4.42    0.20    5.93   0.08   0.78
sdh               0.00     0.13    0.02    0.24     2.22     5.07    56.82     0.00    1.15    0.65    1.19   0.21   0.01
md0               0.00     0.00 10133.28  481.37 142826.83 21470.30    30.96     0.00    0.00    0.00    0.00   0.00   0.00

avg-cpu:  %user   %nice %system %iowait  %steal   %idle
          24.12    0.00    3.27    1.76    0.00   70.85

Device:         rrqm/s   wrqm/s     r/s     w/s    rkB/s    wkB/s avgrq-sz avgqu-sz   await r_await w_await  svctm  %util
sda             103.00     0.00  564.00    0.00 85424.00     0.00   302.92     0.38    0.67    0.67    0.00   0.49  27.90
sdb             103.00     0.00  564.00    0.00 89920.00     0.00   318.87     0.41    0.72    0.72    0.00   0.55  31.10
sdc             113.00     0.00  539.00    0.00 87364.00     0.00   324.17     0.58    1.06    1.06    0.00   0.79  42.60
sdd              99.00     0.00  568.00    0.00 85584.00     0.00   301.35     0.61    1.05    1.05    0.00   0.76  43.40
sde              98.00     0.00  635.00    0.00 85516.00     0.00   269.34     0.63    0.96    0.96    0.00   0.69  43.50
sdf             100.00     0.00  590.00    0.00 84984.00     0.00   288.08     0.63    1.04    1.04    0.00   0.73  42.80
sdg               0.00    19.00   27.00   80.00   432.00  1316.00    32.67     0.20    1.91    0.15    2.50   0.09   1.00
sdh               0.00     0.00    0.00    0.00     0.00     0.00     0.00     0.00    0.00    0.00    0.00   0.00   0.00
md0               0.00     0.00 4087.00    0.00 706524.00     0.00   345.74     0.00    0.00    0.00    0.00   0.00   0.00

