Linux 4.17.2 (bench) 	08/03/2018 	_x86_64_	(4 CPU)

avg-cpu:  %user   %nice %system %iowait  %steal   %idle
          10.29    0.02    4.04    2.52    0.00   83.14

Device:         rrqm/s   wrqm/s     r/s     w/s    rkB/s    wkB/s avgrq-sz avgqu-sz   await r_await w_await  svctm  %util
sda              43.67     4.25 1637.51  102.92 20828.17  3140.55    27.54     1.03    0.59    0.26    5.91   0.06  10.65
sdb              43.54     4.21 1637.43  103.05 20817.58  3137.20    27.53     1.03    0.59    0.26    5.85   0.06  10.53
sdc              81.57     4.27 1597.30  102.60 20809.71  3139.67    28.18     1.45    0.85    0.45    7.12   0.08  13.97
sdd              74.96     4.24 1603.08  102.67 20794.55  3135.85    28.06     1.46    0.85    0.44    7.32   0.08  14.07
sde              77.01     4.28 1608.18  102.77 20854.67  3140.12    28.05     1.48    0.86    0.44    7.43   0.08  14.09
sdf              74.11     4.26 1610.34  102.71 20835.81  3136.97    27.99     1.52    0.89    0.44    7.90   0.08  14.12
sdg               0.00     3.17   26.14   73.32   323.33   391.97    14.38     0.44    4.42    0.20    5.93   0.08   0.78
sdh               0.00     0.13    0.02    0.24     2.22     5.08    56.82     0.00    1.15    0.65    1.19   0.21   0.01
md0               0.00     0.00 10095.19  482.13 142618.36 21504.04    31.03     0.00    0.00    0.00    0.00   0.00   0.00

avg-cpu:  %user   %nice %system %iowait  %steal   %idle
          24.56    0.00    1.77    1.01    0.00   72.66

Device:         rrqm/s   wrqm/s     r/s     w/s    rkB/s    wkB/s avgrq-sz avgqu-sz   await r_await w_await  svctm  %util
sda               0.00     0.00 1506.00    0.00  6024.00     0.00     8.00     0.14    0.09    0.09    0.00   0.09  13.80
sdb               0.00     0.00 1507.00    0.00  6028.00     0.00     8.00     0.15    0.10    0.10    0.00   0.10  15.10
sdc               0.00     0.00 1554.00    0.00  6216.00     0.00     8.00     0.15    0.10    0.10    0.00   0.10  15.20
sdd               0.00     0.00 1575.00    0.00  6300.00     0.00     8.00     0.17    0.11    0.11    0.00   0.11  17.10
sde               0.00     0.00 1542.00    0.00  6168.00     0.00     8.00     0.16    0.10    0.10    0.00   0.10  15.70
sdf               0.00     0.00 1542.00    0.00  6168.00     0.00     8.00     0.16    0.10    0.10    0.00   0.10  15.60
sdg               0.00     0.00    6.00   49.00    96.00   856.00    34.62     0.12    6.91    1.00    7.63   0.18   1.00
sdh               0.00     0.00    0.00    0.00     0.00     0.00     0.00     0.00    0.00    0.00    0.00   0.00   0.00
md0               0.00     0.00 9229.00    0.00 36916.00     0.00     8.00     0.00    0.00    0.00    0.00   0.00   0.00

avg-cpu:  %user   %nice %system %iowait  %steal   %idle
          25.38    0.25    1.02    1.27    0.00   72.08

Device:         rrqm/s   wrqm/s     r/s     w/s    rkB/s    wkB/s avgrq-sz avgqu-sz   await r_await w_await  svctm  %util
sda               0.00     0.00 1626.00    0.00  6504.00     0.00     8.00     0.17    0.10    0.10    0.00   0.10  16.60
sdb               0.00     0.00 1498.00    0.00  5992.00     0.00     8.00     0.14    0.10    0.10    0.00   0.10  14.30
sdc               0.00     0.00 1510.00    0.00  6040.00     0.00     8.00     0.17    0.11    0.11    0.00   0.11  17.00
sdd               0.00     0.00 1509.00    0.00  6036.00     0.00     8.00     0.16    0.11    0.11    0.00   0.11  16.40
sde               0.00     0.00 1611.00    0.00  6444.00     0.00     8.00     0.15    0.09    0.09    0.00   0.09  15.00
sdf               0.00     0.00 1566.00    0.00  6264.00     0.00     8.00     0.16    0.10    0.10    0.00   0.10  15.60
sdg               0.00     0.00   15.00    0.00   108.00     0.00    14.40     0.00    0.20    0.20    0.00   0.20   0.30
sdh               0.00     0.00    0.00    0.00     0.00     0.00     0.00     0.00    0.00    0.00    0.00   0.00   0.00
md0               0.00     0.00 9318.00    0.00 37272.00     0.00     8.00     0.00    0.00    0.00    0.00   0.00   0.00

avg-cpu:  %user   %nice %system %iowait  %steal   %idle
          24.81    0.00    1.77    1.01    0.00   72.41

Device:         rrqm/s   wrqm/s     r/s     w/s    rkB/s    wkB/s avgrq-sz avgqu-sz   await r_await w_await  svctm  %util
sda               0.00     0.00 1509.00    0.00  6036.00     0.00     8.00     0.14    0.10    0.10    0.00   0.09  14.30
sdb               0.00     0.00 1542.00    0.00  6168.00     0.00     8.00     0.16    0.11    0.11    0.00   0.11  16.20
sdc               0.00     0.00 1501.00    0.00  6004.00     0.00     8.00     0.15    0.10    0.10    0.00   0.10  15.50
sdd               0.00     0.00 1570.00    0.00  6280.00     0.00     8.00     0.15    0.10    0.10    0.00   0.10  15.20
sde               0.00     0.00 1643.00    0.00  6572.00     0.00     8.00     0.18    0.11    0.11    0.00   0.11  17.70
sdf               0.00     0.00 1651.00    0.00  6604.00     0.00     8.00     0.15    0.09    0.09    0.00   0.09  15.10
sdg               0.00     0.00    0.00    0.00     0.00     0.00     0.00     0.00    0.00    0.00    0.00   0.00   0.00
sdh               0.00     0.00    0.00    0.00     0.00     0.00     0.00     0.00    0.00    0.00    0.00   0.00   0.00
md0               0.00     0.00 9416.00    0.00 37664.00     0.00     8.00     0.00    0.00    0.00    0.00   0.00   0.00

avg-cpu:  %user   %nice %system %iowait  %steal   %idle
          24.81    0.00    1.77    0.76    0.00   72.66

Device:         rrqm/s   wrqm/s     r/s     w/s    rkB/s    wkB/s avgrq-sz avgqu-sz   await r_await w_await  svctm  %util
sda               0.00     0.00 1571.00    0.00  6284.00     0.00     8.00     0.16    0.10    0.10    0.00   0.10  15.60
sdb               0.00     0.00 1598.00    0.00  6392.00     0.00     8.00     0.14    0.09    0.09    0.00   0.09  14.40
sdc               0.00     0.00 1520.00    0.00  6080.00     0.00     8.00     0.14    0.09    0.09    0.00   0.09  14.40
sdd               0.00     0.00 1548.00    0.00  6192.00     0.00     8.00     0.14    0.09    0.09    0.00   0.09  14.50
sde               0.00     0.00 1571.00    0.00  6284.00     0.00     8.00     0.16    0.10    0.10    0.00   0.10  16.40
sdf               0.00     0.00 1612.00    0.00  6448.00     0.00     8.00     0.18    0.11    0.11    0.00   0.11  17.60
sdg               0.00     0.00    0.00    0.00     0.00     0.00     0.00     0.00    0.00    0.00    0.00   0.00   0.00
sdh               0.00     0.00    0.00    0.00     0.00     0.00     0.00     0.00    0.00    0.00    0.00   0.00   0.00
md0               0.00     0.00 9421.00    0.00 37684.00     0.00     8.00     0.00    0.00    0.00    0.00   0.00   0.00

avg-cpu:  %user   %nice %system %iowait  %steal   %idle
          25.13    0.00    1.27    1.02    0.00   72.59

Device:         rrqm/s   wrqm/s     r/s     w/s    rkB/s    wkB/s avgrq-sz avgqu-sz   await r_await w_await  svctm  %util
sda               0.00     0.00 1626.00    0.00  6504.00     0.00     8.00     0.16    0.10    0.10    0.00   0.10  15.80
sdb               0.00     0.00 1579.00    0.00  6316.00     0.00     8.00     0.15    0.09    0.09    0.00   0.09  14.90
sdc               0.00     0.00 1583.00    0.00  6332.00     0.00     8.00     0.17    0.11    0.11    0.00   0.11  17.20
sdd               0.00     0.00 1491.00    0.00  5964.00     0.00     8.00     0.14    0.10    0.10    0.00   0.10  14.20
sde               0.00     0.00 1622.00    0.00  6488.00     0.00     8.00     0.14    0.09    0.09    0.00   0.09  14.30
sdf               0.00     0.00 1535.00    0.00  6140.00     0.00     8.00     0.18    0.12    0.12    0.00   0.12  18.40
sdg               0.00     0.00    0.00    0.00     0.00     0.00     0.00     0.00    0.00    0.00    0.00   0.00   0.00
sdh               0.00     0.00    0.00    0.00     0.00     0.00     0.00     0.00    0.00    0.00    0.00   0.00   0.00
md0               0.00     0.00 9436.00    0.00 37744.00     0.00     8.00     0.00    0.00    0.00    0.00   0.00   0.00

avg-cpu:  %user   %nice %system %iowait  %steal   %idle
          24.81    0.00    1.77    1.01    0.00   72.41

Device:         rrqm/s   wrqm/s     r/s     w/s    rkB/s    wkB/s avgrq-sz avgqu-sz   await r_await w_await  svctm  %util
sda               0.00     0.00 1560.00    0.00  6240.00     0.00     8.00     0.14    0.09    0.09    0.00   0.09  14.40
sdb               0.00     0.00 1596.00    0.00  6384.00     0.00     8.00     0.17    0.11    0.11    0.00   0.11  16.90
sdc               0.00     0.00 1522.00    0.00  6088.00     0.00     8.00     0.15    0.10    0.10    0.00   0.10  14.70
sdd               0.00     0.00 1558.00    0.00  6232.00     0.00     8.00     0.15    0.10    0.10    0.00   0.10  15.50
sde               0.00     0.00 1586.00    0.00  6344.00     0.00     8.00     0.15    0.10    0.10    0.00   0.10  15.20
sdf               0.00     0.00 1603.00    0.00  6412.00     0.00     8.00     0.17    0.11    0.11    0.00   0.11  17.50
sdg               0.00     0.00    1.00   17.00    16.00   216.00    25.78     0.02    0.89    0.00    0.94   0.06   0.10
sdh               0.00     0.00    0.00    0.00     0.00     0.00     0.00     0.00    0.00    0.00    0.00   0.00   0.00
md0               0.00     0.00 9425.00    0.00 37700.00     0.00     8.00     0.00    0.00    0.00    0.00   0.00   0.00

avg-cpu:  %user   %nice %system %iowait  %steal   %idle
          24.56    0.00    2.03    1.01    0.00   72.41

Device:         rrqm/s   wrqm/s     r/s     w/s    rkB/s    wkB/s avgrq-sz avgqu-sz   await r_await w_await  svctm  %util
sda               0.00     0.00 1480.00    0.00  5920.00     0.00     8.00     0.14    0.09    0.09    0.00   0.09  13.60
sdb               0.00     0.00 1593.00    0.00  6372.00     0.00     8.00     0.15    0.09    0.09    0.00   0.09  14.60
sdc               0.00     0.00 1597.00    0.00  6388.00     0.00     8.00     0.17    0.10    0.10    0.00   0.10  16.60
sdd               0.00     0.00 1641.00    0.00  6564.00     0.00     8.00     0.17    0.10    0.10    0.00   0.10  16.60
sde               0.00     0.00 1574.00    0.00  6296.00     0.00     8.00     0.16    0.10    0.10    0.00   0.10  16.30
sdf               0.00     0.00 1545.00    0.00  6180.00     0.00     8.00     0.16    0.10    0.10    0.00   0.10  15.70
sdg               0.00     0.00    0.00    1.00     0.00     4.00     8.00     0.00    0.00    0.00    0.00   0.00   0.00
sdh               0.00     0.00    0.00    0.00     0.00     0.00     0.00     0.00    0.00    0.00    0.00   0.00   0.00
md0               0.00     0.00 9430.00    0.00 37720.00     0.00     8.00     0.00    0.00    0.00    0.00   0.00   0.00

avg-cpu:  %user   %nice %system %iowait  %steal   %idle
          24.81    0.00    1.77    0.76    0.00   72.66

Device:         rrqm/s   wrqm/s     r/s     w/s    rkB/s    wkB/s avgrq-sz avgqu-sz   await r_await w_await  svctm  %util
sda               0.00     0.00 1595.00    0.00  6380.00     0.00     8.00     0.15    0.10    0.10    0.00   0.10  15.20
sdb               0.00     0.00 1513.00    0.00  6052.00     0.00     8.00     0.13    0.09    0.09    0.00   0.09  12.90
sdc               0.00     0.00 1552.00    0.00  6208.00     0.00     8.00     0.15    0.10    0.10    0.00   0.10  15.30
sdd               0.00     0.00 1573.00    0.00  6292.00     0.00     8.00     0.17    0.11    0.11    0.00   0.11  17.50
sde               0.00     0.00 1587.00    0.00  6348.00     0.00     8.00     0.18    0.11    0.11    0.00   0.11  17.90
sdf               0.00     0.00 1599.00    0.00  6396.00     0.00     8.00     0.15    0.09    0.09    0.00   0.09  14.70
sdg               0.00     0.00    0.00    0.00     0.00     0.00     0.00     0.00    0.00    0.00    0.00   0.00   0.00
sdh               0.00     0.00    0.00    0.00     0.00     0.00     0.00     0.00    0.00    0.00    0.00   0.00   0.00
md0               0.00     0.00 9419.00    0.00 37676.00     0.00     8.00     0.00    0.00    0.00    0.00   0.00   0.00

avg-cpu:  %user   %nice %system %iowait  %steal   %idle
          24.75    0.00    1.77    1.01    0.00   72.47

Device:         rrqm/s   wrqm/s     r/s     w/s    rkB/s    wkB/s avgrq-sz avgqu-sz   await r_await w_await  svctm  %util
sda               0.00     0.00 1540.00    0.00  6160.00     0.00     8.00     0.14    0.09    0.09    0.00   0.09  13.90
sdb               0.00     0.00 1597.00    0.00  6388.00     0.00     8.00     0.15    0.10    0.10    0.00   0.10  15.50
sdc               0.00     0.00 1589.00    0.00  6356.00     0.00     8.00     0.17    0.10    0.10    0.00   0.10  16.50
sdd               0.00     0.00 1501.00    0.00  6004.00     0.00     8.00     0.15    0.10    0.10    0.00   0.10  15.20
sde               0.00     0.00 1591.00    0.00  6364.00     0.00     8.00     0.16    0.10    0.10    0.00   0.10  15.60
sdf               0.00     0.00 1605.00    0.00  6420.00     0.00     8.00     0.17    0.11    0.11    0.00   0.11  17.30
sdg               0.00     0.00    0.00    0.00     0.00     0.00     0.00     0.00    0.00    0.00    0.00   0.00   0.00
sdh               0.00     0.00    0.00    0.00     0.00     0.00     0.00     0.00    0.00    0.00    0.00   0.00   0.00
md0               0.00     0.00 9423.00    0.00 37692.00     0.00     8.00     0.00    0.00    0.00    0.00   0.00   0.00

avg-cpu:  %user   %nice %system %iowait  %steal   %idle
          25.06    0.00    1.52    1.01    0.00   72.41

Device:         rrqm/s   wrqm/s     r/s     w/s    rkB/s    wkB/s avgrq-sz avgqu-sz   await r_await w_await  svctm  %util
sda               0.00     0.00 1506.00    0.00  6024.00     0.00     8.00     0.14    0.10    0.10    0.00   0.10  14.40
sdb               0.00     0.00 1646.00    0.00  6584.00     0.00     8.00     0.17    0.10    0.10    0.00   0.10  17.20
sdc               0.00     0.00 1564.00    0.00  6256.00     0.00     8.00     0.16    0.10    0.10    0.00   0.10  15.60
sdd               0.00     0.00 1567.00    0.00  6268.00     0.00     8.00     0.13    0.08    0.08    0.00   0.08  13.10
sde               0.00     0.00 1637.00    0.00  6548.00     0.00     8.00     0.18    0.11    0.11    0.00   0.11  17.80
sdf               0.00     0.00 1506.00    0.00  6024.00     0.00     8.00     0.15    0.10    0.10    0.00   0.10  15.30
sdg               0.00     0.00    0.00    0.00     0.00     0.00     0.00     0.00    0.00    0.00    0.00   0.00   0.00
sdh               0.00     0.00    0.00    0.00     0.00     0.00     0.00     0.00    0.00    0.00    0.00   0.00   0.00
md0               0.00     0.00 9426.00    0.00 37704.00     0.00     8.00     0.00    0.00    0.00    0.00   0.00   0.00

avg-cpu:  %user   %nice %system %iowait  %steal   %idle
          24.62    0.00    1.78    1.02    0.00   72.59

Device:         rrqm/s   wrqm/s     r/s     w/s    rkB/s    wkB/s avgrq-sz avgqu-sz   await r_await w_await  svctm  %util
sda               0.00     0.00 1623.00    0.00  6492.00     0.00     8.00     0.16    0.10    0.10    0.00   0.10  16.40
sdb               0.00     0.00 1517.00    0.00  6068.00     0.00     8.00     0.14    0.09    0.09    0.00   0.09  14.30
sdc               0.00     0.00 1524.00    0.00  6096.00     0.00     8.00     0.15    0.10    0.10    0.00   0.10  15.30
sdd               0.00     0.00 1574.00    0.00  6296.00     0.00     8.00     0.15    0.09    0.09    0.00   0.09  14.90
sde               0.00     0.00 1613.00    0.00  6452.00     0.00     8.00     0.17    0.11    0.11    0.00   0.11  17.10
sdf               0.00     0.00 1571.00    0.00  6284.00     0.00     8.00     0.16    0.10    0.10    0.00   0.10  16.10
sdg               0.00     0.00    4.00    3.00    16.00    36.00    14.86     0.01    1.14    0.00    2.67   1.14   0.80
sdh               0.00     0.00    0.00    0.00     0.00     0.00     0.00     0.00    0.00    0.00    0.00   0.00   0.00
md0               0.00     0.00 9421.00    0.00 37684.00     0.00     8.00     0.00    0.00    0.00    0.00   0.00   0.00

avg-cpu:  %user   %nice %system %iowait  %steal   %idle
          25.13    0.00    1.78    4.31    0.00   68.78

Device:         rrqm/s   wrqm/s     r/s     w/s    rkB/s    wkB/s avgrq-sz avgqu-sz   await r_await w_await  svctm  %util
sda               0.00     0.00 1536.00    0.00  6144.00     0.00     8.00     0.13    0.08    0.08    0.00   0.08  12.80
sdb               0.00     0.00 1556.00    0.00  6224.00     0.00     8.00     0.15    0.09    0.09    0.00   0.09  14.60
sdc               0.00     0.00 1587.00    0.00  6348.00     0.00     8.00     0.17    0.11    0.11    0.00   0.11  16.80
sdd               0.00     0.00 1525.00    0.00  6100.00     0.00     8.00     0.17    0.11    0.11    0.00   0.11  16.90
sde               0.00     0.00 1582.00    0.00  6328.00     0.00     8.00     0.18    0.11    0.11    0.00   0.11  17.70
sdf               0.00     0.00 1545.00    0.00  6180.00     0.00     8.00     0.16    0.10    0.10    0.00   0.10  15.90
sdg               0.00     0.00    4.00    0.00    16.00     0.00     8.00     0.00    0.25    0.25    0.00   0.25   0.10
sdh               0.00     0.00    0.00    0.00     0.00     0.00     0.00     0.00    0.00    0.00    0.00   0.00   0.00
md0               0.00     0.00 9332.00    0.00 37328.00     0.00     8.00     0.00    0.00    0.00    0.00   0.00   0.00

avg-cpu:  %user   %nice %system %iowait  %steal   %idle
          25.00    0.00    1.77    1.01    0.00   72.22

Device:         rrqm/s   wrqm/s     r/s     w/s    rkB/s    wkB/s avgrq-sz avgqu-sz   await r_await w_await  svctm  %util
sda               0.00     0.00 1491.00    0.00  5964.00     0.00     8.00     0.14    0.09    0.09    0.00   0.09  13.80
sdb               0.00     0.00 1575.00    0.00  6300.00     0.00     8.00     0.14    0.09    0.09    0.00   0.09  14.40
sdc               0.00     0.00 1575.00    0.00  6300.00     0.00     8.00     0.16    0.10    0.10    0.00   0.10  16.10
sdd               0.00     0.00 1538.00    0.00  6152.00     0.00     8.00     0.16    0.10    0.10    0.00   0.10  15.80
sde               0.00     0.00 1602.00    0.00  6408.00     0.00     8.00     0.17    0.10    0.10    0.00   0.10  16.80
sdf               0.00     0.00 1507.00    0.00  6028.00     0.00     8.00     0.17    0.11    0.11    0.00   0.11  16.50
sdg               0.00     0.00    0.00    0.00     0.00     0.00     0.00     0.00    0.00    0.00    0.00   0.00   0.00
sdh               0.00     0.00    0.00    0.00     0.00     0.00     0.00     0.00    0.00    0.00    0.00   0.00   0.00
md0               0.00     0.00 9288.00    0.00 37152.00     0.00     8.00     0.00    0.00    0.00    0.00   0.00   0.00

avg-cpu:  %user   %nice %system %iowait  %steal   %idle
          24.81    0.00    1.77   13.42    0.00   60.00

Device:         rrqm/s   wrqm/s     r/s     w/s    rkB/s    wkB/s avgrq-sz avgqu-sz   await r_await w_await  svctm  %util
sda               0.00     0.00 1522.00    0.00  6088.00     0.00     8.00     0.16    0.10    0.10    0.00   0.10  15.60
sdb               0.00     0.00 1594.00    0.00  6376.00     0.00     8.00     0.15    0.10    0.10    0.00   0.10  15.40
sdc               0.00     0.00 1563.00    0.00  6252.00     0.00     8.00     0.15    0.10    0.10    0.00   0.10  15.20
sdd               0.00     0.00 1537.00    0.00  6148.00     0.00     8.00     0.17    0.11    0.11    0.00   0.11  16.70
sde               0.00     0.00 1641.00    0.00  6564.00     0.00     8.00     0.16    0.10    0.10    0.00   0.10  16.10
sdf               0.00     0.00 1537.00    0.00  6148.00     0.00     8.00     0.16    0.11    0.11    0.00   0.11  16.30
sdg               0.00     0.00    0.00    0.00     0.00     0.00     0.00     0.00    0.00    0.00    0.00   0.00   0.00
sdh               0.00     0.00    0.00    0.00     0.00     0.00     0.00     0.00    0.00    0.00    0.00   0.00   0.00
md0               0.00     0.00 9393.00    0.00 37572.00     0.00     8.00     0.00    0.00    0.00    0.00   0.00   0.00

avg-cpu:  %user   %nice %system %iowait  %steal   %idle
          25.13    0.00    1.27    1.27    0.00   72.34

Device:         rrqm/s   wrqm/s     r/s     w/s    rkB/s    wkB/s avgrq-sz avgqu-sz   await r_await w_await  svctm  %util
sda               0.00     0.00 1468.00    0.00  5872.00     0.00     8.00     0.14    0.09    0.09    0.00   0.09  13.50
sdb               0.00     0.00 1528.00    0.00  6112.00     0.00     8.00     0.14    0.09    0.09    0.00   0.09  14.30
sdc               0.00     0.00 1526.00    0.00  6104.00     0.00     8.00     0.18    0.12    0.12    0.00   0.12  17.60
sdd               0.00     0.00 1560.00    0.00  6240.00     0.00     8.00     0.17    0.11    0.11    0.00   0.11  16.80
sde               0.00     0.00 1486.00    0.00  5944.00     0.00     8.00     0.18    0.12    0.12    0.00   0.12  18.10
sdf               0.00     0.00 1489.00    0.00  5956.00     0.00     8.00     0.15    0.10    0.10    0.00   0.10  15.50
sdg               0.00     0.00    0.00    0.00     0.00     0.00     0.00     0.00    0.00    0.00    0.00   0.00   0.00
sdh               0.00     0.00    0.00    0.00     0.00     0.00     0.00     0.00    0.00    0.00    0.00   0.00   0.00
md0               0.00     0.00 9058.00    0.00 36232.00     0.00     8.00     0.00    0.00    0.00    0.00   0.00   0.00

avg-cpu:  %user   %nice %system %iowait  %steal   %idle
          25.00    0.00    1.52    1.26    0.00   72.22

Device:         rrqm/s   wrqm/s     r/s     w/s    rkB/s    wkB/s avgrq-sz avgqu-sz   await r_await w_await  svctm  %util
sda               0.00     0.00 1554.00    0.00  6216.00     0.00     8.00     0.14    0.09    0.09    0.00   0.09  14.10
sdb               0.00     0.00 1591.00    0.00  6364.00     0.00     8.00     0.17    0.11    0.11    0.00   0.11  16.80
sdc               0.00     0.00 1558.00    0.00  6232.00     0.00     8.00     0.17    0.11    0.11    0.00   0.11  17.50
sdd               0.00     0.00 1442.00    0.00  5768.00     0.00     8.00     0.13    0.09    0.09    0.00   0.09  13.20
sde               0.00     0.00 1498.00    0.00  5992.00     0.00     8.00     0.17    0.11    0.11    0.00   0.11  16.50
sdf               0.00     0.00 1592.00    0.00  6368.00     0.00     8.00     0.16    0.10    0.10    0.00   0.10  16.40
sdg               0.00     0.00    0.00    0.00     0.00     0.00     0.00     0.00    0.00    0.00    0.00   0.00   0.00
sdh               0.00     0.00    0.00    0.00     0.00     0.00     0.00     0.00    0.00    0.00    0.00   0.00   0.00
md0               0.00     0.00 9235.00    0.00 36940.00     0.00     8.00     0.00    0.00    0.00    0.00   0.00   0.00

avg-cpu:  %user   %nice %system %iowait  %steal   %idle
          25.00    0.00    1.77    1.26    0.00   71.97

Device:         rrqm/s   wrqm/s     r/s     w/s    rkB/s    wkB/s avgrq-sz avgqu-sz   await r_await w_await  svctm  %util
sda               0.00     0.00 1505.00    0.00  6020.00     0.00     8.00     0.13    0.09    0.09    0.00   0.09  12.90
sdb               0.00     0.00 1570.00    0.00  6280.00     0.00     8.00     0.14    0.09    0.09    0.00   0.09  14.20
sdc               0.00     0.00 1527.00    0.00  6108.00     0.00     8.00     0.15    0.10    0.10    0.00   0.10  15.10
sdd               0.00     0.00 1518.00    0.00  6072.00     0.00     8.00     0.17    0.12    0.12    0.00   0.12  17.50
sde               0.00     0.00 1568.00    0.00  6272.00     0.00     8.00     0.17    0.11    0.11    0.00   0.11  17.40
sdf               0.00     0.00 1523.00    0.00  6092.00     0.00     8.00     0.16    0.11    0.11    0.00   0.11  16.00
sdg               0.00     0.00    0.00    0.00     0.00     0.00     0.00     0.00    0.00    0.00    0.00   0.00   0.00
sdh               0.00     0.00    0.00    0.00     0.00     0.00     0.00     0.00    0.00    0.00    0.00   0.00   0.00
md0               0.00     0.00 9210.00    0.00 36840.00     0.00     8.00     0.00    0.00    0.00    0.00   0.00   0.00

avg-cpu:  %user   %nice %system %iowait  %steal   %idle
          24.87    0.00    1.52    1.02    0.00   72.59

Device:         rrqm/s   wrqm/s     r/s     w/s    rkB/s    wkB/s avgrq-sz avgqu-sz   await r_await w_await  svctm  %util
sda               0.00     0.00 1530.00    0.00  6120.00     0.00     8.00     0.15    0.10    0.10    0.00   0.10  14.90
sdb               0.00     0.00 1604.00    0.00  6416.00     0.00     8.00     0.15    0.09    0.09    0.00   0.09  15.10
sdc               0.00     0.00 1455.00    0.00  5820.00     0.00     8.00     0.15    0.10    0.10    0.00   0.10  15.00
sdd               0.00     0.00 1608.00    0.00  6432.00     0.00     8.00     0.18    0.11    0.11    0.00   0.11  17.80
sde               0.00     0.00 1504.00    0.00  6016.00     0.00     8.00     0.17    0.11    0.11    0.00   0.11  16.70
sdf               0.00     0.00 1527.00    0.00  6108.00     0.00     8.00     0.15    0.10    0.10    0.00   0.10  15.30
sdg               0.00     0.00    0.00    0.00     0.00     0.00     0.00     0.00    0.00    0.00    0.00   0.00   0.00
sdh               0.00     0.00    0.00    0.00     0.00     0.00     0.00     0.00    0.00    0.00    0.00   0.00   0.00
md0               0.00     0.00 9228.00    0.00 36912.00     0.00     8.00     0.00    0.00    0.00    0.00   0.00   0.00

avg-cpu:  %user   %nice %system %iowait  %steal   %idle
          25.32    0.00    1.27    1.01    0.00   72.41

Device:         rrqm/s   wrqm/s     r/s     w/s    rkB/s    wkB/s avgrq-sz avgqu-sz   await r_await w_await  svctm  %util
sda               0.00     0.00 1519.00    0.00  6076.00     0.00     8.00     0.15    0.10    0.10    0.00   0.10  14.60
sdb               0.00     0.00 1531.00    0.00  6124.00     0.00     8.00     0.15    0.10    0.10    0.00   0.10  15.20
sdc               0.00     0.00 1551.00    0.00  6204.00     0.00     8.00     0.15    0.10    0.10    0.00   0.10  14.80
sdd               0.00     0.00 1506.00    0.00  6024.00     0.00     8.00     0.16    0.11    0.11    0.00   0.11  16.40
sde               0.00     0.00 1504.00    0.00  6016.00     0.00     8.00     0.17    0.12    0.12    0.00   0.12  17.30
sdf               0.00     0.00 1536.00    0.00  6144.00     0.00     8.00     0.17    0.11    0.11    0.00   0.11  16.70
sdg               0.00     0.00    0.00    0.00     0.00     0.00     0.00     0.00    0.00    0.00    0.00   0.00   0.00
sdh               0.00     0.00    0.00    0.00     0.00     0.00     0.00     0.00    0.00    0.00    0.00   0.00   0.00
md0               0.00     0.00 9148.00    0.00 36592.00     0.00     8.00     0.00    0.00    0.00    0.00   0.00   0.00

avg-cpu:  %user   %nice %system %iowait  %steal   %idle
          24.87    0.00    1.52    1.27    0.00   72.34

Device:         rrqm/s   wrqm/s     r/s     w/s    rkB/s    wkB/s avgrq-sz avgqu-sz   await r_await w_await  svctm  %util
sda               0.00     0.00 1512.00    0.00  6048.00     0.00     8.00     0.13    0.08    0.08    0.00   0.08  12.80
sdb               0.00     0.00 1418.00    0.00  5672.00     0.00     8.00     0.13    0.09    0.09    0.00   0.09  12.90
sdc               0.00     0.00 1550.00    0.00  6200.00     0.00     8.00     0.16    0.10    0.10    0.00   0.10  15.80
sdd               0.00     0.00 1539.00    0.00  6156.00     0.00     8.00     0.14    0.09    0.09    0.00   0.09  14.50
sde               0.00     0.00 1564.00    0.00  6256.00     0.00     8.00     0.21    0.13    0.13    0.00   0.13  20.70
sdf               0.00     0.00 1487.00    0.00  5948.00     0.00     8.00     0.17    0.11    0.11    0.00   0.11  17.10
sdg               0.00     0.00    0.00    0.00     0.00     0.00     0.00     0.00    0.00    0.00    0.00   0.00   0.00
sdh               0.00     0.00    0.00    0.00     0.00     0.00     0.00     0.00    0.00    0.00    0.00   0.00   0.00
md0               0.00     0.00 9069.00    0.00 36276.00     0.00     8.00     0.00    0.00    0.00    0.00   0.00   0.00

