Linux 4.17.2 (bench) 	08/03/2018 	_x86_64_	(4 CPU)

avg-cpu:  %user   %nice %system %iowait  %steal   %idle
          10.30    0.02    3.95    2.37    0.00   83.37

Device:         rrqm/s   wrqm/s     r/s     w/s    rkB/s    wkB/s avgrq-sz avgqu-sz   await r_await w_await  svctm  %util
sda              37.42     4.30 1576.77  104.18 20494.30  3179.04    28.17     1.02    0.61    0.26    5.91   0.06  10.38
sdb              37.32     4.26 1576.63  104.32 20483.58  3175.65    28.15     1.02    0.61    0.26    5.85   0.06  10.26
sdc              75.60     4.32 1536.26  103.86 20475.78  3178.15    28.84     1.44    0.88    0.46    7.12   0.08  13.67
sdd              68.90     4.29 1542.13  103.93 20460.35  3174.29    28.72     1.45    0.88    0.44    7.32   0.08  13.77
sde              70.99     4.34 1547.31  104.03 20521.50  3178.60    28.70     1.47    0.89    0.45    7.43   0.08  13.79
sdf              68.06     4.31 1549.49  103.97 20502.37  3175.42    28.64     1.51    0.91    0.45    7.90   0.08  13.82
sdg               0.00     3.18   25.69   73.38   321.50   392.03    14.40     0.44    4.45    0.20    5.93   0.08   0.77
sdh               0.00     0.13    0.02    0.24     2.25     5.14    56.82     0.00    1.15    0.65    1.19   0.21   0.01
md0               0.00     0.00 9692.78  488.04 140287.13 21767.60    31.84     0.00    0.00    0.00    0.00   0.00   0.00

avg-cpu:  %user   %nice %system %iowait  %steal   %idle
           0.52    0.00    2.84    5.67    0.00   90.98

Device:         rrqm/s   wrqm/s     r/s     w/s    rkB/s    wkB/s avgrq-sz avgqu-sz   await r_await w_await  svctm  %util
sda               0.00     0.00 2382.00    0.00  9528.00     0.00     8.00     0.16    0.07    0.07    0.00   0.07  15.80
sdb               0.00     0.00 2100.00    0.00  8400.00     0.00     8.00     0.13    0.06    0.06    0.00   0.06  12.80
sdc               0.00     0.00 2407.00    0.00  9628.00     0.00     8.00     0.17    0.07    0.07    0.00   0.07  16.70
sdd               0.00     0.00 1931.00    0.00  7724.00     0.00     8.00     0.14    0.07    0.07    0.00   0.07  13.80
sde               0.00     0.00 2197.00    0.00  8788.00     0.00     8.00     0.15    0.07    0.07    0.00   0.07  14.90
sdf               0.00     0.00 1941.00    0.00  7764.00     0.00     8.00     0.13    0.07    0.07    0.00   0.07  13.10
sdg               0.00     0.00    2.00   76.00    44.00  1252.00    33.23     0.18    3.18    2.00    3.21   0.10   0.80
sdh               0.00     0.00    0.00    0.00     0.00     0.00     0.00     0.00    0.00    0.00    0.00   0.00   0.00
md0               0.00     0.00 12959.00    0.00 51836.00     0.00     8.00     0.00    0.00    0.00    0.00   0.00   0.00

avg-cpu:  %user   %nice %system %iowait  %steal   %idle
           0.77    0.00    3.32    0.77    0.00   95.14

Device:         rrqm/s   wrqm/s     r/s     w/s    rkB/s    wkB/s avgrq-sz avgqu-sz   await r_await w_await  svctm  %util
sda               0.00     0.00 2511.00    0.00 10044.00     0.00     8.00     0.14    0.06    0.06    0.00   0.06  14.20
sdb               0.00     0.00 2221.00    0.00  8884.00     0.00     8.00     0.14    0.06    0.06    0.00   0.06  14.20
sdc               0.00     0.00 2042.00    0.00  8168.00     0.00     8.00     0.14    0.07    0.07    0.00   0.07  13.60
sdd               0.00     0.00 2038.00    0.00  8152.00     0.00     8.00     0.15    0.07    0.07    0.00   0.07  14.60
sde               0.00     0.00 2112.00    0.00  8448.00     0.00     8.00     0.13    0.06    0.06    0.00   0.06  12.60
sdf               0.00     0.00 2468.00    0.00  9872.00     0.00     8.00     0.17    0.07    0.07    0.00   0.07  17.20
sdg               0.00     0.00    0.00    0.00     0.00     0.00     0.00     0.00    0.00    0.00    0.00   0.00   0.00
sdh               0.00     0.00    0.00    0.00     0.00     0.00     0.00     0.00    0.00    0.00    0.00   0.00   0.00
md0               0.00     0.00 13393.00    0.00 53572.00     0.00     8.00     0.00    0.00    0.00    0.00   0.00   0.00

avg-cpu:  %user   %nice %system %iowait  %steal   %idle
           0.76    0.00    3.80   20.00    0.00   75.44

Device:         rrqm/s   wrqm/s     r/s     w/s    rkB/s    wkB/s avgrq-sz avgqu-sz   await r_await w_await  svctm  %util
sda               0.00     0.00 2129.00    0.00  8516.00     0.00     8.00     0.14    0.07    0.07    0.00   0.07  14.00
sdb               0.00     0.00 2405.00    0.00  9620.00     0.00     8.00     0.15    0.06    0.06    0.00   0.06  14.60
sdc               0.00     0.00 2488.00    0.00  9952.00     0.00     8.00     0.17    0.07    0.07    0.00   0.07  17.10
sdd               0.00     0.00 1959.00    0.00  7836.00     0.00     8.00     0.13    0.07    0.07    0.00   0.07  13.10
sde               0.00     0.00 1994.00    0.00  7976.00     0.00     8.00     0.13    0.07    0.07    0.00   0.07  13.10
sdf               0.00     0.00 2142.00    0.00  8568.00     0.00     8.00     0.14    0.07    0.07    0.00   0.07  14.10
sdg               0.00     0.00    0.00    0.00     0.00     0.00     0.00     0.00    0.00    0.00    0.00   0.00   0.00
sdh               0.00     0.00    0.00    0.00     0.00     0.00     0.00     0.00    0.00    0.00    0.00   0.00   0.00
md0               0.00     0.00 13116.00    0.00 52464.00     0.00     8.00     0.00    0.00    0.00    0.00   0.00   0.00

avg-cpu:  %user   %nice %system %iowait  %steal   %idle
           0.51    0.26    3.33    4.36    0.00   91.54

Device:         rrqm/s   wrqm/s     r/s     w/s    rkB/s    wkB/s avgrq-sz avgqu-sz   await r_await w_await  svctm  %util
sda               0.00     0.00 2229.00    0.00  8916.00     0.00     8.00     0.14    0.06    0.06    0.00   0.06  14.30
sdb               0.00     0.00 2358.00    0.00  9432.00     0.00     8.00     0.15    0.06    0.06    0.00   0.06  14.80
sdc               0.00     0.00 2462.00    0.00  9848.00     0.00     8.00     0.16    0.07    0.07    0.00   0.07  16.30
sdd               0.00     0.00 2335.00    0.00  9340.00     0.00     8.00     0.16    0.07    0.07    0.00   0.07  15.70
sde               0.00     0.00 1832.00    0.00  7328.00     0.00     8.00     0.12    0.07    0.07    0.00   0.07  12.30
sdf               0.00     0.00 2179.00    0.00  8716.00     0.00     8.00     0.15    0.07    0.07    0.00   0.07  15.00
sdg               0.00     0.00   19.00    0.00   124.00     0.00    13.05     0.00    0.11    0.11    0.00   0.05   0.10
sdh               0.00     0.00    0.00    0.00     0.00     0.00     0.00     0.00    0.00    0.00    0.00   0.00   0.00
md0               0.00     0.00 13395.00    0.00 53580.00     0.00     8.00     0.00    0.00    0.00    0.00   0.00   0.00

avg-cpu:  %user   %nice %system %iowait  %steal   %idle
           1.03    0.00    2.82    1.03    0.00   95.13

Device:         rrqm/s   wrqm/s     r/s     w/s    rkB/s    wkB/s avgrq-sz avgqu-sz   await r_await w_await  svctm  %util
sda               0.00     0.00 2363.00    0.00  9452.00     0.00     8.00     0.15    0.06    0.06    0.00   0.06  15.10
sdb               0.00     0.00 2090.00    0.00  8360.00     0.00     8.00     0.15    0.07    0.07    0.00   0.07  14.80
sdc               0.00     0.00 2189.00    0.00  8756.00     0.00     8.00     0.15    0.07    0.07    0.00   0.07  15.00
sdd               0.00     0.00 2087.00    0.00  8348.00     0.00     8.00     0.14    0.07    0.07    0.00   0.07  13.60
sde               0.00     0.00 2111.00    0.00  8444.00     0.00     8.00     0.15    0.07    0.07    0.00   0.07  15.50
sdf               0.00     0.00 2169.00    0.00  8676.00     0.00     8.00     0.13    0.06    0.06    0.00   0.06  13.40
sdg               0.00     1.00    2.00    9.00    32.00   188.00    40.00     0.01    1.09    1.00    1.11   0.27   0.30
sdh               0.00     0.00    0.00    0.00     0.00     0.00     0.00     0.00    0.00    0.00    0.00   0.00   0.00
md0               0.00     0.00 13011.00    0.00 52044.00     0.00     8.00     0.00    0.00    0.00    0.00   0.00   0.00

avg-cpu:  %user   %nice %system %iowait  %steal   %idle
           0.26    0.00    3.86    2.83    0.00   93.06

Device:         rrqm/s   wrqm/s     r/s     w/s    rkB/s    wkB/s avgrq-sz avgqu-sz   await r_await w_await  svctm  %util
sda               0.00     0.00 2091.00    0.00  8364.00     0.00     8.00     0.13    0.06    0.06    0.00   0.06  13.30
sdb               0.00     0.00 2051.00    0.00  8204.00     0.00     8.00     0.13    0.06    0.06    0.00   0.06  12.70
sdc               0.00     0.00 2290.00    0.00  9160.00     0.00     8.00     0.16    0.07    0.07    0.00   0.07  16.20
sdd               0.00     0.00 2146.00    0.00  8584.00     0.00     8.00     0.13    0.06    0.06    0.00   0.06  13.30
sde               0.00     0.00 2433.00    0.00  9732.00     0.00     8.00     0.17    0.07    0.07    0.00   0.07  16.60
sdf               0.00     0.00 2063.00    0.00  8252.00     0.00     8.00     0.15    0.07    0.07    0.00   0.07  15.10
sdg               0.00     6.00    0.00 2612.00     0.00 12740.00     9.75    15.89    6.08    0.00    6.08   0.04  11.40
sdh               0.00     0.00    0.00    0.00     0.00     0.00     0.00     0.00    0.00    0.00    0.00   0.00   0.00
md0               0.00     0.00 13073.00    0.00 52292.00     0.00     8.00     0.00    0.00    0.00    0.00   0.00   0.00

avg-cpu:  %user   %nice %system %iowait  %steal   %idle
           1.02    0.00    3.32    0.77    0.00   94.88

Device:         rrqm/s   wrqm/s     r/s     w/s    rkB/s    wkB/s avgrq-sz avgqu-sz   await r_await w_await  svctm  %util
sda               0.00     0.00 2405.00    0.00  9620.00     0.00     8.00     0.15    0.06    0.06    0.00   0.06  14.60
sdb               0.00     0.00 2328.00    0.00  9312.00     0.00     8.00     0.14    0.06    0.06    0.00   0.06  13.50
sdc               0.00     0.00 2248.00    0.00  8992.00     0.00     8.00     0.15    0.07    0.07    0.00   0.07  15.00
sdd               0.00     0.00 2038.00    0.00  8152.00     0.00     8.00     0.13    0.06    0.06    0.00   0.06  13.20
sde               0.00     0.00 2047.00    0.00  8188.00     0.00     8.00     0.14    0.07    0.07    0.00   0.07  14.00
sdf               0.00     0.00 2132.00    0.00  8528.00     0.00     8.00     0.14    0.07    0.07    0.00   0.07  14.20
sdg               0.00     0.00    0.00    0.00     0.00     0.00     0.00     0.00    0.00    0.00    0.00   0.00   0.00
sdh               0.00     0.00    0.00    0.00     0.00     0.00     0.00     0.00    0.00    0.00    0.00   0.00   0.00
md0               0.00     0.00 13197.00    0.00 52788.00     0.00     8.00     0.00    0.00    0.00    0.00   0.00   0.00

avg-cpu:  %user   %nice %system %iowait  %steal   %idle
           0.78    0.00    2.33    0.78    0.00   96.12

Device:         rrqm/s   wrqm/s     r/s     w/s    rkB/s    wkB/s avgrq-sz avgqu-sz   await r_await w_await  svctm  %util
sda               0.00     0.00 2396.00    0.00  9584.00     0.00     8.00     0.14    0.06    0.06    0.00   0.06  14.50
sdb               0.00     0.00 2277.00    0.00  9108.00     0.00     8.00     0.14    0.06    0.06    0.00   0.06  14.40
sdc               0.00     0.00 2135.00    0.00  8540.00     0.00     8.00     0.14    0.07    0.07    0.00   0.07  14.50
sdd               0.00     0.00 2025.00    0.00  8100.00     0.00     8.00     0.13    0.07    0.07    0.00   0.07  13.30
sde               0.00     0.00 2318.00    0.00  9272.00     0.00     8.00     0.17    0.07    0.07    0.00   0.07  17.00
sdf               0.00     0.00 2123.00    0.00  8492.00     0.00     8.00     0.14    0.07    0.07    0.00   0.07  14.10
sdg               0.00     0.00    0.00    0.00     0.00     0.00     0.00     0.00    0.00    0.00    0.00   0.00   0.00
sdh               0.00     0.00    0.00    0.00     0.00     0.00     0.00     0.00    0.00    0.00    0.00   0.00   0.00
md0               0.00     0.00 13275.00    0.00 53100.00     0.00     8.00     0.00    0.00    0.00    0.00   0.00   0.00

avg-cpu:  %user   %nice %system %iowait  %steal   %idle
           0.51    0.00    3.58    0.77    0.00   95.14

Device:         rrqm/s   wrqm/s     r/s     w/s    rkB/s    wkB/s avgrq-sz avgqu-sz   await r_await w_await  svctm  %util
sda               0.00     0.00 2142.00    0.00  8568.00     0.00     8.00     0.13    0.06    0.06    0.00   0.06  13.30
sdb               0.00     0.00 2526.00    0.00 10104.00     0.00     8.00     0.14    0.06    0.06    0.00   0.06  14.50
sdc               0.00     0.00 2106.00    0.00  8424.00     0.00     8.00     0.15    0.07    0.07    0.00   0.07  14.80
sdd               0.00     0.00 2096.00    0.00  8384.00     0.00     8.00     0.14    0.07    0.07    0.00   0.07  13.70
sde               0.00     0.00 2160.00    0.00  8640.00     0.00     8.00     0.15    0.07    0.07    0.00   0.07  15.10
sdf               0.00     0.00 2165.00    0.00  8660.00     0.00     8.00     0.14    0.07    0.07    0.00   0.07  14.40
sdg               0.00     0.00    0.00    0.00     0.00     0.00     0.00     0.00    0.00    0.00    0.00   0.00   0.00
sdh               0.00     0.00    0.00    0.00     0.00     0.00     0.00     0.00    0.00    0.00    0.00   0.00   0.00
md0               0.00     0.00 13195.00    0.00 52780.00     0.00     8.00     0.00    0.00    0.00    0.00   0.00   0.00

avg-cpu:  %user   %nice %system %iowait  %steal   %idle
           0.77    0.00    2.58    0.77    0.00   95.88

Device:         rrqm/s   wrqm/s     r/s     w/s    rkB/s    wkB/s avgrq-sz avgqu-sz   await r_await w_await  svctm  %util
sda               0.00     0.00 1983.00    0.00  7932.00     0.00     8.00     0.12    0.06    0.06    0.00   0.06  12.30
sdb               0.00     0.00 2164.00    0.00  8656.00     0.00     8.00     0.15    0.07    0.07    0.00   0.07  14.80
sdc               0.00     0.00 2043.00    0.00  8172.00     0.00     8.00     0.14    0.07    0.07    0.00   0.07  14.30
sdd               0.00     0.00 2061.00    0.00  8244.00     0.00     8.00     0.15    0.07    0.07    0.00   0.07  15.10
sde               0.00     0.00 2340.00    0.00  9360.00     0.00     8.00     0.16    0.07    0.07    0.00   0.07  15.90
sdf               0.00     0.00 2221.00    0.00  8884.00     0.00     8.00     0.16    0.07    0.07    0.00   0.07  16.00
sdg               0.00     0.00    0.00    0.00     0.00     0.00     0.00     0.00    0.00    0.00    0.00   0.00   0.00
sdh               0.00     0.00    0.00    0.00     0.00     0.00     0.00     0.00    0.00    0.00    0.00   0.00   0.00
md0               0.00     0.00 12811.00    0.00 51244.00     0.00     8.00     0.00    0.00    0.00    0.00   0.00   0.00

avg-cpu:  %user   %nice %system %iowait  %steal   %idle
           0.51    0.00    3.08    1.03    0.00   95.38

Device:         rrqm/s   wrqm/s     r/s     w/s    rkB/s    wkB/s avgrq-sz avgqu-sz   await r_await w_await  svctm  %util
sda               0.00     0.00 2019.00    0.00  8076.00     0.00     8.00     0.13    0.06    0.06    0.00   0.06  12.70
sdb               0.00     0.00 2292.00    0.00  9168.00     0.00     8.00     0.15    0.07    0.07    0.00   0.07  15.40
sdc               0.00     0.00 2334.00    0.00  9336.00     0.00     8.00     0.15    0.06    0.06    0.00   0.06  15.00
sdd               0.00     0.00 2181.00    0.00  8724.00     0.00     8.00     0.15    0.07    0.07    0.00   0.07  14.60
sde               0.00     0.00 2057.00    0.00  8228.00     0.00     8.00     0.15    0.07    0.07    0.00   0.07  14.80
sdf               0.00     0.00 2126.00    0.00  8504.00     0.00     8.00     0.14    0.07    0.07    0.00   0.07  14.40
sdg               0.00     1.00    5.00    5.00    20.00    48.00    13.60     0.01    0.80    0.00    1.60   0.80   0.80
sdh               0.00     0.00    0.00    0.00     0.00     0.00     0.00     0.00    0.00    0.00    0.00   0.00   0.00
md0               0.00     0.00 13009.00    0.00 52036.00     0.00     8.00     0.00    0.00    0.00    0.00   0.00   0.00

avg-cpu:  %user   %nice %system %iowait  %steal   %idle
           0.77    0.00    2.58    0.77    0.00   95.88

Device:         rrqm/s   wrqm/s     r/s     w/s    rkB/s    wkB/s avgrq-sz avgqu-sz   await r_await w_await  svctm  %util
sda               0.00     0.00 2267.00    0.00  9068.00     0.00     8.00     0.14    0.06    0.06    0.00   0.06  13.70
sdb               0.00     0.00 2058.00    0.00  8232.00     0.00     8.00     0.14    0.07    0.07    0.00   0.07  13.60
sdc               0.00     0.00 2251.00    0.00  9004.00     0.00     8.00     0.15    0.07    0.07    0.00   0.07  15.40
sdd               0.00     0.00 1879.00    0.00  7516.00     0.00     8.00     0.13    0.07    0.07    0.00   0.07  12.90
sde               0.00     0.00 2363.00    0.00  9452.00     0.00     8.00     0.17    0.07    0.07    0.00   0.07  16.70
sdf               0.00     0.00 2241.00    0.00  8964.00     0.00     8.00     0.17    0.07    0.07    0.00   0.07  16.70
sdg               0.00     0.00    0.00    0.00     0.00     0.00     0.00     0.00    0.00    0.00    0.00   0.00   0.00
sdh               0.00     0.00    0.00    0.00     0.00     0.00     0.00     0.00    0.00    0.00    0.00   0.00   0.00
md0               0.00     0.00 13059.00    0.00 52236.00     0.00     8.00     0.00    0.00    0.00    0.00   0.00   0.00

avg-cpu:  %user   %nice %system %iowait  %steal   %idle
           0.26    0.00    3.34    0.77    0.00   95.63

Device:         rrqm/s   wrqm/s     r/s     w/s    rkB/s    wkB/s avgrq-sz avgqu-sz   await r_await w_await  svctm  %util
sda               0.00     0.00 2140.00    0.00  8560.00     0.00     8.00     0.14    0.07    0.07    0.00   0.07  14.30
sdb               0.00     0.00 1927.00    0.00  7708.00     0.00     8.00     0.11    0.06    0.06    0.00   0.06  11.50
sdc               0.00     0.00 2229.00    0.00  8916.00     0.00     8.00     0.16    0.07    0.07    0.00   0.07  15.60
sdd               0.00     0.00 2249.00    0.00  8996.00     0.00     8.00     0.15    0.07    0.07    0.00   0.07  14.90
sde               0.00     0.00 2305.00    0.00  9220.00     0.00     8.00     0.14    0.06    0.06    0.00   0.06  14.30
sdf               0.00     0.00 2216.00    0.00  8864.00     0.00     8.00     0.16    0.07    0.07    0.00   0.07  16.20
sdg               0.00     0.00    0.00    0.00     0.00     0.00     0.00     0.00    0.00    0.00    0.00   0.00   0.00
sdh               0.00     0.00    0.00    0.00     0.00     0.00     0.00     0.00    0.00    0.00    0.00   0.00   0.00
md0               0.00     0.00 13068.00    0.00 52272.00     0.00     8.00     0.00    0.00    0.00    0.00   0.00   0.00

avg-cpu:  %user   %nice %system %iowait  %steal   %idle
           0.51    0.00    3.34    5.40    0.00   90.75

Device:         rrqm/s   wrqm/s     r/s     w/s    rkB/s    wkB/s avgrq-sz avgqu-sz   await r_await w_await  svctm  %util
sda               0.00     0.00 2022.00    0.00  8088.00     0.00     8.00     0.13    0.06    0.06    0.00   0.06  13.10
sdb               0.00     0.00 2305.00    0.00  9220.00     0.00     8.00     0.14    0.06    0.06    0.00   0.06  14.10
sdc               0.00     0.00 2609.00    0.00 10436.00     0.00     8.00     0.18    0.07    0.07    0.00   0.07  17.90
sdd               0.00     0.00 2005.00    0.00  8020.00     0.00     8.00     0.14    0.07    0.07    0.00   0.07  13.60
sde               0.00     0.00 2289.00    0.00  9156.00     0.00     8.00     0.15    0.07    0.07    0.00   0.07  14.90
sdf               0.00     0.00 2037.00    0.00  8148.00     0.00     8.00     0.15    0.07    0.07    0.00   0.07  14.60
sdg               0.00     0.00    2.00    0.00     8.00     0.00     8.00     0.00    0.00    0.00    0.00   0.00   0.00
sdh               0.00     0.00    0.00    0.00     0.00     0.00     0.00     0.00    0.00    0.00    0.00   0.00   0.00
md0               0.00     0.00 13265.00    0.00 53060.00     0.00     8.00     0.00    0.00    0.00    0.00   0.00   0.00

avg-cpu:  %user   %nice %system %iowait  %steal   %idle
           0.77    0.00    2.82    3.33    0.00   93.08

Device:         rrqm/s   wrqm/s     r/s     w/s    rkB/s    wkB/s avgrq-sz avgqu-sz   await r_await w_await  svctm  %util
sda               0.00     0.00 2406.00    0.00  9624.00     0.00     8.00     0.14    0.06    0.06    0.00   0.06  14.10
sdb               0.00     0.00 2401.00    0.00  9604.00     0.00     8.00     0.14    0.06    0.06    0.00   0.06  14.30
sdc               0.00     0.00 2167.00    0.00  8668.00     0.00     8.00     0.15    0.07    0.07    0.00   0.07  15.20
sdd               0.00     0.00 1977.00    0.00  7908.00     0.00     8.00     0.14    0.07    0.07    0.00   0.07  13.80
sde               0.00     0.00 2145.00    0.00  8580.00     0.00     8.00     0.15    0.07    0.07    0.00   0.07  15.10
sdf               0.00     0.00 2221.00    0.00  8884.00     0.00     8.00     0.16    0.07    0.07    0.00   0.07  16.10
sdg               0.00     0.00    0.00    0.00     0.00     0.00     0.00     0.00    0.00    0.00    0.00   0.00   0.00
sdh               0.00     0.00    0.00    0.00     0.00     0.00     0.00     0.00    0.00    0.00    0.00   0.00   0.00
md0               0.00     0.00 13317.00    0.00 53268.00     0.00     8.00     0.00    0.00    0.00    0.00   0.00   0.00

avg-cpu:  %user   %nice %system %iowait  %steal   %idle
           0.51    0.00    3.32    3.32    0.00   92.84

Device:         rrqm/s   wrqm/s     r/s     w/s    rkB/s    wkB/s avgrq-sz avgqu-sz   await r_await w_await  svctm  %util
sda               0.00     0.00 2628.00    0.00 10512.00     0.00     8.00     0.17    0.06    0.06    0.00   0.06  16.60
sdb               0.00     0.00 2235.00    0.00  8940.00     0.00     8.00     0.14    0.06    0.06    0.00   0.06  14.50
sdc               0.00     0.00 2031.00    0.00  8124.00     0.00     8.00     0.14    0.07    0.07    0.00   0.07  14.00
sdd               0.00     0.00 2016.00    0.00  8064.00     0.00     8.00     0.12    0.06    0.06    0.00   0.06  12.40
sde               0.00     0.00 2103.00    0.00  8412.00     0.00     8.00     0.13    0.06    0.06    0.00   0.06  13.10
sdf               0.00     0.00 2286.00    0.00  9144.00     0.00     8.00     0.15    0.07    0.07    0.00   0.07  15.50
sdg               0.00     0.00    0.00    0.00     0.00     0.00     0.00     0.00    0.00    0.00    0.00   0.00   0.00
sdh               0.00     0.00    0.00    0.00     0.00     0.00     0.00     0.00    0.00    0.00    0.00   0.00   0.00
md0               0.00     0.00 13300.00    0.00 53200.00     0.00     8.00     0.00    0.00    0.00    0.00   0.00   0.00

avg-cpu:  %user   %nice %system %iowait  %steal   %idle
           0.51    0.00    3.08    0.77    0.00   95.63

Device:         rrqm/s   wrqm/s     r/s     w/s    rkB/s    wkB/s avgrq-sz avgqu-sz   await r_await w_await  svctm  %util
sda               0.00     0.00 2079.00    0.00  8316.00     0.00     8.00     0.14    0.07    0.07    0.00   0.07  13.60
sdb               0.00     0.00 2000.00    0.00  8000.00     0.00     8.00     0.14    0.07    0.07    0.00   0.07  13.60
sdc               0.00     0.00 2352.00    0.00  9408.00     0.00     8.00     0.16    0.07    0.07    0.00   0.07  16.10
sdd               0.00     0.00 1869.00    0.00  7476.00     0.00     8.00     0.12    0.07    0.07    0.00   0.07  12.20
sde               0.00     0.00 2428.00    0.00  9712.00     0.00     8.00     0.16    0.07    0.07    0.00   0.07  16.30
sdf               0.00     0.00 2277.00    0.00  9108.00     0.00     8.00     0.15    0.07    0.07    0.00   0.07  15.50
sdg               0.00     0.00    0.00    0.00     0.00     0.00     0.00     0.00    0.00    0.00    0.00   0.00   0.00
sdh               0.00     0.00    0.00    0.00     0.00     0.00     0.00     0.00    0.00    0.00    0.00   0.00   0.00
md0               0.00     0.00 13005.00    0.00 52020.00     0.00     8.00     0.00    0.00    0.00    0.00   0.00   0.00

avg-cpu:  %user   %nice %system %iowait  %steal   %idle
           0.51    0.00    3.08    1.03    0.00   95.37

Device:         rrqm/s   wrqm/s     r/s     w/s    rkB/s    wkB/s avgrq-sz avgqu-sz   await r_await w_await  svctm  %util
sda               0.00     0.00 2090.00    0.00  8360.00     0.00     8.00     0.13    0.06    0.06    0.00   0.06  12.60
sdb               0.00     0.00 2068.00    0.00  8272.00     0.00     8.00     0.14    0.07    0.07    0.00   0.07  13.90
sdc               0.00     0.00 1990.00    0.00  7960.00     0.00     8.00     0.14    0.07    0.07    0.00   0.07  13.70
sdd               0.00     0.00 2066.00    0.00  8264.00     0.00     8.00     0.15    0.07    0.07    0.00   0.07  15.00
sde               0.00     0.00 2347.00    0.00  9388.00     0.00     8.00     0.15    0.07    0.07    0.00   0.07  15.40
sdf               0.00     0.00 2183.00    0.00  8732.00     0.00     8.00     0.16    0.07    0.07    0.00   0.07  16.20
sdg               0.00     0.00   16.00    0.00   324.00     0.00    40.50     0.01    0.44    0.44    0.00   0.38   0.60
sdh               0.00     0.00    0.00    0.00     0.00     0.00     0.00     0.00    0.00    0.00    0.00   0.00   0.00
md0               0.00     0.00 12743.00    0.00 50972.00     0.00     8.00     0.00    0.00    0.00    0.00   0.00   0.00

avg-cpu:  %user   %nice %system %iowait  %steal   %idle
           0.77    0.00    3.32    5.61    0.00   90.31

Device:         rrqm/s   wrqm/s     r/s     w/s    rkB/s    wkB/s avgrq-sz avgqu-sz   await r_await w_await  svctm  %util
sda               0.00     0.00 2133.00    0.00  8532.00     0.00     8.00     0.14    0.06    0.06    0.00   0.06  13.70
sdb               0.00     0.00 2198.00    0.00  8792.00     0.00     8.00     0.13    0.06    0.06    0.00   0.06  13.00
sdc               0.00     0.00 2019.00    0.00  8076.00     0.00     8.00     0.15    0.07    0.07    0.00   0.07  14.90
sdd               0.00     0.00 2457.00    0.00  9828.00     0.00     8.00     0.15    0.06    0.06    0.00   0.06  15.20
sde               0.00     0.00 2187.00    0.00  8748.00     0.00     8.00     0.15    0.07    0.07    0.00   0.07  15.20
sdf               0.00     0.00 2122.00    0.00  8488.00     0.00     8.00     0.15    0.07    0.07    0.00   0.07  15.00
sdg               0.00     0.00    0.00    0.00     0.00     0.00     0.00     0.00    0.00    0.00    0.00   0.00   0.00
sdh               0.00     0.00    0.00    0.00     0.00     0.00     0.00     0.00    0.00    0.00    0.00   0.00   0.00
md0               0.00     0.00 13116.00    0.00 52464.00     0.00     8.00     0.00    0.00    0.00    0.00   0.00   0.00

avg-cpu:  %user   %nice %system %iowait  %steal   %idle
           0.51    0.00    2.82    1.03    0.00   95.64

Device:         rrqm/s   wrqm/s     r/s     w/s    rkB/s    wkB/s avgrq-sz avgqu-sz   await r_await w_await  svctm  %util
sda               0.00     0.00 2122.00    0.00  8488.00     0.00     8.00     0.14    0.06    0.06    0.00   0.06  13.50
sdb               0.00     0.00 2120.00    0.00  8480.00     0.00     8.00     0.13    0.06    0.06    0.00   0.06  12.70
sdc               0.00     0.00 2093.00    0.00  8372.00     0.00     8.00     0.15    0.07    0.07    0.00   0.07  14.60
sdd               0.00     0.00 2085.00    0.00  8340.00     0.00     8.00     0.15    0.07    0.07    0.00   0.07  15.10
sde               0.00     0.00 2445.00    0.00  9780.00     0.00     8.00     0.16    0.07    0.07    0.00   0.07  16.10
sdf               0.00     0.00 2302.00    0.00  9208.00     0.00     8.00     0.16    0.07    0.07    0.00   0.07  16.40
sdg               0.00     0.00    0.00    0.00     0.00     0.00     0.00     0.00    0.00    0.00    0.00   0.00   0.00
sdh               0.00     0.00    0.00    0.00     0.00     0.00     0.00     0.00    0.00    0.00    0.00   0.00   0.00
md0               0.00     0.00 13167.00    0.00 52668.00     0.00     8.00     0.00    0.00    0.00    0.00   0.00   0.00

