Linux 4.17.2 (bench) 	08/03/2018 	_x86_64_	(4 CPU)

avg-cpu:  %user   %nice %system %iowait  %steal   %idle
          10.30    0.02    3.96    2.41    0.00   83.31

Device:         rrqm/s   wrqm/s     r/s     w/s    rkB/s    wkB/s avgrq-sz avgqu-sz   await r_await w_await  svctm  %util
sda              38.65     4.29 1589.45  103.85 20537.54  3169.11    28.00     1.02    0.60    0.26    5.91   0.06  10.44
sdb              38.56     4.25 1589.32  103.99 20526.90  3165.73    27.98     1.02    0.60    0.26    5.85   0.06  10.32
sdc              76.72     4.31 1549.08  103.54 20519.17  3168.23    28.67     1.44    0.87    0.45    7.12   0.08  13.74
sdd              70.04     4.28 1554.92  103.61 20503.76  3164.37    28.54     1.45    0.87    0.44    7.32   0.08  13.83
sde              72.12     4.32 1560.08  103.70 20564.65  3168.67    28.53     1.47    0.88    0.45    7.43   0.08  13.85
sdf              69.20     4.29 1562.26  103.65 20545.59  3165.50    28.47     1.51    0.91    0.44    7.90   0.08  13.88
sdg               0.00     3.18   25.78   73.35   321.75   391.95    14.40     0.44    4.44    0.20    5.93   0.08   0.77
sdh               0.00     0.13    0.02    0.24     2.24     5.13    56.82     0.00    1.15    0.65    1.19   0.21   0.01
md0               0.00     0.00 9776.32  486.51 140567.64 21699.60    31.62     0.00    0.00    0.00    0.00   0.00   0.00

avg-cpu:  %user   %nice %system %iowait  %steal   %idle
           1.33    0.04   16.72    4.88    0.00   77.04

Device:         rrqm/s   wrqm/s     r/s     w/s    rkB/s    wkB/s avgrq-sz avgqu-sz   await r_await w_await  svctm  %util
sda               0.00     0.00 10402.10    0.00 41608.40     0.00     8.00     1.87    0.18    0.18    0.00   0.02  21.93
sdb               0.00     0.00 10408.45    0.00 41633.80     0.00     8.00     1.90    0.18    0.18    0.00   0.02  22.44
sdc               0.00     0.00 10142.95    0.00 40571.80     0.00     8.00     2.40    0.24    0.24    0.00   0.03  28.53
sdd               0.00     0.00 10321.50    0.00 41286.00     0.00     8.00     2.44    0.24    0.24    0.00   0.03  29.17
sde               0.00     0.00 10324.20    0.00 41296.80     0.00     8.00     2.45    0.24    0.24    0.00   0.03  28.77
sdf               0.00     0.00 10168.85    0.00 40675.40     0.00     8.00     2.36    0.23    0.23    0.00   0.03  28.02
sdg               0.00     0.00   67.50    0.15   287.40     1.00     8.53     0.01    0.12    0.12    0.00   0.12   0.78
sdh               0.00     0.00    0.00    0.00     0.00     0.00     0.00     0.00    0.00    0.00    0.00   0.00   0.00
md0               0.00     0.00 61768.40    0.00 247073.60     0.00     8.00     0.00    0.00    0.00    0.00   0.00   0.00

