Linux 4.17.2 (bench) 	08/03/2018 	_x86_64_	(4 CPU)

avg-cpu:  %user   %nice %system %iowait  %steal   %idle
          10.28    0.02    4.04    2.54    0.00   83.12

Device:         rrqm/s   wrqm/s     r/s     w/s    rkB/s    wkB/s avgrq-sz avgqu-sz   await r_await w_await  svctm  %util
sda              44.31     4.25 1642.45  102.77 20853.63  3136.12    27.49     1.03    0.59    0.26    5.91   0.06  10.68
sdb              44.18     4.21 1642.37  102.91 20843.04  3132.78    27.48     1.03    0.59    0.26    5.85   0.06  10.56
sdc              82.16     4.27 1602.30  102.46 20835.21  3135.24    28.12     1.45    0.85    0.45    7.12   0.08  14.00
sdd              75.56     4.23 1608.07  102.53 20820.04  3131.43    28.00     1.46    0.85    0.44    7.32   0.08  14.10
sde              77.60     4.28 1613.15  102.62 20880.03  3135.69    27.99     1.48    0.86    0.44    7.43   0.08  14.12
sdf              74.71     4.25 1615.32  102.57 20861.20  3132.54    27.93     1.52    0.88    0.44    7.90   0.08  14.15
sdg               0.00     3.17   26.18   73.31   323.46   391.95    14.38     0.44    4.42    0.20    5.93   0.08   0.78
sdh               0.00     0.13    0.02    0.24     2.22     5.08    56.82     0.00    1.15    0.65    1.19   0.21   0.01
md0               0.00     0.00 10128.68  481.45 142804.38 21473.69    30.97     0.00    0.00    0.00    0.00   0.00   0.00

avg-cpu:  %user   %nice %system %iowait  %steal   %idle
           6.07    0.00   30.08   39.58    0.00   24.27

Device:         rrqm/s   wrqm/s     r/s     w/s    rkB/s    wkB/s avgrq-sz avgqu-sz   await r_await w_await  svctm  %util
sda               0.00     0.00 14517.00    0.00 58620.00     0.00     8.08     2.26    0.16    0.16    0.00   0.04  60.20
sdb               0.00     0.00 14165.00    0.00 57292.00     0.00     8.09     2.17    0.15    0.15    0.00   0.04  60.10
sdc               0.00     0.00 14562.00    0.00 58948.00     0.00     8.10     2.35    0.16    0.16    0.00   0.04  62.00
sdd               0.00     0.00 14152.00    0.00 57276.00     0.00     8.09     2.41    0.17    0.17    0.00   0.05  64.30
sde               0.00     0.00 14443.00    0.00 58732.00     0.00     8.13     2.39    0.17    0.17    0.00   0.04  64.50
sdf               0.00     0.00 14114.00    0.00 56968.00     0.00     8.07     2.27    0.16    0.16    0.00   0.04  63.30
sdg               0.00     0.00    0.00    0.00     0.00     0.00     0.00     0.00    0.00    0.00    0.00   0.00   0.00
sdh               0.00     0.00    0.00    0.00     0.00     0.00     0.00     0.00    0.00    0.00    0.00   0.00   0.00
md0               0.00     0.00 85899.00    0.00 348020.00     0.00     8.10     0.00    0.00    0.00    0.00   0.00   0.00

