Linux 4.17.2 (bench) 	08/03/2018 	_x86_64_	(4 CPU)

avg-cpu:  %user   %nice %system %iowait  %steal   %idle
          10.29    0.02    3.99    2.44    0.00   83.26

Device:         rrqm/s   wrqm/s     r/s     w/s    rkB/s    wkB/s avgrq-sz avgqu-sz   await r_await w_await  svctm  %util
sda              40.44     4.28 1605.74  103.55 20657.39  3160.03    27.87     1.03    0.60    0.26    5.91   0.06  10.51
sdb              40.33     4.24 1605.63  103.69 20646.80  3156.66    27.85     1.02    0.60    0.26    5.85   0.06  10.39
sdc              78.49     4.30 1565.39  103.24 20639.03  3159.15    28.52     1.44    0.86    0.45    7.12   0.08  13.82
sdd              71.83     4.27 1571.21  103.31 20623.68  3155.31    28.40     1.45    0.87    0.44    7.32   0.08  13.91
sde              73.90     4.31 1576.35  103.41 20684.35  3159.60    28.39     1.47    0.88    0.45    7.43   0.08  13.93
sdf              70.99     4.28 1578.53  103.35 20665.33  3156.43    28.33     1.52    0.90    0.44    7.90   0.08  13.96
sdg               0.00     3.18   25.91   73.35   322.39   391.99    14.39     0.44    4.44    0.20    5.93   0.08   0.77
sdh               0.00     0.13    0.02    0.24     2.23     5.11    56.82     0.00    1.15    0.65    1.19   0.21   0.01
md0               0.00     0.00 9885.05  485.12 141434.19 21637.44    31.45     0.00    0.00    0.00    0.00   0.00   0.00

avg-cpu:  %user   %nice %system %iowait  %steal   %idle
           1.14    0.03   16.88   63.52    0.00   18.43

Device:         rrqm/s   wrqm/s     r/s     w/s    rkB/s    wkB/s avgrq-sz avgqu-sz   await r_await w_await  svctm  %util
sda               0.00     0.00 10535.70    0.00 42142.80     0.00     8.00     1.53    0.14    0.14    0.00   0.03  28.56
sdb               0.00     0.00 10416.95    0.00 41667.80     0.00     8.00     1.51    0.14    0.14    0.00   0.03  28.07
sdc               0.00     0.00 10372.90    0.00 41491.60     0.00     8.00     1.97    0.19    0.19    0.00   0.03  35.98
sdd               0.00     0.00 10498.10    0.00 41992.40     0.00     8.00     1.94    0.18    0.18    0.00   0.03  33.66
sde               0.00     0.00 10421.80    0.00 41687.20     0.00     8.00     1.92    0.18    0.18    0.00   0.03  33.54
sdf               0.00     0.00 10562.65    0.00 42250.60     0.00     8.00     1.94    0.18    0.18    0.00   0.03  33.56
sdg               0.00     6.55   69.35   73.95   296.00   395.40     9.65     0.43    3.01    0.12    5.73   0.08   1.14
sdh               0.00     0.00    0.00    0.00     0.00     0.00     0.00     0.00    0.00    0.00    0.00   0.00   0.00
md0               0.00     0.00 62809.25    0.00 251237.00     0.00     8.00     0.00    0.00    0.00    0.00   0.00   0.00

