Linux 4.17.2 (bench) 	08/03/2018 	_x86_64_	(4 CPU)

avg-cpu:  %user   %nice %system %iowait  %steal   %idle
          10.30    0.02    3.97    2.42    0.00   83.30

Device:         rrqm/s   wrqm/s     r/s     w/s    rkB/s    wkB/s avgrq-sz avgqu-sz   await r_await w_await  svctm  %util
sda              38.67     4.29 1591.72  103.80 20561.43  3167.45    27.99     1.02    0.60    0.26    5.91   0.06  10.45
sdb              38.57     4.25 1591.58  103.94 20550.78  3164.07    27.97     1.02    0.60    0.26    5.85   0.06  10.33
sdc              76.72     4.31 1551.36  103.48 20543.04  3166.56    28.65     1.44    0.87    0.45    7.12   0.08  13.75
sdd              70.04     4.28 1557.21  103.55 20527.67  3162.71    28.53     1.45    0.87    0.44    7.32   0.08  13.85
sde              72.12     4.32 1562.36  103.65 20588.49  3167.01    28.52     1.47    0.88    0.45    7.43   0.08  13.87
sdf              69.20     4.29 1564.54  103.59 20569.45  3163.83    28.45     1.51    0.91    0.44    7.90   0.08  13.90
sdg               0.00     3.18   25.81   73.35   321.88   391.95    14.40     0.44    4.44    0.20    5.93   0.08   0.77
sdh               0.00     0.13    0.02    0.24     2.24     5.13    56.82     0.00    1.15    0.65    1.19   0.21   0.01
md0               0.00     0.00 9790.01  486.26 140759.29 21688.19    31.62     0.00    0.00    0.00    0.00   0.00   0.00

avg-cpu:  %user   %nice %system %iowait  %steal   %idle
           1.49    0.00   51.98    0.50    0.00   46.04

Device:         rrqm/s   wrqm/s     r/s     w/s    rkB/s    wkB/s avgrq-sz avgqu-sz   await r_await w_await  svctm  %util
sda               0.00     0.00 28690.00    0.00 114760.00     0.00     8.00     8.24    0.29    0.29    0.00   0.03  71.80
sdb               0.00     0.00 28940.00    0.00 115760.00     0.00     8.00     8.34    0.29    0.29    0.00   0.02  71.70
sdc               0.00     0.00 28887.00    0.00 115548.00     0.00     8.00     9.31    0.32    0.32    0.00   0.03  79.90
sdd               0.00     0.00 28897.00    0.00 115588.00     0.00     8.00     9.33    0.32    0.32    0.00   0.03  80.80
sde               0.00     0.00 28811.00    0.00 115244.00     0.00     8.00     9.10    0.32    0.32    0.00   0.03  78.60
sdf               0.00     0.00 28737.00    0.00 114948.00     0.00     8.00     9.03    0.31    0.31    0.00   0.03  78.70
sdg               0.00    17.00   16.00   69.00   256.00  1272.00    35.95     0.22    2.60    0.56    3.07   0.19   1.60
sdh               0.00     0.00    0.00    0.00     0.00     0.00     0.00     0.00    0.00    0.00    0.00   0.00   0.00
md0               0.00     0.00 172741.00    0.00 690964.00     0.00     8.00     0.00    0.00    0.00    0.00   0.00   0.00

