Linux 4.17.2 (bench) 	08/03/2018 	_x86_64_	(4 CPU)

avg-cpu:  %user   %nice %system %iowait  %steal   %idle
          10.29    0.02    4.00    2.47    0.00   83.22

Device:         rrqm/s   wrqm/s     r/s     w/s    rkB/s    wkB/s avgrq-sz avgqu-sz   await r_await w_await  svctm  %util
sda              41.51     4.27 1614.49  103.34 20690.35  3153.53    27.76     1.03    0.60    0.26    5.91   0.06  10.55
sdb              41.41     4.23 1614.38  103.48 20679.78  3150.17    27.74     1.02    0.60    0.26    5.85   0.06  10.43
sdc              79.48     4.29 1574.22  103.03 20671.98  3152.65    28.41     1.44    0.86    0.45    7.12   0.08  13.86
sdd              72.84     4.26 1580.02  103.10 20656.68  3148.82    28.29     1.45    0.86    0.44    7.32   0.08  13.96
sde              74.91     4.30 1585.15  103.19 20717.21  3153.10    28.28     1.47    0.87    0.44    7.43   0.08  13.98
sdf              72.00     4.27 1587.33  103.14 20698.21  3149.93    28.21     1.52    0.90    0.44    7.90   0.08  14.01
sdg               0.00     3.18   25.97   73.33   322.58   391.97    14.39     0.44    4.43    0.20    5.93   0.08   0.78
sdh               0.00     0.13    0.02    0.24     2.23     5.10    56.82     0.00    1.15    0.65    1.19   0.21   0.01
md0               0.00     0.00 9943.94  484.12 141653.25 21592.92    31.31     0.00    0.00    0.00    0.00   0.00   0.00

avg-cpu:  %user   %nice %system %iowait  %steal   %idle
           0.00    0.00    2.78   20.45    0.00   76.77

Device:         rrqm/s   wrqm/s     r/s     w/s    rkB/s    wkB/s avgrq-sz avgqu-sz   await r_await w_await  svctm  %util
sda               0.00     0.00 1408.00    0.00  5632.00     0.00     8.00     0.13    0.10    0.10    0.00   0.10  13.40
sdb               0.00     0.00 1462.00    0.00  5848.00     0.00     8.00     0.17    0.12    0.12    0.00   0.12  17.30
sdc               0.00     0.00 1511.00    0.00  6044.00     0.00     8.00     0.15    0.10    0.10    0.00   0.10  15.40
sdd               0.00     0.00 1491.00    0.00  5964.00     0.00     8.00     0.15    0.10    0.10    0.00   0.10  15.10
sde               0.00     0.00 1406.00    0.00  5624.00     0.00     8.00     0.16    0.11    0.11    0.00   0.11  16.00
sdf               0.00     0.00 1528.00    0.00  6112.00     0.00     8.00     0.17    0.11    0.11    0.00   0.11  17.10
sdg               0.00     0.00    0.00    1.00     0.00     8.00    16.00     0.00    0.00    0.00    0.00   0.00   0.00
sdh               0.00     0.00    0.00    0.00     0.00     0.00     0.00     0.00    0.00    0.00    0.00   0.00   0.00
md0               0.00     0.00 8804.00    0.00 35216.00     0.00     8.00     0.00    0.00    0.00    0.00   0.00   0.00

avg-cpu:  %user   %nice %system %iowait  %steal   %idle
           0.26    0.00    2.04    1.02    0.00   96.68

Device:         rrqm/s   wrqm/s     r/s     w/s    rkB/s    wkB/s avgrq-sz avgqu-sz   await r_await w_await  svctm  %util
sda               0.00     0.00 1377.00    0.00  5508.00     0.00     8.00     0.14    0.10    0.10    0.00   0.10  14.10
sdb               0.00     0.00 1458.00    0.00  5832.00     0.00     8.00     0.14    0.10    0.10    0.00   0.10  13.90
sdc               0.00     0.00 1407.00    0.00  5628.00     0.00     8.00     0.15    0.11    0.11    0.00   0.11  14.80
sdd               0.00     0.00 1427.00    0.00  5708.00     0.00     8.00     0.16    0.11    0.11    0.00   0.11  16.10
sde               0.00     0.00 1467.00    0.00  5868.00     0.00     8.00     0.16    0.11    0.11    0.00   0.11  15.60
sdf               0.00     0.00 1398.00    0.00  5592.00     0.00     8.00     0.16    0.12    0.12    0.00   0.12  16.10
sdg               0.00     0.00    0.00    0.00     0.00     0.00     0.00     0.00    0.00    0.00    0.00   0.00   0.00
sdh               0.00     0.00    0.00    0.00     0.00     0.00     0.00     0.00    0.00    0.00    0.00   0.00   0.00
md0               0.00     0.00 8534.00    0.00 34136.00     0.00     8.00     0.00    0.00    0.00    0.00   0.00   0.00

