Linux 4.17.2 (bench) 	08/03/2018 	_x86_64_	(4 CPU)

avg-cpu:  %user   %nice %system %iowait  %steal   %idle
          10.29    0.02    4.02    2.49    0.00   83.18

Device:         rrqm/s   wrqm/s     r/s     w/s    rkB/s    wkB/s avgrq-sz avgqu-sz   await r_await w_await  svctm  %util
sda              41.98     4.26 1627.74  103.12 20787.06  3146.68    27.66     1.03    0.59    0.26    5.91   0.06  10.61
sdb              41.88     4.22 1627.63  103.25 20776.43  3143.33    27.64     1.03    0.59    0.26    5.85   0.06  10.49
sdc              79.91     4.28 1587.52  102.80 20768.62  3145.80    28.30     1.45    0.86    0.45    7.12   0.08  13.93
sdd              73.28     4.25 1593.31  102.87 20753.40  3141.98    28.18     1.45    0.86    0.44    7.32   0.08  14.02
sde              75.34     4.29 1598.42  102.97 20813.70  3146.25    28.17     1.47    0.87    0.44    7.43   0.08  14.04
sdf              72.44     4.26 1600.58  102.92 20794.79  3143.09    28.10     1.52    0.89    0.44    7.90   0.08  14.07
sdg               0.00     3.18   26.07   73.33   323.03   392.00    14.39     0.44    4.43    0.20    5.93   0.08   0.78
sdh               0.00     0.13    0.02    0.24     2.22     5.09    56.82     0.00    1.15    0.65    1.19   0.21   0.01
md0               0.00     0.00 10026.42  483.07 142355.50 21546.02    31.19     0.00    0.00    0.00    0.00   0.00   0.00

avg-cpu:  %user   %nice %system %iowait  %steal   %idle
           2.81    0.01   31.91    0.49    0.00   64.77

Device:         rrqm/s   wrqm/s     r/s     w/s    rkB/s    wkB/s avgrq-sz avgqu-sz   await r_await w_await  svctm  %util
sda           13826.70     0.00 17193.35    0.00 125117.60     0.00    14.55     9.53    0.55    0.55    0.00   0.03  47.16
sdb           13859.15     0.00 17240.55    0.00 125435.20     0.00    14.55     9.61    0.56    0.56    0.00   0.03  47.14
sdc           14519.60     0.00 16531.00    0.00 125313.00     0.00    15.16    11.55    0.70    0.70    0.00   0.04  63.31
sdd           14447.75     0.00 16615.80    0.00 125378.00     0.00    15.09    11.55    0.70    0.70    0.00   0.04  63.62
sde           14374.80     0.00 16537.55    0.00 124791.60     0.00    15.09    11.55    0.70    0.70    0.00   0.04  63.43
sdf           14214.40     0.00 16454.95    0.00 123739.40     0.00    15.04    11.51    0.70    0.70    0.00   0.04  63.05
sdg               0.00     0.00   64.40    0.20   267.60     6.40     8.48     0.01    0.12    0.12    0.00   0.12   0.80
sdh               0.00     0.00    0.00    0.00     0.00     0.00     0.00     0.00    0.00    0.00    0.00   0.00   0.00
md0               0.00     0.00 187347.80    0.00 749847.00     0.00     8.00     0.00    0.00    0.00    0.00   0.00   0.00

