Linux 4.17.2 (bench) 	08/03/2018 	_x86_64_	(4 CPU)

avg-cpu:  %user   %nice %system %iowait  %steal   %idle
          10.30    0.02    3.96    2.39    0.00   83.33

Device:         rrqm/s   wrqm/s     r/s     w/s    rkB/s    wkB/s avgrq-sz avgqu-sz   await r_await w_await  svctm  %util
sda              37.99     4.30 1582.79  104.03 20500.97  3174.58    28.07     1.02    0.61    0.26    5.91   0.06  10.41
sdb              37.90     4.26 1582.65  104.17 20490.27  3171.19    28.05     1.02    0.60    0.26    5.85   0.06  10.29
sdc              76.13     4.32 1542.35  103.71 20482.51  3173.69    28.74     1.44    0.87    0.45    7.12   0.08  13.70
sdd              69.43     4.29 1548.20  103.79 20467.08  3169.83    28.62     1.45    0.87    0.44    7.32   0.08  13.79
sde              71.52     4.33 1553.37  103.88 20528.13  3174.14    28.60     1.47    0.88    0.45    7.43   0.08  13.81
sdf              68.60     4.30 1555.56  103.83 20509.07  3170.95    28.54     1.51    0.91    0.44    7.90   0.08  13.84
sdg               0.00     3.18   25.72   73.37   321.54   391.99    14.40     0.44    4.44    0.20    5.93   0.08   0.77
sdh               0.00     0.13    0.02    0.24     2.24     5.14    56.82     0.00    1.15    0.65    1.19   0.21   0.01
md0               0.00     0.00 9732.37  487.35 140302.89 21737.02    31.71     0.00    0.00    0.00    0.00   0.00   0.00

avg-cpu:  %user   %nice %system %iowait  %steal   %idle
           0.83    0.03   30.93   64.39    0.00    3.82

Device:         rrqm/s   wrqm/s     r/s     w/s    rkB/s    wkB/s avgrq-sz avgqu-sz   await r_await w_await  svctm  %util
sda               0.00     0.00 19901.85    0.00 79607.40     0.00     8.00     2.19    0.11    0.11    0.00   0.04  88.12
sdb               0.00     0.00 19832.35    0.00 79329.40     0.00     8.00     2.20    0.11    0.11    0.00   0.04  88.05
sdc               0.00     0.00 19897.05    0.00 79588.20     0.00     8.00     2.51    0.13    0.13    0.00   0.05  91.10
sdd               0.00     0.00 19878.45    0.00 79513.80     0.00     8.00     2.52    0.13    0.13    0.00   0.05  90.94
sde               0.00     0.00 19927.80    0.00 79711.20     0.00     8.00     2.53    0.13    0.13    0.00   0.05  91.05
sdf               0.00     0.00 19862.45    0.00 79449.80     0.00     8.00     2.53    0.13    0.13    0.00   0.05  91.32
sdg               0.00     0.00    2.25   69.80    28.00   384.20    11.44     0.41    5.76    0.36    5.94   0.06   0.40
sdh               0.00     0.00    0.00    0.00     0.00     0.00     0.00     0.00    0.00    0.00    0.00   0.00   0.00
md0               0.00     0.00 119301.65    0.00 477206.60     0.00     8.00     0.00    0.00    0.00    0.00   0.00   0.00

