Linux 4.17.2 (bench) 	08/03/2018 	_x86_64_	(4 CPU)

avg-cpu:  %user   %nice %system %iowait  %steal   %idle
          10.28    0.02    4.04    2.54    0.00   83.12

Device:         rrqm/s   wrqm/s     r/s     w/s    rkB/s    wkB/s avgrq-sz avgqu-sz   await r_await w_await  svctm  %util
sda              44.31     4.25 1642.83  102.76 20855.13  3135.87    27.49     1.03    0.59    0.26    5.91   0.06  10.68
sdb              44.18     4.21 1642.75  102.90 20844.54  3132.52    27.47     1.03    0.59    0.26    5.85   0.06  10.56
sdc              82.15     4.27 1602.69  102.45 20836.69  3134.99    28.12     1.45    0.85    0.45    7.12   0.08  14.00
sdd              75.55     4.23 1608.45  102.52 20821.51  3131.18    28.00     1.46    0.85    0.44    7.32   0.08  14.10
sde              77.59     4.28 1613.54  102.62 20881.51  3135.43    27.99     1.48    0.86    0.44    7.43   0.08  14.12
sdf              74.70     4.25 1615.70  102.56 20862.69  3132.29    27.93     1.52    0.88    0.44    7.90   0.08  14.15
sdg               0.00     3.17   26.19   73.31   323.46   391.94    14.38     0.44    4.42    0.20    5.93   0.08   0.78
sdh               0.00     0.13    0.02    0.24     2.22     5.07    56.82     0.00    1.15    0.65    1.19   0.21   0.01
md0               0.00     0.00 10130.94  481.41 142812.78 21471.98    30.96     0.00    0.00    0.00    0.00   0.00   0.00

avg-cpu:  %user   %nice %system %iowait  %steal   %idle
           3.23    0.25   21.64    4.23    0.00   70.65

Device:         rrqm/s   wrqm/s     r/s     w/s    rkB/s    wkB/s avgrq-sz avgqu-sz   await r_await w_await  svctm  %util
sda               0.00     0.00 14055.00    0.00 56220.00     0.00     8.00     1.88    0.13    0.13    0.00   0.04  53.20
sdb               0.00     0.00 13949.00    0.00 55796.00     0.00     8.00     1.82    0.13    0.13    0.00   0.04  53.40
sdc               0.00     0.00 14112.00    0.00 56448.00     0.00     8.00     2.09    0.15    0.15    0.00   0.04  59.20
sdd               0.00     0.00 13900.00    0.00 55600.00     0.00     8.00     2.12    0.15    0.15    0.00   0.04  59.30
sde               0.00     0.00 13927.00    0.00 55708.00     0.00     8.00     2.05    0.15    0.15    0.00   0.04  59.20
sdf               0.00     0.00 13786.00    0.00 55144.00     0.00     8.00     1.99    0.14    0.14    0.00   0.04  56.80
sdg               0.00     0.00 1261.00    0.00  5452.00     0.00     8.65     0.14    0.11    0.11    0.00   0.11  13.60
sdh               0.00     0.00    0.00    0.00     0.00     0.00     0.00     0.00    0.00    0.00    0.00   0.00   0.00
md0               0.00     0.00 83736.00    0.00 334944.00     0.00     8.00     0.00    0.00    0.00    0.00   0.00   0.00

avg-cpu:  %user   %nice %system %iowait  %steal   %idle
           3.23    0.00   21.14    2.24    0.00   73.38

Device:         rrqm/s   wrqm/s     r/s     w/s    rkB/s    wkB/s avgrq-sz avgqu-sz   await r_await w_await  svctm  %util
sda               0.00     0.00 13584.00    0.00 54336.00     0.00     8.00     1.72    0.13    0.13    0.00   0.04  52.80
sdb               0.00     0.00 14062.00    0.00 56248.00     0.00     8.00     1.90    0.13    0.13    0.00   0.04  53.90
sdc               0.00     0.00 13685.00    0.00 54740.00     0.00     8.00     1.87    0.14    0.14    0.00   0.04  57.00
sdd               0.00     0.00 13932.00    0.00 55728.00     0.00     8.00     2.02    0.14    0.14    0.00   0.04  57.60
sde               0.00     0.00 14079.00    0.00 56316.00     0.00     8.00     2.07    0.15    0.15    0.00   0.04  59.40
sdf               0.00     0.00 13656.00    0.00 54624.00     0.00     8.00     2.01    0.15    0.15    0.00   0.04  56.50
sdg               0.00     0.00    0.00  476.00     0.00  2476.00    10.40     1.86    3.90    0.00    3.90   0.04   1.70
sdh               0.00     0.00    0.00    0.00     0.00     0.00     0.00     0.00    0.00    0.00    0.00   0.00   0.00
md0               0.00     0.00 82998.00    0.00 331992.00     0.00     8.00     0.00    0.00    0.00    0.00   0.00   0.00

avg-cpu:  %user   %nice %system %iowait  %steal   %idle
           3.04    0.00   19.49    2.03    0.00   75.44

Device:         rrqm/s   wrqm/s     r/s     w/s    rkB/s    wkB/s avgrq-sz avgqu-sz   await r_await w_await  svctm  %util
sda               0.00     0.00 13608.00    0.00 54432.00     0.00     8.00     1.79    0.13    0.13    0.00   0.04  50.90
sdb               0.00     0.00 13523.00    0.00 54092.00     0.00     8.00     1.60    0.12    0.12    0.00   0.04  50.40
sdc               0.00     0.00 13604.00    0.00 54416.00     0.00     8.00     1.91    0.14    0.14    0.00   0.04  56.70
sdd               0.00     0.00 13590.00    0.00 54360.00     0.00     8.00     2.06    0.15    0.15    0.00   0.04  57.60
sde               0.00     0.00 13713.00    0.00 54852.00     0.00     8.00     1.97    0.14    0.14    0.00   0.04  58.70
sdf               0.00     0.00 13502.00    0.00 54008.00     0.00     8.00     1.88    0.14    0.14    0.00   0.04  57.60
sdg               0.00     0.00    0.00    0.00     0.00     0.00     0.00     0.00    0.00    0.00    0.00   0.00   0.00
sdh               0.00     0.00    0.00    0.00     0.00     0.00     0.00     0.00    0.00    0.00    0.00   0.00   0.00
md0               0.00     0.00 81546.00    0.00 326184.00     0.00     8.00     0.00    0.00    0.00    0.00   0.00   0.00

avg-cpu:  %user   %nice %system %iowait  %steal   %idle
           3.26    0.00   19.80    2.76    0.00   74.19

Device:         rrqm/s   wrqm/s     r/s     w/s    rkB/s    wkB/s avgrq-sz avgqu-sz   await r_await w_await  svctm  %util
sda               0.00     0.00 13318.00    0.00 53272.00     0.00     8.00     1.69    0.13    0.13    0.00   0.04  51.70
sdb               0.00     0.00 13079.00    0.00 52316.00     0.00     8.00     1.67    0.13    0.13    0.00   0.04  51.70
sdc               0.00     0.00 13266.00    0.00 53064.00     0.00     8.00     1.89    0.14    0.14    0.00   0.04  57.60
sdd               0.00     0.00 13308.00    0.00 53232.00     0.00     8.00     1.84    0.14    0.14    0.00   0.04  53.70
sde               0.00     0.00 13035.00    0.00 52140.00     0.00     8.00     1.90    0.15    0.15    0.00   0.04  56.00
sdf               0.00     0.00 13286.00    0.00 53144.00     0.00     8.00     1.86    0.14    0.14    0.00   0.04  56.50
sdg               0.00     0.00   16.00    0.00   312.00     0.00    39.00     0.00    0.06    0.06    0.00   0.06   0.10
sdh               0.00     0.00    0.00    0.00     0.00     0.00     0.00     0.00    0.00    0.00    0.00   0.00   0.00
md0               0.00     0.00 79291.00    0.00 317164.00     0.00     8.00     0.00    0.00    0.00    0.00   0.00   0.00

avg-cpu:  %user   %nice %system %iowait  %steal   %idle
           2.99    0.00   20.70    2.49    0.00   73.82

Device:         rrqm/s   wrqm/s     r/s     w/s    rkB/s    wkB/s avgrq-sz avgqu-sz   await r_await w_await  svctm  %util
sda               0.00     0.00 13431.00    0.00 53724.00     0.00     8.00     1.72    0.13    0.13    0.00   0.04  52.60
sdb               0.00     0.00 13304.00    0.00 53216.00     0.00     8.00     1.77    0.13    0.13    0.00   0.04  51.50
sdc               0.00     0.00 13475.00    0.00 53900.00     0.00     8.00     1.89    0.14    0.14    0.00   0.04  57.80
sdd               0.00     0.00 13422.00    0.00 53688.00     0.00     8.00     1.90    0.14    0.14    0.00   0.04  59.00
sde               0.00     0.00 13572.00    0.00 54288.00     0.00     8.00     1.99    0.15    0.15    0.00   0.04  59.50
sdf               0.00     0.00 13467.00    0.00 53868.00     0.00     8.00     1.83    0.14    0.14    0.00   0.04  56.10
sdg               0.00     0.00    0.00    0.00     0.00     0.00     0.00     0.00    0.00    0.00    0.00   0.00   0.00
sdh               0.00     0.00    0.00    0.00     0.00     0.00     0.00     0.00    0.00    0.00    0.00   0.00   0.00
md0               0.00     0.00 80682.00    0.00 322728.00     0.00     8.00     0.00    0.00    0.00    0.00   0.00   0.00

avg-cpu:  %user   %nice %system %iowait  %steal   %idle
           2.27    0.00   20.96    2.78    0.00   73.99

Device:         rrqm/s   wrqm/s     r/s     w/s    rkB/s    wkB/s avgrq-sz avgqu-sz   await r_await w_await  svctm  %util
sda               0.00     0.00 13468.00    0.00 53872.00     0.00     8.00     1.85    0.14    0.14    0.00   0.04  54.60
sdb               0.00     0.00 13517.00    0.00 54068.00     0.00     8.00     1.71    0.13    0.13    0.00   0.04  54.40
sdc               0.00     0.00 13353.00    0.00 53412.00     0.00     8.00     2.07    0.15    0.15    0.00   0.05  62.60
sdd               0.00     0.00 13590.00    0.00 54360.00     0.00     8.00     2.02    0.15    0.15    0.00   0.04  60.20
sde               0.00     0.00 13365.00    0.00 53460.00     0.00     8.00     1.98    0.15    0.15    0.00   0.05  61.20
sdf               0.00     0.00 13198.00    0.00 52792.00     0.00     8.00     2.04    0.15    0.15    0.00   0.05  61.60
sdg               0.00     0.00    0.00    0.00     0.00     0.00     0.00     0.00    0.00    0.00    0.00   0.00   0.00
sdh               0.00     0.00    0.00    0.00     0.00     0.00     0.00     0.00    0.00    0.00    0.00   0.00   0.00
md0               0.00     0.00 80476.00    0.00 321904.00     0.00     8.00     0.00    0.00    0.00    0.00   0.00   0.00

avg-cpu:  %user   %nice %system %iowait  %steal   %idle
           3.45    0.00   21.18    2.96    0.00   72.41

Device:         rrqm/s   wrqm/s     r/s     w/s    rkB/s    wkB/s avgrq-sz avgqu-sz   await r_await w_await  svctm  %util
sda               0.00     0.00 13462.00    0.00 53848.00     0.00     8.00     1.89    0.14    0.14    0.00   0.04  55.60
sdb               0.00     0.00 13617.00    0.00 54468.00     0.00     8.00     1.83    0.13    0.13    0.00   0.04  53.90
sdc               0.00     0.00 13168.00    0.00 52672.00     0.00     8.00     1.78    0.14    0.14    0.00   0.04  57.40
sdd               0.00     0.00 13446.00    0.00 53784.00     0.00     8.00     1.88    0.14    0.14    0.00   0.04  57.40
sde               0.00     0.00 13091.00    0.00 52364.00     0.00     8.00     1.90    0.15    0.15    0.00   0.04  58.90
sdf               0.00     0.00 13360.00    0.00 53440.00     0.00     8.00     1.90    0.14    0.14    0.00   0.04  58.00
sdg               0.00     0.00    8.00    5.00    32.00    20.00     8.00     0.00    0.08    0.12    0.00   0.08   0.10
sdh               0.00     0.00    0.00    0.00     0.00     0.00     0.00     0.00    0.00    0.00    0.00   0.00   0.00
md0               0.00     0.00 80158.00    0.00 320632.00     0.00     8.00     0.00    0.00    0.00    0.00   0.00   0.00

avg-cpu:  %user   %nice %system %iowait  %steal   %idle
           3.53    0.00   19.65    3.02    0.00   73.80

Device:         rrqm/s   wrqm/s     r/s     w/s    rkB/s    wkB/s avgrq-sz avgqu-sz   await r_await w_await  svctm  %util
sda               0.00     0.00 13186.00    0.00 52744.00     0.00     8.00     1.79    0.14    0.14    0.00   0.04  54.70
sdb               0.00     0.00 13284.00    0.00 53136.00     0.00     8.00     1.66    0.13    0.13    0.00   0.04  51.20
sdc               0.00     0.00 12941.00    0.00 51764.00     0.00     8.00     1.78    0.14    0.14    0.00   0.04  56.20
sdd               0.00     0.00 13090.00    0.00 52360.00     0.00     8.00     1.82    0.14    0.14    0.00   0.05  60.80
sde               0.00     0.00 12884.00    0.00 51536.00     0.00     8.00     1.82    0.14    0.14    0.00   0.04  55.80
sdf               0.00     0.00 13258.00    0.00 53032.00     0.00     8.00     2.04    0.15    0.15    0.00   0.05  60.50
sdg               0.00     0.00    0.00    0.00     0.00     0.00     0.00     0.00    0.00    0.00    0.00   0.00   0.00
sdh               0.00     0.00    0.00    0.00     0.00     0.00     0.00     0.00    0.00    0.00    0.00   0.00   0.00
md0               0.00     0.00 78639.00    0.00 314556.00     0.00     8.00     0.00    0.00    0.00    0.00   0.00   0.00

avg-cpu:  %user   %nice %system %iowait  %steal   %idle
           3.02    0.00   20.35    2.51    0.00   74.12

Device:         rrqm/s   wrqm/s     r/s     w/s    rkB/s    wkB/s avgrq-sz avgqu-sz   await r_await w_await  svctm  %util
sda               0.00     0.00 12961.00    0.00 51844.00     0.00     8.00     1.58    0.12    0.12    0.00   0.04  51.20
sdb               0.00     0.00 12808.00    0.00 51232.00     0.00     8.00     1.59    0.12    0.12    0.00   0.04  49.40
sdc               0.00     0.00 13324.00    0.00 53296.00     0.00     8.00     1.86    0.14    0.14    0.00   0.04  58.40
sdd               0.00     0.00 12801.00    0.00 51204.00     0.00     8.00     1.76    0.14    0.14    0.00   0.04  56.30
sde               0.00     0.00 12647.00    0.00 50588.00     0.00     8.00     1.69    0.13    0.13    0.00   0.04  56.20
sdf               0.00     0.00 13206.00    0.00 52824.00     0.00     8.00     1.76    0.13    0.13    0.00   0.04  56.80
sdg               0.00     0.00    0.00    0.00     0.00     0.00     0.00     0.00    0.00    0.00    0.00   0.00   0.00
sdh               0.00     0.00    0.00    0.00     0.00     0.00     0.00     0.00    0.00    0.00    0.00   0.00   0.00
md0               0.00     0.00 77739.00    0.00 310956.00     0.00     8.00     0.00    0.00    0.00    0.00   0.00   0.00

avg-cpu:  %user   %nice %system %iowait  %steal   %idle
           3.51    0.00   19.55    2.26    0.00   74.69

Device:         rrqm/s   wrqm/s     r/s     w/s    rkB/s    wkB/s avgrq-sz avgqu-sz   await r_await w_await  svctm  %util
sda               0.00     0.00 12650.00    0.00 50600.00     0.00     8.00     1.62    0.13    0.13    0.00   0.04  52.60
sdb               0.00     0.00 12701.00    0.00 50804.00     0.00     8.00     1.65    0.13    0.13    0.00   0.04  52.40
sdc               0.00     0.00 12700.00    0.00 50800.00     0.00     8.00     1.79    0.14    0.14    0.00   0.05  57.20
sdd               0.00     0.00 12768.00    0.00 51072.00     0.00     8.00     1.77    0.14    0.14    0.00   0.05  59.30
sde               0.00     0.00 12477.00    0.00 49908.00     0.00     8.00     1.69    0.14    0.14    0.00   0.05  56.50
sdf               0.00     0.00 12683.00    0.00 50732.00     0.00     8.00     1.92    0.15    0.15    0.00   0.05  57.30
sdg               0.00     0.00    5.00    0.00    20.00     0.00     8.00     0.00    0.00    0.00    0.00   0.00   0.00
sdh               0.00     0.00    0.00    0.00     0.00     0.00     0.00     0.00    0.00    0.00    0.00   0.00   0.00
md0               0.00     0.00 75989.00    0.00 303956.00     0.00     8.00     0.00    0.00    0.00    0.00   0.00   0.00

avg-cpu:  %user   %nice %system %iowait  %steal   %idle
           3.25    0.25   21.00    4.75    0.00   70.75

Device:         rrqm/s   wrqm/s     r/s     w/s    rkB/s    wkB/s avgrq-sz avgqu-sz   await r_await w_await  svctm  %util
sda               0.00     0.00 12427.00    0.00 49708.00     0.00     8.00     1.60    0.13    0.13    0.00   0.04  52.30
sdb               0.00     0.00 12349.00    0.00 49396.00     0.00     8.00     1.52    0.12    0.12    0.00   0.04  49.50
sdc               0.00     0.00 12536.00    0.00 50144.00     0.00     8.00     1.73    0.14    0.14    0.00   0.05  58.50
sdd               0.00     0.00 12393.00    0.00 49572.00     0.00     8.00     1.70    0.14    0.14    0.00   0.04  55.70
sde               0.00     0.00 12353.00    0.00 49412.00     0.00     8.00     1.66    0.13    0.13    0.00   0.05  56.60
sdf               0.00     0.00 12509.00    0.00 50036.00     0.00     8.00     1.77    0.14    0.14    0.00   0.05  57.60
sdg               0.00     0.00 1326.00    0.00  5304.00     0.00     8.00     0.15    0.12    0.12    0.00   0.12  15.30
sdh               0.00     0.00    0.00    0.00     0.00     0.00     0.00     0.00    0.00    0.00    0.00   0.00   0.00
md0               0.00     0.00 74564.00    0.00 298256.00     0.00     8.00     0.00    0.00    0.00    0.00   0.00   0.00

avg-cpu:  %user   %nice %system %iowait  %steal   %idle
           3.00    0.00   20.50    2.50    0.00   74.00

Device:         rrqm/s   wrqm/s     r/s     w/s    rkB/s    wkB/s avgrq-sz avgqu-sz   await r_await w_await  svctm  %util
sda               0.00     0.00 12525.00    0.00 50100.00     0.00     8.00     1.56    0.12    0.12    0.00   0.04  51.60
sdb               0.00     0.00 12381.00    0.00 49524.00     0.00     8.00     1.55    0.13    0.13    0.00   0.04  51.40
sdc               0.00     0.00 12369.00    0.00 49476.00     0.00     8.00     1.74    0.14    0.14    0.00   0.05  57.60
sdd               0.00     0.00 12305.00    0.00 49220.00     0.00     8.00     1.71    0.14    0.14    0.00   0.05  56.60
sde               0.00     0.00 12242.00    0.00 48968.00     0.00     8.00     1.65    0.13    0.13    0.00   0.05  55.50
sdf               0.00     0.00 12480.00    0.00 49920.00     0.00     8.00     1.70    0.14    0.14    0.00   0.05  56.20
sdg               0.00     1.00    0.00    2.00     0.00    36.00    36.00     0.00    0.00    0.00    0.00   0.00   0.00
sdh               0.00     0.00    0.00    0.00     0.00     0.00     0.00     0.00    0.00    0.00    0.00   0.00   0.00
md0               0.00     0.00 74294.00    0.00 297176.00     0.00     8.00     0.00    0.00    0.00    0.00   0.00   0.00

avg-cpu:  %user   %nice %system %iowait  %steal   %idle
           3.48    0.00   20.15    2.99    0.00   73.38

Device:         rrqm/s   wrqm/s     r/s     w/s    rkB/s    wkB/s avgrq-sz avgqu-sz   await r_await w_await  svctm  %util
sda               0.00     0.00 12404.00    0.00 49616.00     0.00     8.00     1.53    0.12    0.12    0.00   0.04  53.50
sdb               0.00     0.00 12045.00    0.00 48180.00     0.00     8.00     1.52    0.13    0.13    0.00   0.04  52.20
sdc               0.00     0.00 12184.00    0.00 48736.00     0.00     8.00     1.68    0.14    0.14    0.00   0.05  56.10
sdd               0.00     0.00 12076.00    0.00 48304.00     0.00     8.00     1.69    0.14    0.14    0.00   0.05  57.10
sde               0.00     0.00 11903.00    0.00 47612.00     0.00     8.00     1.67    0.14    0.14    0.00   0.05  58.90
sdf               0.00     0.00 12135.00    0.00 48540.00     0.00     8.00     1.80    0.15    0.15    0.00   0.05  60.40
sdg               0.00     0.00    0.00    0.00     0.00     0.00     0.00     0.00    0.00    0.00    0.00   0.00   0.00
sdh               0.00     0.00    0.00    0.00     0.00     0.00     0.00     0.00    0.00    0.00    0.00   0.00   0.00
md0               0.00     0.00 72755.00    0.00 291020.00     0.00     8.00     0.00    0.00    0.00    0.00   0.00   0.00

avg-cpu:  %user   %nice %system %iowait  %steal   %idle
           3.48    0.00   20.15    2.99    0.00   73.38

Device:         rrqm/s   wrqm/s     r/s     w/s    rkB/s    wkB/s avgrq-sz avgqu-sz   await r_await w_await  svctm  %util
sda               0.00     0.00 12122.00    0.00 48488.00     0.00     8.00     1.54    0.13    0.13    0.00   0.04  52.40
sdb               0.00     0.00 12178.00    0.00 48712.00     0.00     8.00     1.40    0.12    0.12    0.00   0.04  49.60
sdc               0.00     0.00 11954.00    0.00 47816.00     0.00     8.00     1.63    0.14    0.14    0.00   0.05  55.30
sdd               0.00     0.00 11836.00    0.00 47344.00     0.00     8.00     1.54    0.13    0.13    0.00   0.05  53.90
sde               0.00     0.00 12345.00    0.00 49380.00     0.00     8.00     1.69    0.14    0.14    0.00   0.05  56.70
sdf               0.00     0.00 11986.00    0.00 47944.00     0.00     8.00     1.63    0.14    0.14    0.00   0.05  56.40
sdg               0.00     0.00    0.00    0.00     0.00     0.00     0.00     0.00    0.00    0.00    0.00   0.00   0.00
sdh               0.00     0.00    0.00    0.00     0.00     0.00     0.00     0.00    0.00    0.00    0.00   0.00   0.00
md0               0.00     0.00 72422.00    0.00 289688.00     0.00     8.00     0.00    0.00    0.00    0.00   0.00   0.00

avg-cpu:  %user   %nice %system %iowait  %steal   %idle
           3.53    0.00   19.14    3.27    0.00   74.06

Device:         rrqm/s   wrqm/s     r/s     w/s    rkB/s    wkB/s avgrq-sz avgqu-sz   await r_await w_await  svctm  %util
sda               0.00     0.00 11646.00    0.00 46584.00     0.00     8.00     1.48    0.13    0.13    0.00   0.04  50.40
sdb               0.00     0.00 11882.00    0.00 47528.00     0.00     8.00     1.43    0.12    0.12    0.00   0.04  49.00
sdc               0.00     0.00 11774.00    0.00 47096.00     0.00     8.00     1.62    0.14    0.14    0.00   0.05  54.40
sdd               0.00     0.00 11516.00    0.00 46064.00     0.00     8.00     1.57    0.14    0.14    0.00   0.05  55.40
sde               0.00     0.00 11817.00    0.00 47268.00     0.00     8.00     1.58    0.13    0.13    0.00   0.05  54.00
sdf               0.00     0.00 12041.00    0.00 48164.00     0.00     8.00     1.60    0.13    0.13    0.00   0.05  56.70
sdg               0.00     0.00    0.00    0.00     0.00     0.00     0.00     0.00    0.00    0.00    0.00   0.00   0.00
sdh               0.00     0.00    0.00    0.00     0.00     0.00     0.00     0.00    0.00    0.00    0.00   0.00   0.00
md0               0.00     0.00 70662.00    0.00 282648.00     0.00     8.00     0.00    0.00    0.00    0.00   0.00   0.00

avg-cpu:  %user   %nice %system %iowait  %steal   %idle
           3.55    0.00   18.53    2.54    0.00   75.38

Device:         rrqm/s   wrqm/s     r/s     w/s    rkB/s    wkB/s avgrq-sz avgqu-sz   await r_await w_await  svctm  %util
sda               0.00     0.00 11666.00    0.00 46664.00     0.00     8.00     1.50    0.13    0.13    0.00   0.04  52.30
sdb               0.00     0.00 11715.00    0.00 46860.00     0.00     8.00     1.40    0.12    0.12    0.00   0.04  50.00
sdc               0.00     0.00 11308.00    0.00 45232.00     0.00     8.00     1.62    0.14    0.14    0.00   0.05  57.20
sdd               0.00     0.00 11835.00    0.00 47340.00     0.00     8.00     1.64    0.14    0.14    0.00   0.05  55.10
sde               0.00     0.00 11662.00    0.00 46648.00     0.00     8.00     1.60    0.14    0.14    0.00   0.05  55.20
sdf               0.00     0.00 11578.00    0.00 46312.00     0.00     8.00     1.50    0.13    0.13    0.00   0.05  55.30
sdg               0.00     0.00    0.00    0.00     0.00     0.00     0.00     0.00    0.00    0.00    0.00   0.00   0.00
sdh               0.00     0.00    0.00    0.00     0.00     0.00     0.00     0.00    0.00    0.00    0.00   0.00   0.00
md0               0.00     0.00 69767.00    0.00 279068.00     0.00     8.00     0.00    0.00    0.00    0.00   0.00   0.00

avg-cpu:  %user   %nice %system %iowait  %steal   %idle
           3.62    0.00   17.05    3.36    0.00   75.97

Device:         rrqm/s   wrqm/s     r/s     w/s    rkB/s    wkB/s avgrq-sz avgqu-sz   await r_await w_await  svctm  %util
sda               0.00     0.00 11732.00    0.00 46928.00     0.00     8.00     1.42    0.12    0.12    0.00   0.04  50.40
sdb               0.00     0.00 11110.00    0.00 44440.00     0.00     8.00     1.34    0.12    0.12    0.00   0.04  49.00
sdc               0.00     0.00 11231.00    0.00 44924.00     0.00     8.00     1.51    0.13    0.13    0.00   0.05  53.60
sdd               0.00     0.00 11299.00    0.00 45196.00     0.00     8.00     1.50    0.13    0.13    0.00   0.05  54.20
sde               0.00     0.00 11369.00    0.00 45476.00     0.00     8.00     1.47    0.13    0.13    0.00   0.05  53.80
sdf               0.00     0.00 11765.00    0.00 47060.00     0.00     8.00     1.63    0.14    0.14    0.00   0.05  57.00
sdg               0.00     0.00    0.00    0.00     0.00     0.00     0.00     0.00    0.00    0.00    0.00   0.00   0.00
sdh               0.00     0.00    0.00    0.00     0.00     0.00     0.00     0.00    0.00    0.00    0.00   0.00   0.00
md0               0.00     0.00 68514.00    0.00 274056.00     0.00     8.00     0.00    0.00    0.00    0.00   0.00   0.00

avg-cpu:  %user   %nice %system %iowait  %steal   %idle
           4.09    0.00   17.14    3.32    0.00   75.45

Device:         rrqm/s   wrqm/s     r/s     w/s    rkB/s    wkB/s avgrq-sz avgqu-sz   await r_await w_await  svctm  %util
sda               0.00     0.00 11256.00    0.00 45024.00     0.00     8.00     1.35    0.12    0.12    0.00   0.04  50.00
sdb               0.00     0.00 11468.00    0.00 45872.00     0.00     8.00     1.39    0.12    0.12    0.00   0.04  49.50
sdc               0.00     0.00 11046.00    0.00 44184.00     0.00     8.00     1.42    0.13    0.13    0.00   0.05  54.30
sdd               0.00     0.00 11163.00    0.00 44652.00     0.00     8.00     1.52    0.14    0.14    0.00   0.05  56.10
sde               0.00     0.00 11374.00    0.00 45496.00     0.00     8.00     1.50    0.13    0.13    0.00   0.05  54.40
sdf               0.00     0.00 11192.00    0.00 44768.00     0.00     8.00     1.47    0.13    0.13    0.00   0.05  53.70
sdg               0.00     0.00    0.00    0.00     0.00     0.00     0.00     0.00    0.00    0.00    0.00   0.00   0.00
sdh               0.00     0.00    0.00    0.00     0.00     0.00     0.00     0.00    0.00    0.00    0.00   0.00   0.00
md0               0.00     0.00 67494.00    0.00 269976.00     0.00     8.00     0.00    0.00    0.00    0.00   0.00   0.00

avg-cpu:  %user   %nice %system %iowait  %steal   %idle
           3.31    0.00   18.32    2.80    0.00   75.57

Device:         rrqm/s   wrqm/s     r/s     w/s    rkB/s    wkB/s avgrq-sz avgqu-sz   await r_await w_await  svctm  %util
sda               0.00     0.00 11069.00    0.00 44276.00     0.00     8.00     1.24    0.11    0.11    0.00   0.04  48.20
sdb               0.00     0.00 11044.00    0.00 44176.00     0.00     8.00     1.41    0.13    0.13    0.00   0.05  50.00
sdc               0.00     0.00 11038.00    0.00 44152.00     0.00     8.00     1.49    0.13    0.13    0.00   0.05  54.60
sdd               0.00     0.00 10972.00    0.00 43888.00     0.00     8.00     1.44    0.13    0.13    0.00   0.05  53.80
sde               0.00     0.00 11200.00    0.00 44800.00     0.00     8.00     1.42    0.13    0.13    0.00   0.05  54.40
sdf               0.00     0.00 11201.00    0.00 44804.00     0.00     8.00     1.47    0.13    0.13    0.00   0.05  55.40
sdg               0.00     0.00    0.00    0.00     0.00     0.00     0.00     0.00    0.00    0.00    0.00   0.00   0.00
sdh               0.00     0.00    0.00    0.00     0.00     0.00     0.00     0.00    0.00    0.00    0.00   0.00   0.00
md0               0.00     0.00 66532.00    0.00 266128.00     0.00     8.00     0.00    0.00    0.00    0.00   0.00   0.00

avg-cpu:  %user   %nice %system %iowait  %steal   %idle
           3.96    0.00   19.55    3.22    0.00   73.27

Device:         rrqm/s   wrqm/s     r/s     w/s    rkB/s    wkB/s avgrq-sz avgqu-sz   await r_await w_await  svctm  %util
sda               0.00     0.00 10789.00    0.00 43156.00     0.00     8.00     1.34    0.12    0.12    0.00   0.05  51.60
sdb               0.00     0.00 10748.00    0.00 42992.00     0.00     8.00     1.28    0.12    0.12    0.00   0.05  50.20
sdc               0.00     0.00 10694.00    0.00 42776.00     0.00     8.00     1.45    0.14    0.14    0.00   0.05  53.90
sdd               0.00     0.00 11008.00    0.00 44032.00     0.00     8.00     1.49    0.14    0.14    0.00   0.05  56.20
sde               0.00     0.00 10794.00    0.00 43176.00     0.00     8.00     1.43    0.13    0.13    0.00   0.05  55.00
sdf               0.00     0.00 10777.00    0.00 43108.00     0.00     8.00     1.52    0.14    0.14    0.00   0.05  55.50
sdg               0.00     0.00    0.00    0.00     0.00     0.00     0.00     0.00    0.00    0.00    0.00   0.00   0.00
sdh               0.00     0.00    0.00    0.00     0.00     0.00     0.00     0.00    0.00    0.00    0.00   0.00   0.00
md0               0.00     0.00 64803.00    0.00 259212.00     0.00     8.00     0.00    0.00    0.00    0.00   0.00   0.00

