Linux 4.17.2 (bench) 	08/03/2018 	_x86_64_	(4 CPU)

avg-cpu:  %user   %nice %system %iowait  %steal   %idle
          10.29    0.02    4.04    2.53    0.00   83.12

Device:         rrqm/s   wrqm/s     r/s     w/s    rkB/s    wkB/s avgrq-sz avgqu-sz   await r_await w_await  svctm  %util
sda              44.32     4.25 1640.52  102.86 20836.08  3138.99    27.50     1.03    0.59    0.26    5.91   0.06  10.66
sdb              44.19     4.21 1640.44  103.00 20825.49  3135.64    27.49     1.03    0.59    0.26    5.85   0.06  10.54
sdc              82.20     4.27 1600.34  102.55 20817.64  3138.11    28.14     1.45    0.85    0.45    7.12   0.08  13.98
sdd              75.59     4.24 1606.11  102.62 20802.48  3134.29    28.02     1.46    0.85    0.44    7.32   0.08  14.08
sde              77.64     4.28 1611.20  102.72 20862.53  3138.55    28.01     1.48    0.86    0.44    7.43   0.08  14.10
sdf              74.74     4.25 1613.37  102.66 20843.69  3135.40    27.95     1.52    0.89    0.44    7.90   0.08  14.13
sdg               0.00     3.17   26.15   73.31   323.35   391.95    14.38     0.44    4.42    0.20    5.93   0.08   0.78
sdh               0.00     0.13    0.02    0.24     2.22     5.08    56.82     0.00    1.15    0.65    1.19   0.21   0.01
md0               0.00     0.00 10117.15  481.89 142657.27 21493.32    30.97     0.00    0.00    0.00    0.00   0.00   0.00

avg-cpu:  %user   %nice %system %iowait  %steal   %idle
           0.70    0.03    2.92    2.12    0.00   94.24

Device:         rrqm/s   wrqm/s     r/s     w/s    rkB/s    wkB/s avgrq-sz avgqu-sz   await r_await w_await  svctm  %util
sda               3.05     0.00 1155.70    0.00 20630.20     0.00    35.70     0.19    0.16    0.16    0.00   0.14  16.13
sdb               2.95     0.00 1173.65    0.00 20820.40     0.00    35.48     0.19    0.16    0.16    0.00   0.14  16.04
sdc               3.15     0.00 1170.90    0.00 20626.60     0.00    35.23     0.23    0.19    0.19    0.00   0.16  18.40
sdd               3.25     0.00 1163.40    0.00 20918.00     0.00    35.96     0.23    0.20    0.20    0.00   0.16  18.87
sde               2.70     0.00 1164.30    0.00 20401.00     0.00    35.04     0.23    0.20    0.20    0.00   0.17  19.23
sdf               3.00     0.00 1168.20    0.00 21383.80     0.00    36.61     0.25    0.21    0.21    0.00   0.17  20.28
sdg               0.00     4.20    1.40  127.15    14.20   638.40    10.15     0.80    6.23    0.43    6.29   0.05   0.59
sdh               0.00     0.00    0.00    0.00     0.00     0.00     0.00     0.00    0.00    0.00    0.00   0.00   0.00
md0               0.00     0.00 7014.30    0.00 139888.80     0.00    39.89     0.00    0.00    0.00    0.00   0.00   0.00

