Linux 4.17.2 (bench) 	08/03/2018 	_x86_64_	(4 CPU)

avg-cpu:  %user   %nice %system %iowait  %steal   %idle
          10.30    0.02    3.97    2.42    0.00   83.30

Device:         rrqm/s   wrqm/s     r/s     w/s    rkB/s    wkB/s avgrq-sz avgqu-sz   await r_await w_await  svctm  %util
sda              38.66     4.29 1593.18  103.78 20565.60  3166.85    27.97     1.02    0.60    0.26    5.91   0.06  10.46
sdb              38.57     4.25 1593.05  103.92 20554.96  3163.48    27.95     1.02    0.60    0.26    5.85   0.06  10.34
sdc              76.70     4.31 1552.84  103.46 20547.21  3165.97    28.63     1.44    0.87    0.45    7.12   0.08  13.76
sdd              70.02     4.28 1558.68  103.53 20531.83  3162.12    28.51     1.45    0.87    0.44    7.32   0.08  13.85
sde              72.10     4.32 1563.83  103.63 20592.65  3166.41    28.50     1.47    0.88    0.45    7.43   0.08  13.87
sdf              69.19     4.29 1566.01  103.57 20573.60  3163.24    28.43     1.51    0.90    0.44    7.90   0.08  13.90
sdg               0.00     3.18   25.81   73.35   321.90   391.96    14.40     0.44    4.44    0.20    5.93   0.08   0.77
sdh               0.00     0.13    0.02    0.24     2.24     5.12    56.82     0.00    1.15    0.65    1.19   0.21   0.01
md0               0.00     0.00 9798.76  486.17 140781.70 21684.13    31.59     0.00    0.00    0.00    0.00   0.00   0.00

avg-cpu:  %user   %nice %system %iowait  %steal   %idle
           1.17    0.03    9.87   37.91    0.00   51.02

Device:         rrqm/s   wrqm/s     r/s     w/s    rkB/s    wkB/s avgrq-sz avgqu-sz   await r_await w_await  svctm  %util
sda               0.85     0.00 4976.20    0.00 77119.20     0.00    31.00     1.21    0.24    0.24    0.00   0.09  45.04
sdb               1.10     0.00 5000.60    0.00 77641.80     0.00    31.05     1.24    0.25    0.25    0.00   0.09  44.89
sdc               1.00     0.00 5008.65    0.00 76809.80     0.00    30.67     1.75    0.35    0.35    0.00   0.11  53.83
sdd               1.15     0.00 4974.35    0.00 77460.60     0.00    31.14     1.83    0.37    0.37    0.00   0.11  57.06
sde               1.10     0.00 4997.65    0.00 76817.40     0.00    30.74     1.72    0.34    0.34    0.00   0.11  55.08
sdf               1.10     0.00 4982.90    0.00 77625.00     0.00    31.16     1.73    0.35    0.35    0.00   0.11  55.13
sdg               0.00     0.00    2.00    0.00    27.80     0.00    27.80     0.00    0.15    0.15    0.00   0.12   0.03
sdh               0.00     0.00    0.00    0.00     0.00     0.00     0.00     0.00    0.00    0.00    0.00   0.00   0.00
md0               0.00     0.00 29950.95    0.00 492217.20     0.00    32.87     0.00    0.00    0.00    0.00   0.00   0.00

