Linux 4.17.2 (bench) 	08/03/2018 	_x86_64_	(4 CPU)

avg-cpu:  %user   %nice %system %iowait  %steal   %idle
          10.29    0.02    4.01    2.48    0.00   83.20

Device:         rrqm/s   wrqm/s     r/s     w/s    rkB/s    wkB/s avgrq-sz avgqu-sz   await r_await w_await  svctm  %util
sda              41.51     4.26 1620.34  103.22 20729.06  3149.90    27.71     1.03    0.60    0.26    5.91   0.06  10.58
sdb              41.40     4.22 1620.22  103.36 20718.48  3146.55    27.69     1.02    0.59    0.26    5.85   0.06  10.46
sdc              79.43     4.28 1580.11  102.91 20710.68  3149.02    28.35     1.44    0.86    0.45    7.12   0.08  13.89
sdd              72.80     4.25 1585.91  102.98 20695.40  3145.19    28.23     1.45    0.86    0.44    7.32   0.08  13.99
sde              74.86     4.30 1591.03  103.08 20755.83  3149.47    28.22     1.47    0.87    0.44    7.43   0.08  14.01
sdf              71.96     4.27 1593.20  103.02 20736.86  3146.31    28.16     1.52    0.89    0.44    7.90   0.08  14.04
sdg               0.00     3.18   26.01   73.33   322.76   391.97    14.39     0.44    4.43    0.20    5.93   0.08   0.78
sdh               0.00     0.13    0.02    0.24     2.23     5.10    56.82     0.00    1.15    0.65    1.19   0.21   0.01
md0               0.00     0.00 9979.01  483.57 141938.71 21568.08    31.26     0.00    0.00    0.00    0.00   0.00   0.00

avg-cpu:  %user   %nice %system %iowait  %steal   %idle
           3.99    0.00   30.92    0.50    0.00   64.59

Device:         rrqm/s   wrqm/s     r/s     w/s    rkB/s    wkB/s avgrq-sz avgqu-sz   await r_await w_await  svctm  %util
sda               9.00     0.00 23013.00    0.00 92088.00     0.00     8.00     5.33    0.23    0.23    0.00   0.02  54.40
sdb               4.00     0.00 22972.00    0.00 91904.00     0.00     8.00     5.42    0.24    0.24    0.00   0.02  53.80
sdc               5.00     0.00 22938.00    0.00 91772.00     0.00     8.00     6.11    0.27    0.27    0.00   0.03  64.80
sdd               5.00     0.00 23323.00    0.00 93312.00     0.00     8.00     6.28    0.27    0.27    0.00   0.03  64.60
sde               2.00     0.00 22971.00    0.00 91892.00     0.00     8.00     6.47    0.28    0.28    0.00   0.03  64.60
sdf               1.00     0.00 23146.00    0.00 92588.00     0.00     8.00     6.26    0.27    0.27    0.00   0.03  64.60
sdg               0.00     0.00    0.00    1.00     0.00    16.00    32.00     0.00    0.00    0.00    0.00   0.00   0.00
sdh               0.00     0.00    0.00    0.00     0.00     0.00     0.00     0.00    0.00    0.00    0.00   0.00   0.00
md0               0.00     0.00 138370.00    0.00 553480.00     0.00     8.00     0.00    0.00    0.00    0.00   0.00   0.00

