Linux 4.17.2 (bench) 	08/03/2018 	_x86_64_	(4 CPU)

avg-cpu:  %user   %nice %system %iowait  %steal   %idle
          10.29    0.02    4.01    2.48    0.00   83.20

Device:         rrqm/s   wrqm/s     r/s     w/s    rkB/s    wkB/s avgrq-sz avgqu-sz   await r_await w_await  svctm  %util
sda              41.52     4.27 1617.99  103.25 20721.99  3150.77    27.74     1.03    0.60    0.26    5.91   0.06  10.57
sdb              41.41     4.23 1617.88  103.39 20711.42  3147.41    27.72     1.02    0.60    0.26    5.85   0.06  10.45
sdc              79.46     4.29 1577.76  102.94 20703.62  3149.89    28.39     1.44    0.86    0.45    7.12   0.08  13.89
sdd              72.82     4.25 1583.56  103.01 20688.33  3146.06    28.26     1.45    0.86    0.44    7.32   0.08  13.98
sde              74.88     4.30 1588.68  103.10 20748.80  3150.33    28.25     1.47    0.87    0.44    7.43   0.08  14.00
sdf              71.98     4.27 1590.85  103.05 20729.80  3147.17    28.19     1.52    0.89    0.44    7.90   0.08  14.03
sdg               0.00     3.18   26.01   73.33   322.72   391.98    14.39     0.44    4.43    0.20    5.93   0.08   0.78
sdh               0.00     0.13    0.02    0.24     2.23     5.10    56.82     0.00    1.15    0.65    1.19   0.21   0.01
md0               0.00     0.00 9965.02  483.70 141900.30 21574.00    31.29     0.00    0.00    0.00    0.00   0.00   0.00

avg-cpu:  %user   %nice %system %iowait  %steal   %idle
           1.32    0.01   28.83    0.27    0.00   69.57

Device:         rrqm/s   wrqm/s     r/s     w/s    rkB/s    wkB/s avgrq-sz avgqu-sz   await r_await w_await  svctm  %util
sda               0.00     0.00 20620.05    0.00 82480.20     0.00     8.00     2.39    0.12    0.12    0.00   0.04  73.57
sdb               0.00     0.00 20714.00    0.00 82856.00     0.00     8.00     2.39    0.12    0.12    0.00   0.04  73.97
sdc               0.00     0.00 20691.10    0.00 82764.40     0.00     8.00     2.84    0.14    0.14    0.00   0.04  78.21
sdd               0.00     0.00 20697.70    0.00 82790.80     0.00     8.00     2.86    0.14    0.14    0.00   0.04  78.35
sde               0.00     0.00 20692.60    0.00 82770.60     0.00     8.00     2.86    0.14    0.14    0.00   0.04  78.24
sdf               0.00     0.00 20701.40    0.00 82805.60     0.00     8.00     2.87    0.14    0.14    0.00   0.04  78.23
sdg               0.00     0.45   90.80    8.80   409.80    43.60     9.10     0.04    0.36    0.12    2.76   0.11   1.06
sdh               0.00     0.00    0.00    0.00     0.00     0.00     0.00     0.00    0.00    0.00    0.00   0.00   0.00
md0               0.00     0.00 124118.35    0.00 496473.60     0.00     8.00     0.00    0.00    0.00    0.00   0.00   0.00

