Linux 4.17.2 (bench) 	08/03/2018 	_x86_64_	(4 CPU)

avg-cpu:  %user   %nice %system %iowait  %steal   %idle
          10.29    0.02    4.01    2.48    0.00   83.21

Device:         rrqm/s   wrqm/s     r/s     w/s    rkB/s    wkB/s avgrq-sz avgqu-sz   await r_await w_await  svctm  %util
sda              41.50     4.27 1616.66  103.29 20701.58  3152.11    27.74     1.03    0.60    0.26    5.91   0.06  10.56
sdb              41.40     4.23 1616.55  103.43 20691.01  3148.75    27.72     1.02    0.60    0.26    5.85   0.06  10.44
sdc              79.45     4.29 1576.41  102.98 20683.21  3151.23    28.38     1.44    0.86    0.45    7.12   0.08  13.87
sdd              72.81     4.26 1582.21  103.05 20667.91  3147.40    28.26     1.45    0.86    0.44    7.32   0.08  13.97
sde              74.88     4.30 1587.34  103.15 20728.43  3151.68    28.25     1.47    0.87    0.44    7.43   0.08  13.99
sdf              71.97     4.27 1589.51  103.09 20709.41  3148.51    28.19     1.52    0.90    0.44    7.90   0.08  14.02
sdg               0.00     3.18   25.98   73.33   322.62   391.96    14.39     0.44    4.43    0.20    5.93   0.08   0.78
sdh               0.00     0.13    0.02    0.24     2.23     5.10    56.82     0.00    1.15    0.65    1.19   0.21   0.01
md0               0.00     0.00 9956.92  483.90 141729.84 21583.19    31.28     0.00    0.00    0.00    0.00   0.00   0.00

avg-cpu:  %user   %nice %system %iowait  %steal   %idle
           1.76    0.00   10.08   43.07    0.00   45.09

Device:         rrqm/s   wrqm/s     r/s     w/s    rkB/s    wkB/s avgrq-sz avgqu-sz   await r_await w_await  svctm  %util
sda             124.00     0.00 1327.00    0.00 121320.00     0.00   182.85     0.81    0.61    0.61    0.00   0.28  36.50
sdb             108.00     0.00 1570.00    0.00 116248.00     0.00   148.09     0.95    0.60    0.60    0.00   0.22  34.80
sdc              91.00     0.00 1447.00    0.00 115420.00     0.00   159.53     1.25    0.86    0.86    0.00   0.36  51.40
sdd             113.00     0.00 1418.00    0.00 115388.00     0.00   162.75     1.43    1.01    1.01    0.00   0.37  52.40
sde             122.00     0.00 1591.00    0.00 118568.00     0.00   149.05     1.40    0.88    0.88    0.00   0.35  55.10
sdf             121.00     0.00 1525.00    0.00 125004.00     0.00   163.94     1.42    0.93    0.93    0.00   0.36  55.20
sdg               0.00     0.00    3.00    0.00    84.00     0.00    56.00     0.00    0.67    0.67    0.00   0.33   0.10
sdh               0.00     0.00    0.00    0.00     0.00     0.00     0.00     0.00    0.00    0.00    0.00   0.00   0.00
md0               0.00     0.00 10861.00    0.00 929444.00     0.00   171.15     0.00    0.00    0.00    0.00   0.00   0.00

avg-cpu:  %user   %nice %system %iowait  %steal   %idle
           0.76    0.00    6.85   44.16    0.00   48.22

Device:         rrqm/s   wrqm/s     r/s     w/s    rkB/s    wkB/s avgrq-sz avgqu-sz   await r_await w_await  svctm  %util
sda             184.00     0.00 1512.00    0.00 142616.00     0.00   188.65     1.06    0.70    0.70    0.00   0.29  43.10
sdb             179.00     0.00 1424.00    0.00 137360.00     0.00   192.92     0.94    0.66    0.66    0.00   0.28  40.50
sdc             178.00     0.00 1552.00    0.00 145548.00     0.00   187.56     1.66    1.07    1.07    0.00   0.43  66.50
sdd             181.00     0.00 1491.00    0.00 141668.00     0.00   190.03     1.65    1.10    1.10    0.00   0.44  66.00
sde             182.00     0.00 1579.00    0.00 143472.00     0.00   181.73     1.72    1.08    1.08    0.00   0.41  65.00
sdf             173.00     0.00 1510.00    0.00 144044.00     0.00   190.79     1.67    1.10    1.10    0.00   0.43  65.60
sdg               0.00     0.00    0.00    0.00     0.00     0.00     0.00     0.00    0.00    0.00    0.00   0.00   0.00
sdh               0.00     0.00    0.00    0.00     0.00     0.00     0.00     0.00    0.00    0.00    0.00   0.00   0.00
md0               0.00     0.00 11357.00    0.00 1161188.00     0.00   204.49     0.00    0.00    0.00    0.00   0.00   0.00

avg-cpu:  %user   %nice %system %iowait  %steal   %idle
           0.50    0.00    7.30   45.59    0.00   46.60

Device:         rrqm/s   wrqm/s     r/s     w/s    rkB/s    wkB/s avgrq-sz avgqu-sz   await r_await w_await  svctm  %util
sda             184.00     0.00 1367.00    0.00 144456.00     0.00   211.35     0.98    0.71    0.71    0.00   0.31  42.80
sdb             196.00     0.00 1413.00    0.00 144396.00     0.00   204.38     0.97    0.67    0.67    0.00   0.30  42.10
sdc             194.00     0.00 1449.00    0.00 146604.00     0.00   202.35     1.65    1.14    1.14    0.00   0.47  67.40
sdd             196.00     0.00 1502.00    0.00 141976.00     0.00   189.05     1.59    1.06    1.06    0.00   0.44  65.60
sde             188.00     0.00 1489.00    0.00 145712.00     0.00   195.72     1.59    1.07    1.07    0.00   0.45  67.20
sdf             208.00     0.00 1380.00    0.00 148312.00     0.00   214.94     1.72    1.23    1.23    0.00   0.49  68.10
sdg               0.00     0.00    0.00    0.00     0.00     0.00     0.00     0.00    0.00    0.00    0.00   0.00   0.00
sdh               0.00     0.00    0.00    0.00     0.00     0.00     0.00     0.00    0.00    0.00    0.00   0.00   0.00
md0               0.00     0.00 10580.00    0.00 1199288.00     0.00   226.71     0.00    0.00    0.00    0.00   0.00   0.00

avg-cpu:  %user   %nice %system %iowait  %steal   %idle
           1.01    0.00    6.82   45.96    0.00   46.21

Device:         rrqm/s   wrqm/s     r/s     w/s    rkB/s    wkB/s avgrq-sz avgqu-sz   await r_await w_await  svctm  %util
sda             177.00     0.00 1635.00    0.00 144144.00     0.00   176.32     1.02    0.63    0.63    0.00   0.25  41.20
sdb             183.00     0.00 1467.00    0.00 139096.00     0.00   189.63     0.95    0.65    0.65    0.00   0.28  41.30
sdc             174.00     0.00 1475.00    0.00 141532.00     0.00   191.91     1.61    1.10    1.10    0.00   0.44  64.30
sdd             164.00     0.00 1459.00    0.00 143360.00     0.00   196.52     1.52    1.05    1.05    0.00   0.44  63.50
sde             176.00     0.00 1455.00    0.00 138796.00     0.00   190.78     1.46    1.01    1.01    0.00   0.43  62.10
sdf             175.00     0.00 1570.00    0.00 139068.00     0.00   177.16     1.64    1.04    1.04    0.00   0.40  63.30
sdg               0.00     0.00    0.00    0.00     0.00     0.00     0.00     0.00    0.00    0.00    0.00   0.00   0.00
sdh               0.00     0.00    0.00    0.00     0.00     0.00     0.00     0.00    0.00    0.00    0.00   0.00   0.00
md0               0.00     0.00 10822.00    0.00 1160856.00     0.00   214.54     0.00    0.00    0.00    0.00   0.00   0.00

avg-cpu:  %user   %nice %system %iowait  %steal   %idle
           0.75    0.00    8.25   43.50    0.00   47.50

Device:         rrqm/s   wrqm/s     r/s     w/s    rkB/s    wkB/s avgrq-sz avgqu-sz   await r_await w_await  svctm  %util
sda             176.00     0.00 1598.00    0.00 141604.00     0.00   177.23     0.93    0.59    0.59    0.00   0.24  38.90
sdb             174.00     0.00 1580.00    0.00 143044.00     0.00   181.07     1.02    0.64    0.64    0.00   0.27  42.70
sdc             178.00     0.00 1595.00    0.00 140196.00     0.00   175.79     1.56    0.96    0.96    0.00   0.40  63.50
sdd             180.00     0.00 1702.00    0.00 139156.00     0.00   163.52     1.65    0.97    0.97    0.00   0.37  62.60
sde             175.00     0.00 1763.00    0.00 138436.00     0.00   157.05     1.70    0.96    0.96    0.00   0.36  62.60
sdf             171.00     0.00 1644.00    0.00 145460.00     0.00   176.96     1.61    0.96    0.96    0.00   0.39  64.40
sdg               0.00     0.00    0.00    0.00     0.00     0.00     0.00     0.00    0.00    0.00    0.00   0.00   0.00
sdh               0.00     0.00    0.00    0.00     0.00     0.00     0.00     0.00    0.00    0.00    0.00   0.00   0.00
md0               0.00     0.00 11981.00    0.00 1161312.00     0.00   193.86     0.00    0.00    0.00    0.00   0.00   0.00

avg-cpu:  %user   %nice %system %iowait  %steal   %idle
           0.76    0.00    7.30   43.83    0.00   48.11

Device:         rrqm/s   wrqm/s     r/s     w/s    rkB/s    wkB/s avgrq-sz avgqu-sz   await r_await w_await  svctm  %util
sda             168.00     0.00 1678.00    0.00 143840.00     0.00   171.44     1.00    0.60    0.60    0.00   0.24  39.70
sdb             157.00     0.00 1669.00    0.00 137920.00     0.00   165.27     0.94    0.56    0.56    0.00   0.24  39.60
sdc             166.00     0.00 1720.00    0.00 140728.00     0.00   163.64     1.61    0.94    0.94    0.00   0.37  64.30
sdd             171.00     0.00 1614.00    0.00 140936.00     0.00   174.64     1.51    0.93    0.93    0.00   0.40  64.70
sde             172.00     0.00 1648.00    0.00 143812.00     0.00   174.53     1.71    1.04    1.04    0.00   0.40  65.60
sdf             184.00     0.00 1587.00    0.00 140564.00     0.00   177.14     1.54    0.97    0.97    0.00   0.41  64.90
sdg               0.00     0.00    0.00    0.00     0.00     0.00     0.00     0.00    0.00    0.00    0.00   0.00   0.00
sdh               0.00     0.00    0.00    0.00     0.00     0.00     0.00     0.00    0.00    0.00    0.00   0.00   0.00
md0               0.00     0.00 11793.00    0.00 1170572.00     0.00   198.52     0.00    0.00    0.00    0.00   0.00   0.00

avg-cpu:  %user   %nice %system %iowait  %steal   %idle
           1.01    0.00    7.29   44.22    0.00   47.49

Device:         rrqm/s   wrqm/s     r/s     w/s    rkB/s    wkB/s avgrq-sz avgqu-sz   await r_await w_await  svctm  %util
sda             161.00     0.00 1667.00    0.00 137288.00     0.00   164.71     1.06    0.64    0.64    0.00   0.24  39.80
sdb             188.00     0.00 1569.00    0.00 147168.00     0.00   187.59     1.01    0.65    0.65    0.00   0.27  41.70
sdc             173.00     0.00 1608.00    0.00 140392.00     0.00   174.62     1.60    1.00    1.00    0.00   0.40  64.00
sdd             170.00     0.00 1636.00    0.00 145236.00     0.00   177.55     1.74    1.06    1.06    0.00   0.41  66.40
sde             174.00     0.00 1521.00    0.00 141272.00     0.00   185.76     1.56    1.02    1.02    0.00   0.41  63.10
sdf             164.00     0.00 1531.00    0.00 137940.00     0.00   180.20     1.59    1.04    1.04    0.00   0.41  62.90
sdg               0.00     0.00    0.00    0.00     0.00     0.00     0.00     0.00    0.00    0.00    0.00   0.00   0.00
sdh               0.00     0.00    0.00    0.00     0.00     0.00     0.00     0.00    0.00    0.00    0.00   0.00   0.00
md0               0.00     0.00 11798.00    0.00 1168336.00     0.00   198.06     0.00    0.00    0.00    0.00   0.00   0.00

avg-cpu:  %user   %nice %system %iowait  %steal   %idle
           0.75    0.00    9.30   47.24    0.00   42.71

Device:         rrqm/s   wrqm/s     r/s     w/s    rkB/s    wkB/s avgrq-sz avgqu-sz   await r_await w_await  svctm  %util
sda             168.00     0.00 1499.00    0.00 138172.00     0.00   184.35     0.96    0.64    0.64    0.00   0.27  39.90
sdb             178.00     0.00 1521.00    0.00 141700.00     0.00   186.32     0.97    0.63    0.63    0.00   0.27  41.70
sdc             156.00     0.00 1819.00    0.00 144556.00     0.00   158.94     1.91    1.05    1.05    0.00   0.36  65.80
sdd             171.00     0.00 1664.00    0.00 142548.00     0.00   171.33     1.96    1.18    1.18    0.00   0.39  64.50
sde             176.00     0.00 1535.00    0.00 137120.00     0.00   178.66     1.63    1.06    1.06    0.00   0.41  62.20
sdf             188.00     0.00 1619.00    0.00 141892.00     0.00   175.28     1.65    1.02    1.02    0.00   0.40  64.30
sdg               0.00   118.00    5.00 2575.00    20.00 12736.00     9.89    15.72    6.09    0.60    6.10   0.04  11.30
sdh               0.00     0.00    0.00    0.00     0.00     0.00     0.00     0.00    0.00    0.00    0.00   0.00   0.00
md0               0.00     0.00 11757.00    0.00 1150032.00     0.00   195.63     0.00    0.00    0.00    0.00   0.00   0.00

avg-cpu:  %user   %nice %system %iowait  %steal   %idle
           1.26    0.00    8.54   43.97    0.00   46.23

Device:         rrqm/s   wrqm/s     r/s     w/s    rkB/s    wkB/s avgrq-sz avgqu-sz   await r_await w_await  svctm  %util
sda             182.00     0.00 1427.00    0.00 149300.00     0.00   209.25     1.05    0.74    0.74    0.00   0.30  42.50
sdb             202.00     0.00 1494.00    0.00 147232.00     0.00   197.10     1.04    0.70    0.70    0.00   0.29  43.60
sdc             198.00     0.00 1463.00    0.00 142756.00     0.00   195.16     1.49    1.02    1.02    0.00   0.44  64.90
sdd             180.00     0.00 1451.00    0.00 145628.00     0.00   200.73     1.59    1.10    1.10    0.00   0.45  65.70
sde             178.00     0.00 1497.00    0.00 141956.00     0.00   189.65     1.58    1.04    1.04    0.00   0.43  64.30
sdf             167.00     0.00 1699.00    0.00 140324.00     0.00   165.18     1.71    1.01    1.01    0.00   0.38  64.20
sdg               0.00     0.00    0.00    0.00     0.00     0.00     0.00     0.00    0.00    0.00    0.00   0.00   0.00
sdh               0.00     0.00    0.00    0.00     0.00     0.00     0.00     0.00    0.00    0.00    0.00   0.00   0.00
md0               0.00     0.00 10903.00    0.00 1205988.00     0.00   221.22     0.00    0.00    0.00    0.00   0.00   0.00

avg-cpu:  %user   %nice %system %iowait  %steal   %idle
           0.75    0.00   10.55   49.75    0.00   38.94

Device:         rrqm/s   wrqm/s     r/s     w/s    rkB/s    wkB/s avgrq-sz avgqu-sz   await r_await w_await  svctm  %util
sda             170.00     0.00 1591.00    0.00 147860.00     0.00   185.87     1.04    0.65    0.65    0.00   0.27  43.30
sdb             190.00     0.00 1583.00    0.00 147840.00     0.00   186.78     1.06    0.67    0.67    0.00   0.28  44.00
sdc             186.00     0.00 1689.00    0.00 142864.00     0.00   169.17     1.91    1.12    1.12    0.00   0.39  65.50
sdd             174.00     0.00 1596.00    0.00 138648.00     0.00   173.74     1.48    0.93    0.93    0.00   0.40  64.60
sde             180.00     0.00 1599.00    0.00 140832.00     0.00   176.15     1.52    0.95    0.95    0.00   0.40  63.70
sdf             182.00     0.00 1662.00    0.00 145644.00     0.00   175.26     1.64    0.98    0.98    0.00   0.39  65.50
sdg               0.00     0.00 1830.00    0.00  7320.00     0.00     8.00     0.24    0.13    0.13    0.00   0.13  23.70
sdh               0.00     0.00    0.00    0.00     0.00     0.00     0.00     0.00    0.00    0.00    0.00   0.00   0.00
md0               0.00     0.00 11593.00    0.00 1184656.00     0.00   204.37     0.00    0.00    0.00    0.00   0.00   0.00

avg-cpu:  %user   %nice %system %iowait  %steal   %idle
           1.23    0.00    9.88   43.95    0.00   44.94

Device:         rrqm/s   wrqm/s     r/s     w/s    rkB/s    wkB/s avgrq-sz avgqu-sz   await r_await w_await  svctm  %util
sda             186.00     0.00 1662.00    0.00 137552.00     0.00   165.53     0.99    0.60    0.60    0.00   0.25  41.40
sdb             159.00     0.00 1685.00    0.00 134056.00     0.00   159.12     1.08    0.61    0.61    0.00   0.23  38.80
sdc             184.00     0.00 1672.00    0.00 140340.00     0.00   167.87     1.66    0.99    0.99    0.00   0.38  63.90
sdd             177.00     0.00 1529.00    0.00 139652.00     0.00   182.67     1.52    0.99    0.99    0.00   0.42  64.60
sde             182.00     0.00 1565.00    0.00 141072.00     0.00   180.28     1.61    1.00    1.00    0.00   0.42  65.90
sdf             182.00     0.00 1471.00    0.00 140848.00     0.00   191.50     1.69    1.15    1.15    0.00   0.44  64.70
sdg               0.00     0.00    0.00    0.00     0.00     0.00     0.00     0.00    0.00    0.00    0.00   0.00   0.00
sdh               0.00     0.00    0.00    0.00     0.00     0.00     0.00     0.00    0.00    0.00    0.00   0.00   0.00
md0               0.00     0.00 11887.00    0.00 1122240.00     0.00   188.82     0.00    0.00    0.00    0.00   0.00   0.00

avg-cpu:  %user   %nice %system %iowait  %steal   %idle
           0.76    0.00    8.59   44.44    0.00   46.21

Device:         rrqm/s   wrqm/s     r/s     w/s    rkB/s    wkB/s avgrq-sz avgqu-sz   await r_await w_await  svctm  %util
sda             186.00     0.00 1600.00    0.00 139944.00     0.00   174.93     0.96    0.60    0.60    0.00   0.25  40.40
sdb             166.00     0.00 1566.00    0.00 139020.00     0.00   177.55     1.02    0.65    0.65    0.00   0.27  42.20
sdc             183.00     0.00 1627.00    0.00 141812.00     0.00   174.32     1.51    0.93    0.93    0.00   0.40  64.60
sdd             176.00     0.00 1401.00    0.00 135344.00     0.00   193.21     1.33    0.95    0.95    0.00   0.44  61.20
sde             178.00     0.00 1540.00    0.00 134052.00     0.00   174.09     1.48    0.95    0.95    0.00   0.39  60.20
sdf             175.00     0.00 1682.00    0.00 134304.00     0.00   159.70     1.50    0.89    0.89    0.00   0.36  60.70
sdg               0.00     0.00    0.00    0.00     0.00     0.00     0.00     0.00    0.00    0.00    0.00   0.00   0.00
sdh               0.00     0.00    0.00    0.00     0.00     0.00     0.00     0.00    0.00    0.00    0.00   0.00   0.00
md0               0.00     0.00 11696.00    0.00 1108252.00     0.00   189.51     0.00    0.00    0.00    0.00   0.00   0.00

avg-cpu:  %user   %nice %system %iowait  %steal   %idle
           1.00    0.00   11.47   45.64    0.00   41.90

Device:         rrqm/s   wrqm/s     r/s     w/s    rkB/s    wkB/s avgrq-sz avgqu-sz   await r_await w_await  svctm  %util
sda              93.00     0.00 2501.00    0.00 144024.00     0.00   115.17     1.66    0.66    0.66    0.00   0.17  41.60
sdb              68.00     0.00 2180.00    0.00 141300.00     0.00   129.63     1.52    0.70    0.70    0.00   0.19  40.50
sdc              83.00     0.00 2246.00    0.00 145804.00     0.00   129.83     2.63    1.17    1.17    0.00   0.29  65.40
sdd              94.00     0.00 2470.00    0.00 149672.00     0.00   121.19     2.89    1.17    1.17    0.00   0.27  67.10
sde              82.00     0.00 2239.00    0.00 147620.00     0.00   131.86     2.69    1.20    1.20    0.00   0.30  66.30
sdf              82.00     0.00 2353.00    0.00 146104.00     0.00   124.19     2.55    1.08    1.08    0.00   0.28  65.30
sdg               0.00     0.00    0.00    0.00     0.00     0.00     0.00     0.00    0.00    0.00    0.00   0.00   0.00
sdh               0.00     0.00    0.00    0.00     0.00     0.00     0.00     0.00    0.00    0.00    0.00   0.00   0.00
md0               0.00     0.00 15591.00    0.00 1085896.00     0.00   139.30     0.00    0.00    0.00    0.00   0.00   0.00

avg-cpu:  %user   %nice %system %iowait  %steal   %idle
           0.50    0.00   11.56   47.74    0.00   40.20

Device:         rrqm/s   wrqm/s     r/s     w/s    rkB/s    wkB/s avgrq-sz avgqu-sz   await r_await w_await  svctm  %util
sda              56.00     0.00 2381.00    0.00 138020.00     0.00   115.93     1.38    0.58    0.58    0.00   0.17  40.10
sdb              66.00     0.00 2544.00    0.00 139384.00     0.00   109.58     1.49    0.59    0.59    0.00   0.16  40.40
sdc              69.00     0.00 2435.00    0.00 138072.00     0.00   113.41     2.43    1.00    1.00    0.00   0.25  61.60
sdd              55.00     0.00 2473.00    0.00 135448.00     0.00   109.54     2.40    0.97    0.97    0.00   0.25  62.70
sde              60.00     0.00 2473.00    0.00 135804.00     0.00   109.83     2.40    0.97    0.97    0.00   0.25  61.00
sdf              71.00     0.00 2707.00    0.00 134052.00     0.00    99.04     2.48    0.91    0.91    0.00   0.22  60.30
sdg               0.00     0.00   21.00    0.00   528.00     0.00    50.29     0.01    0.29    0.29    0.00   0.29   0.60
sdh               0.00     0.00    0.00    0.00     0.00     0.00     0.00     0.00    0.00    0.00    0.00   0.00   0.00
md0               0.00     0.00 16743.00    0.00 1007412.00     0.00   120.34     0.00    0.00    0.00    0.00   0.00   0.00

avg-cpu:  %user   %nice %system %iowait  %steal   %idle
           1.24    0.00   11.39   46.78    0.00   40.59

Device:         rrqm/s   wrqm/s     r/s     w/s    rkB/s    wkB/s avgrq-sz avgqu-sz   await r_await w_await  svctm  %util
sda              98.00     0.00 1962.00    0.00 141216.00     0.00   143.95     1.27    0.65    0.65    0.00   0.21  41.20
sdb             114.00     0.00 2273.00    0.00 146800.00     0.00   129.17     1.45    0.64    0.64    0.00   0.19  43.10
sdc              97.00     0.00 2055.00    0.00 149996.00     0.00   145.98     2.33    1.14    1.14    0.00   0.33  67.50
sdd             111.00     0.00 2017.00    0.00 145004.00     0.00   143.78     2.23    1.11    1.11    0.00   0.32  65.30
sde             112.00     0.00 2144.00    0.00 139272.00     0.00   129.92     2.31    1.08    1.08    0.00   0.30  63.30
sdf              91.00     0.00 2103.00    0.00 136748.00     0.00   130.05     2.18    1.04    1.04    0.00   0.29  61.10
sdg               0.00     0.00    0.00    0.00     0.00     0.00     0.00     0.00    0.00    0.00    0.00   0.00   0.00
sdh               0.00     0.00    0.00    0.00     0.00     0.00     0.00     0.00    0.00    0.00    0.00   0.00   0.00
md0               0.00     0.00 14473.00    0.00 1110336.00     0.00   153.44     0.00    0.00    0.00    0.00   0.00   0.00

avg-cpu:  %user   %nice %system %iowait  %steal   %idle
           1.00    0.00   10.72   45.14    0.00   43.14

Device:         rrqm/s   wrqm/s     r/s     w/s    rkB/s    wkB/s avgrq-sz avgqu-sz   await r_await w_await  svctm  %util
sda             120.00     0.00 2005.00    0.00 144216.00     0.00   143.86     1.39    0.70    0.70    0.00   0.21  41.90
sdb              96.00     0.00 1944.00    0.00 145172.00     0.00   149.35     1.43    0.73    0.73    0.00   0.22  43.10
sdc              95.00     0.00 2187.00    0.00 149556.00     0.00   136.77     2.62    1.20    1.20    0.00   0.31  67.40
sdd             112.00     0.00 2115.00    0.00 150828.00     0.00   142.63     2.45    1.16    1.16    0.00   0.32  67.60
sde             100.00     0.00 1942.00    0.00 144868.00     0.00   149.19     2.25    1.16    1.16    0.00   0.34  66.50
sdf              84.00     0.00 2016.00    0.00 138504.00     0.00   137.40     2.49    1.24    1.24    0.00   0.31  63.20
sdg               0.00     0.00    0.00    0.00     0.00     0.00     0.00     0.00    0.00    0.00    0.00   0.00   0.00
sdh               0.00     0.00    0.00    0.00     0.00     0.00     0.00     0.00    0.00    0.00    0.00   0.00   0.00
md0               0.00     0.00 14030.00    0.00 1121376.00     0.00   159.85     0.00    0.00    0.00    0.00   0.00   0.00

avg-cpu:  %user   %nice %system %iowait  %steal   %idle
           1.25    0.00   10.03   45.36    0.00   43.36

Device:         rrqm/s   wrqm/s     r/s     w/s    rkB/s    wkB/s avgrq-sz avgqu-sz   await r_await w_await  svctm  %util
sda              95.00     0.00 2156.00    0.00 144028.00     0.00   133.61     1.43    0.66    0.66    0.00   0.20  42.30
sdb              99.00     0.00 1963.00    0.00 144316.00     0.00   147.04     1.42    0.72    0.72    0.00   0.21  41.50
sdc             117.00     0.00 2100.00    0.00 141896.00     0.00   135.14     2.20    1.05    1.05    0.00   0.31  64.40
sdd              97.00     0.00 1909.00    0.00 141700.00     0.00   148.45     2.13    1.12    1.12    0.00   0.34  65.50
sde             100.00     0.00 2023.00    0.00 140592.00     0.00   138.99     2.20    1.09    1.09    0.00   0.32  65.10
sdf              94.00     0.00 2208.00    0.00 138988.00     0.00   125.89     2.37    1.07    1.07    0.00   0.29  65.00
sdg               0.00    54.00    0.00  592.00     0.00  3180.00    10.74     3.44    4.51    0.00    4.51   0.04   2.40
sdh               0.00     0.00    0.00    0.00     0.00     0.00     0.00     0.00    0.00    0.00    0.00   0.00   0.00
md0               0.00     0.00 13862.00    0.00 1100000.00     0.00   158.71     0.00    0.00    0.00    0.00   0.00   0.00

avg-cpu:  %user   %nice %system %iowait  %steal   %idle
           0.76    0.00    9.82   47.61    0.00   41.81

Device:         rrqm/s   wrqm/s     r/s     w/s    rkB/s    wkB/s avgrq-sz avgqu-sz   await r_await w_await  svctm  %util
sda              96.00     0.00 1822.00    0.00 137008.00     0.00   150.39     1.27    0.69    0.69    0.00   0.22  40.10
sdb              91.00     0.00 2054.00    0.00 135488.00     0.00   131.93     1.36    0.66    0.66    0.00   0.20  41.30
sdc              95.00     0.00 2286.00    0.00 139496.00     0.00   122.04     2.54    1.10    1.10    0.00   0.28  65.10
sdd              90.00     0.00 2039.00    0.00 136864.00     0.00   134.25     2.29    1.12    1.12    0.00   0.31  63.80
sde              97.00     0.00 1924.00    0.00 137088.00     0.00   142.50     2.03    1.06    1.06    0.00   0.33  63.40
sdf             115.00     0.00 2073.00    0.00 142584.00     0.00   137.56     2.21    1.06    1.06    0.00   0.32  65.70
sdg               0.00    26.00    1.00  843.00     4.00  4184.00     9.92     5.10    6.95    4.00    6.96   0.05   3.90
sdh               0.00     0.00    0.00    0.00     0.00     0.00     0.00     0.00    0.00    0.00    0.00   0.00   0.00
md0               0.00     0.00 13849.00    0.00 1074076.00     0.00   155.11     0.00    0.00    0.00    0.00   0.00   0.00

avg-cpu:  %user   %nice %system %iowait  %steal   %idle
           1.01    0.00    9.82   45.84    0.00   43.32

Device:         rrqm/s   wrqm/s     r/s     w/s    rkB/s    wkB/s avgrq-sz avgqu-sz   await r_await w_await  svctm  %util
sda              98.00     0.00 1954.00    0.00 138128.00     0.00   141.38     1.19    0.61    0.61    0.00   0.21  40.10
sdb              99.00     0.00 2142.00    0.00 140724.00     0.00   131.39     1.42    0.66    0.66    0.00   0.19  41.50
sdc              91.00     0.00 2136.00    0.00 141048.00     0.00   132.07     2.28    1.07    1.07    0.00   0.30  63.90
sdd             108.00     0.00 2103.00    0.00 138444.00     0.00   131.66     2.12    1.01    1.01    0.00   0.30  63.10
sde             102.00     0.00 2178.00    0.00 137240.00     0.00   126.02     2.13    0.98    0.98    0.00   0.29  63.50
sdf              93.00     0.00 2029.00    0.00 139536.00     0.00   137.54     2.01    0.99    0.99    0.00   0.32  64.00
sdg               0.00     0.00    0.00    0.00     0.00     0.00     0.00     0.00    0.00    0.00    0.00   0.00   0.00
sdh               0.00     0.00    0.00    0.00     0.00     0.00     0.00     0.00    0.00    0.00    0.00   0.00   0.00
md0               0.00     0.00 14142.00    0.00 1074728.00     0.00   151.99     0.00    0.00    0.00    0.00   0.00   0.00

avg-cpu:  %user   %nice %system %iowait  %steal   %idle
           1.01    0.25    9.87   50.13    0.00   38.73

Device:         rrqm/s   wrqm/s     r/s     w/s    rkB/s    wkB/s avgrq-sz avgqu-sz   await r_await w_await  svctm  %util
sda              99.00     0.00 1918.00    0.00 144576.00     0.00   150.76     1.48    0.75    0.75    0.00   0.22  43.10
sdb             100.00     0.00 1844.00    0.00 148100.00     0.00   160.63     1.49    0.81    0.81    0.00   0.23  42.80
sdc             107.00     0.00 2130.00    0.00 144500.00     0.00   135.68     2.61    1.23    1.23    0.00   0.31  66.40
sdd             102.00     0.00 1853.00    0.00 141496.00     0.00   152.72     2.32    1.25    1.25    0.00   0.35  65.10
sde             101.00     0.00 1883.00    0.00 152492.00     0.00   161.97     2.35    1.25    1.25    0.00   0.37  69.00
sdf             105.00     0.00 1920.00    0.00 148432.00     0.00   154.62     2.34    1.22    1.22    0.00   0.35  67.10
sdg               0.00     0.00 1827.00    0.00  7308.00     0.00     8.00     0.22    0.12    0.12    0.00   0.12  22.10
sdh               0.00     0.00    0.00    0.00     0.00     0.00     0.00     0.00    0.00    0.00    0.00   0.00   0.00
md0               0.00     0.00 13243.00    0.00 1142532.00     0.00   172.55     0.00    0.00    0.00    0.00   0.00   0.00

