Linux 4.17.2 (bench) 	08/03/2018 	_x86_64_	(4 CPU)

avg-cpu:  %user   %nice %system %iowait  %steal   %idle
          10.28    0.02    4.03    2.50    0.00   83.17

Device:         rrqm/s   wrqm/s     r/s     w/s    rkB/s    wkB/s avgrq-sz avgqu-sz   await r_await w_await  svctm  %util
sda              43.14     4.26 1631.24  103.04 20818.50  3144.45    27.63     1.03    0.59    0.26    5.91   0.06  10.62
sdb              43.01     4.22 1631.16  103.18 20807.88  3141.10    27.62     1.03    0.59    0.26    5.85   0.06  10.50
sdc              81.08     4.28 1590.99  102.73 20800.04  3143.57    28.27     1.45    0.86    0.45    7.12   0.08  13.95
sdd              74.46     4.25 1596.77  102.80 20784.83  3139.75    28.15     1.46    0.86    0.44    7.32   0.08  14.04
sde              76.52     4.29 1601.88  102.90 20845.06  3144.02    28.14     1.48    0.87    0.44    7.43   0.08  14.06
sdf              73.62     4.26 1604.05  102.84 20826.17  3140.87    28.08     1.52    0.89    0.44    7.90   0.08  14.09
sdg               0.00     3.18   26.11   73.33   323.23   392.01    14.39     0.44    4.43    0.20    5.93   0.08   0.78
sdh               0.00     0.13    0.02    0.24     2.22     5.09    56.82     0.00    1.15    0.65    1.19   0.21   0.01
md0               0.00     0.00 10054.42  482.73 142582.35 21530.76    31.15     0.00    0.00    0.00    0.00   0.00   0.00

avg-cpu:  %user   %nice %system %iowait  %steal   %idle
           0.31    0.01    2.33    2.93    0.00   94.43

Device:         rrqm/s   wrqm/s     r/s     w/s    rkB/s    wkB/s avgrq-sz avgqu-sz   await r_await w_await  svctm  %util
sda               0.00     0.00 2155.65    0.00  8622.60     0.00     8.00     0.14    0.06    0.06    0.00   0.06  13.96
sdb               0.00     0.00 2168.65    0.00  8674.60     0.00     8.00     0.14    0.06    0.06    0.00   0.06  13.82
sdc               0.00     0.00 2151.35    0.00  8605.40     0.00     8.00     0.15    0.07    0.07    0.00   0.07  14.71
sdd               0.00     0.00 2190.95    0.00  8763.80     0.00     8.00     0.15    0.07    0.07    0.00   0.07  15.04
sde               0.00     0.00 2171.55    0.00  8686.20     0.00     8.00     0.15    0.07    0.07    0.00   0.07  14.57
sdf               0.00     0.00 2203.20    0.00  8812.80     0.00     8.00     0.15    0.07    0.07    0.00   0.07  15.10
sdg               0.00     1.00   68.45    4.75   283.40    78.20     9.88     0.02    0.27    0.12    2.43   0.12   0.87
sdh               0.00     0.00    0.00    0.00     0.00     0.00     0.00     0.00    0.00    0.00    0.00   0.00   0.00
md0               0.00     0.00 13041.40    0.00 52165.60     0.00     8.00     0.00    0.00    0.00    0.00   0.00   0.00

