Linux 4.17.2 (bench) 	08/03/2018 	_x86_64_	(4 CPU)

avg-cpu:  %user   %nice %system %iowait  %steal   %idle
          10.29    0.02    4.00    2.47    0.00   83.22

Device:         rrqm/s   wrqm/s     r/s     w/s    rkB/s    wkB/s avgrq-sz avgqu-sz   await r_await w_await  svctm  %util
sda              41.51     4.27 1614.04  103.38 20678.60  3154.64    27.75     1.03    0.60    0.26    5.91   0.06  10.55
sdb              41.40     4.23 1613.93  103.52 20668.03  3151.28    27.74     1.02    0.60    0.26    5.85   0.06  10.43
sdc              79.49     4.29 1573.75  103.06 20660.24  3153.76    28.40     1.44    0.86    0.45    7.12   0.08  13.86
sdd              72.84     4.26 1579.56  103.13 20644.92  3149.93    28.28     1.45    0.86    0.44    7.32   0.08  13.95
sde              74.91     4.30 1584.69  103.23 20705.47  3154.21    28.27     1.47    0.87    0.44    7.43   0.08  13.97
sdf              72.00     4.27 1586.86  103.18 20686.47  3151.04    28.21     1.52    0.90    0.44    7.90   0.08  14.00
sdg               0.00     3.18   25.95   73.33   322.51   391.96    14.39     0.44    4.43    0.20    5.93   0.08   0.78
sdh               0.00     0.13    0.02    0.24     2.23     5.11    56.82     0.00    1.15    0.65    1.19   0.21   0.01
md0               0.00     0.00 9941.16  484.29 141550.24 21600.53    31.30     0.00    0.00    0.00    0.00   0.00   0.00

avg-cpu:  %user   %nice %system %iowait  %steal   %idle
           0.43    0.01    2.68    2.51    0.00   94.36

Device:         rrqm/s   wrqm/s     r/s     w/s    rkB/s    wkB/s avgrq-sz avgqu-sz   await r_await w_await  svctm  %util
sda               2.40     0.00 1161.35    0.00 19996.80     0.00    34.44     0.19    0.16    0.16    0.00   0.14  16.09
sdb               2.45     0.00 1146.00    0.00 19530.40     0.00    34.08     0.18    0.16    0.16    0.00   0.14  15.54
sdc               2.10     0.00 1186.15    0.00 19856.00     0.00    33.48     0.22    0.19    0.19    0.00   0.16  18.52
sdd               2.35     0.00 1176.25    0.00 20120.80     0.00    34.21     0.22    0.19    0.19    0.00   0.16  18.32
sde               2.55     0.00 1158.20    0.00 19879.20     0.00    34.33     0.22    0.19    0.19    0.00   0.16  18.39
sdf               2.80     0.00 1163.65    0.00 20040.40     0.00    34.44     0.21    0.18    0.18    0.00   0.16  18.06
sdg               0.00     0.30   67.85   71.80   277.60   372.40     9.31     0.44    3.17    0.12    6.06   0.08   1.16
sdh               0.00     0.00    0.00    0.00     0.00     0.00     0.00     0.00    0.00    0.00    0.00   0.00   0.00
md0               0.00     0.00 7006.30    0.00 133030.20     0.00    37.97     0.00    0.00    0.00    0.00   0.00   0.00

