Linux 4.17.2 (bench) 	08/03/2018 	_x86_64_	(4 CPU)

avg-cpu:  %user   %nice %system %iowait  %steal   %idle
          10.29    0.02    4.00    2.47    0.00   83.22

Device:         rrqm/s   wrqm/s     r/s     w/s    rkB/s    wkB/s avgrq-sz avgqu-sz   await r_await w_await  svctm  %util
sda              41.51     4.27 1614.79  103.33 20690.80  3153.36    27.76     1.03    0.60    0.26    5.91   0.06  10.55
sdb              41.40     4.23 1614.68  103.47 20680.23  3150.00    27.74     1.02    0.60    0.26    5.85   0.06  10.43
sdc              79.48     4.29 1574.52  103.02 20672.43  3152.48    28.40     1.44    0.86    0.45    7.12   0.08  13.86
sdd              72.83     4.26 1580.32  103.09 20657.12  3148.65    28.28     1.45    0.86    0.44    7.32   0.08  13.96
sde              74.90     4.30 1585.45  103.19 20717.65  3152.93    28.27     1.47    0.87    0.44    7.43   0.08  13.98
sdf              71.99     4.27 1587.63  103.13 20698.65  3149.76    28.21     1.52    0.90    0.44    7.90   0.08  14.01
sdg               0.00     3.18   25.97   73.33   322.58   391.97    14.39     0.44    4.43    0.20    5.93   0.08   0.78
sdh               0.00     0.13    0.02    0.24     2.23     5.10    56.82     0.00    1.15    0.65    1.19   0.21   0.01
md0               0.00     0.00 9945.72  484.10 141654.98 21591.76    31.30     0.00    0.00    0.00    0.00   0.00   0.00

avg-cpu:  %user   %nice %system %iowait  %steal   %idle
           1.51    0.03   24.70   49.50    0.00   24.26

Device:         rrqm/s   wrqm/s     r/s     w/s    rkB/s    wkB/s avgrq-sz avgqu-sz   await r_await w_await  svctm  %util
sda               0.00     0.00 11386.90    0.00 51124.00     0.00     8.98     1.40    0.12    0.12    0.00   0.05  60.56
sdb               0.00     0.00 11447.60    0.00 51536.40     0.00     9.00     1.41    0.12    0.12    0.00   0.05  60.69
sdc               0.00     0.00 11412.50    0.00 51378.80     0.00     9.00     1.60    0.14    0.14    0.00   0.06  65.32
sdd               0.00     0.00 11446.25    0.00 51648.20     0.00     9.02     1.62    0.14    0.14    0.00   0.06  65.88
sde               0.00     0.00 11386.25    0.00 51174.80     0.00     8.99     1.60    0.14    0.14    0.00   0.06  65.75
sdf               0.00     0.00 11402.40    0.00 51384.60     0.00     9.01     1.63    0.14    0.14    0.00   0.06  66.14
sdg               0.00     0.05   95.35    0.80   421.40    10.60     8.99     0.01    0.12    0.12    0.19   0.11   1.08
sdh               0.00     0.00    0.00    0.00     0.00     0.00     0.00     0.00    0.00    0.00    0.00   0.00   0.00
md0               0.00     0.00 68482.80    0.00 308854.80     0.00     9.02     0.00    0.00    0.00    0.00   0.00   0.00

