Linux 4.17.2 (bench) 	08/03/2018 	_x86_64_	(4 CPU)

avg-cpu:  %user   %nice %system %iowait  %steal   %idle
          10.28    0.02    4.06    2.56    0.00   83.08

Device:         rrqm/s   wrqm/s     r/s     w/s    rkB/s    wkB/s avgrq-sz avgqu-sz   await r_await w_await  svctm  %util
sda              44.58     4.24 1653.83  102.58 20939.72  3130.28    27.41     1.03    0.59    0.26    5.91   0.06  10.72
sdb              44.46     4.20 1653.75  102.72 20929.12  3126.95    27.39     1.03    0.59    0.26    5.85   0.06  10.60
sdc              82.37     4.26 1613.75  102.27 20921.23  3129.41    28.03     1.45    0.85    0.45    7.12   0.08  14.06
sdd              75.78     4.23 1619.50  102.34 20906.10  3125.60    27.91     1.46    0.85    0.44    7.32   0.08  14.15
sde              77.82     4.27 1624.57  102.43 20965.99  3129.85    27.90     1.48    0.86    0.44    7.43   0.08  14.17
sdf              74.93     4.24 1626.73  102.38 20947.18  3126.71    27.85     1.52    0.88    0.44    7.90   0.08  14.20
sdg               0.00     3.17   26.28   73.30   323.89   391.97    14.38     0.44    4.42    0.20    5.93   0.08   0.78
sdh               0.00     0.13    0.02    0.24     2.21     5.07    56.82     0.00    1.15    0.65    1.19   0.21   0.01
md0               0.00     0.00 10198.75  480.55 143434.70 21433.74    30.88     0.00    0.00    0.00    0.00   0.00   0.00

avg-cpu:  %user   %nice %system %iowait  %steal   %idle
           4.81    0.00   34.68    0.25    0.00   60.25

Device:         rrqm/s   wrqm/s     r/s     w/s    rkB/s    wkB/s avgrq-sz avgqu-sz   await r_await w_await  svctm  %util
sda            5717.00     0.00 23294.00    0.00 116328.00     0.00     9.99    20.52    0.88    0.88    0.00   0.02  52.50
sdb            5813.00     0.00 23495.00    0.00 117424.00     0.00    10.00    21.01    0.89    0.89    0.00   0.02  53.60
sdc            6026.00     0.00 23082.00    0.00 116704.00     0.00    10.11    24.83    1.07    1.07    0.00   0.03  64.50
sdd            5774.00     0.00 23140.00    0.00 115912.00     0.00    10.02    24.75    1.07    1.07    0.00   0.03  63.70
sde            6049.00     0.00 23000.00    0.00 116448.00     0.00    10.13    24.71    1.07    1.07    0.00   0.03  62.50
sdf            5978.00     0.00 23339.00    0.00 117588.00     0.00    10.08    25.39    1.09    1.09    0.00   0.03  64.00
sdg               0.00     0.00    3.00    0.00    88.00     0.00    58.67     0.00    0.33    0.33    0.00   0.33   0.10
sdh               0.00     0.00    0.00    0.00     0.00     0.00     0.00     0.00    0.00    0.00    0.00   0.00   0.00
md0               0.00     0.00 175288.00    0.00 701152.00     0.00     8.00     0.00    0.00    0.00    0.00   0.00   0.00

avg-cpu:  %user   %nice %system %iowait  %steal   %idle
           5.51    0.00   35.59    0.25    0.00   58.65

Device:         rrqm/s   wrqm/s     r/s     w/s    rkB/s    wkB/s avgrq-sz avgqu-sz   await r_await w_await  svctm  %util
sda            5351.00     0.00 23351.00    0.00 115084.00     0.00     9.86    19.84    0.85    0.85    0.00   0.02  52.90
sdb            5596.00     0.00 23760.00    0.00 117728.00     0.00     9.91    20.45    0.86    0.86    0.00   0.02  54.20
sdc            5520.00     0.00 23031.00    0.00 114528.00     0.00     9.95    23.21    1.01    1.01    0.00   0.03  62.60
sdd            5565.00     0.00 23522.00    0.00 116664.00     0.00     9.92    24.28    1.03    1.03    0.00   0.03  63.80
sde            5416.00     0.00 23272.00    0.00 115076.00     0.00     9.89    23.86    1.03    1.03    0.00   0.03  63.20
sdf            5634.00     0.00 23330.00    0.00 116216.00     0.00     9.96    24.04    1.03    1.03    0.00   0.03  63.60
sdg               0.00     0.00    0.00    0.00     0.00     0.00     0.00     0.00    0.00    0.00    0.00   0.00   0.00
sdh               0.00     0.00    0.00    0.00     0.00     0.00     0.00     0.00    0.00    0.00    0.00   0.00   0.00
md0               0.00     0.00 173637.00    0.00 694548.00     0.00     8.00     0.00    0.00    0.00    0.00   0.00   0.00

avg-cpu:  %user   %nice %system %iowait  %steal   %idle
           5.53    0.00   36.68    0.25    0.00   57.54

Device:         rrqm/s   wrqm/s     r/s     w/s    rkB/s    wkB/s avgrq-sz avgqu-sz   await r_await w_await  svctm  %util
sda            4746.00     0.00 23580.00    0.00 113540.00     0.00     9.63    19.00    0.81    0.81    0.00   0.02  53.20
sdb            4945.00     0.00 23616.00    0.00 114456.00     0.00     9.69    19.28    0.82    0.82    0.00   0.02  53.80
sdc            4898.00     0.00 23363.00    0.00 113228.00     0.00     9.69    22.68    0.97    0.97    0.00   0.03  63.90
sdd            5170.00     0.00 23397.00    0.00 114564.00     0.00     9.79    22.75    0.97    0.97    0.00   0.03  62.90
sde            4809.00     0.00 23308.00    0.00 112692.00     0.00     9.67    22.57    0.97    0.97    0.00   0.03  63.10
sdf            4947.00     0.00 23143.00    0.00 112568.00     0.00     9.73    22.54    0.97    0.97    0.00   0.03  62.10
sdg               0.00     0.00    6.00    0.00   104.00     0.00    34.67     0.00    0.00    0.00    0.00   0.00   0.00
sdh               0.00     0.00    0.00    0.00     0.00     0.00     0.00     0.00    0.00    0.00    0.00   0.00   0.00
md0               0.00     0.00 170366.00    0.00 681464.00     0.00     8.00     0.00    0.00    0.00    0.00   0.00   0.00

avg-cpu:  %user   %nice %system %iowait  %steal   %idle
           5.75    0.00   37.00    0.00    0.00   57.25

Device:         rrqm/s   wrqm/s     r/s     w/s    rkB/s    wkB/s avgrq-sz avgqu-sz   await r_await w_await  svctm  %util
sda            4480.00     0.00 23320.00    0.00 111408.00     0.00     9.55    18.52    0.79    0.79    0.00   0.02  53.10
sdb            4462.00     0.00 23473.00    0.00 111980.00     0.00     9.54    18.85    0.80    0.80    0.00   0.02  53.40
sdc            4699.00     0.00 23301.00    0.00 112320.00     0.00     9.64    22.23    0.96    0.96    0.00   0.03  64.10
sdd            4515.00     0.00 23258.00    0.00 111296.00     0.00     9.57    22.13    0.95    0.95    0.00   0.03  61.70
sde            4562.00     0.00 23225.00    0.00 111400.00     0.00     9.59    22.27    0.96    0.96    0.00   0.03  62.00
sdf            4344.00     0.00 22938.00    0.00 109332.00     0.00     9.53    21.61    0.94    0.94    0.00   0.03  61.80
sdg               0.00     0.00    0.00    0.00     0.00     0.00     0.00     0.00    0.00    0.00    0.00   0.00   0.00
sdh               0.00     0.00    0.00    0.00     0.00     0.00     0.00     0.00    0.00    0.00    0.00   0.00   0.00
md0               0.00     0.00 166830.00    0.00 667320.00     0.00     8.00     0.00    0.00    0.00    0.00   0.00   0.00

avg-cpu:  %user   %nice %system %iowait  %steal   %idle
           5.75    0.00   36.50    0.25    0.00   57.50

Device:         rrqm/s   wrqm/s     r/s     w/s    rkB/s    wkB/s avgrq-sz avgqu-sz   await r_await w_await  svctm  %util
sda            4194.00     0.00 23136.00    0.00 109488.00     0.00     9.46    18.48    0.80    0.80    0.00   0.02  53.30
sdb            3995.00     0.00 23017.00    0.00 108272.00     0.00     9.41    18.30    0.79    0.79    0.00   0.02  53.10
sdc            4291.00     0.00 22966.00    0.00 109248.00     0.00     9.51    21.73    0.95    0.95    0.00   0.03  60.30
sdd            4326.00     0.00 22689.00    0.00 108276.00     0.00     9.54    21.25    0.94    0.94    0.00   0.03  61.20
sde            4518.00     0.00 22934.00    0.00 110060.00     0.00     9.60    21.75    0.95    0.95    0.00   0.03  61.70
sdf            4160.00     0.00 22835.00    0.00 108192.00     0.00     9.48    21.35    0.93    0.93    0.00   0.03  60.40
sdg               0.00     0.00    0.00    0.00     0.00     0.00     0.00     0.00    0.00    0.00    0.00   0.00   0.00
sdh               0.00     0.00    0.00    0.00     0.00     0.00     0.00     0.00    0.00    0.00    0.00   0.00   0.00
md0               0.00     0.00 163384.00    0.00 653536.00     0.00     8.00     0.00    0.00    0.00    0.00   0.00   0.00

avg-cpu:  %user   %nice %system %iowait  %steal   %idle
           6.25    0.00   37.25    0.00    0.00   56.50

Device:         rrqm/s   wrqm/s     r/s     w/s    rkB/s    wkB/s avgrq-sz avgqu-sz   await r_await w_await  svctm  %util
sda            3497.00     0.00 23084.00    0.00 106524.00     0.00     9.23    16.65    0.72    0.72    0.00   0.02  50.90
sdb            3611.00     0.00 22956.00    0.00 106396.00     0.00     9.27    16.60    0.72    0.72    0.00   0.02  51.70
sdc            3929.00     0.00 22955.00    0.00 107708.00     0.00     9.38    19.90    0.87    0.87    0.00   0.03  60.50
sdd            3571.00     0.00 22623.00    0.00 104936.00     0.00     9.28    19.32    0.85    0.85    0.00   0.03  60.00
sde            3865.00     0.00 22895.00    0.00 107216.00     0.00     9.37    19.80    0.86    0.86    0.00   0.03  60.50
sdf            3630.00     0.00 22619.00    0.00 105204.00     0.00     9.30    19.52    0.86    0.86    0.00   0.03  59.80
sdg               0.00     0.00    0.00    0.00     0.00     0.00     0.00     0.00    0.00    0.00    0.00   0.00   0.00
sdh               0.00     0.00    0.00    0.00     0.00     0.00     0.00     0.00    0.00    0.00    0.00   0.00   0.00
md0               0.00     0.00 159496.00    0.00 637984.00     0.00     8.00     0.00    0.00    0.00    0.00   0.00   0.00

avg-cpu:  %user   %nice %system %iowait  %steal   %idle
           6.30    0.25   37.03    0.25    0.00   56.17

Device:         rrqm/s   wrqm/s     r/s     w/s    rkB/s    wkB/s avgrq-sz avgqu-sz   await r_await w_await  svctm  %util
sda            2976.00     0.00 22693.00    0.00 102780.00     0.00     9.06    15.42    0.68    0.68    0.00   0.02  52.60
sdb            3151.00     0.00 22715.00    0.00 103560.00     0.00     9.12    15.45    0.68    0.68    0.00   0.02  49.40
sdc            3187.00     0.00 22429.00    0.00 102584.00     0.00     9.15    18.11    0.81    0.81    0.00   0.03  57.80
sdd            3291.00     0.00 22706.00    0.00 104092.00     0.00     9.17    18.48    0.81    0.81    0.00   0.03  59.10
sde            3442.00     0.00 22753.00    0.00 104908.00     0.00     9.22    18.74    0.82    0.82    0.00   0.03  59.50
sdf            3428.00     0.00 22637.00    0.00 104392.00     0.00     9.22    18.59    0.82    0.82    0.00   0.03  59.50
sdg               0.00     0.00   41.00    0.00   476.00     0.00    23.22     0.01    0.22    0.22    0.00   0.15   0.60
sdh               0.00     0.00    0.00    0.00     0.00     0.00     0.00     0.00    0.00    0.00    0.00   0.00   0.00
md0               0.00     0.00 155579.00    0.00 622316.00     0.00     8.00     0.00    0.00    0.00    0.00   0.00   0.00

avg-cpu:  %user   %nice %system %iowait  %steal   %idle
           6.00    0.00   38.25    0.00    0.00   55.75

Device:         rrqm/s   wrqm/s     r/s     w/s    rkB/s    wkB/s avgrq-sz avgqu-sz   await r_await w_await  svctm  %util
sda            2680.00     0.00 22639.00    0.00 101328.00     0.00     8.95    15.10    0.67    0.67    0.00   0.02  51.80
sdb            2761.00     0.00 22619.00    0.00 101556.00     0.00     8.98    15.19    0.67    0.67    0.00   0.02  51.60
sdc            2963.00     0.00 22288.00    0.00 101060.00     0.00     9.07    17.73    0.79    0.79    0.00   0.03  57.90
sdd            2896.00     0.00 22269.00    0.00 100756.00     0.00     9.05    17.47    0.78    0.78    0.00   0.03  58.40
sde            2860.00     0.00 22476.00    0.00 101440.00     0.00     9.03    17.80    0.79    0.79    0.00   0.03  59.10
sdf            2862.00     0.00 22293.00    0.00 100760.00     0.00     9.04    17.81    0.80    0.80    0.00   0.03  58.00
sdg               0.00     0.00    0.00    0.00     0.00     0.00     0.00     0.00    0.00    0.00    0.00   0.00   0.00
sdh               0.00     0.00    0.00    0.00     0.00     0.00     0.00     0.00    0.00    0.00    0.00   0.00   0.00
md0               0.00     0.00 152103.00    0.00 608412.00     0.00     8.00     0.00    0.00    0.00    0.00   0.00   0.00

avg-cpu:  %user   %nice %system %iowait  %steal   %idle
           6.27    0.00   37.84    0.00    0.00   55.89

Device:         rrqm/s   wrqm/s     r/s     w/s    rkB/s    wkB/s avgrq-sz avgqu-sz   await r_await w_await  svctm  %util
sda            2315.00     0.00 22225.00    0.00 98300.00     0.00     8.85    14.13    0.64    0.64    0.00   0.02  50.20
sdb            2337.00     0.00 22155.00    0.00 98116.00     0.00     8.86    14.11    0.64    0.64    0.00   0.02  50.50
sdc            2460.00     0.00 22087.00    0.00 98344.00     0.00     8.91    16.52    0.75    0.75    0.00   0.03  56.90
sdd            2581.00     0.00 22324.00    0.00 99768.00     0.00     8.94    17.02    0.76    0.76    0.00   0.03  56.70
sde            2530.00     0.00 21904.00    0.00 97856.00     0.00     8.93    16.42    0.75    0.75    0.00   0.03  56.20
sdf            2455.00     0.00 22004.00    0.00 97916.00     0.00     8.90    16.60    0.76    0.76    0.00   0.03  57.20
sdg               0.00     3.00    8.00   13.00    68.00   244.00    29.71     0.01    0.52    0.12    0.77   0.14   0.30
sdh               0.00     0.00    0.00    0.00     0.00     0.00     0.00     0.00    0.00    0.00    0.00   0.00   0.00
md0               0.00     0.00 147197.00    0.00 588788.00     0.00     8.00     0.00    0.00    0.00    0.00   0.00   0.00

avg-cpu:  %user   %nice %system %iowait  %steal   %idle
           7.29    0.00   37.69    1.26    0.00   53.77

Device:         rrqm/s   wrqm/s     r/s     w/s    rkB/s    wkB/s avgrq-sz avgqu-sz   await r_await w_await  svctm  %util
sda            1960.00     0.00 21470.00    0.00 93772.00     0.00     8.74    13.00    0.60    0.60    0.00   0.02  48.60
sdb            2044.00     0.00 21605.00    0.00 94652.00     0.00     8.76    13.23    0.61    0.61    0.00   0.02  48.00
sdc            2056.00     0.00 21101.00    0.00 92676.00     0.00     8.78    15.02    0.71    0.71    0.00   0.03  53.70
sdd            2261.00     0.00 21230.00    0.00 94028.00     0.00     8.86    15.16    0.71    0.71    0.00   0.03  54.80
sde            2192.00     0.00 21547.00    0.00 95004.00     0.00     8.82    15.51    0.72    0.72    0.00   0.03  55.50
sdf            2283.00     0.00 21392.00    0.00 94780.00     0.00     8.86    15.34    0.72    0.72    0.00   0.03  54.70
sdg               0.00   147.00    2.00 2582.00     8.00 12756.00     9.88    15.65    6.06    2.50    6.06   0.04  11.50
sdh               0.00     0.00    0.00    0.00     0.00     0.00     0.00     0.00    0.00    0.00    0.00   0.00   0.00
md0               0.00     0.00 141478.00    0.00 565912.00     0.00     8.00     0.00    0.00    0.00    0.00   0.00   0.00

avg-cpu:  %user   %nice %system %iowait  %steal   %idle
           6.63    0.00   38.01    0.00    0.00   55.36

Device:         rrqm/s   wrqm/s     r/s     w/s    rkB/s    wkB/s avgrq-sz avgqu-sz   await r_await w_await  svctm  %util
sda            1900.00     0.00 21550.00    0.00 93936.00     0.00     8.72    13.30    0.62    0.62    0.00   0.02  48.60
sdb            1887.00     0.00 21487.00    0.00 93596.00     0.00     8.71    13.42    0.63    0.63    0.00   0.02  47.60
sdc            1991.00     0.00 21249.00    0.00 93128.00     0.00     8.77    15.35    0.72    0.72    0.00   0.02  52.20
sdd            2078.00     0.00 21142.00    0.00 93044.00     0.00     8.80    15.37    0.73    0.73    0.00   0.03  53.70
sde            1966.00     0.00 21186.00    0.00 92684.00     0.00     8.75    15.33    0.72    0.72    0.00   0.03  54.60
sdf            2012.00     0.00 21267.00    0.00 93304.00     0.00     8.77    15.40    0.73    0.73    0.00   0.03  53.80
sdg               0.00     0.00    0.00    0.00     0.00     0.00     0.00     0.00    0.00    0.00    0.00   0.00   0.00
sdh               0.00     0.00    0.00    0.00     0.00     0.00     0.00     0.00    0.00    0.00    0.00   0.00   0.00
md0               0.00     0.00 139717.00    0.00 559076.00     0.00     8.00     0.00    0.00    0.00    0.00   0.00   0.00

avg-cpu:  %user   %nice %system %iowait  %steal   %idle
           6.80    0.00   37.78    0.00    0.00   55.42

Device:         rrqm/s   wrqm/s     r/s     w/s    rkB/s    wkB/s avgrq-sz avgqu-sz   await r_await w_await  svctm  %util
sda            1974.00     0.00 21418.00    0.00 93636.00     0.00     8.74    13.53    0.63    0.63    0.00   0.02  48.30
sdb            2053.00     0.00 21583.00    0.00 94604.00     0.00     8.77    13.77    0.64    0.64    0.00   0.02  47.20
sdc            2263.00     0.00 21568.00    0.00 95420.00     0.00     8.85    16.33    0.76    0.76    0.00   0.03  55.00
sdd            2140.00     0.00 21282.00    0.00 93752.00     0.00     8.81    15.62    0.73    0.73    0.00   0.03  54.60
sde            2122.00     0.00 21242.00    0.00 93564.00     0.00     8.81    15.74    0.74    0.74    0.00   0.03  55.10
sdf            2166.00     0.00 21273.00    0.00 93976.00     0.00     8.84    15.91    0.75    0.75    0.00   0.03  54.60
sdg               0.00     0.00    0.00    0.00     0.00     0.00     0.00     0.00    0.00    0.00    0.00   0.00   0.00
sdh               0.00     0.00    0.00    0.00     0.00     0.00     0.00     0.00    0.00    0.00    0.00   0.00   0.00
md0               0.00     0.00 141093.00    0.00 564592.00     0.00     8.00     0.00    0.00    0.00    0.00   0.00   0.00

avg-cpu:  %user   %nice %system %iowait  %steal   %idle
           7.83    0.00   36.62    0.25    0.00   55.30

Device:         rrqm/s   wrqm/s     r/s     w/s    rkB/s    wkB/s avgrq-sz avgqu-sz   await r_await w_await  svctm  %util
sda            1958.00     0.00 21540.00    0.00 94068.00     0.00     8.73    13.17    0.61    0.61    0.00   0.02  47.30
sdb            1867.00     0.00 21453.00    0.00 93340.00     0.00     8.70    13.20    0.62    0.62    0.00   0.02  46.20
sdc            2127.00     0.00 21298.00    0.00 93796.00     0.00     8.81    15.36    0.72    0.72    0.00   0.03  53.80
sdd            2280.00     0.00 21420.00    0.00 94940.00     0.00     8.86    15.46    0.72    0.72    0.00   0.03  54.70
sde            2152.00     0.00 21231.00    0.00 93624.00     0.00     8.82    15.37    0.72    0.72    0.00   0.03  54.10
sdf            2145.00     0.00 21277.00    0.00 93792.00     0.00     8.82    15.44    0.73    0.73    0.00   0.02  53.10
sdg               0.00     0.00    0.00    0.00     0.00     0.00     0.00     0.00    0.00    0.00    0.00   0.00   0.00
sdh               0.00     0.00    0.00    0.00     0.00     0.00     0.00     0.00    0.00    0.00    0.00   0.00   0.00
md0               0.00     0.00 140954.00    0.00 563908.00     0.00     8.00     0.00    0.00    0.00    0.00   0.00   0.00

avg-cpu:  %user   %nice %system %iowait  %steal   %idle
           7.07    0.00   37.37    0.00    0.00   55.56

Device:         rrqm/s   wrqm/s     r/s     w/s    rkB/s    wkB/s avgrq-sz avgqu-sz   await r_await w_await  svctm  %util
sda            1986.00     0.00 21640.00    0.00 94560.00     0.00     8.74    13.74    0.64    0.64    0.00   0.02  47.10
sdb            2068.00     0.00 21573.00    0.00 94692.00     0.00     8.78    13.78    0.64    0.64    0.00   0.02  46.90
sdc            2217.00     0.00 21233.00    0.00 93908.00     0.00     8.85    15.57    0.73    0.73    0.00   0.03  53.50
sdd            2244.00     0.00 21366.00    0.00 94540.00     0.00     8.85    15.82    0.74    0.74    0.00   0.02  53.40
sde            2098.00     0.00 21116.00    0.00 92908.00     0.00     8.80    15.49    0.73    0.73    0.00   0.02  52.70
sdf            2022.00     0.00 21048.00    0.00 92340.00     0.00     8.77    15.40    0.73    0.73    0.00   0.02  52.30
sdg               0.00     0.00    0.00    0.00     0.00     0.00     0.00     0.00    0.00    0.00    0.00   0.00   0.00
sdh               0.00     0.00    0.00    0.00     0.00     0.00     0.00     0.00    0.00    0.00    0.00   0.00   0.00
md0               0.00     0.00 140891.00    0.00 563644.00     0.00     8.00     0.00    0.00    0.00    0.00   0.00   0.00

avg-cpu:  %user   %nice %system %iowait  %steal   %idle
           7.38    0.00   37.15    0.00    0.00   55.47

Device:         rrqm/s   wrqm/s     r/s     w/s    rkB/s    wkB/s avgrq-sz avgqu-sz   await r_await w_await  svctm  %util
sda            1927.00     0.00 21389.00    0.00 93304.00     0.00     8.72    13.19    0.62    0.62    0.00   0.02  46.60
sdb            1887.00     0.00 21535.00    0.00 93716.00     0.00     8.70    13.11    0.61    0.61    0.00   0.02  46.60
sdc            2059.00     0.00 21437.00    0.00 94056.00     0.00     8.78    15.41    0.72    0.72    0.00   0.02  53.20
sdd            2142.00     0.00 21437.00    0.00 94392.00     0.00     8.81    15.38    0.72    0.72    0.00   0.03  53.80
sde            2041.00     0.00 21298.00    0.00 93428.00     0.00     8.77    15.36    0.72    0.72    0.00   0.03  54.40
sdf            2053.00     0.00 21347.00    0.00 93704.00     0.00     8.78    15.39    0.72    0.72    0.00   0.03  53.90
sdg               0.00     0.00    0.00    0.00     0.00     0.00     0.00     0.00    0.00    0.00    0.00   0.00   0.00
sdh               0.00     0.00    0.00    0.00     0.00     0.00     0.00     0.00    0.00    0.00    0.00   0.00   0.00
md0               0.00     0.00 140642.00    0.00 562600.00     0.00     8.00     0.00    0.00    0.00    0.00   0.00   0.00

avg-cpu:  %user   %nice %system %iowait  %steal   %idle
           7.04    0.00   38.44    0.00    0.00   54.52

Device:         rrqm/s   wrqm/s     r/s     w/s    rkB/s    wkB/s avgrq-sz avgqu-sz   await r_await w_await  svctm  %util
sda            1955.45     0.00 21707.92    0.00 94724.75     0.00     8.73    13.48    0.62    0.62    0.00   0.02  48.22
sdb            1826.73     0.00 21121.78    0.00 91873.27     0.00     8.70    13.15    0.62    0.62    0.00   0.02  47.92
sdc            1965.35     0.00 21112.87    0.00 92388.12     0.00     8.75    15.30    0.72    0.72    0.00   0.03  54.65
sdd            2078.22     0.00 21320.79    0.00 93647.52     0.00     8.78    15.60    0.73    0.73    0.00   0.03  54.65
sde            2119.80     0.00 21278.22    0.00 93679.21     0.00     8.81    15.50    0.73    0.73    0.00   0.03  54.55
sdf            2171.29     0.00 21220.79    0.00 93627.72     0.00     8.82    15.52    0.73    0.73    0.00   0.03  54.16
sdg               0.00     0.00    0.00    0.00     0.00     0.00     0.00     0.00    0.00    0.00    0.00   0.00   0.00
sdh               0.00     0.00    0.00    0.00     0.00     0.00     0.00     0.00    0.00    0.00    0.00   0.00   0.00
md0               0.00     0.00 140061.39    0.00 560293.07     0.00     8.00     0.00    0.00    0.00    0.00   0.00   0.00

avg-cpu:  %user   %nice %system %iowait  %steal   %idle
           6.85    0.00   39.09    1.78    0.00   52.28

Device:         rrqm/s   wrqm/s     r/s     w/s    rkB/s    wkB/s avgrq-sz avgqu-sz   await r_await w_await  svctm  %util
sda            1933.00     0.00 21626.00    0.00 94360.00     0.00     8.73    13.20    0.61    0.61    0.00   0.02  47.60
sdb            1883.00     0.00 21333.00    0.00 92948.00     0.00     8.71    13.09    0.62    0.62    0.00   0.02  46.70
sdc            2088.00     0.00 21264.00    0.00 93548.00     0.00     8.80    15.08    0.71    0.71    0.00   0.02  52.60
sdd            2022.00     0.00 21184.00    0.00 92944.00     0.00     8.77    15.08    0.71    0.71    0.00   0.03  53.60
sde            1994.00     0.00 21225.00    0.00 92980.00     0.00     8.76    15.19    0.72    0.72    0.00   0.03  53.10
sdf            2180.00     0.00 21433.00    0.00 94552.00     0.00     8.82    15.41    0.72    0.72    0.00   0.03  54.20
sdg               0.00     0.00 1696.00    0.00  6784.00     0.00     8.00     0.21    0.13    0.13    0.00   0.12  21.20
sdh               0.00     0.00    0.00    0.00     0.00     0.00     0.00     0.00    0.00    0.00    0.00   0.00   0.00
md0               0.00     0.00 139948.00    0.00 559944.00     0.00     8.00     0.00    0.00    0.00    0.00   0.00   0.00

avg-cpu:  %user   %nice %system %iowait  %steal   %idle
           7.30    0.00   38.29    0.25    0.00   54.16

Device:         rrqm/s   wrqm/s     r/s     w/s    rkB/s    wkB/s avgrq-sz avgqu-sz   await r_await w_await  svctm  %util
sda            1833.00     0.00 21570.00    0.00 93800.00     0.00     8.70    12.76    0.59    0.59    0.00   0.02  47.80
sdb            1820.00     0.00 21545.00    0.00 93572.00     0.00     8.69    12.86    0.60    0.60    0.00   0.02  48.00
sdc            2029.00     0.00 21409.00    0.00 93876.00     0.00     8.77    14.93    0.70    0.70    0.00   0.03  54.50
sdd            1893.00     0.00 21207.00    0.00 92444.00     0.00     8.72    14.73    0.69    0.69    0.00   0.03  54.40
sde            2090.00     0.00 21326.00    0.00 93808.00     0.00     8.80    15.09    0.71    0.71    0.00   0.03  53.90
sdf            2112.00     0.00 21449.00    0.00 94320.00     0.00     8.79    15.13    0.71    0.71    0.00   0.03  56.00
sdg               0.00     0.00  146.00    0.00   584.00     0.00     8.00     0.02    0.14    0.14    0.00   0.14   2.10
sdh               0.00     0.00    0.00    0.00     0.00     0.00     0.00     0.00    0.00    0.00    0.00   0.00   0.00
md0               0.00     0.00 140389.00    0.00 561824.00     0.00     8.00     0.00    0.00    0.00    0.00   0.00   0.00

avg-cpu:  %user   %nice %system %iowait  %steal   %idle
           7.27    0.00   38.60    0.00    0.00   54.14

Device:         rrqm/s   wrqm/s     r/s     w/s    rkB/s    wkB/s avgrq-sz avgqu-sz   await r_await w_await  svctm  %util
sda            1820.00     0.00 21470.00    0.00 93232.00     0.00     8.68    13.10    0.61    0.61    0.00   0.02  48.40
sdb            1848.00     0.00 21427.00    0.00 93188.00     0.00     8.70    13.05    0.61    0.61    0.00   0.02  47.10
sdc            2054.00     0.00 21450.00    0.00 94028.00     0.00     8.77    15.35    0.71    0.71    0.00   0.03  54.00
sdd            2048.00     0.00 21390.00    0.00 93932.00     0.00     8.78    15.24    0.71    0.71    0.00   0.03  54.20
sde            1897.00     0.00 21164.00    0.00 92332.00     0.00     8.73    14.96    0.71    0.71    0.00   0.03  53.30
sdf            2040.00     0.00 21422.00    0.00 93896.00     0.00     8.77    15.47    0.72    0.72    0.00   0.03  54.10
sdg               0.00     0.00    0.00    0.00     0.00     0.00     0.00     0.00    0.00    0.00    0.00   0.00   0.00
sdh               0.00     0.00    0.00    0.00     0.00     0.00     0.00     0.00    0.00    0.00    0.00   0.00   0.00
md0               0.00     0.00 140251.00    0.00 561220.00     0.00     8.00     0.00    0.00    0.00    0.00   0.00   0.00

avg-cpu:  %user   %nice %system %iowait  %steal   %idle
           6.84    0.00   38.48    0.00    0.00   54.68

Device:         rrqm/s   wrqm/s     r/s     w/s    rkB/s    wkB/s avgrq-sz avgqu-sz   await r_await w_await  svctm  %util
sda            1938.00     0.00 21511.00    0.00 93856.00     0.00     8.73    13.26    0.62    0.62    0.00   0.02  48.80
sdb            1917.00     0.00 21543.00    0.00 93936.00     0.00     8.72    13.53    0.63    0.63    0.00   0.02  48.60
sdc            2142.00     0.00 21578.00    0.00 95048.00     0.00     8.81    15.63    0.73    0.73    0.00   0.03  54.80
sdd            2009.00     0.00 21277.00    0.00 93228.00     0.00     8.76    15.36    0.72    0.72    0.00   0.03  55.00
sde            2144.00     0.00 21491.00    0.00 94628.00     0.00     8.81    15.71    0.73    0.73    0.00   0.03  55.40
sdf            2058.00     0.00 21476.00    0.00 94192.00     0.00     8.77    15.47    0.72    0.72    0.00   0.03  54.90
sdg               0.00     0.00    1.00    0.00     4.00     0.00     8.00     0.00    0.00    0.00    0.00   0.00   0.00
sdh               0.00     0.00    0.00    0.00     0.00     0.00     0.00     0.00    0.00    0.00    0.00   0.00   0.00
md0               0.00     0.00 141061.00    0.00 564280.00     0.00     8.00     0.00    0.00    0.00    0.00   0.00   0.00

