Linux 4.17.2 (bench) 	08/03/2018 	_x86_64_	(4 CPU)

avg-cpu:  %user   %nice %system %iowait  %steal   %idle
          10.29    0.02    3.99    2.44    0.00   83.26

Device:         rrqm/s   wrqm/s     r/s     w/s    rkB/s    wkB/s avgrq-sz avgqu-sz   await r_await w_await  svctm  %util
sda              40.38     4.28 1605.41  103.56 20657.04  3160.31    27.87     1.03    0.60    0.26    5.91   0.06  10.51
sdb              40.27     4.24 1605.30  103.70 20646.43  3156.94    27.86     1.02    0.60    0.26    5.85   0.06  10.39
sdc              78.43     4.30 1565.06  103.25 20638.67  3159.42    28.53     1.44    0.86    0.45    7.12   0.08  13.82
sdd              71.77     4.27 1570.87  103.32 20623.32  3155.58    28.41     1.45    0.87    0.44    7.32   0.08  13.91
sde              73.84     4.31 1576.02  103.42 20683.99  3159.87    28.40     1.47    0.88    0.45    7.43   0.08  13.93
sdf              70.93     4.28 1578.19  103.36 20664.97  3156.70    28.33     1.52    0.90    0.44    7.90   0.08  13.96
sdg               0.00     3.18   25.91   73.35   322.40   391.99    14.39     0.44    4.44    0.20    5.93   0.08   0.77
sdh               0.00     0.13    0.02    0.24     2.23     5.11    56.82     0.00    1.15    0.65    1.19   0.21   0.01
md0               0.00     0.00 9882.68  485.16 141433.56 21639.32    31.46     0.00    0.00    0.00    0.00   0.00   0.00

avg-cpu:  %user   %nice %system %iowait  %steal   %idle
           1.49    0.03   13.70   59.96    0.00   24.83

Device:         rrqm/s   wrqm/s     r/s     w/s    rkB/s    wkB/s avgrq-sz avgqu-sz   await r_await w_await  svctm  %util
sda               0.00     0.00 9238.20    0.00 36952.80     0.00     8.00     0.98    0.11    0.11    0.00   0.06  59.21
sdb               0.00     0.00 9277.10    0.00 37108.40     0.00     8.00     0.97    0.11    0.11    0.00   0.06  58.30
sdc               0.00     0.00 9280.40    0.00 37121.60     0.00     8.00     1.09    0.12    0.12    0.00   0.07  63.30
sdd               0.00     0.00 9341.70    0.00 37366.80     0.00     8.00     1.11    0.12    0.12    0.00   0.07  64.22
sde               0.00     0.00 9244.15    0.00 36976.60     0.00     8.00     1.09    0.12    0.12    0.00   0.07  63.81
sdf               0.00     0.00 9254.90    0.00 37019.60     0.00     8.00     1.09    0.12    0.12    0.00   0.07  63.53
sdg               0.00     0.05    2.05    0.25    16.60     3.60    17.57     0.00    0.22    0.24    0.00   0.20   0.04
sdh               0.00     0.00    0.00    0.00     0.00     0.00     0.00     0.00    0.00    0.00    0.00   0.00   0.00
md0               0.00     0.00 55636.80    0.00 222547.20     0.00     8.00     0.00    0.00    0.00    0.00   0.00   0.00

