Linux 4.17.2 (bench) 	08/03/2018 	_x86_64_	(4 CPU)

avg-cpu:  %user   %nice %system %iowait  %steal   %idle
          10.29    0.02    4.00    2.47    0.00   83.22

Device:         rrqm/s   wrqm/s     r/s     w/s    rkB/s    wkB/s avgrq-sz avgqu-sz   await r_await w_await  svctm  %util
sda              41.51     4.27 1615.10  103.33 20691.66  3153.25    27.75     1.03    0.60    0.26    5.91   0.06  10.56
sdb              41.40     4.23 1614.99  103.47 20681.09  3149.89    27.74     1.02    0.60    0.26    5.85   0.06  10.44
sdc              79.48     4.29 1574.84  103.02 20673.29  3152.37    28.40     1.44    0.86    0.45    7.12   0.08  13.87
sdd              72.83     4.26 1580.64  103.09 20657.99  3148.53    28.28     1.45    0.86    0.44    7.32   0.08  13.96
sde              74.90     4.30 1585.76  103.19 20718.51  3152.81    28.27     1.47    0.87    0.44    7.43   0.08  13.98
sdf              71.99     4.27 1587.94  103.13 20699.52  3149.65    28.21     1.52    0.90    0.44    7.90   0.08  14.01
sdg               0.00     3.18   25.97   73.33   322.59   391.96    14.39     0.44    4.43    0.20    5.93   0.08   0.78
sdh               0.00     0.13    0.02    0.24     2.23     5.10    56.82     0.00    1.15    0.65    1.19   0.21   0.01
md0               0.00     0.00 9947.58  484.08 141659.54 21590.99    31.30     0.00    0.00    0.00    0.00   0.00   0.00

avg-cpu:  %user   %nice %system %iowait  %steal   %idle
           2.15    0.01   27.62    4.18    0.00   66.04

Device:         rrqm/s   wrqm/s     r/s     w/s    rkB/s    wkB/s avgrq-sz avgqu-sz   await r_await w_await  svctm  %util
sda               0.00     0.00 14068.50    0.00 56274.00     0.00     8.00     1.82    0.13    0.13    0.00   0.04  57.02
sdb               0.00     0.00 14060.80    0.00 56243.20     0.00     8.00     1.84    0.13    0.13    0.00   0.04  56.94
sdc               0.00     0.00 14076.85    0.00 56307.40     0.00     8.00     2.01    0.14    0.14    0.00   0.05  63.58
sdd               0.00     0.00 14025.35    0.00 56101.40     0.00     8.00     1.99    0.14    0.14    0.00   0.04  61.36
sde               0.00     0.00 14035.70    0.00 56142.80     0.00     8.00     2.00    0.14    0.14    0.00   0.04  61.37
sdf               0.00     0.00 14034.80    0.00 56139.20     0.00     8.00     2.09    0.15    0.15    0.00   0.05  67.89
sdg               0.00     0.10    0.95    0.50     8.20    10.00    25.10     0.00    0.14    0.21    0.00   0.14   0.02
sdh               0.00     0.00    0.00    0.00     0.00     0.00     0.00     0.00    0.00    0.00    0.00   0.00   0.00
md0               0.00     0.00 84303.00    0.00 337212.00     0.00     8.00     0.00    0.00    0.00    0.00   0.00   0.00

