Linux 4.17.2 (bench) 	08/03/2018 	_x86_64_	(4 CPU)

avg-cpu:  %user   %nice %system %iowait  %steal   %idle
          10.28    0.02    4.05    2.54    0.00   83.11

Device:         rrqm/s   wrqm/s     r/s     w/s    rkB/s    wkB/s avgrq-sz avgqu-sz   await r_await w_await  svctm  %util
sda              44.31     4.24 1643.33  102.75 20861.86  3135.40    27.49     1.03    0.59    0.26    5.91   0.06  10.68
sdb              44.18     4.21 1643.25  102.88 20851.25  3132.06    27.47     1.03    0.59    0.26    5.85   0.06  10.56
sdc              82.14     4.26 1603.20  102.43 20843.39  3134.52    28.12     1.45    0.85    0.45    7.12   0.08  14.01
sdd              75.55     4.23 1608.96  102.50 20828.23  3130.71    28.00     1.46    0.85    0.44    7.32   0.08  14.10
sde              77.59     4.28 1614.04  102.60 20888.22  3134.97    27.99     1.48    0.86    0.44    7.43   0.08  14.12
sdf              74.70     4.25 1616.21  102.55 20869.41  3131.82    27.93     1.52    0.88    0.44    7.90   0.08  14.15
sdg               0.00     3.17   26.19   73.30   323.49   391.94    14.38     0.44    4.42    0.20    5.93   0.08   0.78
sdh               0.00     0.13    0.02    0.24     2.22     5.07    56.82     0.00    1.15    0.65    1.19   0.21   0.01
md0               0.00     0.00 10133.98  481.34 142864.82 21468.76    30.96     0.00    0.00    0.00    0.00   0.00   0.00

avg-cpu:  %user   %nice %system %iowait  %steal   %idle
           1.51    0.00   16.33    4.77    0.00   77.39

Device:         rrqm/s   wrqm/s     r/s     w/s    rkB/s    wkB/s avgrq-sz avgqu-sz   await r_await w_await  svctm  %util
sda               0.00     0.00 10183.00    0.00 40732.00     0.00     8.00     1.95    0.19    0.19    0.00   0.02  24.00
sdb               0.00     0.00 10102.00    0.00 40408.00     0.00     8.00     1.92    0.19    0.19    0.00   0.02  20.40
sdc               0.00     0.00 10509.00    0.00 42036.00     0.00     8.00     3.08    0.29    0.29    0.00   0.03  29.50
sdd               0.00     0.00 11054.00    0.00 44216.00     0.00     8.00     2.82    0.26    0.26    0.00   0.03  29.80
sde               0.00     0.00 10709.00    0.00 42836.00     0.00     8.00     2.53    0.24    0.24    0.00   0.03  29.30
sdf               0.00     0.00 9957.00    0.00 39828.00     0.00     8.00     2.48    0.25    0.25    0.00   0.03  28.70
sdg               0.00    18.00   24.00   84.00   384.00  1360.00    32.30     0.24    2.22    0.17    2.81   0.10   1.10
sdh               0.00     0.00    0.00    0.00     0.00     0.00     0.00     0.00    0.00    0.00    0.00   0.00   0.00
md0               0.00     0.00 62494.00    0.00 249976.00     0.00     8.00     0.00    0.00    0.00    0.00   0.00   0.00

