Linux 4.17.2 (bench) 	08/03/2018 	_x86_64_	(4 CPU)

avg-cpu:  %user   %nice %system %iowait  %steal   %idle
          10.29    0.02    4.02    2.49    0.00   83.19

Device:         rrqm/s   wrqm/s     r/s     w/s    rkB/s    wkB/s avgrq-sz avgqu-sz   await r_await w_await  svctm  %util
sda              41.54     4.26 1623.17  103.18 20751.55  3148.58    27.69     1.03    0.59    0.26    5.91   0.06  10.59
sdb              41.44     4.22 1623.06  103.32 20740.95  3145.22    27.67     1.03    0.59    0.26    5.85   0.06  10.47
sdc              79.45     4.28 1582.96  102.86 20733.15  3147.70    28.33     1.44    0.86    0.45    7.12   0.08  13.91
sdd              72.82     4.25 1588.75  102.94 20717.88  3143.87    28.21     1.45    0.86    0.44    7.32   0.08  14.00
sde              74.89     4.30 1593.87  103.03 20778.27  3148.15    28.20     1.47    0.87    0.44    7.43   0.08  14.02
sdf              71.98     4.27 1596.03  102.98 20759.32  3144.99    28.14     1.52    0.89    0.44    7.90   0.08  14.05
sdg               0.00     3.18   26.04   73.33   322.86   391.97    14.39     0.44    4.43    0.20    5.93   0.08   0.78
sdh               0.00     0.13    0.02    0.24     2.22     5.10    56.82     0.00    1.15    0.65    1.19   0.21   0.01
md0               0.00     0.00 9996.25  483.36 142099.31 21559.02    31.23     0.00    0.00    0.00    0.00   0.00   0.00

avg-cpu:  %user   %nice %system %iowait  %steal   %idle
           1.10    0.03   17.27   41.33    0.00   40.27

Device:         rrqm/s   wrqm/s     r/s     w/s    rkB/s    wkB/s avgrq-sz avgqu-sz   await r_await w_await  svctm  %util
sda              83.05     0.00 7596.10    0.00 149984.20     0.00    39.49     3.57    0.47    0.47    0.00   0.07  51.98
sdb              81.65     0.00 7662.05    0.00 151039.80     0.00    39.43     3.67    0.48    0.48    0.00   0.07  52.25
sdc              87.70     0.00 7450.70    0.00 149666.80     0.00    40.18     5.91    0.79    0.79    0.00   0.10  75.62
sdd              86.60     0.00 7544.45    0.00 150418.60     0.00    39.88     5.99    0.79    0.79    0.00   0.10  75.90
sde              85.65     0.00 7510.75    0.00 150195.80     0.00    39.99     5.89    0.78    0.78    0.00   0.10  75.94
sdf              84.80     0.00 7530.70    0.00 149904.60     0.00    39.81     5.91    0.78    0.78    0.00   0.10  75.88
sdg               0.00     7.55  161.10  199.50   666.00  1015.60     9.33     1.25    3.47    0.12    6.17   0.08   2.81
sdh               0.00     0.00    0.00    0.00     0.00     0.00     0.00     0.00    0.00    0.00    0.00   0.00   0.00
md0               0.00     0.00 46532.35    0.00 1051501.60     0.00    45.19     0.00    0.00    0.00    0.00   0.00   0.00

