Linux 4.17.2 (bench) 	08/03/2018 	_x86_64_	(4 CPU)

avg-cpu:  %user   %nice %system %iowait  %steal   %idle
          10.28    0.02    4.05    2.54    0.00   83.11

Device:         rrqm/s   wrqm/s     r/s     w/s    rkB/s    wkB/s avgrq-sz avgqu-sz   await r_await w_await  svctm  %util
sda              44.30     4.25 1643.21  102.75 20857.88  3135.60    27.48     1.03    0.59    0.26    5.91   0.06  10.68
sdb              44.18     4.21 1643.13  102.89 20847.29  3132.25    27.47     1.03    0.59    0.26    5.85   0.06  10.56
sdc              82.15     4.27 1603.07  102.44 20839.44  3134.72    28.11     1.45    0.85    0.45    7.12   0.08  14.01
sdd              75.55     4.23 1608.84  102.51 20824.26  3130.91    28.00     1.46    0.85    0.44    7.32   0.08  14.10
sde              77.59     4.28 1613.92  102.61 20884.24  3135.16    27.99     1.48    0.86    0.44    7.43   0.08  14.12
sdf              74.70     4.25 1616.08  102.55 20865.44  3132.02    27.93     1.52    0.88    0.44    7.90   0.08  14.15
sdg               0.00     3.17   26.19   73.30   323.48   391.94    14.38     0.44    4.42    0.20    5.93   0.08   0.78
sdh               0.00     0.13    0.02    0.24     2.22     5.07    56.82     0.00    1.15    0.65    1.19   0.21   0.01
md0               0.00     0.00 10133.23  481.37 142831.64 21470.11    30.96     0.00    0.00    0.00    0.00   0.00   0.00

avg-cpu:  %user   %nice %system %iowait  %steal   %idle
           0.25    0.00    2.78    7.59    0.00   89.37

Device:         rrqm/s   wrqm/s     r/s     w/s    rkB/s    wkB/s avgrq-sz avgqu-sz   await r_await w_await  svctm  %util
sda              71.00     0.00  523.00    0.00 71620.00     0.00   273.88     0.31    0.60    0.60    0.00   0.51  26.50
sdb              78.00     0.00  540.00    0.00 71584.00     0.00   265.13     0.29    0.54    0.54    0.00   0.45  24.10
sdc              65.00     0.00  590.00    0.00 74116.00     0.00   251.24     0.47    0.79    0.79    0.00   0.62  36.30
sdd              78.00     0.00  523.00    0.00 73144.00     0.00   279.71     0.45    0.86    0.86    0.00   0.71  37.20
sde              71.00     0.00  580.00    0.00 74728.00     0.00   257.68     0.48    0.82    0.82    0.00   0.66  38.50
sdf              67.00     0.00  591.00    0.00 72552.00     0.00   245.52     0.45    0.77    0.77    0.00   0.61  35.90
sdg               0.00     0.00    0.00    0.00     0.00     0.00     0.00     0.00    0.00    0.00    0.00   0.00   0.00
sdh               0.00     0.00    0.00    0.00     0.00     0.00     0.00     0.00    0.00    0.00    0.00   0.00   0.00
md0               0.00     0.00 3779.00    0.00 608984.00     0.00   322.30     0.00    0.00    0.00    0.00   0.00   0.00

avg-cpu:  %user   %nice %system %iowait  %steal   %idle
           0.50    0.00    3.01    1.00    0.00   95.49

Device:         rrqm/s   wrqm/s     r/s     w/s    rkB/s    wkB/s avgrq-sz avgqu-sz   await r_await w_await  svctm  %util
sda             104.00     0.00  540.00    0.00 85496.00     0.00   316.65     0.37    0.68    0.68    0.00   0.53  28.40
sdb             108.00     0.00  504.00    0.00 86604.00     0.00   343.67     0.35    0.69    0.69    0.00   0.56  28.10
sdc             103.00     0.00  516.00    0.00 83628.00     0.00   324.14     0.56    1.09    1.09    0.00   0.80  41.50
sdd             102.00     0.00  536.00    0.00 85208.00     0.00   317.94     0.58    1.09    1.09    0.00   0.80  42.80
sde             101.00     0.00  523.00    0.00 84600.00     0.00   323.52     0.56    1.08    1.08    0.00   0.80  42.00
sdf             102.00     0.00  508.00    0.00 81436.00     0.00   320.61     0.55    1.07    1.07    0.00   0.82  41.50
sdg               0.00     0.00    0.00    0.00     0.00     0.00     0.00     0.00    0.00    0.00    0.00   0.00   0.00
sdh               0.00     0.00    0.00    0.00     0.00     0.00     0.00     0.00    0.00    0.00    0.00   0.00   0.00
md0               0.00     0.00 3746.00    0.00 714804.00     0.00   381.64     0.00    0.00    0.00    0.00   0.00   0.00

avg-cpu:  %user   %nice %system %iowait  %steal   %idle
           0.25    0.00    2.78    1.01    0.00   95.96

Device:         rrqm/s   wrqm/s     r/s     w/s    rkB/s    wkB/s avgrq-sz avgqu-sz   await r_await w_await  svctm  %util
sda             100.00     0.00  547.00    0.00 86076.00     0.00   314.72     0.41    0.75    0.75    0.00   0.55  30.20
sdb             107.00     0.00  517.00    0.00 82956.00     0.00   320.91     0.38    0.73    0.73    0.00   0.52  26.90
sdc             101.00     0.00  536.00    0.00 85576.00     0.00   319.31     0.61    1.15    1.15    0.00   0.79  42.30
sdd              99.00     0.00  510.00    0.00 80540.00     0.00   315.84     0.58    1.13    1.13    0.00   0.80  40.80
sde              99.00     0.00  556.00    0.00 82584.00     0.00   297.06     0.59    1.06    1.06    0.00   0.75  41.60
sdf              99.00     0.00  535.00    0.00 81176.00     0.00   303.46     0.58    1.09    1.09    0.00   0.78  41.70
sdg               0.00     0.00    0.00    0.00     0.00     0.00     0.00     0.00    0.00    0.00    0.00   0.00   0.00
sdh               0.00     0.00    0.00    0.00     0.00     0.00     0.00     0.00    0.00    0.00    0.00   0.00   0.00
md0               0.00     0.00 3805.00    0.00 688608.00     0.00   361.95     0.00    0.00    0.00    0.00   0.00   0.00

