Linux 4.17.2 (bench) 	08/03/2018 	_x86_64_	(4 CPU)

avg-cpu:  %user   %nice %system %iowait  %steal   %idle
          10.29    0.02    4.02    2.49    0.00   83.19

Device:         rrqm/s   wrqm/s     r/s     w/s    rkB/s    wkB/s avgrq-sz avgqu-sz   await r_await w_await  svctm  %util
sda              41.63     4.26 1623.47  103.17 20760.00  3148.33    27.69     1.03    0.59    0.26    5.91   0.06  10.59
sdb              41.52     4.22 1623.36  103.31 20749.42  3144.97    27.68     1.03    0.59    0.26    5.85   0.06  10.47
sdc              79.54     4.28 1583.26  102.86 20741.60  3147.45    28.34     1.44    0.86    0.45    7.12   0.08  13.91
sdd              72.91     4.25 1589.06  102.93 20726.35  3143.62    28.22     1.45    0.86    0.44    7.32   0.08  14.00
sde              74.97     4.30 1594.17  103.02 20786.72  3147.90    28.20     1.47    0.87    0.44    7.43   0.08  14.03
sdf              72.07     4.27 1596.34  102.97 20767.77  3144.74    28.14     1.52    0.89    0.44    7.90   0.08  14.06
sdg               0.00     3.18   26.04   73.33   322.90   391.99    14.39     0.44    4.43    0.20    5.93   0.08   0.78
sdh               0.00     0.13    0.02    0.24     2.22     5.09    56.82     0.00    1.15    0.65    1.19   0.21   0.01
md0               0.00     0.00 9998.59  483.32 142170.60 21557.31    31.24     0.00    0.00    0.00    0.00   0.00   0.00

avg-cpu:  %user   %nice %system %iowait  %steal   %idle
           0.76    0.00   15.78    4.58    0.00   78.88

Device:         rrqm/s   wrqm/s     r/s     w/s    rkB/s    wkB/s avgrq-sz avgqu-sz   await r_await w_await  svctm  %util
sda            4816.00     0.00 10318.00    0.00 61056.00     0.00    11.83     3.86    0.37    0.37    0.00   0.02  22.20
sdb            4474.00     0.00 10948.00    0.00 61984.00     0.00    11.32     3.84    0.35    0.35    0.00   0.02  22.10
sdc            4666.00     0.00 10466.00    0.00 61104.00     0.00    11.68     4.52    0.43    0.43    0.00   0.03  31.30
sdd            4187.00     0.00 10467.00    0.00 59076.00     0.00    11.29     4.78    0.46    0.46    0.00   0.03  31.40
sde            4308.00     0.00 10899.00    0.00 61216.00     0.00    11.23     5.43    0.50    0.50    0.00   0.03  31.80
sdf            4777.00     0.00 10928.00    0.00 63304.00     0.00    11.59     5.51    0.50    0.50    0.00   0.03  33.80
sdg               0.00     0.00    0.00    4.00     0.00   124.00    62.00     0.00    0.75    0.00    0.75   0.25   0.10
sdh               0.00     0.00    0.00    0.00     0.00     0.00     0.00     0.00    0.00    0.00    0.00   0.00   0.00
md0               0.00     0.00 91947.00    0.00 367788.00     0.00     8.00     0.00    0.00    0.00    0.00   0.00   0.00

avg-cpu:  %user   %nice %system %iowait  %steal   %idle
           0.77    0.00   15.09    1.53    0.00   82.61

Device:         rrqm/s   wrqm/s     r/s     w/s    rkB/s    wkB/s avgrq-sz avgqu-sz   await r_await w_await  svctm  %util
sda            4376.00     0.00 10702.00    0.00 60664.00     0.00    11.34     3.61    0.34    0.34    0.00   0.02  21.10
sdb            4782.00     0.00 10470.00    0.00 61608.00     0.00    11.77     3.83    0.37    0.37    0.00   0.02  22.70
sdc            4748.00     0.00 10447.00    0.00 61176.00     0.00    11.71     4.87    0.47    0.47    0.00   0.03  30.70
sdd            4515.00     0.00 10791.00    0.00 61632.00     0.00    11.42     4.99    0.46    0.46    0.00   0.03  32.40
sde            4508.00     0.00 10480.00    0.00 60380.00     0.00    11.52     4.46    0.43    0.43    0.00   0.03  29.70
sdf            4505.00     0.00 10626.00    0.00 60740.00     0.00    11.43     4.99    0.47    0.47    0.00   0.03  32.20
sdg               0.00     0.00    0.00    0.00     0.00     0.00     0.00     0.00    0.00    0.00    0.00   0.00   0.00
sdh               0.00     0.00    0.00    0.00     0.00     0.00     0.00     0.00    0.00    0.00    0.00   0.00   0.00
md0               0.00     0.00 91498.00    0.00 365992.00     0.00     8.00     0.00    0.00    0.00    0.00   0.00   0.00

