Linux 4.17.2 (bench) 	08/03/2018 	_x86_64_	(4 CPU)

avg-cpu:  %user   %nice %system %iowait  %steal   %idle
          10.29    0.02    4.02    2.49    0.00   83.19

Device:         rrqm/s   wrqm/s     r/s     w/s    rkB/s    wkB/s avgrq-sz avgqu-sz   await r_await w_await  svctm  %util
sda              41.54     4.26 1622.26  103.19 20744.41  3148.98    27.70     1.03    0.59    0.26    5.91   0.06  10.59
sdb              41.43     4.22 1622.15  103.33 20733.84  3145.62    27.68     1.03    0.59    0.26    5.85   0.06  10.47
sdc              79.46     4.28 1582.04  102.88 20726.03  3148.10    28.34     1.44    0.86    0.45    7.12   0.08  13.90
sdd              72.82     4.25 1587.84  102.95 20710.76  3144.27    28.22     1.45    0.86    0.44    7.32   0.08  14.00
sde              74.89     4.30 1592.95  103.05 20771.16  3148.54    28.21     1.47    0.87    0.44    7.43   0.08  14.02
sdf              71.98     4.27 1595.12  102.99 20752.21  3145.38    28.15     1.52    0.89    0.44    7.90   0.08  14.05
sdg               0.00     3.18   26.03   73.33   322.83   391.96    14.39     0.44    4.43    0.20    5.93   0.08   0.78
sdh               0.00     0.13    0.02    0.24     2.23     5.10    56.82     0.00    1.15    0.65    1.19   0.21   0.01
md0               0.00     0.00 9990.77  483.42 142048.26 21561.73    31.24     0.00    0.00    0.00    0.00   0.00   0.00

avg-cpu:  %user   %nice %system %iowait  %steal   %idle
           2.26    0.25   31.33   42.61    0.00   23.56

Device:         rrqm/s   wrqm/s     r/s     w/s    rkB/s    wkB/s avgrq-sz avgqu-sz   await r_await w_await  svctm  %util
sda               0.00     0.00 15789.00    0.00 82308.00     0.00    10.43     2.47    0.16    0.16    0.00   0.04  61.90
sdb               0.00     0.00 15947.00    0.00 83412.00     0.00    10.46     2.46    0.15    0.15    0.00   0.04  61.00
sdc               1.00     0.00 15935.00    0.00 85080.00     0.00    10.68     3.09    0.19    0.19    0.00   0.04  71.30
sdd               2.00     0.00 15797.00    0.00 84608.00     0.00    10.71     3.05    0.19    0.19    0.00   0.04  69.60
sde               0.00     0.00 15985.00    0.00 83848.00     0.00    10.49     3.08    0.19    0.19    0.00   0.04  70.50
sdf               0.00     0.00 15666.00    0.00 81228.00     0.00    10.37     3.00    0.19    0.19    0.00   0.04  69.60
sdg               0.00    19.00   38.00   75.00   440.00  1292.00    30.65     0.17    1.48    0.13    2.16   0.10   1.10
sdh               0.00     0.00    0.00    0.00     0.00     0.00     0.00     0.00    0.00    0.00    0.00   0.00   0.00
md0               0.00     0.00 95129.00    0.00 505392.00     0.00    10.63     0.00    0.00    0.00    0.00   0.00   0.00

