Linux 4.17.2 (bench) 	08/03/2018 	_x86_64_	(4 CPU)

avg-cpu:  %user   %nice %system %iowait  %steal   %idle
          10.28    0.02    4.05    2.54    0.00   83.11

Device:         rrqm/s   wrqm/s     r/s     w/s    rkB/s    wkB/s avgrq-sz avgqu-sz   await r_await w_await  svctm  %util
sda              44.30     4.24 1643.80  102.73 20865.17  3135.01    27.48     1.03    0.59    0.26    5.91   0.06  10.68
sdb              44.18     4.20 1643.72  102.87 20854.56  3131.67    27.47     1.03    0.59    0.26    5.85   0.06  10.56
sdc              82.14     4.26 1603.67  102.42 20846.70  3134.14    28.11     1.45    0.85    0.45    7.12   0.08  14.01
sdd              75.54     4.23 1609.44  102.49 20831.54  3130.33    27.99     1.46    0.85    0.44    7.32   0.08  14.10
sde              77.58     4.28 1614.52  102.59 20891.53  3134.58    27.98     1.48    0.86    0.44    7.43   0.08  14.13
sdf              74.69     4.25 1616.68  102.53 20872.73  3131.44    27.92     1.52    0.88    0.44    7.90   0.08  14.16
sdg               0.00     3.17   26.19   73.30   323.50   391.94    14.38     0.44    4.42    0.20    5.93   0.08   0.78
sdh               0.00     0.13    0.02    0.24     2.22     5.07    56.82     0.00    1.15    0.65    1.19   0.21   0.01
md0               0.00     0.00 10136.79  481.28 142888.64 21466.12    30.96     0.00    0.00    0.00    0.00   0.00   0.00

avg-cpu:  %user   %nice %system %iowait  %steal   %idle
           1.75    0.00   20.30    3.76    0.00   74.19

Device:         rrqm/s   wrqm/s     r/s     w/s    rkB/s    wkB/s avgrq-sz avgqu-sz   await r_await w_await  svctm  %util
sda               0.00     0.00 11894.00    0.00 47576.00     0.00     8.00     1.33    0.11    0.11    0.00   0.02  22.30
sdb               0.00     0.00 11689.00    0.00 46756.00     0.00     8.00     1.68    0.14    0.14    0.00   0.02  26.80
sdc               0.00     0.00 11830.00    0.00 47320.00     0.00     8.00     2.46    0.21    0.21    0.00   0.03  36.40
sdd               0.00     0.00 11773.00    0.00 47092.00     0.00     8.00     2.42    0.21    0.21    0.00   0.03  39.60
sde               0.00     0.00 11856.00    0.00 47424.00     0.00     8.00     2.32    0.20    0.20    0.00   0.03  36.40
sdf               0.00     0.00 11846.00    0.00 47384.00     0.00     8.00     1.82    0.15    0.15    0.00   0.03  30.90
sdg               0.00     0.00   19.00    0.00   176.00     0.00    18.53     0.00    0.16    0.16    0.00   0.11   0.20
sdh               0.00     0.00    0.00    0.00     0.00     0.00     0.00     0.00    0.00    0.00    0.00   0.00   0.00
md0               0.00     0.00 70913.00    0.00 283652.00     0.00     8.00     0.00    0.00    0.00    0.00   0.00   0.00

avg-cpu:  %user   %nice %system %iowait  %steal   %idle
           1.76    0.00   19.14    3.78    0.00   75.31

Device:         rrqm/s   wrqm/s     r/s     w/s    rkB/s    wkB/s avgrq-sz avgqu-sz   await r_await w_await  svctm  %util
sda               0.00     0.00 11884.00    0.00 47536.00     0.00     8.00     2.00    0.17    0.17    0.00   0.03  31.60
sdb               0.00     0.00 12015.00    0.00 48060.00     0.00     8.00     2.11    0.18    0.18    0.00   0.03  30.70
sdc               0.00     0.00 12096.00    0.00 48384.00     0.00     8.00     2.43    0.20    0.20    0.00   0.03  36.90
sdd               0.00     0.00 12154.00    0.00 48616.00     0.00     8.00     2.36    0.19    0.19    0.00   0.03  36.50
sde               0.00     0.00 12174.00    0.00 48696.00     0.00     8.00     2.24    0.18    0.18    0.00   0.03  33.50
sdf               0.00     0.00 12139.00    0.00 48556.00     0.00     8.00     2.17    0.18    0.18    0.00   0.03  34.00
sdg               0.00     0.00    0.00    0.00     0.00     0.00     0.00     0.00    0.00    0.00    0.00   0.00   0.00
sdh               0.00     0.00    0.00    0.00     0.00     0.00     0.00     0.00    0.00    0.00    0.00   0.00   0.00
md0               0.00     0.00 72466.00    0.00 289864.00     0.00     8.00     0.00    0.00    0.00    0.00   0.00   0.00

avg-cpu:  %user   %nice %system %iowait  %steal   %idle
           1.27    0.00   19.75    3.29    0.00   75.70

Device:         rrqm/s   wrqm/s     r/s     w/s    rkB/s    wkB/s avgrq-sz avgqu-sz   await r_await w_await  svctm  %util
sda               0.00     0.00 12499.00    0.00 49996.00     0.00     8.00     1.76    0.14    0.14    0.00   0.02  27.90
sdb               0.00     0.00 12485.00    0.00 49940.00     0.00     8.00     1.79    0.14    0.14    0.00   0.02  26.50
sdc               0.00     0.00 12479.00    0.00 49916.00     0.00     8.00     2.47    0.20    0.20    0.00   0.03  36.20
sdd               0.00     0.00 12653.00    0.00 50612.00     0.00     8.00     2.63    0.21    0.21    0.00   0.03  39.50
sde               0.00     0.00 12605.00    0.00 50420.00     0.00     8.00     2.68    0.21    0.21    0.00   0.03  36.30
sdf               0.00     0.00 12477.00    0.00 49908.00     0.00     8.00     2.45    0.20    0.20    0.00   0.03  35.50
sdg               0.00     0.00    0.00    0.00     0.00     0.00     0.00     0.00    0.00    0.00    0.00   0.00   0.00
sdh               0.00     0.00    0.00    0.00     0.00     0.00     0.00     0.00    0.00    0.00    0.00   0.00   0.00
md0               0.00     0.00 75195.00    0.00 300780.00     0.00     8.00     0.00    0.00    0.00    0.00   0.00   0.00

avg-cpu:  %user   %nice %system %iowait  %steal   %idle
           1.53    0.00   19.34    4.07    0.00   75.06

Device:         rrqm/s   wrqm/s     r/s     w/s    rkB/s    wkB/s avgrq-sz avgqu-sz   await r_await w_await  svctm  %util
sda               0.00     0.00 12710.00    0.00 50840.00     0.00     8.00     1.96    0.15    0.15    0.00   0.02  28.80
sdb               0.00     0.00 12703.00    0.00 50812.00     0.00     8.00     1.98    0.16    0.16    0.00   0.02  29.40
sdc               0.00     0.00 12445.00    0.00 49780.00     0.00     8.00     2.46    0.20    0.20    0.00   0.03  34.90
sdd               0.00     0.00 12462.00    0.00 49848.00     0.00     8.00     2.51    0.20    0.20    0.00   0.03  34.60
sde               0.00     0.00 12752.00    0.00 51008.00     0.00     8.00     2.38    0.19    0.19    0.00   0.03  35.20
sdf               0.00     0.00 12465.00    0.00 49860.00     0.00     8.00     2.11    0.17    0.17    0.00   0.03  33.70
sdg               0.00     0.00    0.00    0.00     0.00     0.00     0.00     0.00    0.00    0.00    0.00   0.00   0.00
sdh               0.00     0.00    0.00    0.00     0.00     0.00     0.00     0.00    0.00    0.00    0.00   0.00   0.00
md0               0.00     0.00 75532.00    0.00 302128.00     0.00     8.00     0.00    0.00    0.00    0.00   0.00   0.00

avg-cpu:  %user   %nice %system %iowait  %steal   %idle
           1.74    0.00   20.84    3.97    0.00   73.45

Device:         rrqm/s   wrqm/s     r/s     w/s    rkB/s    wkB/s avgrq-sz avgqu-sz   await r_await w_await  svctm  %util
sda               0.00     0.00 12490.00    0.00 49960.00     0.00     8.00     1.71    0.14    0.14    0.00   0.02  26.40
sdb               0.00     0.00 12334.00    0.00 49336.00     0.00     8.00     1.81    0.15    0.15    0.00   0.02  28.30
sdc               0.00     0.00 12484.00    0.00 49936.00     0.00     8.00     2.32    0.19    0.19    0.00   0.03  33.60
sdd               0.00     0.00 12412.00    0.00 49648.00     0.00     8.00     2.43    0.20    0.20    0.00   0.03  35.20
sde               0.00     0.00 12305.00    0.00 49220.00     0.00     8.00     2.49    0.20    0.20    0.00   0.03  35.30
sdf               0.00     0.00 12549.00    0.00 50196.00     0.00     8.00     2.31    0.18    0.18    0.00   0.03  35.80
sdg               0.00     0.00    0.00    0.00     0.00     0.00     0.00     0.00    0.00    0.00    0.00   0.00   0.00
sdh               0.00     0.00    0.00    0.00     0.00     0.00     0.00     0.00    0.00    0.00    0.00   0.00   0.00
md0               0.00     0.00 74560.00    0.00 298240.00     0.00     8.00     0.00    0.00    0.00    0.00   0.00   0.00

avg-cpu:  %user   %nice %system %iowait  %steal   %idle
           1.50    0.00   20.50    3.75    0.00   74.25

Device:         rrqm/s   wrqm/s     r/s     w/s    rkB/s    wkB/s avgrq-sz avgqu-sz   await r_await w_await  svctm  %util
sda               0.00     0.00 12130.00    0.00 48520.00     0.00     8.00     1.75    0.14    0.14    0.00   0.02  28.30
sdb               0.00     0.00 12085.00    0.00 48340.00     0.00     8.00     1.61    0.13    0.13    0.00   0.02  26.10
sdc               0.00     0.00 12081.00    0.00 48324.00     0.00     8.00     2.18    0.18    0.18    0.00   0.03  33.60
sdd               0.00     0.00 12093.00    0.00 48372.00     0.00     8.00     2.65    0.22    0.22    0.00   0.03  38.30
sde               0.00     0.00 12026.00    0.00 48104.00     0.00     8.00     2.49    0.21    0.21    0.00   0.03  39.30
sdf               0.00     0.00 12073.00    0.00 48292.00     0.00     8.00     2.07    0.17    0.17    0.00   0.03  34.10
sdg               0.00     0.00    4.00    4.00    16.00    16.00     8.00     0.00    0.00    0.00    0.00   0.00   0.00
sdh               0.00     0.00    0.00    0.00     0.00     0.00     0.00     0.00    0.00    0.00    0.00   0.00   0.00
md0               0.00     0.00 72499.00    0.00 289996.00     0.00     8.00     0.00    0.00    0.00    0.00   0.00   0.00

avg-cpu:  %user   %nice %system %iowait  %steal   %idle
           2.01    0.00   18.84    3.77    0.00   75.38

Device:         rrqm/s   wrqm/s     r/s     w/s    rkB/s    wkB/s avgrq-sz avgqu-sz   await r_await w_await  svctm  %util
sda               0.00     0.00 11393.00    0.00 45572.00     0.00     8.00     1.50    0.13    0.13    0.00   0.02  27.70
sdb               0.00     0.00 11574.00    0.00 46296.00     0.00     8.00     1.79    0.16    0.16    0.00   0.03  31.10
sdc               0.00     0.00 11445.00    0.00 45780.00     0.00     8.00     2.20    0.19    0.19    0.00   0.03  36.20
sdd               0.00     0.00 11264.00    0.00 45056.00     0.00     8.00     1.94    0.17    0.17    0.00   0.03  33.90
sde               0.00     0.00 11580.00    0.00 46320.00     0.00     8.00     1.84    0.16    0.16    0.00   0.03  31.80
sdf               0.00     0.00 11476.00    0.00 45904.00     0.00     8.00     1.81    0.16    0.16    0.00   0.03  32.60
sdg               0.00     0.00    0.00    0.00     0.00     0.00     0.00     0.00    0.00    0.00    0.00   0.00   0.00
sdh               0.00     0.00    0.00    0.00     0.00     0.00     0.00     0.00    0.00    0.00    0.00   0.00   0.00
md0               0.00     0.00 68719.00    0.00 274876.00     0.00     8.00     0.00    0.00    0.00    0.00   0.00   0.00

avg-cpu:  %user   %nice %system %iowait  %steal   %idle
           1.79    0.00   17.90    4.09    0.00   76.21

Device:         rrqm/s   wrqm/s     r/s     w/s    rkB/s    wkB/s avgrq-sz avgqu-sz   await r_await w_await  svctm  %util
sda               0.00     0.00 11881.00    0.00 47524.00     0.00     8.00     1.55    0.13    0.13    0.00   0.02  27.70
sdb               0.00     0.00 11822.00    0.00 47288.00     0.00     8.00     1.66    0.14    0.14    0.00   0.02  29.30
sdc               0.00     0.00 11862.00    0.00 47448.00     0.00     8.00     2.17    0.18    0.18    0.00   0.03  34.80
sdd               0.00     0.00 11952.00    0.00 47808.00     0.00     8.00     2.04    0.17    0.17    0.00   0.03  35.60
sde               0.00     0.00 11686.00    0.00 46744.00     0.00     8.00     2.27    0.19    0.19    0.00   0.03  36.40
sdf               0.00     0.00 11752.00    0.00 47008.00     0.00     8.00     2.17    0.19    0.19    0.00   0.03  36.20
sdg               0.00     0.00    0.00    0.00     0.00     0.00     0.00     0.00    0.00    0.00    0.00   0.00   0.00
sdh               0.00     0.00    0.00    0.00     0.00     0.00     0.00     0.00    0.00    0.00    0.00   0.00   0.00
md0               0.00     0.00 70964.00    0.00 283856.00     0.00     8.00     0.00    0.00    0.00    0.00   0.00   0.00

avg-cpu:  %user   %nice %system %iowait  %steal   %idle
           1.53    0.00   18.58    3.82    0.00   76.08

Device:         rrqm/s   wrqm/s     r/s     w/s    rkB/s    wkB/s avgrq-sz avgqu-sz   await r_await w_await  svctm  %util
sda               0.00     0.00 12052.00    0.00 48208.00     0.00     8.00     1.89    0.16    0.16    0.00   0.03  31.40
sdb               0.00     0.00 12030.00    0.00 48120.00     0.00     8.00     1.55    0.13    0.13    0.00   0.02  27.40
sdc               0.00     0.00 11950.00    0.00 47800.00     0.00     8.00     1.91    0.16    0.16    0.00   0.03  33.00
sdd               0.00     0.00 12017.00    0.00 48068.00     0.00     8.00     2.15    0.18    0.18    0.00   0.03  34.80
sde               0.00     0.00 12076.00    0.00 48304.00     0.00     8.00     2.41    0.20    0.20    0.00   0.03  39.00
sdf               0.00     0.00 11886.00    0.00 47544.00     0.00     8.00     2.43    0.20    0.20    0.00   0.03  35.80
sdg               0.00     0.00    0.00    0.00     0.00     0.00     0.00     0.00    0.00    0.00    0.00   0.00   0.00
sdh               0.00     0.00    0.00    0.00     0.00     0.00     0.00     0.00    0.00    0.00    0.00   0.00   0.00
md0               0.00     0.00 72023.00    0.00 288092.00     0.00     8.00     0.00    0.00    0.00    0.00   0.00   0.00

avg-cpu:  %user   %nice %system %iowait  %steal   %idle
           1.99    0.00   20.35    3.72    0.00   73.95

Device:         rrqm/s   wrqm/s     r/s     w/s    rkB/s    wkB/s avgrq-sz avgqu-sz   await r_await w_await  svctm  %util
sda               0.00     0.00 11931.00    0.00 47724.00     0.00     8.00     1.51    0.13    0.13    0.00   0.02  26.00
sdb               0.00     0.00 12215.00    0.00 48860.00     0.00     8.00     1.87    0.15    0.15    0.00   0.02  26.90
sdc               0.00     0.00 11799.00    0.00 47196.00     0.00     8.00     2.11    0.18    0.18    0.00   0.03  32.80
sdd               0.00     0.00 12067.00    0.00 48268.00     0.00     8.00     2.09    0.17    0.17    0.00   0.03  33.50
sde               0.00     0.00 11965.00    0.00 47860.00     0.00     8.00     2.17    0.18    0.18    0.00   0.03  33.50
sdf               0.00     0.00 12040.00    0.00 48160.00     0.00     8.00     2.20    0.18    0.18    0.00   0.03  37.50
sdg               0.00     0.00    0.00    0.00     0.00     0.00     0.00     0.00    0.00    0.00    0.00   0.00   0.00
sdh               0.00     0.00    0.00    0.00     0.00     0.00     0.00     0.00    0.00    0.00    0.00   0.00   0.00
md0               0.00     0.00 72023.00    0.00 288092.00     0.00     8.00     0.00    0.00    0.00    0.00   0.00   0.00

avg-cpu:  %user   %nice %system %iowait  %steal   %idle
           1.51    0.00   20.10    4.52    0.00   73.87

Device:         rrqm/s   wrqm/s     r/s     w/s    rkB/s    wkB/s avgrq-sz avgqu-sz   await r_await w_await  svctm  %util
sda               0.00     0.00 11702.00    0.00 46808.00     0.00     8.00     1.89    0.16    0.16    0.00   0.03  32.30
sdb               0.00     0.00 11786.00    0.00 47144.00     0.00     8.00     1.91    0.16    0.16    0.00   0.03  31.10
sdc               0.00     0.00 11726.00    0.00 46904.00     0.00     8.00     1.95    0.17    0.17    0.00   0.03  34.60
sdd               0.00     0.00 11770.00    0.00 47080.00     0.00     8.00     1.87    0.16    0.16    0.00   0.03  32.90
sde               0.00     0.00 11574.00    0.00 46296.00     0.00     8.00     1.80    0.16    0.16    0.00   0.03  32.90
sdf               0.00     0.00 11841.00    0.00 47364.00     0.00     8.00     2.21    0.19    0.19    0.00   0.03  35.80
sdg               0.00     1.00  340.00    2.00  1360.00    36.00     8.16     0.04    0.12    0.12    0.00   0.12   4.00
sdh               0.00     0.00    0.00    0.00     0.00     0.00     0.00     0.00    0.00    0.00    0.00   0.00   0.00
md0               0.00     0.00 70372.00    0.00 281488.00     0.00     8.00     0.00    0.00    0.00    0.00   0.00   0.00

avg-cpu:  %user   %nice %system %iowait  %steal   %idle
           1.51    0.25   20.10    5.03    0.00   73.12

Device:         rrqm/s   wrqm/s     r/s     w/s    rkB/s    wkB/s avgrq-sz avgqu-sz   await r_await w_await  svctm  %util
sda               0.00     0.00 11002.00    0.00 44008.00     0.00     8.00     1.62    0.15    0.15    0.00   0.03  31.50
sdb               0.00     0.00 11045.00    0.00 44180.00     0.00     8.00     1.50    0.14    0.14    0.00   0.03  28.20
sdc               0.00     0.00 11046.00    0.00 44184.00     0.00     8.00     1.80    0.16    0.16    0.00   0.03  34.40
sdd               0.00     0.00 11142.00    0.00 44568.00     0.00     8.00     1.88    0.17    0.17    0.00   0.03  35.40
sde               0.00     0.00 11088.00    0.00 44352.00     0.00     8.00     1.89    0.17    0.17    0.00   0.03  35.90
sdf               0.00     0.00 10941.00    0.00 43764.00     0.00     8.00     1.93    0.18    0.18    0.00   0.03  36.10
sdg               0.00     0.00  991.00    0.00  3964.00     0.00     8.00     0.12    0.12    0.12    0.00   0.12  12.00
sdh               0.00     0.00    0.00    0.00     0.00     0.00     0.00     0.00    0.00    0.00    0.00   0.00   0.00
md0               0.00     0.00 66262.00    0.00 265048.00     0.00     8.00     0.00    0.00    0.00    0.00   0.00   0.00

avg-cpu:  %user   %nice %system %iowait  %steal   %idle
           1.73    0.00   20.74    3.95    0.00   73.58

Device:         rrqm/s   wrqm/s     r/s     w/s    rkB/s    wkB/s avgrq-sz avgqu-sz   await r_await w_await  svctm  %util
sda               0.00     0.00 11325.00    0.00 45300.00     0.00     8.00     1.35    0.12    0.12    0.00   0.02  26.20
sdb               0.00     0.00 11443.00    0.00 45772.00     0.00     8.00     1.36    0.12    0.12    0.00   0.02  26.10
sdc               0.00     0.00 11464.00    0.00 45856.00     0.00     8.00     1.98    0.17    0.17    0.00   0.03  34.90
sdd               0.00     0.00 11280.00    0.00 45120.00     0.00     8.00     2.27    0.20    0.20    0.00   0.03  38.50
sde               0.00     0.00 11399.00    0.00 45596.00     0.00     8.00     2.09    0.18    0.18    0.00   0.03  36.00
sdf               0.00     0.00 11496.00    0.00 45984.00     0.00     8.00     1.94    0.17    0.17    0.00   0.03  33.00
sdg               0.00     0.00    0.00    0.00     0.00     0.00     0.00     0.00    0.00    0.00    0.00   0.00   0.00
sdh               0.00     0.00    0.00    0.00     0.00     0.00     0.00     0.00    0.00    0.00    0.00   0.00   0.00
md0               0.00     0.00 68421.00    0.00 273684.00     0.00     8.00     0.00    0.00    0.00    0.00   0.00   0.00

avg-cpu:  %user   %nice %system %iowait  %steal   %idle
           2.02    0.00   18.94    3.28    0.00   75.76

Device:         rrqm/s   wrqm/s     r/s     w/s    rkB/s    wkB/s avgrq-sz avgqu-sz   await r_await w_await  svctm  %util
sda               0.00     0.00 11446.00    0.00 45784.00     0.00     8.00     1.72    0.15    0.15    0.00   0.03  32.60
sdb               0.00     0.00 11643.00    0.00 46572.00     0.00     8.00     1.69    0.15    0.15    0.00   0.03  29.50
sdc               0.00     0.00 11638.00    0.00 46552.00     0.00     8.00     1.98    0.17    0.17    0.00   0.03  35.50
sdd               0.00     0.00 11579.00    0.00 46316.00     0.00     8.00     1.71    0.15    0.15    0.00   0.03  30.20
sde               0.00     0.00 11627.00    0.00 46508.00     0.00     8.00     1.81    0.16    0.16    0.00   0.03  31.40
sdf               0.00     0.00 11382.00    0.00 45528.00     0.00     8.00     2.04    0.18    0.18    0.00   0.03  36.10
sdg               0.00     0.00    0.00    0.00     0.00     0.00     0.00     0.00    0.00    0.00    0.00   0.00   0.00
sdh               0.00     0.00    0.00    0.00     0.00     0.00     0.00     0.00    0.00    0.00    0.00   0.00   0.00
md0               0.00     0.00 69315.00    0.00 277260.00     0.00     8.00     0.00    0.00    0.00    0.00   0.00   0.00

avg-cpu:  %user   %nice %system %iowait  %steal   %idle
           1.74    0.00   20.15    3.73    0.00   74.38

Device:         rrqm/s   wrqm/s     r/s     w/s    rkB/s    wkB/s avgrq-sz avgqu-sz   await r_await w_await  svctm  %util
sda               0.00     0.00 11567.00    0.00 46268.00     0.00     8.00     1.69    0.15    0.15    0.00   0.03  29.20
sdb               0.00     0.00 11613.00    0.00 46452.00     0.00     8.00     1.75    0.15    0.15    0.00   0.03  30.70
sdc               0.00     0.00 11742.00    0.00 46968.00     0.00     8.00     2.23    0.19    0.19    0.00   0.03  36.80
sdd               0.00     0.00 11635.00    0.00 46540.00     0.00     8.00     2.00    0.17    0.17    0.00   0.03  35.10
sde               0.00     0.00 11424.00    0.00 45696.00     0.00     8.00     1.92    0.17    0.17    0.00   0.03  33.60
sdf               0.00     0.00 11570.00    0.00 46280.00     0.00     8.00     1.84    0.16    0.16    0.00   0.03  34.10
sdg               0.00     0.00    0.00    0.00     0.00     0.00     0.00     0.00    0.00    0.00    0.00   0.00   0.00
sdh               0.00     0.00    0.00    0.00     0.00     0.00     0.00     0.00    0.00    0.00    0.00   0.00   0.00
md0               0.00     0.00 69557.00    0.00 278228.00     0.00     8.00     0.00    0.00    0.00    0.00   0.00   0.00

avg-cpu:  %user   %nice %system %iowait  %steal   %idle
           2.02    0.00   18.43    4.04    0.00   75.51

Device:         rrqm/s   wrqm/s     r/s     w/s    rkB/s    wkB/s avgrq-sz avgqu-sz   await r_await w_await  svctm  %util
sda               0.00     0.00 11170.00    0.00 44680.00     0.00     8.00     1.33    0.12    0.12    0.00   0.02  26.80
sdb               0.00     0.00 11091.00    0.00 44364.00     0.00     8.00     1.41    0.13    0.13    0.00   0.02  25.70
sdc               0.00     0.00 11024.00    0.00 44096.00     0.00     8.00     1.73    0.16    0.16    0.00   0.03  31.10
sdd               0.00     0.00 10838.00    0.00 43352.00     0.00     8.00     1.82    0.17    0.17    0.00   0.03  36.80
sde               0.00     0.00 10965.00    0.00 43860.00     0.00     8.00     1.96    0.18    0.18    0.00   0.03  35.60
sdf               0.00     0.00 10874.00    0.00 43496.00     0.00     8.00     1.77    0.16    0.16    0.00   0.03  33.00
sdg               0.00     0.00    0.00    0.00     0.00     0.00     0.00     0.00    0.00    0.00    0.00   0.00   0.00
sdh               0.00     0.00    0.00    0.00     0.00     0.00     0.00     0.00    0.00    0.00    0.00   0.00   0.00
md0               0.00     0.00 65955.00    0.00 263820.00     0.00     8.00     0.00    0.00    0.00    0.00   0.00   0.00

avg-cpu:  %user   %nice %system %iowait  %steal   %idle
           2.03    0.00   18.48    4.05    0.00   75.44

Device:         rrqm/s   wrqm/s     r/s     w/s    rkB/s    wkB/s avgrq-sz avgqu-sz   await r_await w_await  svctm  %util
sda               0.00     0.00 10609.00    0.00 42436.00     0.00     8.00     1.45    0.14    0.14    0.00   0.03  29.20
sdb               0.00     0.00 10588.00    0.00 42352.00     0.00     8.00     1.38    0.13    0.13    0.00   0.03  31.20
sdc               0.00     0.00 10572.00    0.00 42288.00     0.00     8.00     1.70    0.16    0.16    0.00   0.03  34.20
sdd               0.00     0.00 10604.00    0.00 42416.00     0.00     8.00     1.62    0.15    0.15    0.00   0.03  33.20
sde               0.00     0.00 10528.00    0.00 42112.00     0.00     8.00     1.56    0.15    0.15    0.00   0.03  31.80
sdf               0.00     0.00 10320.00    0.00 41280.00     0.00     8.00     1.51    0.15    0.15    0.00   0.03  32.90
sdg               0.00     0.00    1.00    8.00    16.00   156.00    38.22     0.01    0.78    0.00    0.88   0.11   0.10
sdh               0.00     0.00    0.00    0.00     0.00     0.00     0.00     0.00    0.00    0.00    0.00   0.00   0.00
md0               0.00     0.00 63218.00    0.00 252872.00     0.00     8.00     0.00    0.00    0.00    0.00   0.00   0.00

avg-cpu:  %user   %nice %system %iowait  %steal   %idle
           1.74    0.00   20.10    3.97    0.00   74.19

Device:         rrqm/s   wrqm/s     r/s     w/s    rkB/s    wkB/s avgrq-sz avgqu-sz   await r_await w_await  svctm  %util
sda               0.00     0.00 10983.00    0.00 43932.00     0.00     8.00     1.57    0.14    0.14    0.00   0.03  31.00
sdb               0.00     0.00 10960.00    0.00 43840.00     0.00     8.00     1.34    0.12    0.12    0.00   0.02  27.00
sdc               0.00     0.00 10999.00    0.00 43996.00     0.00     8.00     1.70    0.16    0.16    0.00   0.03  34.50
sdd               0.00     0.00 10943.00    0.00 43772.00     0.00     8.00     1.81    0.17    0.17    0.00   0.03  34.60
sde               0.00     0.00 11174.00    0.00 44696.00     0.00     8.00     1.89    0.17    0.17    0.00   0.03  35.60
sdf               0.00     0.00 10930.00    0.00 43720.00     0.00     8.00     1.76    0.16    0.16    0.00   0.03  34.00
sdg               0.00     0.00    0.00    0.00     0.00     0.00     0.00     0.00    0.00    0.00    0.00   0.00   0.00
sdh               0.00     0.00    0.00    0.00     0.00     0.00     0.00     0.00    0.00    0.00    0.00   0.00   0.00
md0               0.00     0.00 65996.00    0.00 263984.00     0.00     8.00     0.00    0.00    0.00    0.00   0.00   0.00

avg-cpu:  %user   %nice %system %iowait  %steal   %idle
           1.50    0.00   20.20    3.74    0.00   74.56

Device:         rrqm/s   wrqm/s     r/s     w/s    rkB/s    wkB/s avgrq-sz avgqu-sz   await r_await w_await  svctm  %util
sda               0.00     0.00 10929.00    0.00 43716.00     0.00     8.00     1.50    0.14    0.14    0.00   0.03  28.00
sdb               0.00     0.00 10963.00    0.00 43852.00     0.00     8.00     1.40    0.13    0.13    0.00   0.02  27.40
sdc               0.00     0.00 10876.00    0.00 43504.00     0.00     8.00     1.73    0.16    0.16    0.00   0.03  33.00
sdd               0.00     0.00 10987.00    0.00 43948.00     0.00     8.00     1.86    0.17    0.17    0.00   0.03  33.50
sde               0.00     0.00 11058.00    0.00 44232.00     0.00     8.00     1.65    0.15    0.15    0.00   0.03  31.20
sdf               0.00     0.00 11101.00    0.00 44404.00     0.00     8.00     1.88    0.17    0.17    0.00   0.03  37.10
sdg               0.00     0.00    0.00    0.00     0.00     0.00     0.00     0.00    0.00    0.00    0.00   0.00   0.00
sdh               0.00     0.00    0.00    0.00     0.00     0.00     0.00     0.00    0.00    0.00    0.00   0.00   0.00
md0               0.00     0.00 65915.00    0.00 263660.00     0.00     8.00     0.00    0.00    0.00    0.00   0.00   0.00

avg-cpu:  %user   %nice %system %iowait  %steal   %idle
           1.78    0.00   18.32    4.33    0.00   75.57

Device:         rrqm/s   wrqm/s     r/s     w/s    rkB/s    wkB/s avgrq-sz avgqu-sz   await r_await w_await  svctm  %util
sda               0.00     0.00 10922.00    0.00 43688.00     0.00     8.00     1.48    0.14    0.14    0.00   0.03  29.80
sdb               0.00     0.00 11209.00    0.00 44836.00     0.00     8.00     1.58    0.14    0.14    0.00   0.03  30.20
sdc               0.00     0.00 11055.00    0.00 44220.00     0.00     8.00     1.81    0.16    0.16    0.00   0.03  35.00
sdd               0.00     0.00 10987.00    0.00 43948.00     0.00     8.00     1.87    0.17    0.17    0.00   0.03  34.10
sde               0.00     0.00 10939.00    0.00 43756.00     0.00     8.00     1.59    0.15    0.15    0.00   0.03  33.10
sdf               0.00     0.00 10963.00    0.00 43852.00     0.00     8.00     1.85    0.17    0.17    0.00   0.03  34.70
sdg               0.00     0.00    0.00    0.00     0.00     0.00     0.00     0.00    0.00    0.00    0.00   0.00   0.00
sdh               0.00     0.00    0.00    0.00     0.00     0.00     0.00     0.00    0.00    0.00    0.00   0.00   0.00
md0               0.00     0.00 66057.00    0.00 264228.00     0.00     8.00     0.00    0.00    0.00    0.00   0.00   0.00

