type: aio
filename: /mnt/raid/prefetch/prefetch-131072
I/O mode: BUFFERED
workload: SEQUENTIAL
duration: 20
queue size: 128
test mode: TEST
file size: 137438953472
file pages: 33554432
start probability: 0.010
continue probability: 0.900
processed 33792 requests 33587.52 r/s elapsed 1.01
processed 49664 requests 24788.76 r/s elapsed 2.00
processed 65664 requests 21884.66 r/s elapsed 3.00
processed 81536 requests 20356.98 r/s elapsed 4.01
processed 97280 requests 19449.33 r/s elapsed 5.00
processed 113408 requests 18891.53 r/s elapsed 6.00
processed 128640 requests 18361.11 r/s elapsed 7.01
processed 144896 requests 18109.13 r/s elapsed 8.00
processed 160640 requests 17846.69 r/s elapsed 9.00
processed 177024 requests 17694.29 r/s elapsed 10.00
processed 192128 requests 17447.09 r/s elapsed 11.01
processed 208256 requests 17348.53 r/s elapsed 12.00
processed 224256 requests 17237.13 r/s elapsed 13.01
processed 240256 requests 17149.27 r/s elapsed 14.01
processed 256000 requests 17063.89 r/s elapsed 15.00
processed 272000 requests 16998.84 r/s elapsed 16.00
processed 289024 requests 16996.90 r/s elapsed 17.00
processed 305408 requests 16961.70 r/s elapsed 18.01
processed 322176 requests 16953.03 r/s elapsed 19.00
processed 338560 requests 16922.99 r/s elapsed 20.01
TOTAL: 338560 requests 16922.99 r/s elapsed 20.01
