type: aio
filename: /mnt/raid/prefetch/prefetch-131072
I/O mode: BUFFERED
workload: SEQUENTIAL
duration: 20
queue size: 8
test mode: WARMUP
file size: 137438953472
file pages: 33554432
start probability: 0.100
continue probability: 0.900
processed 141872 requests 141815.84 r/s elapsed 1.00
elapsed 1.00 : warmup interval speed 141815.84 previous 0.00
processed 289520 requests 144736.99 r/s elapsed 2.00
elapsed 2.00 : warmup interval speed 147659.52 previous 141815.84
within 5% of the preceding interval, warmup terminating
TOTAL: 289520 requests 144736.99 r/s elapsed 2.00
