type: fadvise
filename: /mnt/raid/prefetch/prefetch-131072
I/O mode: BUFFERED
workload: SEQUENTIAL
duration: 20
queue size: 8
test mode: TEST
file size: 137438953472
file pages: 33554432
start probability: 0.100
continue probability: 0.500
processed 46440 requests 46439.77 r/s elapsed 1.00
processed 92480 requests 46239.82 r/s elapsed 2.00
processed 136008 requests 45334.85 r/s elapsed 3.00
processed 179520 requests 44879.93 r/s elapsed 4.00
processed 223008 requests 44601.35 r/s elapsed 5.00
processed 266576 requests 44428.47 r/s elapsed 6.00
processed 309984 requests 44282.47 r/s elapsed 7.00
processed 353472 requests 44183.09 r/s elapsed 8.00
processed 397056 requests 44116.59 r/s elapsed 9.00
processed 440440 requests 44043.28 r/s elapsed 10.00
processed 483960 requests 43996.00 r/s elapsed 11.00
processed 527672 requests 43972.65 r/s elapsed 12.00
processed 571024 requests 43924.76 r/s elapsed 13.00
processed 614328 requests 43879.98 r/s elapsed 14.00
processed 657912 requests 43860.48 r/s elapsed 15.00
processed 701352 requests 43834.11 r/s elapsed 16.00
processed 744720 requests 43806.80 r/s elapsed 17.00
processed 788104 requests 43783.22 r/s elapsed 18.00
processed 831472 requests 43761.59 r/s elapsed 19.00
processed 875128 requests 43756.30 r/s elapsed 20.00
TOTAL: 875128 requests 43756.30 r/s elapsed 20.00
