type: fadvise
filename: /mnt/raid/prefetch/prefetch-131072
I/O mode: BUFFERED
workload: SEQUENTIAL
duration: 20
queue size: 8
test mode: TEST
file size: 137438953472
file pages: 33554432
start probability: 0.100
continue probability: 0.100
processed 42880 requests 42876.78 r/s elapsed 1.00
processed 86112 requests 43053.61 r/s elapsed 2.00
processed 127600 requests 42532.94 r/s elapsed 3.00
processed 169000 requests 42248.33 r/s elapsed 4.00
processed 209464 requests 41891.91 r/s elapsed 5.00
processed 250864 requests 41810.23 r/s elapsed 6.00
processed 292272 requests 41752.55 r/s elapsed 7.00
processed 333816 requests 41726.88 r/s elapsed 8.00
processed 372888 requests 41431.36 r/s elapsed 9.00
processed 414192 requests 41418.37 r/s elapsed 10.00
processed 455240 requests 41385.42 r/s elapsed 11.00
processed 496256 requests 41354.21 r/s elapsed 12.00
processed 537760 requests 41366.01 r/s elapsed 13.00
processed 578992 requests 41356.49 r/s elapsed 14.00
processed 617536 requests 41168.63 r/s elapsed 15.00
processed 659000 requests 41187.40 r/s elapsed 16.00
processed 700512 requests 41206.33 r/s elapsed 17.00
processed 741976 requests 41220.71 r/s elapsed 18.00
processed 783432 requests 41233.20 r/s elapsed 19.00
processed 824704 requests 41234.92 r/s elapsed 20.00
TOTAL: 824704 requests 41234.92 r/s elapsed 20.00
