type: fadvise
filename: /mnt/raid/prefetch/prefetch-131072
I/O mode: BUFFERED
workload: SEQUENTIAL
duration: 20
queue size: 1024
test mode: TEST
file size: 137438953472
file pages: 33554432
start probability: 0.100
continue probability: 0.500
processed 199680 requests 199231.93 r/s elapsed 1.00
processed 392192 requests 195667.98 r/s elapsed 2.00
processed 565248 requests 188101.81 r/s elapsed 3.01
processed 737280 requests 184220.47 r/s elapsed 4.00
processed 909312 requests 181850.40 r/s elapsed 5.00
processed 1081344 requests 180206.07 r/s elapsed 6.00
processed 1253376 requests 178901.32 r/s elapsed 7.01
processed 1421312 requests 177656.07 r/s elapsed 8.00
processed 1592320 requests 176884.72 r/s elapsed 9.00
processed 1763328 requests 176270.49 r/s elapsed 10.00
processed 1934336 requests 175795.01 r/s elapsed 11.00
processed 2105344 requests 175426.75 r/s elapsed 12.00
processed 2275328 requests 174992.63 r/s elapsed 13.00
processed 2444288 requests 174545.32 r/s elapsed 14.00
processed 2614272 requests 174244.51 r/s elapsed 15.00
processed 2783232 requests 173945.27 r/s elapsed 16.00
processed 2952192 requests 173658.19 r/s elapsed 17.00
processed 3121152 requests 173390.71 r/s elapsed 18.00
processed 3291136 requests 173207.09 r/s elapsed 19.00
processed 3489792 requests 174479.81 r/s elapsed 20.00
TOTAL: 3489792 requests 174479.81 r/s elapsed 20.00
