type: fadvise
filename: /mnt/raid/prefetch/prefetch-131072
I/O mode: BUFFERED
workload: SEQUENTIAL
duration: 20
queue size: 128
test mode: TEST
file size: 137438953472
file pages: 33554432
start probability: 0.010
continue probability: 0.900
processed 127616 requests 127568.29 r/s elapsed 1.00
processed 258688 requests 129333.78 r/s elapsed 2.00
processed 386176 requests 128720.79 r/s elapsed 3.00
processed 504704 requests 126173.10 r/s elapsed 4.00
processed 625408 requests 125079.60 r/s elapsed 5.00
processed 743168 requests 123836.65 r/s elapsed 6.00
processed 868736 requests 124080.20 r/s elapsed 7.00
processed 993536 requests 124178.59 r/s elapsed 8.00
processed 1117952 requests 124210.55 r/s elapsed 9.00
processed 1243904 requests 124380.88 r/s elapsed 10.00
processed 1369984 requests 124543.43 r/s elapsed 11.00
processed 1496576 requests 124705.83 r/s elapsed 12.00
processed 1622272 requests 124781.98 r/s elapsed 13.00
processed 1748736 requests 124903.45 r/s elapsed 14.00
processed 1874048 requests 124935.27 r/s elapsed 15.00
processed 1999488 requests 124967.42 r/s elapsed 16.00
processed 2125440 requests 125023.32 r/s elapsed 17.00
processed 2252032 requests 125108.29 r/s elapsed 18.00
processed 2376576 requests 125080.53 r/s elapsed 19.00
processed 2492800 requests 124639.28 r/s elapsed 20.00
TOTAL: 2492800 requests 124639.28 r/s elapsed 20.00
