type: POSIX aio
filename: /mnt/raid/prefetch/prefetch-131072
I/O mode: BUFFERED
workload: SEQUENTIAL
duration: 20
threads: 8
queue size: 32
test mode: WARMUP
file size: 137438953472
file pages: 33554432
start probability: 0.100
continue probability: 0.500
processed 24288 requests 24273.63 r/s elapsed 1.00
elapsed 1.00 : warmup interval speed 24273.63 previous 0.00
processed 47392 requests 23680.74 r/s elapsed 2.00
elapsed 2.00 : warmup interval speed 23087.91 previous 24273.63
within 5% of the preceding interval, warmup terminating
TOTAL: 47392 requests 23680.74 r/s elapsed 2.00
