type: POSIX aio
filename: /mnt/raid/prefetch/prefetch-131072
I/O mode: BUFFERED
workload: SEQUENTIAL
duration: 20
threads: 8
queue size: 32
test mode: WARMUP
file size: 137438953472
file pages: 33554432
start probability: 0.100
continue probability: 0.100
processed 11840 requests 11834.58 r/s elapsed 1.00
elapsed 1.00 : warmup interval speed 11834.58 previous 0.00
processed 24224 requests 12098.81 r/s elapsed 2.00
elapsed 2.00 : warmup interval speed 12362.70 previous 11834.58
within 5% of the preceding interval, warmup terminating
TOTAL: 24224 requests 12098.81 r/s elapsed 2.00
