type: POSIX aio
filename: /mnt/raid/prefetch/prefetch-131072
I/O mode: DIRECT
workload: SEQUENTIAL
duration: 20
threads: 8
queue size: 32
test mode: TEST
file size: 137438953472
file pages: 33554432
start probability: 0.010
continue probability: 0.900
processed 13728 requests 13714.96 r/s elapsed 1.00
processed 27520 requests 13757.17 r/s elapsed 2.00
processed 41216 requests 13737.20 r/s elapsed 3.00
processed 54944 requests 13731.76 r/s elapsed 4.00
processed 68544 requests 13702.76 r/s elapsed 5.00
processed 81984 requests 13660.47 r/s elapsed 6.00
processed 95520 requests 13645.32 r/s elapsed 7.00
processed 108960 requests 13616.58 r/s elapsed 8.00
processed 122272 requests 13582.98 r/s elapsed 9.00
processed 136032 requests 13602.01 r/s elapsed 10.00
processed 149792 requests 13617.35 r/s elapsed 11.00
processed 163456 requests 13620.29 r/s elapsed 12.00
processed 177120 requests 13622.18 r/s elapsed 13.00
processed 190560 requests 13611.06 r/s elapsed 14.00
processed 204096 requests 13604.63 r/s elapsed 15.00
processed 217728 requests 13605.96 r/s elapsed 16.00
processed 231264 requests 13603.76 r/s elapsed 17.00
processed 245024 requests 13611.80 r/s elapsed 18.00
processed 258560 requests 13607.58 r/s elapsed 19.00
processed 272320 requests 13615.00 r/s elapsed 20.00
TOTAL: 272320 requests 13615.00 r/s elapsed 20.00
