type: POSIX aio
filename: /mnt/raid/prefetch/prefetch-131072
I/O mode: BUFFERED
workload: RANDOM
duration: 20
threads: 8
queue size: 32
test mode: TEST
file size: 137438953472
file pages: 33554432
processed 9216 requests 9206.12 r/s elapsed 1.00
processed 18432 requests 9209.79 r/s elapsed 2.00
processed 27648 requests 9211.57 r/s elapsed 3.00
processed 36864 requests 9212.61 r/s elapsed 4.00
processed 46080 requests 9211.87 r/s elapsed 5.00
processed 55296 requests 9215.70 r/s elapsed 6.00
processed 64448 requests 9204.77 r/s elapsed 7.00
processed 73600 requests 9199.48 r/s elapsed 8.00
processed 82816 requests 9200.36 r/s elapsed 9.00
processed 91872 requests 9185.19 r/s elapsed 10.00
processed 101024 requests 9181.49 r/s elapsed 11.00
processed 110112 requests 9175.71 r/s elapsed 12.00
processed 119264 requests 9172.20 r/s elapsed 13.00
processed 128480 requests 9176.72 r/s elapsed 14.00
processed 137728 requests 9179.98 r/s elapsed 15.00
processed 146976 requests 9185.31 r/s elapsed 16.00
processed 156224 requests 9188.74 r/s elapsed 17.00
processed 165472 requests 9191.59 r/s elapsed 18.00
processed 174720 requests 9194.55 r/s elapsed 19.00
processed 183840 requests 9191.79 r/s elapsed 20.00
TOTAL: 183840 requests 9191.79 r/s elapsed 20.00
