type: POSIX aio
filename: /mnt/raid/prefetch/prefetch-131072
I/O mode: BUFFERED
workload: SEQUENTIAL
duration: 20
threads: 1
queue size: 1
test mode: WARMUP
file size: 137438953472
file pages: 33554432
start probability: 0.100
continue probability: 0.500
processed 19781 requests 19764.14 r/s elapsed 1.00
elapsed 1.00 : warmup interval speed 19764.14 previous 0.00
processed 44597 requests 22297.69 r/s elapsed 2.00
elapsed 2.00 : warmup interval speed 24835.37 previous 19764.14
processed 66451 requests 22146.78 r/s elapsed 3.00
elapsed 3.00 : warmup interval speed 21845.07 previous 24835.37
within 5% of the preceding interval, warmup terminating
TOTAL: 66451 requests 22146.78 r/s elapsed 3.00
