type: POSIX aio
filename: /mnt/raid/prefetch/prefetch-131072
I/O mode: BUFFERED
workload: SEQUENTIAL
duration: 20
threads: 8
queue size: 128
test mode: TEST
file size: 137438953472
file pages: 33554432
start probability: 0.010
continue probability: 0.900
processed 40448 requests 40107.17 r/s elapsed 1.01
processed 60032 requests 29889.60 r/s elapsed 2.01
processed 78592 requests 26175.19 r/s elapsed 3.00
processed 96896 requests 24221.01 r/s elapsed 4.00
processed 115968 requests 23173.35 r/s elapsed 5.00
processed 135424 requests 22561.92 r/s elapsed 6.00
processed 155392 requests 22179.58 r/s elapsed 7.01
processed 173952 requests 21736.97 r/s elapsed 8.00
processed 192768 requests 21397.51 r/s elapsed 9.01
processed 212480 requests 21237.28 r/s elapsed 10.01
processed 232192 requests 21098.29 r/s elapsed 11.01
processed 250624 requests 20885.31 r/s elapsed 12.00
processed 269312 requests 20709.97 r/s elapsed 13.00
processed 288128 requests 20570.17 r/s elapsed 14.01
processed 307840 requests 20519.58 r/s elapsed 15.00
processed 327808 requests 20475.67 r/s elapsed 16.01
processed 347264 requests 20422.73 r/s elapsed 17.00
processed 366208 requests 20339.25 r/s elapsed 18.00
processed 386432 requests 20336.80 r/s elapsed 19.00
processed 404992 requests 20246.14 r/s elapsed 20.00
TOTAL: 404992 requests 20246.14 r/s elapsed 20.00
