type: POSIX aio
filename: /mnt/raid/prefetch/prefetch-131072
I/O mode: DIRECT
workload: RANDOM
duration: 20
threads: 1
queue size: 128
test mode: TEST
file size: 137438953472
file pages: 33554432
processed 9216 requests 9134.48 r/s elapsed 1.01
processed 18304 requests 9104.94 r/s elapsed 2.01
processed 27136 requests 9033.46 r/s elapsed 3.00
processed 36224 requests 9050.05 r/s elapsed 4.00
processed 45184 requests 9015.32 r/s elapsed 5.01
processed 53888 requests 8976.84 r/s elapsed 6.00
processed 62720 requests 8946.14 r/s elapsed 7.01
processed 71552 requests 8939.80 r/s elapsed 8.00
processed 80256 requests 8916.63 r/s elapsed 9.00
processed 89088 requests 8908.42 r/s elapsed 10.00
processed 98048 requests 8907.13 r/s elapsed 11.01
processed 106752 requests 8895.37 r/s elapsed 12.00
processed 115712 requests 8895.42 r/s elapsed 13.01
processed 124544 requests 8887.35 r/s elapsed 14.01
processed 133248 requests 8878.44 r/s elapsed 15.01
processed 142208 requests 8880.25 r/s elapsed 16.01
processed 151040 requests 8880.01 r/s elapsed 17.01
processed 160000 requests 8883.04 r/s elapsed 18.01
processed 168960 requests 8885.37 r/s elapsed 19.02
processed 177536 requests 8872.51 r/s elapsed 20.01
TOTAL: 177536 requests 8872.51 r/s elapsed 20.01
