type: POSIX aio
filename: /mnt/raid/prefetch/prefetch-131072
I/O mode: BUFFERED
workload: SEQUENTIAL
duration: 20
threads: 1
queue size: 1
test mode: TEST
file size: 137438953472
file pages: 33554432
start probability: 0.100
continue probability: 0.900
processed 70198 requests 70197.30 r/s elapsed 1.00
processed 141019 requests 70509.18 r/s elapsed 2.00
processed 209737 requests 69910.00 r/s elapsed 3.00
processed 269171 requests 67292.62 r/s elapsed 4.00
processed 329158 requests 65831.55 r/s elapsed 5.00
processed 388888 requests 64814.67 r/s elapsed 6.00
processed 449032 requests 64147.36 r/s elapsed 7.00
processed 509436 requests 63679.48 r/s elapsed 8.00
processed 568646 requests 63182.87 r/s elapsed 9.00
processed 630331 requests 63033.08 r/s elapsed 10.00
processed 690220 requests 62747.24 r/s elapsed 11.00
processed 751436 requests 62619.60 r/s elapsed 12.00
processed 811202 requests 62400.10 r/s elapsed 13.00
processed 870614 requests 62186.71 r/s elapsed 14.00
processed 930874 requests 62058.25 r/s elapsed 15.00
processed 988675 requests 61790.33 r/s elapsed 16.00
processed 1049723 requests 61747.83 r/s elapsed 17.00
processed 1110712 requests 61706.18 r/s elapsed 18.00
processed 1170126 requests 61585.55 r/s elapsed 19.00
processed 1231003 requests 61550.11 r/s elapsed 20.00
TOTAL: 1231003 requests 61550.11 r/s elapsed 20.00
