type: POSIX aio
filename: /mnt/raid/prefetch/prefetch-131072
I/O mode: BUFFERED
workload: SEQUENTIAL
duration: 20
threads: 8
queue size: 8
test mode: TEST
file size: 137438953472
file pages: 33554432
start probability: 0.100
continue probability: 0.100
processed 21664 requests 21654.00 r/s elapsed 1.00
processed 34104 requests 17046.30 r/s elapsed 2.00
processed 45488 requests 15161.36 r/s elapsed 3.00
processed 57616 requests 14403.91 r/s elapsed 4.00
processed 68920 requests 13782.90 r/s elapsed 5.00
processed 81232 requests 13536.66 r/s elapsed 6.00
processed 92648 requests 13235.14 r/s elapsed 7.00
processed 104392 requests 13045.58 r/s elapsed 8.00
processed 115768 requests 12863.11 r/s elapsed 9.00
processed 127648 requests 12763.92 r/s elapsed 10.00
processed 138552 requests 12595.12 r/s elapsed 11.00
processed 149920 requests 12493.02 r/s elapsed 12.00
processed 160576 requests 12351.72 r/s elapsed 13.00
processed 172848 requests 12346.07 r/s elapsed 14.00
processed 183776 requests 12251.11 r/s elapsed 15.00
processed 194952 requests 12184.10 r/s elapsed 16.00
processed 206672 requests 12156.79 r/s elapsed 17.00
processed 218360 requests 12130.82 r/s elapsed 18.00
processed 229208 requests 12063.31 r/s elapsed 19.00
processed 240184 requests 12009.04 r/s elapsed 20.00
TOTAL: 240184 requests 12009.04 r/s elapsed 20.00
