type: POSIX aio
filename: /mnt/raid/prefetch/prefetch-131072
I/O mode: BUFFERED
workload: RANDOM
duration: 20
threads: 16
queue size: 1024
test mode: TEST
file size: 137438953472
file pages: 33554432
processed 9216 requests 8912.45 r/s elapsed 1.03
processed 18432 requests 8856.33 r/s elapsed 2.08
processed 26624 requests 8836.62 r/s elapsed 3.01
processed 35840 requests 8809.20 r/s elapsed 4.07
processed 44032 requests 8798.97 r/s elapsed 5.00
processed 53248 requests 8782.80 r/s elapsed 6.06
processed 62464 requests 8780.96 r/s elapsed 7.11
processed 70656 requests 8789.16 r/s elapsed 8.04
processed 79872 requests 8796.82 r/s elapsed 9.08
processed 88064 requests 8805.18 r/s elapsed 10.00
processed 97280 requests 8810.83 r/s elapsed 11.04
processed 106496 requests 8802.42 r/s elapsed 12.10
processed 114688 requests 8812.67 r/s elapsed 13.01
processed 123904 requests 8814.87 r/s elapsed 14.06
processed 133120 requests 8808.03 r/s elapsed 15.11
processed 141312 requests 8805.66 r/s elapsed 16.05
processed 150528 requests 8810.16 r/s elapsed 17.09
processed 158720 requests 8811.53 r/s elapsed 18.01
processed 167936 requests 8814.56 r/s elapsed 19.05
processed 177152 requests 8813.70 r/s elapsed 20.10
TOTAL: 177152 requests 8813.70 r/s elapsed 20.10
