type: pthread aio
filename: /mnt/raid/prefetch/prefetch-131072
I/O mode: DIRECT
workload: RANDOM
duration: 20
threads: 8
queue size: 32
test mode: TEST
file size: 137438953472
file pages: 33554432
processed 54272 requests 54238.91 r/s elapsed 1.00
processed 109344 requests 54665.74 r/s elapsed 2.00
processed 164000 requests 54485.14 r/s elapsed 3.01
processed 218080 requests 54518.43 r/s elapsed 4.00
processed 274272 requests 54847.80 r/s elapsed 5.00
processed 333152 requests 55521.95 r/s elapsed 6.00
processed 392544 requests 56074.12 r/s elapsed 7.00
processed 452096 requests 56508.67 r/s elapsed 8.00
processed 511488 requests 56829.67 r/s elapsed 9.00
processed 570944 requests 57091.05 r/s elapsed 10.00
processed 629984 requests 57268.96 r/s elapsed 11.00
processed 689696 requests 57472.22 r/s elapsed 12.00
processed 749984 requests 57690.94 r/s elapsed 13.00
processed 810432 requests 57885.49 r/s elapsed 14.00
processed 871008 requests 58066.15 r/s elapsed 15.00
processed 931456 requests 58215.19 r/s elapsed 16.00
processed 990432 requests 58260.55 r/s elapsed 17.00
processed 1048704 requests 58035.49 r/s elapsed 18.07
processed 1102688 requests 57877.14 r/s elapsed 19.05
processed 1157568 requests 57665.33 r/s elapsed 20.07
TOTAL: 1157568 requests 57665.33 r/s elapsed 20.07
