type: pthread fadvise
filename: /mnt/raid/prefetch/prefetch-131072
I/O mode: BUFFERED
workload: SEQUENTIAL
duration: 20
threads: 32
queue size: 128
test mode: WARMUP
file size: 137438953472
file pages: 33554432
start probability: 0.100
continue probability: 0.500
processed 189440 requests 189357.25 r/s elapsed 1.00
elapsed 1.00 : warmup interval speed 189357.25 previous 0.00
processed 378752 requests 189122.29 r/s elapsed 2.00
elapsed 2.00 : warmup interval speed 188887.76 previous 189357.25
within 5% of the preceding interval, warmup terminating
TOTAL: 378752 requests 189122.29 r/s elapsed 2.00
