type: pthread fadvise
filename: /mnt/raid/prefetch/prefetch-131072
I/O mode: BUFFERED
workload: SEQUENTIAL
duration: 20
threads: 16
queue size: 32
test mode: WARMUP
file size: 137438953472
file pages: 33554432
start probability: 0.010
continue probability: 0.500
processed 112960 requests 112747.70 r/s elapsed 1.00
elapsed 1.00 : warmup interval speed 112747.70 previous 0.00
processed 226720 requests 113350.76 r/s elapsed 2.00
elapsed 2.00 : warmup interval speed 113956.00 previous 112747.70
within 5% of the preceding interval, warmup terminating
TOTAL: 226720 requests 113350.76 r/s elapsed 2.00
