type: pthread aio
filename: /mnt/raid/prefetch/prefetch-131072
I/O mode: BUFFERED
workload: RANDOM
duration: 20
threads: 1
queue size: 1024
test mode: WARMUP
file size: 137438953472
file pages: 33554432
processed 9216 requests 8847.66 r/s elapsed 1.04
elapsed 1.04 : warmup interval speed 8847.66 previous 0.00
processed 18432 requests 8884.80 r/s elapsed 2.07
elapsed 2.07 : warmup interval speed 8922.24 previous 8847.66
within 5% of the preceding interval, warmup terminating
TOTAL: 18432 requests 8884.80 r/s elapsed 2.07
