type: pthread aio
filename: /mnt/raid/prefetch/prefetch-131072
I/O mode: BUFFERED
workload: RANDOM
duration: 20
threads: 32
queue size: 1024
test mode: TEST
file size: 137438953472
file pages: 33554432
processed 145408 requests 144800.27 r/s elapsed 1.00
processed 289792 requests 144877.17 r/s elapsed 2.00
processed 436224 requests 145074.38 r/s elapsed 3.01
processed 581632 requests 145309.08 r/s elapsed 4.00
processed 727040 requests 145303.82 r/s elapsed 5.00
processed 873472 requests 145465.49 r/s elapsed 6.00
processed 1019904 requests 145615.74 r/s elapsed 7.00
processed 1166336 requests 145705.47 r/s elapsed 8.00
processed 1313792 requests 145871.41 r/s elapsed 9.01
processed 1461248 requests 146053.20 r/s elapsed 10.00
processed 1608704 requests 146178.32 r/s elapsed 11.01
processed 1755136 requests 145668.25 r/s elapsed 12.05
processed 1894400 requests 145349.13 r/s elapsed 13.03
processed 2035712 requests 145122.27 r/s elapsed 14.03
processed 2177024 requests 144768.62 r/s elapsed 15.04
processed 2317312 requests 144587.28 r/s elapsed 16.03
processed 2458624 requests 144497.49 r/s elapsed 17.01
processed 2600960 requests 144426.42 r/s elapsed 18.01
processed 2745344 requests 144472.32 r/s elapsed 19.00
processed 2889728 requests 144268.71 r/s elapsed 20.03
TOTAL: 2889728 requests 144268.71 r/s elapsed 20.03
