type: pthread fadvise
filename: /mnt/raid/prefetch/prefetch-131072
I/O mode: BUFFERED
workload: SEQUENTIAL
duration: 20
threads: 1
queue size: 1
test mode: TEST
file size: 137438953472
file pages: 33554432
start probability: 0.010
continue probability: 0.500
processed 12016 requests 12014.64 r/s elapsed 1.00
processed 24219 requests 12109.35 r/s elapsed 2.00
processed 36328 requests 12028.18 r/s elapsed 3.02
processed 48169 requests 12042.23 r/s elapsed 4.00
processed 60266 requests 12053.03 r/s elapsed 5.00
processed 72318 requests 12033.09 r/s elapsed 6.01
processed 84231 requests 12018.08 r/s elapsed 7.01
processed 96144 requests 12010.51 r/s elapsed 8.00
processed 108094 requests 12003.89 r/s elapsed 9.00
processed 120038 requests 11982.59 r/s elapsed 10.02
processed 131808 requests 11945.53 r/s elapsed 11.03
processed 143346 requests 11919.40 r/s elapsed 12.03
processed 154952 requests 11878.69 r/s elapsed 13.04
processed 166301 requests 11868.03 r/s elapsed 14.01
processed 178020 requests 11857.85 r/s elapsed 15.01
processed 189725 requests 11847.44 r/s elapsed 16.01
processed 201406 requests 11831.16 r/s elapsed 17.02
processed 212960 requests 11820.48 r/s elapsed 18.02
processed 224589 requests 11814.65 r/s elapsed 19.01
processed 236292 requests 11814.49 r/s elapsed 20.00
TOTAL: 236292 requests 11814.49 r/s elapsed 20.00
