type: pthread aio
filename: /mnt/raid/prefetch/prefetch-131072
I/O mode: BUFFERED
workload: SEQUENTIAL
duration: 20
threads: 8
queue size: 8
test mode: WARMUP
file size: 137438953472
file pages: 33554432
start probability: 0.010
continue probability: 0.100
processed 45088 requests 45085.79 r/s elapsed 1.00
elapsed 1.00 : warmup interval speed 45085.79 previous 0.00
processed 90168 requests 44949.49 r/s elapsed 2.01
elapsed 2.01 : warmup interval speed 44813.98 previous 45085.79
within 5% of the preceding interval, warmup terminating
TOTAL: 90168 requests 44949.49 r/s elapsed 2.01
