type: pthread aio
filename: /mnt/raid/prefetch/prefetch-131072
I/O mode: DIRECT
workload: SEQUENTIAL
duration: 20
threads: 1
queue size: 1024
test mode: TEST
file size: 137438953472
file pages: 33554432
start probability: 0.100
continue probability: 0.100
processed 9216 requests 8991.98 r/s elapsed 1.02
processed 18432 requests 8925.13 r/s elapsed 2.07
processed 27648 requests 8973.08 r/s elapsed 3.08
processed 36864 requests 8998.61 r/s elapsed 4.10
processed 46080 requests 9020.03 r/s elapsed 5.11
processed 54272 requests 9030.52 r/s elapsed 6.01
processed 63488 requests 9040.64 r/s elapsed 7.02
processed 72704 requests 9045.15 r/s elapsed 8.04
processed 81920 requests 9049.49 r/s elapsed 9.05
processed 91136 requests 9051.16 r/s elapsed 10.07
processed 100352 requests 9018.93 r/s elapsed 11.13
processed 108544 requests 8990.29 r/s elapsed 12.07
processed 117760 requests 8995.61 r/s elapsed 13.09
processed 126976 requests 9001.00 r/s elapsed 14.11
processed 135168 requests 9002.84 r/s elapsed 15.01
processed 144384 requests 8989.95 r/s elapsed 16.06
processed 153600 requests 8993.92 r/s elapsed 17.08
processed 162816 requests 8997.10 r/s elapsed 18.10
processed 171008 requests 8999.57 r/s elapsed 19.00
processed 180224 requests 9004.19 r/s elapsed 20.02
TOTAL: 180224 requests 9004.19 r/s elapsed 20.02
