type: pthread fadvise
filename: /mnt/raid/prefetch/prefetch-131072
I/O mode: BUFFERED
workload: SEQUENTIAL
duration: 20
threads: 1
queue size: 1024
test mode: TEST
file size: 137438953472
file pages: 33554432
start probability: 0.010
continue probability: 0.100
processed 183296 requests 183007.03 r/s elapsed 1.00
processed 366592 requests 182494.21 r/s elapsed 2.01
processed 548864 requests 182684.66 r/s elapsed 3.00
processed 732160 requests 183035.01 r/s elapsed 4.00
processed 916480 requests 183249.49 r/s elapsed 5.00
processed 1100800 requests 183405.13 r/s elapsed 6.00
processed 1285120 requests 183550.18 r/s elapsed 7.00
processed 1469440 requests 183560.27 r/s elapsed 8.01
processed 1653760 requests 183740.49 r/s elapsed 9.00
processed 1840128 requests 183916.06 r/s elapsed 10.01
processed 2023424 requests 183542.19 r/s elapsed 11.02
processed 2202624 requests 183501.69 r/s elapsed 12.00
processed 2385920 requests 183462.90 r/s elapsed 13.00
processed 2569216 requests 183407.79 r/s elapsed 14.01
processed 2751488 requests 183420.97 r/s elapsed 15.00
processed 2934784 requests 183418.33 r/s elapsed 16.00
processed 3119104 requests 183434.62 r/s elapsed 17.00
processed 3302400 requests 183360.65 r/s elapsed 18.01
processed 3484672 requests 183333.35 r/s elapsed 19.01
processed 3666944 requests 183335.61 r/s elapsed 20.00
TOTAL: 3666944 requests 183335.61 r/s elapsed 20.00
