type: pthread fadvise
filename: /mnt/raid/prefetch/prefetch-131072
I/O mode: BUFFERED
workload: SEQUENTIAL
duration: 20
threads: 1
queue size: 128
test mode: WARMUP
file size: 137438953472
file pages: 33554432
start probability: 0.100
continue probability: 0.100
processed 174208 requests 174166.37 r/s elapsed 1.00
elapsed 1.00 : warmup interval speed 174166.37 previous 0.00
processed 348416 requests 173134.57 r/s elapsed 2.01
elapsed 2.01 : warmup interval speed 172114.91 previous 174166.37
within 5% of the preceding interval, warmup terminating
TOTAL: 348416 requests 173134.57 r/s elapsed 2.01
