type: aio
filename: /mnt/raid/prefetch/prefetch-16384
I/O mode: DIRECT
workload: SEQUENTIAL
duration: 20
queue size: 128
test mode: TEST
file size: 17179869184
file pages: 4194304
start probability: 0.100
continue probability: 0.500
processed 6656 requests 6646.32 r/s elapsed 1.00
processed 12544 requests 6227.77 r/s elapsed 2.01
processed 19200 requests 6372.05 r/s elapsed 3.01
processed 25472 requests 6363.40 r/s elapsed 4.00
processed 31744 requests 6339.86 r/s elapsed 5.01
processed 38016 requests 6320.49 r/s elapsed 6.01
processed 44800 requests 6395.45 r/s elapsed 7.00
processed 51072 requests 6381.76 r/s elapsed 8.00
processed 56832 requests 6305.70 r/s elapsed 9.01
processed 63616 requests 6359.00 r/s elapsed 10.00
processed 69632 requests 6328.47 r/s elapsed 11.00
processed 75648 requests 6300.55 r/s elapsed 12.01
processed 81280 requests 6251.96 r/s elapsed 13.00
processed 87296 requests 6225.54 r/s elapsed 14.02
processed 92928 requests 6189.30 r/s elapsed 15.01
processed 98944 requests 6178.49 r/s elapsed 16.01
processed 105472 requests 6197.37 r/s elapsed 17.02
processed 111744 requests 6203.13 r/s elapsed 18.01
processed 117504 requests 6177.75 r/s elapsed 19.02
processed 124288 requests 6210.77 r/s elapsed 20.01
TOTAL: 124288 requests 6210.77 r/s elapsed 20.01
