type: aio
filename: /mnt/raid/prefetch/prefetch-16384
I/O mode: BUFFERED
workload: SEQUENTIAL
duration: 20
queue size: 8
test mode: TEST
file size: 17179869184
file pages: 4194304
start probability: 0.010
continue probability: 0.900
processed 5352 requests 5342.41 r/s elapsed 1.00
processed 9536 requests 4765.47 r/s elapsed 2.00
processed 13288 requests 4423.99 r/s elapsed 3.00
processed 17520 requests 4379.68 r/s elapsed 4.00
processed 21064 requests 4209.75 r/s elapsed 5.00
processed 25072 requests 4177.09 r/s elapsed 6.00
processed 28328 requests 4042.56 r/s elapsed 7.01
processed 31904 requests 3987.75 r/s elapsed 8.00
processed 35920 requests 3991.04 r/s elapsed 9.00
processed 39824 requests 3979.11 r/s elapsed 10.01
processed 43040 requests 3912.60 r/s elapsed 11.00
processed 47304 requests 3940.17 r/s elapsed 12.01
processed 51672 requests 3974.61 r/s elapsed 13.00
processed 56192 requests 4013.57 r/s elapsed 14.00
processed 59976 requests 3998.25 r/s elapsed 15.00
processed 64624 requests 4036.49 r/s elapsed 16.01
processed 69064 requests 4062.25 r/s elapsed 17.00
processed 73216 requests 4067.44 r/s elapsed 18.00
processed 77416 requests 4072.26 r/s elapsed 19.01
processed 82016 requests 4100.29 r/s elapsed 20.00
TOTAL: 82016 requests 4100.29 r/s elapsed 20.00
