type: aio
filename: /mnt/raid/prefetch/prefetch-16384
I/O mode: BUFFERED
workload: SEQUENTIAL
duration: 20
queue size: 128
test mode: WARMUP
file size: 17179869184
file pages: 4194304
start probability: 0.010
continue probability: 0.500
processed 896 requests 851.62 r/s elapsed 1.05
elapsed 1.05 : warmup interval speed 851.62 previous 0.00
processed 1792 requests 872.62 r/s elapsed 2.05
elapsed 2.05 : warmup interval speed 894.69 previous 851.62
processed 2688 requests 877.54 r/s elapsed 3.06
elapsed 3.06 : warmup interval speed 887.54 previous 894.69
within 5% of the preceding interval, warmup terminating
TOTAL: 2688 requests 877.54 r/s elapsed 3.06
