type: fadvise
filename: /mnt/raid/prefetch/prefetch-16384
I/O mode: BUFFERED
workload: SEQUENTIAL
duration: 20
queue size: 1
test mode: TEST
file size: 17179869184
file pages: 4194304
start probability: 0.010
continue probability: 0.100
processed 516 requests 515.49 r/s elapsed 1.00
processed 993 requests 496.42 r/s elapsed 2.00
processed 1491 requests 496.68 r/s elapsed 3.00
processed 2021 requests 504.85 r/s elapsed 4.00
processed 2462 requests 492.21 r/s elapsed 5.00
processed 2881 requests 479.91 r/s elapsed 6.00
processed 3318 requests 473.40 r/s elapsed 7.01
processed 3724 requests 465.21 r/s elapsed 8.00
processed 4235 requests 470.52 r/s elapsed 9.00
processed 4665 requests 466.38 r/s elapsed 10.00
processed 5116 requests 465.01 r/s elapsed 11.00
processed 5622 requests 468.50 r/s elapsed 12.00
processed 6135 requests 471.87 r/s elapsed 13.00
processed 6636 requests 473.90 r/s elapsed 14.00
processed 7112 requests 474.12 r/s elapsed 15.00
processed 7569 requests 473.06 r/s elapsed 16.00
processed 8072 requests 474.75 r/s elapsed 17.00
processed 8561 requests 475.49 r/s elapsed 18.00
processed 9023 requests 474.85 r/s elapsed 19.00
processed 9520 requests 475.97 r/s elapsed 20.00
TOTAL: 9520 requests 475.97 r/s elapsed 20.00
