type: fadvise
filename: /mnt/raid/prefetch/prefetch-16384
I/O mode: BUFFERED
workload: SEQUENTIAL
duration: 20
queue size: 32
test mode: WARMUP
file size: 17179869184
file pages: 4194304
start probability: 0.100
continue probability: 0.100
processed 6976 requests 6945.79 r/s elapsed 1.00
elapsed 1.00 : warmup interval speed 6945.79 previous 0.00
processed 14016 requests 7002.73 r/s elapsed 2.00
elapsed 2.00 : warmup interval speed 7060.08 previous 6945.79
within 5% of the preceding interval, warmup terminating
TOTAL: 14016 requests 7002.73 r/s elapsed 2.00
