type: fadvise
filename: /mnt/raid/prefetch/prefetch-16384
I/O mode: BUFFERED
workload: SEQUENTIAL
duration: 20
queue size: 128
test mode: WARMUP
file size: 17179869184
file pages: 4194304
start probability: 0.010
continue probability: 0.100
processed 1024 requests 948.88 r/s elapsed 1.08
elapsed 1.08 : warmup interval speed 948.88 previous 0.00
processed 1920 requests 926.02 r/s elapsed 2.07
elapsed 2.07 : warmup interval speed 901.22 previous 948.88
within 5% of the preceding interval, warmup terminating
TOTAL: 1920 requests 926.02 r/s elapsed 2.07
