type: fadvise
filename: /mnt/raid/prefetch/prefetch-16384
I/O mode: BUFFERED
workload: SEQUENTIAL
duration: 20
queue size: 8
test mode: WARMUP
file size: 17179869184
file pages: 4194304
start probability: 0.100
continue probability: 0.500
processed 11464 requests 11461.82 r/s elapsed 1.00
elapsed 1.00 : warmup interval speed 11461.82 previous 0.00
processed 23272 requests 11634.95 r/s elapsed 2.00
elapsed 2.00 : warmup interval speed 11808.11 previous 11461.82
within 5% of the preceding interval, warmup terminating
TOTAL: 23272 requests 11634.95 r/s elapsed 2.00
