type: fadvise
filename: /mnt/raid/prefetch/prefetch-16384
I/O mode: BUFFERED
workload: SEQUENTIAL
duration: 20
queue size: 1024
test mode: WARMUP
file size: 17179869184
file pages: 4194304
start probability: 0.010
continue probability: 0.100
processed 2048 requests 1083.25 r/s elapsed 1.89
elapsed 1.89 : warmup interval speed 1083.25 previous 0.00
processed 3072 requests 1099.28 r/s elapsed 2.79
elapsed 2.79 : warmup interval speed 1132.79 previous 1083.25
within 5% of the preceding interval, warmup terminating
TOTAL: 3072 requests 1099.28 r/s elapsed 2.79
