type: POSIX aio
filename: /mnt/raid/prefetch/prefetch-16384
I/O mode: DIRECT
workload: SEQUENTIAL
duration: 20
threads: 1
queue size: 1
test mode: TEST
file size: 17179869184
file pages: 4194304
start probability: 0.100
continue probability: 0.500
processed 6126 requests 6125.31 r/s elapsed 1.00
processed 12425 requests 6212.38 r/s elapsed 2.00
processed 18843 requests 6280.45 r/s elapsed 3.00
processed 25300 requests 6324.94 r/s elapsed 4.00
processed 31673 requests 6334.28 r/s elapsed 5.00
processed 38066 requests 6344.20 r/s elapsed 6.00
processed 44416 requests 6345.13 r/s elapsed 7.00
processed 50429 requests 6303.54 r/s elapsed 8.00
processed 56749 requests 6305.39 r/s elapsed 9.00
processed 62707 requests 6270.70 r/s elapsed 10.00
processed 68451 requests 6222.78 r/s elapsed 11.00
processed 74820 requests 6234.96 r/s elapsed 12.00
processed 81043 requests 6233.98 r/s elapsed 13.00
processed 86981 requests 6212.93 r/s elapsed 14.00
processed 93087 requests 6205.79 r/s elapsed 15.00
processed 99361 requests 6210.05 r/s elapsed 16.00
processed 105684 requests 6216.68 r/s elapsed 17.00
processed 112042 requests 6224.55 r/s elapsed 18.00
processed 118359 requests 6229.39 r/s elapsed 19.00
processed 124925 requests 6246.23 r/s elapsed 20.00
TOTAL: 124925 requests 6246.23 r/s elapsed 20.00
