type: POSIX aio
filename: /mnt/raid/prefetch/prefetch-16384
I/O mode: BUFFERED
workload: SEQUENTIAL
duration: 20
threads: 16
queue size: 128
test mode: TEST
file size: 17179869184
file pages: 4194304
start probability: 0.010
continue probability: 0.500
processed 1024 requests 986.85 r/s elapsed 1.04
processed 1920 requests 954.34 r/s elapsed 2.01
processed 2944 requests 952.30 r/s elapsed 3.09
processed 3840 requests 931.05 r/s elapsed 4.12
processed 4608 requests 919.91 r/s elapsed 5.01
processed 5504 requests 904.95 r/s elapsed 6.08
processed 6272 requests 892.19 r/s elapsed 7.03
processed 7296 requests 891.74 r/s elapsed 8.18
processed 8064 requests 886.92 r/s elapsed 9.09
processed 8832 requests 882.44 r/s elapsed 10.01
processed 9728 requests 876.10 r/s elapsed 11.10
processed 10624 requests 885.15 r/s elapsed 12.00
processed 11520 requests 881.81 r/s elapsed 13.06
processed 12416 requests 879.20 r/s elapsed 14.12
processed 13184 requests 878.31 r/s elapsed 15.01
processed 14336 requests 888.71 r/s elapsed 16.13
processed 15104 requests 885.42 r/s elapsed 17.06
processed 16000 requests 883.57 r/s elapsed 18.11
processed 16896 requests 886.61 r/s elapsed 19.06
processed 17792 requests 888.32 r/s elapsed 20.03
TOTAL: 17792 requests 888.32 r/s elapsed 20.03
