type: POSIX aio
filename: /mnt/raid/prefetch/prefetch-16384
I/O mode: BUFFERED
workload: SEQUENTIAL
duration: 20
threads: 1
queue size: 1024
test mode: WARMUP
file size: 17179869184
file pages: 4194304
start probability: 0.100
continue probability: 0.500
processed 12288 requests 11379.93 r/s elapsed 1.08
elapsed 1.08 : warmup interval speed 11379.93 previous 0.00
processed 23552 requests 11646.47 r/s elapsed 2.02
elapsed 2.02 : warmup interval speed 11951.87 previous 11379.93
processed 35840 requests 11631.82 r/s elapsed 3.08
elapsed 3.08 : warmup interval speed 11603.83 previous 11951.87
within 5% of the preceding interval, warmup terminating
TOTAL: 35840 requests 11631.82 r/s elapsed 3.08
