type: POSIX aio
filename: /mnt/raid/prefetch/prefetch-16384
I/O mode: BUFFERED
workload: SEQUENTIAL
duration: 20
threads: 1
queue size: 1024
test mode: WARMUP
file size: 17179869184
file pages: 4194304
start probability: 0.010
continue probability: 0.100
processed 1024 requests 505.01 r/s elapsed 2.03
elapsed 2.03 : warmup interval speed 505.01 previous 0.00
processed 2048 requests 505.61 r/s elapsed 4.05
elapsed 4.05 : warmup interval speed 506.20 previous 505.01
within 5% of the preceding interval, warmup terminating
TOTAL: 2048 requests 505.61 r/s elapsed 4.05
