type: POSIX aio
filename: /mnt/raid/prefetch/prefetch-16384
I/O mode: BUFFERED
workload: SEQUENTIAL
duration: 20
threads: 1
queue size: 1
test mode: TEST
file size: 17179869184
file pages: 4194304
start probability: 0.010
continue probability: 0.500
processed 925 requests 924.02 r/s elapsed 1.00
processed 1784 requests 890.14 r/s elapsed 2.00
processed 2665 requests 886.65 r/s elapsed 3.01
processed 3522 requests 880.33 r/s elapsed 4.00
processed 4394 requests 878.70 r/s elapsed 5.00
processed 5327 requests 887.42 r/s elapsed 6.00
processed 6179 requests 882.12 r/s elapsed 7.00
processed 7073 requests 883.75 r/s elapsed 8.00
processed 8066 requests 895.84 r/s elapsed 9.00
processed 8914 requests 891.07 r/s elapsed 10.00
processed 9644 requests 876.46 r/s elapsed 11.00
processed 10501 requests 874.89 r/s elapsed 12.00
processed 11416 requests 877.96 r/s elapsed 13.00
processed 12258 requests 874.76 r/s elapsed 14.01
processed 13106 requests 873.72 r/s elapsed 15.00
processed 14009 requests 875.12 r/s elapsed 16.01
processed 14904 requests 876.64 r/s elapsed 17.00
processed 15836 requests 879.70 r/s elapsed 18.00
processed 16746 requests 881.24 r/s elapsed 19.00
processed 17694 requests 884.58 r/s elapsed 20.00
TOTAL: 17694 requests 884.58 r/s elapsed 20.00
