type: POSIX aio
filename: /mnt/raid/prefetch/prefetch-16384
I/O mode: BUFFERED
workload: SEQUENTIAL
duration: 20
threads: 16
queue size: 128
test mode: WARMUP
file size: 17179869184
file pages: 4194304
start probability: 0.010
continue probability: 0.500
processed 896 requests 853.98 r/s elapsed 1.05
elapsed 1.05 : warmup interval speed 853.98 previous 0.00
processed 1792 requests 893.25 r/s elapsed 2.01
elapsed 2.01 : warmup interval speed 936.32 previous 853.98
processed 2816 requests 894.63 r/s elapsed 3.15
elapsed 3.15 : warmup interval speed 897.04 previous 936.32
within 5% of the preceding interval, warmup terminating
TOTAL: 2816 requests 894.63 r/s elapsed 3.15
