type: POSIX aio
filename: /mnt/raid/prefetch/prefetch-16384
I/O mode: BUFFERED
workload: SEQUENTIAL
duration: 20
threads: 1
queue size: 1
test mode: WARMUP
file size: 17179869184
file pages: 4194304
start probability: 0.010
continue probability: 0.100
processed 460 requests 459.09 r/s elapsed 1.00
elapsed 1.00 : warmup interval speed 459.09 previous 0.00
processed 985 requests 490.79 r/s elapsed 2.01
elapsed 2.01 : warmup interval speed 522.40 previous 459.09
processed 1493 requests 497.38 r/s elapsed 3.00
elapsed 3.00 : warmup interval speed 510.66 previous 522.40
within 5% of the preceding interval, warmup terminating
TOTAL: 1493 requests 497.38 r/s elapsed 3.00
