type: POSIX aio
filename: /mnt/raid/prefetch/prefetch-16384
I/O mode: BUFFERED
workload: SEQUENTIAL
duration: 20
threads: 16
queue size: 32
test mode: WARMUP
file size: 17179869184
file pages: 4194304
start probability: 0.100
continue probability: 0.500
processed 11104 requests 11041.13 r/s elapsed 1.01
elapsed 1.01 : warmup interval speed 11041.13 previous 0.00
processed 22688 requests 11338.95 r/s elapsed 2.00
elapsed 2.00 : warmup interval speed 11639.92 previous 11041.13
processed 34432 requests 11477.12 r/s elapsed 3.00
elapsed 3.00 : warmup interval speed 11753.81 previous 11639.92
within 5% of the preceding interval, warmup terminating
TOTAL: 34432 requests 11477.12 r/s elapsed 3.00
