type: POSIX aio
filename: /mnt/raid/prefetch/prefetch-16384
I/O mode: BUFFERED
workload: SEQUENTIAL
duration: 20
threads: 1
queue size: 1024
test mode: WARMUP
file size: 17179869184
file pages: 4194304
start probability: 0.100
continue probability: 0.900
processed 27648 requests 27624.24 r/s elapsed 1.00
elapsed 1.00 : warmup interval speed 27624.24 previous 0.00
processed 56320 requests 27908.83 r/s elapsed 2.02
elapsed 2.02 : warmup interval speed 28188.87 previous 27624.24
within 5% of the preceding interval, warmup terminating
TOTAL: 56320 requests 27908.83 r/s elapsed 2.02
