type: pthread aio
filename: /mnt/raid/prefetch/prefetch-16384
I/O mode: DIRECT
workload: RANDOM
duration: 20
threads: 8
queue size: 1024
test mode: TEST
file size: 17179869184
file pages: 4194304
processed 1024 requests 319.82 r/s elapsed 3.20
processed 2048 requests 331.99 r/s elapsed 6.17
processed 3072 requests 332.86 r/s elapsed 9.23
processed 4096 requests 335.76 r/s elapsed 12.20
processed 5120 requests 336.33 r/s elapsed 15.22
processed 6144 requests 339.01 r/s elapsed 18.12
processed 7168 requests 337.86 r/s elapsed 21.22
TOTAL: 7168 requests 337.86 r/s elapsed 21.22
