type: pthread fadvise
filename: /mnt/raid/prefetch/prefetch-16384
I/O mode: BUFFERED
workload: SEQUENTIAL
duration: 20
threads: 8
queue size: 1024
test mode: WARMUP
file size: 17179869184
file pages: 4194304
start probability: 0.100
continue probability: 0.100
processed 4096 requests 3635.67 r/s elapsed 1.13
elapsed 1.13 : warmup interval speed 3635.67 previous 0.00
processed 8192 requests 3595.41 r/s elapsed 2.28
elapsed 2.28 : warmup interval speed 3556.04 previous 3635.67
within 5% of the preceding interval, warmup terminating
TOTAL: 8192 requests 3595.41 r/s elapsed 2.28
