type: pthread aio
filename: /mnt/raid/prefetch/prefetch-16384
I/O mode: DIRECT
workload: SEQUENTIAL
duration: 20
threads: 8
queue size: 1024
test mode: TEST
file size: 17179869184
file pages: 4194304
start probability: 0.010
continue probability: 0.900
processed 3072 requests 2525.85 r/s elapsed 1.22
processed 5120 requests 2549.21 r/s elapsed 2.01
processed 8192 requests 2647.25 r/s elapsed 3.09
processed 11264 requests 2625.59 r/s elapsed 4.29
processed 13312 requests 2634.89 r/s elapsed 5.05
processed 16384 requests 2637.99 r/s elapsed 6.21
processed 19456 requests 2637.93 r/s elapsed 7.38
processed 21504 requests 2631.52 r/s elapsed 8.17
processed 24576 requests 2633.25 r/s elapsed 9.33
processed 26624 requests 2608.61 r/s elapsed 10.21
processed 29696 requests 2590.96 r/s elapsed 11.46
processed 31744 requests 2596.02 r/s elapsed 12.23
processed 33792 requests 2588.79 r/s elapsed 13.05
processed 36864 requests 2585.38 r/s elapsed 14.26
processed 38912 requests 2566.19 r/s elapsed 15.16
processed 41984 requests 2566.22 r/s elapsed 16.36
processed 44032 requests 2551.57 r/s elapsed 17.26
processed 46080 requests 2548.97 r/s elapsed 18.08
processed 49152 requests 2554.57 r/s elapsed 19.24
processed 51200 requests 2555.90 r/s elapsed 20.03
TOTAL: 51200 requests 2555.90 r/s elapsed 20.03
