type: pthread aio
filename: /mnt/raid/prefetch/prefetch-16384
I/O mode: BUFFERED
workload: SEQUENTIAL
duration: 20
threads: 32
queue size: 128
test mode: TEST
file size: 17179869184
file pages: 4194304
start probability: 0.100
continue probability: 0.100
processed 2432 requests 2331.74 r/s elapsed 1.04
processed 4736 requests 2124.20 r/s elapsed 2.23
processed 6400 requests 2084.26 r/s elapsed 3.07
processed 8704 requests 2168.03 r/s elapsed 4.01
processed 11904 requests 2367.93 r/s elapsed 5.03
processed 15104 requests 2512.99 r/s elapsed 6.01
processed 18304 requests 2605.07 r/s elapsed 7.03
processed 21632 requests 2694.95 r/s elapsed 8.03
processed 24704 requests 2735.14 r/s elapsed 9.03
processed 27904 requests 2766.32 r/s elapsed 10.09
processed 30720 requests 2792.32 r/s elapsed 11.00
processed 34176 requests 2844.65 r/s elapsed 12.01
processed 37376 requests 2868.95 r/s elapsed 13.03
processed 40192 requests 2861.62 r/s elapsed 14.05
processed 43776 requests 2909.63 r/s elapsed 15.05
processed 47104 requests 2943.37 r/s elapsed 16.00
processed 50176 requests 2948.73 r/s elapsed 17.02
processed 53376 requests 2965.02 r/s elapsed 18.00
processed 56576 requests 2975.76 r/s elapsed 19.01
processed 59776 requests 2988.01 r/s elapsed 20.01
TOTAL: 59776 requests 2988.01 r/s elapsed 20.01
