type: pthread fadvise
filename: /mnt/raid/prefetch/prefetch-16384
I/O mode: BUFFERED
workload: SEQUENTIAL
duration: 20
threads: 8
queue size: 8
test mode: TEST
file size: 17179869184
file pages: 4194304
start probability: 0.100
continue probability: 0.900
processed 15616 requests 15538.69 r/s elapsed 1.00
processed 31080 requests 12443.63 r/s elapsed 2.50
processed 37336 requests 11613.38 r/s elapsed 3.21
processed 46456 requests 10795.52 r/s elapsed 4.30
processed 53984 requests 10353.96 r/s elapsed 5.21
processed 62128 requests 10165.07 r/s elapsed 6.11
processed 71160 requests 9960.53 r/s elapsed 7.14
processed 79688 requests 9879.19 r/s elapsed 8.07
processed 88912 requests 9653.91 r/s elapsed 9.21
processed 96544 requests 9636.83 r/s elapsed 10.02
processed 106008 requests 9614.50 r/s elapsed 11.03
processed 115376 requests 9584.89 r/s elapsed 12.04
processed 124608 requests 9572.06 r/s elapsed 13.02
processed 134008 requests 9465.87 r/s elapsed 14.16
processed 141992 requests 9419.92 r/s elapsed 15.07
processed 150720 requests 9363.07 r/s elapsed 16.10
processed 159176 requests 9361.22 r/s elapsed 17.00
processed 168504 requests 9328.08 r/s elapsed 18.06
processed 177248 requests 9328.69 r/s elapsed 19.00
processed 186576 requests 9210.80 r/s elapsed 20.26
TOTAL: 186576 requests 9210.80 r/s elapsed 20.26
