type: pthread aio
filename: /mnt/raid/prefetch/prefetch-16384
I/O mode: DIRECT
workload: SEQUENTIAL
duration: 20
threads: 8
queue size: 128
test mode: TEST
file size: 17179869184
file pages: 4194304
start probability: 0.100
continue probability: 0.900
processed 9344 requests 9338.60 r/s elapsed 1.00
processed 18688 requests 9298.07 r/s elapsed 2.01
processed 27904 requests 8971.05 r/s elapsed 3.11
processed 35968 requests 8896.44 r/s elapsed 4.04
processed 44544 requests 8726.97 r/s elapsed 5.10
processed 52864 requests 8784.96 r/s elapsed 6.02
processed 61568 requests 8766.81 r/s elapsed 7.02
processed 70400 requests 8792.56 r/s elapsed 8.01
processed 79232 requests 8667.88 r/s elapsed 9.14
processed 86784 requests 8670.42 r/s elapsed 10.01
processed 95488 requests 8676.90 r/s elapsed 11.00
processed 105216 requests 8764.42 r/s elapsed 12.00
processed 114048 requests 8757.99 r/s elapsed 13.02
processed 122624 requests 8730.39 r/s elapsed 14.05
processed 131072 requests 8689.43 r/s elapsed 15.08
processed 139136 requests 8664.72 r/s elapsed 16.06
processed 147328 requests 8662.73 r/s elapsed 17.01
processed 156416 requests 8685.42 r/s elapsed 18.01
processed 165120 requests 8668.61 r/s elapsed 19.05
processed 174464 requests 8702.65 r/s elapsed 20.05
TOTAL: 174464 requests 8702.65 r/s elapsed 20.05
