type: pthread fadvise
filename: /mnt/raid/prefetch/prefetch-16384
I/O mode: BUFFERED
workload: SEQUENTIAL
duration: 20
threads: 16
queue size: 128
test mode: WARMUP
file size: 17179869184
file pages: 4194304
start probability: 0.010
continue probability: 0.900
processed 4224 requests 4098.29 r/s elapsed 1.03
elapsed 1.03 : warmup interval speed 4098.29 previous 0.00
processed 8320 requests 4010.65 r/s elapsed 2.07
elapsed 2.07 : warmup interval speed 3924.12 previous 4098.29
within 5% of the preceding interval, warmup terminating
TOTAL: 8320 requests 4010.65 r/s elapsed 2.07
