type: pthread aio
filename: /mnt/raid/prefetch/prefetch-16384
I/O mode: DIRECT
workload: SEQUENTIAL
duration: 20
threads: 1
queue size: 1024
test mode: TEST
file size: 17179869184
file pages: 4194304
start probability: 0.010
continue probability: 0.100
processed 1024 requests 500.75 r/s elapsed 2.04
processed 2048 requests 498.25 r/s elapsed 4.11
processed 3072 requests 485.63 r/s elapsed 6.33
processed 4096 requests 485.59 r/s elapsed 8.44
processed 5120 requests 482.14 r/s elapsed 10.62
processed 6144 requests 483.46 r/s elapsed 12.71
processed 7168 requests 484.24 r/s elapsed 14.80
processed 8192 requests 489.72 r/s elapsed 16.73
processed 9216 requests 491.96 r/s elapsed 18.73
processed 10240 requests 491.79 r/s elapsed 20.82
TOTAL: 10240 requests 491.79 r/s elapsed 20.82
