type: pthread fadvise
filename: /mnt/raid/prefetch/prefetch-16384
I/O mode: BUFFERED
workload: SEQUENTIAL
duration: 20
threads: 16
queue size: 128
test mode: WARMUP
file size: 17179869184
file pages: 4194304
start probability: 0.100
continue probability: 0.500
processed 5632 requests 5441.94 r/s elapsed 1.03
elapsed 1.03 : warmup interval speed 5441.94 previous 0.00
processed 11136 requests 5474.39 r/s elapsed 2.03
elapsed 2.03 : warmup interval speed 5508.00 previous 5441.94
within 5% of the preceding interval, warmup terminating
TOTAL: 11136 requests 5474.39 r/s elapsed 2.03
