type: pthread fadvise
filename: /mnt/raid/prefetch/prefetch-16384
I/O mode: BUFFERED
workload: SEQUENTIAL
duration: 20
threads: 8
queue size: 1024
test mode: WARMUP
file size: 17179869184
file pages: 4194304
start probability: 0.100
continue probability: 0.900
processed 12288 requests 11745.40 r/s elapsed 1.05
elapsed 1.05 : warmup interval speed 11745.40 previous 0.00
processed 24576 requests 11936.60 r/s elapsed 2.06
elapsed 2.06 : warmup interval speed 12134.13 previous 11745.40
within 5% of the preceding interval, warmup terminating
TOTAL: 24576 requests 11936.60 r/s elapsed 2.06
