type: pthread aio
filename: /mnt/raid/prefetch/prefetch-16384
I/O mode: BUFFERED
workload: SEQUENTIAL
duration: 20
threads: 8
queue size: 32
test mode: TEST
file size: 17179869184
file pages: 4194304
start probability: 0.010
continue probability: 0.100
processed 1024 requests 542.74 r/s elapsed 1.89
processed 1088 requests 541.17 r/s elapsed 2.01
processed 1696 requests 554.07 r/s elapsed 3.06
processed 2240 requests 556.57 r/s elapsed 4.02
processed 2784 requests 544.79 r/s elapsed 5.11
processed 3296 requests 538.97 r/s elapsed 6.12
processed 3776 requests 538.21 r/s elapsed 7.02
processed 4384 requests 541.66 r/s elapsed 8.09
processed 4896 requests 543.86 r/s elapsed 9.00
processed 5472 requests 545.60 r/s elapsed 10.03
processed 6048 requests 548.07 r/s elapsed 11.03
processed 6624 requests 551.46 r/s elapsed 12.01
processed 7232 requests 553.14 r/s elapsed 13.07
processed 7744 requests 553.09 r/s elapsed 14.00
processed 8320 requests 553.90 r/s elapsed 15.02
processed 8928 requests 556.05 r/s elapsed 16.06
processed 9504 requests 558.06 r/s elapsed 17.03
processed 10048 requests 555.87 r/s elapsed 18.08
processed 10592 requests 554.25 r/s elapsed 19.11
processed 11136 requests 556.04 r/s elapsed 20.03
TOTAL: 11136 requests 556.04 r/s elapsed 20.03
