type: pthread fadvise
filename: /mnt/raid/prefetch/prefetch-16384
I/O mode: BUFFERED
workload: SEQUENTIAL
duration: 20
threads: 1
queue size: 128
test mode: WARMUP
file size: 17179869184
file pages: 4194304
start probability: 0.100
continue probability: 0.100
processed 7040 requests 7000.43 r/s elapsed 1.01
elapsed 1.01 : warmup interval speed 7000.43 previous 0.00
processed 14336 requests 7112.63 r/s elapsed 2.02
elapsed 2.02 : warmup interval speed 7224.36 previous 7000.43
within 5% of the preceding interval, warmup terminating
TOTAL: 14336 requests 7112.63 r/s elapsed 2.02
