type: pthread fadvise
filename: /mnt/raid/prefetch/prefetch-16384
I/O mode: BUFFERED
workload: SEQUENTIAL
duration: 20
threads: 1
queue size: 1024
test mode: TEST
file size: 17179869184
file pages: 4194304
start probability: 0.010
continue probability: 0.900
processed 6144 requests 5435.35 r/s elapsed 1.13
processed 11264 requests 5608.34 r/s elapsed 2.01
processed 17408 requests 5363.53 r/s elapsed 3.25
processed 21504 requests 5172.37 r/s elapsed 4.16
processed 26624 requests 5092.80 r/s elapsed 5.23
processed 30720 requests 5109.60 r/s elapsed 6.01
processed 35840 requests 5077.95 r/s elapsed 7.06
processed 40960 requests 4974.63 r/s elapsed 8.23
processed 46080 requests 5031.72 r/s elapsed 9.16
processed 51200 requests 5045.58 r/s elapsed 10.15
processed 56320 requests 5100.24 r/s elapsed 11.04
processed 62464 requests 5132.78 r/s elapsed 12.17
processed 67584 requests 5148.81 r/s elapsed 13.13
processed 73728 requests 5213.21 r/s elapsed 14.14
processed 78848 requests 5235.37 r/s elapsed 15.06
processed 84992 requests 5247.29 r/s elapsed 16.20
processed 90112 requests 5260.71 r/s elapsed 17.13
processed 95232 requests 5205.81 r/s elapsed 18.29
processed 99328 requests 5135.89 r/s elapsed 19.34
processed 103424 requests 5143.38 r/s elapsed 20.11
TOTAL: 103424 requests 5143.38 r/s elapsed 20.11
