Linux 4.17.2 (bench2) 	08/04/2018 	_x86_64_	(32 CPU)

avg-cpu:  %user   %nice %system %iowait  %steal   %idle
           1.90    0.00    1.54    1.61    0.00   94.95

Device:         rrqm/s   wrqm/s     r/s     w/s    rkB/s    wkB/s avgrq-sz avgqu-sz   await r_await w_await  svctm  %util
nvme0n1         930.63     5.05 18761.15  516.55 104942.08 11649.81    12.10     1.34    0.05    0.03    0.67   0.02  39.27
sda               0.12     0.82   14.17    0.58   164.04     8.56    23.40     0.00    0.33    0.32    0.44   0.07   0.10
sdc              34.67     0.17  123.37    0.31  1849.07    96.95    31.47     0.11    0.90   12.29  381.84   0.90  11.15
sdb              32.65     0.19  125.34    0.33  1847.12    96.78    30.94     0.54    4.30    3.22  413.03   0.84  10.60
sdd              34.86     0.17  122.91    0.26  1845.13    96.45    31.53     0.85    6.93    5.03  909.23   0.91  11.15
md0               0.00     0.00  476.62    1.20  6870.61   349.75    30.22     0.00    0.00    0.00    0.00   0.00   0.00

avg-cpu:  %user   %nice %system %iowait  %steal   %idle
           0.00    0.00    0.09    3.00    0.00   96.91

Device:         rrqm/s   wrqm/s     r/s     w/s    rkB/s    wkB/s avgrq-sz avgqu-sz   await r_await w_await  svctm  %util
nvme0n1           0.00     0.00    0.00    0.00     0.00     0.00     0.00     0.00    0.00    0.00    0.00   0.00   0.00
sda               0.00     0.00    1.00    0.00     8.00     0.00    16.00     0.00    0.00    0.00    0.00   0.00   0.00
sdc               4.00     0.00  206.00    0.00  4704.00     0.00    45.67     0.37    1.81    1.81    0.00   1.77  36.40
sdb               1.00     0.00  209.00    0.00  2996.00     0.00    28.67     0.30    1.44    1.44    0.00   1.41  29.50
sdd               6.00     0.00  187.00    0.00  4008.00     0.00    42.87     0.38    2.04    2.04    0.00   2.02  37.80
md0               0.00     0.00  613.00    0.00 13148.00     0.00    42.90     0.00    0.00    0.00    0.00   0.00   0.00

avg-cpu:  %user   %nice %system %iowait  %steal   %idle
           0.03    0.00    0.06    3.03    0.00   96.87

Device:         rrqm/s   wrqm/s     r/s     w/s    rkB/s    wkB/s avgrq-sz avgqu-sz   await r_await w_await  svctm  %util
nvme0n1           0.00     0.00    0.00    0.00     0.00     0.00     0.00     0.00    0.00    0.00    0.00   0.00   0.00
sda               0.00     0.00    0.00    0.00     0.00     0.00     0.00     0.00    0.00    0.00    0.00   0.00   0.00
sdc               5.00     0.00  191.00    0.00  4208.00     0.00    44.06     0.39    2.06    2.06    0.00   2.03  38.70
sdb               2.00     0.00  189.00    0.00  2824.00     0.00    29.88     0.36    1.93    1.93    0.00   1.88  35.60
sdd               5.00     0.00  177.00    0.00  3900.00     0.00    44.07     0.28    1.55    1.55    0.00   1.54  27.20
md0               0.00     0.00  569.00    0.00 12792.00     0.00    44.96     0.00    0.00    0.00    0.00   0.00   0.00

