Linux 4.17.2 (bench2) 	08/04/2018 	_x86_64_	(32 CPU)

avg-cpu:  %user   %nice %system %iowait  %steal   %idle
           1.90    0.00    1.55    1.60    0.00   94.96

Device:         rrqm/s   wrqm/s     r/s     w/s    rkB/s    wkB/s avgrq-sz avgqu-sz   await r_await w_await  svctm  %util
nvme0n1         933.18     5.07 18812.43  517.96 105228.91 11681.65    12.10     1.34    0.05    0.03    0.67   0.02  39.38
sda               0.12     0.82   14.17    0.58   164.01     8.56    23.40     0.00    0.33    0.32    0.44   0.07   0.10
sdc              34.56     0.17  121.43    0.31  1837.99    97.22    31.79     0.10    0.85   12.45  381.84   0.91  11.06
sdb              32.53     0.19  123.42    0.33  1836.04    97.04    31.24     0.53    4.31    3.22  413.03   0.85  10.51
sdd              34.75     0.17  120.98    0.26  1834.04    96.72    31.85     0.85    6.99    5.05  909.23   0.91  11.06
md0               0.00     0.00  470.51    1.21  6834.42   350.71    30.46     0.00    0.00    0.00    0.00   0.00   0.00

avg-cpu:  %user   %nice %system %iowait  %steal   %idle
           0.00    0.00    0.02    0.00    0.00   99.98

Device:         rrqm/s   wrqm/s     r/s     w/s    rkB/s    wkB/s avgrq-sz avgqu-sz   await r_await w_await  svctm  %util
nvme0n1           0.00     0.00    0.00    0.00     0.00     0.00     0.00     0.00    0.00    0.00    0.00   0.00   0.00
sda               0.00     0.50    5.25    0.30    33.80     3.20    13.33     0.00    0.13    0.12    0.17   0.07   0.04
sdc               0.00     0.00   52.10    0.05   208.40     0.00     7.99     0.33    6.33    6.34    0.00   6.33  33.02
sdb               0.00     0.00   51.55    0.15   206.20     1.62     8.04     0.32    6.26    6.27    5.67   6.27  32.42
sdd               0.00     0.00   52.80    0.05   211.20     0.00     7.99     0.34    6.41    6.42    0.00   6.41  33.89
md0               0.00     0.00  156.45    0.10   625.80     1.62     8.02     0.00    0.00    0.00    0.00   0.00   0.00

