Linux 4.17.2 (bench2) 	08/04/2018 	_x86_64_	(32 CPU)

avg-cpu:  %user   %nice %system %iowait  %steal   %idle
           1.89    0.00    1.54    1.63    0.00   94.94

Device:         rrqm/s   wrqm/s     r/s     w/s    rkB/s    wkB/s avgrq-sz avgqu-sz   await r_await w_await  svctm  %util
nvme0n1         924.25     5.02 18632.44  513.01 104222.08 11569.88    12.10     1.33    0.05    0.03    0.67   0.02  39.00
sda               0.12     0.82   14.19    0.58   164.09     8.57    23.37     0.00    0.33    0.32    0.44   0.07   0.10
sdc              35.05     0.17  127.47    0.31  1899.25    96.29    31.23     0.17    1.30    0.39  381.84   0.89  11.42
sdb              33.04     0.18  129.44    0.33  1897.34    96.11    30.72     0.59    4.56    3.53  413.03   0.84  10.87
sdd              35.24     0.16  127.02    0.26  1895.37    95.79    31.29     0.91    7.12    5.29  909.23   0.90  11.45
md0               0.00     0.00  490.07    1.19  7054.03   347.35    30.13     0.00    0.00    0.00    0.00   0.00   0.00

avg-cpu:  %user   %nice %system %iowait  %steal   %idle
           0.00    0.00    0.09    2.94    0.00   96.96

Device:         rrqm/s   wrqm/s     r/s     w/s    rkB/s    wkB/s avgrq-sz avgqu-sz   await r_await w_await  svctm  %util
nvme0n1           0.00     0.00    0.00    0.00     0.00     0.00     0.00     0.00    0.00    0.00    0.00   0.00   0.00
sda               0.00     0.00   18.00    0.00    76.00     0.00     8.44     0.00    0.00    0.00    0.00   0.00   0.00
sdc             935.00     0.00 1648.00    0.00 10136.00     0.00    12.30    64.10   36.72   36.72    0.00   0.52  86.40
sdb             909.00     0.00 1738.00    0.00 10748.00     0.00    12.37    72.41   40.72   40.72    0.00   0.55  95.30
sdd             867.00     0.00 1727.00    0.00 10488.00     0.00    12.15    71.26   39.65   39.65    0.00   0.54  92.70
md0               0.00     0.00 7576.00    0.00 30304.00     0.00     8.00     0.00    0.00    0.00    0.00   0.00   0.00

avg-cpu:  %user   %nice %system %iowait  %steal   %idle
           0.03    0.00    0.13    2.91    0.00   96.93

Device:         rrqm/s   wrqm/s     r/s     w/s    rkB/s    wkB/s avgrq-sz avgqu-sz   await r_await w_await  svctm  %util
nvme0n1           0.00     0.00    0.00    0.00     0.00     0.00     0.00     0.00    0.00    0.00    0.00   0.00   0.00
sda               0.00     0.00   59.00    0.00   588.00     0.00    19.93     0.01    0.08    0.08    0.00   0.07   0.40
sdc             905.00     0.00 1800.00    0.00 10884.00     0.00    12.09    65.21   37.19   37.19    0.00   0.50  89.50
sdb             911.00     0.00 1645.00    0.00 10044.00     0.00    12.21    69.49   41.98   41.98    0.00   0.58  95.70
sdd            1070.00     0.00 1742.00    0.00 11092.00     0.00    12.73    73.57   42.28   42.28    0.00   0.55  96.40
md0               0.00     0.00 8178.00    0.00 32712.00     0.00     8.00     0.00    0.00    0.00    0.00   0.00   0.00

