Linux 4.17.2 (bench2) 	08/04/2018 	_x86_64_	(32 CPU)

avg-cpu:  %user   %nice %system %iowait  %steal   %idle
           1.90    0.00    1.54    1.61    0.00   94.95

Device:         rrqm/s   wrqm/s     r/s     w/s    rkB/s    wkB/s avgrq-sz avgqu-sz   await r_await w_await  svctm  %util
nvme0n1         931.29     5.06 18774.50  516.92 105016.74 11658.09    12.10     1.34    0.05    0.03    0.67   0.02  39.30
sda               0.12     0.82   14.17    0.58   164.04     8.56    23.40     0.00    0.33    0.32    0.44   0.07   0.10
sdc              34.69     0.17  123.05    0.31  1844.43    97.02    31.48     0.11    0.90   12.32  381.84   0.90  11.12
sdb              32.66     0.19  125.03    0.33  1842.47    96.85    30.94     0.54    4.30    3.22  413.03   0.84  10.57
sdd              34.88     0.17  122.60    0.26  1840.48    96.52    31.53     0.85    6.94    5.03  909.23   0.91  11.13
md0               0.00     0.00  475.74    1.20  6852.77   350.00    30.20     0.00    0.00    0.00    0.00   0.00   0.00

avg-cpu:  %user   %nice %system %iowait  %steal   %idle
           0.03    0.00    0.47    2.63    0.00   96.87

Device:         rrqm/s   wrqm/s     r/s     w/s    rkB/s    wkB/s avgrq-sz avgqu-sz   await r_await w_await  svctm  %util
nvme0n1           0.00     0.00    0.00    0.00     0.00     0.00     0.00     0.00    0.00    0.00    0.00   0.00   0.00
sda               0.00     0.00    1.00    0.00     8.00     0.00    16.00     0.00    0.00    0.00    0.00   0.00   0.00
sdc               0.00     0.00 2916.00    0.00 11688.00     0.00     8.02     0.31    0.11    0.11    0.00   0.11  31.00
sdb               0.00     0.00 3044.00    0.00 12176.00     0.00     8.00     0.31    0.10    0.10    0.00   0.10  31.30
sdd               0.00     0.00 2852.00    0.00 11408.00     0.00     8.00     0.28    0.10    0.10    0.00   0.10  28.00
md0               0.00     0.00 8812.00    0.00 35260.00     0.00     8.00     0.00    0.00    0.00    0.00   0.00   0.00

avg-cpu:  %user   %nice %system %iowait  %steal   %idle
           0.03    0.00    0.50    2.63    0.00   96.84

Device:         rrqm/s   wrqm/s     r/s     w/s    rkB/s    wkB/s avgrq-sz avgqu-sz   await r_await w_await  svctm  %util
nvme0n1           0.00     0.00    0.00    0.00     0.00     0.00     0.00     0.00    0.00    0.00    0.00   0.00   0.00
sda               0.00     0.00    0.00    0.00     0.00     0.00     0.00     0.00    0.00    0.00    0.00   0.00   0.00
sdc               0.00     0.00 2993.00    0.00 11972.00     0.00     8.00     0.30    0.10    0.10    0.00   0.10  29.70
sdb               0.00     0.00 3022.00    0.00 12088.00     0.00     8.00     0.31    0.10    0.10    0.00   0.10  31.00
sdd               0.00     0.00 2928.00    0.00 11712.00     0.00     8.00     0.29    0.10    0.10    0.00   0.10  29.40
md0               0.00     0.00 8943.00    0.00 35772.00     0.00     8.00     0.00    0.00    0.00    0.00   0.00   0.00

