Linux 4.17.2 (bench2) 	08/04/2018 	_x86_64_	(32 CPU)

avg-cpu:  %user   %nice %system %iowait  %steal   %idle
           1.89    0.00    1.53    1.64    0.00   94.94

Device:         rrqm/s   wrqm/s     r/s     w/s    rkB/s    wkB/s avgrq-sz avgqu-sz   await r_await w_await  svctm  %util
nvme0n1         921.14     5.00 18569.71  511.28 103871.24 11530.93    12.10     1.32    0.05    0.03    0.67   0.02  38.87
sda               0.12     0.82   14.20    0.59   164.15     8.57    23.36     0.00    0.33    0.32    0.43   0.07   0.10
sdc              35.30     0.17  129.80    0.31  1919.47    95.96    30.98     0.18    1.37    0.48  381.84   0.89  11.54
sdb              33.30     0.18  131.76    0.33  1917.58    95.79    30.49     0.60    4.56    3.55  413.03   0.83  10.99
sdd              35.49     0.16  129.35    0.26  1915.60    95.47    31.03     0.92    7.07    5.28  909.23   0.89  11.58
md0               0.00     0.00  497.79    1.19  7124.72   346.18    29.94     0.00    0.00    0.00    0.00   0.00   0.00

avg-cpu:  %user   %nice %system %iowait  %steal   %idle
           0.03    0.00    0.34    0.56    0.00   99.07

Device:         rrqm/s   wrqm/s     r/s     w/s    rkB/s    wkB/s avgrq-sz avgqu-sz   await r_await w_await  svctm  %util
nvme0n1           0.00     0.00    0.00    0.00     0.00     0.00     0.00     0.00    0.00    0.00    0.00   0.00   0.00
sda               0.00     1.45    5.55    1.75    37.20    13.60    13.92     0.00    0.21    0.27    0.00   0.05   0.04
sdc               0.00     0.00 4596.75    0.00 18387.00     0.00     8.00     5.60    1.22    1.22    0.00   0.08  36.84
sdb               0.00     0.00 4613.00    0.00 18452.00     0.00     8.00     5.55    1.20    1.20    0.00   0.08  36.66
sdd               0.00     0.00 4608.25    0.00 18433.00     0.00     8.00     5.64    1.22    1.22    0.00   0.08  38.00
md0               0.00     0.00 13818.80    0.00 55275.20     0.00     8.00     0.00    0.00    0.00    0.00   0.00   0.00

