Linux 4.17.2 (bench2) 	08/04/2018 	_x86_64_	(32 CPU)

avg-cpu:  %user   %nice %system %iowait  %steal   %idle
           1.89    0.00    1.54    1.62    0.00   94.95

Device:         rrqm/s   wrqm/s     r/s     w/s    rkB/s    wkB/s avgrq-sz avgqu-sz   await r_await w_await  svctm  %util
nvme0n1         926.09     5.03 18669.54  514.03 104429.64 11592.92    12.10     1.33    0.05    0.03    0.67   0.02  39.08
sda               0.12     0.82   14.18    0.58   164.09     8.57    23.38     0.00    0.33    0.32    0.44   0.07   0.10
sdc              34.99     0.17  126.43    0.31  1881.86    96.48    31.22     0.14    1.14    0.22  381.84   0.89  11.33
sdb              32.98     0.18  128.40    0.33  1879.95    96.31    30.70     0.57    4.43    3.39  413.03   0.84  10.78
sdd              35.19     0.16  125.98    0.26  1877.95    95.98    31.27     0.88    7.01    5.16  909.23   0.90  11.36
md0               0.00     0.00  486.78    1.20  6988.82   348.05    30.07     0.00    0.00    0.00    0.00   0.00   0.00

avg-cpu:  %user   %nice %system %iowait  %steal   %idle
           3.10    0.00    0.03    3.06    0.00   93.81

Device:         rrqm/s   wrqm/s     r/s     w/s    rkB/s    wkB/s avgrq-sz avgqu-sz   await r_await w_await  svctm  %util
nvme0n1           0.00     0.00    0.00    0.00     0.00     0.00     0.00     0.00    0.00    0.00    0.00   0.00   0.00
sda               0.00     0.00    4.00    0.00   104.00     0.00    52.00     0.00    0.00    0.00    0.00   0.00   0.00
sdc               0.00     0.00  147.00    0.00   612.00     0.00     8.33     0.26    1.74    1.74    0.00   1.74  25.60
sdb               0.00     0.00  139.00    0.00   556.00     0.00     8.00     0.26    1.85    1.85    0.00   1.85  25.70
sdd               0.00     0.00  167.00    0.00   720.00     0.00     8.62     0.47    2.81    2.81    0.00   2.83  47.30
md0               0.00     0.00  454.00    0.00  1892.00     0.00     8.33     0.00    0.00    0.00    0.00   0.00   0.00

avg-cpu:  %user   %nice %system %iowait  %steal   %idle
           3.12    0.00    0.03    3.09    0.00   93.75

Device:         rrqm/s   wrqm/s     r/s     w/s    rkB/s    wkB/s avgrq-sz avgqu-sz   await r_await w_await  svctm  %util
nvme0n1           0.00     0.00    0.00    0.00     0.00     0.00     0.00     0.00    0.00    0.00    0.00   0.00   0.00
sda               0.00     0.00    0.00    0.00     0.00     0.00     0.00     0.00    0.00    0.00    0.00   0.00   0.00
sdc               0.00     0.00  158.00    0.00   680.00     0.00     8.61     0.37    2.36    2.36    0.00   2.36  37.30
sdb               0.00     0.00  151.00    0.00   652.00     0.00     8.64     0.27    1.80    1.80    0.00   1.80  27.20
sdd               0.00     0.00  136.00    0.00   572.00     0.00     8.41     0.35    2.60    2.60    0.00   2.57  34.90
md0               0.00     0.00  445.00    0.00  1904.00     0.00     8.56     0.00    0.00    0.00    0.00   0.00   0.00

avg-cpu:  %user   %nice %system %iowait  %steal   %idle
           3.13    0.00    0.03    3.06    0.00   93.78

Device:         rrqm/s   wrqm/s     r/s     w/s    rkB/s    wkB/s avgrq-sz avgqu-sz   await r_await w_await  svctm  %util
nvme0n1           0.00     0.00    0.00    0.00     0.00     0.00     0.00     0.00    0.00    0.00    0.00   0.00   0.00
sda               0.00     0.00    0.00    0.00     0.00     0.00     0.00     0.00    0.00    0.00    0.00   0.00   0.00
sdc               0.00     0.00  148.00    0.00   700.00     0.00     9.46     0.28    1.89    1.89    0.00   1.89  28.00
sdb               0.00     0.00  147.00    0.00   628.00     0.00     8.54     0.32    2.12    2.12    0.00   2.14  31.40
sdd               0.00     0.00  141.00    0.00   576.00     0.00     8.17     0.40    2.82    2.82    0.00   2.82  39.70
md0               0.00     0.00  436.00    0.00  1904.00     0.00     8.73     0.00    0.00    0.00    0.00   0.00   0.00

avg-cpu:  %user   %nice %system %iowait  %steal   %idle
           3.12    0.00    0.06    3.09    0.00   93.72

Device:         rrqm/s   wrqm/s     r/s     w/s    rkB/s    wkB/s avgrq-sz avgqu-sz   await r_await w_await  svctm  %util
nvme0n1           0.00     0.00    0.00    0.00     0.00     0.00     0.00     0.00    0.00    0.00    0.00   0.00   0.00
sda               0.00     0.00    0.00    0.00     0.00     0.00     0.00     0.00    0.00    0.00    0.00   0.00   0.00
sdc               0.00     0.00  169.00    0.00   736.00     0.00     8.71     0.26    1.51    1.51    0.00   1.51  25.60
sdb               0.00     0.00  150.00    0.00   624.00     0.00     8.32     0.41    2.72    2.72    0.00   2.71  40.60
sdd               0.00     0.00  146.00    0.00   788.00     0.00    10.79     0.33    2.24    2.24    0.00   2.23  32.60
md0               0.00     0.00  465.00    0.00  2148.00     0.00     9.24     0.00    0.00    0.00    0.00   0.00   0.00

avg-cpu:  %user   %nice %system %iowait  %steal   %idle
           3.10    0.00    0.03    3.06    0.00   93.81

Device:         rrqm/s   wrqm/s     r/s     w/s    rkB/s    wkB/s avgrq-sz avgqu-sz   await r_await w_await  svctm  %util
nvme0n1           0.00     0.00    0.00    0.00     0.00     0.00     0.00     0.00    0.00    0.00    0.00   0.00   0.00
sda               0.00     7.00    0.00    2.00     0.00    36.00    36.00     0.00    0.00    0.00    0.00   0.00   0.00
sdc               0.00     0.00  142.00    0.00   604.00     0.00     8.51     0.35    2.50    2.50    0.00   2.50  35.50
sdb               0.00     0.00  151.00    0.00   664.00     0.00     8.79     0.32    2.06    2.06    0.00   2.11  31.80
sdd               0.00     0.00  153.00    0.00   648.00     0.00     8.47     0.32    2.08    2.08    0.00   2.08  31.80
md0               0.00     0.00  446.00    0.00  1916.00     0.00     8.59     0.00    0.00    0.00    0.00   0.00   0.00

avg-cpu:  %user   %nice %system %iowait  %steal   %idle
           3.12    0.00    0.03    3.09    0.00   93.75

Device:         rrqm/s   wrqm/s     r/s     w/s    rkB/s    wkB/s avgrq-sz avgqu-sz   await r_await w_await  svctm  %util
nvme0n1           0.00     0.00    0.00    0.00     0.00     0.00     0.00     0.00    0.00    0.00    0.00   0.00   0.00
sda               0.00     0.00    0.00    0.00     0.00     0.00     0.00     0.00    0.00    0.00    0.00   0.00   0.00
sdc               0.00     0.00  138.00    0.00   564.00     0.00     8.17     0.45    3.25    3.25    0.00   3.29  45.40
sdb               0.00     0.00  150.00    0.00   648.00     0.00     8.64     0.36    2.44    2.44    0.00   2.39  35.80
sdd               0.00     0.00  154.00    0.00   724.00     0.00     9.40     0.18    1.16    1.16    0.00   1.16  17.80
md0               0.00     0.00  442.00    0.00  1936.00     0.00     8.76     0.00    0.00    0.00    0.00   0.00   0.00

avg-cpu:  %user   %nice %system %iowait  %steal   %idle
           3.13    0.00    0.03    3.06    0.00   93.78

Device:         rrqm/s   wrqm/s     r/s     w/s    rkB/s    wkB/s avgrq-sz avgqu-sz   await r_await w_await  svctm  %util
nvme0n1           0.00     0.00    0.00    0.00     0.00     0.00     0.00     0.00    0.00    0.00    0.00   0.00   0.00
sda               0.00     0.00    0.00    0.00     0.00     0.00     0.00     0.00    0.00    0.00    0.00   0.00   0.00
sdc               0.00     0.00  151.00    0.00   640.00     0.00     8.48     0.34    2.26    2.26    0.00   2.23  33.60
sdb               0.00     0.00  147.00    0.00   684.00     0.00     9.31     0.47    3.19    3.19    0.00   3.19  46.90
sdd               0.00     0.00  171.00    0.00   732.00     0.00     8.56     0.19    1.10    1.10    0.00   1.10  18.80
md0               0.00     0.00  469.00    0.00  2056.00     0.00     8.77     0.00    0.00    0.00    0.00   0.00   0.00

avg-cpu:  %user   %nice %system %iowait  %steal   %idle
           3.12    0.00    0.03    3.09    0.00   93.75

Device:         rrqm/s   wrqm/s     r/s     w/s    rkB/s    wkB/s avgrq-sz avgqu-sz   await r_await w_await  svctm  %util
nvme0n1           0.00     0.00    0.00    0.00     0.00     0.00     0.00     0.00    0.00    0.00    0.00   0.00   0.00
sda               0.00     4.00    0.00    3.00     0.00    44.00    29.33     0.00    0.00    0.00    0.00   0.00   0.00
sdc               0.00     0.00  160.00    0.00   692.00     0.00     8.65     0.38    2.34    2.34    0.00   2.34  37.50
sdb               0.00     0.00  115.00    0.00   500.00     0.00     8.70     0.21    1.77    1.77    0.00   1.79  20.60
sdd               0.00     0.00  161.00    0.00   680.00     0.00     8.45     0.41    2.54    2.54    0.00   2.54  40.90
md0               0.00     0.00  436.00    0.00  1880.00     0.00     8.62     0.00    0.00    0.00    0.00   0.00   0.00

avg-cpu:  %user   %nice %system %iowait  %steal   %idle
           3.13    0.00    0.03    3.06    0.00   93.78

Device:         rrqm/s   wrqm/s     r/s     w/s    rkB/s    wkB/s avgrq-sz avgqu-sz   await r_await w_await  svctm  %util
nvme0n1           0.00     0.00    0.00    0.00     0.00     0.00     0.00     0.00    0.00    0.00    0.00   0.00   0.00
sda               0.00     0.00    0.00    0.00     0.00     0.00     0.00     0.00    0.00    0.00    0.00   0.00   0.00
sdc               0.00     0.00  116.00    0.00   464.00     0.00     8.00     0.27    2.35    2.35    0.00   2.35  27.30
sdb               0.00     0.00  158.00    0.00   668.00     0.00     8.46     0.28    1.78    1.78    0.00   1.77  27.90
sdd               0.00     0.00  164.00    0.00   800.00     0.00     9.76     0.44    2.68    2.68    0.00   2.68  43.90
md0               0.00     0.00  438.00    0.00  1932.00     0.00     8.82     0.00    0.00    0.00    0.00   0.00   0.00

avg-cpu:  %user   %nice %system %iowait  %steal   %idle
           3.13    0.00    0.03    3.10    0.00   93.75

Device:         rrqm/s   wrqm/s     r/s     w/s    rkB/s    wkB/s avgrq-sz avgqu-sz   await r_await w_await  svctm  %util
nvme0n1           0.00     0.00    0.00    0.00     0.00     0.00     0.00     0.00    0.00    0.00    0.00   0.00   0.00
sda               0.00     3.00   55.00    2.00   432.00    20.00    15.86     0.01    0.12    0.13    0.00   0.04   0.20
sdc               0.00     0.00  136.00    0.00   568.00     0.00     8.35     0.40    2.90    2.90    0.00   2.93  39.80
sdb               0.00     0.00  145.00    0.00   616.00     0.00     8.50     0.29    1.99    1.99    0.00   1.99  28.90
sdd               0.00     0.00  161.00    0.00   656.00     0.00     8.15     0.31    1.91    1.91    0.00   1.91  30.80
md0               0.00     0.00  442.00    0.00  1840.00     0.00     8.33     0.00    0.00    0.00    0.00   0.00   0.00

avg-cpu:  %user   %nice %system %iowait  %steal   %idle
           3.12    0.00    0.06    3.09    0.00   93.72

Device:         rrqm/s   wrqm/s     r/s     w/s    rkB/s    wkB/s avgrq-sz avgqu-sz   await r_await w_await  svctm  %util
nvme0n1           0.00     0.00    0.00    0.00     0.00     0.00     0.00     0.00    0.00    0.00    0.00   0.00   0.00
sda               0.00     0.00    0.00    0.00     0.00     0.00     0.00     0.00    0.00    0.00    0.00   0.00   0.00
sdc               0.00     0.00  144.00    0.00   576.00     0.00     8.00     0.23    1.60    1.60    0.00   1.57  22.60
sdb               0.00     0.00  133.00    0.00   628.00     0.00     9.44     0.25    1.86    1.86    0.00   1.86  24.70
sdd               0.00     0.00  148.00    0.00   604.00     0.00     8.16     0.52    3.49    3.49    0.00   3.52  52.10
md0               0.00     0.00  425.00    0.00  1808.00     0.00     8.51     0.00    0.00    0.00    0.00   0.00   0.00

avg-cpu:  %user   %nice %system %iowait  %steal   %idle
           3.13    0.00    0.03    3.06    0.00   93.78

Device:         rrqm/s   wrqm/s     r/s     w/s    rkB/s    wkB/s avgrq-sz avgqu-sz   await r_await w_await  svctm  %util
nvme0n1           0.00     0.00    0.00    0.00     0.00     0.00     0.00     0.00    0.00    0.00    0.00   0.00   0.00
sda               0.00     0.00    0.00    0.00     0.00     0.00     0.00     0.00    0.00    0.00    0.00   0.00   0.00
sdc               0.00     0.00  145.00    0.00   628.00     0.00     8.66     0.34    2.38    2.38    0.00   2.38  34.50
sdb               0.00     0.00  158.00    0.00   656.00     0.00     8.30     0.34    2.16    2.16    0.00   2.16  34.10
sdd               0.00     0.00  134.00    0.00   560.00     0.00     8.36     0.30    2.28    2.28    0.00   2.27  30.40
md0               0.00     0.00  437.00    0.00  1844.00     0.00     8.44     0.00    0.00    0.00    0.00   0.00   0.00

avg-cpu:  %user   %nice %system %iowait  %steal   %idle
           3.13    0.00    0.00    3.09    0.00   93.78

Device:         rrqm/s   wrqm/s     r/s     w/s    rkB/s    wkB/s avgrq-sz avgqu-sz   await r_await w_await  svctm  %util
nvme0n1           0.00     0.00    0.00    0.00     0.00     0.00     0.00     0.00    0.00    0.00    0.00   0.00   0.00
sda               0.00     1.00    0.00   17.00     0.00    72.00     8.47     0.00    0.00    0.00    0.00   0.00   0.00
sdc               0.00     0.00  162.00    0.00   744.00     0.00     9.19     0.32    1.94    1.94    0.00   1.97  31.90
sdb               0.00     0.00  146.00    0.00   584.00     0.00     8.00     0.31    2.12    2.12    0.00   2.12  31.00
sdd               0.00     0.00  131.00    0.00   568.00     0.00     8.67     0.36    2.81    2.81    0.00   2.78  36.40
md0               0.00     0.00  439.00    0.00  1896.00     0.00     8.64     0.00    0.00    0.00    0.00   0.00   0.00

avg-cpu:  %user   %nice %system %iowait  %steal   %idle
           3.13    0.00    0.03    3.06    0.00   93.78

Device:         rrqm/s   wrqm/s     r/s     w/s    rkB/s    wkB/s avgrq-sz avgqu-sz   await r_await w_await  svctm  %util
nvme0n1           0.00     0.00    0.00    0.00     0.00     0.00     0.00     0.00    0.00    0.00    0.00   0.00   0.00
sda               0.00     0.00    0.00    0.00     0.00     0.00     0.00     0.00    0.00    0.00    0.00   0.00   0.00
sdc               0.00     0.00  140.00    0.00   968.00     0.00    13.83     0.43    3.06    3.06    0.00   3.04  42.50
sdb               0.00     0.00  156.00    0.00   636.00     0.00     8.15     0.21    1.36    1.36    0.00   1.36  21.20
sdd               0.00     0.00  125.00    0.00   536.00     0.00     8.58     0.36    2.86    2.86    0.00   2.86  35.80
md0               0.00     0.00  421.00    0.00  2140.00     0.00    10.17     0.00    0.00    0.00    0.00   0.00   0.00

avg-cpu:  %user   %nice %system %iowait  %steal   %idle
           3.12    0.00    0.03    3.09    0.00   93.75

Device:         rrqm/s   wrqm/s     r/s     w/s    rkB/s    wkB/s avgrq-sz avgqu-sz   await r_await w_await  svctm  %util
nvme0n1           0.00     0.00    0.00    0.00     0.00     0.00     0.00     0.00    0.00    0.00    0.00   0.00   0.00
sda               0.00     3.00    0.00    2.00     0.00    20.00    20.00     0.00    0.00    0.00    0.00   0.00   0.00
sdc               0.00     0.00  153.00    0.00   676.00     0.00     8.84     0.23    1.54    1.54    0.00   1.53  23.40
sdb               0.00     0.00  147.00    0.00   588.00     0.00     8.00     0.37    2.53    2.53    0.00   2.54  37.40
sdd               0.00     0.00  132.00    0.00   544.00     0.00     8.24     0.39    2.94    2.94    0.00   2.94  38.80
md0               0.00     0.00  432.00    0.00  1808.00     0.00     8.37     0.00    0.00    0.00    0.00   0.00   0.00

avg-cpu:  %user   %nice %system %iowait  %steal   %idle
           3.10    0.00    0.03    3.06    0.00   93.81

Device:         rrqm/s   wrqm/s     r/s     w/s    rkB/s    wkB/s avgrq-sz avgqu-sz   await r_await w_await  svctm  %util
nvme0n1           0.00     0.00    0.00    0.00     0.00     0.00     0.00     0.00    0.00    0.00    0.00   0.00   0.00
sda               0.00     0.00    0.00    0.00     0.00     0.00     0.00     0.00    0.00    0.00    0.00   0.00   0.00
sdc               0.00     0.00  159.00    0.00   760.00     0.00     9.56     0.25    1.58    1.58    0.00   1.58  25.10
sdb               0.00     0.00  141.00    0.00   612.00     0.00     8.68     0.33    2.34    2.34    0.00   2.37  33.40
sdd               0.00     0.00  160.00    0.00   688.00     0.00     8.60     0.40    2.52    2.52    0.00   2.52  40.30
md0               0.00     0.00  460.00    0.00  2064.00     0.00     8.97     0.00    0.00    0.00    0.00   0.00   0.00

avg-cpu:  %user   %nice %system %iowait  %steal   %idle
           3.13    0.00    0.00    3.10    0.00   93.78

Device:         rrqm/s   wrqm/s     r/s     w/s    rkB/s    wkB/s avgrq-sz avgqu-sz   await r_await w_await  svctm  %util
nvme0n1           0.00     0.00    0.00    0.00     0.00     0.00     0.00     0.00    0.00    0.00    0.00   0.00   0.00
sda               0.00     0.00    0.00    0.00     0.00     0.00     0.00     0.00    0.00    0.00    0.00   0.00   0.00
sdc               0.00     0.00  166.00    0.00   788.00     0.00     9.49     0.34    2.07    2.07    0.00   2.06  34.20
sdb               0.00     0.00  140.00    0.00   596.00     0.00     8.51     0.34    2.46    2.46    0.00   2.44  34.20
sdd               0.00     0.00  157.00    0.00   628.00     0.00     8.00     0.31    1.97    1.97    0.00   1.97  30.90
md0               0.00     0.00  463.00    0.00  2012.00     0.00     8.69     0.00    0.00    0.00    0.00   0.00   0.00

avg-cpu:  %user   %nice %system %iowait  %steal   %idle
           3.13    0.00    0.03    3.06    0.00   93.78

Device:         rrqm/s   wrqm/s     r/s     w/s    rkB/s    wkB/s avgrq-sz avgqu-sz   await r_await w_await  svctm  %util
nvme0n1           0.00     0.00    0.00    0.00     0.00     0.00     0.00     0.00    0.00    0.00    0.00   0.00   0.00
sda               0.00     0.00    0.00    0.00     0.00     0.00     0.00     0.00    0.00    0.00    0.00   0.00   0.00
sdc               0.00     0.00  146.00    0.00   596.00     0.00     8.16     0.33    2.23    2.23    0.00   2.23  32.60
sdb               0.00     0.00  144.00    0.00   612.00     0.00     8.50     0.29    2.06    2.06    0.00   2.05  29.50
sdd               0.00     0.00  149.00    0.00   620.00     0.00     8.32     0.37    2.46    2.46    0.00   2.46  36.60
md0               0.00     0.00  439.00    0.00  1828.00     0.00     8.33     0.00    0.00    0.00    0.00   0.00   0.00

avg-cpu:  %user   %nice %system %iowait  %steal   %idle
           3.12    0.00    0.06    3.09    0.00   93.72

Device:         rrqm/s   wrqm/s     r/s     w/s    rkB/s    wkB/s avgrq-sz avgqu-sz   await r_await w_await  svctm  %util
nvme0n1           0.00     0.00    0.00    0.00     0.00     0.00     0.00     0.00    0.00    0.00    0.00   0.00   0.00
sda               0.00     0.00    0.00    0.00     0.00     0.00     0.00     0.00    0.00    0.00    0.00   0.00   0.00
sdc               0.00     0.00  142.00    0.00   568.00     0.00     8.00     0.42    2.95    2.95    0.00   2.95  41.90
sdb               0.00     0.00  171.00    0.00   732.00     0.00     8.56     0.38    2.22    2.22    0.00   2.20  37.60
sdd               0.00     0.00  147.00    0.00   696.00     0.00     9.47     0.20    1.34    1.34    0.00   1.34  19.70
md0               0.00     0.00  460.00    0.00  1996.00     0.00     8.68     0.00    0.00    0.00    0.00   0.00   0.00

avg-cpu:  %user   %nice %system %iowait  %steal   %idle
           3.12    0.00    0.03    3.09    0.00   93.75

Device:         rrqm/s   wrqm/s     r/s     w/s    rkB/s    wkB/s avgrq-sz avgqu-sz   await r_await w_await  svctm  %util
nvme0n1           0.00     0.00    0.00    0.00     0.00     0.00     0.00     0.00    0.00    0.00    0.00   0.00   0.00
sda               0.00     1.00    0.00    2.00     0.00    12.00    12.00     0.00    0.00    0.00    0.00   0.00   0.00
sdc               0.00     0.00  129.00    0.00   528.00     0.00     8.19     0.29    2.19    2.19    0.00   2.22  28.70
sdb               0.00     0.00  161.00    0.00   720.00     0.00     8.94     0.37    2.32    2.32    0.00   2.31  37.20
sdd               0.00     0.00  143.00    0.00   644.00     0.00     9.01     0.33    2.32    2.32    0.00   2.32  33.20
md0               0.00     0.00  433.00    0.00  1892.00     0.00     8.74     0.00    0.00    0.00    0.00   0.00   0.00

