Linux 4.17.2 (bench2) 	08/04/2018 	_x86_64_	(32 CPU)

avg-cpu:  %user   %nice %system %iowait  %steal   %idle
           1.89    0.00    1.54    1.63    0.00   94.94

Device:         rrqm/s   wrqm/s     r/s     w/s    rkB/s    wkB/s avgrq-sz avgqu-sz   await r_await w_await  svctm  %util
nvme0n1         925.18     5.02 18651.22  513.53 104327.13 11581.54    12.10     1.33    0.05    0.03    0.67   0.02  39.04
sda               0.12     0.82   14.19    0.58   164.10     8.57    23.38     0.00    0.33    0.32    0.44   0.07   0.10
sdc              34.97     0.17  126.94    0.31  1890.05    96.38    31.22     0.15    1.17    0.25  381.84   0.89  11.37
sdb              32.96     0.18  128.91    0.33  1888.14    96.21    30.71     0.57    4.44    3.40  413.03   0.84  10.82
sdd              35.17     0.16  126.49    0.26  1886.16    95.89    31.28     0.89    7.01    5.17  909.23   0.90  11.40
md0               0.00     0.00  488.25    1.20  7019.88   347.70    30.11     0.00    0.00    0.00    0.00   0.00   0.00

avg-cpu:  %user   %nice %system %iowait  %steal   %idle
           3.09    0.00    0.09    2.84    0.00   93.97

Device:         rrqm/s   wrqm/s     r/s     w/s    rkB/s    wkB/s avgrq-sz avgqu-sz   await r_await w_await  svctm  %util
nvme0n1           0.00     0.00    0.00    0.00     0.00     0.00     0.00     0.00    0.00    0.00    0.00   0.00   0.00
sda               0.00     0.00   18.00    0.00    76.00     0.00     8.44     0.02    0.94    0.94    0.00   0.06   0.10
sdc              22.00     0.00  285.00    0.00 29884.00     0.00   209.71     0.64    2.24    2.24    0.00   1.75  49.80
sdb              23.00     0.00  247.00    0.00 26916.00     0.00   217.94     0.51    2.05    2.05    0.00   1.57  38.70
sdd              23.00     0.00  268.00    0.00 29564.00     0.00   220.63     0.77    2.86    2.86    0.00   2.14  57.30
md0               0.00     0.00  868.00    0.00 113728.00     0.00   262.05     0.00    0.00    0.00    0.00   0.00   0.00

avg-cpu:  %user   %nice %system %iowait  %steal   %idle
           3.09    0.00    0.19    2.81    0.00   93.91

Device:         rrqm/s   wrqm/s     r/s     w/s    rkB/s    wkB/s avgrq-sz avgqu-sz   await r_await w_await  svctm  %util
nvme0n1           0.00     0.00    0.00    0.00     0.00     0.00     0.00     0.00    0.00    0.00    0.00   0.00   0.00
sda               0.00     0.00    0.00    0.00     0.00     0.00     0.00     0.00    0.00    0.00    0.00   0.00   0.00
sdc              21.00     0.00  277.00    0.00 29016.00     0.00   209.50     0.62    2.24    2.24    0.00   1.74  48.10
sdb              19.00     0.00  329.00    0.00 30712.00     0.00   186.70     0.48    1.45    1.45    0.00   1.16  38.20
sdd              19.00     0.00  291.00    0.00 30112.00     0.00   206.96     0.65    2.24    2.24    0.00   1.77  51.60
md0               0.00     0.00  958.00    0.00 117532.00     0.00   245.37     0.00    0.00    0.00    0.00   0.00   0.00

avg-cpu:  %user   %nice %system %iowait  %steal   %idle
           3.07    0.00    0.09    2.91    0.00   93.93

Device:         rrqm/s   wrqm/s     r/s     w/s    rkB/s    wkB/s avgrq-sz avgqu-sz   await r_await w_await  svctm  %util
nvme0n1           0.00     0.00    0.00    0.00     0.00     0.00     0.00     0.00    0.00    0.00    0.00   0.00   0.00
sda               0.00     0.00    0.00    0.00     0.00     0.00     0.00     0.00    0.00    0.00    0.00   0.00   0.00
sdc              31.00     0.00  277.00    0.00 35400.00     0.00   255.60     0.47    1.70    1.70    0.00   1.34  37.00
sdb              33.00     0.00  292.00    0.00 36968.00     0.00   253.21     0.79    2.70    2.70    0.00   1.85  54.00
sdd              33.00     0.00  315.00    0.00 33264.00     0.00   211.20     0.72    2.30    2.30    0.00   1.80  56.60
md0               0.00     0.00  980.00    0.00 151532.00     0.00   309.25     0.00    0.00    0.00    0.00   0.00   0.00

avg-cpu:  %user   %nice %system %iowait  %steal   %idle
           3.13    0.00    0.09    2.81    0.00   93.97

Device:         rrqm/s   wrqm/s     r/s     w/s    rkB/s    wkB/s avgrq-sz avgqu-sz   await r_await w_await  svctm  %util
nvme0n1           0.00     0.00    0.00    0.00     0.00     0.00     0.00     0.00    0.00    0.00    0.00   0.00   0.00
sda               0.00     0.00    0.00    0.00     0.00     0.00     0.00     0.00    0.00    0.00    0.00   0.00   0.00
sdc              35.00     0.00  270.00    0.00 36808.00     0.00   272.65     0.71    2.64    2.64    0.00   1.74  47.10
sdb              33.00     0.00  277.00    0.00 35456.00     0.00   256.00     0.75    2.71    2.71    0.00   1.90  52.60
sdd              35.00     0.00  264.00    0.00 35416.00     0.00   268.30     0.77    2.91    2.91    0.00   1.92  50.80
md0               0.00     0.00  913.00    0.00 147660.00     0.00   323.46     0.00    0.00    0.00    0.00   0.00   0.00

