Linux 4.17.2 (bench2) 	08/04/2018 	_x86_64_	(32 CPU)

avg-cpu:  %user   %nice %system %iowait  %steal   %idle
           1.89    0.00    1.53    1.64    0.00   94.94

Device:         rrqm/s   wrqm/s     r/s     w/s    rkB/s    wkB/s avgrq-sz avgqu-sz   await r_await w_await  svctm  %util
nvme0n1         921.54     5.00 18577.85  511.51 103916.73 11535.98    12.10     1.32    0.05    0.03    0.67   0.02  38.89
sda               0.12     0.82   14.20    0.59   164.15     8.57    23.36     0.00    0.33    0.32    0.43   0.07   0.10
sdc              35.31     0.17  129.48    0.31  1914.28    96.01    30.98     0.18    1.37    0.47  381.84   0.89  11.52
sdb              33.31     0.18  131.44    0.33  1912.39    95.83    30.48     0.60    4.56    3.55  413.03   0.83  10.97
sdd              35.50     0.16  129.03    0.26  1910.42    95.51    31.03     0.92    7.08    5.29  909.23   0.89  11.56
md0               0.00     0.00  496.85    1.19  7105.70   346.34    29.93     0.00    0.00    0.00    0.00   0.00   0.00

avg-cpu:  %user   %nice %system %iowait  %steal   %idle
           3.12    0.00    0.09    0.53    0.00   96.25

Device:         rrqm/s   wrqm/s     r/s     w/s    rkB/s    wkB/s avgrq-sz avgqu-sz   await r_await w_await  svctm  %util
nvme0n1           0.00     0.00    0.00    0.00     0.00     0.00     0.00     0.00    0.00    0.00    0.00   0.00   0.00
sda               0.00     0.00    3.00    0.00   100.00     0.00    66.67     0.00    0.33    0.33    0.00   0.33   0.10
sdc               0.00     0.00  186.00    0.00  2924.00     0.00    31.44     0.29    1.48    1.48    0.00   1.46  27.10
sdb               0.00     0.00  196.00    0.00  3700.00     0.00    37.76     0.38    1.92    1.92    0.00   1.82  35.60
sdd               0.00     0.00  201.00    0.00  3284.00     0.00    32.68     0.44    2.17    2.17    0.00   1.97  39.60
md0               0.00     0.00  586.00    0.00 10948.00     0.00    37.37     0.00    0.00    0.00    0.00   0.00   0.00

avg-cpu:  %user   %nice %system %iowait  %steal   %idle
           3.09    0.00    0.06    0.44    0.00   96.41

Device:         rrqm/s   wrqm/s     r/s     w/s    rkB/s    wkB/s avgrq-sz avgqu-sz   await r_await w_await  svctm  %util
nvme0n1           0.00     0.00    0.00    0.00     0.00     0.00     0.00     0.00    0.00    0.00    0.00   0.00   0.00
sda               0.00     0.00    0.00    0.00     0.00     0.00     0.00     0.00    0.00    0.00    0.00   0.00   0.00
sdc               0.00     0.00  183.00    0.00  2228.00     0.00    24.35     0.41    2.34    2.34    0.00   2.18  39.90
sdb               0.00     0.00  193.00    0.00  3024.00     0.00    31.34     0.32    1.64    1.64    0.00   1.51  29.10
sdd               0.00     0.00  181.00    0.00  2004.00     0.00    22.14     0.33    1.81    1.81    0.00   1.82  33.00
md0               0.00     0.00  555.00    0.00  7360.00     0.00    26.52     0.00    0.00    0.00    0.00   0.00   0.00

avg-cpu:  %user   %nice %system %iowait  %steal   %idle
           3.12    0.00    0.06    0.41    0.00   96.41

Device:         rrqm/s   wrqm/s     r/s     w/s    rkB/s    wkB/s avgrq-sz avgqu-sz   await r_await w_await  svctm  %util
nvme0n1           0.00     0.00    0.00    0.00     0.00     0.00     0.00     0.00    0.00    0.00    0.00   0.00   0.00
sda               0.00     0.00    0.00    0.00     0.00     0.00     0.00     0.00    0.00    0.00    0.00   0.00   0.00
sdc               1.00     0.00  210.00    0.00  3640.00     0.00    34.67     0.24    1.15    1.15    0.00   1.12  23.60
sdb               0.00     0.00  195.00    0.00  2392.00     0.00    24.53     0.38    1.96    1.96    0.00   1.91  37.20
sdd               1.00     0.00  199.00    0.00  2992.00     0.00    30.07     0.41    2.09    2.09    0.00   2.06  40.90
md0               0.00     0.00  606.00    0.00 10200.00     0.00    33.66     0.00    0.00    0.00    0.00   0.00   0.00

avg-cpu:  %user   %nice %system %iowait  %steal   %idle
           3.13    0.00    0.06    0.44    0.00   96.37

Device:         rrqm/s   wrqm/s     r/s     w/s    rkB/s    wkB/s avgrq-sz avgqu-sz   await r_await w_await  svctm  %util
nvme0n1           0.00     0.00    0.00    0.00     0.00     0.00     0.00     0.00    0.00    0.00    0.00   0.00   0.00
sda               0.00     0.00    0.00    0.00     0.00     0.00     0.00     0.00    0.00    0.00    0.00   0.00   0.00
sdc               0.00     0.00  198.00    0.00  2520.00     0.00    25.45     0.30    1.52    1.52    0.00   1.47  29.20
sdb               0.00     0.00  170.00    0.00  2784.00     0.00    32.75     0.38    2.24    2.24    0.00   2.22  37.70
sdd               0.00     0.00  188.00    0.00  3004.00     0.00    31.96     0.35    1.88    1.88    0.00   1.84  34.60
md0               0.00     0.00  556.00    0.00  8856.00     0.00    31.86     0.00    0.00    0.00    0.00   0.00   0.00

avg-cpu:  %user   %nice %system %iowait  %steal   %idle
           3.12    0.00    0.06    0.38    0.00   96.44

Device:         rrqm/s   wrqm/s     r/s     w/s    rkB/s    wkB/s avgrq-sz avgqu-sz   await r_await w_await  svctm  %util
nvme0n1           0.00     0.00    0.00    0.00     0.00     0.00     0.00     0.00    0.00    0.00    0.00   0.00   0.00
sda               0.00     7.00    0.00    2.00     0.00    36.00    36.00     0.00    0.00    0.00    0.00   0.00   0.00
sdc               0.00     0.00  197.00    0.00  2384.00     0.00    24.20     0.28    1.43    1.43    0.00   1.40  27.50
sdb               0.00     0.00  189.00    0.00  2080.00     0.00    22.01     0.44    2.34    2.34    0.00   2.30  43.50
sdd               0.00     0.00  211.00    0.00  3952.00     0.00    37.46     0.31    1.46    1.46    0.00   1.42  29.90
md0               0.00     0.00  597.00    0.00  8944.00     0.00    29.96     0.00    0.00    0.00    0.00   0.00   0.00

avg-cpu:  %user   %nice %system %iowait  %steal   %idle
           3.09    0.00    0.06    0.28    0.00   96.56

Device:         rrqm/s   wrqm/s     r/s     w/s    rkB/s    wkB/s avgrq-sz avgqu-sz   await r_await w_await  svctm  %util
nvme0n1           0.00     0.00    0.00    0.00     0.00     0.00     0.00     0.00    0.00    0.00    0.00   0.00   0.00
sda               0.00     0.00    0.00    0.00     0.00     0.00     0.00     0.00    0.00    0.00    0.00   0.00   0.00
sdc               0.00     0.00  192.00    0.00  2412.00     0.00    25.12     0.25    1.31    1.31    0.00   1.30  25.00
sdb               0.00     0.00  188.00    0.00  2276.00     0.00    24.21     0.40    2.09    2.09    0.00   2.07  38.90
sdd               0.00     0.00  199.00    0.00  2832.00     0.00    28.46     0.38    1.92    1.92    0.00   1.88  37.40
md0               0.00     0.00  580.00    0.00  8212.00     0.00    28.32     0.00    0.00    0.00    0.00   0.00   0.00

avg-cpu:  %user   %nice %system %iowait  %steal   %idle
           3.13    0.00    0.06    0.34    0.00   96.47

Device:         rrqm/s   wrqm/s     r/s     w/s    rkB/s    wkB/s avgrq-sz avgqu-sz   await r_await w_await  svctm  %util
nvme0n1           0.00     0.00    0.00    0.00     0.00     0.00     0.00     0.00    0.00    0.00    0.00   0.00   0.00
sda               0.00     0.00    0.00    0.00     0.00     0.00     0.00     0.00    0.00    0.00    0.00   0.00   0.00
sdc               0.00     0.00  187.00    0.00  2488.00     0.00    26.61     0.32    1.72    1.72    0.00   1.72  32.10
sdb               0.00     0.00  199.00    0.00  2592.00     0.00    26.05     0.41    2.06    2.06    0.00   1.95  38.80
sdd               1.00     0.00  242.00    0.00  3892.00     0.00    32.17     0.30    1.22    1.22    0.00   1.19  28.90
md0               0.00     0.00  628.00    0.00  9700.00     0.00    30.89     0.00    0.00    0.00    0.00   0.00   0.00

avg-cpu:  %user   %nice %system %iowait  %steal   %idle
           3.09    0.00    0.09    0.38    0.00   96.44

Device:         rrqm/s   wrqm/s     r/s     w/s    rkB/s    wkB/s avgrq-sz avgqu-sz   await r_await w_await  svctm  %util
nvme0n1           0.00     0.00    0.00    0.00     0.00     0.00     0.00     0.00    0.00    0.00    0.00   0.00   0.00
sda               0.00     0.00    0.00    0.00     0.00     0.00     0.00     0.00    0.00    0.00    0.00   0.00   0.00
sdc               0.00     0.00  237.00    0.00  3360.00     0.00    28.35     0.27    1.13    1.13    0.00   1.11  26.40
sdb               2.00     0.00  191.00    0.00  3600.00     0.00    37.70     0.33    1.71    1.71    0.00   1.65  31.60
sdd               0.00     0.00  241.00    0.00  5040.00     0.00    41.83     0.45    1.85    1.85    0.00   1.80  43.30
md0               0.00     0.00  671.00    0.00 13328.00     0.00    39.73     0.00    0.00    0.00    0.00   0.00   0.00

avg-cpu:  %user   %nice %system %iowait  %steal   %idle
           3.13    0.00    0.03    0.59    0.00   96.25

Device:         rrqm/s   wrqm/s     r/s     w/s    rkB/s    wkB/s avgrq-sz avgqu-sz   await r_await w_await  svctm  %util
nvme0n1           0.00     0.00    0.00    0.00     0.00     0.00     0.00     0.00    0.00    0.00    0.00   0.00   0.00
sda               0.00     5.00    0.00    2.00     0.00    44.00    44.00     0.00    0.00    0.00    0.00   0.00   0.00
sdc               1.00     0.00  246.00    0.00  4264.00     0.00    34.67     0.42    1.67    1.67    0.00   1.64  40.30
sdb               2.00     0.00  208.00    0.00  4084.00     0.00    39.27     0.32    1.53    1.53    0.00   1.50  31.30
sdd               2.00     0.00  185.00    0.00  4116.00     0.00    44.50     0.32    1.76    1.76    0.00   1.71  31.70
md0               0.00     0.00  644.00    0.00 15120.00     0.00    46.96     0.00    0.00    0.00    0.00   0.00   0.00

avg-cpu:  %user   %nice %system %iowait  %steal   %idle
           3.13    0.00    0.03    0.53    0.00   96.31

Device:         rrqm/s   wrqm/s     r/s     w/s    rkB/s    wkB/s avgrq-sz avgqu-sz   await r_await w_await  svctm  %util
nvme0n1           0.00     0.00    0.00    0.00     0.00     0.00     0.00     0.00    0.00    0.00    0.00   0.00   0.00
sda               0.00     6.00    0.00    2.00     0.00    32.00    32.00     0.00    0.00    0.00    0.00   0.00   0.00
sdc               0.00     0.00  195.00    0.00  2964.00     0.00    30.40     0.24    1.23    1.23    0.00   1.21  23.50
sdb               0.00     0.00  200.00    0.00  3276.00     0.00    32.76     0.26    1.29    1.29    0.00   1.28  25.60
sdd               0.00     0.00  203.00    0.00  3432.00     0.00    33.81     0.54    2.65    2.65    0.00   2.59  52.60
md0               0.00     0.00  598.00    0.00 10792.00     0.00    36.09     0.00    0.00    0.00    0.00   0.00   0.00

avg-cpu:  %user   %nice %system %iowait  %steal   %idle
           3.12    0.00    0.06    0.38    0.00   96.44

Device:         rrqm/s   wrqm/s     r/s     w/s    rkB/s    wkB/s avgrq-sz avgqu-sz   await r_await w_await  svctm  %util
nvme0n1           0.00     0.00    0.00    0.00     0.00     0.00     0.00     0.00    0.00    0.00    0.00   0.00   0.00
sda               0.00     0.00    0.00    0.00     0.00     0.00     0.00     0.00    0.00    0.00    0.00   0.00   0.00
sdc               0.00     0.00  203.00    0.00  2760.00     0.00    27.19     0.26    1.30    1.30    0.00   1.25  25.40
sdb               0.00     0.00  195.00    0.00  3044.00     0.00    31.22     0.32    1.65    1.65    0.00   1.58  30.90
sdd               1.00     0.00  218.00    0.00  3600.00     0.00    33.03     0.47    2.14    2.14    0.00   2.07  45.10
md0               0.00     0.00  617.00    0.00 10348.00     0.00    33.54     0.00    0.00    0.00    0.00   0.00   0.00

avg-cpu:  %user   %nice %system %iowait  %steal   %idle
           3.12    0.00    0.06    0.38    0.00   96.44

Device:         rrqm/s   wrqm/s     r/s     w/s    rkB/s    wkB/s avgrq-sz avgqu-sz   await r_await w_await  svctm  %util
nvme0n1           0.00     0.00    0.00    0.00     0.00     0.00     0.00     0.00    0.00    0.00    0.00   0.00   0.00
sda               0.00     0.00    0.00    0.00     0.00     0.00     0.00     0.00    0.00    0.00    0.00   0.00   0.00
sdc               0.00     0.00  204.00    0.00  4292.00     0.00    42.08     0.42    2.06    2.06    0.00   1.97  40.10
sdb               2.00     0.00  206.00    0.00  4040.00     0.00    39.22     0.36    1.73    1.73    0.00   1.69  34.80
sdd               3.00     0.00  205.00    0.00  4436.00     0.00    43.28     0.29    1.41    1.41    0.00   1.39  28.50
md0               0.00     0.00  620.00    0.00 15480.00     0.00    49.94     0.00    0.00    0.00    0.00   0.00   0.00

avg-cpu:  %user   %nice %system %iowait  %steal   %idle
           3.10    0.00    0.03    0.28    0.00   96.59

Device:         rrqm/s   wrqm/s     r/s     w/s    rkB/s    wkB/s avgrq-sz avgqu-sz   await r_await w_await  svctm  %util
nvme0n1           0.00     0.00    0.00    0.00     0.00     0.00     0.00     0.00    0.00    0.00    0.00   0.00   0.00
sda               0.00     0.00    0.00    0.00     0.00     0.00     0.00     0.00    0.00    0.00    0.00   0.00   0.00
sdc               0.00     0.00  178.00    0.00  3456.00     0.00    38.83     0.42    2.36    2.36    0.00   2.04  36.40
sdb               0.00     0.00  208.00    0.00  3312.00     0.00    31.85     0.33    1.61    1.61    0.00   1.35  28.00
sdd               0.00     0.00  225.00    0.00  3552.00     0.00    31.57     0.52    2.28    2.28    0.00   1.78  40.10
md0               0.00     0.00  611.00    0.00 11168.00     0.00    36.56     0.00    0.00    0.00    0.00   0.00   0.00

avg-cpu:  %user   %nice %system %iowait  %steal   %idle
           3.12    0.00    0.06    0.44    0.00   96.38

Device:         rrqm/s   wrqm/s     r/s     w/s    rkB/s    wkB/s avgrq-sz avgqu-sz   await r_await w_await  svctm  %util
nvme0n1           0.00     0.00    0.00    0.00     0.00     0.00     0.00     0.00    0.00    0.00    0.00   0.00   0.00
sda               0.00     0.00    0.00    0.00     0.00     0.00     0.00     0.00    0.00    0.00    0.00   0.00   0.00
sdc               0.00     0.00  160.00    0.00  2244.00     0.00    28.05     0.36    2.24    2.24    0.00   2.15  34.40
sdb               0.00     0.00  167.00    0.00  2332.00     0.00    27.93     0.27    1.59    1.59    0.00   1.52  25.40
sdd               0.00     0.00  195.00    0.00  3140.00     0.00    32.21     0.44    2.22    2.22    0.00   2.18  42.50
md0               0.00     0.00  522.00    0.00  8456.00     0.00    32.40     0.00    0.00    0.00    0.00   0.00   0.00

avg-cpu:  %user   %nice %system %iowait  %steal   %idle
           3.09    0.00    0.06    0.50    0.00   96.34

Device:         rrqm/s   wrqm/s     r/s     w/s    rkB/s    wkB/s avgrq-sz avgqu-sz   await r_await w_await  svctm  %util
nvme0n1           0.00     0.00    0.00    0.00     0.00     0.00     0.00     0.00    0.00    0.00    0.00   0.00   0.00
sda               0.00     1.00    0.00    2.00     0.00    12.00    12.00     0.00    0.00    0.00    0.00   0.00   0.00
sdc               0.00     0.00  208.00    0.00  3012.00     0.00    28.96     0.25    1.19    1.19    0.00   1.14  23.80
sdb               0.00     0.00  182.00    0.00  2936.00     0.00    32.26     0.27    1.46    1.46    0.00   1.43  26.00
sdd               0.00     0.00  192.00    0.00  3440.00     0.00    35.83     0.54    2.85    2.85    0.00   2.77  53.10
md0               0.00     0.00  582.00    0.00 10644.00     0.00    36.58     0.00    0.00    0.00    0.00   0.00   0.00

avg-cpu:  %user   %nice %system %iowait  %steal   %idle
           3.12    0.00    0.09    0.50    0.00   96.28

Device:         rrqm/s   wrqm/s     r/s     w/s    rkB/s    wkB/s avgrq-sz avgqu-sz   await r_await w_await  svctm  %util
nvme0n1           0.00     0.00    0.00    0.00     0.00     0.00     0.00     0.00    0.00    0.00    0.00   0.00   0.00
sda               0.00     0.00    0.00    0.00     0.00     0.00     0.00     0.00    0.00    0.00    0.00   0.00   0.00
sdc               1.00     0.00  184.00    0.00  3892.00     0.00    42.30     0.27    1.43    1.43    0.00   1.38  25.40
sdb               0.00     0.00  205.00    0.00  3104.00     0.00    30.28     0.35    1.74    1.74    0.00   1.66  34.10
sdd               0.00     0.00  227.00    0.00  3420.00     0.00    30.13     0.45    1.99    1.99    0.00   1.91  43.40
md0               0.00     0.00  617.00    0.00 11880.00     0.00    38.51     0.00    0.00    0.00    0.00   0.00   0.00

avg-cpu:  %user   %nice %system %iowait  %steal   %idle
           3.10    0.00    0.03    0.38    0.00   96.50

Device:         rrqm/s   wrqm/s     r/s     w/s    rkB/s    wkB/s avgrq-sz avgqu-sz   await r_await w_await  svctm  %util
nvme0n1           0.00     0.00    0.00    0.00     0.00     0.00     0.00     0.00    0.00    0.00    0.00   0.00   0.00
sda               0.00     0.00    0.00    0.00     0.00     0.00     0.00     0.00    0.00    0.00    0.00   0.00   0.00
sdc               1.00     0.00  178.00    0.00  2924.00     0.00    32.85     0.34    1.90    1.90    0.00   1.85  32.90
sdb               0.00     0.00  201.00    0.00  3172.00     0.00    31.56     0.34    1.71    1.71    0.00   1.63  32.70
sdd               2.00     0.00  185.00    0.00  3540.00     0.00    38.27     0.40    2.14    2.14    0.00   2.02  37.40
md0               0.00     0.00  567.00    0.00 11064.00     0.00    39.03     0.00    0.00    0.00    0.00   0.00   0.00

avg-cpu:  %user   %nice %system %iowait  %steal   %idle
           3.12    0.00    0.03    0.41    0.00   96.44

Device:         rrqm/s   wrqm/s     r/s     w/s    rkB/s    wkB/s avgrq-sz avgqu-sz   await r_await w_await  svctm  %util
nvme0n1           0.00     0.00    0.00    0.00     0.00     0.00     0.00     0.00    0.00    0.00    0.00   0.00   0.00
sda               0.00     0.00    0.00    0.00     0.00     0.00     0.00     0.00    0.00    0.00    0.00   0.00   0.00
sdc               0.00     0.00  210.00    0.00  3088.00     0.00    29.41     0.43    2.08    2.08    0.00   1.96  41.20
sdb               0.00     0.00  204.00    0.00  3108.00     0.00    30.47     0.29    1.44    1.44    0.00   1.40  28.50
sdd               0.00     0.00  230.00    0.00  4292.00     0.00    37.32     0.35    1.51    1.51    0.00   1.38  31.80
md0               0.00     0.00  644.00    0.00 11128.00     0.00    34.56     0.00    0.00    0.00    0.00   0.00   0.00

avg-cpu:  %user   %nice %system %iowait  %steal   %idle
           3.13    0.00    0.03    3.06    0.00   93.78

Device:         rrqm/s   wrqm/s     r/s     w/s    rkB/s    wkB/s avgrq-sz avgqu-sz   await r_await w_await  svctm  %util
nvme0n1           0.00     0.00    0.00    0.00     0.00     0.00     0.00     0.00    0.00    0.00    0.00   0.00   0.00
sda               0.00     0.00    0.00    0.00     0.00     0.00     0.00     0.00    0.00    0.00    0.00   0.00   0.00
sdc               2.00     0.00  190.00    0.00  3560.00     0.00    37.47     0.46    2.43    2.43    0.00   2.29  43.50
sdb               1.00     0.00  196.00    0.00  4324.00     0.00    44.12     0.52    2.63    2.63    0.00   2.19  42.90
sdd               2.00     0.00  199.00    0.00  4408.00     0.00    44.30     0.23    1.13    1.13    0.00   1.02  20.20
md0               0.00     0.00  590.00    0.00 14068.00     0.00    47.69     0.00    0.00    0.00    0.00   0.00   0.00

avg-cpu:  %user   %nice %system %iowait  %steal   %idle
           3.13    0.00    0.06    3.03    0.00   93.78

Device:         rrqm/s   wrqm/s     r/s     w/s    rkB/s    wkB/s avgrq-sz avgqu-sz   await r_await w_await  svctm  %util
nvme0n1           0.00     0.00    0.00    0.00     0.00     0.00     0.00     0.00    0.00    0.00    0.00   0.00   0.00
sda               0.00     1.00    0.00    2.00     0.00    12.00    12.00     0.00    0.00    0.00    0.00   0.00   0.00
sdc               0.00     0.00  198.00    0.00  2852.00     0.00    28.81     0.25    1.26    1.26    0.00   1.18  23.30
sdb               0.00     0.00  217.00    0.00  3596.00     0.00    33.14     0.47    2.21    2.21    0.00   2.00  43.30
sdd               0.00     0.00  182.00    0.00  3556.00     0.00    39.08     0.38    2.10    2.10    0.00   1.98  36.00
md0               0.00     0.00  597.00    0.00 10544.00     0.00    35.32     0.00    0.00    0.00    0.00   0.00   0.00

