Linux 4.17.2 (bench2) 	08/04/2018 	_x86_64_	(32 CPU)

avg-cpu:  %user   %nice %system %iowait  %steal   %idle
           1.90    0.00    1.54    1.61    0.00   94.95

Device:         rrqm/s   wrqm/s     r/s     w/s    rkB/s    wkB/s avgrq-sz avgqu-sz   await r_await w_await  svctm  %util
nvme0n1         930.99     5.06 18768.31  516.75 104982.12 11654.25    12.10     1.34    0.05    0.03    0.67   0.02  39.29
sda               0.12     0.82   14.17    0.58   164.04     8.56    23.40     0.00    0.33    0.32    0.44   0.07   0.10
sdc              34.68     0.17  123.19    0.31  1846.41    96.99    31.47     0.11    0.90   12.30  381.84   0.90  11.13
sdb              32.66     0.19  125.16    0.33  1844.46    96.82    30.94     0.54    4.30    3.22  413.03   0.84  10.58
sdd              34.87     0.17  122.73    0.26  1842.46    96.49    31.53     0.85    6.93    5.03  909.23   0.91  11.14
md0               0.00     0.00  476.11    1.20  6860.20   349.89    30.21     0.00    0.00    0.00    0.00   0.00   0.00

avg-cpu:  %user   %nice %system %iowait  %steal   %idle
           3.07    0.00    0.19    0.19    0.00   96.56

Device:         rrqm/s   wrqm/s     r/s     w/s    rkB/s    wkB/s avgrq-sz avgqu-sz   await r_await w_await  svctm  %util
nvme0n1           0.00     0.00    0.00    0.00     0.00     0.00     0.00     0.00    0.00    0.00    0.00   0.00   0.00
sda               0.00     0.00    4.00    0.00   104.00     0.00    52.00     0.00    0.50    0.50    0.00   0.50   0.20
sdc               5.00     0.00 1221.00    0.00 16060.00     0.00    26.31     1.30    1.07    1.07    0.00   0.22  27.20
sdb               0.00     0.00 1250.00    0.00 18124.00     0.00    29.00     2.34    1.87    1.87    0.00   0.32  40.30
sdd               2.00     0.00 1167.00    0.00 16336.00     0.00    28.00     2.17    1.86    1.86    0.00   0.41  47.90
md0               0.00     0.00 3646.00    0.00 53524.00     0.00    29.36     0.00    0.00    0.00    0.00   0.00   0.00

avg-cpu:  %user   %nice %system %iowait  %steal   %idle
           3.07    0.00    0.22    0.13    0.00   96.59

Device:         rrqm/s   wrqm/s     r/s     w/s    rkB/s    wkB/s avgrq-sz avgqu-sz   await r_await w_await  svctm  %util
nvme0n1           0.00     0.00    0.00    0.00     0.00     0.00     0.00     0.00    0.00    0.00    0.00   0.00   0.00
sda               0.00     0.00    0.00    0.00     0.00     0.00     0.00     0.00    0.00    0.00    0.00   0.00   0.00
sdc               5.00     0.00 1435.00    0.00 20084.00     0.00    27.99     1.92    1.34    1.34    0.00   0.33  47.10
sdb               3.00     0.00 1418.00    0.00 20584.00     0.00    29.03     1.35    0.95    0.95    0.00   0.21  30.20
sdd               1.00     0.00 1542.00    0.00 20540.00     0.00    26.64     1.49    0.97    0.97    0.00   0.24  37.70
md0               0.00     0.00 4404.00    0.00 64532.00     0.00    29.31     0.00    0.00    0.00    0.00   0.00   0.00

avg-cpu:  %user   %nice %system %iowait  %steal   %idle
           3.06    0.00    0.28    0.38    0.00   96.28

Device:         rrqm/s   wrqm/s     r/s     w/s    rkB/s    wkB/s avgrq-sz avgqu-sz   await r_await w_await  svctm  %util
nvme0n1           0.00     0.00    0.00    0.00     0.00     0.00     0.00     0.00    0.00    0.00    0.00   0.00   0.00
sda               0.00     0.00    0.00    0.00     0.00     0.00     0.00     0.00    0.00    0.00    0.00   0.00   0.00
sdc              13.00     0.00 1551.00    0.00 22260.00     0.00    28.70     0.29    0.19    0.19    0.00   0.16  25.10
sdb              11.00     0.00 1518.00    0.00 20176.00     0.00    26.58     0.28    0.18    0.18    0.00   0.17  25.20
sdd              16.00     0.00 1560.00    0.00 21964.00     0.00    28.16     0.58    0.37    0.37    0.00   0.35  54.60
md0               0.00     0.00 4669.00    0.00 78352.00     0.00    33.56     0.00    0.00    0.00    0.00   0.00   0.00

avg-cpu:  %user   %nice %system %iowait  %steal   %idle
           3.07    0.00    0.19    0.38    0.00   96.37

Device:         rrqm/s   wrqm/s     r/s     w/s    rkB/s    wkB/s avgrq-sz avgqu-sz   await r_await w_await  svctm  %util
nvme0n1           0.00     0.00    0.00    0.00     0.00     0.00     0.00     0.00    0.00    0.00    0.00   0.00   0.00
sda               0.00     0.00    0.00    0.00     0.00     0.00     0.00     0.00    0.00    0.00    0.00   0.00   0.00
sdc              13.00     0.00 1624.00    0.00 21308.00     0.00    26.24     0.32    0.20    0.20    0.00   0.19  30.40
sdb              12.00     0.00 1609.00    0.00 20928.00     0.00    26.01     0.28    0.18    0.18    0.00   0.16  26.00
sdd              13.00     0.00 1610.00    0.00 21716.00     0.00    26.98     0.51    0.31    0.31    0.00   0.30  47.80
md0               0.00     0.00 4881.00    0.00 76356.00     0.00    31.29     0.00    0.00    0.00    0.00   0.00   0.00

avg-cpu:  %user   %nice %system %iowait  %steal   %idle
           3.07    0.00    0.25    0.34    0.00   96.34

Device:         rrqm/s   wrqm/s     r/s     w/s    rkB/s    wkB/s avgrq-sz avgqu-sz   await r_await w_await  svctm  %util
nvme0n1           0.00     0.00    0.00    0.00     0.00     0.00     0.00     0.00    0.00    0.00    0.00   0.00   0.00
sda               0.00     0.00    0.00    0.00     0.00     0.00     0.00     0.00    0.00    0.00    0.00   0.00   0.00
sdc               9.00     0.00 1650.00    0.00 23684.00     0.00    28.71     0.30    0.18    0.18    0.00   0.17  28.40
sdb              14.00     0.00 1594.00    0.00 23464.00     0.00    29.44     0.34    0.21    0.21    0.00   0.20  32.60
sdd              14.00     0.00 1623.00    0.00 24180.00     0.00    29.80     0.48    0.30    0.30    0.00   0.27  44.40
md0               0.00     0.00 4904.00    0.00 87232.00     0.00    35.58     0.00    0.00    0.00    0.00   0.00   0.00

avg-cpu:  %user   %nice %system %iowait  %steal   %idle
           3.07    0.00    0.22    0.38    0.00   96.34

Device:         rrqm/s   wrqm/s     r/s     w/s    rkB/s    wkB/s avgrq-sz avgqu-sz   await r_await w_await  svctm  %util
nvme0n1           0.00     0.00    0.00    0.00     0.00     0.00     0.00     0.00    0.00    0.00    0.00   0.00   0.00
sda               0.00     7.00    0.00    2.00     0.00    36.00    36.00     0.00    0.00    0.00    0.00   0.00   0.00
sdc              11.00     0.00 1669.00    0.00 21408.00     0.00    25.65     0.27    0.16    0.16    0.00   0.16  26.00
sdb              10.00     0.00 1670.00    0.00 20376.00     0.00    24.40     0.42    0.25    0.25    0.00   0.24  40.70
sdd               9.00     0.00 1654.00    0.00 21448.00     0.00    25.93     0.36    0.22    0.22    0.00   0.21  35.40
md0               0.00     0.00 5024.00    0.00 74344.00     0.00    29.60     0.00    0.00    0.00    0.00   0.00   0.00

avg-cpu:  %user   %nice %system %iowait  %steal   %idle
           3.07    0.00    0.25    0.38    0.00   96.31

Device:         rrqm/s   wrqm/s     r/s     w/s    rkB/s    wkB/s avgrq-sz avgqu-sz   await r_await w_await  svctm  %util
nvme0n1           0.00     0.00    0.00    0.00     0.00     0.00     0.00     0.00    0.00    0.00    0.00   0.00   0.00
sda               0.00     1.00    0.00    1.00     0.00     8.00    16.00     0.00    0.00    0.00    0.00   0.00   0.00
sdc               8.00     0.00 1589.00    0.00 18492.00     0.00    23.28     0.34    0.21    0.21    0.00   0.21  33.90
sdb               6.00     0.00 1725.00    0.00 20744.00     0.00    24.05     0.26    0.15    0.15    0.00   0.15  25.40
sdd               5.00     0.00 1761.00    0.00 17224.00     0.00    19.56     0.39    0.22    0.22    0.00   0.22  39.00
md0               0.00     0.00 5093.00    0.00 67024.00     0.00    26.32     0.00    0.00    0.00    0.00   0.00   0.00

avg-cpu:  %user   %nice %system %iowait  %steal   %idle
           3.09    0.00    0.28    0.44    0.00   96.19

Device:         rrqm/s   wrqm/s     r/s     w/s    rkB/s    wkB/s avgrq-sz avgqu-sz   await r_await w_await  svctm  %util
nvme0n1           0.00     0.00    0.00    0.00     0.00     0.00     0.00     0.00    0.00    0.00    0.00   0.00   0.00
sda               0.00     0.00    0.00    0.00     0.00     0.00     0.00     0.00    0.00    0.00    0.00   0.00   0.00
sdc               8.00     0.00 1691.00    0.00 18472.00     0.00    21.85     0.26    0.16    0.16    0.00   0.15  25.10
sdb               5.00     0.00 1645.00    0.00 17560.00     0.00    21.35     0.25    0.15    0.15    0.00   0.14  23.70
sdd               7.00     0.00 1602.00    0.00 16304.00     0.00    20.35     0.52    0.33    0.33    0.00   0.32  51.60
md0               0.00     0.00 4958.00    0.00 60972.00     0.00    24.60     0.00    0.00    0.00    0.00   0.00   0.00

avg-cpu:  %user   %nice %system %iowait  %steal   %idle
           3.07    0.00    0.22    0.47    0.00   96.25

Device:         rrqm/s   wrqm/s     r/s     w/s    rkB/s    wkB/s avgrq-sz avgqu-sz   await r_await w_await  svctm  %util
nvme0n1           0.00     0.00    0.00    0.00     0.00     0.00     0.00     0.00    0.00    0.00    0.00   0.00   0.00
sda               0.00     0.00    0.00    0.00     0.00     0.00     0.00     0.00    0.00    0.00    0.00   0.00   0.00
sdc              11.00     0.00 1604.00    0.00 18772.00     0.00    23.41     0.34    0.21    0.21    0.00   0.19  30.80
sdb              11.00     0.00 1633.00    0.00 18660.00     0.00    22.85     0.27    0.17    0.17    0.00   0.15  25.10
sdd              10.00     0.00 1658.00    0.00 17560.00     0.00    21.18     0.53    0.32    0.32    0.00   0.28  46.70
md0               0.00     0.00 4927.00    0.00 64680.00     0.00    26.26     0.00    0.00    0.00    0.00   0.00   0.00

avg-cpu:  %user   %nice %system %iowait  %steal   %idle
           3.07    0.00    0.16    0.66    0.00   96.12

Device:         rrqm/s   wrqm/s     r/s     w/s    rkB/s    wkB/s avgrq-sz avgqu-sz   await r_await w_await  svctm  %util
nvme0n1           0.00     0.00    0.00    0.00     0.00     0.00     0.00     0.00    0.00    0.00    0.00   0.00   0.00
sda               0.00     0.00    0.00    0.00     0.00     0.00     0.00     0.00    0.00    0.00    0.00   0.00   0.00
sdc               3.00     0.00 1355.00    0.00 20756.00     0.00    30.64    11.68    8.01    8.01    0.00   0.46  62.60
sdb               3.00     0.00 1353.00    0.00 21936.00     0.00    32.43    10.74    7.39    7.39    0.00   0.42  57.50
sdd               3.00     0.00 1408.00    0.00 22476.00     0.00    31.93     9.81    6.77    6.77    0.00   0.39  54.40
md0               0.00     0.00 4254.00    0.00 69264.00     0.00    32.56     0.00    0.00    0.00    0.00   0.00   0.00

avg-cpu:  %user   %nice %system %iowait  %steal   %idle
           3.06    0.00    0.25    0.97    0.00   95.72

Device:         rrqm/s   wrqm/s     r/s     w/s    rkB/s    wkB/s avgrq-sz avgqu-sz   await r_await w_await  svctm  %util
nvme0n1           0.00     0.00    0.00    0.00     0.00     0.00     0.00     0.00    0.00    0.00    0.00   0.00   0.00
sda               0.00     4.00    0.00    2.00     0.00    24.00    24.00     0.00    0.00    0.00    0.00   0.00   0.00
sdc               5.00     0.00 1355.00    0.00 19996.00     0.00    29.51     6.95    5.74    5.74    0.00   0.40  54.60
sdb               2.00     0.00 1277.00    0.00 18288.00     0.00    28.64     4.22    3.88    3.88    0.00   0.28  35.20
sdd               3.00     0.00 1399.00    0.00 20524.00     0.00    29.34     5.76    4.26    4.26    0.00   0.42  59.30
md0               0.00     0.00 3924.00    0.00 58756.00     0.00    29.95     0.00    0.00    0.00    0.00   0.00   0.00

avg-cpu:  %user   %nice %system %iowait  %steal   %idle
           3.06    0.00    0.41    2.72    0.00   93.81

Device:         rrqm/s   wrqm/s     r/s     w/s    rkB/s    wkB/s avgrq-sz avgqu-sz   await r_await w_await  svctm  %util
nvme0n1           0.00     0.00    0.00    0.00     0.00     0.00     0.00     0.00    0.00    0.00    0.00   0.00   0.00
sda               0.00     0.00    0.00    0.00     0.00     0.00     0.00     0.00    0.00    0.00    0.00   0.00   0.00
sdc               0.00     0.00 1373.00    0.00 18020.00     0.00    26.25     0.96    0.70    0.70    0.00   0.16  22.10
sdb               2.00     0.00 1380.00    0.00 20080.00     0.00    29.10     1.12    0.81    0.81    0.00   0.21  29.30
sdd               1.00     0.00 1380.00    0.00 18336.00     0.00    26.57     1.97    1.49    1.49    0.00   0.41  56.30
md0               0.00     0.00 4124.00    0.00 59188.00     0.00    28.70     0.00    0.00    0.00    0.00   0.00   0.00

avg-cpu:  %user   %nice %system %iowait  %steal   %idle
           3.00    0.00    0.38    2.63    0.00   93.99

Device:         rrqm/s   wrqm/s     r/s     w/s    rkB/s    wkB/s avgrq-sz avgqu-sz   await r_await w_await  svctm  %util
nvme0n1           0.00     0.00    0.00    0.00     0.00     0.00     0.00     0.00    0.00    0.00    0.00   0.00   0.00
sda               0.00     7.00    0.00   14.00     0.00   100.00    14.29     0.00    0.00    0.00    0.00   0.00   0.00
sdc               9.00     0.00 1453.00    0.00 28996.00     0.00    39.91     5.28    3.64    3.64    0.00   0.41  58.90
sdb               2.00     0.00 1414.00    0.00 29468.00     0.00    41.68     4.18    2.96    2.96    0.00   0.32  45.60
sdd               2.00     0.00 1469.00    0.00 29572.00     0.00    40.26     3.88    2.64    2.64    0.00   0.30  43.70
md0               0.00     0.00 4349.00    0.00 93704.00     0.00    43.09     0.00    0.00    0.00    0.00   0.00   0.00

avg-cpu:  %user   %nice %system %iowait  %steal   %idle
           3.03    0.00    0.41    2.72    0.00   93.84

Device:         rrqm/s   wrqm/s     r/s     w/s    rkB/s    wkB/s avgrq-sz avgqu-sz   await r_await w_await  svctm  %util
nvme0n1           0.00     0.00    0.00    0.00     0.00     0.00     0.00     0.00    0.00    0.00    0.00   0.00   0.00
sda               0.00     0.00    0.00    0.00     0.00     0.00     0.00     0.00    0.00    0.00    0.00   0.00   0.00
sdc               4.00     0.00 1436.00    0.00 28684.00     0.00    39.95     3.00    2.09    2.09    0.00   0.23  32.40
sdb               6.00     0.00 1432.00    0.00 28324.00     0.00    39.56     5.68    3.76    3.76    0.00   0.35  49.90
sdd               4.00     0.00 1436.00    0.00 25888.00     0.00    36.06     4.35    3.03    3.03    0.00   0.37  53.50
md0               0.00     0.00 4344.00    0.00 88360.00     0.00    40.68     0.00    0.00    0.00    0.00   0.00   0.00

avg-cpu:  %user   %nice %system %iowait  %steal   %idle
           3.03    0.00    0.41    2.69    0.00   93.87

Device:         rrqm/s   wrqm/s     r/s     w/s    rkB/s    wkB/s avgrq-sz avgqu-sz   await r_await w_await  svctm  %util
nvme0n1           0.00     0.00    0.00    0.00     0.00     0.00     0.00     0.00    0.00    0.00    0.00   0.00   0.00
sda               0.00     0.00    0.00    0.00     0.00     0.00     0.00     0.00    0.00    0.00    0.00   0.00   0.00
sdc               2.00     0.00 1442.00    0.00 22388.00     0.00    31.05     1.23    0.85    0.85    0.00   0.18  26.20
sdb               2.00     0.00 1495.00    0.00 24344.00     0.00    32.57     2.53    1.90    1.90    0.00   0.32  47.60
sdd               1.00     0.00 1381.00    0.00 20556.00     0.00    29.77     2.58    1.87    1.87    0.00   0.30  40.80
md0               0.00     0.00 4297.00    0.00 69428.00     0.00    32.31     0.00    0.00    0.00    0.00   0.00   0.00

avg-cpu:  %user   %nice %system %iowait  %steal   %idle
           3.04    0.00    0.34    2.66    0.00   93.96

Device:         rrqm/s   wrqm/s     r/s     w/s    rkB/s    wkB/s avgrq-sz avgqu-sz   await r_await w_await  svctm  %util
nvme0n1           0.00     0.00    0.00    0.00     0.00     0.00     0.00     0.00    0.00    0.00    0.00   0.00   0.00
sda               0.00     3.00    0.00    2.00     0.00    20.00    20.00     0.00    0.00    0.00    0.00   0.00   0.00
sdc               5.00     0.00 1470.00    0.00 25100.00     0.00    34.15     3.88    2.62    2.62    0.00   0.38  55.70
sdb               3.00     0.00 1434.00    0.00 23216.00     0.00    32.38     2.20    1.54    1.54    0.00   0.22  30.90
sdd               8.00     0.00 1503.00    0.00 26544.00     0.00    35.32     2.61    1.73    1.73    0.00   0.24  35.40
md0               0.00     0.00 4426.00    0.00 79348.00     0.00    35.86     0.00    0.00    0.00    0.00   0.00   0.00

avg-cpu:  %user   %nice %system %iowait  %steal   %idle
           3.03    0.00    0.41    2.69    0.00   93.87

Device:         rrqm/s   wrqm/s     r/s     w/s    rkB/s    wkB/s avgrq-sz avgqu-sz   await r_await w_await  svctm  %util
nvme0n1           0.00     0.00    0.00    0.00     0.00     0.00     0.00     0.00    0.00    0.00    0.00   0.00   0.00
sda               0.00     0.00    0.00    0.00     0.00     0.00     0.00     0.00    0.00    0.00    0.00   0.00   0.00
sdc               6.00     0.00 1459.00    0.00 24192.00     0.00    33.16     2.74    1.89    1.89    0.00   0.21  31.20
sdb               4.00     0.00 1499.00    0.00 25624.00     0.00    34.19     3.49    2.33    2.33    0.00   0.22  33.70
sdd               3.00     0.00 1534.00    0.00 24720.00     0.00    32.23     5.10    3.32    3.32    0.00   0.40  61.60
md0               0.00     0.00 4502.00    0.00 78816.00     0.00    35.01     0.00    0.00    0.00    0.00   0.00   0.00

avg-cpu:  %user   %nice %system %iowait  %steal   %idle
           3.03    0.00    0.41    2.69    0.00   93.87

Device:         rrqm/s   wrqm/s     r/s     w/s    rkB/s    wkB/s avgrq-sz avgqu-sz   await r_await w_await  svctm  %util
nvme0n1           0.00     0.00    0.00    0.00     0.00     0.00     0.00     0.00    0.00    0.00    0.00   0.00   0.00
sda               0.00     0.00    0.00    0.00     0.00     0.00     0.00     0.00    0.00    0.00    0.00   0.00   0.00
sdc               3.00     0.00 1487.00    0.00 20000.00     0.00    26.90     1.18    0.79    0.79    0.00   0.23  34.40
sdb               4.00     0.00 1455.00    0.00 20104.00     0.00    27.63     1.27    0.88    0.88    0.00   0.20  28.70
sdd               4.00     0.00 1548.00    0.00 21312.00     0.00    27.53     2.06    1.33    1.33    0.00   0.30  45.80
md0               0.00     0.00 4501.00    0.00 63776.00     0.00    28.34     0.00    0.00    0.00    0.00   0.00   0.00

avg-cpu:  %user   %nice %system %iowait  %steal   %idle
           3.04    0.00    0.28    2.72    0.00   93.96

Device:         rrqm/s   wrqm/s     r/s     w/s    rkB/s    wkB/s avgrq-sz avgqu-sz   await r_await w_await  svctm  %util
nvme0n1           0.00     0.00    0.00    0.00     0.00     0.00     0.00     0.00    0.00    0.00    0.00   0.00   0.00
sda               0.00     0.00    0.00    0.00     0.00     0.00     0.00     0.00    0.00    0.00    0.00   0.00   0.00
sdc               3.00     0.00 1221.00    0.00 14712.00     0.00    24.10    10.38    8.38    8.38    0.00   0.46  56.70
sdb               0.00     0.00 1134.00    0.00 14076.00     0.00    24.83     9.74    8.52    8.52    0.00   0.47  52.90
sdd               6.00     0.00 1071.00    0.00 14016.00     0.00    26.17     8.74    7.49    7.49    0.00   0.42  44.60
md0               0.00     0.00 3591.00    0.00 46044.00     0.00    25.64     0.00    0.00    0.00    0.00   0.00   0.00

avg-cpu:  %user   %nice %system %iowait  %steal   %idle
           3.04    0.00    0.28    2.78    0.00   93.90

Device:         rrqm/s   wrqm/s     r/s     w/s    rkB/s    wkB/s avgrq-sz avgqu-sz   await r_await w_await  svctm  %util
nvme0n1           0.00     0.00    0.00    0.00     0.00     0.00     0.00     0.00    0.00    0.00    0.00   0.00   0.00
sda               0.00     1.00    0.00    2.00     0.00    12.00    12.00     0.00    0.00    0.00    0.00   0.00   0.00
sdc               4.00     0.00 1387.00    0.00 20892.00     0.00    30.13     9.61    6.97    6.97    0.00   0.33  46.10
sdb               3.00     0.00 1449.00    0.00 21360.00     0.00    29.48     9.49    6.60    6.60    0.00   0.35  51.40
sdd               1.00     0.00 1408.00    0.00 19984.00     0.00    28.39    11.71    8.73    8.73    0.00   0.48  68.20
md0               0.00     0.00 4154.00    0.00 62628.00     0.00    30.15     0.00    0.00    0.00    0.00   0.00   0.00

