Linux 4.17.2 (bench2) 	08/04/2018 	_x86_64_	(32 CPU)

avg-cpu:  %user   %nice %system %iowait  %steal   %idle
           1.89    0.00    1.53    1.65    0.00   94.93

Device:         rrqm/s   wrqm/s     r/s     w/s    rkB/s    wkB/s avgrq-sz avgqu-sz   await r_await w_await  svctm  %util
nvme0n1         919.69     4.99 18540.63  510.48 103708.57 11512.87    12.10     1.32    0.05    0.03    0.67   0.02  38.81
sda               0.12     0.82   14.20    0.59   164.14     8.57    23.36     0.00    0.33    0.32    0.43   0.07   0.10
sdc              35.38     0.17  130.54    0.30  1932.49    95.81    31.00     0.20    1.54    0.65  381.84   0.89  11.61
sdb              33.38     0.18  132.50    0.33  1930.63    95.64    30.51     0.62    4.69    3.69  413.03   0.83  11.06
sdd              35.57     0.16  130.09    0.26  1928.62    95.32    31.05     0.94    7.20    5.42  909.23   0.89  11.66
md0               0.00     0.00  500.27    1.19  7173.80   345.64    29.99     0.00    0.00    0.00    0.00   0.00   0.00

avg-cpu:  %user   %nice %system %iowait  %steal   %idle
           3.00    0.00    0.31    2.78    0.00   93.90

Device:         rrqm/s   wrqm/s     r/s     w/s    rkB/s    wkB/s avgrq-sz avgqu-sz   await r_await w_await  svctm  %util
nvme0n1           0.00     0.00    0.00    0.00     0.00     0.00     0.00     0.00    0.00    0.00    0.00   0.00   0.00
sda               0.00     0.00    1.00    0.00     8.00     0.00    16.00     0.00    0.00    0.00    0.00   0.00   0.00
sdc              82.00     0.00  722.00    0.00 59028.00     0.00   163.51     0.55    0.76    0.76    0.00   0.57  41.30
sdb              85.00     0.00  780.00    0.00 57292.00     0.00   146.90     0.57    0.74    0.74    0.00   0.52  40.60
sdd              75.00     0.00  732.00    0.00 57784.00     0.00   157.88     0.95    1.30    1.30    0.00   0.84  61.70
md0               0.00     0.00 2486.00    0.00 247928.00     0.00   199.46     0.00    0.00    0.00    0.00   0.00   0.00

avg-cpu:  %user   %nice %system %iowait  %steal   %idle
           3.00    0.00    0.41    0.28    0.00   96.31

Device:         rrqm/s   wrqm/s     r/s     w/s    rkB/s    wkB/s avgrq-sz avgqu-sz   await r_await w_await  svctm  %util
nvme0n1           0.00     0.00    0.00    0.00     0.00     0.00     0.00     0.00    0.00    0.00    0.00   0.00   0.00
sda               0.00     0.00    0.00    0.00     0.00     0.00     0.00     0.00    0.00    0.00    0.00   0.00   0.00
sdc              59.00     0.00  931.00    0.00 55340.00     0.00   118.88     0.61    0.66    0.66    0.00   0.48  45.00
sdb              61.00     0.00  932.00    0.00 57628.00     0.00   123.67     0.54    0.58    0.58    0.00   0.43  40.40
sdd              62.00     0.00  903.00    0.00 57392.00     0.00   127.11     0.73    0.81    0.81    0.00   0.57  51.30
md0               0.00     0.00 2939.00    0.00 217116.00     0.00   147.75     0.00    0.00    0.00    0.00   0.00   0.00

