Linux 4.17.2 (bench2) 	08/04/2018 	_x86_64_	(32 CPU)

avg-cpu:  %user   %nice %system %iowait  %steal   %idle
           1.89    0.00    1.54    1.63    0.00   94.94

Device:         rrqm/s   wrqm/s     r/s     w/s    rkB/s    wkB/s avgrq-sz avgqu-sz   await r_await w_await  svctm  %util
nvme0n1         923.28     5.01 18613.01  512.47 104113.43 11557.81    12.10     1.32    0.05    0.03    0.67   0.02  38.96
sda               0.12     0.82   14.19    0.59   164.10     8.57    23.37     0.00    0.33    0.32    0.44   0.07   0.10
sdc              35.27     0.17  128.29    0.31  1905.59    96.19    31.13     0.17    1.33    0.42  381.84   0.89  11.45
sdb              33.26     0.18  130.26    0.33  1903.69    96.01    30.63     0.60    4.56    3.54  413.03   0.84  10.90
sdd              35.46     0.16  127.84    0.26  1901.72    95.69    31.19     0.91    7.10    5.29  909.23   0.90  11.49
md0               0.00     0.00  493.19    1.19  7075.71   346.99    30.03     0.00    0.00    0.00    0.00   0.00   0.00

avg-cpu:  %user   %nice %system %iowait  %steal   %idle
           3.10    0.00    0.25    2.84    0.00   93.82

Device:         rrqm/s   wrqm/s     r/s     w/s    rkB/s    wkB/s avgrq-sz avgqu-sz   await r_await w_await  svctm  %util
nvme0n1           0.00     0.00    0.00    0.00     0.00     0.00     0.00     0.00    0.00    0.00    0.00   0.00   0.00
sda               0.00     1.00    1.05    1.20     6.20    11.00    15.29     0.00    0.00    0.00    0.00   0.00   0.00
sdc               0.00     0.00 2006.45    0.00  8027.00     0.00     8.00     0.32    0.16    0.16    0.00   0.16  31.53
sdb               0.00     0.00 2001.15    0.00  8004.60     0.00     8.00     0.32    0.16    0.16    0.00   0.16  31.79
sdd               0.00     0.00 1985.55    0.00  7942.20     0.00     8.00     0.31    0.16    0.16    0.00   0.16  31.20
md0               0.00     0.00 5993.20    0.00 23974.00     0.00     8.00     0.00    0.00    0.00    0.00   0.00   0.00

