Linux 4.17.2 (bench2) 	08/04/2018 	_x86_64_	(32 CPU)

avg-cpu:  %user   %nice %system %iowait  %steal   %idle
           1.90    0.00    1.55    1.60    0.00   94.96

Device:         rrqm/s   wrqm/s     r/s     w/s    rkB/s    wkB/s avgrq-sz avgqu-sz   await r_await w_await  svctm  %util
nvme0n1         932.48     5.06 18798.46  517.58 105150.77 11672.97    12.10     1.34    0.05    0.03    0.67   0.02  39.35
sda               0.12     0.82   14.17    0.58   164.02     8.56    23.40     0.00    0.33    0.32    0.44   0.07   0.10
sdc              34.59     0.17  121.97    0.31  1839.38    97.15    31.67     0.10    0.86   12.39  381.84   0.91  11.08
sdb              32.56     0.19  123.96    0.33  1837.43    96.97    31.13     0.53    4.29    3.21  413.03   0.85  10.53
sdd              34.79     0.17  121.52    0.26  1835.43    96.65    31.73     0.85    6.96    5.03  909.23   0.91  11.08
md0               0.00     0.00  472.22    1.20  6837.60   350.45    30.37     0.00    0.00    0.00    0.00   0.00   0.00

avg-cpu:  %user   %nice %system %iowait  %steal   %idle
           3.07    0.00    0.19    2.85    0.00   93.90

Device:         rrqm/s   wrqm/s     r/s     w/s    rkB/s    wkB/s avgrq-sz avgqu-sz   await r_await w_await  svctm  %util
nvme0n1           0.00     0.00    0.00    0.00     0.00     0.00     0.00     0.00    0.00    0.00    0.00   0.00   0.00
sda               0.00     0.00   23.00    0.00   128.00     0.00    11.13     0.01    0.30    0.30    0.00   0.04   0.10
sdc               0.00     0.00 1986.00    0.00  7968.00     0.00     8.02     0.31    0.16    0.16    0.00   0.16  30.90
sdb               0.00     0.00 2147.00    0.00  8588.00     0.00     8.00     0.33    0.16    0.16    0.00   0.16  33.40
sdd               0.00     0.00 1983.00    0.00  7932.00     0.00     8.00     0.32    0.16    0.16    0.00   0.16  32.20
md0               0.00     0.00 6118.00    0.00 24496.00     0.00     8.01     0.00    0.00    0.00    0.00   0.00   0.00

avg-cpu:  %user   %nice %system %iowait  %steal   %idle
           3.10    0.00    0.25    2.88    0.00   93.78

Device:         rrqm/s   wrqm/s     r/s     w/s    rkB/s    wkB/s avgrq-sz avgqu-sz   await r_await w_await  svctm  %util
nvme0n1           0.00     0.00    0.00    0.00     0.00     0.00     0.00     0.00    0.00    0.00    0.00   0.00   0.00
sda               0.00     0.00    0.00    0.00     0.00     0.00     0.00     0.00    0.00    0.00    0.00   0.00   0.00
sdc               0.00     0.00 2124.00    0.00  8496.00     0.00     8.00     0.31    0.15    0.15    0.00   0.15  31.20
sdb               0.00     0.00 2289.00    0.00  9156.00     0.00     8.00     0.32    0.14    0.14    0.00   0.14  32.30
sdd               0.00     0.00 2183.00    0.00  8732.00     0.00     8.00     0.32    0.14    0.14    0.00   0.14  31.60
md0               0.00     0.00 6595.00    0.00 26380.00     0.00     8.00     0.00    0.00    0.00    0.00   0.00   0.00

avg-cpu:  %user   %nice %system %iowait  %steal   %idle
           3.06    0.00    0.34    2.88    0.00   93.72

Device:         rrqm/s   wrqm/s     r/s     w/s    rkB/s    wkB/s avgrq-sz avgqu-sz   await r_await w_await  svctm  %util
nvme0n1           0.00     0.00    0.00    0.00     0.00     0.00     0.00     0.00    0.00    0.00    0.00   0.00   0.00
sda               0.00     0.00    0.00    0.00     0.00     0.00     0.00     0.00    0.00    0.00    0.00   0.00   0.00
sdc               0.00     0.00 2170.00    0.00  8680.00     0.00     8.00     0.31    0.14    0.14    0.00   0.14  31.10
sdb               0.00     0.00 2204.00    0.00  8816.00     0.00     8.00     0.32    0.14    0.14    0.00   0.14  31.60
sdd               0.00     0.00 2193.00    0.00  8772.00     0.00     8.00     0.32    0.15    0.15    0.00   0.15  32.00
md0               0.00     0.00 6567.00    0.00 26268.00     0.00     8.00     0.00    0.00    0.00    0.00   0.00   0.00

avg-cpu:  %user   %nice %system %iowait  %steal   %idle
           3.09    0.00    0.28    2.88    0.00   93.75

Device:         rrqm/s   wrqm/s     r/s     w/s    rkB/s    wkB/s avgrq-sz avgqu-sz   await r_await w_await  svctm  %util
nvme0n1           0.00     0.00    0.00    0.00     0.00     0.00     0.00     0.00    0.00    0.00    0.00   0.00   0.00
sda               0.00     0.00    0.00    0.00     0.00     0.00     0.00     0.00    0.00    0.00    0.00   0.00   0.00
sdc               0.00     0.00 2304.00    0.00  9216.00     0.00     8.00     0.32    0.14    0.14    0.00   0.14  32.00
sdb               0.00     0.00 2131.00    0.00  8524.00     0.00     8.00     0.30    0.14    0.14    0.00   0.14  30.20
sdd               0.00     0.00 2198.00    0.00  8792.00     0.00     8.00     0.32    0.15    0.15    0.00   0.15  31.90
md0               0.00     0.00 6634.00    0.00 26536.00     0.00     8.00     0.00    0.00    0.00    0.00   0.00   0.00

avg-cpu:  %user   %nice %system %iowait  %steal   %idle
           3.04    0.00    0.31    2.85    0.00   93.80

Device:         rrqm/s   wrqm/s     r/s     w/s    rkB/s    wkB/s avgrq-sz avgqu-sz   await r_await w_await  svctm  %util
nvme0n1           0.00     0.00    0.00    0.00     0.00     0.00     0.00     0.00    0.00    0.00    0.00   0.00   0.00
sda               0.00     0.00    0.00    0.00     0.00     0.00     0.00     0.00    0.00    0.00    0.00   0.00   0.00
sdc               0.00     0.00 2172.00    0.00  8688.00     0.00     8.00     0.31    0.14    0.14    0.00   0.14  31.20
sdb               0.00     0.00 2232.00    0.00  8928.00     0.00     8.00     0.32    0.14    0.14    0.00   0.14  31.50
sdd               0.00     0.00 2208.00    0.00  8832.00     0.00     8.00     0.32    0.14    0.14    0.00   0.14  32.00
md0               0.00     0.00 6612.00    0.00 26448.00     0.00     8.00     0.00    0.00    0.00    0.00   0.00   0.00

avg-cpu:  %user   %nice %system %iowait  %steal   %idle
           3.09    0.00    0.31    2.88    0.00   93.72

Device:         rrqm/s   wrqm/s     r/s     w/s    rkB/s    wkB/s avgrq-sz avgqu-sz   await r_await w_await  svctm  %util
nvme0n1           0.00     0.00    0.00    0.00     0.00     0.00     0.00     0.00    0.00    0.00    0.00   0.00   0.00
sda               0.00    10.00    0.00    2.00     0.00    48.00    48.00     0.00    0.50    0.00    0.50   0.50   0.10
sdc               0.00     0.00 2184.00    0.00  8736.00     0.00     8.00     0.32    0.15    0.15    0.00   0.15  31.70
sdb               0.00     0.00 2247.00    0.00  8988.00     0.00     8.00     0.33    0.15    0.15    0.00   0.15  33.10
sdd               0.00     0.00 2130.00    0.00  8520.00     0.00     8.00     0.30    0.14    0.14    0.00   0.14  29.70
md0               0.00     0.00 6560.00    0.00 26240.00     0.00     8.00     0.00    0.00    0.00    0.00   0.00   0.00

avg-cpu:  %user   %nice %system %iowait  %steal   %idle
           3.07    0.00    0.25    2.88    0.00   93.80

Device:         rrqm/s   wrqm/s     r/s     w/s    rkB/s    wkB/s avgrq-sz avgqu-sz   await r_await w_await  svctm  %util
nvme0n1           0.00     0.00    0.00    0.00     0.00     0.00     0.00     0.00    0.00    0.00    0.00   0.00   0.00
sda               0.00     0.00    0.00    0.00     0.00     0.00     0.00     0.00    0.00    0.00    0.00   0.00   0.00
sdc               0.00     0.00 2095.00    0.00  8380.00     0.00     8.00     0.31    0.15    0.15    0.00   0.15  30.80
sdb               0.00     0.00 2349.00    0.00  9396.00     0.00     8.00     0.33    0.14    0.14    0.00   0.14  33.20
sdd               0.00     0.00 2125.00    0.00  8500.00     0.00     8.00     0.30    0.14    0.14    0.00   0.14  30.40
md0               0.00     0.00 6569.00    0.00 26276.00     0.00     8.00     0.00    0.00    0.00    0.00   0.00   0.00

avg-cpu:  %user   %nice %system %iowait  %steal   %idle
           3.09    0.00    0.31    2.88    0.00   93.72

Device:         rrqm/s   wrqm/s     r/s     w/s    rkB/s    wkB/s avgrq-sz avgqu-sz   await r_await w_await  svctm  %util
nvme0n1           0.00     0.00    0.00    0.00     0.00     0.00     0.00     0.00    0.00    0.00    0.00   0.00   0.00
sda               0.00     0.00    0.00    0.00     0.00     0.00     0.00     0.00    0.00    0.00    0.00   0.00   0.00
sdc               0.00     0.00 2155.00    0.00  8620.00     0.00     8.00     0.31    0.15    0.15    0.00   0.15  31.40
sdb               0.00     0.00 2179.00    0.00  8716.00     0.00     8.00     0.31    0.14    0.14    0.00   0.14  31.00
sdd               0.00     0.00 2216.00    0.00  8864.00     0.00     8.00     0.32    0.15    0.15    0.00   0.15  32.30
md0               0.00     0.00 6550.00    0.00 26200.00     0.00     8.00     0.00    0.00    0.00    0.00   0.00   0.00

avg-cpu:  %user   %nice %system %iowait  %steal   %idle
           3.06    0.00    0.31    2.88    0.00   93.75

Device:         rrqm/s   wrqm/s     r/s     w/s    rkB/s    wkB/s avgrq-sz avgqu-sz   await r_await w_await  svctm  %util
nvme0n1           0.00     0.00    0.00    0.00     0.00     0.00     0.00     0.00    0.00    0.00    0.00   0.00   0.00
sda               0.00     0.00    0.00    0.00     0.00     0.00     0.00     0.00    0.00    0.00    0.00   0.00   0.00
sdc               0.00     0.00 2097.00    0.00  8388.00     0.00     8.00     0.31    0.15    0.15    0.00   0.15  31.30
sdb               0.00     0.00 2242.00    0.00  8968.00     0.00     8.00     0.33    0.15    0.15    0.00   0.15  32.80
sdd               0.00     0.00 2202.00    0.00  8808.00     0.00     8.00     0.29    0.13    0.13    0.00   0.13  29.30
md0               0.00     0.00 6541.00    0.00 26164.00     0.00     8.00     0.00    0.00    0.00    0.00   0.00   0.00

avg-cpu:  %user   %nice %system %iowait  %steal   %idle
           3.10    0.00    0.25    2.88    0.00   93.78

Device:         rrqm/s   wrqm/s     r/s     w/s    rkB/s    wkB/s avgrq-sz avgqu-sz   await r_await w_await  svctm  %util
nvme0n1           0.00     0.00    0.00    0.00     0.00     0.00     0.00     0.00    0.00    0.00    0.00   0.00   0.00
sda               0.00     0.00    0.00    0.00     0.00     0.00     0.00     0.00    0.00    0.00    0.00   0.00   0.00
sdc               0.00     0.00 2326.00    0.00  9304.00     0.00     8.00     0.33    0.14    0.14    0.00   0.14  33.20
sdb               0.00     0.00 2154.00    0.00  8616.00     0.00     8.00     0.33    0.15    0.15    0.00   0.15  32.50
sdd               0.00     0.00 2128.00    0.00  8512.00     0.00     8.00     0.29    0.14    0.14    0.00   0.14  29.30
md0               0.00     0.00 6608.00    0.00 26432.00     0.00     8.00     0.00    0.00    0.00    0.00   0.00   0.00

avg-cpu:  %user   %nice %system %iowait  %steal   %idle
           3.10    0.00    0.25    2.88    0.00   93.78

Device:         rrqm/s   wrqm/s     r/s     w/s    rkB/s    wkB/s avgrq-sz avgqu-sz   await r_await w_await  svctm  %util
nvme0n1           0.00     0.00    0.00    0.00     0.00     0.00     0.00     0.00    0.00    0.00    0.00   0.00   0.00
sda               0.00     3.00    0.00    5.00     0.00    48.00    19.20     0.00    0.20    0.00    0.20   0.20   0.10
sdc               0.00     0.00 2263.00    0.00  9052.00     0.00     8.00     0.32    0.14    0.14    0.00   0.14  32.30
sdb               0.00     0.00 2260.00    0.00  9040.00     0.00     8.00     0.32    0.14    0.14    0.00   0.14  32.00
sdd               0.00     0.00 2189.00    0.00  8756.00     0.00     8.00     0.30    0.14    0.14    0.00   0.14  30.10
md0               0.00     0.00 6712.00    0.00 26848.00     0.00     8.00     0.00    0.00    0.00    0.00   0.00   0.00

avg-cpu:  %user   %nice %system %iowait  %steal   %idle
           3.06    0.00    0.31    2.85    0.00   93.78

Device:         rrqm/s   wrqm/s     r/s     w/s    rkB/s    wkB/s avgrq-sz avgqu-sz   await r_await w_await  svctm  %util
nvme0n1           0.00     0.00    0.00    0.00     0.00     0.00     0.00     0.00    0.00    0.00    0.00   0.00   0.00
sda               0.00     0.00    0.00    0.00     0.00     0.00     0.00     0.00    0.00    0.00    0.00   0.00   0.00
sdc               0.00     0.00 2200.00    0.00  8800.00     0.00     8.00     0.33    0.15    0.15    0.00   0.15  32.50
sdb               0.00     0.00 2211.00    0.00  8844.00     0.00     8.00     0.31    0.14    0.14    0.00   0.14  31.30
sdd               0.00     0.00 2125.00    0.00  8500.00     0.00     8.00     0.30    0.14    0.14    0.00   0.14  30.30
md0               0.00     0.00 6536.00    0.00 26144.00     0.00     8.00     0.00    0.00    0.00    0.00   0.00   0.00

avg-cpu:  %user   %nice %system %iowait  %steal   %idle
           3.07    0.00    0.28    2.88    0.00   93.78

Device:         rrqm/s   wrqm/s     r/s     w/s    rkB/s    wkB/s avgrq-sz avgqu-sz   await r_await w_await  svctm  %util
nvme0n1           0.00     0.00    0.00    0.00     0.00     0.00     0.00     0.00    0.00    0.00    0.00   0.00   0.00
sda               0.00     0.00    0.00    0.00     0.00     0.00     0.00     0.00    0.00    0.00    0.00   0.00   0.00
sdc               0.00     0.00 2275.00    0.00  9100.00     0.00     8.00     0.31    0.14    0.14    0.00   0.14  31.20
sdb               0.00     0.00 2246.00    0.00  8984.00     0.00     8.00     0.32    0.14    0.14    0.00   0.14  32.10
sdd               0.00     0.00 2081.00    0.00  8324.00     0.00     8.00     0.31    0.15    0.15    0.00   0.15  30.60
md0               0.00     0.00 6602.00    0.00 26408.00     0.00     8.00     0.00    0.00    0.00    0.00   0.00   0.00

avg-cpu:  %user   %nice %system %iowait  %steal   %idle
           3.06    0.00    0.34    2.88    0.00   93.72

Device:         rrqm/s   wrqm/s     r/s     w/s    rkB/s    wkB/s avgrq-sz avgqu-sz   await r_await w_await  svctm  %util
nvme0n1           0.00     0.00    0.00    0.00     0.00     0.00     0.00     0.00    0.00    0.00    0.00   0.00   0.00
sda               0.00     0.00    0.00    0.00     0.00     0.00     0.00     0.00    0.00    0.00    0.00   0.00   0.00
sdc               0.00     0.00 2209.00    0.00  8836.00     0.00     8.00     0.31    0.14    0.14    0.00   0.14  31.30
sdb               0.00     0.00 2212.00    0.00  8848.00     0.00     8.00     0.31    0.14    0.14    0.00   0.14  31.30
sdd               0.00     0.00 2118.00    0.00  8472.00     0.00     8.00     0.31    0.15    0.15    0.00   0.15  30.90
md0               0.00     0.00 6540.00    0.00 26160.00     0.00     8.00     0.00    0.00    0.00    0.00   0.00   0.00

avg-cpu:  %user   %nice %system %iowait  %steal   %idle
           3.09    0.00    0.28    2.88    0.00   93.75

Device:         rrqm/s   wrqm/s     r/s     w/s    rkB/s    wkB/s avgrq-sz avgqu-sz   await r_await w_await  svctm  %util
nvme0n1           0.00     0.00    0.00    0.00     0.00     0.00     0.00     0.00    0.00    0.00    0.00   0.00   0.00
sda               0.00     0.00    0.00    0.00     0.00     0.00     0.00     0.00    0.00    0.00    0.00   0.00   0.00
sdc               0.00     0.00 2199.00    0.00  8796.00     0.00     8.00     0.32    0.14    0.14    0.00   0.14  31.70
sdb               0.00     0.00 2134.00    0.00  8536.00     0.00     8.00     0.32    0.15    0.15    0.00   0.15  31.50
sdd               0.00     0.00 2185.00    0.00  8740.00     0.00     8.00     0.31    0.14    0.14    0.00   0.14  30.90
md0               0.00     0.00 6517.00    0.00 26068.00     0.00     8.00     0.00    0.00    0.00    0.00   0.00   0.00

avg-cpu:  %user   %nice %system %iowait  %steal   %idle
           3.06    0.00    0.31    2.88    0.00   93.75

Device:         rrqm/s   wrqm/s     r/s     w/s    rkB/s    wkB/s avgrq-sz avgqu-sz   await r_await w_await  svctm  %util
nvme0n1           0.00     0.00    0.00    0.00     0.00     0.00     0.00     0.00    0.00    0.00    0.00   0.00   0.00
sda               0.00     6.00    0.00   14.00     0.00    80.00    11.43     0.00    0.07    0.00    0.07   0.07   0.10
sdc               0.00     0.00 2167.00    0.00  8668.00     0.00     8.00     0.31    0.14    0.14    0.00   0.14  30.70
sdb               0.00     0.00 2217.00    0.00  8868.00     0.00     8.00     0.33    0.15    0.15    0.00   0.15  32.70
sdd               0.00     0.00 2204.00    0.00  8816.00     0.00     8.00     0.31    0.14    0.14    0.00   0.14  31.10
md0               0.00     0.00 6588.00    0.00 26352.00     0.00     8.00     0.00    0.00    0.00    0.00   0.00   0.00

avg-cpu:  %user   %nice %system %iowait  %steal   %idle
           3.10    0.00    0.22    2.88    0.00   93.81

Device:         rrqm/s   wrqm/s     r/s     w/s    rkB/s    wkB/s avgrq-sz avgqu-sz   await r_await w_await  svctm  %util
nvme0n1           0.00     0.00    0.00    0.00     0.00     0.00     0.00     0.00    0.00    0.00    0.00   0.00   0.00
sda               0.00     0.00    0.00    0.00     0.00     0.00     0.00     0.00    0.00    0.00    0.00   0.00   0.00
sdc               0.00     0.00 2111.00    0.00  8444.00     0.00     8.00     0.32    0.15    0.15    0.00   0.15  31.70
sdb               0.00     0.00 2160.00    0.00  8640.00     0.00     8.00     0.32    0.15    0.15    0.00   0.15  31.70
sdd               0.00     0.00 2075.00    0.00  8300.00     0.00     8.00     0.32    0.15    0.15    0.00   0.15  32.00
md0               0.00     0.00 6346.00    0.00 25384.00     0.00     8.00     0.00    0.00    0.00    0.00   0.00   0.00

avg-cpu:  %user   %nice %system %iowait  %steal   %idle
           3.07    0.00    0.34    2.53    0.00   94.06

Device:         rrqm/s   wrqm/s     r/s     w/s    rkB/s    wkB/s avgrq-sz avgqu-sz   await r_await w_await  svctm  %util
nvme0n1           0.00     0.00    0.00    0.00     0.00     0.00     0.00     0.00    0.00    0.00    0.00   0.00   0.00
sda               0.00     0.00   70.00    0.00   492.00     0.00    14.06     0.03    0.43    0.43    0.00   0.06   0.40
sdc               0.00     0.00 2235.00    0.00  8940.00     0.00     8.00     0.32    0.14    0.14    0.00   0.14  31.60
sdb               0.00     0.00 2235.00    0.00  8940.00     0.00     8.00     0.33    0.15    0.15    0.00   0.15  32.80
sdd               0.00     0.00 2131.00    0.00  8524.00     0.00     8.00     0.30    0.14    0.14    0.00   0.14  30.20
md0               0.00     0.00 6601.00    0.00 26404.00     0.00     8.00     0.00    0.00    0.00    0.00   0.00   0.00

avg-cpu:  %user   %nice %system %iowait  %steal   %idle
           3.04    0.00    0.34    0.56    0.00   96.05

Device:         rrqm/s   wrqm/s     r/s     w/s    rkB/s    wkB/s avgrq-sz avgqu-sz   await r_await w_await  svctm  %util
nvme0n1           0.00     0.00    0.00    0.00     0.00     0.00     0.00     0.00    0.00    0.00    0.00   0.00   0.00
sda               0.00     0.00    0.00    0.00     0.00     0.00     0.00     0.00    0.00    0.00    0.00   0.00   0.00
sdc               0.00     0.00 2227.00    0.00  8908.00     0.00     8.00     0.31    0.14    0.14    0.00   0.14  30.60
sdb               0.00     0.00 2158.00    0.00  8632.00     0.00     8.00     0.29    0.13    0.13    0.00   0.13  28.70
sdd               0.00     0.00 2267.00    0.00  9068.00     0.00     8.00     0.32    0.14    0.14    0.00   0.14  32.30
md0               0.00     0.00 6652.00    0.00 26608.00     0.00     8.00     0.00    0.00    0.00    0.00   0.00   0.00

avg-cpu:  %user   %nice %system %iowait  %steal   %idle
           3.07    0.00    0.34    0.28    0.00   96.30

Device:         rrqm/s   wrqm/s     r/s     w/s    rkB/s    wkB/s avgrq-sz avgqu-sz   await r_await w_await  svctm  %util
nvme0n1           0.00     0.00    0.00    0.00     0.00     0.00     0.00     0.00    0.00    0.00    0.00   0.00   0.00
sda               0.00     3.00    0.00    2.00     0.00    20.00    20.00     0.00    0.00    0.00    0.00   0.00   0.00
sdc               0.00     0.00 2207.00    0.00  8828.00     0.00     8.00     0.32    0.14    0.14    0.00   0.14  31.50
sdb               0.00     0.00 2149.00    0.00  8596.00     0.00     8.00     0.29    0.14    0.14    0.00   0.14  29.40
sdd               0.00     0.00 2182.00    0.00  8728.00     0.00     8.00     0.31    0.14    0.14    0.00   0.14  30.90
md0               0.00     0.00 6538.00    0.00 26152.00     0.00     8.00     0.00    0.00    0.00    0.00   0.00   0.00

