Linux 4.17.2 (bench2) 	08/04/2018 	_x86_64_	(32 CPU)

avg-cpu:  %user   %nice %system %iowait  %steal   %idle
           1.89    0.00    1.53    1.64    0.00   94.94

Device:         rrqm/s   wrqm/s     r/s     w/s    rkB/s    wkB/s avgrq-sz avgqu-sz   await r_await w_await  svctm  %util
nvme0n1         923.05     5.01 18608.25  512.34 104086.81 11554.86    12.10     1.32    0.05    0.03    0.67   0.02  38.95
sda               0.12     0.82   14.19    0.59   164.11     8.57    23.37     0.00    0.33    0.32    0.44   0.07   0.10
sdc              35.27     0.17  128.37    0.31  1905.61    96.16    31.11     0.17    1.33    0.43  381.84   0.89  11.46
sdb              33.26     0.18  130.34    0.33  1903.71    95.99    30.61     0.60    4.56    3.54  413.03   0.84  10.91
sdd              35.47     0.16  127.92    0.26  1901.74    95.67    31.17     0.91    7.10    5.29  909.23   0.90  11.50
md0               0.00     0.00  493.44    1.19  7075.42   346.90    30.01     0.00    0.00    0.00    0.00   0.00   0.00

avg-cpu:  %user   %nice %system %iowait  %steal   %idle
           3.10    0.00    0.13    0.72    0.00   96.06

Device:         rrqm/s   wrqm/s     r/s     w/s    rkB/s    wkB/s avgrq-sz avgqu-sz   await r_await w_await  svctm  %util
nvme0n1           0.00     0.00    0.00    0.00     0.00     0.00     0.00     0.00    0.00    0.00    0.00   0.00   0.00
sda               0.00     0.00   23.00   13.00   132.00    76.00    11.56     0.00    0.00    0.00    0.00   0.00   0.00
sdc               0.00     0.00  799.00    0.00  3220.00     0.00     8.06     0.18    0.23    0.23    0.00   0.23  18.10
sdb               0.00     0.00 1442.00    0.00  5768.00     0.00     8.00     0.53    0.37    0.37    0.00   0.37  53.10
sdd               0.00     0.00 1063.00    0.00  4252.00     0.00     8.00     0.26    0.24    0.24    0.00   0.24  25.80
md0               0.00     0.00 3305.00    0.00 13244.00     0.00     8.01     0.00    0.00    0.00    0.00   0.00   0.00

avg-cpu:  %user   %nice %system %iowait  %steal   %idle
           3.13    0.00    0.13    0.81    0.00   95.94

Device:         rrqm/s   wrqm/s     r/s     w/s    rkB/s    wkB/s avgrq-sz avgqu-sz   await r_await w_await  svctm  %util
nvme0n1           0.00     0.00    0.00    0.00     0.00     0.00     0.00     0.00    0.00    0.00    0.00   0.00   0.00
sda               0.00     0.00    0.00    0.00     0.00     0.00     0.00     0.00    0.00    0.00    0.00   0.00   0.00
sdc               0.00     0.00  972.00    0.00  3888.00     0.00     8.00     0.32    0.33    0.33    0.00   0.33  32.00
sdb               0.00     0.00 1017.00    0.00  4068.00     0.00     8.00     0.39    0.38    0.38    0.00   0.38  38.90
sdd               0.00     0.00  929.00    0.00  3716.00     0.00     8.00     0.27    0.29    0.29    0.00   0.29  26.70
md0               0.00     0.00 2918.00    0.00 11672.00     0.00     8.00     0.00    0.00    0.00    0.00   0.00   0.00

avg-cpu:  %user   %nice %system %iowait  %steal   %idle
           3.10    0.00    0.13    0.75    0.00   96.03

Device:         rrqm/s   wrqm/s     r/s     w/s    rkB/s    wkB/s avgrq-sz avgqu-sz   await r_await w_await  svctm  %util
nvme0n1           0.00     0.00    0.00    0.00     0.00     0.00     0.00     0.00    0.00    0.00    0.00   0.00   0.00
sda               0.00     0.00    0.00    0.00     0.00     0.00     0.00     0.00    0.00    0.00    0.00   0.00   0.00
sdc               0.00     0.00 1033.00    0.00  4132.00     0.00     8.00     0.33    0.32    0.32    0.00   0.32  33.00
sdb               0.00     0.00 1095.00    0.00  4380.00     0.00     8.00     0.36    0.33    0.33    0.00   0.33  36.10
sdd               0.00     0.00  852.00    0.00  3408.00     0.00     8.00     0.28    0.33    0.33    0.00   0.33  28.20
md0               0.00     0.00 2980.00    0.00 11920.00     0.00     8.00     0.00    0.00    0.00    0.00   0.00   0.00

avg-cpu:  %user   %nice %system %iowait  %steal   %idle
           3.13    0.00    0.16    0.69    0.00   96.03

Device:         rrqm/s   wrqm/s     r/s     w/s    rkB/s    wkB/s avgrq-sz avgqu-sz   await r_await w_await  svctm  %util
nvme0n1           0.00     0.00    0.00    0.00     0.00     0.00     0.00     0.00    0.00    0.00    0.00   0.00   0.00
sda               0.00     0.00    0.00    0.00     0.00     0.00     0.00     0.00    0.00    0.00    0.00   0.00   0.00
sdc               0.00     0.00 1097.00    0.00  4388.00     0.00     8.00     0.35    0.32    0.32    0.00   0.32  35.20
sdb               0.00     0.00 1116.00    0.00  4464.00     0.00     8.00     0.35    0.31    0.31    0.00   0.31  35.00
sdd               0.00     0.00 1252.00    0.00  5008.00     0.00     8.00     0.27    0.21    0.21    0.00   0.21  26.90
md0               0.00     0.00 3465.00    0.00 13860.00     0.00     8.00     0.00    0.00    0.00    0.00   0.00   0.00

avg-cpu:  %user   %nice %system %iowait  %steal   %idle
           3.10    0.00    0.09    0.63    0.00   96.18

Device:         rrqm/s   wrqm/s     r/s     w/s    rkB/s    wkB/s avgrq-sz avgqu-sz   await r_await w_await  svctm  %util
nvme0n1           0.00     0.00    0.00    0.00     0.00     0.00     0.00     0.00    0.00    0.00    0.00   0.00   0.00
sda               0.00     0.00    0.00    0.00     0.00     0.00     0.00     0.00    0.00    0.00    0.00   0.00   0.00
sdc               0.00     0.00 1081.00    0.00  4324.00     0.00     8.00     0.34    0.31    0.31    0.00   0.31  33.80
sdb               0.00     0.00  951.00    0.00  3804.00     0.00     8.00     0.23    0.25    0.25    0.00   0.24  23.20
sdd               0.00     0.00 1363.00    0.00  5452.00     0.00     8.00     0.40    0.29    0.29    0.00   0.29  39.90
md0               0.00     0.00 3395.00    0.00 13580.00     0.00     8.00     0.00    0.00    0.00    0.00   0.00   0.00

avg-cpu:  %user   %nice %system %iowait  %steal   %idle
           3.10    0.00    0.13    0.84    0.00   95.93

Device:         rrqm/s   wrqm/s     r/s     w/s    rkB/s    wkB/s avgrq-sz avgqu-sz   await r_await w_await  svctm  %util
nvme0n1           0.00     0.00    0.00    0.00     0.00     0.00     0.00     0.00    0.00    0.00    0.00   0.00   0.00
sda               0.00    13.00    0.00    2.00     0.00    60.00    60.00     0.00    0.00    0.00    0.00   0.00   0.00
sdc               0.00     0.00  968.00    0.00  3872.00     0.00     8.00     0.34    0.35    0.35    0.00   0.35  33.50
sdb               0.00     0.00 1062.00    0.00  4248.00     0.00     8.00     0.28    0.26    0.26    0.00   0.26  27.50
sdd               0.00     0.00 1249.00    0.00  4996.00     0.00     8.00     0.36    0.29    0.29    0.00   0.29  35.90
md0               0.00     0.00 3279.00    0.00 13116.00     0.00     8.00     0.00    0.00    0.00    0.00   0.00   0.00

avg-cpu:  %user   %nice %system %iowait  %steal   %idle
           3.10    0.00    0.16    0.75    0.00   96.00

Device:         rrqm/s   wrqm/s     r/s     w/s    rkB/s    wkB/s avgrq-sz avgqu-sz   await r_await w_await  svctm  %util
nvme0n1           0.00     0.00    0.00    0.00     0.00     0.00     0.00     0.00    0.00    0.00    0.00   0.00   0.00
sda               0.00     0.00    0.00    0.00     0.00     0.00     0.00     0.00    0.00    0.00    0.00   0.00   0.00
sdc               0.00     0.00 1173.00    0.00  4692.00     0.00     8.00     0.31    0.26    0.26    0.00   0.26  30.80
sdb               0.00     0.00 1234.00    0.00  4936.00     0.00     8.00     0.32    0.26    0.26    0.00   0.26  31.70
sdd               0.00     0.00 1097.00    0.00  4388.00     0.00     8.00     0.34    0.31    0.31    0.00   0.31  33.60
md0               0.00     0.00 3504.00    0.00 14016.00     0.00     8.00     0.00    0.00    0.00    0.00   0.00   0.00

avg-cpu:  %user   %nice %system %iowait  %steal   %idle
           3.10    0.00    0.13    0.72    0.00   96.06

Device:         rrqm/s   wrqm/s     r/s     w/s    rkB/s    wkB/s avgrq-sz avgqu-sz   await r_await w_await  svctm  %util
nvme0n1           0.00     0.00    0.00    0.00     0.00     0.00     0.00     0.00    0.00    0.00    0.00   0.00   0.00
sda               0.00     0.00    0.00    0.00     0.00     0.00     0.00     0.00    0.00    0.00    0.00   0.00   0.00
sdc               0.00     0.00 1034.00    0.00  4136.00     0.00     8.00     0.30    0.29    0.29    0.00   0.29  30.00
sdb               0.00     0.00  923.00    0.00  3692.00     0.00     8.00     0.34    0.37    0.37    0.00   0.37  34.10
sdd               0.00     0.00  867.00    0.00  3468.00     0.00     8.00     0.33    0.38    0.38    0.00   0.38  33.10
md0               0.00     0.00 2824.00    0.00 11296.00     0.00     8.00     0.00    0.00    0.00    0.00   0.00   0.00

avg-cpu:  %user   %nice %system %iowait  %steal   %idle
           3.13    0.00    0.09    0.59    0.00   96.19

Device:         rrqm/s   wrqm/s     r/s     w/s    rkB/s    wkB/s avgrq-sz avgqu-sz   await r_await w_await  svctm  %util
nvme0n1           0.00     0.00    0.00    0.00     0.00     0.00     0.00     0.00    0.00    0.00    0.00   0.00   0.00
sda               0.00     0.00    0.00    0.00     0.00     0.00     0.00     0.00    0.00    0.00    0.00   0.00   0.00
sdc               0.00     0.00  916.00    0.00  3664.00     0.00     8.00     0.25    0.27    0.27    0.00   0.27  24.50
sdb               0.00     0.00 1042.00    0.00  4168.00     0.00     8.00     0.32    0.31    0.31    0.00   0.31  32.30
sdd               0.00     0.00 1224.00    0.00  4896.00     0.00     8.00     0.42    0.34    0.34    0.00   0.34  41.70
md0               0.00     0.00 3182.00    0.00 12728.00     0.00     8.00     0.00    0.00    0.00    0.00   0.00   0.00

avg-cpu:  %user   %nice %system %iowait  %steal   %idle
           3.10    0.00    0.13    0.69    0.00   96.09

Device:         rrqm/s   wrqm/s     r/s     w/s    rkB/s    wkB/s avgrq-sz avgqu-sz   await r_await w_await  svctm  %util
nvme0n1           0.00     0.00    0.00    0.00     0.00     0.00     0.00     0.00    0.00    0.00    0.00   0.00   0.00
sda               0.00     0.00    0.00    0.00     0.00     0.00     0.00     0.00    0.00    0.00    0.00   0.00   0.00
sdc               0.00     0.00  939.00    0.00  3756.00     0.00     8.00     0.18    0.20    0.20    0.00   0.20  18.40
sdb               0.00     0.00  978.00    0.00  3912.00     0.00     8.00     0.22    0.22    0.22    0.00   0.22  21.80
sdd               0.00     0.00 1304.00    0.00  5216.00     0.00     8.00     0.56    0.44    0.44    0.00   0.43  56.50
md0               0.00     0.00 3221.00    0.00 12884.00     0.00     8.00     0.00    0.00    0.00    0.00   0.00   0.00

avg-cpu:  %user   %nice %system %iowait  %steal   %idle
           3.10    0.00    0.13    0.84    0.00   95.93

Device:         rrqm/s   wrqm/s     r/s     w/s    rkB/s    wkB/s avgrq-sz avgqu-sz   await r_await w_await  svctm  %util
nvme0n1           0.00     0.00    0.00    0.00     0.00     0.00     0.00     0.00    0.00    0.00    0.00   0.00   0.00
sda               0.00     1.00    0.00    2.00     0.00    12.00    12.00     0.00    0.00    0.00    0.00   0.00   0.00
sdc               0.00     0.00  855.00    0.00  3420.00     0.00     8.00     0.27    0.31    0.31    0.00   0.31  26.60
sdb               0.00     0.00 1078.00    0.00  4312.00     0.00     8.00     0.36    0.34    0.34    0.00   0.34  36.50
sdd               0.00     0.00 1156.00    0.00  4624.00     0.00     8.00     0.34    0.30    0.30    0.00   0.30  34.40
md0               0.00     0.00 3089.00    0.00 12356.00     0.00     8.00     0.00    0.00    0.00    0.00   0.00   0.00

avg-cpu:  %user   %nice %system %iowait  %steal   %idle
           3.12    0.00    0.16    0.88    0.00   95.84

Device:         rrqm/s   wrqm/s     r/s     w/s    rkB/s    wkB/s avgrq-sz avgqu-sz   await r_await w_await  svctm  %util
nvme0n1           0.00     0.00    0.00    0.00     0.00     0.00     0.00     0.00    0.00    0.00    0.00   0.00   0.00
sda               0.00     2.00    0.00    3.00     0.00    36.00    24.00     0.00    0.00    0.00    0.00   0.00   0.00
sdc               0.00     0.00 1097.00    0.00  4388.00     0.00     8.00     0.33    0.30    0.30    0.00   0.30  32.80
sdb               0.00     0.00  944.00    0.00  3776.00     0.00     8.00     0.37    0.39    0.39    0.00   0.39  36.90
sdd               0.00     0.00  879.00    0.00  3516.00     0.00     8.00     0.27    0.31    0.31    0.00   0.31  27.30
md0               0.00     0.00 2920.00    0.00 11680.00     0.00     8.00     0.00    0.00    0.00    0.00   0.00   0.00

avg-cpu:  %user   %nice %system %iowait  %steal   %idle
           3.10    0.00    0.09    0.78    0.00   96.03

Device:         rrqm/s   wrqm/s     r/s     w/s    rkB/s    wkB/s avgrq-sz avgqu-sz   await r_await w_await  svctm  %util
nvme0n1           0.00     0.00    0.00    0.00     0.00     0.00     0.00     0.00    0.00    0.00    0.00   0.00   0.00
sda               0.00     0.00    0.00    0.00     0.00     0.00     0.00     0.00    0.00    0.00    0.00   0.00   0.00
sdc               0.00     0.00 1156.00    0.00  4624.00     0.00     8.00     0.41    0.35    0.35    0.00   0.35  40.80
sdb               0.00     0.00 1033.00    0.00  4132.00     0.00     8.00     0.30    0.29    0.29    0.00   0.29  30.30
sdd               0.00     0.00  880.00    0.00  3520.00     0.00     8.00     0.27    0.31    0.31    0.00   0.31  27.40
md0               0.00     0.00 3069.00    0.00 12276.00     0.00     8.00     0.00    0.00    0.00    0.00   0.00   0.00

avg-cpu:  %user   %nice %system %iowait  %steal   %idle
           3.13    0.00    0.13    0.72    0.00   96.03

Device:         rrqm/s   wrqm/s     r/s     w/s    rkB/s    wkB/s avgrq-sz avgqu-sz   await r_await w_await  svctm  %util
nvme0n1           0.00     0.00    0.00    0.00     0.00     0.00     0.00     0.00    0.00    0.00    0.00   0.00   0.00
sda               0.00     0.00    0.00    0.00     0.00     0.00     0.00     0.00    0.00    0.00    0.00   0.00   0.00
sdc               0.00     0.00  973.00    0.00  3892.00     0.00     8.00     0.34    0.35    0.35    0.00   0.35  34.50
sdb               0.00     0.00  984.00    0.00  3936.00     0.00     8.00     0.30    0.31    0.31    0.00   0.31  30.20
sdd               0.00     0.00  983.00    0.00  3932.00     0.00     8.00     0.32    0.33    0.33    0.00   0.33  32.00
md0               0.00     0.00 2940.00    0.00 11760.00     0.00     8.00     0.00    0.00    0.00    0.00   0.00   0.00

avg-cpu:  %user   %nice %system %iowait  %steal   %idle
           3.10    0.00    0.13    0.81    0.00   95.96

Device:         rrqm/s   wrqm/s     r/s     w/s    rkB/s    wkB/s avgrq-sz avgqu-sz   await r_await w_await  svctm  %util
nvme0n1           0.00     0.00    0.00    0.00     0.00     0.00     0.00     0.00    0.00    0.00    0.00   0.00   0.00
sda               0.00     0.00    0.00    0.00     0.00     0.00     0.00     0.00    0.00    0.00    0.00   0.00   0.00
sdc               0.00     0.00 1036.00    0.00  4144.00     0.00     8.00     0.40    0.39    0.39    0.00   0.39  40.30
sdb               0.00     0.00 1121.00    0.00  4484.00     0.00     8.00     0.37    0.32    0.32    0.00   0.33  36.90
sdd               0.00     0.00  866.00    0.00  3464.00     0.00     8.00     0.20    0.23    0.23    0.00   0.23  20.20
md0               0.00     0.00 3023.00    0.00 12092.00     0.00     8.00     0.00    0.00    0.00    0.00   0.00   0.00

avg-cpu:  %user   %nice %system %iowait  %steal   %idle
           3.10    0.00    0.09    0.63    0.00   96.18

Device:         rrqm/s   wrqm/s     r/s     w/s    rkB/s    wkB/s avgrq-sz avgqu-sz   await r_await w_await  svctm  %util
nvme0n1           0.00     0.00    0.00    0.00     0.00     0.00     0.00     0.00    0.00    0.00    0.00   0.00   0.00
sda               0.00     3.00    0.00    2.00     0.00    20.00    20.00     0.00    0.00    0.00    0.00   0.00   0.00
sdc               0.00     0.00 1102.00    0.00  4408.00     0.00     8.00     0.38    0.35    0.35    0.00   0.35  38.30
sdb               0.00     0.00 1114.00    0.00  4456.00     0.00     8.00     0.34    0.32    0.32    0.00   0.31  34.50
sdd               0.00     0.00  801.00    0.00  3204.00     0.00     8.00     0.25    0.31    0.31    0.00   0.31  25.00
md0               0.00     0.00 3018.00    0.00 12072.00     0.00     8.00     0.00    0.00    0.00    0.00   0.00   0.00

avg-cpu:  %user   %nice %system %iowait  %steal   %idle
           3.10    0.00    0.13    0.63    0.00   96.15

Device:         rrqm/s   wrqm/s     r/s     w/s    rkB/s    wkB/s avgrq-sz avgqu-sz   await r_await w_await  svctm  %util
nvme0n1           0.00     0.00    0.00    0.00     0.00     0.00     0.00     0.00    0.00    0.00    0.00   0.00   0.00
sda               0.00     0.00    0.00    0.00     0.00     0.00     0.00     0.00    0.00    0.00    0.00   0.00   0.00
sdc               0.00     0.00  985.00    0.00  3940.00     0.00     8.00     0.33    0.34    0.34    0.00   0.34  33.20
sdb               0.00     0.00  971.00    0.00  3884.00     0.00     8.00     0.26    0.26    0.26    0.00   0.26  25.70
sdd               0.00     0.00 1116.00    0.00  4464.00     0.00     8.00     0.38    0.34    0.34    0.00   0.34  38.30
md0               0.00     0.00 3071.00    0.00 12284.00     0.00     8.00     0.00    0.00    0.00    0.00   0.00   0.00

avg-cpu:  %user   %nice %system %iowait  %steal   %idle
           3.13    0.00    0.13    0.72    0.00   96.03

Device:         rrqm/s   wrqm/s     r/s     w/s    rkB/s    wkB/s avgrq-sz avgqu-sz   await r_await w_await  svctm  %util
nvme0n1           0.00     0.00    0.00    0.00     0.00     0.00     0.00     0.00    0.00    0.00    0.00   0.00   0.00
sda               0.00     0.00    0.00    0.00     0.00     0.00     0.00     0.00    0.00    0.00    0.00   0.00   0.00
sdc               0.00     0.00 1012.00    0.00  4048.00     0.00     8.00     0.31    0.31    0.31    0.00   0.31  31.00
sdb               0.00     0.00  921.00    0.00  3684.00     0.00     8.00     0.36    0.39    0.39    0.00   0.39  36.10
sdd               0.00     0.00  998.00    0.00  3992.00     0.00     8.00     0.30    0.30    0.30    0.00   0.30  29.80
md0               0.00     0.00 2931.00    0.00 11724.00     0.00     8.00     0.00    0.00    0.00    0.00   0.00   0.00

avg-cpu:  %user   %nice %system %iowait  %steal   %idle
           3.10    0.00    0.13    0.72    0.00   96.06

Device:         rrqm/s   wrqm/s     r/s     w/s    rkB/s    wkB/s avgrq-sz avgqu-sz   await r_await w_await  svctm  %util
nvme0n1           0.00     0.00    0.00    0.00     0.00     0.00     0.00     0.00    0.00    0.00    0.00   0.00   0.00
sda               0.00     0.00    0.00    0.00     0.00     0.00     0.00     0.00    0.00    0.00    0.00   0.00   0.00
sdc               0.00     0.00  904.00    0.00  3616.00     0.00     8.00     0.23    0.26    0.26    0.00   0.26  23.10
sdb               0.00     0.00 1010.00    0.00  4040.00     0.00     8.00     0.30    0.30    0.30    0.00   0.30  30.40
sdd               0.00     0.00  900.00    0.00  3600.00     0.00     8.00     0.44    0.49    0.49    0.00   0.49  43.70
md0               0.00     0.00 2814.00    0.00 11256.00     0.00     8.00     0.00    0.00    0.00    0.00   0.00   0.00

avg-cpu:  %user   %nice %system %iowait  %steal   %idle
           3.13    0.00    0.13    0.81    0.00   95.94

Device:         rrqm/s   wrqm/s     r/s     w/s    rkB/s    wkB/s avgrq-sz avgqu-sz   await r_await w_await  svctm  %util
nvme0n1           0.00     0.00    0.00    0.00     0.00     0.00     0.00     0.00    0.00    0.00    0.00   0.00   0.00
sda               0.00     1.00    0.00    2.00     0.00    12.00    12.00     0.00    0.00    0.00    0.00   0.00   0.00
sdc               0.00     0.00  936.00    0.00  3744.00     0.00     8.00     0.34    0.37    0.37    0.00   0.37  34.50
sdb               0.00     0.00 1107.00    0.00  4428.00     0.00     8.00     0.32    0.29    0.29    0.00   0.29  32.20
sdd               0.00     0.00 1016.00    0.00  4064.00     0.00     8.00     0.31    0.30    0.30    0.00   0.30  30.90
md0               0.00     0.00 3059.00    0.00 12236.00     0.00     8.00     0.00    0.00    0.00    0.00   0.00   0.00

