Linux 4.17.2 (bench2) 	08/04/2018 	_x86_64_	(32 CPU)

avg-cpu:  %user   %nice %system %iowait  %steal   %idle
           1.90    0.00    1.54    1.61    0.00   94.95

Device:         rrqm/s   wrqm/s     r/s     w/s    rkB/s    wkB/s avgrq-sz avgqu-sz   await r_await w_await  svctm  %util
nvme0n1         929.10     5.05 18730.23  515.70 104769.09 11630.60    12.10     1.33    0.05    0.03    0.67   0.02  39.21
sda               0.12     0.82   14.18    0.58   164.05     8.56    23.39     0.00    0.33    0.32    0.44   0.07   0.10
sdc              34.68     0.17  124.27    0.31  1863.62    96.79    31.47     0.13    1.01    0.07  381.84   0.90  11.22
sdb              32.66     0.19  126.25    0.33  1861.67    96.62    30.94     0.55    4.37    3.31  413.03   0.84  10.67
sdd              34.88     0.17  123.82    0.26  1859.68    96.29    31.53     0.87    6.99    5.11  909.23   0.91  11.23
md0               0.00     0.00  479.38    1.20  6925.61   349.18    30.28     0.00    0.00    0.00    0.00   0.00   0.00

avg-cpu:  %user   %nice %system %iowait  %steal   %idle
           3.06    0.00    0.06    3.03    0.00   93.84

Device:         rrqm/s   wrqm/s     r/s     w/s    rkB/s    wkB/s avgrq-sz avgqu-sz   await r_await w_await  svctm  %util
nvme0n1           0.00     0.00    0.00    0.00     0.00     0.00     0.00     0.00    0.00    0.00    0.00   0.00   0.00
sda               0.00     0.00    1.00    9.00     8.00    36.00     8.80     0.00    0.00    0.00    0.00   0.00   0.00
sdc               0.00     0.00  218.00    0.00  2572.00     0.00    23.60     0.35    1.61    1.61    0.00   1.57  34.30
sdb               0.00     0.00  171.00    0.00  3232.00     0.00    37.80     0.25    1.43    1.43    0.00   1.42  24.20
sdd               0.00     0.00  231.00    0.00  3952.00     0.00    34.22     0.45    1.93    1.93    0.00   1.87  43.30
md0               0.00     0.00  620.00    0.00 10992.00     0.00    35.46     0.00    0.00    0.00    0.00   0.00   0.00

avg-cpu:  %user   %nice %system %iowait  %steal   %idle
           3.12    0.00    0.03    3.09    0.00   93.75

Device:         rrqm/s   wrqm/s     r/s     w/s    rkB/s    wkB/s avgrq-sz avgqu-sz   await r_await w_await  svctm  %util
nvme0n1           0.00     0.00    0.00    0.00     0.00     0.00     0.00     0.00    0.00    0.00    0.00   0.00   0.00
sda               0.00     0.00    0.00    0.00     0.00     0.00     0.00     0.00    0.00    0.00    0.00   0.00   0.00
sdc               1.00     0.00  203.00    0.00  3656.00     0.00    36.02     0.43    2.12    2.12    0.00   2.09  42.40
sdb               1.00     0.00  206.00    0.00  3440.00     0.00    33.40     0.36    1.73    1.73    0.00   1.68  34.70
sdd               1.00     0.00  172.00    0.00  3328.00     0.00    38.70     0.26    1.53    1.53    0.00   1.51  26.00
md0               0.00     0.00  584.00    0.00 11140.00     0.00    38.15     0.00    0.00    0.00    0.00   0.00   0.00

