Linux 4.17.2 (bench2) 	08/04/2018 	_x86_64_	(32 CPU)

avg-cpu:  %user   %nice %system %iowait  %steal   %idle
           1.90    0.00    1.54    1.61    0.00   94.95

Device:         rrqm/s   wrqm/s     r/s     w/s    rkB/s    wkB/s avgrq-sz avgqu-sz   await r_await w_await  svctm  %util
nvme0n1         929.88     5.05 18746.00  516.14 104857.30 11640.39    12.10     1.33    0.05    0.03    0.67   0.02  39.24
sda               0.12     0.82   14.17    0.58   164.04     8.56    23.39     0.00    0.33    0.32    0.44   0.07   0.10
sdc              34.65     0.17  123.84    0.31  1856.37    96.87    31.47     0.11    0.92   12.25  381.84   0.90  11.18
sdb              32.63     0.19  125.82    0.33  1854.42    96.70    30.93     0.54    4.30    3.23  413.03   0.84  10.63
sdd              34.84     0.17  123.38    0.26  1852.42    96.38    31.52     0.86    6.92    5.03  909.23   0.90  11.19
md0               0.00     0.00  477.98    1.20  6898.34   349.47    30.25     0.00    0.00    0.00    0.00   0.00   0.00

avg-cpu:  %user   %nice %system %iowait  %steal   %idle
           3.12    0.00    0.06    1.99    0.00   94.83

Device:         rrqm/s   wrqm/s     r/s     w/s    rkB/s    wkB/s avgrq-sz avgqu-sz   await r_await w_await  svctm  %util
nvme0n1           0.00     0.00    0.00    0.00     0.00     0.00     0.00     0.00    0.00    0.00    0.00   0.00   0.00
sda               0.00     0.90    0.20    1.20     5.20     9.20    20.57     0.00    0.14    0.25    0.12   0.14   0.02
sdc               0.10     0.00  199.50    0.00  3437.80     0.00    34.46     0.37    1.86    1.86    0.00   1.75  34.89
sdb               0.20     0.00  192.50    0.00  3017.80     0.00    31.35     0.33    1.72    1.72    0.00   1.66  31.89
sdd               0.55     0.00  195.45    0.00  3332.20     0.00    34.10     0.37    1.89    1.89    0.00   1.82  35.54
md0               0.00     0.00  588.35    0.00 10840.00     0.00    36.85     0.00    0.00    0.00    0.00   0.00   0.00

