Linux 4.17.2 (bench2) 	08/04/2018 	_x86_64_	(32 CPU)

avg-cpu:  %user   %nice %system %iowait  %steal   %idle
           1.90    0.00    1.54    1.61    0.00   94.95

Device:         rrqm/s   wrqm/s     r/s     w/s    rkB/s    wkB/s avgrq-sz avgqu-sz   await r_await w_await  svctm  %util
nvme0n1         929.86     5.05 18745.57  516.12 104854.90 11640.13    12.10     1.33    0.05    0.03    0.67   0.02  39.24
sda               0.12     0.82   14.17    0.58   164.04     8.56    23.39     0.00    0.33    0.32    0.44   0.07   0.10
sdc              34.65     0.17  123.84    0.31  1856.39    96.87    31.47     0.12    0.92   12.25  381.84   0.90  11.18
sdb              32.63     0.19  125.82    0.33  1854.44    96.70    30.93     0.54    4.30    3.23  413.03   0.84  10.63
sdd              34.84     0.17  123.39    0.26  1852.44    96.37    31.52     0.86    6.92    5.03  909.23   0.90  11.19
md0               0.00     0.00  477.99    1.20  6898.37   349.46    30.25     0.00    0.00    0.00    0.00   0.00   0.00

avg-cpu:  %user   %nice %system %iowait  %steal   %idle
           3.12    0.00    0.09    3.09    0.00   93.69

Device:         rrqm/s   wrqm/s     r/s     w/s    rkB/s    wkB/s avgrq-sz avgqu-sz   await r_await w_await  svctm  %util
nvme0n1           0.00     0.00    0.00    0.00     0.00     0.00     0.00     0.00    0.00    0.00    0.00   0.00   0.00
sda               0.00     0.00   18.00    0.00    76.00     0.00     8.44     0.00    0.00    0.00    0.00   0.00   0.00
sdc               1.00     0.00  199.00    0.00  3216.00     0.00    32.32     0.40    2.03    2.03    0.00   2.01  40.00
sdb               2.00     0.00  217.00    0.00  4840.00     0.00    44.61     0.25    1.16    1.16    0.00   1.12  24.40
sdd               1.00     0.00  174.00    0.00  3196.00     0.00    36.74     0.38    2.21    2.21    0.00   2.15  37.40
md0               0.00     0.00  594.00    0.00 13416.00     0.00    45.17     0.00    0.00    0.00    0.00   0.00   0.00

