Linux 4.17.2 (bench2) 	08/04/2018 	_x86_64_	(32 CPU)

avg-cpu:  %user   %nice %system %iowait  %steal   %idle
           1.89    0.00    1.54    1.62    0.00   94.95

Device:         rrqm/s   wrqm/s     r/s     w/s    rkB/s    wkB/s avgrq-sz avgqu-sz   await r_await w_await  svctm  %util
nvme0n1         927.33     5.04 18694.58  514.72 104569.69 11608.47    12.10     1.33    0.05    0.03    0.67   0.02  39.13
sda               0.12     0.82   14.18    0.58   164.08     8.56    23.38     0.00    0.33    0.32    0.44   0.07   0.10
sdc              34.98     0.17  125.65    0.31  1874.12    96.61    31.29     0.14    1.11    0.18  381.84   0.90  11.29
sdb              32.96     0.18  127.62    0.33  1872.20    96.43    30.77     0.57    4.43    3.38  413.03   0.84  10.74
sdd              35.17     0.17  125.20    0.26  1870.19    96.11    31.35     0.88    7.02    5.16  909.23   0.90  11.31
md0               0.00     0.00  484.40    1.20  6960.84   348.51    30.10     0.00    0.00    0.00    0.00   0.00   0.00

avg-cpu:  %user   %nice %system %iowait  %steal   %idle
           3.12    0.00    0.01    3.11    0.00   93.76

Device:         rrqm/s   wrqm/s     r/s     w/s    rkB/s    wkB/s avgrq-sz avgqu-sz   await r_await w_await  svctm  %util
nvme0n1           0.00     0.00    0.00    0.00     0.00     0.00     0.00     0.00    0.00    0.00    0.00   0.00   0.00
sda               0.00     1.20    1.15    0.80     6.60    10.20    17.23     0.00    0.03    0.04    0.00   0.03   0.01
sdc               0.00     0.00   53.15    0.00   212.60     0.00     8.00     0.34    6.44    6.44    0.00   6.44  34.25
sdb               0.00     0.00   51.20    0.00   204.80     0.00     8.00     0.33    6.38    6.38    0.00   6.38  32.67
sdd               0.00     0.00   51.30    0.00   205.20     0.00     8.00     0.33    6.38    6.38    0.00   6.38  32.75
md0               0.00     0.00  155.70    0.00   622.80     0.00     8.00     0.00    0.00    0.00    0.00   0.00   0.00

