Linux 4.17.2 (bench2) 	08/04/2018 	_x86_64_	(32 CPU)

avg-cpu:  %user   %nice %system %iowait  %steal   %idle
           1.89    0.00    1.54    1.62    0.00   94.95

Device:         rrqm/s   wrqm/s     r/s     w/s    rkB/s    wkB/s avgrq-sz avgqu-sz   await r_await w_await  svctm  %util
nvme0n1         926.24     5.03 18672.58  514.11 104446.65 11594.81    12.10     1.33    0.05    0.03    0.67   0.02  39.09
sda               0.12     0.82   14.18    0.58   164.09     8.57    23.38     0.00    0.33    0.32    0.44   0.07   0.10
sdc              35.00     0.17  126.43    0.31  1882.07    96.49    31.22     0.14    1.14    0.21  381.84   0.89  11.33
sdb              32.98     0.18  128.40    0.33  1880.15    96.32    30.71     0.57    4.43    3.39  413.03   0.84  10.78
sdd              35.19     0.16  125.98    0.26  1878.16    96.00    31.28     0.88    7.00    5.16  909.23   0.90  11.35
md0               0.00     0.00  486.79    1.20  6989.66   348.10    30.07     0.00    0.00    0.00    0.00   0.00   0.00

avg-cpu:  %user   %nice %system %iowait  %steal   %idle
           3.13    0.00    0.01    3.11    0.00   93.76

Device:         rrqm/s   wrqm/s     r/s     w/s    rkB/s    wkB/s avgrq-sz avgqu-sz   await r_await w_await  svctm  %util
nvme0n1           0.00     0.00    0.00    0.00     0.00     0.00     0.00     0.00    0.00    0.00    0.00   0.00   0.00
sda               0.00     1.05    0.15    0.55     5.00     7.20    34.86     0.00    0.07    0.33    0.00   0.07   0.01
sdc               0.00     0.00   51.45    0.00   205.80     0.00     8.00     0.32    6.30    6.30    0.00   6.30  32.39
sdb               0.00     0.00   53.45    0.00   214.20     0.00     8.01     0.34    6.35    6.35    0.00   6.35  33.92
sdd               0.00     0.00   52.80    0.00   211.20     0.00     8.00     0.33    6.32    6.32    0.00   6.32  33.38
md0               0.00     0.00  157.75    0.00   631.40     0.00     8.01     0.00    0.00    0.00    0.00   0.00   0.00

