Linux 4.17.2 (bench2) 	08/04/2018 	_x86_64_	(32 CPU)

avg-cpu:  %user   %nice %system %iowait  %steal   %idle
           1.89    0.00    1.54    1.61    0.00   94.95

Device:         rrqm/s   wrqm/s     r/s     w/s    rkB/s    wkB/s avgrq-sz avgqu-sz   await r_await w_await  svctm  %util
nvme0n1         928.44     5.04 18716.98  515.34 104695.00 11622.38    12.10     1.33    0.05    0.03    0.67   0.02  39.18
sda               0.12     0.82   14.18    0.58   164.05     8.56    23.39     0.00    0.33    0.32    0.44   0.07   0.10
sdc              34.87     0.17  124.66    0.31  1871.23    96.72    31.50     0.14    1.10    0.16  381.84   0.90  11.25
sdb              32.86     0.18  126.63    0.33  1869.30    96.55    30.97     0.56    4.45    3.39  413.03   0.84  10.70
sdd              35.07     0.17  124.20    0.26  1867.29    96.23    31.55     0.88    7.06    5.18  909.23   0.91  11.27
md0               0.00     0.00  481.12    1.20  6953.76   348.93    30.28     0.00    0.00    0.00    0.00   0.00   0.00

avg-cpu:  %user   %nice %system %iowait  %steal   %idle
           3.13    0.00    0.00    3.10    0.00   93.78

Device:         rrqm/s   wrqm/s     r/s     w/s    rkB/s    wkB/s avgrq-sz avgqu-sz   await r_await w_await  svctm  %util
nvme0n1           0.00     0.00    0.00    0.00     0.00     0.00     0.00     0.00    0.00    0.00    0.00   0.00   0.00
sda               0.00     0.00   21.00    0.00   124.00     0.00    11.81     0.00    0.10    0.10    0.00   0.05   0.10
sdc               0.00     0.00   51.00    0.00   204.00     0.00     8.00     0.33    6.55    6.55    0.00   6.55  33.40
sdb               0.00     0.00   54.00    0.00   216.00     0.00     8.00     0.35    6.46    6.46    0.00   6.46  34.90
sdd               0.00     0.00   48.00    0.00   192.00     0.00     8.00     0.31    6.35    6.35    0.00   6.42  30.80
md0               0.00     0.00  154.00    0.00   616.00     0.00     8.00     0.00    0.00    0.00    0.00   0.00   0.00

avg-cpu:  %user   %nice %system %iowait  %steal   %idle
           3.12    0.00    0.03    3.09    0.00   93.75

Device:         rrqm/s   wrqm/s     r/s     w/s    rkB/s    wkB/s avgrq-sz avgqu-sz   await r_await w_await  svctm  %util
nvme0n1           0.00     0.00    0.00    0.00     0.00     0.00     0.00     0.00    0.00    0.00    0.00   0.00   0.00
sda               0.00     0.00    0.00    0.00     0.00     0.00     0.00     0.00    0.00    0.00    0.00   0.00   0.00
sdc               0.00     0.00   53.00    0.00   212.00     0.00     8.00     0.30    5.66    5.66    0.00   5.66  30.00
sdb               0.00     0.00   55.00    0.00   220.00     0.00     8.00     0.38    6.85    6.85    0.00   6.96  38.30
sdd               0.00     0.00   46.00    0.00   184.00     0.00     8.00     0.31    6.85    6.85    0.00   6.78  31.20
md0               0.00     0.00  154.00    0.00   616.00     0.00     8.00     0.00    0.00    0.00    0.00   0.00   0.00

avg-cpu:  %user   %nice %system %iowait  %steal   %idle
           3.13    0.00    0.00    3.09    0.00   93.78

Device:         rrqm/s   wrqm/s     r/s     w/s    rkB/s    wkB/s avgrq-sz avgqu-sz   await r_await w_await  svctm  %util
nvme0n1           0.00     0.00    0.00    0.00     0.00     0.00     0.00     0.00    0.00    0.00    0.00   0.00   0.00
sda               0.00     0.00    0.00    0.00     0.00     0.00     0.00     0.00    0.00    0.00    0.00   0.00   0.00
sdc               0.00     0.00   53.00    0.00   212.00     0.00     8.00     0.34    6.40    6.40    0.00   6.40  33.90
sdb               0.00     0.00   48.00    0.00   192.00     0.00     8.00     0.31    6.58    6.58    0.00   6.46  31.00
sdd               0.00     0.00   53.00    0.00   212.00     0.00     8.00     0.35    6.49    6.49    0.00   6.57  34.80
md0               0.00     0.00  154.00    0.00   616.00     0.00     8.00     0.00    0.00    0.00    0.00   0.00   0.00

avg-cpu:  %user   %nice %system %iowait  %steal   %idle
           3.12    0.00    0.03    3.09    0.00   93.75

Device:         rrqm/s   wrqm/s     r/s     w/s    rkB/s    wkB/s avgrq-sz avgqu-sz   await r_await w_await  svctm  %util
nvme0n1           0.00     0.00    0.00    0.00     0.00     0.00     0.00     0.00    0.00    0.00    0.00   0.00   0.00
sda               0.00     0.00    0.00    0.00     0.00     0.00     0.00     0.00    0.00    0.00    0.00   0.00   0.00
sdc               0.00     0.00   47.00    0.00   188.00     0.00     8.00     0.32    6.87    6.87    0.00   6.87  32.30
sdb               0.00     0.00   52.00    0.00   208.00     0.00     8.00     0.32    6.13    6.13    0.00   6.13  31.90
sdd               0.00     0.00   53.00    0.00   212.00     0.00     8.00     0.35    6.68    6.68    0.00   6.68  35.40
md0               0.00     0.00  152.00    0.00   608.00     0.00     8.00     0.00    0.00    0.00    0.00   0.00   0.00

avg-cpu:  %user   %nice %system %iowait  %steal   %idle
           3.13    0.00    0.00    3.09    0.00   93.78

Device:         rrqm/s   wrqm/s     r/s     w/s    rkB/s    wkB/s avgrq-sz avgqu-sz   await r_await w_await  svctm  %util
nvme0n1           0.00     0.00    0.00    0.00     0.00     0.00     0.00     0.00    0.00    0.00    0.00   0.00   0.00
sda               0.00     0.00    0.00    0.00     0.00     0.00     0.00     0.00    0.00    0.00    0.00   0.00   0.00
sdc               0.00     0.00   52.00    0.00   208.00     0.00     8.00     0.36    6.98    6.98    0.00   6.98  36.30
sdb               0.00     0.00   49.00    0.00   196.00     0.00     8.00     0.34    6.94    6.94    0.00   6.94  34.00
sdd               0.00     0.00   49.00    0.00   196.00     0.00     8.00     0.29    5.90    5.90    0.00   5.98  29.30
md0               0.00     0.00  150.00    0.00   600.00     0.00     8.00     0.00    0.00    0.00    0.00   0.00   0.00

avg-cpu:  %user   %nice %system %iowait  %steal   %idle
           3.12    0.00    0.03    3.09    0.00   93.75

Device:         rrqm/s   wrqm/s     r/s     w/s    rkB/s    wkB/s avgrq-sz avgqu-sz   await r_await w_await  svctm  %util
nvme0n1           0.00     0.00    0.00    0.00     0.00     0.00     0.00     0.00    0.00    0.00    0.00   0.00   0.00
sda               0.00    10.00    0.00    2.00     0.00    48.00    48.00     0.00    0.00    0.00    0.00   0.00   0.00
sdc               0.00     0.00   60.00    0.00   240.00     0.00     8.00     0.37    6.23    6.23    0.00   6.23  37.40
sdb               0.00     0.00   54.00    0.00   216.00     0.00     8.00     0.32    5.83    5.83    0.00   5.85  31.60
sdd               0.00     0.00   54.00    0.00   216.00     0.00     8.00     0.31    5.83    5.83    0.00   5.69  30.70
md0               0.00     0.00  168.00    0.00   672.00     0.00     8.00     0.00    0.00    0.00    0.00   0.00   0.00

avg-cpu:  %user   %nice %system %iowait  %steal   %idle
           3.13    0.00    0.00    3.09    0.00   93.78

Device:         rrqm/s   wrqm/s     r/s     w/s    rkB/s    wkB/s avgrq-sz avgqu-sz   await r_await w_await  svctm  %util
nvme0n1           0.00     0.00    0.00    0.00     0.00     0.00     0.00     0.00    0.00    0.00    0.00   0.00   0.00
sda               0.00     0.00    0.00    0.00     0.00     0.00     0.00     0.00    0.00    0.00    0.00   0.00   0.00
sdc               0.00     0.00   52.00    0.00   208.00     0.00     8.00     0.31    6.04    6.04    0.00   6.04  31.40
sdb               0.00     0.00   49.00    0.00   196.00     0.00     8.00     0.34    6.84    6.84    0.00   6.94  34.00
sdd               0.00     0.00   51.00    0.00   204.00     0.00     8.00     0.34    6.69    6.69    0.00   6.69  34.10
md0               0.00     0.00  152.00    0.00   608.00     0.00     8.00     0.00    0.00    0.00    0.00   0.00   0.00

avg-cpu:  %user   %nice %system %iowait  %steal   %idle
           3.12    0.00    0.03    3.09    0.00   93.75

Device:         rrqm/s   wrqm/s     r/s     w/s    rkB/s    wkB/s avgrq-sz avgqu-sz   await r_await w_await  svctm  %util
nvme0n1           0.00     0.00    0.00    0.00     0.00     0.00     0.00     0.00    0.00    0.00    0.00   0.00   0.00
sda               0.00     0.00    0.00    0.00     0.00     0.00     0.00     0.00    0.00    0.00    0.00   0.00   0.00
sdc               0.00     0.00   57.00    0.00   228.00     0.00     8.00     0.38    6.67    6.67    0.00   6.67  38.00
sdb               0.00     0.00   49.00    0.00   196.00     0.00     8.00     0.31    6.47    6.47    0.00   6.35  31.10
sdd               0.00     0.00   48.00    0.00   192.00     0.00     8.00     0.30    6.25    6.25    0.00   6.31  30.30
md0               0.00     0.00  154.00    0.00   616.00     0.00     8.00     0.00    0.00    0.00    0.00   0.00   0.00

avg-cpu:  %user   %nice %system %iowait  %steal   %idle
           3.12    0.00    0.03    3.12    0.00   93.72

Device:         rrqm/s   wrqm/s     r/s     w/s    rkB/s    wkB/s avgrq-sz avgqu-sz   await r_await w_await  svctm  %util
nvme0n1           0.00     0.00    0.00    0.00     0.00     0.00     0.00     0.00    0.00    0.00    0.00   0.00   0.00
sda               0.00     0.00    0.00    0.00     0.00     0.00     0.00     0.00    0.00    0.00    0.00   0.00   0.00
sdc               0.00     0.00   69.00    0.00   276.00     0.00     8.00     0.44    6.36    6.36    0.00   6.36  43.90
sdb               0.00     0.00   46.00    0.00   184.00     0.00     8.00     0.28    5.91    5.91    0.00   6.11  28.10
sdd               0.00     0.00   43.00    0.00   172.00     0.00     8.00     0.27    6.42    6.42    0.00   6.35  27.30
md0               0.00     0.00  158.00    0.00   632.00     0.00     8.00     0.00    0.00    0.00    0.00   0.00   0.00

avg-cpu:  %user   %nice %system %iowait  %steal   %idle
           3.13    0.00    0.00    3.09    0.00   93.78

Device:         rrqm/s   wrqm/s     r/s     w/s    rkB/s    wkB/s avgrq-sz avgqu-sz   await r_await w_await  svctm  %util
nvme0n1           0.00     0.00    0.00    0.00     0.00     0.00     0.00     0.00    0.00    0.00    0.00   0.00   0.00
sda               0.00     0.00    0.00    0.00     0.00     0.00     0.00     0.00    0.00    0.00    0.00   0.00   0.00
sdc               0.00     0.00   60.00    0.00   240.00     0.00     8.00     0.40    6.68    6.68    0.00   6.68  40.10
sdb               0.00     0.00   54.00    0.00   216.00     0.00     8.00     0.35    6.57    6.57    0.00   6.41  34.60
sdd               0.00     0.00   44.00    0.00   176.00     0.00     8.00     0.25    5.57    5.57    0.00   5.66  24.90
md0               0.00     0.00  158.00    0.00   632.00     0.00     8.00     0.00    0.00    0.00    0.00   0.00   0.00

avg-cpu:  %user   %nice %system %iowait  %steal   %idle
           3.12    0.00    0.03    3.09    0.00   93.75

Device:         rrqm/s   wrqm/s     r/s     w/s    rkB/s    wkB/s avgrq-sz avgqu-sz   await r_await w_await  svctm  %util
nvme0n1           0.00     0.00    0.00    0.00     0.00     0.00     0.00     0.00    0.00    0.00    0.00   0.00   0.00
sda               0.00     1.00    0.00    2.00     0.00    12.00    12.00     0.00    0.00    0.00    0.00   0.00   0.00
sdc               0.00     0.00   52.00    0.00   208.00     0.00     8.00     0.35    6.67    6.67    0.00   6.71  34.90
sdb               0.00     0.00   44.00    0.00   176.00     0.00     8.00     0.28    6.39    6.39    0.00   6.39  28.10
sdd               0.00     0.00   54.00    0.00   216.00     0.00     8.00     0.37    6.89    6.89    0.00   6.81  36.80
md0               0.00     0.00  150.00    0.00   600.00     0.00     8.00     0.00    0.00    0.00    0.00   0.00   0.00

avg-cpu:  %user   %nice %system %iowait  %steal   %idle
           3.12    0.00    0.03    3.09    0.00   93.75

Device:         rrqm/s   wrqm/s     r/s     w/s    rkB/s    wkB/s avgrq-sz avgqu-sz   await r_await w_await  svctm  %util
nvme0n1           0.00     0.00    0.00    0.00     0.00     0.00     0.00     0.00    0.00    0.00    0.00   0.00   0.00
sda               0.00     0.00    0.00    0.00     0.00     0.00     0.00     0.00    0.00    0.00    0.00   0.00   0.00
sdc               0.00     0.00   54.00    0.00   216.00     0.00     8.00     0.31    5.87    5.87    0.00   5.81  31.40
sdb               0.00     0.00   59.00    0.00   236.00     0.00     8.00     0.38    6.44    6.44    0.00   6.44  38.00
sdd               0.00     0.00   46.00    0.00   184.00     0.00     8.00     0.30    6.41    6.41    0.00   6.43  29.60
md0               0.00     0.00  159.00    0.00   636.00     0.00     8.00     0.00    0.00    0.00    0.00   0.00   0.00

avg-cpu:  %user   %nice %system %iowait  %steal   %idle
           3.13    0.00    0.00    3.09    0.00   93.78

Device:         rrqm/s   wrqm/s     r/s     w/s    rkB/s    wkB/s avgrq-sz avgqu-sz   await r_await w_await  svctm  %util
nvme0n1           0.00     0.00    0.00    0.00     0.00     0.00     0.00     0.00    0.00    0.00    0.00   0.00   0.00
sda               0.00     2.00    0.00    1.00     0.00    28.00    56.00     0.00    0.00    0.00    0.00   0.00   0.00
sdc               0.00     0.00   47.00    0.00   188.00     0.00     8.00     0.31    6.47    6.47    0.00   6.62  31.10
sdb               0.00     0.00   58.00    0.00   232.00     0.00     8.00     0.37    6.38    6.38    0.00   6.38  37.00
sdd               0.00     0.00   50.00    0.00   200.00     0.00     8.00     0.31    6.28    6.28    0.00   6.26  31.30
md0               0.00     0.00  155.00    0.00   620.00     0.00     8.00     0.00    0.00    0.00    0.00   0.00   0.00

avg-cpu:  %user   %nice %system %iowait  %steal   %idle
           3.12    0.00    0.03    3.09    0.00   93.75

Device:         rrqm/s   wrqm/s     r/s     w/s    rkB/s    wkB/s avgrq-sz avgqu-sz   await r_await w_await  svctm  %util
nvme0n1           0.00     0.00    0.00    0.00     0.00     0.00     0.00     0.00    0.00    0.00    0.00   0.00   0.00
sda               0.00     0.00    0.00    0.00     0.00     0.00     0.00     0.00    0.00    0.00    0.00   0.00   0.00
sdc               0.00     0.00   67.00    0.00   268.00     0.00     8.00     0.42    6.45    6.45    0.00   6.34  42.50
sdb               0.00     0.00   34.00    0.00   136.00     0.00     8.00     0.23    6.44    6.44    0.00   6.62  22.50
sdd               0.00     0.00   50.00    0.00   200.00     0.00     8.00     0.35    6.94    6.94    0.00   6.94  34.70
md0               0.00     0.00  151.00    0.00   604.00     0.00     8.00     0.00    0.00    0.00    0.00   0.00   0.00

avg-cpu:  %user   %nice %system %iowait  %steal   %idle
           3.13    0.00    0.00    3.09    0.00   93.78

Device:         rrqm/s   wrqm/s     r/s     w/s    rkB/s    wkB/s avgrq-sz avgqu-sz   await r_await w_await  svctm  %util
nvme0n1           0.00     0.00    0.00    0.00     0.00     0.00     0.00     0.00    0.00    0.00    0.00   0.00   0.00
sda               0.00     0.00    0.00    0.00     0.00     0.00     0.00     0.00    0.00    0.00    0.00   0.00   0.00
sdc               0.00     0.00   43.00    0.00   172.00     0.00     8.00     0.27    6.30    6.30    0.00   6.30  27.10
sdb               0.00     0.00   55.00    0.00   220.00     0.00     8.00     0.36    6.58    6.58    0.00   6.49  35.70
sdd               0.00     0.00   55.00    0.00   220.00     0.00     8.00     0.37    6.65    6.65    0.00   6.65  36.60
md0               0.00     0.00  153.00    0.00   612.00     0.00     8.00     0.00    0.00    0.00    0.00   0.00   0.00

avg-cpu:  %user   %nice %system %iowait  %steal   %idle
           3.12    0.00    0.03    3.09    0.00   93.75

Device:         rrqm/s   wrqm/s     r/s     w/s    rkB/s    wkB/s avgrq-sz avgqu-sz   await r_await w_await  svctm  %util
nvme0n1           0.00     0.00    0.00    0.00     0.00     0.00     0.00     0.00    0.00    0.00    0.00   0.00   0.00
sda               0.00     3.00    0.00    2.00     0.00    20.00    20.00     0.00    0.00    0.00    0.00   0.00   0.00
sdc               0.00     0.00   51.00    0.00   204.00     0.00     8.00     0.34    6.69    6.69    0.00   6.69  34.10
sdb               0.00     0.00   47.00    0.00   188.00     0.00     8.00     0.33    7.13    7.13    0.00   7.09  33.30
sdd               0.00     0.00   47.00    0.00   188.00     0.00     8.00     0.32    6.81    6.81    0.00   6.87  32.30
md0               0.00     0.00  145.00    0.00   580.00     0.00     8.00     0.00    0.00    0.00    0.00   0.00   0.00

avg-cpu:  %user   %nice %system %iowait  %steal   %idle
           3.13    0.00    0.00    3.09    0.00   93.78

Device:         rrqm/s   wrqm/s     r/s     w/s    rkB/s    wkB/s avgrq-sz avgqu-sz   await r_await w_await  svctm  %util
nvme0n1           0.00     0.00    0.00    0.00     0.00     0.00     0.00     0.00    0.00    0.00    0.00   0.00   0.00
sda               0.00     0.00    0.00    0.00     0.00     0.00     0.00     0.00    0.00    0.00    0.00   0.00   0.00
sdc               0.00     0.00   64.00    0.00   256.00     0.00     8.00     0.40    6.27    6.27    0.00   6.27  40.10
sdb               0.00     0.00   46.00    0.00   184.00     0.00     8.00     0.27    5.89    5.89    0.00   5.89  27.10
sdd               0.00     0.00   50.00    0.00   200.00     0.00     8.00     0.32    6.40    6.40    0.00   6.38  31.90
md0               0.00     0.00  160.00    0.00   640.00     0.00     8.00     0.00    0.00    0.00    0.00   0.00   0.00

avg-cpu:  %user   %nice %system %iowait  %steal   %idle
           3.13    0.00    0.00    3.09    0.00   93.78

Device:         rrqm/s   wrqm/s     r/s     w/s    rkB/s    wkB/s avgrq-sz avgqu-sz   await r_await w_await  svctm  %util
nvme0n1           0.00     0.00    0.00    0.00     0.00     0.00     0.00     0.00    0.00    0.00    0.00   0.00   0.00
sda               0.00     0.00    0.00    0.00     0.00     0.00     0.00     0.00    0.00    0.00    0.00   0.00   0.00
sdc               0.00     0.00   55.00    0.00   220.00     0.00     8.00     0.33    6.00    6.00    0.00   5.98  32.90
sdb               0.00     0.00   44.00    0.00   176.00     0.00     8.00     0.29    6.55    6.55    0.00   6.55  28.80
sdd               0.00     0.00   57.00    0.00   228.00     0.00     8.00     0.38    6.58    6.58    0.00   6.65  37.90
md0               0.00     0.00  156.00    0.00   624.00     0.00     8.00     0.00    0.00    0.00    0.00   0.00   0.00

avg-cpu:  %user   %nice %system %iowait  %steal   %idle
           3.12    0.00    0.03    3.09    0.00   93.75

Device:         rrqm/s   wrqm/s     r/s     w/s    rkB/s    wkB/s avgrq-sz avgqu-sz   await r_await w_await  svctm  %util
nvme0n1           0.00     0.00    0.00    0.00     0.00     0.00     0.00     0.00    0.00    0.00    0.00   0.00   0.00
sda               0.00     0.00    0.00    0.00     0.00     0.00     0.00     0.00    0.00    0.00    0.00   0.00   0.00
sdc               0.00     0.00   39.00    0.00   156.00     0.00     8.00     0.26    6.62    6.62    0.00   6.62  25.80
sdb               0.00     0.00   70.00    0.00   280.00     0.00     8.00     0.43    6.07    6.07    0.00   6.19  43.30
sdd               0.00     0.00   52.00    0.00   208.00     0.00     8.00     0.30    5.94    5.94    0.00   5.83  30.30
md0               0.00     0.00  161.00    0.00   644.00     0.00     8.00     0.00    0.00    0.00    0.00   0.00   0.00

avg-cpu:  %user   %nice %system %iowait  %steal   %idle
           3.13    0.00    0.00    3.09    0.00   93.78

Device:         rrqm/s   wrqm/s     r/s     w/s    rkB/s    wkB/s avgrq-sz avgqu-sz   await r_await w_await  svctm  %util
nvme0n1           0.00     0.00    0.00    0.00     0.00     0.00     0.00     0.00    0.00    0.00    0.00   0.00   0.00
sda               0.00     1.00    0.00    1.00     0.00     8.00    16.00     0.00    0.00    0.00    0.00   0.00   0.00
sdc               0.00     0.00   50.00    0.00   200.00     0.00     8.00     0.33    6.62    6.62    0.00   6.62  33.10
sdb               0.00     0.00   53.00    0.00   212.00     0.00     8.00     0.34    6.51    6.51    0.00   6.49  34.40
sdd               0.00     0.00   48.00    0.00   192.00     0.00     8.00     0.32    6.62    6.62    0.00   6.62  31.80
md0               0.00     0.00  151.00    0.00   604.00     0.00     8.00     0.00    0.00    0.00    0.00   0.00   0.00

