Linux 4.17.2 (bench2) 	08/04/2018 	_x86_64_	(32 CPU)

avg-cpu:  %user   %nice %system %iowait  %steal   %idle
           1.89    0.00    1.54    1.62    0.00   94.94

Device:         rrqm/s   wrqm/s     r/s     w/s    rkB/s    wkB/s avgrq-sz avgqu-sz   await r_await w_await  svctm  %util
nvme0n1         925.74     5.03 18662.59  513.84 104390.73 11588.60    12.10     1.33    0.05    0.03    0.67   0.02  39.07
sda               0.12     0.82   14.19    0.58   164.09     8.57    23.38     0.00    0.33    0.32    0.44   0.07   0.10
sdc              34.98     0.17  126.67    0.31  1885.12    96.44    31.21     0.15    1.15    0.22  381.84   0.89  11.35
sdb              32.97     0.18  128.64    0.33  1883.21    96.27    30.70     0.57    4.43    3.39  413.03   0.84  10.80
sdd              35.18     0.16  126.21    0.26  1881.22    95.95    31.27     0.89    7.00    5.16  909.23   0.90  11.37
md0               0.00     0.00  487.45    1.20  7000.52   347.92    30.08     0.00    0.00    0.00    0.00   0.00   0.00

avg-cpu:  %user   %nice %system %iowait  %steal   %idle
           3.00    0.00    0.28    1.10    0.00   95.62

Device:         rrqm/s   wrqm/s     r/s     w/s    rkB/s    wkB/s avgrq-sz avgqu-sz   await r_await w_await  svctm  %util
nvme0n1           0.00     0.00    0.00    0.00     0.00     0.00     0.00     0.00    0.00    0.00    0.00   0.00   0.00
sda               0.00     0.00    3.00    0.00   100.00     0.00    66.67     0.00    0.00    0.00    0.00   0.00   0.00
sdc               1.00     0.00  641.00    0.00 16004.00     0.00    49.93     1.76    2.75    2.75    0.00   0.70  44.80
sdb               4.00     0.00  650.00    0.00 16840.00     0.00    51.82     1.72    2.64    2.64    0.00   0.52  34.00
sdd               4.00     0.00  612.00    0.00 16724.00     0.00    54.65     2.67    4.39    4.39    0.00   0.81  49.50
md0               0.00     0.00 1914.00    0.00 51476.00     0.00    53.79     0.00    0.00    0.00    0.00   0.00   0.00

avg-cpu:  %user   %nice %system %iowait  %steal   %idle
           3.00    0.00    0.34    1.31    0.00   95.34

Device:         rrqm/s   wrqm/s     r/s     w/s    rkB/s    wkB/s avgrq-sz avgqu-sz   await r_await w_await  svctm  %util
nvme0n1           0.00     0.00    0.00    0.00     0.00     0.00     0.00     0.00    0.00    0.00    0.00   0.00   0.00
sda               0.00     0.00    0.00    0.00     0.00     0.00     0.00     0.00    0.00    0.00    0.00   0.00   0.00
sdc              19.80     0.00  576.24    0.00 24281.19     0.00    84.27     5.23    9.07    9.07    0.00   1.04  59.70
sdb              15.84     0.00  550.50    0.00 22641.58     0.00    82.26     4.57    8.30    8.30    0.00   0.97  53.47
sdd              18.81     0.00  592.08    0.00 24304.95     0.00    82.10     4.95    8.36    8.36    0.00   0.99  58.61
md0               0.00     0.00 1774.26    0.00 81081.19     0.00    91.40     0.00    0.00    0.00    0.00   0.00   0.00

avg-cpu:  %user   %nice %system %iowait  %steal   %idle
           3.07    0.00    0.28    1.00    0.00   95.65

Device:         rrqm/s   wrqm/s     r/s     w/s    rkB/s    wkB/s avgrq-sz avgqu-sz   await r_await w_await  svctm  %util
nvme0n1           0.00     0.00    0.00    0.00     0.00     0.00     0.00     0.00    0.00    0.00    0.00   0.00   0.00
sda               0.00     0.00    0.00    0.00     0.00     0.00     0.00     0.00    0.00    0.00    0.00   0.00   0.00
sdc              71.00     0.00  889.00    0.00 55584.00     0.00   125.05     0.60    0.66    0.66    0.00   0.49  43.50
sdb              60.00     0.00  943.00    0.00 55524.00     0.00   117.76     0.63    0.66    0.66    0.00   0.47  44.40
sdd              74.00     0.00  901.00    0.00 55428.00     0.00   123.04     0.80    0.88    0.88    0.00   0.60  54.20
md0               0.00     0.00 2944.00    0.00 226832.00     0.00   154.10     0.00    0.00    0.00    0.00   0.00   0.00

avg-cpu:  %user   %nice %system %iowait  %steal   %idle
           3.00    0.00    0.34    0.97    0.00   95.68

Device:         rrqm/s   wrqm/s     r/s     w/s    rkB/s    wkB/s avgrq-sz avgqu-sz   await r_await w_await  svctm  %util
nvme0n1           0.00     0.00    0.00    0.00     0.00     0.00     0.00     0.00    0.00    0.00    0.00   0.00   0.00
sda               0.00     0.00    0.00    0.00     0.00     0.00     0.00     0.00    0.00    0.00    0.00   0.00   0.00
sdc              75.00     0.00  723.00    0.00 61072.00     0.00   168.94     0.72    1.01    1.01    0.00   0.66  47.50
sdb              81.00     0.00  868.00    0.00 59660.00     0.00   137.47     0.56    0.66    0.66    0.00   0.45  39.40
sdd              76.00     0.00  793.00    0.00 60848.00     0.00   153.46     0.98    1.25    1.25    0.00   0.78  62.10
md0               0.00     0.00 2607.00    0.00 234276.00     0.00   179.73     0.00    0.00    0.00    0.00   0.00   0.00

avg-cpu:  %user   %nice %system %iowait  %steal   %idle
           3.07    0.00    0.28    1.00    0.00   95.65

Device:         rrqm/s   wrqm/s     r/s     w/s    rkB/s    wkB/s avgrq-sz avgqu-sz   await r_await w_await  svctm  %util
nvme0n1           0.00     0.00    0.00    0.00     0.00     0.00     0.00     0.00    0.00    0.00    0.00   0.00   0.00
sda               0.00     0.00    0.00    0.00     0.00     0.00     0.00     0.00    0.00    0.00    0.00   0.00   0.00
sdc              72.00     0.00  816.00    0.00 58784.00     0.00   144.08     0.73    0.88    0.88    0.00   0.66  54.00
sdb              78.00     0.00  807.00    0.00 59392.00     0.00   147.19     0.58    0.72    0.72    0.00   0.54  43.20
sdd              72.00     0.00  797.00    0.00 59516.00     0.00   149.35     0.72    0.90    0.90    0.00   0.61  48.30
md0               0.00     0.00 2642.00    0.00 248624.00     0.00   188.21     0.00    0.00    0.00    0.00   0.00   0.00

avg-cpu:  %user   %nice %system %iowait  %steal   %idle
           3.04    0.00    0.25    0.75    0.00   95.96

Device:         rrqm/s   wrqm/s     r/s     w/s    rkB/s    wkB/s avgrq-sz avgqu-sz   await r_await w_await  svctm  %util
nvme0n1           0.00     0.00    0.00    0.00     0.00     0.00     0.00     0.00    0.00    0.00    0.00   0.00   0.00
sda               0.00     7.00    0.00    5.00     0.00    76.00    30.40     0.00    0.00    0.00    0.00   0.00   0.00
sdc              50.00     0.00 1081.00    0.00 54396.00     0.00   100.64     0.53    0.50    0.50    0.00   0.41  43.80
sdb              46.00     0.00 1145.00    0.00 53512.00     0.00    93.47     0.56    0.49    0.49    0.00   0.39  45.00
sdd              52.00     0.00 1089.00    0.00 54084.00     0.00    99.33     0.54    0.50    0.50    0.00   0.39  42.80
md0               0.00     0.00 3463.00    0.00 211420.00     0.00   122.10     0.00    0.00    0.00    0.00   0.00   0.00

avg-cpu:  %user   %nice %system %iowait  %steal   %idle
           3.00    0.00    0.41    0.84    0.00   95.75

Device:         rrqm/s   wrqm/s     r/s     w/s    rkB/s    wkB/s avgrq-sz avgqu-sz   await r_await w_await  svctm  %util
nvme0n1           0.00     0.00    0.00    0.00     0.00     0.00     0.00     0.00    0.00    0.00    0.00   0.00   0.00
sda               0.00     0.00    0.00    0.00     0.00     0.00     0.00     0.00    0.00    0.00    0.00   0.00   0.00
sdc              56.00     0.00  918.00    0.00 55148.00     0.00   120.15     0.60    0.66    0.66    0.00   0.53  48.80
sdb              57.00     0.00 1039.00    0.00 53548.00     0.00   103.08     0.48    0.46    0.46    0.00   0.36  37.80
sdd              59.00     0.00  970.00    0.00 53936.00     0.00   111.21     0.58    0.60    0.60    0.00   0.46  44.30
md0               0.00     0.00 3100.00    0.00 221864.00     0.00   143.14     0.00    0.00    0.00    0.00   0.00   0.00

avg-cpu:  %user   %nice %system %iowait  %steal   %idle
           3.07    0.00    0.28    0.91    0.00   95.74

Device:         rrqm/s   wrqm/s     r/s     w/s    rkB/s    wkB/s avgrq-sz avgqu-sz   await r_await w_await  svctm  %util
nvme0n1           0.00     0.00    0.00    0.00     0.00     0.00     0.00     0.00    0.00    0.00    0.00   0.00   0.00
sda               0.00     0.00    0.00    0.00     0.00     0.00     0.00     0.00    0.00    0.00    0.00   0.00   0.00
sdc              69.00     0.00  832.00    0.00 57168.00     0.00   137.42     0.64    0.77    0.77    0.00   0.51  42.60
sdb              75.00     0.00  863.00    0.00 56072.00     0.00   129.95     0.74    0.86    0.86    0.00   0.53  46.10
sdd              74.00     0.00  826.00    0.00 58208.00     0.00   140.94     0.96    1.17    1.17    0.00   0.73  60.70
md0               0.00     0.00 2738.00    0.00 239280.00     0.00   174.78     0.00    0.00    0.00    0.00   0.00   0.00

avg-cpu:  %user   %nice %system %iowait  %steal   %idle
           3.04    0.00    0.28    0.88    0.00   95.80

Device:         rrqm/s   wrqm/s     r/s     w/s    rkB/s    wkB/s avgrq-sz avgqu-sz   await r_await w_await  svctm  %util
nvme0n1           0.00     0.00    0.00    0.00     0.00     0.00     0.00     0.00    0.00    0.00    0.00   0.00   0.00
sda               0.00     0.00    0.00    0.00     0.00     0.00     0.00     0.00    0.00    0.00    0.00   0.00   0.00
sdc              77.00     0.00  837.00    0.00 58632.00     0.00   140.10     0.65    0.77    0.77    0.00   0.58  48.90
sdb              70.00     0.00  805.00    0.00 59584.00     0.00   148.03     0.52    0.64    0.64    0.00   0.50  40.00
sdd              61.00     0.00  909.00    0.00 58144.00     0.00   127.93     0.80    0.88    0.88    0.00   0.58  52.90
md0               0.00     0.00 2759.00    0.00 252012.00     0.00   182.68     0.00    0.00    0.00    0.00   0.00   0.00

avg-cpu:  %user   %nice %system %iowait  %steal   %idle
           2.91    0.00    0.44    1.35    0.00   95.31

Device:         rrqm/s   wrqm/s     r/s     w/s    rkB/s    wkB/s avgrq-sz avgqu-sz   await r_await w_await  svctm  %util
nvme0n1           0.00     0.00    0.00    0.00     0.00     0.00     0.00     0.00    0.00    0.00    0.00   0.00   0.00
sda               0.00     0.00    0.00    0.00     0.00     0.00     0.00     0.00    0.00    0.00    0.00   0.00   0.00
sdc               3.00     0.00  411.00    0.00  7672.00     0.00    37.33     4.45   10.81   10.81    0.00   1.42  58.20
sdb               0.00     0.00  366.00    0.00  6892.00     0.00    37.66     3.47    9.49    9.49    0.00   1.40  51.20
sdd               1.00     0.00  445.00    0.00  8460.00     0.00    38.02     4.17    9.36    9.36    0.00   1.16  51.80
md0               0.00     0.00 1226.00    0.00 24036.00     0.00    39.21     0.00    0.00    0.00    0.00   0.00   0.00

avg-cpu:  %user   %nice %system %iowait  %steal   %idle
           3.00    0.00    0.28    1.47    0.00   95.25

Device:         rrqm/s   wrqm/s     r/s     w/s    rkB/s    wkB/s avgrq-sz avgqu-sz   await r_await w_await  svctm  %util
nvme0n1           0.00     0.00    0.00    0.00     0.00     0.00     0.00     0.00    0.00    0.00    0.00   0.00   0.00
sda               0.00     9.00    0.00    3.00     0.00    64.00    42.67     0.00    0.33    0.00    0.33   0.33   0.10
sdc               1.00     0.00  602.00    0.00 16488.00     0.00    54.78     5.58    9.23    9.23    0.00   1.03  62.10
sdb               8.00     0.00  616.00    0.00 16668.00     0.00    54.12     3.58    5.81    5.81    0.00   0.73  44.80
sdd               4.00     0.00  571.00    0.00 14992.00     0.00    52.51     4.98    8.70    8.70    0.00   1.01  57.90
md0               0.00     0.00 1843.00    0.00 53372.00     0.00    57.92     0.00    0.00    0.00    0.00   0.00   0.00

avg-cpu:  %user   %nice %system %iowait  %steal   %idle
           3.00    0.00    0.31    1.35    0.00   95.34

Device:         rrqm/s   wrqm/s     r/s     w/s    rkB/s    wkB/s avgrq-sz avgqu-sz   await r_await w_await  svctm  %util
nvme0n1           0.00     0.00    0.00    0.00     0.00     0.00     0.00     0.00    0.00    0.00    0.00   0.00   0.00
sda               0.00     0.00    0.00    0.00     0.00     0.00     0.00     0.00    0.00    0.00    0.00   0.00   0.00
sdc               5.00     0.00  562.00    0.00 17412.00     0.00    61.96     3.40    6.08    6.08    0.00   0.99  55.50
sdb               4.00     0.00  602.00    0.00 18220.00     0.00    60.53     4.31    7.14    7.14    0.00   0.90  54.00
sdd               3.00     0.00  600.00    0.00 17956.00     0.00    59.85     3.52    5.88    5.88    0.00   0.91  54.50
md0               0.00     0.00 1741.00    0.00 55768.00     0.00    64.06     0.00    0.00    0.00    0.00   0.00   0.00

avg-cpu:  %user   %nice %system %iowait  %steal   %idle
           3.07    0.00    0.22    1.13    0.00   95.59

Device:         rrqm/s   wrqm/s     r/s     w/s    rkB/s    wkB/s avgrq-sz avgqu-sz   await r_await w_await  svctm  %util
nvme0n1           0.00     0.00    0.00    0.00     0.00     0.00     0.00     0.00    0.00    0.00    0.00   0.00   0.00
sda               0.00     0.00    0.00    0.00     0.00     0.00     0.00     0.00    0.00    0.00    0.00   0.00   0.00
sdc               0.00     0.00  592.00    0.00 18068.00     0.00    61.04     5.70    9.64    9.64    0.00   1.15  68.10
sdb               1.00     0.00  575.00    0.00 16184.00     0.00    56.29     3.63    6.33    6.33    0.00   0.79  45.20
sdd               4.00     0.00  575.00    0.00 17676.00     0.00    61.48     3.49    6.01    6.01    0.00   0.90  51.60
md0               0.00     0.00 1742.00    0.00 55468.00     0.00    63.68     0.00    0.00    0.00    0.00   0.00   0.00

avg-cpu:  %user   %nice %system %iowait  %steal   %idle
           3.04    0.00    0.25    1.38    0.00   95.34

Device:         rrqm/s   wrqm/s     r/s     w/s    rkB/s    wkB/s avgrq-sz avgqu-sz   await r_await w_await  svctm  %util
nvme0n1           0.00     0.00    0.00    0.00     0.00     0.00     0.00     0.00    0.00    0.00    0.00   0.00   0.00
sda               0.00     0.00    0.00    0.00     0.00     0.00     0.00     0.00    0.00    0.00    0.00   0.00   0.00
sdc               7.00     0.00  661.00    0.00 21568.00     0.00    65.26     4.40    6.40    6.40    0.00   0.77  51.00
sdb               3.00     0.00  721.00    0.00 23104.00     0.00    64.09     4.56    6.32    6.32    0.00   0.72  51.90
sdd               5.00     0.00  634.00    0.00 20908.00     0.00    65.96     6.93   11.01   11.01    0.00   1.28  81.10
md0               0.00     0.00 2037.00    0.00 70496.00     0.00    69.22     0.00    0.00    0.00    0.00   0.00   0.00

avg-cpu:  %user   %nice %system %iowait  %steal   %idle
           3.04    0.00    0.25    2.28    0.00   94.43

Device:         rrqm/s   wrqm/s     r/s     w/s    rkB/s    wkB/s avgrq-sz avgqu-sz   await r_await w_await  svctm  %util
nvme0n1           0.00     0.00    0.00    0.00     0.00     0.00     0.00     0.00    0.00    0.00    0.00   0.00   0.00
sda               0.00     0.00    0.00    0.00     0.00     0.00     0.00     0.00    0.00    0.00    0.00   0.00   0.00
sdc               3.00     0.00  578.00    0.00 17708.00     0.00    61.27     4.10    7.39    7.39    0.00   1.02  59.10
sdb               4.00     0.00  675.00    0.00 20704.00     0.00    61.35     3.78    5.60    5.60    0.00   0.72  48.70
sdd               2.00     0.00  645.00    0.00 16932.00     0.00    52.50     3.74    5.77    5.77    0.00   0.82  52.70
md0               0.00     0.00 1900.00    0.00 58736.00     0.00    61.83     0.00    0.00    0.00    0.00   0.00   0.00

avg-cpu:  %user   %nice %system %iowait  %steal   %idle
           3.03    0.00    0.31    2.50    0.00   94.15

Device:         rrqm/s   wrqm/s     r/s     w/s    rkB/s    wkB/s avgrq-sz avgqu-sz   await r_await w_await  svctm  %util
nvme0n1           0.00     0.00    0.00    0.00     0.00     0.00     0.00     0.00    0.00    0.00    0.00   0.00   0.00
sda               0.00     3.00    0.00    2.00     0.00    20.00    20.00     0.00    0.50    0.00    0.50   0.50   0.10
sdc               3.00     0.00  647.00    0.00 17536.00     0.00    54.21     3.38    5.23    5.23    0.00   0.78  50.20
sdb               2.00     0.00  546.00    0.00 15016.00     0.00    55.00     3.82    6.99    6.99    0.00   0.92  50.50
sdd               2.00     0.00  646.00    0.00 17548.00     0.00    54.33     5.20    8.07    8.07    0.00   0.97  62.60
md0               0.00     0.00 1846.00    0.00 52600.00     0.00    56.99     0.00    0.00    0.00    0.00   0.00   0.00

avg-cpu:  %user   %nice %system %iowait  %steal   %idle
           2.88    0.00    0.53    2.13    0.00   94.46

Device:         rrqm/s   wrqm/s     r/s     w/s    rkB/s    wkB/s avgrq-sz avgqu-sz   await r_await w_await  svctm  %util
nvme0n1           0.00     0.00    0.00    0.00     0.00     0.00     0.00     0.00    0.00    0.00    0.00   0.00   0.00
sda               0.00     0.00    0.00    0.00     0.00     0.00     0.00     0.00    0.00    0.00    0.00   0.00   0.00
sdc               1.00     0.00  330.00    0.00  6648.00     0.00    40.29     2.86    8.67    8.67    0.00   1.61  53.10
sdb               0.00     0.00  362.00    0.00  7264.00     0.00    40.13     2.38    6.57    6.57    0.00   1.04  37.80
sdd               0.00     0.00  410.00    0.00  8388.00     0.00    40.92     3.40    8.29    8.29    0.00   1.06  43.50
md0               0.00     0.00 1103.00    0.00 23276.00     0.00    42.20     0.00    0.00    0.00    0.00   0.00   0.00

avg-cpu:  %user   %nice %system %iowait  %steal   %idle
           2.85    0.00    0.53    2.22    0.00   94.40

Device:         rrqm/s   wrqm/s     r/s     w/s    rkB/s    wkB/s avgrq-sz avgqu-sz   await r_await w_await  svctm  %util
nvme0n1           0.00     0.00    0.00    0.00     0.00     0.00     0.00     0.00    0.00    0.00    0.00   0.00   0.00
sda               0.00     0.00    0.00    0.00     0.00     0.00     0.00     0.00    0.00    0.00    0.00   0.00   0.00
sdc               2.00     0.00  348.00    0.00  6428.00     0.00    36.94     3.02    8.66    8.66    0.00   1.40  48.70
sdb               1.00     0.00  390.00    0.00  7180.00     0.00    36.82     3.63    9.32    9.32    0.00   1.37  53.50
sdd               2.00     0.00  397.00    0.00  7352.00     0.00    37.04     3.18    8.00    8.00    0.00   1.16  46.20
md0               0.00     0.00 1140.00    0.00 21656.00     0.00    37.99     0.00    0.00    0.00    0.00   0.00   0.00

avg-cpu:  %user   %nice %system %iowait  %steal   %idle
           2.88    0.00    0.53    2.10    0.00   94.49

Device:         rrqm/s   wrqm/s     r/s     w/s    rkB/s    wkB/s avgrq-sz avgqu-sz   await r_await w_await  svctm  %util
nvme0n1           0.00     0.00    0.00    0.00     0.00     0.00     0.00     0.00    0.00    0.00    0.00   0.00   0.00
sda               0.00     0.00    0.00    0.00     0.00     0.00     0.00     0.00    0.00    0.00    0.00   0.00   0.00
sdc               2.00     0.00  393.00    0.00  7936.00     0.00    40.39     4.09   10.27   10.27    0.00   1.24  48.80
sdb               0.00     0.00  412.00    0.00  8044.00     0.00    39.05     4.54   11.02   11.02    0.00   1.36  56.20
sdd               0.00     0.00  434.00    0.00  8192.00     0.00    37.75     5.39   12.35   12.35    0.00   1.13  49.00
md0               0.00     0.00 1248.00    0.00 25144.00     0.00    40.29     0.00    0.00    0.00    0.00   0.00   0.00

avg-cpu:  %user   %nice %system %iowait  %steal   %idle
           2.66    0.00    0.97    1.78    0.00   94.58

Device:         rrqm/s   wrqm/s     r/s     w/s    rkB/s    wkB/s avgrq-sz avgqu-sz   await r_await w_await  svctm  %util
nvme0n1           0.00     0.00    0.00    0.00     0.00     0.00     0.00     0.00    0.00    0.00    0.00   0.00   0.00
sda               0.00     1.00    0.00    1.00     0.00    12.00    24.00     0.00    0.00    0.00    0.00   0.00   0.00
sdc               1.00     0.00  299.00    0.00  5244.00     0.00    35.08     2.97   10.13   10.13    0.00   1.43  42.90
sdb               1.00     0.00  321.00    0.00  5576.00     0.00    34.74     2.86    8.92    8.92    0.00   1.39  44.70
sdd               0.00     0.00  286.00    0.00  4320.00     0.00    30.21     2.82   10.00   10.00    0.00   1.49  42.70
md0               0.00     0.00  900.00    0.00 15376.00     0.00    34.17     0.00    0.00    0.00    0.00   0.00   0.00

