Linux 4.17.2 (bench2) 	08/04/2018 	_x86_64_	(32 CPU)

avg-cpu:  %user   %nice %system %iowait  %steal   %idle
           1.89    0.00    1.54    1.62    0.00   94.95

Device:         rrqm/s   wrqm/s     r/s     w/s    rkB/s    wkB/s avgrq-sz avgqu-sz   await r_await w_await  svctm  %util
nvme0n1         927.38     5.04 18695.55  514.75 104575.11 11609.07    12.10     1.33    0.05    0.03    0.67   0.02  39.14
sda               0.12     0.82   14.18    0.58   164.08     8.56    23.39     0.00    0.33    0.32    0.44   0.07   0.10
sdc              34.98     0.17  125.65    0.31  1874.20    96.61    31.29     0.14    1.11    0.18  381.84   0.90  11.29
sdb              32.96     0.18  127.63    0.33  1872.28    96.44    30.77     0.57    4.43    3.38  413.03   0.84  10.74
sdd              35.18     0.17  125.20    0.26  1870.27    96.12    31.35     0.88    7.02    5.16  909.23   0.90  11.31
md0               0.00     0.00  484.41    1.20  6961.15   348.53    30.11     0.00    0.00    0.00    0.00   0.00   0.00

avg-cpu:  %user   %nice %system %iowait  %steal   %idle
           3.09    0.00    0.03    3.09    0.00   93.78

Device:         rrqm/s   wrqm/s     r/s     w/s    rkB/s    wkB/s avgrq-sz avgqu-sz   await r_await w_await  svctm  %util
nvme0n1           0.00     0.00    0.00    0.00     0.00     0.00     0.00     0.00    0.00    0.00    0.00   0.00   0.00
sda               0.00     0.00   23.00    0.00   128.00     0.00    11.13     0.01    0.57    0.57    0.00   0.09   0.20
sdc               0.00     0.00   58.00    0.00   256.00     0.00     8.83     0.33    5.64    5.64    0.00   5.64  32.70
sdb               0.00     0.00   48.00    0.00   192.00     0.00     8.00     0.31    6.48    6.48    0.00   6.52  31.30
sdd               0.00     0.00   54.00    0.00   216.00     0.00     8.00     0.35    6.44    6.44    0.00   6.44  34.80
md0               0.00     0.00  161.00    0.00   668.00     0.00     8.30     0.00    0.00    0.00    0.00   0.00   0.00

avg-cpu:  %user   %nice %system %iowait  %steal   %idle
           3.10    0.00    0.03    3.10    0.00   93.78

Device:         rrqm/s   wrqm/s     r/s     w/s    rkB/s    wkB/s avgrq-sz avgqu-sz   await r_await w_await  svctm  %util
nvme0n1           0.00     0.00    0.00    0.00     0.00     0.00     0.00     0.00    0.00    0.00    0.00   0.00   0.00
sda               0.00     0.00    0.00    0.00     0.00     0.00     0.00     0.00    0.00    0.00    0.00   0.00   0.00
sdc               0.00     0.00   51.00    0.00   204.00     0.00     8.00     0.32    6.18    6.18    0.00   6.18  31.50
sdb               0.00     0.00   51.00    0.00   204.00     0.00     8.00     0.33    6.41    6.41    0.00   6.51  33.20
sdd               0.00     0.00   53.00    0.00   212.00     0.00     8.00     0.35    6.58    6.58    0.00   6.58  34.90
md0               0.00     0.00  155.00    0.00   620.00     0.00     8.00     0.00    0.00    0.00    0.00   0.00   0.00

avg-cpu:  %user   %nice %system %iowait  %steal   %idle
           3.12    0.00    0.00    3.12    0.00   93.75

Device:         rrqm/s   wrqm/s     r/s     w/s    rkB/s    wkB/s avgrq-sz avgqu-sz   await r_await w_await  svctm  %util
nvme0n1           0.00     0.00    0.00    0.00     0.00     0.00     0.00     0.00    0.00    0.00    0.00   0.00   0.00
sda               0.00     0.00    0.00    0.00     0.00     0.00     0.00     0.00    0.00    0.00    0.00   0.00   0.00
sdc               0.00     0.00   44.00    0.00   176.00     0.00     8.00     0.29    6.41    6.41    0.00   6.50  28.60
sdb               0.00     0.00   47.00    0.00   188.00     0.00     8.00     0.30    6.51    6.51    0.00   6.36  29.90
sdd               0.00     0.00   62.00    0.00   248.00     0.00     8.00     0.42    6.69    6.69    0.00   6.69  41.50
md0               0.00     0.00  153.00    0.00   612.00     0.00     8.00     0.00    0.00    0.00    0.00   0.00   0.00

avg-cpu:  %user   %nice %system %iowait  %steal   %idle
           3.13    0.00    0.00    3.09    0.00   93.78

Device:         rrqm/s   wrqm/s     r/s     w/s    rkB/s    wkB/s avgrq-sz avgqu-sz   await r_await w_await  svctm  %util
nvme0n1           0.00     0.00    0.00    0.00     0.00     0.00     0.00     0.00    0.00    0.00    0.00   0.00   0.00
sda               0.00     0.00    0.00    0.00     0.00     0.00     0.00     0.00    0.00    0.00    0.00   0.00   0.00
sdc               0.00     0.00   46.00    0.00   184.00     0.00     8.00     0.31    6.80    6.80    0.00   6.72  30.90
sdb               0.00     0.00   58.00    0.00   232.00     0.00     8.00     0.38    6.43    6.43    0.00   6.55  38.00
sdd               0.00     0.00   51.00    0.00   204.00     0.00     8.00     0.31    6.06    6.06    0.00   6.06  30.90
md0               0.00     0.00  155.00    0.00   620.00     0.00     8.00     0.00    0.00    0.00    0.00   0.00   0.00

avg-cpu:  %user   %nice %system %iowait  %steal   %idle
           3.12    0.00    0.00    3.12    0.00   93.75

Device:         rrqm/s   wrqm/s     r/s     w/s    rkB/s    wkB/s avgrq-sz avgqu-sz   await r_await w_await  svctm  %util
nvme0n1           0.00     0.00    0.00    0.00     0.00     0.00     0.00     0.00    0.00    0.00    0.00   0.00   0.00
sda               0.00    10.00    0.00    2.00     0.00    48.00    48.00     0.00    0.00    0.00    0.00   0.00   0.00
sdc               0.00     0.00   50.00    0.00   200.00     0.00     8.00     0.32    6.42    6.42    0.00   6.42  32.10
sdb               0.00     0.00   51.00    0.00   204.00     0.00     8.00     0.34    6.80    6.80    0.00   6.67  34.00
sdd               0.00     0.00   52.00    0.00   208.00     0.00     8.00     0.34    6.29    6.29    0.00   6.46  33.60
md0               0.00     0.00  153.00    0.00   612.00     0.00     8.00     0.00    0.00    0.00    0.00   0.00   0.00

avg-cpu:  %user   %nice %system %iowait  %steal   %idle
           3.12    0.00    0.03    3.09    0.00   93.75

Device:         rrqm/s   wrqm/s     r/s     w/s    rkB/s    wkB/s avgrq-sz avgqu-sz   await r_await w_await  svctm  %util
nvme0n1           0.00     0.00    0.00    0.00     0.00     0.00     0.00     0.00    0.00    0.00    0.00   0.00   0.00
sda               0.00     0.00    0.00    0.00     0.00     0.00     0.00     0.00    0.00    0.00    0.00   0.00   0.00
sdc               0.00     0.00   50.00    0.00   200.00     0.00     8.00     0.31    6.18    6.18    0.00   6.18  30.90
sdb               0.00     0.00   52.00    0.00   208.00     0.00     8.00     0.31    6.02    6.02    0.00   6.02  31.30
sdd               0.00     0.00   61.00    0.00   244.00     0.00     8.00     0.37    6.18    6.18    0.00   6.13  37.40
md0               0.00     0.00  163.00    0.00   652.00     0.00     8.00     0.00    0.00    0.00    0.00   0.00   0.00

avg-cpu:  %user   %nice %system %iowait  %steal   %idle
           3.12    0.00    0.00    3.12    0.00   93.75

Device:         rrqm/s   wrqm/s     r/s     w/s    rkB/s    wkB/s avgrq-sz avgqu-sz   await r_await w_await  svctm  %util
nvme0n1           0.00     0.00    0.00    0.00     0.00     0.00     0.00     0.00    0.00    0.00    0.00   0.00   0.00
sda               0.00     0.00    0.00    0.00     0.00     0.00     0.00     0.00    0.00    0.00    0.00   0.00   0.00
sdc               0.00     0.00   48.00    0.00   192.00     0.00     8.00     0.29    5.92    5.92    0.00   6.04  29.00
sdb               0.00     0.00   52.00    0.00   208.00     0.00     8.00     0.34    6.52    6.52    0.00   6.52  33.90
sdd               0.00     0.00   52.00    0.00   208.00     0.00     8.00     0.37    7.19    7.19    0.00   7.08  36.80
md0               0.00     0.00  152.00    0.00   608.00     0.00     8.00     0.00    0.00    0.00    0.00   0.00   0.00

avg-cpu:  %user   %nice %system %iowait  %steal   %idle
           3.12    0.00    0.03    3.09    0.00   93.75

Device:         rrqm/s   wrqm/s     r/s     w/s    rkB/s    wkB/s avgrq-sz avgqu-sz   await r_await w_await  svctm  %util
nvme0n1           0.00     0.00    0.00    0.00     0.00     0.00     0.00     0.00    0.00    0.00    0.00   0.00   0.00
sda               0.00     0.00    0.00    0.00     0.00     0.00     0.00     0.00    0.00    0.00    0.00   0.00   0.00
sdc               0.00     0.00   57.00    0.00   228.00     0.00     8.00     0.35    6.23    6.23    0.00   6.19  35.30
sdb               0.00     0.00   60.00    0.00   240.00     0.00     8.00     0.38    6.37    6.37    0.00   6.37  38.20
sdd               0.00     0.00   44.00    0.00   176.00     0.00     8.00     0.26    6.00    6.00    0.00   6.00  26.40
md0               0.00     0.00  161.00    0.00   644.00     0.00     8.00     0.00    0.00    0.00    0.00   0.00   0.00

avg-cpu:  %user   %nice %system %iowait  %steal   %idle
           3.12    0.00    0.00    3.12    0.00   93.75

Device:         rrqm/s   wrqm/s     r/s     w/s    rkB/s    wkB/s avgrq-sz avgqu-sz   await r_await w_await  svctm  %util
nvme0n1           0.00     0.00    0.00    0.00     0.00     0.00     0.00     0.00    0.00    0.00    0.00   0.00   0.00
sda               0.00     0.00    0.00    0.00     0.00     0.00     0.00     0.00    0.00    0.00    0.00   0.00   0.00
sdc               0.00     0.00   58.00    0.00   232.00     0.00     8.00     0.37    6.38    6.38    0.00   6.33  36.70
sdb               0.00     0.00   61.00    0.00   244.00     0.00     8.00     0.39    6.39    6.39    0.00   6.39  39.00
sdd               0.00     0.00   40.00    0.00   160.00     0.00     8.00     0.24    6.00    6.00    0.00   6.00  24.00
md0               0.00     0.00  159.00    0.00   636.00     0.00     8.00     0.00    0.00    0.00    0.00   0.00   0.00

avg-cpu:  %user   %nice %system %iowait  %steal   %idle
           3.13    0.00    0.00    3.09    0.00   93.78

Device:         rrqm/s   wrqm/s     r/s     w/s    rkB/s    wkB/s avgrq-sz avgqu-sz   await r_await w_await  svctm  %util
nvme0n1           0.00     0.00    0.00    0.00     0.00     0.00     0.00     0.00    0.00    0.00    0.00   0.00   0.00
sda               0.00     1.00    0.00    2.00     0.00    12.00    12.00     0.00    0.00    0.00    0.00   0.00   0.00
sdc               0.00     0.00   49.00    0.00   196.00     0.00     8.00     0.30    6.14    6.14    0.00   6.20  30.40
sdb               0.00     0.00   48.00    0.00   192.00     0.00     8.00     0.30    6.19    6.19    0.00   6.19  29.70
sdd               0.00     0.00   61.00    0.00   244.00     0.00     8.00     0.40    6.51    6.51    0.00   6.51  39.70
md0               0.00     0.00  158.00    0.00   632.00     0.00     8.00     0.00    0.00    0.00    0.00   0.00   0.00

avg-cpu:  %user   %nice %system %iowait  %steal   %idle
           3.12    0.00    0.03    3.12    0.00   93.72

Device:         rrqm/s   wrqm/s     r/s     w/s    rkB/s    wkB/s avgrq-sz avgqu-sz   await r_await w_await  svctm  %util
nvme0n1           0.00     0.00    0.00    0.00     0.00     0.00     0.00     0.00    0.00    0.00    0.00   0.00   0.00
sda               0.00     2.00    0.00    4.00     0.00    44.00    22.00     0.00    0.00    0.00    0.00   0.00   0.00
sdc               0.00     0.00   46.00    0.00   184.00     0.00     8.00     0.30    6.61    6.61    0.00   6.52  30.00
sdb               0.00     0.00   49.00    0.00   196.00     0.00     8.00     0.32    6.33    6.33    0.00   6.45  31.60
sdd               0.00     0.00   59.00    0.00   236.00     0.00     8.00     0.38    6.47    6.47    0.00   6.47  38.20
md0               0.00     0.00  154.00    0.00   616.00     0.00     8.00     0.00    0.00    0.00    0.00   0.00   0.00

avg-cpu:  %user   %nice %system %iowait  %steal   %idle
           3.13    0.00    0.00    3.09    0.00   93.78

Device:         rrqm/s   wrqm/s     r/s     w/s    rkB/s    wkB/s avgrq-sz avgqu-sz   await r_await w_await  svctm  %util
nvme0n1           0.00     0.00    0.00    0.00     0.00     0.00     0.00     0.00    0.00    0.00    0.00   0.00   0.00
sda               0.00     0.00    0.00    0.00     0.00     0.00     0.00     0.00    0.00    0.00    0.00   0.00   0.00
sdc               0.00     0.00   49.00    0.00   196.00     0.00     8.00     0.29    5.88    5.88    0.00   5.88  28.80
sdb               0.00     0.00   53.00    0.00   212.00     0.00     8.00     0.31    6.02    6.02    0.00   5.91  31.30
sdd               0.00     0.00   61.00    0.00   244.00     0.00     8.00     0.40    6.44    6.44    0.00   6.49  39.60
md0               0.00     0.00  163.00    0.00   652.00     0.00     8.00     0.00    0.00    0.00    0.00   0.00   0.00

avg-cpu:  %user   %nice %system %iowait  %steal   %idle
           3.13    0.00    0.00    3.09    0.00   93.78

Device:         rrqm/s   wrqm/s     r/s     w/s    rkB/s    wkB/s avgrq-sz avgqu-sz   await r_await w_await  svctm  %util
nvme0n1           0.00     0.00    0.00    0.00     0.00     0.00     0.00     0.00    0.00    0.00    0.00   0.00   0.00
sda               0.00     0.00    0.00    0.00     0.00     0.00     0.00     0.00    0.00    0.00    0.00   0.00   0.00
sdc               0.00     0.00   41.00    0.00   164.00     0.00     8.00     0.28    6.71    6.71    0.00   6.71  27.50
sdb               0.00     0.00   49.00    0.00   196.00     0.00     8.00     0.33    6.78    6.78    0.00   6.82  33.40
sdd               0.00     0.00   64.00    0.00   256.00     0.00     8.00     0.39    6.12    6.12    0.00   6.08  38.90
md0               0.00     0.00  154.00    0.00   616.00     0.00     8.00     0.00    0.00    0.00    0.00   0.00   0.00

avg-cpu:  %user   %nice %system %iowait  %steal   %idle
           3.12    0.00    0.03    3.12    0.00   93.72

Device:         rrqm/s   wrqm/s     r/s     w/s    rkB/s    wkB/s avgrq-sz avgqu-sz   await r_await w_await  svctm  %util
nvme0n1           0.00     0.00    0.00    0.00     0.00     0.00     0.00     0.00    0.00    0.00    0.00   0.00   0.00
sda               0.00     0.00    0.00    0.00     0.00     0.00     0.00     0.00    0.00    0.00    0.00   0.00   0.00
sdc               0.00     0.00   49.00    0.00   196.00     0.00     8.00     0.31    6.41    6.41    0.00   6.41  31.40
sdb               0.00     0.00   47.00    0.00   188.00     0.00     8.00     0.28    6.00    6.00    0.00   5.96  28.00
sdd               0.00     0.00   59.00    0.00   236.00     0.00     8.00     0.40    6.81    6.81    0.00   6.81  40.20
md0               0.00     0.00  155.00    0.00   620.00     0.00     8.00     0.00    0.00    0.00    0.00   0.00   0.00

avg-cpu:  %user   %nice %system %iowait  %steal   %idle
           3.10    0.00    0.00    3.10    0.00   93.81

Device:         rrqm/s   wrqm/s     r/s     w/s    rkB/s    wkB/s avgrq-sz avgqu-sz   await r_await w_await  svctm  %util
nvme0n1           0.00     0.00    0.00    0.00     0.00     0.00     0.00     0.00    0.00    0.00    0.00   0.00   0.00
sda               0.00     3.00    0.00    2.00     0.00    20.00    20.00     0.00    0.50    0.00    0.50   0.50   0.10
sdc               0.00     0.00   45.00    0.00   180.00     0.00     8.00     0.28    6.22    6.22    0.00   6.22  28.00
sdb               0.00     0.00   54.00    0.00   216.00     0.00     8.00     0.33    6.17    6.17    0.00   6.17  33.30
sdd               0.00     0.00   61.00    0.00   244.00     0.00     8.00     0.38    6.18    6.18    0.00   6.28  38.30
md0               0.00     0.00  160.00    0.00   640.00     0.00     8.00     0.00    0.00    0.00    0.00   0.00   0.00

avg-cpu:  %user   %nice %system %iowait  %steal   %idle
           3.12    0.00    0.03    3.12    0.00   93.72

Device:         rrqm/s   wrqm/s     r/s     w/s    rkB/s    wkB/s avgrq-sz avgqu-sz   await r_await w_await  svctm  %util
nvme0n1           0.00     0.00    0.00    0.00     0.00     0.00     0.00     0.00    0.00    0.00    0.00   0.00   0.00
sda               0.00     0.00    0.00    0.00     0.00     0.00     0.00     0.00    0.00    0.00    0.00   0.00   0.00
sdc               0.00     0.00   59.00    0.00   236.00     0.00     8.00     0.40    6.64    6.64    0.00   6.73  39.70
sdb               0.00     0.00   49.00    0.00   196.00     0.00     8.00     0.28    5.73    5.73    0.00   5.73  28.10
sdd               0.00     0.00   49.00    0.00   196.00     0.00     8.00     0.32    6.67    6.67    0.00   6.55  32.10
md0               0.00     0.00  157.00    0.00   628.00     0.00     8.00     0.00    0.00    0.00    0.00   0.00   0.00

avg-cpu:  %user   %nice %system %iowait  %steal   %idle
           3.13    0.00    0.00    3.09    0.00   93.78

Device:         rrqm/s   wrqm/s     r/s     w/s    rkB/s    wkB/s avgrq-sz avgqu-sz   await r_await w_await  svctm  %util
nvme0n1           0.00     0.00    0.00    0.00     0.00     0.00     0.00     0.00    0.00    0.00    0.00   0.00   0.00
sda               0.00     0.00    0.00    0.00     0.00     0.00     0.00     0.00    0.00    0.00    0.00   0.00   0.00
sdc               0.00     0.00   47.00    0.00   188.00     0.00     8.00     0.30    6.60    6.60    0.00   6.49  30.50
sdb               0.00     0.00   58.00    0.00   232.00     0.00     8.00     0.34    5.90    5.90    0.00   5.90  34.20
sdd               0.00     0.00   55.00    0.00   220.00     0.00     8.00     0.35    6.36    6.36    0.00   6.36  35.00
md0               0.00     0.00  160.00    0.00   640.00     0.00     8.00     0.00    0.00    0.00    0.00   0.00   0.00

avg-cpu:  %user   %nice %system %iowait  %steal   %idle
           3.12    0.00    0.00    3.12    0.00   93.75

Device:         rrqm/s   wrqm/s     r/s     w/s    rkB/s    wkB/s avgrq-sz avgqu-sz   await r_await w_await  svctm  %util
nvme0n1           0.00     0.00    0.00    0.00     0.00     0.00     0.00     0.00    0.00    0.00    0.00   0.00   0.00
sda               0.00     0.00    0.00    0.00     0.00     0.00     0.00     0.00    0.00    0.00    0.00   0.00   0.00
sdc               0.00     0.00   58.00    0.00   232.00     0.00     8.00     0.38    6.52    6.52    0.00   6.52  37.80
sdb               0.00     0.00   50.00    0.00   200.00     0.00     8.00     0.28    5.50    5.50    0.00   5.50  27.50
sdd               0.00     0.00   50.00    0.00   200.00     0.00     8.00     0.34    6.72    6.72    0.00   6.90  34.50
md0               0.00     0.00  158.00    0.00   632.00     0.00     8.00     0.00    0.00    0.00    0.00   0.00   0.00

avg-cpu:  %user   %nice %system %iowait  %steal   %idle
           3.12    0.00    0.03    3.09    0.00   93.75

Device:         rrqm/s   wrqm/s     r/s     w/s    rkB/s    wkB/s avgrq-sz avgqu-sz   await r_await w_await  svctm  %util
nvme0n1           0.00     0.00    0.00    0.00     0.00     0.00     0.00     0.00    0.00    0.00    0.00   0.00   0.00
sda               0.00     0.00    0.00    0.00     0.00     0.00     0.00     0.00    0.00    0.00    0.00   0.00   0.00
sdc               0.00     0.00   49.00    0.00   196.00     0.00     8.00     0.30    5.98    5.98    0.00   6.08  29.80
sdb               0.00     0.00   53.00    0.00   212.00     0.00     8.00     0.33    6.15    6.15    0.00   6.15  32.60
sdd               0.00     0.00   58.00    0.00   232.00     0.00     8.00     0.37    6.55    6.55    0.00   6.40  37.10
md0               0.00     0.00  160.00    0.00   640.00     0.00     8.00     0.00    0.00    0.00    0.00   0.00   0.00

avg-cpu:  %user   %nice %system %iowait  %steal   %idle
           3.12    0.00    0.00    3.12    0.00   93.75

Device:         rrqm/s   wrqm/s     r/s     w/s    rkB/s    wkB/s avgrq-sz avgqu-sz   await r_await w_await  svctm  %util
nvme0n1           0.00     0.00    0.00    0.00     0.00     0.00     0.00     0.00    0.00    0.00    0.00   0.00   0.00
sda               0.00     1.00    0.00    2.00     0.00    12.00    12.00     0.00    0.00    0.00    0.00   0.00   0.00
sdc               0.00     0.00   51.00    0.00   204.00     0.00     8.00     0.33    6.57    6.57    0.00   6.47  33.00
sdb               0.00     0.00   48.00    0.00   192.00     0.00     8.00     0.29    6.00    6.00    0.00   6.10  29.30
sdd               0.00     0.00   60.00    0.00   240.00     0.00     8.00     0.38    6.25    6.25    0.00   6.25  37.50
md0               0.00     0.00  159.00    0.00   636.00     0.00     8.00     0.00    0.00    0.00    0.00   0.00   0.00

avg-cpu:  %user   %nice %system %iowait  %steal   %idle
           3.13    0.00    0.00    3.09    0.00   93.78

Device:         rrqm/s   wrqm/s     r/s     w/s    rkB/s    wkB/s avgrq-sz avgqu-sz   await r_await w_await  svctm  %util
nvme0n1           0.00     0.00    0.00    0.00     0.00     0.00     0.00     0.00    0.00    0.00    0.00   0.00   0.00
sda               0.00     0.00    0.00    0.00     0.00     0.00     0.00     0.00    0.00    0.00    0.00   0.00   0.00
sdc               0.00     0.00   47.00    0.00   188.00     0.00     8.00     0.30    6.38    6.38    0.00   6.38  30.00
sdb               0.00     0.00   59.00    0.00   236.00     0.00     8.00     0.36    6.24    6.24    0.00   6.15  36.30
sdd               0.00     0.00   52.00    0.00   208.00     0.00     8.00     0.34    6.44    6.44    0.00   6.46  33.60
md0               0.00     0.00  158.00    0.00   632.00     0.00     8.00     0.00    0.00    0.00    0.00   0.00   0.00

avg-cpu:  %user   %nice %system %iowait  %steal   %idle
           3.12    0.00    0.03    3.12    0.00   93.72

Device:         rrqm/s   wrqm/s     r/s     w/s    rkB/s    wkB/s avgrq-sz avgqu-sz   await r_await w_await  svctm  %util
nvme0n1           0.00     0.00    0.00    0.00     0.00     0.00     0.00     0.00    0.00    0.00    0.00   0.00   0.00
sda               0.00     0.00    0.00    0.00     0.00     0.00     0.00     0.00    0.00    0.00    0.00   0.00   0.00
sdc               0.00     0.00   41.00    0.00   164.00     0.00     8.00     0.28    6.63    6.63    0.00   6.71  27.50
sdb               0.00     0.00   48.00    0.00   192.00     0.00     8.00     0.33    6.94    6.94    0.00   6.94  33.30
sdd               0.00     0.00   60.00    0.00   240.00     0.00     8.00     0.39    6.52    6.52    0.00   6.50  39.00
md0               0.00     0.00  149.00    0.00   596.00     0.00     8.00     0.00    0.00    0.00    0.00   0.00   0.00

avg-cpu:  %user   %nice %system %iowait  %steal   %idle
           3.13    0.00    0.00    3.10    0.00   93.78

Device:         rrqm/s   wrqm/s     r/s     w/s    rkB/s    wkB/s avgrq-sz avgqu-sz   await r_await w_await  svctm  %util
nvme0n1           0.00     0.00    0.00    0.00     0.00     0.00     0.00     0.00    0.00    0.00    0.00   0.00   0.00
sda               0.00     0.00    0.00    0.00     0.00     0.00     0.00     0.00    0.00    0.00    0.00   0.00   0.00
sdc               0.00     0.00   52.00    0.00   208.00     0.00     8.00     0.32    6.21    6.21    0.00   6.15  32.00
sdb               0.00     0.00   53.00    0.00   212.00     0.00     8.00     0.37    7.06    7.06    0.00   7.06  37.40
sdd               0.00     0.00   52.00    0.00   208.00     0.00     8.00     0.30    5.85    5.85    0.00   5.85  30.40
md0               0.00     0.00  157.00    0.00   628.00     0.00     8.00     0.00    0.00    0.00    0.00   0.00   0.00

avg-cpu:  %user   %nice %system %iowait  %steal   %idle
           3.12    0.00    0.00    3.12    0.00   93.75

Device:         rrqm/s   wrqm/s     r/s     w/s    rkB/s    wkB/s avgrq-sz avgqu-sz   await r_await w_await  svctm  %util
nvme0n1           0.00     0.00    0.00    0.00     0.00     0.00     0.00     0.00    0.00    0.00    0.00   0.00   0.00
sda               0.00     0.00    0.00    0.00     0.00     0.00     0.00     0.00    0.00    0.00    0.00   0.00   0.00
sdc               0.00     0.00   56.00    0.00   224.00     0.00     8.00     0.34    6.09    6.09    0.00   6.09  34.10
sdb               0.00     0.00   53.00    0.00   212.00     0.00     8.00     0.34    6.49    6.49    0.00   6.51  34.50
sdd               0.00     0.00   54.00    0.00   216.00     0.00     8.00     0.31    5.78    5.78    0.00   5.78  31.20
md0               0.00     0.00  163.00    0.00   652.00     0.00     8.00     0.00    0.00    0.00    0.00   0.00   0.00

avg-cpu:  %user   %nice %system %iowait  %steal   %idle
           3.13    0.00    0.00    3.09    0.00   93.78

Device:         rrqm/s   wrqm/s     r/s     w/s    rkB/s    wkB/s avgrq-sz avgqu-sz   await r_await w_await  svctm  %util
nvme0n1           0.00     0.00    0.00    0.00     0.00     0.00     0.00     0.00    0.00    0.00    0.00   0.00   0.00
sda               0.00     1.00    0.00    2.00     0.00    12.00    12.00     0.00    0.00    0.00    0.00   0.00   0.00
sdc               0.00     0.00   50.00    0.00   200.00     0.00     8.00     0.31    6.08    6.08    0.00   6.16  30.80
sdb               0.00     0.00   52.00    0.00   208.00     0.00     8.00     0.32    6.15    6.15    0.00   6.13  31.90
sdd               0.00     0.00   58.00    0.00   232.00     0.00     8.00     0.37    6.34    6.34    0.00   6.34  36.80
md0               0.00     0.00  160.00    0.00   640.00     0.00     8.00     0.00    0.00    0.00    0.00   0.00   0.00

avg-cpu:  %user   %nice %system %iowait  %steal   %idle
           3.12    0.00    0.03    3.12    0.00   93.72

Device:         rrqm/s   wrqm/s     r/s     w/s    rkB/s    wkB/s avgrq-sz avgqu-sz   await r_await w_await  svctm  %util
nvme0n1           0.00     0.00    0.00    0.00     0.00     0.00     0.00     0.00    0.00    0.00    0.00   0.00   0.00
sda               0.00     1.00    0.00   12.00     0.00    76.00    12.67     0.00    0.00    0.00    0.00   0.00   0.00
sdc               0.00     0.00   56.00    0.00   224.00     0.00     8.00     0.33    5.89    5.89    0.00   5.82  32.60
sdb               0.00     0.00   56.00    0.00   224.00     0.00     8.00     0.34    6.14    6.14    0.00   6.14  34.40
sdd               0.00     0.00   48.00    0.00   192.00     0.00     8.00     0.33    6.71    6.71    0.00   6.81  32.70
md0               0.00     0.00  160.00    0.00   640.00     0.00     8.00     0.00    0.00    0.00    0.00   0.00   0.00

