Linux 4.17.2 (bench2) 	08/04/2018 	_x86_64_	(32 CPU)

avg-cpu:  %user   %nice %system %iowait  %steal   %idle
           1.90    0.00    1.54    1.61    0.00   94.95

Device:         rrqm/s   wrqm/s     r/s     w/s    rkB/s    wkB/s avgrq-sz avgqu-sz   await r_await w_await  svctm  %util
nvme0n1         929.63     5.05 18740.89  515.99 104828.75 11637.22    12.10     1.33    0.05    0.03    0.67   0.02  39.23
sda               0.12     0.82   14.17    0.58   164.04     8.56    23.39     0.00    0.33    0.32    0.44   0.07   0.10
sdc              34.65     0.17  123.98    0.31  1858.90    96.85    31.47     0.12    0.93   12.25  381.84   0.90  11.19
sdb              32.63     0.19  125.96    0.33  1856.95    96.67    30.94     0.54    4.31    3.24  413.03   0.84  10.64
sdd              34.85     0.17  123.52    0.26  1854.96    96.35    31.53     0.86    6.93    5.04  909.23   0.91  11.20
md0               0.00     0.00  478.41    1.20  6907.55   349.38    30.26     0.00    0.00    0.00    0.00   0.00   0.00

avg-cpu:  %user   %nice %system %iowait  %steal   %idle
           3.07    0.00    0.22    0.25    0.00   96.46

Device:         rrqm/s   wrqm/s     r/s     w/s    rkB/s    wkB/s avgrq-sz avgqu-sz   await r_await w_await  svctm  %util
nvme0n1           0.00     0.00    0.00    0.00     0.00     0.00     0.00     0.00    0.00    0.00    0.00   0.00   0.00
sda               0.00     0.00   19.00    0.00    80.00     0.00     8.42     0.00    0.05    0.05    0.00   0.05   0.10
sdc              17.00     0.00 1467.00    0.00 23732.00     0.00    32.35     0.33    0.22    0.22    0.00   0.20  29.10
sdb              19.00     0.00 1546.00    0.00 22052.00     0.00    28.53     0.31    0.20    0.20    0.00   0.18  27.10
sdd              21.00     0.00 1447.00    0.00 23916.00     0.00    33.06     0.62    0.43    0.43    0.00   0.36  51.70
md0               0.00     0.00 4517.00    0.00 89424.00     0.00    39.59     0.00    0.00    0.00    0.00   0.00   0.00

avg-cpu:  %user   %nice %system %iowait  %steal   %idle
           3.07    0.00    0.22    0.22    0.00   96.50

Device:         rrqm/s   wrqm/s     r/s     w/s    rkB/s    wkB/s avgrq-sz avgqu-sz   await r_await w_await  svctm  %util
nvme0n1           0.00     0.00    0.00    0.00     0.00     0.00     0.00     0.00    0.00    0.00    0.00   0.00   0.00
sda               0.00     9.00    0.00    2.00     0.00    44.00    44.00     0.00    0.50    0.00    0.50   0.50   0.10
sdc               9.00     0.00 1631.00    0.00 20548.00     0.00    25.20     0.32    0.20    0.20    0.00   0.18  30.10
sdb               8.00     0.00 1675.00    0.00 20320.00     0.00    24.26     0.34    0.20    0.20    0.00   0.15  25.90
sdd               9.00     0.00 1589.00    0.00 20752.00     0.00    26.12     0.50    0.32    0.32    0.00   0.29  46.60
md0               0.00     0.00 4921.00    0.00 73568.00     0.00    29.90     0.00    0.00    0.00    0.00   0.00   0.00

