Linux 4.17.2 (bench2) 	08/04/2018 	_x86_64_	(32 CPU)

avg-cpu:  %user   %nice %system %iowait  %steal   %idle
           1.89    0.00    1.54    1.62    0.00   94.94

Device:         rrqm/s   wrqm/s     r/s     w/s    rkB/s    wkB/s avgrq-sz avgqu-sz   await r_await w_await  svctm  %util
nvme0n1         925.80     5.03 18663.77  513.87 104397.33 11589.33    12.10     1.33    0.05    0.03    0.67   0.02  39.07
sda               0.12     0.82   14.19    0.58   164.09     8.57    23.38     0.00    0.33    0.32    0.44   0.07   0.10
sdc              34.98     0.17  126.59    0.31  1884.37    96.45    31.22     0.15    1.15    0.22  381.84   0.89  11.35
sdb              32.97     0.18  128.56    0.33  1882.46    96.28    30.70     0.57    4.43    3.39  413.03   0.84  10.80
sdd              35.18     0.16  126.14    0.26  1880.47    95.95    31.27     0.89    7.00    5.16  909.23   0.90  11.37
md0               0.00     0.00  487.23    1.20  6997.96   347.94    30.08     0.00    0.00    0.00    0.00   0.00   0.00

avg-cpu:  %user   %nice %system %iowait  %steal   %idle
           3.09    0.00    0.25    2.88    0.00   93.78

Device:         rrqm/s   wrqm/s     r/s     w/s    rkB/s    wkB/s avgrq-sz avgqu-sz   await r_await w_await  svctm  %util
nvme0n1           0.00     0.00    0.00    0.00     0.00     0.00     0.00     0.00    0.00    0.00    0.00   0.00   0.00
sda               0.00     0.00    4.00   12.00   104.00    48.00    19.00     0.00    0.00    0.00    0.00   0.00   0.00
sdc               2.00     0.00 1406.00    0.00 20308.00     0.00    28.89     1.12    0.80    0.80    0.00   0.20  27.80
sdb               4.00     0.00 1453.00    0.00 20248.00     0.00    27.87     1.21    0.83    0.83    0.00   0.18  25.60
sdd               2.00     0.00 1415.00    0.00 19756.00     0.00    27.92     2.88    2.04    2.04    0.00   0.44  61.60
md0               0.00     0.00 4283.00    0.00 64128.00     0.00    29.95     0.00    0.00    0.00    0.00   0.00   0.00

avg-cpu:  %user   %nice %system %iowait  %steal   %idle
           3.06    0.00    0.28    2.88    0.00   93.78

Device:         rrqm/s   wrqm/s     r/s     w/s    rkB/s    wkB/s avgrq-sz avgqu-sz   await r_await w_await  svctm  %util
nvme0n1           0.00     0.00    0.00    0.00     0.00     0.00     0.00     0.00    0.00    0.00    0.00   0.00   0.00
sda               0.00     0.00    0.00    0.00     0.00     0.00     0.00     0.00    0.00    0.00    0.00   0.00   0.00
sdc               4.00     0.00 1555.00    0.00 26220.00     0.00    33.72     3.14    2.02    2.02    0.00   0.35  54.70
sdb               4.00     0.00 1439.00    0.00 22636.00     0.00    31.46     1.72    1.20    1.20    0.00   0.19  27.50
sdd               1.00     0.00 1530.00    0.00 24188.00     0.00    31.62     2.43    1.59    1.59    0.00   0.25  38.10
md0               0.00     0.00 4533.00    0.00 77256.00     0.00    34.09     0.00    0.00    0.00    0.00   0.00   0.00

avg-cpu:  %user   %nice %system %iowait  %steal   %idle
           3.06    0.00    0.34    2.84    0.00   93.75

Device:         rrqm/s   wrqm/s     r/s     w/s    rkB/s    wkB/s avgrq-sz avgqu-sz   await r_await w_await  svctm  %util
nvme0n1           0.00     0.00    0.00    0.00     0.00     0.00     0.00     0.00    0.00    0.00    0.00   0.00   0.00
sda               0.00     0.00    0.00    0.00     0.00     0.00     0.00     0.00    0.00    0.00    0.00   0.00   0.00
sdc              18.00     0.00 1562.00    0.00 22592.00     0.00    28.93     0.31    0.20    0.20    0.00   0.16  25.20
sdb              20.00     0.00 1450.00    0.00 23440.00     0.00    32.33     0.31    0.21    0.21    0.00   0.18  26.20
sdd              20.00     0.00 1482.00    0.00 23336.00     0.00    31.49     0.64    0.43    0.43    0.00   0.37  54.90
md0               0.00     0.00 4552.00    0.00 83576.00     0.00    36.72     0.00    0.00    0.00    0.00   0.00   0.00

avg-cpu:  %user   %nice %system %iowait  %steal   %idle
           3.06    0.00    0.31    2.84    0.00   93.78

Device:         rrqm/s   wrqm/s     r/s     w/s    rkB/s    wkB/s avgrq-sz avgqu-sz   await r_await w_await  svctm  %util
nvme0n1           0.00     0.00    0.00    0.00     0.00     0.00     0.00     0.00    0.00    0.00    0.00   0.00   0.00
sda               0.00    13.00    0.00    2.00     0.00    60.00    60.00     0.00    0.50    0.00    0.50   0.50   0.10
sdc              10.00     0.00 1719.00    0.00 21216.00     0.00    24.68     0.38    0.22    0.22    0.00   0.21  36.10
sdb              15.00     0.00 1646.00    0.00 20800.00     0.00    25.27     0.27    0.16    0.16    0.00   0.16  25.90
sdd              11.00     0.00 1587.00    0.00 21872.00     0.00    27.56     0.42    0.27    0.27    0.00   0.26  40.80
md0               0.00     0.00 4988.00    0.00 78368.00     0.00    31.42     0.00    0.00    0.00    0.00   0.00   0.00

avg-cpu:  %user   %nice %system %iowait  %steal   %idle
           3.07    0.00    0.25    2.85    0.00   93.84

Device:         rrqm/s   wrqm/s     r/s     w/s    rkB/s    wkB/s avgrq-sz avgqu-sz   await r_await w_await  svctm  %util
nvme0n1           0.00     0.00    0.00    0.00     0.00     0.00     0.00     0.00    0.00    0.00    0.00   0.00   0.00
sda               0.00     0.00    0.00    0.00     0.00     0.00     0.00     0.00    0.00    0.00    0.00   0.00   0.00
sdc              17.00     0.00 1582.00    0.00 23872.00     0.00    30.18     0.32    0.20    0.20    0.00   0.18  28.10
sdb              19.00     0.00 1535.00    0.00 22660.00     0.00    29.52     0.34    0.22    0.22    0.00   0.20  30.40
sdd              19.00     0.00 1676.00    0.00 25280.00     0.00    30.17     0.56    0.34    0.34    0.00   0.29  48.50
md0               0.00     0.00 4848.00    0.00 88812.00     0.00    36.64     0.00    0.00    0.00    0.00   0.00   0.00

avg-cpu:  %user   %nice %system %iowait  %steal   %idle
           3.06    0.00    0.28    2.88    0.00   93.78

Device:         rrqm/s   wrqm/s     r/s     w/s    rkB/s    wkB/s avgrq-sz avgqu-sz   await r_await w_await  svctm  %util
nvme0n1           0.00     0.00    0.00    0.00     0.00     0.00     0.00     0.00    0.00    0.00    0.00   0.00   0.00
sda               0.00     0.00    0.00    3.00     0.00    40.00    26.67     0.00    0.00    0.00    0.00   0.00   0.00
sdc              15.00     0.00 1656.00    0.00 20808.00     0.00    25.13     0.32    0.19    0.19    0.00   0.16  26.80
sdb              19.00     0.00 1585.00    0.00 25152.00     0.00    31.74     0.55    0.35    0.35    0.00   0.30  47.80
sdd              16.00     0.00 1613.00    0.00 21340.00     0.00    26.46     0.39    0.24    0.24    0.00   0.21  33.50
md0               0.00     0.00 4903.00    0.00 84208.00     0.00    34.35     0.00    0.00    0.00    0.00   0.00   0.00

avg-cpu:  %user   %nice %system %iowait  %steal   %idle
           3.09    0.00    0.31    2.84    0.00   93.75

Device:         rrqm/s   wrqm/s     r/s     w/s    rkB/s    wkB/s avgrq-sz avgqu-sz   await r_await w_await  svctm  %util
nvme0n1           0.00     0.00    0.00    0.00     0.00     0.00     0.00     0.00    0.00    0.00    0.00   0.00   0.00
sda               0.00     0.00    0.00    0.00     0.00     0.00     0.00     0.00    0.00    0.00    0.00   0.00   0.00
sdc              14.00     0.00 1548.00    0.00 21264.00     0.00    27.47     0.39    0.25    0.25    0.00   0.22  34.80
sdb              18.00     0.00 1526.00    0.00 23656.00     0.00    31.00     0.29    0.19    0.19    0.00   0.18  26.90
sdd              13.00     0.00 1621.00    0.00 22220.00     0.00    27.42     0.50    0.31    0.31    0.00   0.27  44.00
md0               0.00     0.00 4741.00    0.00 89500.00     0.00    37.76     0.00    0.00    0.00    0.00   0.00   0.00

avg-cpu:  %user   %nice %system %iowait  %steal   %idle
           3.07    0.00    0.22    2.85    0.00   93.87

Device:         rrqm/s   wrqm/s     r/s     w/s    rkB/s    wkB/s avgrq-sz avgqu-sz   await r_await w_await  svctm  %util
nvme0n1           0.00     0.00    0.00    0.00     0.00     0.00     0.00     0.00    0.00    0.00    0.00   0.00   0.00
sda               0.00     0.00    0.00    0.00     0.00     0.00     0.00     0.00    0.00    0.00    0.00   0.00   0.00
sdc              11.00     0.00 1568.00    0.00 20408.00     0.00    26.03     0.27    0.17    0.17    0.00   0.16  25.40
sdb              11.00     0.00 1645.00    0.00 19516.00     0.00    23.73     0.27    0.16    0.16    0.00   0.16  26.80
sdd              11.00     0.00 1533.00    0.00 19532.00     0.00    25.48     0.55    0.36    0.36    0.00   0.34  51.70
md0               0.00     0.00 4779.00    0.00 72504.00     0.00    30.34     0.00    0.00    0.00    0.00   0.00   0.00

avg-cpu:  %user   %nice %system %iowait  %steal   %idle
           3.06    0.00    0.28    2.88    0.00   93.78

Device:         rrqm/s   wrqm/s     r/s     w/s    rkB/s    wkB/s avgrq-sz avgqu-sz   await r_await w_await  svctm  %util
nvme0n1           0.00     0.00    0.00    0.00     0.00     0.00     0.00     0.00    0.00    0.00    0.00   0.00   0.00
sda               0.00     5.00    0.00    2.00     0.00    28.00    28.00     0.00    0.00    0.00    0.00   0.00   0.00
sdc              10.00     0.00 1580.00    0.00 21264.00     0.00    26.92     0.30    0.19    0.19    0.00   0.18  28.00
sdb              15.00     0.00 1533.00    0.00 20708.00     0.00    27.02     0.28    0.18    0.18    0.00   0.17  26.20
sdd               9.00     0.00 1717.00    0.00 19972.00     0.00    23.26     0.53    0.31    0.31    0.00   0.28  48.90
md0               0.00     0.00 4865.00    0.00 76032.00     0.00    31.26     0.00    0.00    0.00    0.00   0.00   0.00

avg-cpu:  %user   %nice %system %iowait  %steal   %idle
           3.06    0.00    0.25    2.88    0.00   93.81

Device:         rrqm/s   wrqm/s     r/s     w/s    rkB/s    wkB/s avgrq-sz avgqu-sz   await r_await w_await  svctm  %util
nvme0n1           0.00     0.00    0.00    0.00     0.00     0.00     0.00     0.00    0.00    0.00    0.00   0.00   0.00
sda               0.00     0.00    0.00    0.00     0.00     0.00     0.00     0.00    0.00    0.00    0.00   0.00   0.00
sdc               0.00     0.00 1489.00    0.00 20392.00     0.00    27.39     4.71    3.05    3.05    0.00   0.31  46.90
sdb               3.00     0.00 1561.00    0.00 21360.00     0.00    27.37     5.31    3.32    3.32    0.00   0.24  36.80
sdd               6.00     0.00 1507.00    0.00 20996.00     0.00    27.86     8.36    5.34    5.34    0.00   0.38  57.90
md0               0.00     0.00 4607.00    0.00 65636.00     0.00    28.49     0.00    0.00    0.00    0.00   0.00   0.00

avg-cpu:  %user   %nice %system %iowait  %steal   %idle
           3.07    0.00    0.22    2.88    0.00   93.84

Device:         rrqm/s   wrqm/s     r/s     w/s    rkB/s    wkB/s avgrq-sz avgqu-sz   await r_await w_await  svctm  %util
nvme0n1           0.00     0.00    0.00    0.00     0.00     0.00     0.00     0.00    0.00    0.00    0.00   0.00   0.00
sda               0.00     4.00    0.00    1.00     0.00    36.00    72.00     0.00    0.00    0.00    0.00   0.00   0.00
sdc               4.00     0.00 1351.00    0.00 21548.00     0.00    31.90     6.95    5.26    5.26    0.00   0.36  48.20
sdb               4.00     0.00 1414.00    0.00 22924.00     0.00    32.42     7.39    5.31    5.31    0.00   0.34  47.60
sdd               4.00     0.00 1413.00    0.00 24328.00     0.00    34.43     8.86    6.49    6.49    0.00   0.44  61.60
md0               0.00     0.00 4149.00    0.00 70580.00     0.00    34.02     0.00    0.00    0.00    0.00   0.00   0.00

avg-cpu:  %user   %nice %system %iowait  %steal   %idle
           3.06    0.00    0.22    2.88    0.00   93.84

Device:         rrqm/s   wrqm/s     r/s     w/s    rkB/s    wkB/s avgrq-sz avgqu-sz   await r_await w_await  svctm  %util
nvme0n1           0.00     0.00    0.00    0.00     0.00     0.00     0.00     0.00    0.00    0.00    0.00   0.00   0.00
sda               0.00     0.00    0.00    0.00     0.00     0.00     0.00     0.00    0.00    0.00    0.00   0.00   0.00
sdc               5.00     0.00 1407.00    0.00 26168.00     0.00    37.20     3.63    2.58    2.58    0.00   0.26  36.40
sdb               6.00     0.00 1381.00    0.00 27476.00     0.00    39.79     2.75    1.99    1.99    0.00   0.26  35.60
sdd               4.00     0.00 1352.00    0.00 23696.00     0.00    35.05     4.15    3.07    3.07    0.00   0.45  61.50
md0               0.00     0.00 4154.00    0.00 81788.00     0.00    39.38     0.00    0.00    0.00    0.00   0.00   0.00

avg-cpu:  %user   %nice %system %iowait  %steal   %idle
           3.09    0.00    0.25    2.88    0.00   93.78

Device:         rrqm/s   wrqm/s     r/s     w/s    rkB/s    wkB/s avgrq-sz avgqu-sz   await r_await w_await  svctm  %util
nvme0n1           0.00     0.00    0.00    0.00     0.00     0.00     0.00     0.00    0.00    0.00    0.00   0.00   0.00
sda               0.00     0.00    0.00    0.00     0.00     0.00     0.00     0.00    0.00    0.00    0.00   0.00   0.00
sdc               3.00     0.00 1531.00    0.00 24192.00     0.00    31.60     3.18    2.08    2.08    0.00   0.33  50.00
sdb               8.00     0.00 1403.00    0.00 22600.00     0.00    32.22     3.52    2.51    2.51    0.00   0.30  42.40
sdd               2.00     0.00 1426.00    0.00 23332.00     0.00    32.72     2.21    1.55    1.55    0.00   0.23  32.60
md0               0.00     0.00 4373.00    0.00 73912.00     0.00    33.80     0.00    0.00    0.00    0.00   0.00   0.00

avg-cpu:  %user   %nice %system %iowait  %steal   %idle
           3.06    0.00    0.28    2.88    0.00   93.78

Device:         rrqm/s   wrqm/s     r/s     w/s    rkB/s    wkB/s avgrq-sz avgqu-sz   await r_await w_await  svctm  %util
nvme0n1           0.00     0.00    0.00    0.00     0.00     0.00     0.00     0.00    0.00    0.00    0.00   0.00   0.00
sda               0.00     4.00    0.00    2.00     0.00    24.00    24.00     0.00    0.00    0.00    0.00   0.00   0.00
sdc               2.00     0.00 1405.00    0.00 17440.00     0.00    24.83     1.61    1.15    1.15    0.00   0.37  51.70
sdb               2.00     0.00 1406.00    0.00 18492.00     0.00    26.30     0.92    0.65    0.65    0.00   0.23  31.90
sdd               0.00     0.00 1387.00    0.00 16796.00     0.00    24.22     0.78    0.56    0.56    0.00   0.18  25.40
md0               0.00     0.00 4203.00    0.00 55184.00     0.00    26.26     0.00    0.00    0.00    0.00   0.00   0.00

avg-cpu:  %user   %nice %system %iowait  %steal   %idle
           3.06    0.00    0.22    2.88    0.00   93.84

Device:         rrqm/s   wrqm/s     r/s     w/s    rkB/s    wkB/s avgrq-sz avgqu-sz   await r_await w_await  svctm  %util
nvme0n1           0.00     0.00    0.00    0.00     0.00     0.00     0.00     0.00    0.00    0.00    0.00   0.00   0.00
sda               0.00     0.00    0.00    0.00     0.00     0.00     0.00     0.00    0.00    0.00    0.00   0.00   0.00
sdc               6.00     0.00 1436.00    0.00 23384.00     0.00    32.57     4.40    3.07    3.07    0.00   0.37  52.50
sdb               3.00     0.00 1363.00    0.00 22272.00     0.00    32.68     3.68    2.70    2.70    0.00   0.31  41.60
sdd               5.00     0.00 1464.00    0.00 23196.00     0.00    31.69     2.51    1.72    1.72    0.00   0.24  35.40
md0               0.00     0.00 4277.00    0.00 72248.00     0.00    33.78     0.00    0.00    0.00    0.00   0.00   0.00

avg-cpu:  %user   %nice %system %iowait  %steal   %idle
           3.06    0.00    0.34    2.87    0.00   93.72

Device:         rrqm/s   wrqm/s     r/s     w/s    rkB/s    wkB/s avgrq-sz avgqu-sz   await r_await w_await  svctm  %util
nvme0n1           0.00     0.00    0.00    0.00     0.00     0.00     0.00     0.00    0.00    0.00    0.00   0.00   0.00
sda               0.00     0.00    0.00    0.00     0.00     0.00     0.00     0.00    0.00    0.00    0.00   0.00   0.00
sdc               4.00     0.00 1414.00    0.00 25608.00     0.00    36.22     4.63    3.28    3.28    0.00   0.41  57.30
sdb               6.00     0.00 1370.00    0.00 26924.00     0.00    39.31     3.76    2.75    2.75    0.00   0.31  42.70
sdd               5.00     0.00 1483.00    0.00 28140.00     0.00    37.95     3.21    2.17    2.17    0.00   0.26  39.20
md0               0.00     0.00 4282.00    0.00 84996.00     0.00    39.70     0.00    0.00    0.00    0.00   0.00   0.00

avg-cpu:  %user   %nice %system %iowait  %steal   %idle
           3.06    0.00    0.25    2.88    0.00   93.81

Device:         rrqm/s   wrqm/s     r/s     w/s    rkB/s    wkB/s avgrq-sz avgqu-sz   await r_await w_await  svctm  %util
nvme0n1           0.00     0.00    0.00    0.00     0.00     0.00     0.00     0.00    0.00    0.00    0.00   0.00   0.00
sda               0.00     0.00    0.00    0.00     0.00     0.00     0.00     0.00    0.00    0.00    0.00   0.00   0.00
sdc               1.00     0.00 1410.00    0.00 21912.00     0.00    31.08     1.71    1.21    1.21    0.00   0.19  26.10
sdb               4.00     0.00 1428.00    0.00 21572.00     0.00    30.21     2.39    1.67    1.67    0.00   0.24  34.40
sdd               4.00     0.00 1447.00    0.00 20544.00     0.00    28.40     2.62    1.80    1.80    0.00   0.41  59.70
md0               0.00     0.00 4307.00    0.00 67856.00     0.00    31.51     0.00    0.00    0.00    0.00   0.00   0.00

avg-cpu:  %user   %nice %system %iowait  %steal   %idle
           3.09    0.00    0.28    2.84    0.00   93.78

Device:         rrqm/s   wrqm/s     r/s     w/s    rkB/s    wkB/s avgrq-sz avgqu-sz   await r_await w_await  svctm  %util
nvme0n1           0.00     0.00    0.00    0.00     0.00     0.00     0.00     0.00    0.00    0.00    0.00   0.00   0.00
sda               0.00     0.00    0.00    0.00     0.00     0.00     0.00     0.00    0.00    0.00    0.00   0.00   0.00
sdc               3.00     0.00 1435.00    0.00 22520.00     0.00    31.39     2.85    1.99    1.99    0.00   0.25  35.80
sdb               3.00     0.00 1490.00    0.00 23144.00     0.00    31.07     2.28    1.54    1.54    0.00   0.25  36.70
sdd               3.00     0.00 1474.00    0.00 23404.00     0.00    31.76     3.32    2.26    2.26    0.00   0.37  55.20
md0               0.00     0.00 4394.00    0.00 72680.00     0.00    33.08     0.00    0.00    0.00    0.00   0.00   0.00

avg-cpu:  %user   %nice %system %iowait  %steal   %idle
           3.06    0.00    0.22    2.91    0.00   93.81

Device:         rrqm/s   wrqm/s     r/s     w/s    rkB/s    wkB/s avgrq-sz avgqu-sz   await r_await w_await  svctm  %util
nvme0n1           0.00     0.00    0.00    0.00     0.00     0.00     0.00     0.00    0.00    0.00    0.00   0.00   0.00
sda               0.00     1.00    0.00    2.00     0.00    12.00    12.00     0.00    0.00    0.00    0.00   0.00   0.00
sdc               7.00     0.00 1387.00    0.00 18204.00     0.00    26.25    15.34    9.91    9.91    0.00   0.48  66.70
sdb               4.00     0.00 1355.00    0.00 17228.00     0.00    25.43    12.82    8.96    8.96    0.00   0.44  59.80
sdd               3.00     0.00 1247.00    0.00 16596.00     0.00    26.62    13.29    9.33    9.33    0.00   0.46  57.50
md0               0.00     0.00 4154.00    0.00 55128.00     0.00    26.54     0.00    0.00    0.00    0.00   0.00   0.00

avg-cpu:  %user   %nice %system %iowait  %steal   %idle
           3.07    0.00    0.13    2.94    0.00   93.87

Device:         rrqm/s   wrqm/s     r/s     w/s    rkB/s    wkB/s avgrq-sz avgqu-sz   await r_await w_await  svctm  %util
nvme0n1           0.00     0.00    0.00    0.00     0.00     0.00     0.00     0.00    0.00    0.00    0.00   0.00   0.00
sda               0.00     0.00    0.00    0.00     0.00     0.00     0.00     0.00    0.00    0.00    0.00   0.00   0.00
sdc               6.00     0.00 1307.00    0.00 20872.00     0.00    31.94     8.60    7.79    7.79    0.00   0.37  48.20
sdb               4.00     0.00 1229.00    0.00 19852.00     0.00    32.31    12.25   10.51   10.51    0.00   0.49  59.90
sdd               2.00     0.00 1329.00    0.00 21984.00     0.00    33.08    13.71   11.57   11.57    0.00   0.54  71.40
md0               0.00     0.00 3726.00    0.00 62396.00     0.00    33.49     0.00    0.00    0.00    0.00   0.00   0.00

