Linux 4.17.2 (bench2) 	08/04/2018 	_x86_64_	(32 CPU)

avg-cpu:  %user   %nice %system %iowait  %steal   %idle
           1.90    0.00    1.54    1.61    0.00   94.95

Device:         rrqm/s   wrqm/s     r/s     w/s    rkB/s    wkB/s avgrq-sz avgqu-sz   await r_await w_await  svctm  %util
nvme0n1         931.42     5.06 18777.06  516.99 105031.05 11659.68    12.10     1.34    0.05    0.03    0.67   0.02  39.31
sda               0.12     0.82   14.17    0.58   164.04     8.56    23.40     0.00    0.33    0.32    0.44   0.07   0.10
sdc              34.69     0.17  122.92    0.31  1842.25    97.03    31.47     0.11    0.90   12.33  381.84   0.90  11.12
sdb              32.67     0.19  124.90    0.33  1840.29    96.86    30.94     0.54    4.30    3.23  413.03   0.84  10.57
sdd              34.89     0.17  122.47    0.26  1838.30    96.54    31.53     0.85    6.95    5.04  909.23   0.91  11.12
md0               0.00     0.00  475.36    1.20  6844.72   350.05    30.19     0.00    0.00    0.00    0.00   0.00   0.00

avg-cpu:  %user   %nice %system %iowait  %steal   %idle
           0.03    0.00    0.13    1.00    0.00   98.84

Device:         rrqm/s   wrqm/s     r/s     w/s    rkB/s    wkB/s avgrq-sz avgqu-sz   await r_await w_await  svctm  %util
nvme0n1           0.00     0.00    0.00    0.00     0.00     0.00     0.00     0.00    0.00    0.00    0.00   0.00   0.00
sda               0.00     0.00    2.00    0.00    36.00     0.00    36.00     0.00    1.50    1.50    0.00   1.00   0.20
sdc               0.00     0.00  210.00    0.00   840.00     0.00     8.00     0.25    1.19    1.19    0.00   1.19  24.90
sdb               0.00     0.00  235.00    0.00   940.00     0.00     8.00     0.29    1.22    1.22    0.00   1.22  28.60
sdd               0.00     0.00  249.00    0.00   996.00     0.00     8.00     0.43    1.72    1.72    0.00   1.73  43.20
md0               0.00     0.00  694.00    0.00  2776.00     0.00     8.00     0.00    0.00    0.00    0.00   0.00   0.00

avg-cpu:  %user   %nice %system %iowait  %steal   %idle
           0.00    0.00    0.06    1.09    0.00   98.84

Device:         rrqm/s   wrqm/s     r/s     w/s    rkB/s    wkB/s avgrq-sz avgqu-sz   await r_await w_await  svctm  %util
nvme0n1           0.00     0.00    0.00    0.00     0.00     0.00     0.00     0.00    0.00    0.00    0.00   0.00   0.00
sda               0.00     0.00    0.00    0.00     0.00     0.00     0.00     0.00    0.00    0.00    0.00   0.00   0.00
sdc               0.00     0.00  189.00    0.00   756.00     0.00     8.00     0.31    1.64    1.64    0.00   1.64  31.00
sdb               0.00     0.00  192.00    0.00   768.00     0.00     8.00     0.33    1.69    1.69    0.00   1.70  32.60
sdd               0.00     0.00  200.00    0.00   800.00     0.00     8.00     0.32    1.64    1.64    0.00   1.62  32.40
md0               0.00     0.00  581.00    0.00  2324.00     0.00     8.00     0.00    0.00    0.00    0.00   0.00   0.00

