Linux 4.17.2 (bench2) 	08/04/2018 	_x86_64_	(32 CPU)

avg-cpu:  %user   %nice %system %iowait  %steal   %idle
           1.89    0.00    1.53    1.64    0.00   94.94

Device:         rrqm/s   wrqm/s     r/s     w/s    rkB/s    wkB/s avgrq-sz avgqu-sz   await r_await w_await  svctm  %util
nvme0n1         920.81     5.00 18563.12  511.10 103834.36 11526.84    12.10     1.32    0.05    0.03    0.67   0.02  38.86
sda               0.12     0.82   14.20    0.59   164.15     8.57    23.36     0.00    0.33    0.32    0.43   0.07   0.10
sdc              35.29     0.17  129.94    0.31  1921.50    95.93    30.98     0.18    1.39    0.49  381.84   0.89  11.55
sdb              33.29     0.18  131.90    0.33  1919.62    95.76    30.48     0.60    4.57    3.56  413.03   0.83  11.00
sdd              35.48     0.16  129.49    0.26  1917.63    95.44    31.03     0.92    7.07    5.29  909.23   0.89  11.60
md0               0.00     0.00  498.18    1.19  7133.07   346.06    29.95     0.00    0.00    0.00    0.00   0.00   0.00

avg-cpu:  %user   %nice %system %iowait  %steal   %idle
           0.01    0.00    0.07    3.02    0.00   96.90

Device:         rrqm/s   wrqm/s     r/s     w/s    rkB/s    wkB/s avgrq-sz avgqu-sz   await r_await w_await  svctm  %util
nvme0n1           0.00     0.00    0.00    0.00     0.00     0.00     0.00     0.00    0.00    0.00    0.00   0.00   0.00
sda               0.00     0.90    2.95    0.55    23.40     6.60    17.14     0.00    0.16    0.17    0.09   0.10   0.04
sdc               0.25     0.00  196.70    0.00  3269.00     0.00    33.24     0.31    1.55    1.55    0.00   1.50  29.43
sdb               0.40     0.00  202.10    0.00  3198.60     0.00    31.65     0.36    1.76    1.76    0.00   1.69  34.18
sdd               0.15     0.00  198.05    0.00  3170.40     0.00    32.02     0.39    1.99    1.99    0.00   1.91  37.77
md0               0.00     0.00  597.70    0.00 10664.20     0.00    35.68     0.00    0.00    0.00    0.00   0.00   0.00

