Linux 4.17.2 (bench2) 	08/04/2018 	_x86_64_	(32 CPU)

avg-cpu:  %user   %nice %system %iowait  %steal   %idle
           1.90    0.00    1.54    1.61    0.00   94.95

Device:         rrqm/s   wrqm/s     r/s     w/s    rkB/s    wkB/s avgrq-sz avgqu-sz   await r_await w_await  svctm  %util
nvme0n1         929.20     5.05 18732.36  515.76 104781.04 11631.93    12.10     1.33    0.05    0.03    0.67   0.02  39.21
sda               0.12     0.82   14.18    0.58   164.05     8.56    23.39     0.00    0.33    0.32    0.44   0.07   0.10
sdc              34.68     0.17  124.26    0.31  1863.70    96.80    31.48     0.12    0.98    0.04  381.84   0.90  11.21
sdb              32.66     0.19  126.24    0.33  1861.75    96.63    30.95     0.55    4.34    3.28  413.03   0.84  10.66
sdd              34.88     0.17  123.81    0.26  1859.76    96.31    31.53     0.86    6.96    5.08  909.23   0.90  11.22
md0               0.00     0.00  479.36    1.20  6926.02   349.22    30.28     0.00    0.00    0.00    0.00   0.00   0.00

avg-cpu:  %user   %nice %system %iowait  %steal   %idle
           0.00    0.00    0.06    3.03    0.00   96.90

Device:         rrqm/s   wrqm/s     r/s     w/s    rkB/s    wkB/s avgrq-sz avgqu-sz   await r_await w_await  svctm  %util
nvme0n1           0.00     0.00    0.00    0.00     0.00     0.00     0.00     0.00    0.00    0.00    0.00   0.00   0.00
sda               0.00     0.00    3.00    0.00   100.00     0.00    66.67     0.00    0.00    0.00    0.00   0.00   0.00
sdc               0.00     0.00  148.00    0.00   604.00     0.00     8.16     0.28    1.86    1.86    0.00   1.86  27.50
sdb               0.00     0.00  137.00    0.00   572.00     0.00     8.35     0.30    2.23    2.23    0.00   2.23  30.50
sdd               0.00     0.00  123.00    0.00   528.00     0.00     8.59     0.40    3.22    3.22    0.00   3.22  39.60
md0               0.00     0.00  409.00    0.00  1708.00     0.00     8.35     0.00    0.00    0.00    0.00   0.00   0.00

avg-cpu:  %user   %nice %system %iowait  %steal   %idle
           0.00    0.00    0.03    3.03    0.00   96.94

Device:         rrqm/s   wrqm/s     r/s     w/s    rkB/s    wkB/s avgrq-sz avgqu-sz   await r_await w_await  svctm  %util
nvme0n1           0.00     0.00    0.00    0.00     0.00     0.00     0.00     0.00    0.00    0.00    0.00   0.00   0.00
sda               0.00     0.00    0.00    0.00     0.00     0.00     0.00     0.00    0.00    0.00    0.00   0.00   0.00
sdc               0.00     0.00  175.00    0.00   784.00     0.00     8.96     0.32    1.84    1.84    0.00   1.84  32.20
sdb               0.00     0.00  156.00    0.00   636.00     0.00     8.15     0.34    2.17    2.17    0.00   2.17  33.80
sdd               0.00     0.00  136.00    0.00   604.00     0.00     8.88     0.33    2.43    2.43    0.00   2.43  33.10
md0               0.00     0.00  467.00    0.00  2024.00     0.00     8.67     0.00    0.00    0.00    0.00   0.00   0.00

avg-cpu:  %user   %nice %system %iowait  %steal   %idle
           0.00    0.00    0.06    3.03    0.00   96.91

Device:         rrqm/s   wrqm/s     r/s     w/s    rkB/s    wkB/s avgrq-sz avgqu-sz   await r_await w_await  svctm  %util
nvme0n1           0.00     0.00    0.00    0.00     0.00     0.00     0.00     0.00    0.00    0.00    0.00   0.00   0.00
sda               0.00     7.00    0.00    2.00     0.00    36.00    36.00     0.00    0.50    0.00    0.50   0.50   0.10
sdc               0.00     0.00  136.00    0.00   568.00     0.00     8.35     0.35    2.57    2.57    0.00   2.56  34.80
sdb               0.00     0.00  141.00    0.00   600.00     0.00     8.51     0.23    1.66    1.66    0.00   1.66  23.40
sdd               0.00     0.00  154.00    0.00   676.00     0.00     8.78     0.40    2.55    2.55    0.00   2.60  40.00
md0               0.00     0.00  431.00    0.00  1844.00     0.00     8.56     0.00    0.00    0.00    0.00   0.00   0.00

avg-cpu:  %user   %nice %system %iowait  %steal   %idle
           0.00    0.00    0.06    3.06    0.00   96.87

Device:         rrqm/s   wrqm/s     r/s     w/s    rkB/s    wkB/s avgrq-sz avgqu-sz   await r_await w_await  svctm  %util
nvme0n1           0.00     0.00    0.00    0.00     0.00     0.00     0.00     0.00    0.00    0.00    0.00   0.00   0.00
sda               0.00     0.00    0.00    0.00     0.00     0.00     0.00     0.00    0.00    0.00    0.00   0.00   0.00
sdc               0.00     0.00  143.00    0.00   676.00     0.00     9.45     0.28    1.99    1.99    0.00   1.97  28.20
sdb               0.00     0.00  154.00    0.00   664.00     0.00     8.62     0.29    1.90    1.90    0.00   1.90  29.20
sdd               0.00     0.00  141.00    0.00   596.00     0.00     8.45     0.41    2.94    2.94    0.00   2.89  40.80
md0               0.00     0.00  438.00    0.00  1936.00     0.00     8.84     0.00    0.00    0.00    0.00   0.00   0.00

avg-cpu:  %user   %nice %system %iowait  %steal   %idle
           0.00    0.00    0.06    3.03    0.00   96.91

Device:         rrqm/s   wrqm/s     r/s     w/s    rkB/s    wkB/s avgrq-sz avgqu-sz   await r_await w_await  svctm  %util
nvme0n1           0.00     0.00    0.00    0.00     0.00     0.00     0.00     0.00    0.00    0.00    0.00   0.00   0.00
sda               0.00     0.00    0.00    0.00     0.00     0.00     0.00     0.00    0.00    0.00    0.00   0.00   0.00
sdc               0.00     0.00  139.00    0.00   664.00     0.00     9.55     0.34    2.47    2.47    0.00   2.47  34.40
sdb               0.00     0.00  146.00    0.00   692.00     0.00     9.48     0.40    2.73    2.73    0.00   2.75  40.10
sdd               0.00     0.00  157.00    0.00   652.00     0.00     8.31     0.24    1.54    1.54    0.00   1.52  23.90
md0               0.00     0.00  442.00    0.00  2008.00     0.00     9.09     0.00    0.00    0.00    0.00   0.00   0.00

avg-cpu:  %user   %nice %system %iowait  %steal   %idle
           0.00    0.00    0.03    3.06    0.00   96.91

Device:         rrqm/s   wrqm/s     r/s     w/s    rkB/s    wkB/s avgrq-sz avgqu-sz   await r_await w_await  svctm  %util
nvme0n1           0.00     0.00    0.00    0.00     0.00     0.00     0.00     0.00    0.00    0.00    0.00   0.00   0.00
sda               0.00     1.00    0.00    4.00     0.00    24.00    12.00     0.00    0.00    0.00    0.00   0.00   0.00
sdc               0.00     0.00  144.00    0.00   588.00     0.00     8.17     0.28    1.92    1.92    0.00   1.92  27.60
sdb               0.00     0.00  164.00    0.00   728.00     0.00     8.88     0.37    2.24    2.24    0.00   2.25  36.90
sdd               0.00     0.00  135.00    0.00   564.00     0.00     8.36     0.34    2.50    2.50    0.00   2.50  33.70
md0               0.00     0.00  443.00    0.00  1880.00     0.00     8.49     0.00    0.00    0.00    0.00   0.00   0.00

avg-cpu:  %user   %nice %system %iowait  %steal   %idle
           0.03    0.00    0.06    3.03    0.00   96.87

Device:         rrqm/s   wrqm/s     r/s     w/s    rkB/s    wkB/s avgrq-sz avgqu-sz   await r_await w_await  svctm  %util
nvme0n1           0.00     0.00    0.00    0.00     0.00     0.00     0.00     0.00    0.00    0.00    0.00   0.00   0.00
sda               0.00     0.00    0.00    0.00     0.00     0.00     0.00     0.00    0.00    0.00    0.00   0.00   0.00
sdc               0.00     0.00  153.00    0.00   708.00     0.00     9.25     0.35    2.28    2.28    0.00   2.28  34.90
sdb               0.00     0.00  160.00    0.00   684.00     0.00     8.55     0.45    2.85    2.85    0.00   2.84  45.40
sdd               0.00     0.00  147.00    0.00   600.00     0.00     8.16     0.18    1.22    1.22    0.00   1.22  18.00
md0               0.00     0.00  460.00    0.00  2020.00     0.00     8.78     0.00    0.00    0.00    0.00   0.00   0.00

avg-cpu:  %user   %nice %system %iowait  %steal   %idle
           0.00    0.00    0.09    3.03    0.00   96.88

Device:         rrqm/s   wrqm/s     r/s     w/s    rkB/s    wkB/s avgrq-sz avgqu-sz   await r_await w_await  svctm  %util
nvme0n1           0.00     0.00    0.00    0.00     0.00     0.00     0.00     0.00    0.00    0.00    0.00   0.00   0.00
sda               0.00     3.00    0.00    2.00     0.00    20.00    20.00     0.00    0.00    0.00    0.00   0.00   0.00
sdc               0.00     0.00  154.00    0.00   724.00     0.00     9.40     0.23    1.49    1.49    0.00   1.49  23.00
sdb               0.00     0.00  156.00    0.00   696.00     0.00     8.92     0.41    2.62    2.62    0.00   2.61  40.70
sdd               0.00     0.00  145.00    0.00   592.00     0.00     8.17     0.35    2.37    2.37    0.00   2.39  34.70
md0               0.00     0.00  455.00    0.00  2012.00     0.00     8.84     0.00    0.00    0.00    0.00   0.00   0.00

avg-cpu:  %user   %nice %system %iowait  %steal   %idle
           0.00    0.00    0.03    3.06    0.00   96.91

Device:         rrqm/s   wrqm/s     r/s     w/s    rkB/s    wkB/s avgrq-sz avgqu-sz   await r_await w_await  svctm  %util
nvme0n1           0.00     0.00    0.00    0.00     0.00     0.00     0.00     0.00    0.00    0.00    0.00   0.00   0.00
sda               0.00     0.00    0.00    0.00     0.00     0.00     0.00     0.00    0.00    0.00    0.00   0.00   0.00
sdc               0.00     0.00  131.00    0.00   564.00     0.00     8.61     0.45    3.42    3.42    0.00   3.41  44.70
sdb               0.00     0.00  152.00    0.00   660.00     0.00     8.68     0.25    1.60    1.60    0.00   1.65  25.10
sdd               0.00     0.00  136.00    0.00   568.00     0.00     8.35     0.28    2.10    2.10    0.00   2.08  28.30
md0               0.00     0.00  419.00    0.00  1812.00     0.00     8.65     0.00    0.00    0.00    0.00   0.00   0.00

avg-cpu:  %user   %nice %system %iowait  %steal   %idle
           0.00    0.00    0.03    3.03    0.00   96.93

Device:         rrqm/s   wrqm/s     r/s     w/s    rkB/s    wkB/s avgrq-sz avgqu-sz   await r_await w_await  svctm  %util
nvme0n1           0.00     0.00    0.00    0.00     0.00     0.00     0.00     0.00    0.00    0.00    0.00   0.00   0.00
sda               0.00     0.00    0.00    0.00     0.00     0.00     0.00     0.00    0.00    0.00    0.00   0.00   0.00
sdc               0.00     0.00  153.00    0.00   636.00     0.00     8.31     0.29    1.87    1.87    0.00   1.89  28.90
sdb               0.00     0.00  145.00    0.00   616.00     0.00     8.50     0.28    1.97    1.97    0.00   1.92  27.80
sdd               0.00     0.00  149.00    0.00   644.00     0.00     8.64     0.42    2.82    2.82    0.00   2.82  42.00
md0               0.00     0.00  447.00    0.00  1896.00     0.00     8.48     0.00    0.00    0.00    0.00   0.00   0.00

avg-cpu:  %user   %nice %system %iowait  %steal   %idle
           0.00    0.00    0.06    3.06    0.00   96.88

Device:         rrqm/s   wrqm/s     r/s     w/s    rkB/s    wkB/s avgrq-sz avgqu-sz   await r_await w_await  svctm  %util
nvme0n1           0.00     0.00    0.00    0.00     0.00     0.00     0.00     0.00    0.00    0.00    0.00   0.00   0.00
sda               0.00     3.00    0.00    2.00     0.00    60.00    60.00     0.00    0.00    0.00    0.00   0.00   0.00
sdc               0.00     0.00  137.00    0.00   620.00     0.00     9.05     0.29    2.15    2.15    0.00   2.13  29.20
sdb               0.00     0.00  139.00    0.00   568.00     0.00     8.17     0.31    2.25    2.25    0.00   2.25  31.30
sdd               0.00     0.00  186.00    0.00   792.00     0.00     8.52     0.38    2.01    2.01    0.00   2.03  37.80
md0               0.00     0.00  462.00    0.00  1980.00     0.00     8.57     0.00    0.00    0.00    0.00   0.00   0.00

avg-cpu:  %user   %nice %system %iowait  %steal   %idle
           0.00    0.00    0.06    3.03    0.00   96.90

Device:         rrqm/s   wrqm/s     r/s     w/s    rkB/s    wkB/s avgrq-sz avgqu-sz   await r_await w_await  svctm  %util
nvme0n1           0.00     0.00    0.00    0.00     0.00     0.00     0.00     0.00    0.00    0.00    0.00   0.00   0.00
sda               0.00     0.00    0.00    0.00     0.00     0.00     0.00     0.00    0.00    0.00    0.00   0.00   0.00
sdc               0.00     0.00  146.00    0.00   772.00     0.00    10.58     0.40    2.74    2.74    0.00   2.73  39.80
sdb               0.00     0.00  135.00    0.00   564.00     0.00     8.36     0.39    2.85    2.85    0.00   2.85  38.50
sdd               0.00     0.00  139.00    0.00   740.00     0.00    10.65     0.20    1.46    1.46    0.00   1.46  20.30
md0               0.00     0.00  420.00    0.00  2232.00     0.00    10.63     0.00    0.00    0.00    0.00   0.00   0.00

avg-cpu:  %user   %nice %system %iowait  %steal   %idle
           0.03    0.00    0.03    3.03    0.00   96.91

Device:         rrqm/s   wrqm/s     r/s     w/s    rkB/s    wkB/s avgrq-sz avgqu-sz   await r_await w_await  svctm  %util
nvme0n1           0.00     0.00    0.00    0.00     0.00     0.00     0.00     0.00    0.00    0.00    0.00   0.00   0.00
sda               0.00     6.00    0.00    2.00     0.00    32.00    32.00     0.00    0.00    0.00    0.00   0.00   0.00
sdc               0.00     0.00  147.00    0.00   612.00     0.00     8.33     0.35    2.40    2.40    0.00   2.40  35.30
sdb               0.00     0.00  158.00    0.00   668.00     0.00     8.46     0.22    1.41    1.41    0.00   1.41  22.30
sdd               0.00     0.00  164.00    0.00   704.00     0.00     8.59     0.41    2.50    2.50    0.00   2.47  40.50
md0               0.00     0.00  469.00    0.00  1984.00     0.00     8.46     0.00    0.00    0.00    0.00   0.00   0.00

avg-cpu:  %user   %nice %system %iowait  %steal   %idle
           0.00    0.00    0.06    3.06    0.00   96.88

Device:         rrqm/s   wrqm/s     r/s     w/s    rkB/s    wkB/s avgrq-sz avgqu-sz   await r_await w_await  svctm  %util
nvme0n1           0.00     0.00    0.00    0.00     0.00     0.00     0.00     0.00    0.00    0.00    0.00   0.00   0.00
sda               0.00     0.00    0.00    0.00     0.00     0.00     0.00     0.00    0.00    0.00    0.00   0.00   0.00
sdc               0.00     0.00  149.00    0.00   684.00     0.00     9.18     0.42    2.81    2.81    0.00   2.73  40.70
sdb               0.00     0.00  143.00    0.00   620.00     0.00     8.67     0.41    2.83    2.83    0.00   2.87  41.00
sdd               0.00     0.00  142.00    0.00   628.00     0.00     8.85     0.17    1.18    1.18    0.00   1.18  16.70
md0               0.00     0.00  434.00    0.00  1960.00     0.00     9.03     0.00    0.00    0.00    0.00   0.00   0.00

avg-cpu:  %user   %nice %system %iowait  %steal   %idle
           0.00    0.00    0.03    3.03    0.00   96.93

Device:         rrqm/s   wrqm/s     r/s     w/s    rkB/s    wkB/s avgrq-sz avgqu-sz   await r_await w_await  svctm  %util
nvme0n1           0.00     0.00    0.00    0.00     0.00     0.00     0.00     0.00    0.00    0.00    0.00   0.00   0.00
sda               0.00     0.00    0.00    0.00     0.00     0.00     0.00     0.00    0.00    0.00    0.00   0.00   0.00
sdc               0.00     0.00  141.00    0.00   624.00     0.00     8.85     0.40    2.85    2.85    0.00   2.86  40.30
sdb               0.00     0.00  139.00    0.00   580.00     0.00     8.35     0.20    1.47    1.47    0.00   1.42  19.80
sdd               0.00     0.00  148.00    0.00   628.00     0.00     8.49     0.38    2.57    2.57    0.00   2.57  38.00
md0               0.00     0.00  428.00    0.00  1832.00     0.00     8.56     0.00    0.00    0.00    0.00   0.00   0.00

avg-cpu:  %user   %nice %system %iowait  %steal   %idle
           0.00    0.00    0.03    3.06    0.00   96.91

Device:         rrqm/s   wrqm/s     r/s     w/s    rkB/s    wkB/s avgrq-sz avgqu-sz   await r_await w_await  svctm  %util
nvme0n1           0.00     0.00    0.00    0.00     0.00     0.00     0.00     0.00    0.00    0.00    0.00   0.00   0.00
sda               0.00     0.00    0.00    0.00     0.00     0.00     0.00     0.00    0.00    0.00    0.00   0.00   0.00
sdc               0.00     0.00  153.00    0.00   668.00     0.00     8.73     0.25    1.62    1.62    0.00   1.63  25.00
sdb               0.00     0.00  147.00    0.00   612.00     0.00     8.33     0.36    2.48    2.48    0.00   2.48  36.40
sdd               0.00     0.00  130.00    0.00   544.00     0.00     8.37     0.37    2.82    2.82    0.00   2.82  36.60
md0               0.00     0.00  430.00    0.00  1824.00     0.00     8.48     0.00    0.00    0.00    0.00   0.00   0.00

avg-cpu:  %user   %nice %system %iowait  %steal   %idle
           0.00    0.00    0.03    3.03    0.00   96.94

Device:         rrqm/s   wrqm/s     r/s     w/s    rkB/s    wkB/s avgrq-sz avgqu-sz   await r_await w_await  svctm  %util
nvme0n1           0.00     0.00    0.00    0.00     0.00     0.00     0.00     0.00    0.00    0.00    0.00   0.00   0.00
sda               0.00     0.00    0.00    0.00     0.00     0.00     0.00     0.00    0.00    0.00    0.00   0.00   0.00
sdc               0.00     0.00  166.00    0.00   692.00     0.00     8.34     0.39    2.35    2.35    0.00   2.36  39.10
sdb               0.00     0.00  156.00    0.00   696.00     0.00     8.92     0.21    1.33    1.33    0.00   1.33  20.80
sdd               0.00     0.00  153.00    0.00   676.00     0.00     8.84     0.39    2.52    2.52    0.00   2.52  38.50
md0               0.00     0.00  475.00    0.00  2072.00     0.00     8.72     0.00    0.00    0.00    0.00   0.00   0.00

avg-cpu:  %user   %nice %system %iowait  %steal   %idle
           0.00    0.00    0.06    3.03    0.00   96.90

Device:         rrqm/s   wrqm/s     r/s     w/s    rkB/s    wkB/s avgrq-sz avgqu-sz   await r_await w_await  svctm  %util
nvme0n1           0.00     0.00    0.00    0.00     0.00     0.00     0.00     0.00    0.00    0.00    0.00   0.00   0.00
sda               0.00     1.00    0.00    2.00     0.00    12.00    12.00     0.00    0.00    0.00    0.00   0.00   0.00
sdc               0.00     0.00  155.00    0.00   664.00     0.00     8.57     0.31    1.96    1.96    0.00   1.97  30.60
sdb               0.00     0.00  151.00    0.00   664.00     0.00     8.79     0.32    2.14    2.14    0.00   2.14  32.30
sdd               0.00     0.00  145.00    0.00   632.00     0.00     8.72     0.36    2.46    2.46    0.00   2.46  35.60
md0               0.00     0.00  451.00    0.00  1980.00     0.00     8.78     0.00    0.00    0.00    0.00   0.00   0.00

avg-cpu:  %user   %nice %system %iowait  %steal   %idle
           0.00    0.00    0.03    3.06    0.00   96.91

Device:         rrqm/s   wrqm/s     r/s     w/s    rkB/s    wkB/s avgrq-sz avgqu-sz   await r_await w_await  svctm  %util
nvme0n1           0.00     0.00    0.00    0.00     0.00     0.00     0.00     0.00    0.00    0.00    0.00   0.00   0.00
sda               0.00     0.00    0.00    0.00     0.00     0.00     0.00     0.00    0.00    0.00    0.00   0.00   0.00
sdc               0.00     0.00  134.00    0.00   584.00     0.00     8.72     0.32    2.40    2.40    0.00   2.35  31.50
sdb               0.00     0.00  136.00    0.00   572.00     0.00     8.41     0.40    2.95    2.95    0.00   2.95  40.10
sdd               0.00     0.00  172.00    0.00   720.00     0.00     8.37     0.27    1.54    1.54    0.00   1.54  26.50
md0               0.00     0.00  442.00    0.00  1884.00     0.00     8.52     0.00    0.00    0.00    0.00   0.00   0.00

avg-cpu:  %user   %nice %system %iowait  %steal   %idle
           0.00    0.00    0.03    3.03    0.00   96.94

Device:         rrqm/s   wrqm/s     r/s     w/s    rkB/s    wkB/s avgrq-sz avgqu-sz   await r_await w_await  svctm  %util
nvme0n1           0.00     0.00    0.00    0.00     0.00     0.00     0.00     0.00    0.00    0.00    0.00   0.00   0.00
sda               0.00     0.00    0.00    0.00     0.00     0.00     0.00     0.00    0.00    0.00    0.00   0.00   0.00
sdc               0.00     0.00  165.00    0.00   732.00     0.00     8.87     0.25    1.48    1.48    0.00   1.48  24.50
sdb               0.00     0.00  124.00    0.00   508.00     0.00     8.19     0.20    1.58    1.58    0.00   1.58  19.60
sdd               0.00     0.00  176.00    0.00  1060.00     0.00    12.05     0.55    3.11    3.11    0.00   3.11  54.70
md0               0.00     0.00  465.00    0.00  2300.00     0.00     9.89     0.00    0.00    0.00    0.00   0.00   0.00

