Linux 4.17.2 (bench2) 	08/04/2018 	_x86_64_	(32 CPU)

avg-cpu:  %user   %nice %system %iowait  %steal   %idle
           1.89    0.00    1.54    1.63    0.00   94.94

Device:         rrqm/s   wrqm/s     r/s     w/s    rkB/s    wkB/s avgrq-sz avgqu-sz   await r_await w_await  svctm  %util
nvme0n1         924.49     5.02 18637.39  513.14 104249.77 11572.95    12.10     1.33    0.05    0.03    0.67   0.02  39.02
sda               0.12     0.82   14.19    0.58   164.09     8.57    23.37     0.00    0.33    0.32    0.44   0.07   0.10
sdc              35.00     0.17  127.34    0.31  1896.31    96.31    31.22     0.16    1.26    0.34  381.84   0.89  11.41
sdb              32.99     0.18  129.30    0.33  1894.40    96.14    30.71     0.59    4.52    3.48  413.03   0.84  10.86
sdd              35.20     0.16  126.88    0.26  1892.42    95.82    31.28     0.90    7.08    5.25  909.23   0.90  11.44
md0               0.00     0.00  489.52    1.19  7043.48   347.45    30.12     0.00    0.00    0.00    0.00   0.00   0.00

avg-cpu:  %user   %nice %system %iowait  %steal   %idle
           0.00    0.00    0.06    1.28    0.00   98.66

Device:         rrqm/s   wrqm/s     r/s     w/s    rkB/s    wkB/s avgrq-sz avgqu-sz   await r_await w_await  svctm  %util
nvme0n1           0.00     0.00    0.00    0.00     0.00     0.00     0.00     0.00    0.00    0.00    0.00   0.00   0.00
sda               0.00     0.00   18.00    0.00    76.00     0.00     8.44     0.00    0.06    0.06    0.00   0.06   0.10
sdc             106.00     0.00  243.00    0.00  1440.00     0.00    11.85    90.06  281.03  281.03    0.00   3.99  97.00
sdb              95.00     0.00  236.00    0.00  1308.00     0.00    11.08    92.62  287.37  287.37    0.00   4.23  99.80
sdd             104.00     0.00  239.00    0.00  1368.00     0.00    11.45    88.49  269.94  269.94    0.00   4.08  97.40
md0               0.00     0.00  924.00    0.00  3696.00     0.00     8.00     0.00    0.00    0.00    0.00   0.00   0.00

avg-cpu:  %user   %nice %system %iowait  %steal   %idle
           0.00    0.00    0.06    0.66    0.00   99.28

Device:         rrqm/s   wrqm/s     r/s     w/s    rkB/s    wkB/s avgrq-sz avgqu-sz   await r_await w_await  svctm  %util
nvme0n1           0.00     0.00    0.00    0.00     0.00     0.00     0.00     0.00    0.00    0.00    0.00   0.00   0.00
sda               0.00    10.00    0.00    2.00     0.00    48.00    48.00     0.00    0.50    0.00    0.50   0.50   0.10
sdc             135.00     0.00  294.00    0.00  1712.00     0.00    11.65    68.06  301.24  301.24    0.00   3.28  96.40
sdb              99.00     0.00  278.00    0.00  1592.00     0.00    11.45    56.49  288.91  288.91    0.00   3.13  86.90
sdd             156.00     0.00  301.00    0.00  1776.00     0.00    11.80    74.66  324.65  324.65    0.00   3.32  99.80
md0               0.00     0.00 1342.00    0.00  5368.00     0.00     8.00     0.00    0.00    0.00    0.00   0.00   0.00

avg-cpu:  %user   %nice %system %iowait  %steal   %idle
           0.00    0.00    0.06    1.28    0.00   98.66

Device:         rrqm/s   wrqm/s     r/s     w/s    rkB/s    wkB/s avgrq-sz avgqu-sz   await r_await w_await  svctm  %util
nvme0n1           0.00     0.00    0.00    0.00     0.00     0.00     0.00     0.00    0.00    0.00    0.00   0.00   0.00
sda               0.00     0.00    0.00    0.00     0.00     0.00     0.00     0.00    0.00    0.00    0.00   0.00   0.00
sdc             104.00     0.00  293.00    0.00  1624.00     0.00    11.09    90.47  225.18  225.18    0.00   3.28  96.20
sdb             110.00     0.00  279.00    0.00  1568.00     0.00    11.24    89.03  226.95  226.95    0.00   3.39  94.50
sdd              66.00     0.00  269.00    0.00  1512.00     0.00    11.24    95.78  255.16  255.16    0.00   3.71  99.90
md0               0.00     0.00  958.00    0.00  3832.00     0.00     8.00     0.00    0.00    0.00    0.00   0.00   0.00

