Linux 4.17.2 (bench2) 	08/04/2018 	_x86_64_	(32 CPU)

avg-cpu:  %user   %nice %system %iowait  %steal   %idle
           1.89    0.00    1.54    1.62    0.00   94.95

Device:         rrqm/s   wrqm/s     r/s     w/s    rkB/s    wkB/s avgrq-sz avgqu-sz   await r_await w_await  svctm  %util
nvme0n1         927.89     5.04 18705.94  515.03 104633.25 11615.52    12.10     1.33    0.05    0.03    0.67   0.02  39.16
sda               0.12     0.82   14.18    0.58   164.06     8.56    23.39     0.00    0.33    0.32    0.44   0.07   0.10
sdc              34.91     0.17  125.08    0.31  1872.32    96.67    31.41     0.14    1.10    0.16  381.84   0.90  11.27
sdb              32.90     0.18  127.05    0.33  1870.40    96.49    30.88     0.57    4.43    3.38  413.03   0.84  10.72
sdd              35.11     0.17  124.62    0.26  1868.39    96.17    31.46     0.88    7.04    5.17  909.23   0.90  11.28
md0               0.00     0.00  482.49    1.20  6956.26   348.72    30.21     0.00    0.00    0.00    0.00   0.00   0.00

avg-cpu:  %user   %nice %system %iowait  %steal   %idle
           0.05    0.00    0.76    2.11    0.00   97.08

Device:         rrqm/s   wrqm/s     r/s     w/s    rkB/s    wkB/s avgrq-sz avgqu-sz   await r_await w_await  svctm  %util
nvme0n1           0.00     0.00    0.00    0.00     0.00     0.00     0.00     0.00    0.00    0.00    0.00   0.00   0.00
sda               0.00     0.90    3.80    0.50    27.80     6.40    15.91     0.00    0.06    0.05    0.10   0.05   0.02
sdc               0.00     0.00 1849.45    0.00  7399.00     0.00     8.00     1.67    0.90    0.90    0.00   0.23  43.20
sdb               0.05     0.00 1849.50    0.00  7398.20     0.00     8.00     1.70    0.91    0.91    0.00   0.24  44.75
sdd               0.00     0.00 1840.15    0.00  7360.60     0.00     8.00     1.69    0.91    0.91    0.00   0.24  43.76
md0               0.00     0.00 5539.20    0.00 22157.40     0.00     8.00     0.00    0.00    0.00    0.00   0.00   0.00

