Linux 4.17.2 (bench2) 	08/04/2018 	_x86_64_	(32 CPU)

avg-cpu:  %user   %nice %system %iowait  %steal   %idle
           1.90    0.00    1.55    1.60    0.00   94.95

Device:         rrqm/s   wrqm/s     r/s     w/s    rkB/s    wkB/s avgrq-sz avgqu-sz   await r_await w_await  svctm  %util
nvme0n1         931.85     5.06 18785.72  517.23 105079.46 11665.06    12.10     1.34    0.05    0.03    0.67   0.02  39.33
sda               0.12     0.82   14.17    0.58   164.03     8.56    23.40     0.00    0.33    0.32    0.44   0.07   0.10
sdc              34.65     0.17  122.58    0.31  1841.22    97.08    31.55     0.11    0.87   12.35  381.84   0.90  11.10
sdb              32.63     0.19  124.56    0.33  1839.26    96.90    31.01     0.54    4.29    3.21  413.03   0.85  10.55
sdd              34.85     0.17  122.12    0.26  1837.27    96.58    31.60     0.85    6.95    5.03  909.23   0.91  11.10
md0               0.00     0.00  474.21    1.20  6842.21   350.21    30.26     0.00    0.00    0.00    0.00   0.00   0.00

avg-cpu:  %user   %nice %system %iowait  %steal   %idle
           0.00    0.00    0.09   38.84    0.00   61.07

Device:         rrqm/s   wrqm/s     r/s     w/s    rkB/s    wkB/s avgrq-sz avgqu-sz   await r_await w_await  svctm  %util
nvme0n1           0.00     0.00    0.00    0.00     0.00     0.00     0.00     0.00    0.00    0.00    0.00   0.00   0.00
sda               0.00     0.00    2.00    0.00    36.00     0.00    36.00     0.00    0.50    0.50    0.00   0.50   0.10
sdc               0.00     0.00  173.00    0.00   716.00     0.00     8.28     3.44   18.08   18.08    0.00   5.52  95.50
sdb               0.00     0.00  170.00    0.00   680.00     0.00     8.00    10.10   58.07   58.07    0.00   5.84  99.30
sdd               0.00     0.00  183.00    0.00   732.00     0.00     8.00     2.33   12.73   12.73    0.00   4.77  87.20
md0               0.00     0.00  541.00    0.00  2176.00     0.00     8.04     0.00    0.00    0.00    0.00   0.00   0.00

avg-cpu:  %user   %nice %system %iowait  %steal   %idle
           0.00    0.00    0.06   27.92    0.00   72.01

Device:         rrqm/s   wrqm/s     r/s     w/s    rkB/s    wkB/s avgrq-sz avgqu-sz   await r_await w_await  svctm  %util
nvme0n1           0.00     0.00    0.00    0.00     0.00     0.00     0.00     0.00    0.00    0.00    0.00   0.00   0.00
sda               0.00     0.00    0.00    0.00     0.00     0.00     0.00     0.00    0.00    0.00    0.00   0.00   0.00
sdc               0.00     0.00  183.00    0.00   732.00     0.00     8.00     6.19   35.52   35.52    0.00   4.74  86.80
sdb               0.00     0.00  163.00    0.00   652.00     0.00     8.00     2.99   19.74   19.74    0.00   5.18  84.40
sdd               0.00     0.00  154.00    0.00   616.00     0.00     8.00     2.94   19.06   19.06    0.00   5.64  86.80
md0               0.00     0.00  484.00    0.00  1936.00     0.00     8.00     0.00    0.00    0.00    0.00   0.00   0.00

avg-cpu:  %user   %nice %system %iowait  %steal   %idle
           0.03    0.00    0.09   41.16    0.00   58.72

Device:         rrqm/s   wrqm/s     r/s     w/s    rkB/s    wkB/s avgrq-sz avgqu-sz   await r_await w_await  svctm  %util
nvme0n1           0.00     0.00    0.00    0.00     0.00     0.00     0.00     0.00    0.00    0.00    0.00   0.00   0.00
sda               0.00    13.00    0.00    2.00     0.00    60.00    60.00     0.00    0.00    0.00    0.00   0.00   0.00
sdc               0.00     0.00  229.00    0.00   916.00     0.00     8.00     5.88   25.22   25.22    0.00   4.28  98.00
sdb               0.00     0.00  205.00    0.00   820.00     0.00     8.00     4.30   20.40   20.40    0.00   4.48  91.80
sdd               0.00     0.00  223.00    0.00   892.00     0.00     8.00     5.78   23.53   23.53    0.00   4.48 100.00
md0               0.00     0.00  673.00    0.00  2692.00     0.00     8.00     0.00    0.00    0.00    0.00   0.00   0.00

avg-cpu:  %user   %nice %system %iowait  %steal   %idle
           0.00    0.00    0.06   32.37    0.00   67.56

Device:         rrqm/s   wrqm/s     r/s     w/s    rkB/s    wkB/s avgrq-sz avgqu-sz   await r_await w_await  svctm  %util
nvme0n1           0.00     0.00    0.00    0.00     0.00     0.00     0.00     0.00    0.00    0.00    0.00   0.00   0.00
sda               0.00     0.00    0.00    0.00     0.00     0.00     0.00     0.00    0.00    0.00    0.00   0.00   0.00
sdc               0.00     0.00  183.00    0.00   732.00     0.00     8.00     4.04   20.81   20.81    0.00   4.46  81.60
sdb               0.00     0.00  172.00    0.00   688.00     0.00     8.00     1.80   11.18   11.18    0.00   4.46  76.70
sdd               0.00     0.00  235.00    0.00   940.00     0.00     8.00     7.10   28.94   28.94    0.00   4.15  97.60
md0               0.00     0.00  590.00    0.00  2360.00     0.00     8.00     0.00    0.00    0.00    0.00   0.00   0.00

avg-cpu:  %user   %nice %system %iowait  %steal   %idle
           0.00    0.00    0.09   36.82    0.00   63.08

Device:         rrqm/s   wrqm/s     r/s     w/s    rkB/s    wkB/s avgrq-sz avgqu-sz   await r_await w_await  svctm  %util
nvme0n1           0.00     0.00    0.00    0.00     0.00     0.00     0.00     0.00    0.00    0.00    0.00   0.00   0.00
sda               0.00     0.00    0.00    0.00     0.00     0.00     0.00     0.00    0.00    0.00    0.00   0.00   0.00
sdc               0.00     0.00  219.00    0.00   876.00     0.00     8.00     5.90   28.37   28.37    0.00   4.51  98.80
sdb               0.00     0.00  190.00    0.00   760.00     0.00     8.00     3.18   16.57   16.57    0.00   4.84  91.90
sdd               0.00     0.00  216.00    0.00   864.00     0.00     8.00     6.86   28.93   28.93    0.00   4.63 100.00
md0               0.00     0.00  623.00    0.00  2492.00     0.00     8.00     0.00    0.00    0.00    0.00   0.00   0.00

avg-cpu:  %user   %nice %system %iowait  %steal   %idle
           0.00    0.00    0.03   33.08    0.00   66.89

Device:         rrqm/s   wrqm/s     r/s     w/s    rkB/s    wkB/s avgrq-sz avgqu-sz   await r_await w_await  svctm  %util
nvme0n1           0.00     0.00    0.00    0.00     0.00     0.00     0.00     0.00    0.00    0.00    0.00   0.00   0.00
sda               0.00     0.00    0.00    0.00     0.00     0.00     0.00     0.00    0.00    0.00    0.00   0.00   0.00
sdc               0.00     0.00  214.00    0.00   856.00     0.00     8.00     5.53   25.72   25.72    0.00   4.20  89.80
sdb               0.00     0.00  175.00    0.00   700.00     0.00     8.00     2.48   14.02   14.02    0.00   4.16  72.80
sdd               0.00     0.00  206.00    0.00   824.00     0.00     8.00     4.98   30.73   30.73    0.00   4.65  95.80
md0               0.00     0.00  597.00    0.00  2388.00     0.00     8.00     0.00    0.00    0.00    0.00   0.00   0.00

avg-cpu:  %user   %nice %system %iowait  %steal   %idle
           0.00    0.00    0.09   34.92    0.00   64.99

Device:         rrqm/s   wrqm/s     r/s     w/s    rkB/s    wkB/s avgrq-sz avgqu-sz   await r_await w_await  svctm  %util
nvme0n1           0.00     0.00    0.00    0.00     0.00     0.00     0.00     0.00    0.00    0.00    0.00   0.00   0.00
sda               0.00     0.00    0.00    0.00     0.00     0.00     0.00     0.00    0.00    0.00    0.00   0.00   0.00
sdc               0.00     0.00  184.00    0.00   736.00     0.00     8.00     3.25   17.84   17.84    0.00   4.61  84.80
sdb               0.00     0.00  209.00    0.00   836.00     0.00     8.00     6.26   30.25   30.25    0.00   4.56  95.30
sdd               0.00     0.00  199.00    0.00   796.00     0.00     8.00     4.21   21.52   21.52    0.00   4.58  91.10
md0               0.00     0.00  577.00    0.00  2308.00     0.00     8.00     0.00    0.00    0.00    0.00   0.00   0.00

avg-cpu:  %user   %nice %system %iowait  %steal   %idle
           0.00    0.00    0.06   39.43    0.00   60.51

Device:         rrqm/s   wrqm/s     r/s     w/s    rkB/s    wkB/s avgrq-sz avgqu-sz   await r_await w_await  svctm  %util
nvme0n1           0.00     0.00    0.00    0.00     0.00     0.00     0.00     0.00    0.00    0.00    0.00   0.00   0.00
sda               0.00     0.00    0.00    0.00     0.00     0.00     0.00     0.00    0.00    0.00    0.00   0.00   0.00
sdc               0.00     0.00  235.00    0.00   940.00     0.00     8.00     6.85   29.02   29.02    0.00   4.17  98.10
sdb               0.00     0.00  215.00    0.00   860.00     0.00     8.00     4.84   22.44   22.44    0.00   4.20  90.40
sdd               0.00     0.00  195.00    0.00   780.00     0.00     8.00     3.67   16.51   16.51    0.00   4.40  85.80
md0               0.00     0.00  660.00    0.00  2640.00     0.00     8.00     0.00    0.00    0.00    0.00   0.00   0.00

avg-cpu:  %user   %nice %system %iowait  %steal   %idle
           0.00    0.00    0.03   35.64    0.00   64.33

Device:         rrqm/s   wrqm/s     r/s     w/s    rkB/s    wkB/s avgrq-sz avgqu-sz   await r_await w_await  svctm  %util
nvme0n1           0.00     0.00    0.00    0.00     0.00     0.00     0.00     0.00    0.00    0.00    0.00   0.00   0.00
sda               0.00     1.00    0.00    2.00     0.00    12.00    12.00     0.00    0.00    0.00    0.00   0.00   0.00
sdc               0.00     0.00  213.00    0.00   852.00     0.00     8.00     5.53   25.49   25.49    0.00   4.13  87.90
sdb               0.00     0.00  182.00    0.00   728.00     0.00     8.00     1.88    9.98    9.98    0.00   4.01  73.00
sdd               0.00     0.00  202.00    0.00   808.00     0.00     8.00     6.23   32.19   32.19    0.00   4.86  98.10
md0               0.00     0.00  597.00    0.00  2388.00     0.00     8.00     0.00    0.00    0.00    0.00   0.00   0.00

avg-cpu:  %user   %nice %system %iowait  %steal   %idle
           0.00    0.00    0.06   40.68    0.00   59.26

Device:         rrqm/s   wrqm/s     r/s     w/s    rkB/s    wkB/s avgrq-sz avgqu-sz   await r_await w_await  svctm  %util
nvme0n1           0.00     0.00    0.00    0.00     0.00     0.00     0.00     0.00    0.00    0.00    0.00   0.00   0.00
sda               0.00     0.00    0.00    0.00     0.00     0.00     0.00     0.00    0.00    0.00    0.00   0.00   0.00
sdc               0.00     0.00  203.00    0.00   812.00     0.00     8.00     4.37   20.00   20.00    0.00   4.62  93.80
sdb               0.00     0.00  197.00    0.00   788.00     0.00     8.00     4.36   22.49   22.49    0.00   4.88  96.20
sdd               0.00     0.00  217.00    0.00   868.00     0.00     8.00     7.22   33.96   33.96    0.00   4.61 100.00
md0               0.00     0.00  616.00    0.00  2464.00     0.00     8.00     0.00    0.00    0.00    0.00   0.00   0.00

avg-cpu:  %user   %nice %system %iowait  %steal   %idle
           0.00    0.00    0.06   34.89    0.00   65.05

Device:         rrqm/s   wrqm/s     r/s     w/s    rkB/s    wkB/s avgrq-sz avgqu-sz   await r_await w_await  svctm  %util
nvme0n1           0.00     0.00    0.00    0.00     0.00     0.00     0.00     0.00    0.00    0.00    0.00   0.00   0.00
sda               0.00     0.00    0.00    0.00     0.00     0.00     0.00     0.00    0.00    0.00    0.00   0.00   0.00
sdc               0.00     0.00  209.00    0.00   836.00     0.00     8.00     3.93   20.87   20.87    0.00   4.14  86.60
sdb               0.00     0.00  189.00    0.00   756.00     0.00     8.00     5.01   26.30   26.30    0.00   4.27  80.70
sdd               0.00     0.00  210.00    0.00   840.00     0.00     8.00     4.46   19.81   19.81    0.00   3.98  83.50
md0               0.00     0.00  609.00    0.00  2436.00     0.00     8.00     0.00    0.00    0.00    0.00   0.00   0.00

avg-cpu:  %user   %nice %system %iowait  %steal   %idle
           0.03    0.00    0.06   33.90    0.00   66.01

Device:         rrqm/s   wrqm/s     r/s     w/s    rkB/s    wkB/s avgrq-sz avgqu-sz   await r_await w_await  svctm  %util
nvme0n1           0.00     0.00    0.00    0.00     0.00     0.00     0.00     0.00    0.00    0.00    0.00   0.00   0.00
sda               0.00     0.00    0.00    0.00     0.00     0.00     0.00     0.00    0.00    0.00    0.00   0.00   0.00
sdc               0.00     0.00  193.00    0.00   772.00     0.00     8.00     2.52   13.08   13.08    0.00   4.44  85.70
sdb               0.00     0.00  211.00    0.00   844.00     0.00     8.00     5.39   25.61   25.61    0.00   4.64  97.90
sdd               0.00     0.00  217.00    0.00   868.00     0.00     8.00     5.59   27.24   27.24    0.00   4.40  95.40
md0               0.00     0.00  621.00    0.00  2484.00     0.00     8.00     0.00    0.00    0.00    0.00   0.00   0.00

avg-cpu:  %user   %nice %system %iowait  %steal   %idle
           0.00    0.00    0.09   40.58    0.00   59.33

Device:         rrqm/s   wrqm/s     r/s     w/s    rkB/s    wkB/s avgrq-sz avgqu-sz   await r_await w_await  svctm  %util
nvme0n1           0.00     0.00    0.00    0.00     0.00     0.00     0.00     0.00    0.00    0.00    0.00   0.00   0.00
sda               0.00     0.00    0.00    0.00     0.00     0.00     0.00     0.00    0.00    0.00    0.00   0.00   0.00
sdc               0.00     0.00  210.00    0.00   840.00     0.00     8.00     3.86   18.27   18.27    0.00   4.12  86.50
sdb               0.00     0.00  239.00    0.00   956.00     0.00     8.00     6.66   27.16   27.16    0.00   4.18 100.00
sdd               0.00     0.00  228.00    0.00   912.00     0.00     8.00     5.44   23.52   23.52    0.00   4.22  96.20
md0               0.00     0.00  677.00    0.00  2708.00     0.00     8.00     0.00    0.00    0.00    0.00   0.00   0.00

avg-cpu:  %user   %nice %system %iowait  %steal   %idle
           0.00    0.00    0.06   37.24    0.00   62.70

Device:         rrqm/s   wrqm/s     r/s     w/s    rkB/s    wkB/s avgrq-sz avgqu-sz   await r_await w_await  svctm  %util
nvme0n1           0.00     0.00    0.00    0.00     0.00     0.00     0.00     0.00    0.00    0.00    0.00   0.00   0.00
sda               0.00     7.00    0.00   14.00     0.00   100.00    14.29     0.00    0.07    0.00    0.07   0.07   0.10
sdc               0.00     0.00  185.00    0.00   740.00     0.00     8.00     3.54   19.09   19.09    0.00   4.84  89.60
sdb               0.00     0.00  211.00    0.00   844.00     0.00     8.00     5.86   27.13   27.13    0.00   4.52  95.30
sdd               0.00     0.00  202.00    0.00   808.00     0.00     8.00     5.01   24.99   24.99    0.00   4.60  92.90
md0               0.00     0.00  598.00    0.00  2392.00     0.00     8.00     0.00    0.00    0.00    0.00   0.00   0.00

avg-cpu:  %user   %nice %system %iowait  %steal   %idle
           0.00    0.00    0.09   38.92    0.00   60.99

Device:         rrqm/s   wrqm/s     r/s     w/s    rkB/s    wkB/s avgrq-sz avgqu-sz   await r_await w_await  svctm  %util
nvme0n1           0.00     0.00    0.00    0.00     0.00     0.00     0.00     0.00    0.00    0.00    0.00   0.00   0.00
sda               0.00     0.00    0.00    0.00     0.00     0.00     0.00     0.00    0.00    0.00    0.00   0.00   0.00
sdc               0.00     0.00  233.00    0.00   932.00     0.00     8.00     6.81   28.70   28.70    0.00   4.29 100.00
sdb               0.00     0.00  208.00    0.00   832.00     0.00     8.00     4.69   24.02   24.02    0.00   4.70  97.70
sdd               0.00     0.00  196.00    0.00   784.00     0.00     8.00     3.99   20.51   20.51    0.00   4.86  95.20
md0               0.00     0.00  634.00    0.00  2536.00     0.00     8.00     0.00    0.00    0.00    0.00   0.00   0.00

avg-cpu:  %user   %nice %system %iowait  %steal   %idle
           0.00    0.00    0.03   36.86    0.00   63.11

Device:         rrqm/s   wrqm/s     r/s     w/s    rkB/s    wkB/s avgrq-sz avgqu-sz   await r_await w_await  svctm  %util
nvme0n1           0.00     0.00    0.00    0.00     0.00     0.00     0.00     0.00    0.00    0.00    0.00   0.00   0.00
sda               0.00     0.00    0.00    0.00     0.00     0.00     0.00     0.00    0.00    0.00    0.00   0.00   0.00
sdc               0.00     0.00  233.00    0.00   932.00     0.00     8.00     6.18   26.85   26.85    0.00   4.27  99.60
sdb               0.00     0.00  213.00    0.00   852.00     0.00     8.00     3.73   16.38   16.38    0.00   4.28  91.10
sdd               0.00     0.00  208.00    0.00   832.00     0.00     8.00     4.53   21.90   21.90    0.00   4.40  91.60
md0               0.00     0.00  657.00    0.00  2628.00     0.00     8.00     0.00    0.00    0.00    0.00   0.00   0.00

avg-cpu:  %user   %nice %system %iowait  %steal   %idle
           0.03    0.00    0.06   36.86    0.00   63.05

Device:         rrqm/s   wrqm/s     r/s     w/s    rkB/s    wkB/s avgrq-sz avgqu-sz   await r_await w_await  svctm  %util
nvme0n1           0.00     0.00    0.00    0.00     0.00     0.00     0.00     0.00    0.00    0.00    0.00   0.00   0.00
sda               0.00     0.00    0.00    0.00     0.00     0.00     0.00     0.00    0.00    0.00    0.00   0.00   0.00
sdc               0.00     0.00  219.00    0.00   876.00     0.00     8.00     4.59   21.29   21.29    0.00   4.37  95.60
sdb               0.00     0.00  227.00    0.00   908.00     0.00     8.00     5.34   22.52   22.52    0.00   4.17  94.70
sdd               0.00     0.00  218.00    0.00   872.00     0.00     8.00     4.48   20.27   20.27    0.00   4.27  93.00
md0               0.00     0.00  664.00    0.00  2656.00     0.00     8.00     0.00    0.00    0.00    0.00   0.00   0.00

avg-cpu:  %user   %nice %system %iowait  %steal   %idle
           0.00    0.00    0.03   40.88    0.00   59.09

Device:         rrqm/s   wrqm/s     r/s     w/s    rkB/s    wkB/s avgrq-sz avgqu-sz   await r_await w_await  svctm  %util
nvme0n1           0.00     0.00    0.00    0.00     0.00     0.00     0.00     0.00    0.00    0.00    0.00   0.00   0.00
sda               0.00     0.00    0.00    0.00     0.00     0.00     0.00     0.00    0.00    0.00    0.00   0.00   0.00
sdc               0.00     0.00  201.00    0.00   804.00     0.00     8.00     4.23   21.07   21.07    0.00   4.64  93.20
sdb               0.00     0.00  210.00    0.00   840.00     0.00     8.00     3.21   16.50   16.50    0.00   4.24  89.00
sdd               0.00     0.00  248.00    0.00   992.00     0.00     8.00     8.55   34.04   34.04    0.00   4.04 100.10
md0               0.00     0.00  659.00    0.00  2636.00     0.00     8.00     0.00    0.00    0.00    0.00   0.00   0.00

avg-cpu:  %user   %nice %system %iowait  %steal   %idle
           0.00    0.00    0.13   35.26    0.00   64.61

Device:         rrqm/s   wrqm/s     r/s     w/s    rkB/s    wkB/s avgrq-sz avgqu-sz   await r_await w_await  svctm  %util
nvme0n1           0.00     0.00    0.00    0.00     0.00     0.00     0.00     0.00    0.00    0.00    0.00   0.00   0.00
sda               0.00     6.00    0.00    2.00     0.00    32.00    32.00     0.00    0.00    0.00    0.00   0.00   0.00
sdc               0.00     0.00  222.00    0.00   888.00     0.00     8.00     4.62   20.36   20.36    0.00   4.21  93.40
sdb               0.00     0.00  209.00    0.00   836.00     0.00     8.00     4.38   21.07   21.07    0.00   4.46  93.30
sdd               0.00     0.00  195.00    0.00   780.00     0.00     8.00     4.92   25.76   25.76    0.00   4.83  94.10
md0               0.00     0.00  626.00    0.00  2504.00     0.00     8.00     0.00    0.00    0.00    0.00   0.00   0.00

avg-cpu:  %user   %nice %system %iowait  %steal   %idle
           0.00    0.00    0.06   37.49    0.00   62.45

Device:         rrqm/s   wrqm/s     r/s     w/s    rkB/s    wkB/s avgrq-sz avgqu-sz   await r_await w_await  svctm  %util
nvme0n1           0.00     0.00    0.00    0.00     0.00     0.00     0.00     0.00    0.00    0.00    0.00   0.00   0.00
sda               0.00     0.00    0.00    0.00     0.00     0.00     0.00     0.00    0.00    0.00    0.00   0.00   0.00
sdc               0.00     0.00  178.00    0.00   712.00     0.00     8.00     4.94   28.37   28.37    0.00   5.37  95.50
sdb               0.00     0.00  211.00    0.00   844.00     0.00     8.00     5.17   25.44   25.44    0.00   4.67  98.60
sdd               0.00     0.00  191.00    0.00   764.00     0.00     8.00     4.57   24.24   24.24    0.00   5.16  98.50
md0               0.00     0.00  568.00    0.00  2272.00     0.00     8.00     0.00    0.00    0.00    0.00   0.00   0.00

