Linux 4.17.2 (bench2) 	08/04/2018 	_x86_64_	(32 CPU)

avg-cpu:  %user   %nice %system %iowait  %steal   %idle
           1.90    0.00    1.55    1.60    0.00   94.96

Device:         rrqm/s   wrqm/s     r/s     w/s    rkB/s    wkB/s avgrq-sz avgqu-sz   await r_await w_await  svctm  %util
nvme0n1         933.04     5.07 18809.75  517.89 105213.89 11679.98    12.10     1.34    0.05    0.03    0.67   0.02  39.38
sda               0.12     0.82   14.17    0.58   164.01     8.56    23.40     0.00    0.33    0.32    0.44   0.07   0.10
sdc              34.55     0.17  121.55    0.31  1838.28    97.20    31.76     0.10    0.85   12.44  381.84   0.91  11.06
sdb              32.53     0.19  123.54    0.33  1836.33    97.03    31.22     0.53    4.31    3.21  413.03   0.85  10.51
sdd              34.75     0.17  121.10    0.26  1834.33    96.70    31.82     0.85    6.98    5.05  909.23   0.91  11.06
md0               0.00     0.00  470.85    1.21  6835.10   350.66    30.44     0.00    0.00    0.00    0.00   0.00   0.00

avg-cpu:  %user   %nice %system %iowait  %steal   %idle
           0.05    0.00    0.46    2.63    0.00   96.86

Device:         rrqm/s   wrqm/s     r/s     w/s    rkB/s    wkB/s avgrq-sz avgqu-sz   await r_await w_await  svctm  %util
nvme0n1           0.00     0.00    0.00    0.00     0.00     0.00     0.00     0.00    0.00    0.00    0.00   0.00   0.00
sda               0.00     0.90    1.05    0.45     6.00     6.20    16.27     0.00    0.20    0.24    0.11   0.07   0.01
sdc               0.00     0.00 1936.40    0.00  7746.80     0.00     8.00     0.30    0.15    0.15    0.00   0.15  29.62
sdb               0.00     0.00 1888.20    0.00  7552.80     0.00     8.00     0.29    0.15    0.15    0.00   0.15  29.02
sdd               0.00     0.00 1899.95    0.00  7599.80     0.00     8.00     0.29    0.15    0.15    0.00   0.15  29.36
md0               0.00     0.00 5724.55    0.00 22898.80     0.00     8.00     0.00    0.00    0.00    0.00   0.00   0.00

