Linux 4.17.2 (bench2) 	08/04/2018 	_x86_64_	(32 CPU)

avg-cpu:  %user   %nice %system %iowait  %steal   %idle
           1.90    0.00    1.54    1.61    0.00   94.95

Device:         rrqm/s   wrqm/s     r/s     w/s    rkB/s    wkB/s avgrq-sz avgqu-sz   await r_await w_await  svctm  %util
nvme0n1         930.29     5.05 18754.24  516.36 104903.42 11645.51    12.10     1.33    0.05    0.03    0.67   0.02  39.26
sda               0.12     0.82   14.17    0.58   164.04     8.56    23.40     0.00    0.33    0.32    0.44   0.07   0.10
sdc              34.66     0.17  123.61    0.31  1852.80    96.92    31.47     0.11    0.91   12.26  381.84   0.90  11.16
sdb              32.64     0.19  125.59    0.33  1850.85    96.74    30.93     0.54    4.29    3.22  413.03   0.84  10.61
sdd              34.85     0.17  123.16    0.26  1848.85    96.42    31.52     0.85    6.92    5.02  909.23   0.91  11.17
md0               0.00     0.00  477.32    1.20  6884.08   349.62    30.23     0.00    0.00    0.00    0.00   0.00   0.00

avg-cpu:  %user   %nice %system %iowait  %steal   %idle
           0.06    0.00    0.28    0.47    0.00   99.19

Device:         rrqm/s   wrqm/s     r/s     w/s    rkB/s    wkB/s avgrq-sz avgqu-sz   await r_await w_await  svctm  %util
nvme0n1           0.00     0.00    0.00    0.00     0.00     0.00     0.00     0.00    0.00    0.00    0.00   0.00   0.00
sda               0.00     0.00    3.96    0.00   102.97     0.00    52.00     0.00    0.00    0.00    0.00   0.00   0.00
sdc               0.00     0.00 2205.94    0.00  8823.76     0.00     8.00     1.64    0.75    0.75    0.00   0.10  22.48
sdb               0.00     0.00 2309.90    0.00  9239.60     0.00     8.00     2.27    0.98    0.98    0.00   0.13  29.31
sdd               0.00     0.00 2328.71    0.00  9314.85     0.00     8.00     5.13    2.20    2.20    0.00   0.31  71.78
md0               0.00     0.00 6849.50    0.00 27398.02     0.00     8.00     0.00    0.00    0.00    0.00   0.00   0.00

avg-cpu:  %user   %nice %system %iowait  %steal   %idle
           0.03    0.00    0.34    0.50    0.00   99.12

Device:         rrqm/s   wrqm/s     r/s     w/s    rkB/s    wkB/s avgrq-sz avgqu-sz   await r_await w_await  svctm  %util
nvme0n1           0.00     0.00    0.00    0.00     0.00     0.00     0.00     0.00    0.00    0.00    0.00   0.00   0.00
sda               0.00    12.00    0.00    2.00     0.00    56.00    56.00     0.00    0.00    0.00    0.00   0.00   0.00
sdc               0.00     0.00 2343.00    0.00  9372.00     0.00     8.00     2.48    1.06    1.06    0.00   0.14  33.80
sdb               0.00     0.00 2340.00    0.00  9360.00     0.00     8.00     1.93    0.83    0.83    0.00   0.10  22.80
sdd               0.00     0.00 2484.00    0.00  9936.00     0.00     8.00     4.88    1.96    1.96    0.00   0.27  68.00
md0               0.00     0.00 7171.00    0.00 28684.00     0.00     8.00     0.00    0.00    0.00    0.00   0.00   0.00

avg-cpu:  %user   %nice %system %iowait  %steal   %idle
           0.00    0.00    0.31    0.44    0.00   99.25

Device:         rrqm/s   wrqm/s     r/s     w/s    rkB/s    wkB/s avgrq-sz avgqu-sz   await r_await w_await  svctm  %util
nvme0n1           0.00     0.00    0.00    0.00     0.00     0.00     0.00     0.00    0.00    0.00    0.00   0.00   0.00
sda               0.00     0.00    0.00    0.00     0.00     0.00     0.00     0.00    0.00    0.00    0.00   0.00   0.00
sdc               0.00     0.00 2501.00    0.00 10004.00     0.00     8.00     1.99    0.80    0.80    0.00   0.10  24.50
sdb               0.00     0.00 2303.00    0.00  9212.00     0.00     8.00     1.86    0.81    0.81    0.00   0.10  22.40
sdd               0.00     0.00 2287.00    0.00  9148.00     0.00     8.00     4.82    2.11    2.11    0.00   0.34  78.90
md0               0.00     0.00 7100.00    0.00 28400.00     0.00     8.00     0.00    0.00    0.00    0.00   0.00   0.00

avg-cpu:  %user   %nice %system %iowait  %steal   %idle
           0.06    0.00    0.38    0.44    0.00   99.12

Device:         rrqm/s   wrqm/s     r/s     w/s    rkB/s    wkB/s avgrq-sz avgqu-sz   await r_await w_await  svctm  %util
nvme0n1           0.00     0.00    0.00    0.00     0.00     0.00     0.00     0.00    0.00    0.00    0.00   0.00   0.00
sda               0.00     0.00    0.00    0.00     0.00     0.00     0.00     0.00    0.00    0.00    0.00   0.00   0.00
sdc               0.00     0.00 2717.00    0.00 10868.00     0.00     8.00     3.49    1.29    1.29    0.00   0.16  42.20
sdb               0.00     0.00 2883.00    0.00 11532.00     0.00     8.00     2.67    0.93    0.93    0.00   0.10  27.50
sdd               0.00     0.00 2718.00    0.00 10872.00     0.00     8.00     4.58    1.69    1.69    0.00   0.23  61.20
md0               0.00     0.00 8324.00    0.00 33296.00     0.00     8.00     0.00    0.00    0.00    0.00   0.00   0.00

avg-cpu:  %user   %nice %system %iowait  %steal   %idle
           0.00    0.00    0.28    0.47    0.00   99.25

Device:         rrqm/s   wrqm/s     r/s     w/s    rkB/s    wkB/s avgrq-sz avgqu-sz   await r_await w_await  svctm  %util
nvme0n1           0.00     0.00    0.00    0.00     0.00     0.00     0.00     0.00    0.00    0.00    0.00   0.00   0.00
sda               0.00     0.00    0.00    0.00     0.00     0.00     0.00     0.00    0.00    0.00    0.00   0.00   0.00
sdc               0.00     0.00 2835.00    0.00 11340.00     0.00     8.00     3.44    1.21    1.21    0.00   0.14  41.10
sdb               0.00     0.00 2770.00    0.00 11080.00     0.00     8.00     2.58    0.93    0.93    0.00   0.09  26.10
sdd               0.00     0.00 2813.00    0.00 11252.00     0.00     8.00     4.85    1.73    1.73    0.00   0.23  64.60
md0               0.00     0.00 8406.00    0.00 33624.00     0.00     8.00     0.00    0.00    0.00    0.00   0.00   0.00

avg-cpu:  %user   %nice %system %iowait  %steal   %idle
           0.03    0.00    0.34    0.44    0.00   99.19

Device:         rrqm/s   wrqm/s     r/s     w/s    rkB/s    wkB/s avgrq-sz avgqu-sz   await r_await w_await  svctm  %util
nvme0n1           0.00     0.00    0.00    0.00     0.00     0.00     0.00     0.00    0.00    0.00    0.00   0.00   0.00
sda               0.00     2.00    1.00    3.00     4.00    20.00    12.00     0.00    0.00    0.00    0.00   0.00   0.00
sdc               0.00     0.00 2830.00    0.00 11320.00     0.00     8.00     3.28    1.16    1.16    0.00   0.15  41.70
sdb               0.00     0.00 2744.00    0.00 10976.00     0.00     8.00     5.12    1.87    1.87    0.00   0.25  68.80
sdd               0.00     0.00 2771.00    0.00 11084.00     0.00     8.00     2.50    0.90    0.90    0.00   0.10  28.40
md0               0.00     0.00 8352.00    0.00 33408.00     0.00     8.00     0.00    0.00    0.00    0.00   0.00   0.00

avg-cpu:  %user   %nice %system %iowait  %steal   %idle
           0.03    0.00    0.38    0.50    0.00   99.09

Device:         rrqm/s   wrqm/s     r/s     w/s    rkB/s    wkB/s avgrq-sz avgqu-sz   await r_await w_await  svctm  %util
nvme0n1           0.00     0.00    0.00    0.00     0.00     0.00     0.00     0.00    0.00    0.00    0.00   0.00   0.00
sda               0.00     6.00    0.00    2.00     0.00    32.00    32.00     0.00    0.50    0.00    0.50   0.50   0.10
sdc               0.00     0.00 2890.00    0.00 11560.00     0.00     8.00     4.18    1.44    1.44    0.00   0.17  50.10
sdb               0.00     0.00 2733.00    0.00 10932.00     0.00     8.00     2.43    0.89    0.89    0.00   0.10  27.30
sdd               0.00     0.00 2779.00    0.00 11116.00     0.00     8.00     4.21    1.52    1.52    0.00   0.19  52.10
md0               0.00     0.00 8390.00    0.00 33560.00     0.00     8.00     0.00    0.00    0.00    0.00   0.00   0.00

avg-cpu:  %user   %nice %system %iowait  %steal   %idle
           0.03    0.00    0.38    0.44    0.00   99.16

Device:         rrqm/s   wrqm/s     r/s     w/s    rkB/s    wkB/s avgrq-sz avgqu-sz   await r_await w_await  svctm  %util
nvme0n1           0.00     0.00    0.00    0.00     0.00     0.00     0.00     0.00    0.00    0.00    0.00   0.00   0.00
sda               0.00     0.00    0.00    0.00     0.00     0.00     0.00     0.00    0.00    0.00    0.00   0.00   0.00
sdc               0.00     0.00 2790.00    0.00 11160.00     0.00     8.00     2.92    1.05    1.05    0.00   0.12  33.90
sdb               0.00     0.00 2717.00    0.00 10868.00     0.00     8.00     2.43    0.90    0.90    0.00   0.10  26.90
sdd               0.00     0.00 2760.00    0.00 11040.00     0.00     8.00     5.36    1.94    1.94    0.00   0.26  70.50
md0               0.00     0.00 8281.00    0.00 33124.00     0.00     8.00     0.00    0.00    0.00    0.00   0.00   0.00

avg-cpu:  %user   %nice %system %iowait  %steal   %idle
           0.03    0.00    0.31    0.44    0.00   99.22

Device:         rrqm/s   wrqm/s     r/s     w/s    rkB/s    wkB/s avgrq-sz avgqu-sz   await r_await w_await  svctm  %util
nvme0n1           0.00     0.00    0.00    0.00     0.00     0.00     0.00     0.00    0.00    0.00    0.00   0.00   0.00
sda               0.00     0.00    0.00    0.00     0.00     0.00     0.00     0.00    0.00    0.00    0.00   0.00   0.00
sdc               0.00     0.00 2835.00    0.00 11340.00     0.00     8.00     2.85    1.01    1.01    0.00   0.11  31.20
sdb               0.00     0.00 2812.00    0.00 11248.00     0.00     8.00     2.48    0.88    0.88    0.00   0.09  26.50
sdd               0.00     0.00 2820.00    0.00 11280.00     0.00     8.00     5.48    1.95    1.95    0.00   0.25  71.80
md0               0.00     0.00 8464.00    0.00 33856.00     0.00     8.00     0.00    0.00    0.00    0.00   0.00   0.00

avg-cpu:  %user   %nice %system %iowait  %steal   %idle
           0.03    0.00    0.22    0.47    0.00   99.28

Device:         rrqm/s   wrqm/s     r/s     w/s    rkB/s    wkB/s avgrq-sz avgqu-sz   await r_await w_await  svctm  %util
nvme0n1           0.00     0.00    0.00    0.00     0.00     0.00     0.00     0.00    0.00    0.00    0.00   0.00   0.00
sda               0.00     0.00    0.00    0.00     0.00     0.00     0.00     0.00    0.00    0.00    0.00   0.00   0.00
sdc               0.00     0.00 2025.00    0.00  8100.00     0.00     8.00     2.00    0.99    0.99    0.00   0.13  27.30
sdb               0.00     0.00 2138.00    0.00  8552.00     0.00     8.00     1.65    0.77    0.77    0.00   0.11  22.70
sdd               0.00     0.00 2003.00    0.00  8012.00     0.00     8.00     4.26    2.12    2.12    0.00   0.37  75.00
md0               0.00     0.00 6154.00    0.00 24616.00     0.00     8.00     0.00    0.00    0.00    0.00   0.00   0.00

avg-cpu:  %user   %nice %system %iowait  %steal   %idle
           0.03    0.00    0.25    0.44    0.00   99.28

Device:         rrqm/s   wrqm/s     r/s     w/s    rkB/s    wkB/s avgrq-sz avgqu-sz   await r_await w_await  svctm  %util
nvme0n1           0.00     0.00    0.00    0.00     0.00     0.00     0.00     0.00    0.00    0.00    0.00   0.00   0.00
sda               0.00     5.00    1.00   21.00     4.00   144.00    13.45     0.00    0.00    0.00    0.00   0.00   0.00
sdc               0.00     0.00 2018.00    0.00  8072.00     0.00     8.00     2.12    1.05    1.05    0.00   0.16  32.90
sdb               0.00     0.00 2133.00    0.00  8532.00     0.00     8.00     1.46    0.68    0.68    0.00   0.10  21.50
sdd               0.00     0.00 2051.00    0.00  8204.00     0.00     8.00     4.00    1.95    1.95    0.00   0.34  69.90
md0               0.00     0.00 6214.00    0.00 24856.00     0.00     8.00     0.00    0.00    0.00    0.00   0.00   0.00

avg-cpu:  %user   %nice %system %iowait  %steal   %idle
           0.03    0.00    0.31    0.47    0.00   99.19

Device:         rrqm/s   wrqm/s     r/s     w/s    rkB/s    wkB/s avgrq-sz avgqu-sz   await r_await w_await  svctm  %util
nvme0n1           0.00     0.00    0.00    0.00     0.00     0.00     0.00     0.00    0.00    0.00    0.00   0.00   0.00
sda               0.00     6.00    0.00    2.00     0.00    32.00    32.00     0.00    0.00    0.00    0.00   0.00   0.00
sdc               0.00     0.00 1998.00    0.00  7992.00     0.00     8.00     1.46    0.73    0.73    0.00   0.10  20.10
sdb               0.00     0.00 2045.00    0.00  8180.00     0.00     8.00     1.43    0.70    0.70    0.00   0.10  19.60
sdd               0.00     0.00 2085.00    0.00  8340.00     0.00     8.00     4.83    2.31    2.31    0.00   0.39  80.80
md0               0.00     0.00 6114.00    0.00 24456.00     0.00     8.00     0.00    0.00    0.00    0.00   0.00   0.00

avg-cpu:  %user   %nice %system %iowait  %steal   %idle
           0.03    0.00    0.28    0.47    0.00   99.22

Device:         rrqm/s   wrqm/s     r/s     w/s    rkB/s    wkB/s avgrq-sz avgqu-sz   await r_await w_await  svctm  %util
nvme0n1           0.00     0.00    0.00    0.00     0.00     0.00     0.00     0.00    0.00    0.00    0.00   0.00   0.00
sda               0.00     0.00    0.00    0.00     0.00     0.00     0.00     0.00    0.00    0.00    0.00   0.00   0.00
sdc               0.00     0.00 2465.00    0.00  9860.00     0.00     8.00     2.85    1.15    1.15    0.00   0.17  41.40
sdb               0.00     0.00 2311.00    0.00  9244.00     0.00     8.00     1.85    0.80    0.80    0.00   0.10  22.90
sdd               0.00     0.00 2426.00    0.00  9704.00     0.00     8.00     4.20    1.73    1.73    0.00   0.26  62.20
md0               0.00     0.00 7201.00    0.00 28804.00     0.00     8.00     0.00    0.00    0.00    0.00   0.00   0.00

avg-cpu:  %user   %nice %system %iowait  %steal   %idle
           0.03    0.00    0.28    0.44    0.00   99.25

Device:         rrqm/s   wrqm/s     r/s     w/s    rkB/s    wkB/s avgrq-sz avgqu-sz   await r_await w_await  svctm  %util
nvme0n1           0.00     0.00    0.00    0.00     0.00     0.00     0.00     0.00    0.00    0.00    0.00   0.00   0.00
sda               0.00     0.00    0.00    0.00     0.00     0.00     0.00     0.00    0.00    0.00    0.00   0.00   0.00
sdc               0.00     0.00 2533.00    0.00 10132.00     0.00     8.00     2.06    0.81    0.81    0.00   0.10  24.10
sdb               0.00     0.00 2361.00    0.00  9444.00     0.00     8.00     1.99    0.84    0.84    0.00   0.11  26.30
sdd               0.00     0.00 2467.00    0.00  9868.00     0.00     8.00     5.04    2.05    2.05    0.00   0.31  76.50
md0               0.00     0.00 7370.00    0.00 29480.00     0.00     8.00     0.00    0.00    0.00    0.00   0.00   0.00

avg-cpu:  %user   %nice %system %iowait  %steal   %idle
           0.06    0.00    0.28    0.47    0.00   99.19

Device:         rrqm/s   wrqm/s     r/s     w/s    rkB/s    wkB/s avgrq-sz avgqu-sz   await r_await w_await  svctm  %util
nvme0n1           0.00     0.00    0.00    0.00     0.00     0.00     0.00     0.00    0.00    0.00    0.00   0.00   0.00
sda               0.00     0.00    0.00    0.00     0.00     0.00     0.00     0.00    0.00    0.00    0.00   0.00   0.00
sdc               0.00     0.00 2385.00    0.00  9540.00     0.00     8.00     1.89    0.80    0.80    0.00   0.10  23.50
sdb               0.00     0.00 2452.00    0.00  9808.00     0.00     8.00     5.20    2.12    2.12    0.00   0.32  77.40
sdd               0.00     0.00 2432.00    0.00  9728.00     0.00     8.00     2.09    0.85    0.85    0.00   0.11  26.00
md0               0.00     0.00 7263.00    0.00 29052.00     0.00     8.00     0.00    0.00    0.00    0.00   0.00   0.00

avg-cpu:  %user   %nice %system %iowait  %steal   %idle
           0.03    0.00    0.31    0.44    0.00   99.22

Device:         rrqm/s   wrqm/s     r/s     w/s    rkB/s    wkB/s avgrq-sz avgqu-sz   await r_await w_await  svctm  %util
nvme0n1           0.00     0.00    0.00    0.00     0.00     0.00     0.00     0.00    0.00    0.00    0.00   0.00   0.00
sda               0.00     0.00    0.00    0.00     0.00     0.00     0.00     0.00    0.00    0.00    0.00   0.00   0.00
sdc               0.00     0.00 2365.00    0.00  9460.00     0.00     8.00     2.62    1.11    1.11    0.00   0.15  34.70
sdb               0.00     0.00 2339.00    0.00  9356.00     0.00     8.00     1.78    0.76    0.76    0.00   0.10  22.90
sdd               0.00     0.00 2375.00    0.00  9500.00     0.00     8.00     4.34    1.84    1.84    0.00   0.28  67.40
md0               0.00     0.00 7074.00    0.00 28296.00     0.00     8.00     0.00    0.00    0.00    0.00   0.00   0.00

avg-cpu:  %user   %nice %system %iowait  %steal   %idle
           0.03    0.00    0.31    0.47    0.00   99.19

Device:         rrqm/s   wrqm/s     r/s     w/s    rkB/s    wkB/s avgrq-sz avgqu-sz   await r_await w_await  svctm  %util
nvme0n1           0.00     0.00    0.00    0.00     0.00     0.00     0.00     0.00    0.00    0.00    0.00   0.00   0.00
sda               0.00     1.00    0.00    2.00     0.00    12.00    12.00     0.00    0.00    0.00    0.00   0.00   0.00
sdc               0.00     0.00 2376.00    0.00  9504.00     0.00     8.00     2.13    0.90    0.90    0.00   0.12  29.70
sdb               0.00     0.00 2403.00    0.00  9612.00     0.00     8.00     2.07    0.86    0.86    0.00   0.10  25.20
sdd               0.00     0.00 2344.00    0.00  9376.00     0.00     8.00     4.84    2.07    2.07    0.00   0.31  73.40
md0               0.00     0.00 7131.00    0.00 28524.00     0.00     8.00     0.00    0.00    0.00    0.00   0.00   0.00

avg-cpu:  %user   %nice %system %iowait  %steal   %idle
           0.03    0.00    0.28    0.47    0.00   99.22

Device:         rrqm/s   wrqm/s     r/s     w/s    rkB/s    wkB/s avgrq-sz avgqu-sz   await r_await w_await  svctm  %util
nvme0n1           0.00     0.00    0.00    0.00     0.00     0.00     0.00     0.00    0.00    0.00    0.00   0.00   0.00
sda               0.00     0.00    0.00    0.00     0.00     0.00     0.00     0.00    0.00    0.00    0.00   0.00   0.00
sdc               0.00     0.00 2337.00    0.00  9348.00     0.00     8.00     1.75    0.75    0.75    0.00   0.10  22.50
sdb               0.00     0.00 2346.00    0.00  9384.00     0.00     8.00     1.81    0.77    0.77    0.00   0.10  23.40
sdd               0.00     0.00 2342.00    0.00  9368.00     0.00     8.00     5.18    2.21    2.21    0.00   0.34  80.50
md0               0.00     0.00 7029.00    0.00 28116.00     0.00     8.00     0.00    0.00    0.00    0.00   0.00   0.00

avg-cpu:  %user   %nice %system %iowait  %steal   %idle
           0.03    0.00    0.34    0.50    0.00   99.12

Device:         rrqm/s   wrqm/s     r/s     w/s    rkB/s    wkB/s avgrq-sz avgqu-sz   await r_await w_await  svctm  %util
nvme0n1           0.00     0.00    0.00    0.00     0.00     0.00     0.00     0.00    0.00    0.00    0.00   0.00   0.00
sda               0.00     0.00    0.00    0.00     0.00     0.00     0.00     0.00    0.00    0.00    0.00   0.00   0.00
sdc               0.00     0.00 1866.00    0.00  7464.00     0.00     8.00     2.07    1.11    1.11    0.00   0.17  31.00
sdb               0.00     0.00 1882.00    0.00  7528.00     0.00     8.00     1.41    0.76    0.76    0.00   0.12  22.20
sdd               0.00     0.00 1878.00    0.00  7516.00     0.00     8.00     3.86    2.05    2.05    0.00   0.37  69.70
md0               0.00     0.00 5617.00    0.00 22468.00     0.00     8.00     0.00    0.00    0.00    0.00   0.00   0.00

avg-cpu:  %user   %nice %system %iowait  %steal   %idle
           0.00    0.00    0.34    0.47    0.00   99.19

Device:         rrqm/s   wrqm/s     r/s     w/s    rkB/s    wkB/s avgrq-sz avgqu-sz   await r_await w_await  svctm  %util
nvme0n1           0.00     0.00    0.00    0.00     0.00     0.00     0.00     0.00    0.00    0.00    0.00   0.00   0.00
sda               0.00     0.00    0.00    0.00     0.00     0.00     0.00     0.00    0.00    0.00    0.00   0.00   0.00
sdc               0.00     0.00 1727.00    0.00  6908.00     0.00     8.00     2.13    1.24    1.24    0.00   0.25  42.60
sdb               0.00     0.00 1763.00    0.00  7052.00     0.00     8.00     1.13    0.64    0.64    0.00   0.10  17.50
sdd               0.00     0.00 1745.00    0.00  6976.00     0.00     8.00     3.04    1.75    1.75    0.00   0.34  60.10
md0               0.00     0.00 5236.00    0.00 20944.00     0.00     8.00     0.00    0.00    0.00    0.00   0.00   0.00

