Linux 4.17.2 (bench2) 	08/04/2018 	_x86_64_	(32 CPU)

avg-cpu:  %user   %nice %system %iowait  %steal   %idle
           1.89    0.00    1.53    1.65    0.00   94.94

Device:         rrqm/s   wrqm/s     r/s     w/s    rkB/s    wkB/s avgrq-sz avgqu-sz   await r_await w_await  svctm  %util
nvme0n1         920.08     5.00 18548.36  510.69 103751.80 11517.67    12.10     1.32    0.05    0.03    0.67   0.02  38.83
sda               0.12     0.82   14.20    0.59   164.14     8.57    23.36     0.00    0.33    0.32    0.43   0.07   0.10
sdc              35.32     0.17  130.36    0.31  1928.60    95.85    30.99     0.19    1.46    0.57  381.84   0.89  11.59
sdb              33.32     0.18  132.32    0.33  1926.73    95.68    30.49     0.61    4.63    3.62  413.03   0.83  11.04
sdd              35.51     0.16  129.91    0.26  1924.75    95.36    31.04     0.93    7.13    5.35  909.23   0.89  11.63
md0               0.00     0.00  499.53    1.19  7159.90   345.79    29.98     0.00    0.00    0.00    0.00   0.00   0.00

avg-cpu:  %user   %nice %system %iowait  %steal   %idle
           0.01    0.00    0.08   43.75    0.00   56.17

Device:         rrqm/s   wrqm/s     r/s     w/s    rkB/s    wkB/s avgrq-sz avgqu-sz   await r_await w_await  svctm  %util
nvme0n1           0.00     0.00    0.00    0.00     0.00     0.00     0.00     0.00    0.00    0.00    0.00   0.00   0.00
sda               0.00     0.70    0.20    0.50     5.20     5.60    30.86     0.00    0.21    0.25    0.20   0.21   0.01
sdc               0.00     0.00  201.10    0.00   877.00     0.00     8.72     8.16   40.45   40.45    0.00   4.71  94.80
sdb               0.00     0.00  206.75    0.00   916.20     0.00     8.86     8.57   41.26   41.26    0.00   4.53  93.57
sdd               0.00     0.00  209.50    0.00   915.80     0.00     8.74     9.84   46.86   46.86    0.00   4.63  97.09
md0               0.00     0.00  618.95    0.00  2727.20     0.00     8.81     0.00    0.00    0.00    0.00   0.00   0.00

