Linux 4.17.2 (bench2) 	08/04/2018 	_x86_64_	(32 CPU)

avg-cpu:  %user   %nice %system %iowait  %steal   %idle
           1.90    0.00    1.55    1.60    0.00   94.95

Device:         rrqm/s   wrqm/s     r/s     w/s    rkB/s    wkB/s avgrq-sz avgqu-sz   await r_await w_await  svctm  %util
nvme0n1         931.65     5.06 18781.78  517.12 105057.47 11662.61    12.10     1.34    0.05    0.03    0.67   0.02  39.32
sda               0.12     0.82   14.17    0.58   164.03     8.56    23.40     0.00    0.33    0.32    0.44   0.07   0.10
sdc              34.66     0.17  122.71    0.31  1841.52    97.06    31.52     0.11    0.89   12.35  381.84   0.90  11.11
sdb              32.64     0.19  124.69    0.33  1839.56    96.88    30.98     0.54    4.30    3.22  413.03   0.84  10.56
sdd              34.86     0.17  122.25    0.26  1837.57    96.56    31.57     0.85    6.95    5.04  909.23   0.91  11.11
md0               0.00     0.00  474.63    1.20  6842.84   350.14    30.23     0.00    0.00    0.00    0.00   0.00   0.00

avg-cpu:  %user   %nice %system %iowait  %steal   %idle
           0.00    0.00    0.13   43.72    0.00   56.15

Device:         rrqm/s   wrqm/s     r/s     w/s    rkB/s    wkB/s avgrq-sz avgqu-sz   await r_await w_await  svctm  %util
nvme0n1           0.00     0.00    0.00    0.00     0.00     0.00     0.00     0.00    0.00    0.00    0.00   0.00   0.00
sda               0.00     0.00    3.00    0.00    52.00     0.00    34.67     0.00    0.33    0.33    0.00   0.00   0.00
sdc               0.00     0.00  594.00    0.00  2400.00     0.00     8.08     7.80   13.01   13.01    0.00   1.65  97.90
sdb               0.00     0.00  572.00    0.00  2288.00     0.00     8.00     9.24   16.14   16.14    0.00   1.60  91.60
sdd               0.00     0.00  608.00    0.00  2432.00     0.00     8.00     8.72   14.20   14.20    0.00   1.40  85.30
md0               0.00     0.00 1791.00    0.00  7176.00     0.00     8.01     0.00    0.00    0.00    0.00   0.00   0.00

avg-cpu:  %user   %nice %system %iowait  %steal   %idle
           0.03    0.00    0.16   42.47    0.00   57.34

Device:         rrqm/s   wrqm/s     r/s     w/s    rkB/s    wkB/s avgrq-sz avgqu-sz   await r_await w_await  svctm  %util
nvme0n1           0.00     0.00    0.00    0.00     0.00     0.00     0.00     0.00    0.00    0.00    0.00   0.00   0.00
sda               0.00     0.00    0.00    0.00     0.00     0.00     0.00     0.00    0.00    0.00    0.00   0.00   0.00
sdc               0.00     0.00  544.00    0.00  2176.00     0.00     8.00     6.08   10.80   10.80    0.00   1.56  85.10
sdb               0.00     0.00  611.00    0.00  2444.00     0.00     8.00     8.21   13.42   13.42    0.00   1.40  85.60
sdd               0.00     0.00  573.00    0.00  2292.00     0.00     8.00     9.29   14.89   14.89    0.00   1.46  83.60
md0               0.00     0.00 1741.00    0.00  6964.00     0.00     8.00     0.00    0.00    0.00    0.00   0.00   0.00

avg-cpu:  %user   %nice %system %iowait  %steal   %idle
           0.00    0.00    0.19   40.11    0.00   59.70

Device:         rrqm/s   wrqm/s     r/s     w/s    rkB/s    wkB/s avgrq-sz avgqu-sz   await r_await w_await  svctm  %util
nvme0n1           0.00     0.00    0.00    0.00     0.00     0.00     0.00     0.00    0.00    0.00    0.00   0.00   0.00
sda               0.00     0.00    0.00    0.00     0.00     0.00     0.00     0.00    0.00    0.00    0.00   0.00   0.00
sdc               0.00     0.00  543.00    0.00  2172.00     0.00     8.00     9.14   16.39   16.39    0.00   1.77  95.90
sdb               0.00     0.00  604.00    0.00  2416.00     0.00     8.00     7.27   11.97   11.97    0.00   1.35  81.40
sdd               0.00     0.00  624.00    0.00  2496.00     0.00     8.00     5.62    9.88    9.88    0.00   1.29  80.40
md0               0.00     0.00 1773.00    0.00  7092.00     0.00     8.00     0.00    0.00    0.00    0.00   0.00   0.00

avg-cpu:  %user   %nice %system %iowait  %steal   %idle
           0.00    0.00    0.16   43.98    0.00   55.86

Device:         rrqm/s   wrqm/s     r/s     w/s    rkB/s    wkB/s avgrq-sz avgqu-sz   await r_await w_await  svctm  %util
nvme0n1           0.00     0.00    0.00    0.00     0.00     0.00     0.00     0.00    0.00    0.00    0.00   0.00   0.00
sda               0.00    21.00    0.00    2.00     0.00    92.00    92.00     0.00    0.00    0.00    0.00   0.00   0.00
sdc               0.00     0.00  575.00    0.00  2300.00     0.00     8.00    10.61   19.15   19.15    0.00   1.71  98.50
sdb               0.00     0.00  637.00    0.00  2548.00     0.00     8.00     5.89    9.35    9.35    0.00   1.26  80.40
sdd               0.00     0.00  642.00    0.00  2568.00     0.00     8.00     7.97   12.88   12.88    0.00   1.43  91.50
md0               0.00     0.00 1829.00    0.00  7316.00     0.00     8.00     0.00    0.00    0.00    0.00   0.00   0.00

avg-cpu:  %user   %nice %system %iowait  %steal   %idle
           0.00    0.00    0.16   46.53    0.00   53.32

Device:         rrqm/s   wrqm/s     r/s     w/s    rkB/s    wkB/s avgrq-sz avgqu-sz   await r_await w_await  svctm  %util
nvme0n1           0.00     0.00    0.00    0.00     0.00     0.00     0.00     0.00    0.00    0.00    0.00   0.00   0.00
sda               0.00     0.00    0.00    0.00     0.00     0.00     0.00     0.00    0.00    0.00    0.00   0.00   0.00
sdc               0.00     0.00  491.00    0.00  1964.00     0.00     8.00     7.73   13.40   13.40    0.00   1.44  70.50
sdb               0.00     0.00  489.00    0.00  1956.00     0.00     8.00     9.37   17.31   17.31    0.00   1.94  95.00
sdd               0.00     0.00  573.00    0.00  2292.00     0.00     8.00     8.52   14.86   14.86    0.00   1.36  77.90
md0               0.00     0.00 1571.00    0.00  6284.00     0.00     8.00     0.00    0.00    0.00    0.00   0.00   0.00

avg-cpu:  %user   %nice %system %iowait  %steal   %idle
           0.03    0.00    0.13   40.20    0.00   59.64

Device:         rrqm/s   wrqm/s     r/s     w/s    rkB/s    wkB/s avgrq-sz avgqu-sz   await r_await w_await  svctm  %util
nvme0n1           0.00     0.00    0.00    0.00     0.00     0.00     0.00     0.00    0.00    0.00    0.00   0.00   0.00
sda               0.00     0.00    0.00    0.00     0.00     0.00     0.00     0.00    0.00    0.00    0.00   0.00   0.00
sdc               0.00     0.00  603.00    0.00  2412.00     0.00     8.00    10.82   18.72   18.72    0.00   1.48  89.30
sdb               0.00     0.00  540.00    0.00  2160.00     0.00     8.00     6.14   12.29   12.29    0.00   1.36  73.40
sdd               0.00     0.00  500.00    0.00  2000.00     0.00     8.00     4.31    7.90    7.90    0.00   1.62  81.20
md0               0.00     0.00 1649.00    0.00  6596.00     0.00     8.00     0.00    0.00    0.00    0.00   0.00   0.00

avg-cpu:  %user   %nice %system %iowait  %steal   %idle
           0.00    0.00    0.25   38.40    0.00   61.35

Device:         rrqm/s   wrqm/s     r/s     w/s    rkB/s    wkB/s avgrq-sz avgqu-sz   await r_await w_await  svctm  %util
nvme0n1           0.00     0.00    0.00    0.00     0.00     0.00     0.00     0.00    0.00    0.00    0.00   0.00   0.00
sda               0.00     0.00    0.00    0.00     0.00     0.00     0.00     0.00    0.00    0.00    0.00   0.00   0.00
sdc               0.00     0.00  641.00    0.00  2564.00     0.00     8.00     9.57   16.08   16.08    0.00   1.48  94.60
sdb               0.00     0.00  673.00    0.00  2692.00     0.00     8.00     6.08    9.65    9.65    0.00   1.22  82.00
sdd               0.00     0.00  630.00    0.00  2520.00     0.00     8.00     7.78   12.91   12.91    0.00   1.44  90.70
md0               0.00     0.00 1914.00    0.00  7656.00     0.00     8.00     0.00    0.00    0.00    0.00   0.00   0.00

avg-cpu:  %user   %nice %system %iowait  %steal   %idle
           0.00    0.00    0.19   44.23    0.00   55.59

Device:         rrqm/s   wrqm/s     r/s     w/s    rkB/s    wkB/s avgrq-sz avgqu-sz   await r_await w_await  svctm  %util
nvme0n1           0.00     0.00    0.00    0.00     0.00     0.00     0.00     0.00    0.00    0.00    0.00   0.00   0.00
sda               0.00     6.00    1.00   19.00     4.00   124.00    12.80     0.00    0.00    0.00    0.00   0.00   0.00
sdc               0.00     0.00  615.00    0.00  2460.00     0.00     8.00     9.86   15.91   15.91    0.00   1.58  97.40
sdb               0.00     0.00  638.00    0.00  2552.00     0.00     8.00     6.29    9.86    9.86    0.00   1.44  92.10
sdd               0.00     0.00  561.00    0.00  2244.00     0.00     8.00    10.07   16.90   16.90    0.00   1.75  97.90
md0               0.00     0.00 1832.00    0.00  7328.00     0.00     8.00     0.00    0.00    0.00    0.00   0.00   0.00

avg-cpu:  %user   %nice %system %iowait  %steal   %idle
           0.00    0.00    0.28   41.85    0.00   57.87

Device:         rrqm/s   wrqm/s     r/s     w/s    rkB/s    wkB/s avgrq-sz avgqu-sz   await r_await w_await  svctm  %util
nvme0n1           0.00     0.00    0.00    0.00     0.00     0.00     0.00     0.00    0.00    0.00    0.00   0.00   0.00
sda               0.00     5.00    0.00    2.00     0.00    28.00    28.00     0.00    0.00    0.00    0.00   0.00   0.00
sdc               0.00     0.00  580.00    0.00  2320.00     0.00     8.00    10.10   15.84   15.84    0.00   1.50  86.80
sdb               0.00     0.00  554.00    0.00  2216.00     0.00     8.00     6.55   11.38   11.38    0.00   1.54  85.20
sdd               0.00     0.00  554.00    0.00  2216.00     0.00     8.00     7.71   14.02   14.02    0.00   1.65  91.60
md0               0.00     0.00 1697.00    0.00  6788.00     0.00     8.00     0.00    0.00    0.00    0.00   0.00   0.00

avg-cpu:  %user   %nice %system %iowait  %steal   %idle
           0.00    0.00    0.16   37.10    0.00   62.75

Device:         rrqm/s   wrqm/s     r/s     w/s    rkB/s    wkB/s avgrq-sz avgqu-sz   await r_await w_await  svctm  %util
nvme0n1           0.00     0.00    0.00    0.00     0.00     0.00     0.00     0.00    0.00    0.00    0.00   0.00   0.00
sda               0.00     0.00    0.00    0.00     0.00     0.00     0.00     0.00    0.00    0.00    0.00   0.00   0.00
sdc               0.00     0.00  520.00    0.00  2080.00     0.00     8.00     7.74   16.50   16.50    0.00   1.41  73.50
sdb               0.00     0.00  531.00    0.00  2124.00     0.00     8.00     4.22    8.42    8.42    0.00   1.27  67.70
sdd               0.00     0.00  517.00    0.00  2068.00     0.00     8.00    10.86   22.06   22.06    0.00   1.90  98.40
md0               0.00     0.00 1548.00    0.00  6192.00     0.00     8.00     0.00    0.00    0.00    0.00   0.00   0.00

avg-cpu:  %user   %nice %system %iowait  %steal   %idle
           0.03    0.00    0.22   41.78    0.00   57.97

Device:         rrqm/s   wrqm/s     r/s     w/s    rkB/s    wkB/s avgrq-sz avgqu-sz   await r_await w_await  svctm  %util
nvme0n1           0.00     0.00    0.00    0.00     0.00     0.00     0.00     0.00    0.00    0.00    0.00   0.00   0.00
sda               0.00     0.00    0.00    0.00     0.00     0.00     0.00     0.00    0.00    0.00    0.00   0.00   0.00
sdc               0.00     0.00  472.00    0.00  1888.00     0.00     8.00     8.78   18.10   18.10    0.00   1.81  85.20
sdb               0.00     0.00  502.00    0.00  2008.00     0.00     8.00     6.53   11.92   11.92    0.00   1.37  68.90
sdd               0.00     0.00  449.00    0.00  1796.00     0.00     8.00     7.98   16.56   16.56    0.00   2.23 100.00
md0               0.00     0.00 1444.00    0.00  5776.00     0.00     8.00     0.00    0.00    0.00    0.00   0.00   0.00

avg-cpu:  %user   %nice %system %iowait  %steal   %idle
           0.00    0.00    0.16   43.01    0.00   56.83

Device:         rrqm/s   wrqm/s     r/s     w/s    rkB/s    wkB/s avgrq-sz avgqu-sz   await r_await w_await  svctm  %util
nvme0n1           0.00     0.00    0.00    0.00     0.00     0.00     0.00     0.00    0.00    0.00    0.00   0.00   0.00
sda               0.00     0.00    0.00    0.00     0.00     0.00     0.00     0.00    0.00    0.00    0.00   0.00   0.00
sdc               0.00     0.00  477.00    0.00  1908.00     0.00     8.00     8.94   19.06   19.06    0.00   2.02  96.30
sdb               0.00     0.00  393.00    0.00  1572.00     0.00     8.00     5.94   15.92   15.92    0.00   2.08  81.90
sdd               0.00     0.00  486.00    0.00  1944.00     0.00     8.00     9.94   17.79   17.79    0.00   1.79  87.10
md0               0.00     0.00 1352.00    0.00  5408.00     0.00     8.00     0.00    0.00    0.00    0.00   0.00   0.00

avg-cpu:  %user   %nice %system %iowait  %steal   %idle
           0.00    0.00    0.19   37.03    0.00   62.79

Device:         rrqm/s   wrqm/s     r/s     w/s    rkB/s    wkB/s avgrq-sz avgqu-sz   await r_await w_await  svctm  %util
nvme0n1           0.00     0.00    0.00    0.00     0.00     0.00     0.00     0.00    0.00    0.00    0.00   0.00   0.00
sda               0.00     2.00    0.00    3.00     0.00    36.00    24.00     0.00    0.00    0.00    0.00   0.00   0.00
sdc               0.00     0.00  495.00    0.00  1980.00     0.00     8.00     7.41   14.68   14.68    0.00   1.92  95.00
sdb               0.00     0.00  508.00    0.00  2032.00     0.00     8.00     8.07   15.03   15.03    0.00   1.85  94.00
sdd               0.00     0.00  511.00    0.00  2044.00     0.00     8.00     7.67   17.46   17.46    0.00   1.62  82.90
md0               0.00     0.00 1520.00    0.00  6080.00     0.00     8.00     0.00    0.00    0.00    0.00   0.00   0.00

avg-cpu:  %user   %nice %system %iowait  %steal   %idle
           0.00    0.00    0.22   42.73    0.00   57.05

Device:         rrqm/s   wrqm/s     r/s     w/s    rkB/s    wkB/s avgrq-sz avgqu-sz   await r_await w_await  svctm  %util
nvme0n1           0.00     0.00    0.00    0.00     0.00     0.00     0.00     0.00    0.00    0.00    0.00   0.00   0.00
sda               0.00     3.00    0.00    2.00     0.00    20.00    20.00     0.00    0.50    0.00    0.50   0.50   0.10
sdc               0.00     0.00  558.00    0.00  2232.00     0.00     8.00     8.83   16.49   16.49    0.00   1.73  96.40
sdb               0.00     0.00  563.00    0.00  2252.00     0.00     8.00    10.83   19.68   19.68    0.00   1.74  97.70
sdd               0.00     0.00  641.00    0.00  2564.00     0.00     8.00     6.47   11.02   11.02    0.00   1.32  84.40
md0               0.00     0.00 1746.00    0.00  6984.00     0.00     8.00     0.00    0.00    0.00    0.00   0.00   0.00

avg-cpu:  %user   %nice %system %iowait  %steal   %idle
           0.00    0.00    0.19   41.06    0.00   58.75

Device:         rrqm/s   wrqm/s     r/s     w/s    rkB/s    wkB/s avgrq-sz avgqu-sz   await r_await w_await  svctm  %util
nvme0n1           0.00     0.00    0.00    0.00     0.00     0.00     0.00     0.00    0.00    0.00    0.00   0.00   0.00
sda               0.00     0.00    0.00    0.00     0.00     0.00     0.00     0.00    0.00    0.00    0.00   0.00   0.00
sdc               0.00     0.00  544.00    0.00  2176.00     0.00     8.00     8.92   16.18   16.18    0.00   1.76  95.80
sdb               0.00     0.00  570.00    0.00  2280.00     0.00     8.00    11.97   20.43   20.43    0.00   1.57  89.50
sdd               0.00     0.00  577.00    0.00  2308.00     0.00     8.00     4.19    7.20    7.20    0.00   1.28  73.80
md0               0.00     0.00 1705.00    0.00  6820.00     0.00     8.00     0.00    0.00    0.00    0.00   0.00   0.00

avg-cpu:  %user   %nice %system %iowait  %steal   %idle
           0.00    0.00    0.22   39.89    0.00   59.89

Device:         rrqm/s   wrqm/s     r/s     w/s    rkB/s    wkB/s avgrq-sz avgqu-sz   await r_await w_await  svctm  %util
nvme0n1           0.00     0.00    0.00    0.00     0.00     0.00     0.00     0.00    0.00    0.00    0.00   0.00   0.00
sda               0.00     0.00    0.00    0.00     0.00     0.00     0.00     0.00    0.00    0.00    0.00   0.00   0.00
sdc               0.00     0.00  570.00    0.00  2280.00     0.00     8.00     5.07    7.97    7.97    0.00   1.37  78.10
sdb               0.00     0.00  543.00    0.00  2172.00     0.00     8.00    10.15   19.05   19.05    0.00   1.77  96.10
sdd               0.00     0.00  530.00    0.00  2120.00     0.00     8.00     6.42   11.40   11.40    0.00   1.31  69.40
md0               0.00     0.00 1645.00    0.00  6580.00     0.00     8.00     0.00    0.00    0.00    0.00   0.00   0.00

avg-cpu:  %user   %nice %system %iowait  %steal   %idle
           0.00    0.00    0.25   37.38    0.00   62.37

Device:         rrqm/s   wrqm/s     r/s     w/s    rkB/s    wkB/s avgrq-sz avgqu-sz   await r_await w_await  svctm  %util
nvme0n1           0.00     0.00    0.00    0.00     0.00     0.00     0.00     0.00    0.00    0.00    0.00   0.00   0.00
sda               0.00     0.00    0.00    0.00     0.00     0.00     0.00     0.00    0.00    0.00    0.00   0.00   0.00
sdc               0.00     0.00  622.00    0.00  2488.00     0.00     8.00     6.62   11.67   11.67    0.00   1.41  87.80
sdb               0.00     0.00  624.00    0.00  2496.00     0.00     8.00    12.28   19.80   19.80    0.00   1.60  99.70
sdd               0.00     0.00  602.00    0.00  2408.00     0.00     8.00     4.89    8.82    8.82    0.00   1.32  79.30
md0               0.00     0.00 1826.00    0.00  7304.00     0.00     8.00     0.00    0.00    0.00    0.00   0.00   0.00

avg-cpu:  %user   %nice %system %iowait  %steal   %idle
           0.03    0.00    0.16   45.23    0.00   54.59

Device:         rrqm/s   wrqm/s     r/s     w/s    rkB/s    wkB/s avgrq-sz avgqu-sz   await r_await w_await  svctm  %util
nvme0n1           0.00     0.00    0.00    0.00     0.00     0.00     0.00     0.00    0.00    0.00    0.00   0.00   0.00
sda               0.00     0.00    0.00    0.00     0.00     0.00     0.00     0.00    0.00    0.00    0.00   0.00   0.00
sdc               0.00     0.00  604.00    0.00  2416.00     0.00     8.00    10.41   17.01   17.01    0.00   1.56  94.00
sdb               0.00     0.00  615.00    0.00  2460.00     0.00     8.00     5.21    9.04    9.04    0.00   1.24  76.20
sdd               0.00     0.00  467.00    0.00  1868.00     0.00     8.00    10.31   20.80   20.80    0.00   1.94  90.50
md0               0.00     0.00 1705.00    0.00  6820.00     0.00     8.00     0.00    0.00    0.00    0.00   0.00   0.00

avg-cpu:  %user   %nice %system %iowait  %steal   %idle
           0.00    0.00    0.16   34.77    0.00   65.07

Device:         rrqm/s   wrqm/s     r/s     w/s    rkB/s    wkB/s avgrq-sz avgqu-sz   await r_await w_await  svctm  %util
nvme0n1           0.00     0.00    0.00    0.00     0.00     0.00     0.00     0.00    0.00    0.00    0.00   0.00   0.00
sda               0.00     1.00    0.00    2.00     0.00    12.00    12.00     0.00    0.00    0.00    0.00   0.00   0.00
sdc               0.00     0.00  430.00    0.00  1720.00     0.00     8.00     2.83    6.48    6.48    0.00   1.21  52.20
sdb               0.00     0.00  519.00    0.00  2076.00     0.00     8.00     9.88   18.83   18.83    0.00   1.86  96.40
sdd               0.00     0.00  565.00    0.00  2260.00     0.00     8.00     8.13   15.04   15.04    0.00   1.20  68.00
md0               0.00     0.00 1517.00    0.00  6068.00     0.00     8.00     0.00    0.00    0.00    0.00   0.00   0.00

avg-cpu:  %user   %nice %system %iowait  %steal   %idle
           0.00    0.00    0.25   39.88    0.00   59.87

Device:         rrqm/s   wrqm/s     r/s     w/s    rkB/s    wkB/s avgrq-sz avgqu-sz   await r_await w_await  svctm  %util
nvme0n1           0.00     0.00    0.00    0.00     0.00     0.00     0.00     0.00    0.00    0.00    0.00   0.00   0.00
sda               0.00     0.00    0.00    0.00     0.00     0.00     0.00     0.00    0.00    0.00    0.00   0.00   0.00
sdc               0.00     0.00  609.00    0.00  2436.00     0.00     8.00    10.85   17.84   17.84    0.00   1.52  92.60
sdb               0.00     0.00  588.00    0.00  2352.00     0.00     8.00     6.08   10.57   10.57    0.00   1.42  83.40
sdd               0.00     0.00  587.00    0.00  2348.00     0.00     8.00     8.11   14.21   14.21    0.00   1.64  96.00
md0               0.00     0.00 1770.00    0.00  7080.00     0.00     8.00     0.00    0.00    0.00    0.00   0.00   0.00

