Linux 4.17.2 (bench2) 	08/04/2018 	_x86_64_	(32 CPU)

avg-cpu:  %user   %nice %system %iowait  %steal   %idle
           1.89    0.00    1.54    1.63    0.00   94.94

Device:         rrqm/s   wrqm/s     r/s     w/s    rkB/s    wkB/s avgrq-sz avgqu-sz   await r_await w_await  svctm  %util
nvme0n1         924.43     5.02 18636.16  513.11 104242.92 11572.19    12.10     1.33    0.05    0.03    0.67   0.02  39.01
sda               0.12     0.82   14.19    0.58   164.09     8.57    23.37     0.00    0.33    0.32    0.44   0.07   0.10
sdc              35.01     0.17  127.34    0.31  1896.89    96.31    31.23     0.16    1.27    0.35  381.84   0.89  11.41
sdb              33.00     0.18  129.31    0.33  1894.97    96.13    30.72     0.59    4.53    3.49  413.03   0.84  10.86
sdd              35.21     0.16  126.89    0.26  1893.00    95.81    31.28     0.90    7.09    5.26  909.23   0.90  11.44
md0               0.00     0.00  489.58    1.19  7045.69   347.42    30.13     0.00    0.00    0.00    0.00   0.00   0.00

avg-cpu:  %user   %nice %system %iowait  %steal   %idle
           0.03    0.00    0.06    0.13    0.00   99.78

Device:         rrqm/s   wrqm/s     r/s     w/s    rkB/s    wkB/s avgrq-sz avgqu-sz   await r_await w_await  svctm  %util
nvme0n1           0.00     0.00    0.00    0.00     0.00     0.00     0.00     0.00    0.00    0.00    0.00   0.00   0.00
sda               0.00     0.00    4.00    0.00   104.00     0.00    52.00     0.00    0.25    0.25    0.00   0.25   0.10
sdc            1481.00     0.00  359.00    0.00  7312.00     0.00    40.74    17.17   46.71   46.71    0.00   2.53  90.80
sdb            1270.00     0.00  372.00    0.00  6552.00     0.00    35.23    20.38   52.64   52.64    0.00   2.53  94.10
sdd            1292.00     0.00  391.00    0.00  6732.00     0.00    34.43    20.32   51.96   51.96    0.00   2.43  95.20
md0               0.00     0.00 5171.00    0.00 20684.00     0.00     8.00     0.00    0.00    0.00    0.00   0.00   0.00

avg-cpu:  %user   %nice %system %iowait  %steal   %idle
           0.00    0.00    0.06    0.06    0.00   99.87

Device:         rrqm/s   wrqm/s     r/s     w/s    rkB/s    wkB/s avgrq-sz avgqu-sz   await r_await w_await  svctm  %util
nvme0n1           0.00     0.00    0.00    0.00     0.00     0.00     0.00     0.00    0.00    0.00    0.00   0.00   0.00
sda               0.00     0.00    0.00    0.00     0.00     0.00     0.00     0.00    0.00    0.00    0.00   0.00   0.00
sdc            1263.00     0.00  367.00    0.00  6088.00     0.00    33.18    19.90   52.01   52.01    0.00   2.55  93.50
sdb            1267.00     0.00  378.00    0.00  6036.00     0.00    31.94    19.57   50.14   50.14    0.00   2.47  93.40
sdd            1330.00     0.00  356.00    0.00  5980.00     0.00    33.60    22.67   59.37   59.37    0.00   2.65  94.30
md0               0.00     0.00 5023.00    0.00 20092.00     0.00     8.00     0.00    0.00    0.00    0.00   0.00   0.00

avg-cpu:  %user   %nice %system %iowait  %steal   %idle
           0.00    0.00    0.03    0.06    0.00   99.91

Device:         rrqm/s   wrqm/s     r/s     w/s    rkB/s    wkB/s avgrq-sz avgqu-sz   await r_await w_await  svctm  %util
nvme0n1           0.00     0.00    0.00    0.00     0.00     0.00     0.00     0.00    0.00    0.00    0.00   0.00   0.00
sda               0.00     0.00    2.00    2.00     8.00    32.00    20.00     0.00    0.00    0.00    0.00   0.00   0.00
sdc            1331.00     0.00  332.00    0.00  6872.00     0.00    41.40    13.29   41.01   41.01    0.00   2.42  80.20
sdb            1107.00     0.00  317.00    0.00  5940.00     0.00    37.48    13.76   42.98   42.98    0.00   2.52  79.80
sdd            1266.00     0.00  333.00    0.00  6640.00     0.00    39.88    22.51   66.89   66.89    0.00   3.00  99.90
md0               0.00     0.00 4656.00    0.00 18624.00     0.00     8.00     0.00    0.00    0.00    0.00   0.00   0.00

avg-cpu:  %user   %nice %system %iowait  %steal   %idle
           0.00    0.00    0.03    0.03    0.00   99.94

Device:         rrqm/s   wrqm/s     r/s     w/s    rkB/s    wkB/s avgrq-sz avgqu-sz   await r_await w_await  svctm  %util
nvme0n1           0.00     0.00    0.00    0.00     0.00     0.00     0.00     0.00    0.00    0.00    0.00   0.00   0.00
sda               0.00     0.00    0.00    0.00     0.00     0.00     0.00     0.00    0.00    0.00    0.00   0.00   0.00
sdc            1248.00     0.00  332.00    0.00  6388.00     0.00    38.48    21.21   62.26   62.26    0.00   2.90  96.30
sdb            1162.00     0.00  334.00    0.00  6228.00     0.00    37.29    17.25   55.57   55.57    0.00   2.73  91.30
sdd            1219.00     0.00  353.00    0.00  6480.00     0.00    36.71    20.72   61.34   61.34    0.00   2.52  88.90
md0               0.00     0.00 4631.00    0.00 18524.00     0.00     8.00     0.00    0.00    0.00    0.00   0.00   0.00

avg-cpu:  %user   %nice %system %iowait  %steal   %idle
           0.03    0.00    0.09    0.03    0.00   99.84

Device:         rrqm/s   wrqm/s     r/s     w/s    rkB/s    wkB/s avgrq-sz avgqu-sz   await r_await w_await  svctm  %util
nvme0n1           0.00     0.00    0.00    0.00     0.00     0.00     0.00     0.00    0.00    0.00    0.00   0.00   0.00
sda               0.00    10.00    0.00    2.00     0.00    48.00    48.00     0.00    0.00    0.00    0.00   0.00   0.00
sdc            1277.00     0.00  356.00    0.00  6696.00     0.00    37.62    21.26   61.88   61.88    0.00   2.72  96.70
sdb            1328.00     0.00  353.00    0.00  6748.00     0.00    38.23    21.83   60.17   60.17    0.00   2.64  93.20
sdd             998.00     0.00  318.00    0.00  5584.00     0.00    35.12    21.08   68.39   68.39    0.00   2.67  85.00
md0               0.00     0.00 4619.00    0.00 18476.00     0.00     8.00     0.00    0.00    0.00    0.00   0.00   0.00

avg-cpu:  %user   %nice %system %iowait  %steal   %idle
           0.00    0.00    0.03    0.16    0.00   99.81

Device:         rrqm/s   wrqm/s     r/s     w/s    rkB/s    wkB/s avgrq-sz avgqu-sz   await r_await w_await  svctm  %util
nvme0n1           0.00     0.00    0.00    0.00     0.00     0.00     0.00     0.00    0.00    0.00    0.00   0.00   0.00
sda               0.00     0.00    0.00    0.00     0.00     0.00     0.00     0.00    0.00    0.00    0.00   0.00   0.00
sdc            1018.00     0.00  312.00    0.00  5180.00     0.00    33.21    16.45   50.01   50.01    0.00   2.73  85.30
sdb            1281.00     0.00  345.00    0.00  6552.00     0.00    37.98    19.73   59.58   59.58    0.00   2.62  90.40
sdd            1353.00     0.00  339.00    0.00  6776.00     0.00    39.98    18.05   53.74   53.74    0.00   2.44  82.70
md0               0.00     0.00 4646.00    0.00 18584.00     0.00     8.00     0.00    0.00    0.00    0.00   0.00   0.00

avg-cpu:  %user   %nice %system %iowait  %steal   %idle
           0.03    0.00    0.03    0.03    0.00   99.91

Device:         rrqm/s   wrqm/s     r/s     w/s    rkB/s    wkB/s avgrq-sz avgqu-sz   await r_await w_await  svctm  %util
nvme0n1           0.00     0.00    0.00    0.00     0.00     0.00     0.00     0.00    0.00    0.00    0.00   0.00   0.00
sda               0.00     0.00    0.00    0.00     0.00     0.00     0.00     0.00    0.00    0.00    0.00   0.00   0.00
sdc            1078.00     0.00  319.00    0.00  5152.00     0.00    32.30    22.64   69.78   69.78    0.00   3.00  95.60
sdb            1326.00     0.00  329.00    0.00  6376.00     0.00    38.76    22.31   62.42   62.42    0.00   2.83  93.20
sdd            1206.00     0.00  314.00    0.00  5724.00     0.00    36.46    21.91   63.78   63.78    0.00   2.95  92.60
md0               0.00     0.00 4614.00    0.00 18456.00     0.00     8.00     0.00    0.00    0.00    0.00   0.00   0.00

avg-cpu:  %user   %nice %system %iowait  %steal   %idle
           0.00    0.00    0.06    0.06    0.00   99.87

Device:         rrqm/s   wrqm/s     r/s     w/s    rkB/s    wkB/s avgrq-sz avgqu-sz   await r_await w_await  svctm  %util
nvme0n1           0.00     0.00    0.00    0.00     0.00     0.00     0.00     0.00    0.00    0.00    0.00   0.00   0.00
sda               0.00     1.00    0.00    1.00     0.00     8.00    16.00     0.00    0.00    0.00    0.00   0.00   0.00
sdc            1640.00     0.00  351.00    0.00  7680.00     0.00    43.76    14.59   46.69   46.69    0.00   2.36  82.90
sdb            1525.00     0.00  333.00    0.00  6568.00     0.00    39.45    14.79   49.49   49.49    0.00   2.48  82.60
sdd            1284.00     0.00  314.00    0.00  5928.00     0.00    37.76    19.50   67.87   67.87    0.00   3.18  99.80
md0               0.00     0.00 5604.00    0.00 22416.00     0.00     8.00     0.00    0.00    0.00    0.00   0.00   0.00

avg-cpu:  %user   %nice %system %iowait  %steal   %idle
           0.00    0.00    0.06    0.09    0.00   99.84

Device:         rrqm/s   wrqm/s     r/s     w/s    rkB/s    wkB/s avgrq-sz avgqu-sz   await r_await w_await  svctm  %util
nvme0n1           0.00     0.00    0.00    0.00     0.00     0.00     0.00     0.00    0.00    0.00    0.00   0.00   0.00
sda               0.00     0.00    0.00    0.00     0.00     0.00     0.00     0.00    0.00    0.00    0.00   0.00   0.00
sdc            1113.00     0.00  318.00    0.00  6100.00     0.00    38.36    15.47   42.67   42.67    0.00   2.76  87.90
sdb            1146.00     0.00  341.00    0.00  6556.00     0.00    38.45    16.32   43.45   43.45    0.00   2.56  87.40
sdd            1330.00     0.00  373.00    0.00  6960.00     0.00    37.32    25.33   65.04   65.04    0.00   2.68  99.80
md0               0.00     0.00 4521.00    0.00 18084.00     0.00     8.00     0.00    0.00    0.00    0.00   0.00   0.00

avg-cpu:  %user   %nice %system %iowait  %steal   %idle
           0.00    0.00    0.06    0.09    0.00   99.84

Device:         rrqm/s   wrqm/s     r/s     w/s    rkB/s    wkB/s avgrq-sz avgqu-sz   await r_await w_await  svctm  %util
nvme0n1           0.00     0.00    0.00    0.00     0.00     0.00     0.00     0.00    0.00    0.00    0.00   0.00   0.00
sda               0.00     3.00    0.00    2.00     0.00    20.00    20.00     0.00    0.00    0.00    0.00   0.00   0.00
sdc            1090.00     0.00  387.00    0.00  5936.00     0.00    30.68    19.40   53.78   53.78    0.00   1.94  75.10
sdb            1232.00     0.00  380.00    0.00  6004.00     0.00    31.60    21.03   57.95   57.95    0.00   2.21  83.90
sdd            1241.00     0.00  396.00    0.00  6416.00     0.00    32.40    20.05   52.33   52.33    0.00   2.15  85.10
md0               0.00     0.00 4716.00    0.00 18864.00     0.00     8.00     0.00    0.00    0.00    0.00   0.00   0.00

avg-cpu:  %user   %nice %system %iowait  %steal   %idle
           0.00    0.00    0.06    0.03    0.00   99.91

Device:         rrqm/s   wrqm/s     r/s     w/s    rkB/s    wkB/s avgrq-sz avgqu-sz   await r_await w_await  svctm  %util
nvme0n1           0.00     0.00    0.00    0.00     0.00     0.00     0.00     0.00    0.00    0.00    0.00   0.00   0.00
sda               0.00     0.00    0.00    0.00     0.00     0.00     0.00     0.00    0.00    0.00    0.00   0.00   0.00
sdc             926.00     0.00  331.00    0.00  5304.00     0.00    32.05    13.63   40.13   40.13    0.00   2.36  78.10
sdb            1196.00     0.00  379.00    0.00  6968.00     0.00    36.77    19.84   50.65   50.65    0.00   2.26  85.80
sdd             948.00     0.00  322.00    0.00  5376.00     0.00    33.39    21.53   62.25   62.25    0.00   3.10  99.90
md0               0.00     0.00 4045.00    0.00 16180.00     0.00     8.00     0.00    0.00    0.00    0.00   0.00   0.00

avg-cpu:  %user   %nice %system %iowait  %steal   %idle
           0.03    0.00    0.03    0.09    0.00   99.84

Device:         rrqm/s   wrqm/s     r/s     w/s    rkB/s    wkB/s avgrq-sz avgqu-sz   await r_await w_await  svctm  %util
nvme0n1           0.00     0.00    0.00    0.00     0.00     0.00     0.00     0.00    0.00    0.00    0.00   0.00   0.00
sda               0.00     0.00    0.00    0.00     0.00     0.00     0.00     0.00    0.00    0.00    0.00   0.00   0.00
sdc            1598.00     0.00  347.00    0.00  7352.00     0.00    42.37    15.78   47.46   47.46    0.00   2.28  79.10
sdb            1294.00     0.00  325.00    0.00  5452.00     0.00    33.55    13.68   44.86   44.86    0.00   2.55  82.80
sdd            1129.00     0.00  328.00    0.00  5736.00     0.00    34.98    19.81   65.60   65.60    0.00   3.04  99.60
md0               0.00     0.00 5156.00    0.00 20624.00     0.00     8.00     0.00    0.00    0.00    0.00   0.00   0.00

avg-cpu:  %user   %nice %system %iowait  %steal   %idle
           0.00    0.00    0.03    0.06    0.00   99.91

Device:         rrqm/s   wrqm/s     r/s     w/s    rkB/s    wkB/s avgrq-sz avgqu-sz   await r_await w_await  svctm  %util
nvme0n1           0.00     0.00    0.00    0.00     0.00     0.00     0.00     0.00    0.00    0.00    0.00   0.00   0.00
sda               0.00     2.00    0.00    1.00     0.00    28.00    56.00     0.00    0.00    0.00    0.00   0.00   0.00
sdc             879.00     0.00  302.00    0.00  5360.00     0.00    35.50    16.68   56.04   56.04    0.00   3.07  92.60
sdb             888.00     0.00  330.00    0.00  6172.00     0.00    37.41    15.90   49.20   49.20    0.00   2.59  85.50
sdd             956.00     0.00  313.00    0.00  5520.00     0.00    35.27    22.96   72.36   72.36    0.00   3.19  99.80
md0               0.00     0.00 3496.00    0.00 13984.00     0.00     8.00     0.00    0.00    0.00    0.00   0.00   0.00

avg-cpu:  %user   %nice %system %iowait  %steal   %idle
           0.00    0.00    0.06    0.06    0.00   99.87

Device:         rrqm/s   wrqm/s     r/s     w/s    rkB/s    wkB/s avgrq-sz avgqu-sz   await r_await w_await  svctm  %util
nvme0n1           0.00     0.00    0.00    0.00     0.00     0.00     0.00     0.00    0.00    0.00    0.00   0.00   0.00
sda               0.00     0.00    0.00    0.00     0.00     0.00     0.00     0.00    0.00    0.00    0.00   0.00   0.00
sdc            1315.00     0.00  362.00    0.00  6044.00     0.00    33.39    16.00   40.06   40.06    0.00   2.35  85.10
sdb            1215.00     0.00  352.00    0.00  5824.00     0.00    33.09    20.47   53.92   53.92    0.00   2.65  93.20
sdd            1476.00     0.00  378.00    0.00  6872.00     0.00    36.36    22.35   56.19   56.19    0.00   2.55  96.40
md0               0.00     0.00 5170.00    0.00 20680.00     0.00     8.00     0.00    0.00    0.00    0.00   0.00   0.00

avg-cpu:  %user   %nice %system %iowait  %steal   %idle
           0.00    0.00    0.03    0.03    0.00   99.94

Device:         rrqm/s   wrqm/s     r/s     w/s    rkB/s    wkB/s avgrq-sz avgqu-sz   await r_await w_await  svctm  %util
nvme0n1           0.00     0.00    0.00    0.00     0.00     0.00     0.00     0.00    0.00    0.00    0.00   0.00   0.00
sda               0.00     3.00    0.00    2.00     0.00    20.00    20.00     0.00    0.50    0.00    0.50   0.50   0.10
sdc            1531.00     0.00  375.00    0.00  7340.00     0.00    39.15    17.74   46.04   46.04    0.00   2.05  76.70
sdb            1375.00     0.00  385.00    0.00  6728.00     0.00    34.95    20.43   52.99   52.99    0.00   2.42  93.00
sdd            1185.00     0.00  383.00    0.00  6548.00     0.00    34.19    17.42   45.44   45.44    0.00   2.43  93.10
md0               0.00     0.00 5251.00    0.00 21004.00     0.00     8.00     0.00    0.00    0.00    0.00   0.00   0.00

avg-cpu:  %user   %nice %system %iowait  %steal   %idle
           0.00    0.00    0.09    0.00    0.00   99.94

Device:         rrqm/s   wrqm/s     r/s     w/s    rkB/s    wkB/s avgrq-sz avgqu-sz   await r_await w_await  svctm  %util
nvme0n1           0.00     0.00    0.00    0.00     0.00     0.00     0.00     0.00    0.00    0.00    0.00   0.00   0.00
sda               0.00     0.00    0.00    0.00     0.00     0.00     0.00     0.00    0.00    0.00    0.00   0.00   0.00
sdc             878.00     0.00  306.00    0.00  5684.00     0.00    37.15    17.07   62.23   62.23    0.00   2.48  75.80
sdb             799.00     0.00  277.00    0.00  5060.00     0.00    36.53    15.84   62.66   62.66    0.00   3.14  87.10
sdd            1065.00     0.00  291.00    0.00  5628.00     0.00    38.68    22.80   77.74   77.74    0.00   3.43  99.80
md0               0.00     0.00 3533.00    0.00 14132.00     0.00     8.00     0.00    0.00    0.00    0.00   0.00   0.00

avg-cpu:  %user   %nice %system %iowait  %steal   %idle
           0.03    0.00    0.03    0.09    0.00   99.84

Device:         rrqm/s   wrqm/s     r/s     w/s    rkB/s    wkB/s avgrq-sz avgqu-sz   await r_await w_await  svctm  %util
nvme0n1           0.00     0.00    0.00    0.00     0.00     0.00     0.00     0.00    0.00    0.00    0.00   0.00   0.00
sda               0.00     0.00    0.00    0.00     0.00     0.00     0.00     0.00    0.00    0.00    0.00   0.00   0.00
sdc             971.00     0.00  314.00    0.00  5140.00     0.00    32.74    15.79   50.28   50.28    0.00   2.33  73.20
sdb            1049.00     0.00  323.00    0.00  5488.00     0.00    33.98    14.41   44.61   44.61    0.00   2.49  80.50
sdd            1172.00     0.00  333.00    0.00  5872.00     0.00    35.27    23.61   72.14   72.14    0.00   3.00  99.90
md0               0.00     0.00 4163.00    0.00 16652.00     0.00     8.00     0.00    0.00    0.00    0.00   0.00   0.00

avg-cpu:  %user   %nice %system %iowait  %steal   %idle
           0.00    0.00    0.03    0.00    0.00  100.00

Device:         rrqm/s   wrqm/s     r/s     w/s    rkB/s    wkB/s avgrq-sz avgqu-sz   await r_await w_await  svctm  %util
nvme0n1           0.00     0.00    0.00    0.00     0.00     0.00     0.00     0.00    0.00    0.00    0.00   0.00   0.00
sda               0.00     0.00    0.00    0.00     0.00     0.00     0.00     0.00    0.00    0.00    0.00   0.00   0.00
sdc            1100.00     0.00  322.00    0.00  5688.00     0.00    35.33    13.40   41.61   41.61    0.00   1.90  61.30
sdb            1145.00     0.00  326.00    0.00  5760.00     0.00    35.34    17.24   50.25   50.25    0.00   2.75  89.80
sdd             903.00     0.00  307.00    0.00  5208.00     0.00    33.93    21.92   76.12   76.12    0.00   3.13  96.00
md0               0.00     0.00 4098.00    0.00 16392.00     0.00     8.00     0.00    0.00    0.00    0.00   0.00   0.00

avg-cpu:  %user   %nice %system %iowait  %steal   %idle
           0.00    0.00    0.06    0.00    0.00  100.00

Device:         rrqm/s   wrqm/s     r/s     w/s    rkB/s    wkB/s avgrq-sz avgqu-sz   await r_await w_await  svctm  %util
nvme0n1           0.00     0.00    0.00    0.00     0.00     0.00     0.00     0.00    0.00    0.00    0.00   0.00   0.00
sda               0.00     0.00    0.00    0.00     0.00     0.00     0.00     0.00    0.00    0.00    0.00   0.00   0.00
sdc             836.00     0.00  331.00    0.00  4668.00     0.00    28.21    14.00   42.30   42.30    0.00   1.82  60.10
sdb            1224.00     0.00  384.00    0.00  6356.00     0.00    33.10    21.58   54.75   54.75    0.00   2.56  98.20
sdd            1147.00     0.00  372.00    0.00  5692.00     0.00    30.60    20.89   52.01   52.01    0.00   2.33  86.80
md0               0.00     0.00 4312.00    0.00 17248.00     0.00     8.00     0.00    0.00    0.00    0.00   0.00   0.00

avg-cpu:  %user   %nice %system %iowait  %steal   %idle
           0.00    0.00    0.03    0.00    0.00  100.00

Device:         rrqm/s   wrqm/s     r/s     w/s    rkB/s    wkB/s avgrq-sz avgqu-sz   await r_await w_await  svctm  %util
nvme0n1           0.00     0.00    0.00    0.00     0.00     0.00     0.00     0.00    0.00    0.00    0.00   0.00   0.00
sda               0.00     1.00    0.00    2.00     0.00    12.00    12.00     0.00    0.50    0.00    0.50   0.50   0.10
sdc             983.00     0.00  318.00    0.00  5204.00     0.00    32.73    13.20   41.51   41.51    0.00   2.33  74.20
sdb             793.00     0.00  317.00    0.00  4640.00     0.00    29.27    15.02   51.86   51.86    0.00   2.34  74.10
sdd             889.00     0.00  306.00    0.00  5092.00     0.00    33.28    18.60   64.16   64.16    0.00   3.22  98.50
md0               0.00     0.00 3586.00    0.00 14344.00     0.00     8.00     0.00    0.00    0.00    0.00   0.00   0.00

