Linux 4.17.2 (bench2) 	08/04/2018 	_x86_64_	(32 CPU)

avg-cpu:  %user   %nice %system %iowait  %steal   %idle
           1.89    0.00    1.54    1.61    0.00   94.95

Device:         rrqm/s   wrqm/s     r/s     w/s    rkB/s    wkB/s avgrq-sz avgqu-sz   await r_await w_await  svctm  %util
nvme0n1         928.75     5.04 18723.21  515.51 104729.82 11626.24    12.10     1.33    0.05    0.03    0.67   0.02  39.19
sda               0.12     0.82   14.18    0.58   164.05     8.56    23.39     0.00    0.33    0.32    0.44   0.07   0.10
sdc              34.74     0.17  124.46    0.31  1867.44    96.76    31.49     0.13    1.08    0.14  381.84   0.90  11.24
sdb              32.72     0.19  126.43    0.33  1865.51    96.58    30.96     0.56    4.43    3.37  413.03   0.84  10.69
sdd              34.93     0.17  124.00    0.26  1863.50    96.26    31.54     0.88    7.05    5.17  909.23   0.91  11.25
md0               0.00     0.00  480.09    1.20  6939.30   349.05    30.29     0.00    0.00    0.00    0.00   0.00   0.00

avg-cpu:  %user   %nice %system %iowait  %steal   %idle
           0.00    0.00    0.16   16.11    0.00   83.73

Device:         rrqm/s   wrqm/s     r/s     w/s    rkB/s    wkB/s avgrq-sz avgqu-sz   await r_await w_await  svctm  %util
nvme0n1           0.00     0.00    0.00    0.00     0.00     0.00     0.00     0.00    0.00    0.00    0.00   0.00   0.00
sda               0.00     0.00   27.00    0.00   196.00     0.00    14.52     0.00    0.07    0.07    0.00   0.07   0.20
sdc               0.00     0.00  542.00    0.00 14992.00     0.00    55.32     5.16    9.53    9.53    0.00   1.23  66.50
sdb               5.00     0.00  583.00    0.00 16248.00     0.00    55.74     9.95   17.01   17.01    0.00   1.45  84.80
sdd               4.00     0.00  606.00    0.00 14292.00     0.00    47.17     8.59   14.18   14.18    0.00   1.41  85.50
md0               0.00     0.00 1745.00    0.00 48972.00     0.00    56.13     0.00    0.00    0.00    0.00   0.00   0.00

avg-cpu:  %user   %nice %system %iowait  %steal   %idle
           0.03    0.00    0.19   16.57    0.00   83.21

Device:         rrqm/s   wrqm/s     r/s     w/s    rkB/s    wkB/s avgrq-sz avgqu-sz   await r_await w_await  svctm  %util
nvme0n1           0.00     0.00    0.00    0.00     0.00     0.00     0.00     0.00    0.00    0.00    0.00   0.00   0.00
sda               0.00    12.00    0.00    2.00     0.00    56.00    56.00     0.00    0.00    0.00    0.00   0.00   0.00
sdc               9.00     0.00  465.00    0.00 15076.00     0.00    64.84     3.67    7.89    7.89    0.00   1.53  71.10
sdb               7.00     0.00  451.00    0.00 15520.00     0.00    68.82     2.46    5.52    5.52    0.00   1.59  71.60
sdd               7.00     0.00  469.00    0.00 16340.00     0.00    69.68     4.78   10.19   10.19    0.00   1.81  85.10
md0               0.00     0.00 1405.00    0.00 58500.00     0.00    83.27     0.00    0.00    0.00    0.00   0.00   0.00

avg-cpu:  %user   %nice %system %iowait  %steal   %idle
           0.00    0.00    0.16   18.93    0.00   80.91

Device:         rrqm/s   wrqm/s     r/s     w/s    rkB/s    wkB/s avgrq-sz avgqu-sz   await r_await w_await  svctm  %util
nvme0n1           0.00     0.00    0.00    0.00     0.00     0.00     0.00     0.00    0.00    0.00    0.00   0.00   0.00
sda               0.00     0.00    0.00    0.00     0.00     0.00     0.00     0.00    0.00    0.00    0.00   0.00   0.00
sdc               8.00     0.00  461.00    0.00 14640.00     0.00    63.51     4.86    9.89    9.89    0.00   1.89  87.30
sdb               6.00     0.00  549.00    0.00 16164.00     0.00    58.89     2.18    3.97    3.97    0.00   0.92  50.40
sdd              11.00     0.00  513.00    0.00 15328.00     0.00    59.76     2.75    5.35    5.35    0.00   1.36  69.80
md0               0.00     0.00 1555.00    0.00 56648.00     0.00    72.86     0.00    0.00    0.00    0.00   0.00   0.00

avg-cpu:  %user   %nice %system %iowait  %steal   %idle
           0.00    0.00    0.09   18.38    0.00   81.52

Device:         rrqm/s   wrqm/s     r/s     w/s    rkB/s    wkB/s avgrq-sz avgqu-sz   await r_await w_await  svctm  %util
nvme0n1           0.00     0.00    0.00    0.00     0.00     0.00     0.00     0.00    0.00    0.00    0.00   0.00   0.00
sda               0.00     0.00    0.00    0.00     0.00     0.00     0.00     0.00    0.00    0.00    0.00   0.00   0.00
sdc               5.00     0.00  522.00    0.00 13716.00     0.00    52.55     4.95    9.95    9.95    0.00   1.68  87.70
sdb               3.00     0.00  515.00    0.00 12876.00     0.00    50.00     0.90    1.76    1.76    0.00   0.83  42.50
sdd               6.00     0.00  516.00    0.00 13052.00     0.00    50.59     2.63    4.94    4.94    0.00   1.36  70.20
md0               0.00     0.00 1568.00    0.00 45652.00     0.00    58.23     0.00    0.00    0.00    0.00   0.00   0.00

avg-cpu:  %user   %nice %system %iowait  %steal   %idle
           0.00    0.00    0.19   18.20    0.00   81.61

Device:         rrqm/s   wrqm/s     r/s     w/s    rkB/s    wkB/s avgrq-sz avgqu-sz   await r_await w_await  svctm  %util
nvme0n1           0.00     0.00    0.00    0.00     0.00     0.00     0.00     0.00    0.00    0.00    0.00   0.00   0.00
sda               0.00     0.00    0.00    0.00     0.00     0.00     0.00     0.00    0.00    0.00    0.00   0.00   0.00
sdc               7.00     0.00  480.00    0.00 13436.00     0.00    55.98     1.64    3.52    3.52    0.00   1.41  67.90
sdb               5.00     0.00  475.00    0.00 12512.00     0.00    52.68     4.70    9.84    9.84    0.00   1.95  92.50
sdd               5.00     0.00  475.00    0.00 14172.00     0.00    59.67     1.61    3.52    3.52    0.00   1.15  54.60
md0               0.00     0.00 1451.00    0.00 49120.00     0.00    67.71     0.00    0.00    0.00    0.00   0.00   0.00

avg-cpu:  %user   %nice %system %iowait  %steal   %idle
           0.00    0.00    0.16   17.21    0.00   82.63

Device:         rrqm/s   wrqm/s     r/s     w/s    rkB/s    wkB/s avgrq-sz avgqu-sz   await r_await w_await  svctm  %util
nvme0n1           0.00     0.00    0.00    0.00     0.00     0.00     0.00     0.00    0.00    0.00    0.00   0.00   0.00
sda               0.00     0.00    0.00    0.00     0.00     0.00     0.00     0.00    0.00    0.00    0.00   0.00   0.00
sdc               6.00     0.00  455.00    0.00 13936.00     0.00    61.26     3.22    7.11    7.11    0.00   1.53  69.80
sdb               3.00     0.00  481.00    0.00 13304.00     0.00    55.32     2.27    4.76    4.76    0.00   1.28  61.40
sdd               4.00     0.00  480.00    0.00 11660.00     0.00    48.58     2.78    5.36    5.36    0.00   1.51  72.30
md0               0.00     0.00 1423.00    0.00 45144.00     0.00    63.45     0.00    0.00    0.00    0.00   0.00   0.00

avg-cpu:  %user   %nice %system %iowait  %steal   %idle
           0.03    0.00    0.13   18.96    0.00   80.88

Device:         rrqm/s   wrqm/s     r/s     w/s    rkB/s    wkB/s avgrq-sz avgqu-sz   await r_await w_await  svctm  %util
nvme0n1           0.00     0.00    0.00    0.00     0.00     0.00     0.00     0.00    0.00    0.00    0.00   0.00   0.00
sda               0.00     1.00    0.00    2.00     0.00    12.00    12.00     0.00    0.00    0.00    0.00   0.00   0.00
sdc               2.00     0.00  498.00    0.00 11408.00     0.00    45.82     1.52    3.01    3.01    0.00   1.12  55.90
sdb               6.00     0.00  513.00    0.00 13872.00     0.00    54.08     3.36    6.36    6.36    0.00   1.56  79.90
sdd               4.00     0.00  498.00    0.00 12840.00     0.00    51.57     3.33    7.16    7.16    0.00   1.47  73.30
md0               0.00     0.00 1524.00    0.00 44304.00     0.00    58.14     0.00    0.00    0.00    0.00   0.00   0.00

avg-cpu:  %user   %nice %system %iowait  %steal   %idle
           0.00    0.00    0.16   17.64    0.00   82.20

Device:         rrqm/s   wrqm/s     r/s     w/s    rkB/s    wkB/s avgrq-sz avgqu-sz   await r_await w_await  svctm  %util
nvme0n1           0.00     0.00    0.00    0.00     0.00     0.00     0.00     0.00    0.00    0.00    0.00   0.00   0.00
sda               0.00     0.00    0.00    0.00     0.00     0.00     0.00     0.00    0.00    0.00    0.00   0.00   0.00
sdc               6.00     0.00  455.00    0.00 12708.00     0.00    55.86     2.33    5.16    5.16    0.00   1.39  63.40
sdb               3.00     0.00  476.00    0.00 11684.00     0.00    49.09     1.62    3.62    3.62    0.00   1.32  63.00
sdd               5.00     0.00  422.00    0.00 11780.00     0.00    55.83     4.49   10.30   10.30    0.00   1.85  78.20
md0               0.00     0.00 1366.00    0.00 42664.00     0.00    62.47     0.00    0.00    0.00    0.00   0.00   0.00

avg-cpu:  %user   %nice %system %iowait  %steal   %idle
           0.03    0.00    0.19   18.58    0.00   81.20

Device:         rrqm/s   wrqm/s     r/s     w/s    rkB/s    wkB/s avgrq-sz avgqu-sz   await r_await w_await  svctm  %util
nvme0n1           0.00     0.00    0.00    0.00     0.00     0.00     0.00     0.00    0.00    0.00    0.00   0.00   0.00
sda               0.00     0.00    0.00    0.00     0.00     0.00     0.00     0.00    0.00    0.00    0.00   0.00   0.00
sdc               3.00     0.00  524.00    0.00 12684.00     0.00    48.41     3.09    5.92    5.92    0.00   1.25  65.70
sdb               1.00     0.00  484.00    0.00 11864.00     0.00    49.02     2.10    4.21    4.21    0.00   1.20  58.00
sdd               4.00     0.00  521.00    0.00 12012.00     0.00    46.11     4.21    8.29    8.29    0.00   1.58  82.40
md0               0.00     0.00 1538.00    0.00 43492.00     0.00    56.56     0.00    0.00    0.00    0.00   0.00   0.00

avg-cpu:  %user   %nice %system %iowait  %steal   %idle
           0.00    0.00    0.16   18.64    0.00   81.20

Device:         rrqm/s   wrqm/s     r/s     w/s    rkB/s    wkB/s avgrq-sz avgqu-sz   await r_await w_await  svctm  %util
nvme0n1           0.00     0.00    0.00    0.00     0.00     0.00     0.00     0.00    0.00    0.00    0.00   0.00   0.00
sda               0.00     0.00    0.00    0.00     0.00     0.00     0.00     0.00    0.00    0.00    0.00   0.00   0.00
sdc               5.00     0.00  430.00    0.00 12528.00     0.00    58.27     2.39    4.71    4.71    0.00   1.53  65.60
sdb               4.00     0.00  416.00    0.00 12304.00     0.00    59.15     3.03    7.41    7.41    0.00   1.58  65.70
sdd               7.00     0.00  431.00    0.00 12948.00     0.00    60.08     3.01    7.05    7.05    0.00   1.47  63.50
md0               0.00     0.00 1293.00    0.00 45028.00     0.00    69.65     0.00    0.00    0.00    0.00   0.00   0.00

avg-cpu:  %user   %nice %system %iowait  %steal   %idle
           0.00    0.00    0.16   18.40    0.00   81.45

Device:         rrqm/s   wrqm/s     r/s     w/s    rkB/s    wkB/s avgrq-sz avgqu-sz   await r_await w_await  svctm  %util
nvme0n1           0.00     0.00    0.00    0.00     0.00     0.00     0.00     0.00    0.00    0.00    0.00   0.00   0.00
sda               0.00     3.00    1.00    4.00     4.00    68.00    28.80     0.00    0.00    0.00    0.00   0.00   0.00
sdc               6.00     0.00  493.00    0.00 14100.00     0.00    57.20     3.19    7.22    7.22    0.00   1.75  86.10
sdb               3.00     0.00  496.00    0.00 13780.00     0.00    55.56     2.77    5.62    5.62    0.00   1.55  76.90
sdd               4.00     0.00  472.00    0.00 12248.00     0.00    51.90     2.53    5.19    5.19    0.00   1.63  77.00
md0               0.00     0.00 1469.00    0.00 45864.00     0.00    62.44     0.00    0.00    0.00    0.00   0.00   0.00

avg-cpu:  %user   %nice %system %iowait  %steal   %idle
           0.00    0.00    0.19   18.58    0.00   81.23

Device:         rrqm/s   wrqm/s     r/s     w/s    rkB/s    wkB/s avgrq-sz avgqu-sz   await r_await w_await  svctm  %util
nvme0n1           0.00     0.00    0.00    0.00     0.00     0.00     0.00     0.00    0.00    0.00    0.00   0.00   0.00
sda               0.00     7.00    0.00    2.00     0.00    36.00    36.00     0.00    0.00    0.00    0.00   0.00   0.00
sdc               6.00     0.00  507.00    0.00 16584.00     0.00    65.42     1.52    3.00    3.00    0.00   1.21  61.10
sdb               9.00     0.00  465.00    0.00 14244.00     0.00    61.26     4.72    9.62    9.62    0.00   2.01  93.60
sdd               7.00     0.00  511.00    0.00 14880.00     0.00    58.24     2.18    4.43    4.43    0.00   1.38  70.40
md0               0.00     0.00 1510.00    0.00 55036.00     0.00    72.90     0.00    0.00    0.00    0.00   0.00   0.00

avg-cpu:  %user   %nice %system %iowait  %steal   %idle
           0.00    0.00    0.13   17.81    0.00   82.07

Device:         rrqm/s   wrqm/s     r/s     w/s    rkB/s    wkB/s avgrq-sz avgqu-sz   await r_await w_await  svctm  %util
nvme0n1           0.00     0.00    0.00    0.00     0.00     0.00     0.00     0.00    0.00    0.00    0.00   0.00   0.00
sda               0.00     0.00    0.00    0.00     0.00     0.00     0.00     0.00    0.00    0.00    0.00   0.00   0.00
sdc               4.00     0.00  498.00    0.00 13100.00     0.00    52.61     2.46    4.93    4.93    0.00   1.47  73.20
sdb               4.00     0.00  415.00    0.00 12172.00     0.00    58.66     3.37    8.29    8.29    0.00   2.28  94.70
sdd               3.00     0.00  510.00    0.00 13124.00     0.00    51.47     2.51    4.92    4.92    0.00   1.37  69.90
md0               0.00     0.00 1434.00    0.00 42644.00     0.00    59.48     0.00    0.00    0.00    0.00   0.00   0.00

avg-cpu:  %user   %nice %system %iowait  %steal   %idle
           0.03    0.00    0.22   16.98    0.00   82.77

Device:         rrqm/s   wrqm/s     r/s     w/s    rkB/s    wkB/s avgrq-sz avgqu-sz   await r_await w_await  svctm  %util
nvme0n1           0.00     0.00    0.00    0.00     0.00     0.00     0.00     0.00    0.00    0.00    0.00   0.00   0.00
sda               0.00     0.00    0.00    0.00     0.00     0.00     0.00     0.00    0.00    0.00    0.00   0.00   0.00
sdc               5.00     0.00  564.00    0.00 14356.00     0.00    50.91     0.85    1.52    1.52    0.00   0.74  41.70
sdb               5.00     0.00  552.00    0.00 14752.00     0.00    53.45     2.44    4.61    4.61    0.00   1.25  69.10
sdd               4.00     0.00  502.00    0.00 12772.00     0.00    50.88     4.44    8.54    8.54    0.00   1.60  80.30
md0               0.00     0.00 1633.00    0.00 51728.00     0.00    63.35     0.00    0.00    0.00    0.00   0.00   0.00

avg-cpu:  %user   %nice %system %iowait  %steal   %idle
           0.00    0.00    0.19   19.76    0.00   80.05

Device:         rrqm/s   wrqm/s     r/s     w/s    rkB/s    wkB/s avgrq-sz avgqu-sz   await r_await w_await  svctm  %util
nvme0n1           0.00     0.00    0.00    0.00     0.00     0.00     0.00     0.00    0.00    0.00    0.00   0.00   0.00
sda               0.00     0.00    0.00    0.00     0.00     0.00     0.00     0.00    0.00    0.00    0.00   0.00   0.00
sdc               1.00     0.00  450.00    0.00 11840.00     0.00    52.62     1.64    3.31    3.31    0.00   1.12  50.40
sdb               0.00     0.00  475.00    0.00 13288.00     0.00    55.95     2.96    6.38    6.38    0.00   1.44  68.40
sdd               8.00     0.00  469.00    0.00 13932.00     0.00    59.41     4.46    9.81    9.81    0.00   1.72  80.50
md0               0.00     0.00 1403.00    0.00 45296.00     0.00    64.57     0.00    0.00    0.00    0.00   0.00   0.00

avg-cpu:  %user   %nice %system %iowait  %steal   %idle
           0.03    0.00    0.16   18.59    0.00   81.22

Device:         rrqm/s   wrqm/s     r/s     w/s    rkB/s    wkB/s avgrq-sz avgqu-sz   await r_await w_await  svctm  %util
nvme0n1           0.00     0.00    0.00    0.00     0.00     0.00     0.00     0.00    0.00    0.00    0.00   0.00   0.00
sda               0.00     2.00    0.00   17.00     0.00    76.00     8.94     0.00    0.00    0.00    0.00   0.00   0.00
sdc               2.00     0.00  547.00    0.00 13500.00     0.00    49.36     3.29    6.28    6.28    0.00   1.42  77.80
sdb               2.00     0.00  528.00    0.00 12876.00     0.00    48.77     4.18    7.72    7.72    0.00   1.50  79.10
sdd               3.00     0.00  542.00    0.00 14484.00     0.00    53.45     1.58    2.93    2.93    0.00   1.09  59.20
md0               0.00     0.00 1630.00    0.00 48440.00     0.00    59.44     0.00    0.00    0.00    0.00   0.00   0.00

avg-cpu:  %user   %nice %system %iowait  %steal   %idle
           0.00    0.00    0.19   18.67    0.00   81.14

Device:         rrqm/s   wrqm/s     r/s     w/s    rkB/s    wkB/s avgrq-sz avgqu-sz   await r_await w_await  svctm  %util
nvme0n1           0.00     0.00    0.00    0.00     0.00     0.00     0.00     0.00    0.00    0.00    0.00   0.00   0.00
sda               0.00     1.00    0.00    2.00     0.00    12.00    12.00     0.00    0.50    0.00    0.50   0.50   0.10
sdc               3.00     0.00  554.00    0.00 14564.00     0.00    52.58     3.11    5.59    5.59    0.00   1.37  75.70
sdb               3.00     0.00  585.00    0.00 13976.00     0.00    47.78     3.45    6.06    6.06    0.00   1.12  65.80
sdd               6.00     0.00  434.00    0.00 13136.00     0.00    60.53     2.43    5.44    5.44    0.00   1.36  59.00
md0               0.00     0.00 1579.00    0.00 48628.00     0.00    61.59     0.00    0.00    0.00    0.00   0.00   0.00

avg-cpu:  %user   %nice %system %iowait  %steal   %idle
           0.00    0.00    0.16   17.62    0.00   82.23

Device:         rrqm/s   wrqm/s     r/s     w/s    rkB/s    wkB/s avgrq-sz avgqu-sz   await r_await w_await  svctm  %util
nvme0n1           0.00     0.00    0.00    0.00     0.00     0.00     0.00     0.00    0.00    0.00    0.00   0.00   0.00
sda               0.00     0.00    0.00    0.00     0.00     0.00     0.00     0.00    0.00    0.00    0.00   0.00   0.00
sdc               2.00     0.00  457.00    0.00 12884.00     0.00    56.39     1.49    3.27    3.27    0.00   1.13  51.80
sdb               5.00     0.00  412.00    0.00 12872.00     0.00    62.49     2.02    4.52    4.52    0.00   1.63  67.00
sdd               6.00     0.00  495.00    0.00 13424.00     0.00    54.24     4.14    8.51    8.51    0.00   1.68  83.00
md0               0.00     0.00 1377.00    0.00 47360.00     0.00    68.79     0.00    0.00    0.00    0.00   0.00   0.00

avg-cpu:  %user   %nice %system %iowait  %steal   %idle
           0.00    0.00    0.22   20.08    0.00   79.70

Device:         rrqm/s   wrqm/s     r/s     w/s    rkB/s    wkB/s avgrq-sz avgqu-sz   await r_await w_await  svctm  %util
nvme0n1           0.00     0.00    0.00    0.00     0.00     0.00     0.00     0.00    0.00    0.00    0.00   0.00   0.00
sda               0.00     0.00    0.00    0.00     0.00     0.00     0.00     0.00    0.00    0.00    0.00   0.00   0.00
sdc               4.00     0.00  612.00    0.00 14724.00     0.00    48.12     2.94    4.82    4.82    0.00   1.30  79.60
sdb               4.00     0.00  547.00    0.00 14212.00     0.00    51.96     2.70    5.20    5.20    0.00   1.35  73.90
sdd               3.00     0.00  570.00    0.00 13336.00     0.00    46.79     3.84    6.39    6.39    0.00   1.48  84.20
md0               0.00     0.00 1740.00    0.00 49048.00     0.00    56.38     0.00    0.00    0.00    0.00   0.00   0.00

avg-cpu:  %user   %nice %system %iowait  %steal   %idle
           0.03    0.00    0.13   16.95    0.00   82.89

Device:         rrqm/s   wrqm/s     r/s     w/s    rkB/s    wkB/s avgrq-sz avgqu-sz   await r_await w_await  svctm  %util
nvme0n1           0.00     0.00    0.00    0.00     0.00     0.00     0.00     0.00    0.00    0.00    0.00   0.00   0.00
sda               0.00     0.00    0.00    0.00     0.00     0.00     0.00     0.00    0.00    0.00    0.00   0.00   0.00
sdc              10.00     0.00  368.00    0.00 14780.00     0.00    80.33     2.65    7.20    7.20    0.00   1.89  69.60
sdb               7.00     0.00  463.00    0.00 14888.00     0.00    64.31     1.35    2.93    2.93    0.00   1.09  50.30
sdd               8.00     0.00  408.00    0.00 12696.00     0.00    62.24     3.99   10.21   10.21    0.00   2.16  88.00
md0               0.00     0.00 1265.00    0.00 52176.00     0.00    82.49     0.00    0.00    0.00    0.00   0.00   0.00

