Linux 4.17.2 (bench2) 	08/04/2018 	_x86_64_	(32 CPU)

avg-cpu:  %user   %nice %system %iowait  %steal   %idle
           1.89    0.00    1.53    1.64    0.00   94.94

Device:         rrqm/s   wrqm/s     r/s     w/s    rkB/s    wkB/s avgrq-sz avgqu-sz   await r_await w_await  svctm  %util
nvme0n1         920.99     5.00 18566.71  511.20 103854.42 11529.06    12.10     1.32    0.05    0.03    0.67   0.02  38.87
sda               0.12     0.82   14.20    0.59   164.15     8.57    23.36     0.00    0.33    0.32    0.43   0.07   0.10
sdc              35.29     0.17  129.93    0.31  1921.68    95.95    30.99     0.18    1.38    0.48  381.84   0.89  11.54
sdb              33.29     0.18  131.89    0.33  1919.79    95.78    30.49     0.60    4.56    3.55  413.03   0.83  10.99
sdd              35.49     0.16  129.48    0.26  1917.81    95.45    31.04     0.92    7.07    5.28  909.23   0.89  11.59
md0               0.00     0.00  498.17    1.19  7133.84   346.13    29.96     0.00    0.00    0.00    0.00   0.00   0.00

avg-cpu:  %user   %nice %system %iowait  %steal   %idle
           0.03    0.00    0.00    0.06    0.00   99.91

Device:         rrqm/s   wrqm/s     r/s     w/s    rkB/s    wkB/s avgrq-sz avgqu-sz   await r_await w_await  svctm  %util
nvme0n1           0.00     0.00    0.00    0.00     0.00     0.00     0.00     0.00    0.00    0.00    0.00   0.00   0.00
sda               0.00     0.00    1.00    0.00     8.00     0.00    16.00     0.00    0.00    0.00    0.00   0.00   0.00
sdc               0.00     0.00  162.00    0.00   648.00     0.00     8.00    18.44  109.48  109.48    0.00   5.29  85.70
sdb               0.00     0.00  171.00    0.00   684.00     0.00     8.00    18.55  105.71  105.71    0.00   5.09  87.10
sdd               0.00     0.00  183.00    0.00   732.00     0.00     8.00    20.14  106.85  106.85    0.00   4.95  90.50
md0               0.00     0.00  511.00    0.00  2044.00     0.00     8.00     0.00    0.00    0.00    0.00   0.00   0.00

avg-cpu:  %user   %nice %system %iowait  %steal   %idle
           0.00    0.00    0.06    0.25    0.00   99.69

Device:         rrqm/s   wrqm/s     r/s     w/s    rkB/s    wkB/s avgrq-sz avgqu-sz   await r_await w_await  svctm  %util
nvme0n1           0.00     0.00    0.00    0.00     0.00     0.00     0.00     0.00    0.00    0.00    0.00   0.00   0.00
sda               0.00    10.00    0.00    2.00     0.00    48.00    48.00     0.00    0.00    0.00    0.00   0.00   0.00
sdc               0.00     0.00  203.00    0.00   812.00     0.00     8.00    17.69   87.66   87.66    0.00   4.49  91.10
sdb               0.00     0.00  188.00    0.00   752.00     0.00     8.00    15.14   83.25   83.25    0.00   4.45  83.70
sdd               0.00     0.00  224.00    0.00   896.00     0.00     8.00    23.48   96.99   96.99    0.00   4.40  98.60
md0               0.00     0.00  512.00    0.00  2048.00     0.00     8.00     0.00    0.00    0.00    0.00   0.00   0.00

