Linux 4.17.2 (bench2) 	08/04/2018 	_x86_64_	(32 CPU)

avg-cpu:  %user   %nice %system %iowait  %steal   %idle
           1.89    0.00    1.54    1.63    0.00   94.94

Device:         rrqm/s   wrqm/s     r/s     w/s    rkB/s    wkB/s avgrq-sz avgqu-sz   await r_await w_await  svctm  %util
nvme0n1         924.05     5.02 18628.55  512.90 104200.35 11567.46    12.10     1.33    0.05    0.03    0.67   0.02  39.00
sda               0.12     0.82   14.19    0.58   164.09     8.57    23.37     0.00    0.33    0.32    0.44   0.07   0.10
sdc              35.18     0.17  127.58    0.31  1903.44    96.27    31.27     0.17    1.33    0.42  381.84   0.89  11.43
sdb              33.18     0.18  129.54    0.33  1901.54    96.09    30.76     0.60    4.58    3.55  413.03   0.84  10.88
sdd              35.38     0.16  127.12    0.26  1899.56    95.77    31.33     0.91    7.14    5.32  909.23   0.90  11.47
md0               0.00     0.00  490.79    1.19  7070.40   347.28    30.15     0.00    0.00    0.00    0.00   0.00   0.00

avg-cpu:  %user   %nice %system %iowait  %steal   %idle
           0.00    0.00    0.31    1.60    0.00   98.09

Device:         rrqm/s   wrqm/s     r/s     w/s    rkB/s    wkB/s avgrq-sz avgqu-sz   await r_await w_await  svctm  %util
nvme0n1           0.00     0.00    0.00    0.00     0.00     0.00     0.00     0.00    0.00    0.00    0.00   0.00   0.00
sda               0.00     0.00    4.00    0.00   104.00     0.00    52.00     0.00    0.25    0.25    0.00   0.25   0.10
sdc            1174.00     0.00  760.00    0.00  7736.00     0.00    20.36    15.61   20.53   20.53    0.00   0.90  68.10
sdb            1238.00     0.00  741.00    0.00  7868.00     0.00    21.24    18.23   24.26   24.26    0.00   1.07  79.10
sdd            1208.00     0.00  744.00    0.00  7816.00     0.00    21.01    22.41   30.13   30.13    0.00   1.17  87.10
md0               0.00     0.00 5872.00    0.00 23488.00     0.00     8.00     0.00    0.00    0.00    0.00   0.00   0.00

avg-cpu:  %user   %nice %system %iowait  %steal   %idle
           0.03    0.00    0.31    1.25    0.00   98.40

Device:         rrqm/s   wrqm/s     r/s     w/s    rkB/s    wkB/s avgrq-sz avgqu-sz   await r_await w_await  svctm  %util
nvme0n1           0.00     0.00    0.00    0.00     0.00     0.00     0.00     0.00    0.00    0.00    0.00   0.00   0.00
sda               0.00     0.00    0.00    0.00     0.00     0.00     0.00     0.00    0.00    0.00    0.00   0.00   0.00
sdc            1319.00     0.00  832.00    0.00  8260.00     0.00    19.86    18.72   21.59   21.59    0.00   0.87  72.60
sdb            1341.00     0.00  833.00    0.00  8176.00     0.00    19.63    14.41   16.98   16.98    0.00   0.72  60.30
sdd            1468.00     0.00  819.00    0.00  8736.00     0.00    21.33    21.93   25.95   25.95    0.00   1.05  85.70
md0               0.00     0.00 6760.00    0.00 27040.00     0.00     8.00     0.00    0.00    0.00    0.00   0.00   0.00

avg-cpu:  %user   %nice %system %iowait  %steal   %idle
           0.03    0.00    0.22    1.25    0.00   98.50

Device:         rrqm/s   wrqm/s     r/s     w/s    rkB/s    wkB/s avgrq-sz avgqu-sz   await r_await w_await  svctm  %util
nvme0n1           0.00     0.00    0.00    0.00     0.00     0.00     0.00     0.00    0.00    0.00    0.00   0.00   0.00
sda               0.00     0.00    0.00    0.00     0.00     0.00     0.00     0.00    0.00    0.00    0.00   0.00   0.00
sdc            1900.00     0.00  832.00    0.00 11152.00     0.00    26.81    25.94   31.71   31.71    0.00   1.05  87.70
sdb            1863.00     0.00  742.00    0.00 10908.00     0.00    29.40    18.40   25.43   25.43    0.00   0.92  68.20
sdd            1861.00     0.00  801.00    0.00 11060.00     0.00    27.62    18.82   24.36   24.36    0.00   0.85  67.70
md0               0.00     0.00 7853.00    0.00 31412.00     0.00     8.00     0.00    0.00    0.00    0.00   0.00   0.00

avg-cpu:  %user   %nice %system %iowait  %steal   %idle
           0.03    0.00    0.88    1.47    0.00   97.62

Device:         rrqm/s   wrqm/s     r/s     w/s    rkB/s    wkB/s avgrq-sz avgqu-sz   await r_await w_await  svctm  %util
nvme0n1           0.00     0.00    0.00    0.00     0.00     0.00     0.00     0.00    0.00    0.00    0.00   0.00   0.00
sda               0.00     0.00    0.00    4.00     0.00    20.00    10.00     0.00    0.00    0.00    0.00   0.00   0.00
sdc            2810.00     0.00  830.00    0.00 14636.00     0.00    35.27    30.43   36.81   36.81    0.00   1.11  92.50
sdb            2862.00     0.00  839.00    0.00 14760.00     0.00    35.18    26.29   30.65   30.65    0.00   0.97  81.40
sdd            2944.00     0.00  849.00    0.00 15132.00     0.00    35.65    27.68   32.47   32.47    0.00   1.04  88.70
md0               0.00     0.00 11143.00    0.00 44572.00     0.00     8.00     0.00    0.00    0.00    0.00   0.00   0.00

avg-cpu:  %user   %nice %system %iowait  %steal   %idle
           0.06    0.00    1.41    1.00    0.00   97.53

Device:         rrqm/s   wrqm/s     r/s     w/s    rkB/s    wkB/s avgrq-sz avgqu-sz   await r_await w_await  svctm  %util
nvme0n1           0.00     0.00    0.00    0.00     0.00     0.00     0.00     0.00    0.00    0.00    0.00   0.00   0.00
sda               0.00     0.00    0.00    0.00     0.00     0.00     0.00     0.00    0.00    0.00    0.00   0.00   0.00
sdc            3015.00     0.00  786.00    0.00 14244.00     0.00    36.24    24.89   29.95   29.95    0.00   0.94  74.10
sdb            2877.00     0.00  829.00    0.00 14544.00     0.00    35.09    27.33   32.59   32.59    0.00   0.98  81.60
sdd            2735.00     0.00  802.00    0.00 13176.00     0.00    32.86    34.48   41.42   41.42    0.00   1.17  94.10
md0               0.00     0.00 11170.00    0.00 44680.00     0.00     8.00     0.00    0.00    0.00    0.00   0.00   0.00

avg-cpu:  %user   %nice %system %iowait  %steal   %idle
           0.00    0.00    1.32    1.06    0.00   97.62

Device:         rrqm/s   wrqm/s     r/s     w/s    rkB/s    wkB/s avgrq-sz avgqu-sz   await r_await w_await  svctm  %util
nvme0n1           0.00     0.00    0.00    0.00     0.00     0.00     0.00     0.00    0.00    0.00    0.00   0.00   0.00
sda               0.00     8.00    0.00    2.00     0.00    40.00    40.00     0.00    0.00    0.00    0.00   0.00   0.00
sdc            2945.00     0.00  848.00    0.00 15132.00     0.00    35.69    31.36   38.03   38.03    0.00   1.04  88.50
sdb            3090.00     0.00  833.00    0.00 15128.00     0.00    36.32    31.36   37.88   37.88    0.00   1.03  86.20
sdd            2591.00     0.00  797.00    0.00 13836.00     0.00    34.72    30.73   39.19   39.19    0.00   1.07  85.50
md0               0.00     0.00 11148.00    0.00 44592.00     0.00     8.00     0.00    0.00    0.00    0.00   0.00   0.00

avg-cpu:  %user   %nice %system %iowait  %steal   %idle
           0.03    0.00    1.34    1.06    0.00   97.56

Device:         rrqm/s   wrqm/s     r/s     w/s    rkB/s    wkB/s avgrq-sz avgqu-sz   await r_await w_await  svctm  %util
nvme0n1           0.00     0.00    0.00    0.00     0.00     0.00     0.00     0.00    0.00    0.00    0.00   0.00   0.00
sda               0.00     0.00    0.00    0.00     0.00     0.00     0.00     0.00    0.00    0.00    0.00   0.00   0.00
sdc            2673.00     0.00  787.00    0.00 14304.00     0.00    36.35    29.80   37.36   37.36    0.00   1.05  82.40
sdb            2556.00     0.00  781.00    0.00 13344.00     0.00    34.17    26.58   32.28   32.28    0.00   1.00  78.10
sdd            2737.00     0.00  846.00    0.00 14912.00     0.00    35.25    28.32   34.15   34.15    0.00   0.96  81.20
md0               0.00     0.00 10267.00    0.00 41068.00     0.00     8.00     0.00    0.00    0.00    0.00   0.00   0.00

avg-cpu:  %user   %nice %system %iowait  %steal   %idle
           0.03    0.00    1.19    0.91    0.00   97.87

Device:         rrqm/s   wrqm/s     r/s     w/s    rkB/s    wkB/s avgrq-sz avgqu-sz   await r_await w_await  svctm  %util
nvme0n1           0.00     0.00    0.00    0.00     0.00     0.00     0.00     0.00    0.00    0.00    0.00   0.00   0.00
sda               0.00     0.00    0.00    0.00     0.00     0.00     0.00     0.00    0.00    0.00    0.00   0.00   0.00
sdc            2605.00     0.00  778.00    0.00 13732.00     0.00    35.30    25.80   33.63   33.63    0.00   0.97  75.80
sdb            2524.00     0.00  792.00    0.00 13872.00     0.00    35.03    30.15   39.57   39.57    0.00   1.12  88.80
sdd            2764.00     0.00  747.00    0.00 13512.00     0.00    36.18    24.70   31.68   31.68    0.00   0.98  73.20
md0               0.00     0.00 10214.00    0.00 40856.00     0.00     8.00     0.00    0.00    0.00    0.00   0.00   0.00

avg-cpu:  %user   %nice %system %iowait  %steal   %idle
           0.03    0.00    1.22    0.63    0.00   98.12

Device:         rrqm/s   wrqm/s     r/s     w/s    rkB/s    wkB/s avgrq-sz avgqu-sz   await r_await w_await  svctm  %util
nvme0n1           0.00     0.00    0.00    0.00     0.00     0.00     0.00     0.00    0.00    0.00    0.00   0.00   0.00
sda               0.00     1.00    0.00    2.00     0.00    28.00    28.00     0.00    0.00    0.00    0.00   0.00   0.00
sdc            2649.00     0.00  791.00    0.00 14020.00     0.00    35.45    33.66   42.64   42.64    0.00   1.14  90.40
sdb            2548.00     0.00  790.00    0.00 13664.00     0.00    34.59    30.35   39.38   39.38    0.00   1.13  89.00
sdd            2688.00     0.00  833.00    0.00 14764.00     0.00    35.45    20.37   26.09   26.09    0.00   0.70  58.60
md0               0.00     0.00 10234.00    0.00 40936.00     0.00     8.00     0.00    0.00    0.00    0.00   0.00   0.00

avg-cpu:  %user   %nice %system %iowait  %steal   %idle
           0.03    0.00    1.47    0.88    0.00   97.62

Device:         rrqm/s   wrqm/s     r/s     w/s    rkB/s    wkB/s avgrq-sz avgqu-sz   await r_await w_await  svctm  %util
nvme0n1           0.00     0.00    0.00    0.00     0.00     0.00     0.00     0.00    0.00    0.00    0.00   0.00   0.00
sda               0.00     0.00   80.00    0.00   532.00     0.00    13.30     0.02    0.20    0.20    0.00   0.05   0.40
sdc            2873.00     0.00  799.00    0.00 14000.00     0.00    35.04    25.39   31.74   31.74    0.00   0.91  72.60
sdb            2909.00     0.00  838.00    0.00 13968.00     0.00    33.34    28.11   32.92   32.92    0.00   0.99  83.20
sdd            2773.00     0.00  813.00    0.00 13408.00     0.00    32.98    26.14   31.30   31.30    0.00   0.90  72.80
md0               0.00     0.00 11136.00    0.00 44544.00     0.00     8.00     0.00    0.00    0.00    0.00   0.00   0.00

avg-cpu:  %user   %nice %system %iowait  %steal   %idle
           0.00    0.00    1.31    0.97    0.00   97.72

Device:         rrqm/s   wrqm/s     r/s     w/s    rkB/s    wkB/s avgrq-sz avgqu-sz   await r_await w_await  svctm  %util
nvme0n1           0.00     0.00    0.00    0.00     0.00     0.00     0.00     0.00    0.00    0.00    0.00   0.00   0.00
sda               0.00     5.00    0.00    2.00     0.00    28.00    28.00     0.00    0.00    0.00    0.00   0.00   0.00
sdc            2728.00     0.00  804.00    0.00 14152.00     0.00    35.20    30.38   37.10   37.10    0.00   1.01  80.90
sdb            2596.00     0.00  775.00    0.00 13704.00     0.00    35.37    27.72   35.29   35.29    0.00   0.99  76.60
sdd            2633.00     0.00  788.00    0.00 14184.00     0.00    36.00    28.19   35.76   35.76    0.00   1.10  86.30
md0               0.00     0.00 10279.00    0.00 41116.00     0.00     8.00     0.00    0.00    0.00    0.00   0.00   0.00

avg-cpu:  %user   %nice %system %iowait  %steal   %idle
           0.03    0.00    1.22    0.78    0.00   97.97

Device:         rrqm/s   wrqm/s     r/s     w/s    rkB/s    wkB/s avgrq-sz avgqu-sz   await r_await w_await  svctm  %util
nvme0n1           0.00     0.00    0.00    0.00     0.00     0.00     0.00     0.00    0.00    0.00    0.00   0.00   0.00
sda               0.00     0.00    0.00    0.00     0.00     0.00     0.00     0.00    0.00    0.00    0.00   0.00   0.00
sdc            2542.00     0.00  796.00    0.00 13516.00     0.00    33.96    27.94   34.89   34.89    0.00   1.05  83.70
sdb            2605.00     0.00  809.00    0.00 13924.00     0.00    34.42    32.13   39.35   39.35    0.00   1.11  90.00
sdd            2676.00     0.00  809.00    0.00 14124.00     0.00    34.92    30.10   37.40   37.40    0.00   1.08  87.60
md0               0.00     0.00 10199.00    0.00 40796.00     0.00     8.00     0.00    0.00    0.00    0.00   0.00   0.00

avg-cpu:  %user   %nice %system %iowait  %steal   %idle
           0.03    0.00    1.19    0.56    0.00   98.22

Device:         rrqm/s   wrqm/s     r/s     w/s    rkB/s    wkB/s avgrq-sz avgqu-sz   await r_await w_await  svctm  %util
nvme0n1           0.00     0.00    0.00    0.00     0.00     0.00     0.00     0.00    0.00    0.00    0.00   0.00   0.00
sda               0.00     0.00    0.00    0.00     0.00     0.00     0.00     0.00    0.00    0.00    0.00   0.00   0.00
sdc            2489.00     0.00  791.00    0.00 13740.00     0.00    34.74    30.60   40.51   40.51    0.00   1.14  90.20
sdb            2640.00     0.00  808.00    0.00 14312.00     0.00    35.43    27.71   35.80   35.80    0.00   1.01  81.80
sdd            2744.00     0.00  780.00    0.00 14348.00     0.00    36.79    22.04   29.01   29.01    0.00   0.84  65.50
md0               0.00     0.00 10195.00    0.00 40780.00     0.00     8.00     0.00    0.00    0.00    0.00   0.00   0.00

avg-cpu:  %user   %nice %system %iowait  %steal   %idle
           0.00    0.00    1.35    0.88    0.00   97.78

Device:         rrqm/s   wrqm/s     r/s     w/s    rkB/s    wkB/s avgrq-sz avgqu-sz   await r_await w_await  svctm  %util
nvme0n1           0.00     0.00    0.00    0.00     0.00     0.00     0.00     0.00    0.00    0.00    0.00   0.00   0.00
sda               0.00     0.00    0.00    0.00     0.00     0.00     0.00     0.00    0.00    0.00    0.00   0.00   0.00
sdc            2939.00     0.00  816.00    0.00 14788.00     0.00    36.25    29.63   35.56   35.56    0.00   1.07  87.30
sdb            2997.00     0.00  821.00    0.00 14928.00     0.00    36.37    27.24   32.11   32.11    0.00   0.91  75.10
sdd            2761.00     0.00  845.00    0.00 14424.00     0.00    34.14    31.45   37.16   37.16    0.00   1.06  89.20
md0               0.00     0.00 11204.00    0.00 44816.00     0.00     8.00     0.00    0.00    0.00    0.00   0.00   0.00

avg-cpu:  %user   %nice %system %iowait  %steal   %idle
           0.03    0.00    1.35    0.97    0.00   97.65

Device:         rrqm/s   wrqm/s     r/s     w/s    rkB/s    wkB/s avgrq-sz avgqu-sz   await r_await w_await  svctm  %util
nvme0n1           0.00     0.00    0.00    0.00     0.00     0.00     0.00     0.00    0.00    0.00    0.00   0.00   0.00
sda               0.00     0.00    0.00    0.00     0.00     0.00     0.00     0.00    0.00    0.00    0.00   0.00   0.00
sdc            2817.00     0.00  856.00    0.00 14924.00     0.00    34.87    26.68   31.90   31.90    0.00   0.95  81.30
sdb            2833.00     0.00  855.00    0.00 14496.00     0.00    33.91    31.14   36.64   36.64    0.00   1.04  88.70
sdd            2952.00     0.00  795.00    0.00 14156.00     0.00    35.61    29.30   35.16   35.16    0.00   1.04  82.40
md0               0.00     0.00 11141.00    0.00 44564.00     0.00     8.00     0.00    0.00    0.00    0.00   0.00   0.00

avg-cpu:  %user   %nice %system %iowait  %steal   %idle
           0.00    0.00    1.19    0.85    0.00   97.96

Device:         rrqm/s   wrqm/s     r/s     w/s    rkB/s    wkB/s avgrq-sz avgqu-sz   await r_await w_await  svctm  %util
nvme0n1           0.00     0.00    0.00    0.00     0.00     0.00     0.00     0.00    0.00    0.00    0.00   0.00   0.00
sda               0.00     1.00    0.00    2.00     0.00    12.00    12.00     0.00    0.50    0.00    0.50   0.50   0.10
sdc            2672.00     0.00  750.00    0.00 13004.00     0.00    34.68    23.34   29.32   29.32    0.00   0.90  67.80
sdb            2753.00     0.00  780.00    0.00 14800.00     0.00    37.95    29.65   39.07   39.07    0.00   1.10  85.60
sdd            2537.00     0.00  782.00    0.00 13480.00     0.00    34.48    31.34   40.87   40.87    0.00   1.09  85.60
md0               0.00     0.00 10273.00    0.00 41092.00     0.00     8.00     0.00    0.00    0.00    0.00   0.00   0.00

avg-cpu:  %user   %nice %system %iowait  %steal   %idle
           0.00    0.00    1.16    0.88    0.00   97.96

Device:         rrqm/s   wrqm/s     r/s     w/s    rkB/s    wkB/s avgrq-sz avgqu-sz   await r_await w_await  svctm  %util
nvme0n1           0.00     0.00    0.00    0.00     0.00     0.00     0.00     0.00    0.00    0.00    0.00   0.00   0.00
sda               0.00     0.00    0.00    0.00     0.00     0.00     0.00     0.00    0.00    0.00    0.00   0.00   0.00
sdc            2655.00     0.00  790.00    0.00 13636.00     0.00    34.52    33.10   41.50   41.50    0.00   1.15  90.60
sdb            2596.00     0.00  738.00    0.00 12980.00     0.00    35.18    26.19   34.42   34.42    0.00   1.03  75.90
sdd            2684.00     0.00  808.00    0.00 14596.00     0.00    36.13    27.89   35.52   35.52    0.00   1.02  82.50
md0               0.00     0.00 10262.00    0.00 41048.00     0.00     8.00     0.00    0.00    0.00    0.00   0.00   0.00

avg-cpu:  %user   %nice %system %iowait  %steal   %idle
           0.03    0.00    1.25    0.91    0.00   97.81

Device:         rrqm/s   wrqm/s     r/s     w/s    rkB/s    wkB/s avgrq-sz avgqu-sz   await r_await w_await  svctm  %util
nvme0n1           0.00     0.00    0.00    0.00     0.00     0.00     0.00     0.00    0.00    0.00    0.00   0.00   0.00
sda               0.00     0.00    0.00    0.00     0.00     0.00     0.00     0.00    0.00    0.00    0.00   0.00   0.00
sdc            2603.00     0.00  761.00    0.00 13720.00     0.00    36.06    30.27   40.43   40.43    0.00   1.19  90.40
sdb            2723.00     0.00  748.00    0.00 13520.00     0.00    36.15    25.01   32.67   32.67    0.00   0.96  71.80
sdd            2671.00     0.00  739.00    0.00 12788.00     0.00    34.61    29.48   38.09   38.09    0.00   1.09  80.40
md0               0.00     0.00 10297.00    0.00 41188.00     0.00     8.00     0.00    0.00    0.00    0.00   0.00   0.00

avg-cpu:  %user   %nice %system %iowait  %steal   %idle
           0.00    0.00    1.31    0.72    0.00   97.97

Device:         rrqm/s   wrqm/s     r/s     w/s    rkB/s    wkB/s avgrq-sz avgqu-sz   await r_await w_await  svctm  %util
nvme0n1           0.00     0.00    0.00    0.00     0.00     0.00     0.00     0.00    0.00    0.00    0.00   0.00   0.00
sda               0.00     0.00    0.00    0.00     0.00     0.00     0.00     0.00    0.00    0.00    0.00   0.00   0.00
sdc            2777.00     0.00  788.00    0.00 13896.00     0.00    35.27    31.05   39.86   39.86    0.00   1.12  88.30
sdb            2550.00     0.00  769.00    0.00 13068.00     0.00    33.99    29.11   38.10   38.10    0.00   1.10  84.30
sdd            2558.00     0.00  764.00    0.00 13504.00     0.00    35.35    27.82   36.58   36.58    0.00   1.01  77.40
md0               0.00     0.00 10213.00    0.00 40852.00     0.00     8.00     0.00    0.00    0.00    0.00   0.00   0.00

avg-cpu:  %user   %nice %system %iowait  %steal   %idle
           0.03    0.00    1.19    0.81    0.00   97.96

Device:         rrqm/s   wrqm/s     r/s     w/s    rkB/s    wkB/s avgrq-sz avgqu-sz   await r_await w_await  svctm  %util
nvme0n1           0.00     0.00    0.00    0.00     0.00     0.00     0.00     0.00    0.00    0.00    0.00   0.00   0.00
sda               0.00     0.00    0.00    0.00     0.00     0.00     0.00     0.00    0.00    0.00    0.00   0.00   0.00
sdc            2552.00     0.00  801.00    0.00 14092.00     0.00    35.19    30.47   38.01   38.01    0.00   1.07  86.00
sdb            2751.00     0.00  765.00    0.00 13936.00     0.00    36.43    30.28   38.81   38.81    0.00   1.10  83.80
sdd            2648.00     0.00  776.00    0.00 13552.00     0.00    34.93    24.68   31.70   31.70    0.00   0.93  72.40
md0               0.00     0.00 10260.00    0.00 41040.00     0.00     8.00     0.00    0.00    0.00    0.00   0.00   0.00

