Linux 4.17.2 (bench2) 	08/04/2018 	_x86_64_	(32 CPU)

avg-cpu:  %user   %nice %system %iowait  %steal   %idle
           1.89    0.00    1.53    1.64    0.00   94.94

Device:         rrqm/s   wrqm/s     r/s     w/s    rkB/s    wkB/s avgrq-sz avgqu-sz   await r_await w_await  svctm  %util
nvme0n1         920.94     5.00 18565.79  511.17 103849.31 11528.49    12.10     1.32    0.05    0.03    0.67   0.02  38.87
sda               0.12     0.82   14.20    0.59   164.15     8.57    23.36     0.00    0.33    0.32    0.43   0.07   0.10
sdc              35.29     0.17  129.93    0.31  1921.61    95.94    30.98     0.18    1.38    0.49  381.84   0.89  11.54
sdb              33.29     0.18  131.89    0.33  1919.73    95.77    30.49     0.60    4.56    3.55  413.03   0.83  10.99
sdd              35.49     0.16  129.48    0.26  1917.74    95.45    31.04     0.92    7.07    5.28  909.23   0.89  11.59
md0               0.00     0.00  498.16    1.19  7133.57   346.11    29.96     0.00    0.00    0.00    0.00   0.00   0.00

avg-cpu:  %user   %nice %system %iowait  %steal   %idle
           0.00    0.00    0.03    1.25    0.00   98.72

Device:         rrqm/s   wrqm/s     r/s     w/s    rkB/s    wkB/s avgrq-sz avgqu-sz   await r_await w_await  svctm  %util
nvme0n1           0.00     0.00    0.00    0.00     0.00     0.00     0.00     0.00    0.00    0.00    0.00   0.00   0.00
sda               0.00     0.00    1.00    0.00     8.00     0.00    16.00     0.00    1.00    1.00    0.00   1.00   0.10
sdc               0.00     0.00  117.00    0.00   468.00     0.00     8.00    19.07  152.61  152.61    0.00   7.85  91.80
sdb               0.00     0.00  140.00    0.00   560.00     0.00     8.00    25.23  159.71  159.71    0.00   7.14  99.90
sdd               0.00     0.00  110.00    0.00   440.00     0.00     8.00    14.86  135.45  135.45    0.00   7.57  83.30
md0               0.00     0.00  256.00    0.00  1024.00     0.00     8.00     0.00    0.00    0.00    0.00   0.00   0.00

avg-cpu:  %user   %nice %system %iowait  %steal   %idle
           0.00    0.00    0.06    1.31    0.00   98.62

Device:         rrqm/s   wrqm/s     r/s     w/s    rkB/s    wkB/s avgrq-sz avgqu-sz   await r_await w_await  svctm  %util
nvme0n1           0.00     0.00    0.00    0.00     0.00     0.00     0.00     0.00    0.00    0.00    0.00   0.00   0.00
sda               0.00     0.00    0.00    9.00     0.00    36.00     8.00     0.00    0.00    0.00    0.00   0.00   0.00
sdc               0.00     0.00  163.00    0.00   652.00     0.00     8.00    20.10  121.82  121.82    0.00   5.55  90.40
sdb               0.00     0.00  193.00    0.00   772.00     0.00     8.00    20.91  114.95  114.95    0.00   4.72  91.00
sdd               0.00     0.00  155.00    0.00   620.00     0.00     8.00    14.69   94.77   94.77    0.00   5.04  78.10
md0               0.00     0.00  511.00    0.00  2044.00     0.00     8.00     0.00    0.00    0.00    0.00   0.00   0.00

avg-cpu:  %user   %nice %system %iowait  %steal   %idle
           0.03    0.00    0.19    1.53    0.00   98.25

Device:         rrqm/s   wrqm/s     r/s     w/s    rkB/s    wkB/s avgrq-sz avgqu-sz   await r_await w_await  svctm  %util
nvme0n1           0.00     0.00    0.00    0.00     0.00     0.00     0.00     0.00    0.00    0.00    0.00   0.00   0.00
sda               0.00     0.00   59.00    0.00   588.00     0.00    19.93     0.01    0.10    0.10    0.00   0.10   0.60
sdc               0.00     0.00  205.00    0.00   820.00     0.00     8.00    18.52   91.45   91.45    0.00   4.59  94.00
sdb               0.00     0.00  203.00    0.00   812.00     0.00     8.00    17.19   86.80   86.80    0.00   4.46  90.60
sdd               0.00     0.00  208.00    0.00   832.00     0.00     8.00    20.68   89.48   89.48    0.00   4.51  93.90
md0               0.00     0.00  636.00    0.00  2544.00     0.00     8.00     0.00    0.00    0.00    0.00   0.00   0.00

avg-cpu:  %user   %nice %system %iowait  %steal   %idle
           0.00    0.00    0.12    1.03    0.00   98.84

Device:         rrqm/s   wrqm/s     r/s     w/s    rkB/s    wkB/s avgrq-sz avgqu-sz   await r_await w_await  svctm  %util
nvme0n1           0.00     0.00    0.00    0.00     0.00     0.00     0.00     0.00    0.00    0.00    0.00   0.00   0.00
sda               0.00     0.00    0.00    0.00     0.00     0.00     0.00     0.00    0.00    0.00    0.00   0.00   0.00
sdc               0.00     0.00  185.00    0.00   740.00     0.00     8.00    18.25  102.55  102.55    0.00   5.04  93.20
sdb               0.00     0.00  169.00    0.00   676.00     0.00     8.00    13.65   87.98   87.98    0.00   4.55  76.90
sdd               0.00     0.00  191.00    0.00   764.00     0.00     8.00    17.99  105.04  105.04    0.00   4.61  88.10
md0               0.00     0.00  510.00    0.00  2040.00     0.00     8.00     0.00    0.00    0.00    0.00   0.00   0.00

