Linux 4.17.2 (bench2) 	08/04/2018 	_x86_64_	(32 CPU)

avg-cpu:  %user   %nice %system %iowait  %steal   %idle
           1.89    0.00    1.54    1.63    0.00   94.94

Device:         rrqm/s   wrqm/s     r/s     w/s    rkB/s    wkB/s avgrq-sz avgqu-sz   await r_await w_await  svctm  %util
nvme0n1         923.30     5.01 18613.41  512.48 104115.63 11558.06    12.10     1.32    0.05    0.03    0.67   0.02  38.96
sda               0.12     0.82   14.19    0.59   164.10     8.57    23.37     0.00    0.33    0.32    0.44   0.07   0.10
sdc              35.27     0.17  128.24    0.31  1905.41    96.19    31.14     0.17    1.33    0.42  381.84   0.89  11.45
sdb              33.26     0.18  130.20    0.33  1903.51    96.02    30.64     0.60    4.56    3.54  413.03   0.84  10.90
sdd              35.46     0.16  127.79    0.26  1901.54    95.69    31.20     0.91    7.11    5.29  909.23   0.90  11.49
md0               0.00     0.00  493.03    1.19  7075.22   347.00    30.04     0.00    0.00    0.00    0.00   0.00   0.00

avg-cpu:  %user   %nice %system %iowait  %steal   %idle
           0.06    0.00    0.94   14.34    0.00   84.66

Device:         rrqm/s   wrqm/s     r/s     w/s    rkB/s    wkB/s avgrq-sz avgqu-sz   await r_await w_await  svctm  %util
nvme0n1           0.00     0.00    0.00    0.00     0.00     0.00     0.00     0.00    0.00    0.00    0.00   0.00   0.00
sda              16.00     0.00   38.00    0.00   256.00     0.00    13.47     0.01    0.34    0.34    0.00   0.03   0.10
sdc               0.00     0.00 2471.00    0.00  9884.00     0.00     8.00     2.03    0.82    0.82    0.00   0.15  36.90
sdb               0.00     0.00 2522.00    0.00 10088.00     0.00     8.00     2.11    0.84    0.84    0.00   0.14  35.70
sdd               0.00     0.00 2646.00    0.00 10584.00     0.00     8.00     2.07    0.78    0.78    0.00   0.14  36.90
md0               0.00     0.00 7647.00    0.00 30588.00     0.00     8.00     0.00    0.00    0.00    0.00   0.00   0.00

avg-cpu:  %user   %nice %system %iowait  %steal   %idle
           0.03    0.00    1.07   13.88    0.00   85.02

Device:         rrqm/s   wrqm/s     r/s     w/s    rkB/s    wkB/s avgrq-sz avgqu-sz   await r_await w_await  svctm  %util
nvme0n1           0.00     0.00    0.00    0.00     0.00     0.00     0.00     0.00    0.00    0.00    0.00   0.00   0.00
sda               0.00     0.00    0.00    0.00     0.00     0.00     0.00     0.00    0.00    0.00    0.00   0.00   0.00
sdc               0.00     0.00 2574.00    0.00 10296.00     0.00     8.00     1.92    0.74    0.74    0.00   0.14  35.90
sdb               0.00     0.00 2555.00    0.00 10220.00     0.00     8.00     2.20    0.87    0.87    0.00   0.16  40.20
sdd               0.00     0.00 2438.00    0.00  9752.00     0.00     8.00     1.91    0.79    0.79    0.00   0.14  33.00
md0               0.00     0.00 7567.00    0.00 30268.00     0.00     8.00     0.00    0.00    0.00    0.00   0.00   0.00

avg-cpu:  %user   %nice %system %iowait  %steal   %idle
           0.09    0.00    1.07   14.10    0.00   84.74

Device:         rrqm/s   wrqm/s     r/s     w/s    rkB/s    wkB/s avgrq-sz avgqu-sz   await r_await w_await  svctm  %util
nvme0n1           0.00     0.00    0.00    0.00     0.00     0.00     0.00     0.00    0.00    0.00    0.00   0.00   0.00
sda               0.00     0.00    0.00    0.00     0.00     0.00     0.00     0.00    0.00    0.00    0.00   0.00   0.00
sdc               0.00     0.00 2569.00    0.00 10276.00     0.00     8.00     2.07    0.80    0.80    0.00   0.15  37.50
sdb               0.00     0.00 2496.00    0.00  9984.00     0.00     8.00     1.92    0.77    0.77    0.00   0.13  33.40
sdd               0.00     0.00 2709.00    0.00 10836.00     0.00     8.00     2.14    0.79    0.79    0.00   0.14  38.30
md0               0.00     0.00 7774.00    0.00 31096.00     0.00     8.00     0.00    0.00    0.00    0.00   0.00   0.00

avg-cpu:  %user   %nice %system %iowait  %steal   %idle
           0.06    0.00    1.01   14.37    0.00   84.56

Device:         rrqm/s   wrqm/s     r/s     w/s    rkB/s    wkB/s avgrq-sz avgqu-sz   await r_await w_await  svctm  %util
nvme0n1           0.00     0.00    0.00    0.00     0.00     0.00     0.00     0.00    0.00    0.00    0.00   0.00   0.00
sda               0.00     0.00    0.00    0.00     0.00     0.00     0.00     0.00    0.00    0.00    0.00   0.00   0.00
sdc               0.00     0.00 2457.00    0.00  9828.00     0.00     8.00     2.17    0.89    0.89    0.00   0.15  37.50
sdb               0.00     0.00 2444.00    0.00  9776.00     0.00     8.00     1.98    0.81    0.81    0.00   0.14  34.10
sdd               0.00     0.00 2364.00    0.00  9456.00     0.00     8.00     2.06    0.87    0.87    0.00   0.15  35.20
md0               0.00     0.00 7265.00    0.00 29060.00     0.00     8.00     0.00    0.00    0.00    0.00   0.00   0.00

avg-cpu:  %user   %nice %system %iowait  %steal   %idle
           0.06    0.00    1.16   14.03    0.00   84.74

Device:         rrqm/s   wrqm/s     r/s     w/s    rkB/s    wkB/s avgrq-sz avgqu-sz   await r_await w_await  svctm  %util
nvme0n1           0.00     0.00    0.00    0.00     0.00     0.00     0.00     0.00    0.00    0.00    0.00   0.00   0.00
sda               0.00     0.00    0.00    0.00     0.00     0.00     0.00     0.00    0.00    0.00    0.00   0.00   0.00
sdc               0.00     0.00 2717.00    0.00 10868.00     0.00     8.00     1.99    0.73    0.73    0.00   0.13  35.80
sdb               0.00     0.00 2847.00    0.00 11388.00     0.00     8.00     2.06    0.72    0.72    0.00   0.13  37.30
sdd               0.00     0.00 2643.00    0.00 10572.00     0.00     8.00     2.06    0.78    0.78    0.00   0.14  37.10
md0               0.00     0.00 8204.00    0.00 32816.00     0.00     8.00     0.00    0.00    0.00    0.00   0.00   0.00

avg-cpu:  %user   %nice %system %iowait  %steal   %idle
           0.06    0.00    1.19   14.43    0.00   84.31

Device:         rrqm/s   wrqm/s     r/s     w/s    rkB/s    wkB/s avgrq-sz avgqu-sz   await r_await w_await  svctm  %util
nvme0n1           0.00     0.00    0.00    0.00     0.00     0.00     0.00     0.00    0.00    0.00    0.00   0.00   0.00
sda               0.00    11.00    0.00    2.00     0.00    52.00    52.00     0.00    0.50    0.00    0.50   0.50   0.10
sdc               0.00     0.00 2655.00    0.00 10620.00     0.00     8.00     2.05    0.78    0.78    0.00   0.14  36.10
sdb               0.00     0.00 2718.00    0.00 10872.00     0.00     8.00     2.01    0.74    0.74    0.00   0.12  33.20
sdd               0.00     0.00 2703.00    0.00 10812.00     0.00     8.00     2.15    0.79    0.79    0.00   0.14  38.40
md0               0.00     0.00 8080.00    0.00 32320.00     0.00     8.00     0.00    0.00    0.00    0.00   0.00   0.00

avg-cpu:  %user   %nice %system %iowait  %steal   %idle
           0.06    0.00    1.07   14.13    0.00   84.73

Device:         rrqm/s   wrqm/s     r/s     w/s    rkB/s    wkB/s avgrq-sz avgqu-sz   await r_await w_await  svctm  %util
nvme0n1           0.00     0.00    0.00    0.00     0.00     0.00     0.00     0.00    0.00    0.00    0.00   0.00   0.00
sda               0.00     0.00    0.00    0.00     0.00     0.00     0.00     0.00    0.00    0.00    0.00   0.00   0.00
sdc               0.00     0.00 2651.00    0.00 10604.00     0.00     8.00     2.02    0.77    0.77    0.00   0.14  37.60
sdb               0.00     0.00 2655.00    0.00 10620.00     0.00     8.00     2.02    0.76    0.76    0.00   0.14  37.30
sdd               0.00     0.00 2736.00    0.00 10944.00     0.00     8.00     2.15    0.78    0.78    0.00   0.13  36.60
md0               0.00     0.00 8042.00    0.00 32168.00     0.00     8.00     0.00    0.00    0.00    0.00   0.00   0.00

avg-cpu:  %user   %nice %system %iowait  %steal   %idle
           0.09    0.00    1.16   14.39    0.00   84.35

Device:         rrqm/s   wrqm/s     r/s     w/s    rkB/s    wkB/s avgrq-sz avgqu-sz   await r_await w_await  svctm  %util
nvme0n1           0.00     0.00    0.00    0.00     0.00     0.00     0.00     0.00    0.00    0.00    0.00   0.00   0.00
sda               0.00     0.00    0.00    0.00     0.00     0.00     0.00     0.00    0.00    0.00    0.00   0.00   0.00
sdc               0.00     0.00 2650.00    0.00 10600.00     0.00     8.00     2.15    0.81    0.81    0.00   0.14  38.30
sdb               0.00     0.00 2729.00    0.00 10916.00     0.00     8.00     1.98    0.72    0.72    0.00   0.13  34.50
sdd               0.00     0.00 2586.00    0.00 10344.00     0.00     8.00     2.03    0.78    0.78    0.00   0.14  36.60
md0               0.00     0.00 7969.00    0.00 31876.00     0.00     8.00     0.00    0.00    0.00    0.00   0.00   0.00

avg-cpu:  %user   %nice %system %iowait  %steal   %idle
           0.06    0.00    1.07   14.20    0.00   84.67

Device:         rrqm/s   wrqm/s     r/s     w/s    rkB/s    wkB/s avgrq-sz avgqu-sz   await r_await w_await  svctm  %util
nvme0n1           0.00     0.00    0.00    0.00     0.00     0.00     0.00     0.00    0.00    0.00    0.00   0.00   0.00
sda               0.00     0.00    0.00    0.00     0.00     0.00     0.00     0.00    0.00    0.00    0.00   0.00   0.00
sdc               0.00     0.00 2709.00    0.00 10836.00     0.00     8.00     2.13    0.78    0.78    0.00   0.14  37.70
sdb               0.00     0.00 2616.00    0.00 10464.00     0.00     8.00     2.04    0.78    0.78    0.00   0.14  36.00
sdd               0.00     0.00 2809.00    0.00 11236.00     0.00     8.00     2.08    0.73    0.73    0.00   0.13  37.10
md0               0.00     0.00 8129.00    0.00 32516.00     0.00     8.00     0.00    0.00    0.00    0.00   0.00   0.00

avg-cpu:  %user   %nice %system %iowait  %steal   %idle
           0.06    0.00    1.26   14.37    0.00   84.31

Device:         rrqm/s   wrqm/s     r/s     w/s    rkB/s    wkB/s avgrq-sz avgqu-sz   await r_await w_await  svctm  %util
nvme0n1           0.00     0.00    0.00    0.00     0.00     0.00     0.00     0.00    0.00    0.00    0.00   0.00   0.00
sda               0.00     0.00    0.00    0.00     0.00     0.00     0.00     0.00    0.00    0.00    0.00   0.00   0.00
sdc               0.00     0.00 2663.00    0.00 10652.00     0.00     8.00     1.99    0.74    0.74    0.00   0.13  35.60
sdb               0.00     0.00 2651.00    0.00 10604.00     0.00     8.00     2.33    0.88    0.88    0.00   0.15  39.40
sdd               0.00     0.00 2748.00    0.00 10992.00     0.00     8.00     1.94    0.71    0.71    0.00   0.13  34.60
md0               0.00     0.00 8060.00    0.00 32240.00     0.00     8.00     0.00    0.00    0.00    0.00   0.00   0.00

avg-cpu:  %user   %nice %system %iowait  %steal   %idle
           0.06    0.00    0.91   13.20    0.00   85.82

Device:         rrqm/s   wrqm/s     r/s     w/s    rkB/s    wkB/s avgrq-sz avgqu-sz   await r_await w_await  svctm  %util
nvme0n1           0.00     0.00    0.00    0.00     0.00     0.00     0.00     0.00    0.00    0.00    0.00   0.00   0.00
sda               0.00     4.00    0.00    5.00     0.00    76.00    30.40     0.00    0.20    0.00    0.20   0.20   0.10
sdc               0.00     0.00 2650.00    0.00 10600.00     0.00     8.00     2.06    0.78    0.78    0.00   0.14  36.80
sdb               0.00     0.00 2519.00    0.00 10076.00     0.00     8.00     2.15    0.85    0.85    0.00   0.15  38.50
sdd               0.00     0.00 2658.00    0.00 10632.00     0.00     8.00     1.96    0.74    0.74    0.00   0.13  34.80
md0               0.00     0.00 7822.00    0.00 31288.00     0.00     8.00     0.00    0.00    0.00    0.00   0.00   0.00

avg-cpu:  %user   %nice %system %iowait  %steal   %idle
           0.06    0.00    1.01   11.69    0.00   87.24

Device:         rrqm/s   wrqm/s     r/s     w/s    rkB/s    wkB/s avgrq-sz avgqu-sz   await r_await w_await  svctm  %util
nvme0n1           0.00     0.00    0.00    0.00     0.00     0.00     0.00     0.00    0.00    0.00    0.00   0.00   0.00
sda               0.00     0.00    0.00    0.00     0.00     0.00     0.00     0.00    0.00    0.00    0.00   0.00   0.00
sdc               0.00     0.00 2701.00    0.00 10804.00     0.00     8.00     2.02    0.75    0.75    0.00   0.14  37.50
sdb               0.00     0.00 2636.00    0.00 10544.00     0.00     8.00     1.99    0.75    0.75    0.00   0.13  34.80
sdd               0.00     0.00 2628.00    0.00 10512.00     0.00     8.00     2.02    0.77    0.77    0.00   0.13  35.40
md0               0.00     0.00 7969.00    0.00 31876.00     0.00     8.00     0.00    0.00    0.00    0.00   0.00   0.00

avg-cpu:  %user   %nice %system %iowait  %steal   %idle
           0.09    0.00    1.35   11.93    0.00   86.62

Device:         rrqm/s   wrqm/s     r/s     w/s    rkB/s    wkB/s avgrq-sz avgqu-sz   await r_await w_await  svctm  %util
nvme0n1           0.00     0.00    0.00    0.00     0.00     0.00     0.00     0.00    0.00    0.00    0.00   0.00   0.00
sda               0.00     0.00    0.00    0.00     0.00     0.00     0.00     0.00    0.00    0.00    0.00   0.00   0.00
sdc               0.00     0.00 2831.00    0.00 11324.00     0.00     8.00     1.93    0.68    0.68    0.00   0.12  33.90
sdb               0.00     0.00 2762.00    0.00 11048.00     0.00     8.00     2.05    0.74    0.74    0.00   0.13  35.10
sdd               0.00     0.00 2838.00    0.00 11352.00     0.00     8.00     2.16    0.76    0.76    0.00   0.14  38.60
md0               0.00     0.00 8434.00    0.00 33736.00     0.00     8.00     0.00    0.00    0.00    0.00   0.00   0.00

avg-cpu:  %user   %nice %system %iowait  %steal   %idle
           0.06    0.00    1.04   12.09    0.00   86.81

Device:         rrqm/s   wrqm/s     r/s     w/s    rkB/s    wkB/s avgrq-sz avgqu-sz   await r_await w_await  svctm  %util
nvme0n1           0.00     0.00    0.00    0.00     0.00     0.00     0.00     0.00    0.00    0.00    0.00   0.00   0.00
sda               0.00     0.00    0.00    0.00     0.00     0.00     0.00     0.00    0.00    0.00    0.00   0.00   0.00
sdc               0.00     0.00 2595.00    0.00 10380.00     0.00     8.00     1.95    0.75    0.75    0.00   0.13  34.70
sdb               0.00     0.00 2709.00    0.00 10836.00     0.00     8.00     2.18    0.80    0.80    0.00   0.14  37.70
sdd               0.00     0.00 2675.00    0.00 10700.00     0.00     8.00     2.11    0.79    0.79    0.00   0.14  37.70
md0               0.00     0.00 7977.00    0.00 31908.00     0.00     8.00     0.00    0.00    0.00    0.00   0.00   0.00

avg-cpu:  %user   %nice %system %iowait  %steal   %idle
           0.06    0.00    1.23   11.72    0.00   86.99

Device:         rrqm/s   wrqm/s     r/s     w/s    rkB/s    wkB/s avgrq-sz avgqu-sz   await r_await w_await  svctm  %util
nvme0n1           0.00     0.00    0.00    0.00     0.00     0.00     0.00     0.00    0.00    0.00    0.00   0.00   0.00
sda               0.00     0.00    0.00    0.00     0.00     0.00     0.00     0.00    0.00    0.00    0.00   0.00   0.00
sdc               0.00     0.00 2631.00    0.00 10524.00     0.00     8.00     2.00    0.76    0.76    0.00   0.14  36.70
sdb               0.00     0.00 2755.00    0.00 11020.00     0.00     8.00     1.95    0.71    0.71    0.00   0.13  35.80
sdd               0.00     0.00 2673.00    0.00 10692.00     0.00     8.00     2.00    0.75    0.75    0.00   0.14  36.60
md0               0.00     0.00 8061.00    0.00 32244.00     0.00     8.00     0.00    0.00    0.00    0.00   0.00   0.00

avg-cpu:  %user   %nice %system %iowait  %steal   %idle
           0.06    0.00    1.29   11.49    0.00   87.15

Device:         rrqm/s   wrqm/s     r/s     w/s    rkB/s    wkB/s avgrq-sz avgqu-sz   await r_await w_await  svctm  %util
nvme0n1           0.00     0.00    0.00    0.00     0.00     0.00     0.00     0.00    0.00    0.00    0.00   0.00   0.00
sda               0.00     7.00    0.00    2.00     0.00    36.00    36.00     0.00    0.00    0.00    0.00   0.00   0.00
sdc               0.00     0.00 2301.00    0.00  9204.00     0.00     8.00     2.06    0.90    0.90    0.00   0.16  37.20
sdb               0.00     0.00 2683.00    0.00 10732.00     0.00     8.00     2.01    0.76    0.76    0.00   0.14  38.00
sdd               0.00     0.00 2605.00    0.00 10420.00     0.00     8.00     1.85    0.71    0.71    0.00   0.13  33.50
md0               0.00     0.00 7586.00    0.00 30344.00     0.00     8.00     0.00    0.00    0.00    0.00   0.00   0.00

avg-cpu:  %user   %nice %system %iowait  %steal   %idle
           0.06    0.00    1.19   11.65    0.00   87.09

Device:         rrqm/s   wrqm/s     r/s     w/s    rkB/s    wkB/s avgrq-sz avgqu-sz   await r_await w_await  svctm  %util
nvme0n1           0.00     0.00    0.00    0.00     0.00     0.00     0.00     0.00    0.00    0.00    0.00   0.00   0.00
sda               0.00     0.00    0.00    0.00     0.00     0.00     0.00     0.00    0.00    0.00    0.00   0.00   0.00
sdc               0.00     0.00 2368.00    0.00  9472.00     0.00     8.00     1.82    0.77    0.77    0.00   0.14  34.00
sdb               0.00     0.00 2570.00    0.00 10280.00     0.00     8.00     2.13    0.83    0.83    0.00   0.15  37.40
sdd               0.00     0.00 2558.00    0.00 10232.00     0.00     8.00     1.97    0.77    0.77    0.00   0.14  35.90
md0               0.00     0.00 7492.00    0.00 29968.00     0.00     8.00     0.00    0.00    0.00    0.00   0.00   0.00

avg-cpu:  %user   %nice %system %iowait  %steal   %idle
           0.09    0.00    1.10   10.40    0.00   88.41

Device:         rrqm/s   wrqm/s     r/s     w/s    rkB/s    wkB/s avgrq-sz avgqu-sz   await r_await w_await  svctm  %util
nvme0n1           0.00     0.00    0.00    0.00     0.00     0.00     0.00     0.00    0.00    0.00    0.00   0.00   0.00
sda               0.00     0.00    0.00    0.00     0.00     0.00     0.00     0.00    0.00    0.00    0.00   0.00   0.00
sdc               0.00     0.00 2591.00    0.00 10364.00     0.00     8.00     2.13    0.83    0.83    0.00   0.15  39.00
sdb               0.00     0.00 2339.00    0.00  9356.00     0.00     8.00     1.90    0.82    0.82    0.00   0.15  35.40
sdd               0.00     0.00 2719.00    0.00 10876.00     0.00     8.00     2.00    0.73    0.73    0.00   0.13  35.70
md0               0.00     0.00 7649.00    0.00 30596.00     0.00     8.00     0.00    0.00    0.00    0.00   0.00   0.00

avg-cpu:  %user   %nice %system %iowait  %steal   %idle
           0.06    0.00    1.10    9.17    0.00   89.66

Device:         rrqm/s   wrqm/s     r/s     w/s    rkB/s    wkB/s avgrq-sz avgqu-sz   await r_await w_await  svctm  %util
nvme0n1           0.00     0.00    0.00    0.00     0.00     0.00     0.00     0.00    0.00    0.00    0.00   0.00   0.00
sda               0.00     0.00    0.00    0.00     0.00     0.00     0.00     0.00    0.00    0.00    0.00   0.00   0.00
sdc               0.00     0.00 2587.00    0.00 10348.00     0.00     8.00     2.01    0.78    0.78    0.00   0.14  35.60
sdb               0.00     0.00 2521.00    0.00 10084.00     0.00     8.00     2.07    0.82    0.82    0.00   0.17  42.10
sdd               0.00     0.00 2448.00    0.00  9792.00     0.00     8.00     1.82    0.75    0.75    0.00   0.14  33.40
md0               0.00     0.00 7563.00    0.00 30252.00     0.00     8.00     0.00    0.00    0.00    0.00   0.00   0.00

avg-cpu:  %user   %nice %system %iowait  %steal   %idle
           0.03    0.00    1.19    9.37    0.00   89.40

Device:         rrqm/s   wrqm/s     r/s     w/s    rkB/s    wkB/s avgrq-sz avgqu-sz   await r_await w_await  svctm  %util
nvme0n1           0.00     0.00    0.00    0.00     0.00     0.00     0.00     0.00    0.00    0.00    0.00   0.00   0.00
sda               0.00     0.00    0.00    0.00     0.00     0.00     0.00     0.00    0.00    0.00    0.00   0.00   0.00
sdc               0.00     0.00 2611.00    0.00 10444.00     0.00     8.00     1.85    0.71    0.71    0.00   0.13  34.80
sdb               0.00     0.00 2777.00    0.00 11108.00     0.00     8.00     2.04    0.73    0.73    0.00   0.13  36.90
sdd               0.00     0.00 2711.00    0.00 10844.00     0.00     8.00     2.22    0.82    0.82    0.00   0.15  40.50
md0               0.00     0.00 8099.00    0.00 32396.00     0.00     8.00     0.00    0.00    0.00    0.00   0.00   0.00

