Linux 4.17.2 (bench2) 	08/04/2018 	_x86_64_	(32 CPU)

avg-cpu:  %user   %nice %system %iowait  %steal   %idle
           1.90    0.00    1.54    1.61    0.00   94.95

Device:         rrqm/s   wrqm/s     r/s     w/s    rkB/s    wkB/s avgrq-sz avgqu-sz   await r_await w_await  svctm  %util
nvme0n1         928.91     5.05 18726.37  515.59 104747.50 11628.20    12.10     1.33    0.05    0.03    0.67   0.02  39.20
sda               0.12     0.82   14.18    0.58   164.05     8.56    23.39     0.00    0.33    0.32    0.44   0.07   0.10
sdc              34.72     0.17  124.30    0.31  1865.23    96.77    31.49     0.13    1.04    0.10  381.84   0.90  11.23
sdb              32.70     0.19  126.28    0.33  1863.30    96.60    30.96     0.56    4.40    3.34  413.03   0.84  10.68
sdd              34.91     0.17  123.85    0.26  1861.30    96.27    31.55     0.87    7.02    5.13  909.23   0.91  11.24
md0               0.00     0.00  479.57    1.20  6931.64   349.10    30.29     0.00    0.00    0.00    0.00   0.00   0.00

avg-cpu:  %user   %nice %system %iowait  %steal   %idle
           0.00    0.00    0.09    0.06    0.00   99.84

Device:         rrqm/s   wrqm/s     r/s     w/s    rkB/s    wkB/s avgrq-sz avgqu-sz   await r_await w_await  svctm  %util
nvme0n1           0.00     0.00    0.00    0.00     0.00     0.00     0.00     0.00    0.00    0.00    0.00   0.00   0.00
sda               0.00    12.00    3.00    2.00   100.00    56.00    62.40     0.00    0.20    0.33    0.00   0.20   0.10
sdc            1097.00     0.00  266.00    0.00  4712.00     0.00    35.43    20.85   69.17   69.17    0.00   2.63  70.00
sdb            1055.00     0.00  211.00    0.00  4612.00     0.00    43.72    15.81   69.14   69.14    0.00   3.46  73.00
sdd            1297.00     0.00  284.00    0.00  5720.00     0.00    40.28    29.11   95.56   95.56    0.00   3.48  98.70
md0               0.00     0.00 4298.00    0.00 17192.00     0.00     8.00     0.00    0.00    0.00    0.00   0.00   0.00

avg-cpu:  %user   %nice %system %iowait  %steal   %idle
           0.03    0.00    0.19    0.00    0.00   99.78

Device:         rrqm/s   wrqm/s     r/s     w/s    rkB/s    wkB/s avgrq-sz avgqu-sz   await r_await w_await  svctm  %util
nvme0n1           0.00     0.00    0.00    0.00     0.00     0.00     0.00     0.00    0.00    0.00    0.00   0.00   0.00
sda               0.00     0.00    0.00    0.00     0.00     0.00     0.00     0.00    0.00    0.00    0.00   0.00   0.00
sdc            1113.00     0.00  414.00    0.00  6864.00     0.00    33.16    29.41   76.96   76.96    0.00   2.32  96.00
sdb            1088.00     0.00  364.00    0.00  6264.00     0.00    34.42    22.67   65.65   65.65    0.00   2.36  85.90
sdd            1027.00     0.00  379.00    0.00  6232.00     0.00    32.89    23.08   66.11   66.11    0.00   2.26  85.60
md0               0.00     0.00 4392.00    0.00 17564.00     0.00     8.00     0.00    0.00    0.00    0.00   0.00   0.00

avg-cpu:  %user   %nice %system %iowait  %steal   %idle
           0.00    0.00    0.22    0.34    0.00   99.44

Device:         rrqm/s   wrqm/s     r/s     w/s    rkB/s    wkB/s avgrq-sz avgqu-sz   await r_await w_await  svctm  %util
nvme0n1           0.00     0.00    0.00    0.00     0.00     0.00     0.00     0.00    0.00    0.00    0.00   0.00   0.00
sda               0.00     0.00    0.00    0.00     0.00     0.00     0.00     0.00    0.00    0.00    0.00   0.00   0.00
sdc            1202.00     0.00  425.00    0.00  5980.00     0.00    28.14    27.50   58.34   58.34    0.00   2.04  86.50
sdb            1226.00     0.00  430.00    0.00  6516.00     0.00    30.31    26.56   60.14   60.14    0.00   2.16  92.90
sdd            1353.00     0.00  417.00    0.00  6832.00     0.00    32.77    26.98   63.00   63.00    0.00   2.28  95.00
md0               0.00     0.00 4999.00    0.00 20000.00     0.00     8.00     0.00    0.00    0.00    0.00   0.00   0.00

avg-cpu:  %user   %nice %system %iowait  %steal   %idle
           0.00    0.00    0.38    0.00    0.00   99.78

Device:         rrqm/s   wrqm/s     r/s     w/s    rkB/s    wkB/s avgrq-sz avgqu-sz   await r_await w_await  svctm  %util
nvme0n1           0.00     0.00    0.00    0.00     0.00     0.00     0.00     0.00    0.00    0.00    0.00   0.00   0.00
sda               0.00     0.00    0.00    0.00     0.00     0.00     0.00     0.00    0.00    0.00    0.00   0.00   0.00
sdc            1089.00     0.00  371.00    0.00  6368.00     0.00    34.33    23.08   69.49   69.49    0.00   2.27  84.30
sdb            1370.00     0.00  398.00    0.00  7124.00     0.00    35.80    28.23   70.34   70.34    0.00   2.09  83.00
sdd            1055.00     0.00  388.00    0.00  6020.00     0.00    31.03    28.38   74.97   74.97    0.00   2.40  93.00
md0               0.00     0.00 4641.00    0.00 18564.00     0.00     8.00     0.00    0.00    0.00    0.00   0.00   0.00

avg-cpu:  %user   %nice %system %iowait  %steal   %idle
           0.03    0.00    0.63    0.09    0.00   99.25

Device:         rrqm/s   wrqm/s     r/s     w/s    rkB/s    wkB/s avgrq-sz avgqu-sz   await r_await w_await  svctm  %util
nvme0n1           0.00     0.00    0.00    0.00     0.00     0.00     0.00     0.00    0.00    0.00    0.00   0.00   0.00
sda               0.00     0.00    0.00    0.00     0.00     0.00     0.00     0.00    0.00    0.00    0.00   0.00   0.00
sdc            1690.00     0.00  420.00    0.00  7684.00     0.00    36.59    34.63   75.23   75.23    0.00   2.20  92.30
sdb            1425.00     0.00  402.00    0.00  6920.00     0.00    34.43    25.68   62.00   62.00    0.00   2.08  83.60
sdd            1229.00     0.00  405.00    0.00  6524.00     0.00    32.22    27.95   68.53   68.53    0.00   2.28  92.40
md0               0.00     0.00 5618.00    0.00 22472.00     0.00     8.00     0.00    0.00    0.00    0.00   0.00   0.00

avg-cpu:  %user   %nice %system %iowait  %steal   %idle
           0.00    0.00    0.63    0.22    0.00   99.16

Device:         rrqm/s   wrqm/s     r/s     w/s    rkB/s    wkB/s avgrq-sz avgqu-sz   await r_await w_await  svctm  %util
nvme0n1           0.00     0.00    0.00    0.00     0.00     0.00     0.00     0.00    0.00    0.00    0.00   0.00   0.00
sda               0.00     0.00    0.00    0.00     0.00     0.00     0.00     0.00    0.00    0.00    0.00   0.00   0.00
sdc            1450.00     0.00  400.00    0.00  7292.00     0.00    36.46    28.14   75.54   75.54    0.00   2.21  88.60
sdb            1492.00     0.00  401.00    0.00  7332.00     0.00    36.57    29.30   74.48   74.48    0.00   2.23  89.30
sdd            1330.00     0.00  372.00    0.00  5560.00     0.00    29.89    28.00   72.46   72.46    0.00   2.31  85.80
md0               0.00     0.00 5587.00    0.00 22348.00     0.00     8.00     0.00    0.00    0.00    0.00   0.00   0.00

avg-cpu:  %user   %nice %system %iowait  %steal   %idle
           0.00    0.00    0.50    0.19    0.00   99.31

Device:         rrqm/s   wrqm/s     r/s     w/s    rkB/s    wkB/s avgrq-sz avgqu-sz   await r_await w_await  svctm  %util
nvme0n1           0.00     0.00    0.00    0.00     0.00     0.00     0.00     0.00    0.00    0.00    0.00   0.00   0.00
sda               0.00     3.00    0.00    6.00     0.00    60.00    20.00     0.00    0.00    0.00    0.00   0.00   0.00
sdc            1140.00     0.00  395.00    0.00  6264.00     0.00    31.72    32.58   78.02   78.02    0.00   2.31  91.20
sdb            1087.00     0.00  404.00    0.00  6052.00     0.00    29.96    29.89   70.72   70.72    0.00   2.26  91.40
sdd            1255.00     0.00  418.00    0.00  6944.00     0.00    33.22    35.26   80.78   80.78    0.00   2.28  95.50
md0               0.00     0.00 4624.00    0.00 18496.00     0.00     8.00     0.00    0.00    0.00    0.00   0.00   0.00

avg-cpu:  %user   %nice %system %iowait  %steal   %idle
           0.03    0.00    0.50    0.41    0.00   99.06

Device:         rrqm/s   wrqm/s     r/s     w/s    rkB/s    wkB/s avgrq-sz avgqu-sz   await r_await w_await  svctm  %util
nvme0n1           0.00     0.00    0.00    0.00     0.00     0.00     0.00     0.00    0.00    0.00    0.00   0.00   0.00
sda               0.00     0.00    0.00    0.00     0.00     0.00     0.00     0.00    0.00    0.00    0.00   0.00   0.00
sdc            1091.00     0.00  379.00    0.00  6248.00     0.00    32.97    27.51   71.75   71.75    0.00   2.12  80.50
sdb            1325.00     0.00  407.00    0.00  7232.00     0.00    35.54    34.01   84.54   84.54    0.00   2.28  92.70
sdd            1139.00     0.00  367.00    0.00  6644.00     0.00    36.21    23.38   66.14   66.14    0.00   2.20  80.60
md0               0.00     0.00 4653.00    0.00 18612.00     0.00     8.00     0.00    0.00    0.00    0.00   0.00   0.00

avg-cpu:  %user   %nice %system %iowait  %steal   %idle
           0.00    0.00    0.59    0.00    0.00   99.47

Device:         rrqm/s   wrqm/s     r/s     w/s    rkB/s    wkB/s avgrq-sz avgqu-sz   await r_await w_await  svctm  %util
nvme0n1           0.00     0.00    0.00    0.00     0.00     0.00     0.00     0.00    0.00    0.00    0.00   0.00   0.00
sda               0.00     0.00    0.00    0.00     0.00     0.00     0.00     0.00    0.00    0.00    0.00   0.00   0.00
sdc            1287.00     0.00  408.00    0.00  6324.00     0.00    31.00    30.68   78.75   78.75    0.00   2.21  90.30
sdb            1382.00     0.00  394.00    0.00  6756.00     0.00    34.29    28.65   74.82   74.82    0.00   2.27  89.40
sdd            1196.00     0.00  360.00    0.00  5860.00     0.00    32.56    26.50   75.04   75.04    0.00   2.32  83.70
md0               0.00     0.00 5132.00    0.00 20528.00     0.00     8.00     0.00    0.00    0.00    0.00   0.00   0.00

avg-cpu:  %user   %nice %system %iowait  %steal   %idle
           0.03    0.00    0.59    0.06    0.00   99.31

Device:         rrqm/s   wrqm/s     r/s     w/s    rkB/s    wkB/s avgrq-sz avgqu-sz   await r_await w_await  svctm  %util
nvme0n1           0.00     0.00    0.00    0.00     0.00     0.00     0.00     0.00    0.00    0.00    0.00   0.00   0.00
sda               0.00     0.00    0.00    0.00     0.00     0.00     0.00     0.00    0.00    0.00    0.00   0.00   0.00
sdc            1169.00     0.00  433.00    0.00  6668.00     0.00    30.80    32.33   74.21   74.21    0.00   2.19  95.00
sdb            1145.00     0.00  378.00    0.00  5804.00     0.00    30.71    23.59   58.12   58.12    0.00   2.10  79.40
sdd            1107.00     0.00  416.00    0.00  6236.00     0.00    29.98    29.02   66.83   66.83    0.00   2.03  84.40
md0               0.00     0.00 4643.00    0.00 18572.00     0.00     8.00     0.00    0.00    0.00    0.00   0.00   0.00

avg-cpu:  %user   %nice %system %iowait  %steal   %idle
           0.00    0.00    0.63    0.00    0.00   99.47

Device:         rrqm/s   wrqm/s     r/s     w/s    rkB/s    wkB/s avgrq-sz avgqu-sz   await r_await w_await  svctm  %util
nvme0n1           0.00     0.00    0.00    0.00     0.00     0.00     0.00     0.00    0.00    0.00    0.00   0.00   0.00
sda               0.00     0.00    0.00    0.00     0.00     0.00     0.00     0.00    0.00    0.00    0.00   0.00   0.00
sdc            1267.00     0.00  405.00    0.00  6528.00     0.00    32.24    28.64   70.74   70.74    0.00   2.13  86.40
sdb            1205.00     0.00  429.00    0.00  6784.00     0.00    31.63    28.45   68.80   68.80    0.00   2.01  86.40
sdd            1018.00     0.00  412.00    0.00  5676.00     0.00    27.55    27.38   68.59   68.59    0.00   2.16  88.80
md0               0.00     0.00 4748.00    0.00 18992.00     0.00     8.00     0.00    0.00    0.00    0.00   0.00   0.00

avg-cpu:  %user   %nice %system %iowait  %steal   %idle
           0.00    0.00    0.56    0.28    0.00   99.16

Device:         rrqm/s   wrqm/s     r/s     w/s    rkB/s    wkB/s avgrq-sz avgqu-sz   await r_await w_await  svctm  %util
nvme0n1           0.00     0.00    0.00    0.00     0.00     0.00     0.00     0.00    0.00    0.00    0.00   0.00   0.00
sda               0.00     8.00    0.00    3.00     0.00    60.00    40.00     0.00    0.33    0.00    0.33   0.33   0.10
sdc            1320.00     0.00  459.00    0.00  7224.00     0.00    31.48    33.26   69.44   69.44    0.00   2.07  94.80
sdb            1112.00     0.00  413.00    0.00  6136.00     0.00    29.71    24.15   54.66   54.66    0.00   2.03  83.70
sdd            1287.00     0.00  461.00    0.00  7448.00     0.00    32.31    30.47   66.10   66.10    0.00   2.12  97.80
md0               0.00     0.00 4974.00    0.00 19896.00     0.00     8.00     0.00    0.00    0.00    0.00   0.00   0.00

avg-cpu:  %user   %nice %system %iowait  %steal   %idle
           0.00    0.00    0.50    0.00    0.00   99.59

Device:         rrqm/s   wrqm/s     r/s     w/s    rkB/s    wkB/s avgrq-sz avgqu-sz   await r_await w_await  svctm  %util
nvme0n1           0.00     0.00    0.00    0.00     0.00     0.00     0.00     0.00    0.00    0.00    0.00   0.00   0.00
sda               0.00     0.00    0.00    0.00     0.00     0.00     0.00     0.00    0.00    0.00    0.00   0.00   0.00
sdc            1121.00     0.00  396.00    0.00  6516.00     0.00    32.91    27.95   75.71   75.71    0.00   2.20  87.10
sdb             906.00     0.00  358.00    0.00  5700.00     0.00    31.84    22.41   72.08   72.08    0.00   2.29  82.10
sdd            1208.00     0.00  371.00    0.00  6276.00     0.00    33.83    30.18   80.19   80.19    0.00   2.40  88.90
md0               0.00     0.00 4287.00    0.00 17148.00     0.00     8.00     0.00    0.00    0.00    0.00   0.00   0.00

avg-cpu:  %user   %nice %system %iowait  %steal   %idle
           0.03    0.00    0.66    0.00    0.00   99.34

Device:         rrqm/s   wrqm/s     r/s     w/s    rkB/s    wkB/s avgrq-sz avgqu-sz   await r_await w_await  svctm  %util
nvme0n1           0.00     0.00    0.00    0.00     0.00     0.00     0.00     0.00    0.00    0.00    0.00   0.00   0.00
sda               0.00     0.00    0.00    0.00     0.00     0.00     0.00     0.00    0.00    0.00    0.00   0.00   0.00
sdc            1237.00     0.00  362.00    0.00  5776.00     0.00    31.91    25.73   73.13   73.13    0.00   2.40  86.90
sdb            1304.00     0.00  370.00    0.00  5752.00     0.00    31.09    28.25   74.69   74.69    0.00   2.21  81.60
sdd            1253.00     0.00  392.00    0.00  6128.00     0.00    31.27    30.46   82.01   82.01    0.00   2.30  90.00
md0               0.00     0.00 5111.00    0.00 20444.00     0.00     8.00     0.00    0.00    0.00    0.00   0.00   0.00

avg-cpu:  %user   %nice %system %iowait  %steal   %idle
           0.00    0.00    0.56    0.03    0.00   99.41

Device:         rrqm/s   wrqm/s     r/s     w/s    rkB/s    wkB/s avgrq-sz avgqu-sz   await r_await w_await  svctm  %util
nvme0n1           0.00     0.00    0.00    0.00     0.00     0.00     0.00     0.00    0.00    0.00    0.00   0.00   0.00
sda               0.00     0.00    0.00    0.00     0.00     0.00     0.00     0.00    0.00    0.00    0.00   0.00   0.00
sdc            1298.00     0.00  469.00    0.00  7580.00     0.00    32.32    29.00   61.18   61.18    0.00   1.96  92.10
sdb            1458.00     0.00  502.00    0.00  8428.00     0.00    33.58    36.99   71.33   71.33    0.00   1.98  99.30
sdd            1129.00     0.00  437.00    0.00  6484.00     0.00    29.68    25.61   54.38   54.38    0.00   1.91  83.50
md0               0.00     0.00 5145.00    0.00 20580.00     0.00     8.00     0.00    0.00    0.00    0.00   0.00   0.00

avg-cpu:  %user   %nice %system %iowait  %steal   %idle
           0.03    0.00    0.50    0.03    0.00   99.44

Device:         rrqm/s   wrqm/s     r/s     w/s    rkB/s    wkB/s avgrq-sz avgqu-sz   await r_await w_await  svctm  %util
nvme0n1           0.00     0.00    0.00    0.00     0.00     0.00     0.00     0.00    0.00    0.00    0.00   0.00   0.00
sda               0.00     0.00    0.00    0.00     0.00     0.00     0.00     0.00    0.00    0.00    0.00   0.00   0.00
sdc             992.00     0.00  343.00    0.00  5620.00     0.00    32.77    23.22   69.92   69.92    0.00   2.33  80.00
sdb             960.00     0.00  377.00    0.00  5704.00     0.00    30.26    26.74   75.73   75.73    0.00   2.39  90.10
sdd            1228.00     0.00  401.00    0.00  6944.00     0.00    34.63    28.08   73.34   73.34    0.00   2.16  86.50
md0               0.00     0.00 4236.00    0.00 16944.00     0.00     8.00     0.00    0.00    0.00    0.00   0.00   0.00

avg-cpu:  %user   %nice %system %iowait  %steal   %idle
           0.00    0.00    0.59    0.03    0.00   99.37

Device:         rrqm/s   wrqm/s     r/s     w/s    rkB/s    wkB/s avgrq-sz avgqu-sz   await r_await w_await  svctm  %util
nvme0n1           0.00     0.00    0.00    0.00     0.00     0.00     0.00     0.00    0.00    0.00    0.00   0.00   0.00
sda               0.00     3.00    0.00    2.00     0.00    20.00    20.00     0.00    0.00    0.00    0.00   0.00   0.00
sdc            1319.00     0.00  415.00    0.00  6724.00     0.00    32.40    28.98   66.69   66.69    0.00   2.14  88.90
sdb            1261.00     0.00  414.00    0.00  6680.00     0.00    32.27    27.84   66.63   66.63    0.00   2.15  89.10
sdd            1277.00     0.00  423.00    0.00  6808.00     0.00    32.19    27.75   67.30   67.30    0.00   2.07  87.60
md0               0.00     0.00 5118.00    0.00 20472.00     0.00     8.00     0.00    0.00    0.00    0.00   0.00   0.00

avg-cpu:  %user   %nice %system %iowait  %steal   %idle
           0.00    0.00    0.50    0.34    0.00   99.16

Device:         rrqm/s   wrqm/s     r/s     w/s    rkB/s    wkB/s avgrq-sz avgqu-sz   await r_await w_await  svctm  %util
nvme0n1           0.00     0.00    0.00    0.00     0.00     0.00     0.00     0.00    0.00    0.00    0.00   0.00   0.00
sda               0.00     0.00    0.00    0.00     0.00     0.00     0.00     0.00    0.00    0.00    0.00   0.00   0.00
sdc            1007.00     0.00  380.00    0.00  5280.00     0.00    27.79    25.04   65.26   65.26    0.00   2.21  83.90
sdb            1010.00     0.00  402.00    0.00  5348.00     0.00    26.61    31.35   73.90   73.90    0.00   2.19  88.20
sdd             906.00     0.00  387.00    0.00  5028.00     0.00    25.98    27.06   68.37   68.37    0.00   2.27  88.00
md0               0.00     0.00 4128.00    0.00 16512.00     0.00     8.00     0.00    0.00    0.00    0.00   0.00   0.00

avg-cpu:  %user   %nice %system %iowait  %steal   %idle
           0.03    0.00    0.50    0.00    0.00   99.47

Device:         rrqm/s   wrqm/s     r/s     w/s    rkB/s    wkB/s avgrq-sz avgqu-sz   await r_await w_await  svctm  %util
nvme0n1           0.00     0.00    0.00    0.00     0.00     0.00     0.00     0.00    0.00    0.00    0.00   0.00   0.00
sda               0.00     0.00    0.00    0.00     0.00     0.00     0.00     0.00    0.00    0.00    0.00   0.00   0.00
sdc             961.00     0.00  371.00    0.00  5376.00     0.00    28.98    26.00   69.02   69.02    0.00   2.24  83.20
sdb            1053.00     0.00  387.00    0.00  5516.00     0.00    28.51    27.09   68.51   68.51    0.00   2.22  85.90
sdd            1020.00     0.00  370.00    0.00  5080.00     0.00    27.46    27.21   70.09   70.09    0.00   2.33  86.30
md0               0.00     0.00 4250.00    0.00 17000.00     0.00     8.00     0.00    0.00    0.00    0.00   0.00   0.00

avg-cpu:  %user   %nice %system %iowait  %steal   %idle
           0.00    0.00    0.56    0.13    0.00   99.31

Device:         rrqm/s   wrqm/s     r/s     w/s    rkB/s    wkB/s avgrq-sz avgqu-sz   await r_await w_await  svctm  %util
nvme0n1           0.00     0.00    0.00    0.00     0.00     0.00     0.00     0.00    0.00    0.00    0.00   0.00   0.00
sda               0.00     0.00    0.00    0.00     0.00     0.00     0.00     0.00    0.00    0.00    0.00   0.00   0.00
sdc            1148.00     0.00  410.00    0.00  6036.00     0.00    29.44    27.44   66.70   66.70    0.00   1.99  81.40
sdb            1051.00     0.00  398.00    0.00  5540.00     0.00    27.84    26.22   66.48   66.48    0.00   2.12  84.20
sdd            1078.00     0.00  423.00    0.00  6124.00     0.00    28.96    29.22   71.05   71.05    0.00   2.22  94.10
md0               0.00     0.00 4523.00    0.00 18092.00     0.00     8.00     0.00    0.00    0.00    0.00   0.00   0.00

