Linux 4.17.2 (bench2) 	08/04/2018 	_x86_64_	(32 CPU)

avg-cpu:  %user   %nice %system %iowait  %steal   %idle
           1.89    0.00    1.54    1.62    0.00   94.95

Device:         rrqm/s   wrqm/s     r/s     w/s    rkB/s    wkB/s avgrq-sz avgqu-sz   await r_await w_await  svctm  %util
nvme0n1         928.07     5.04 18709.53  515.13 104653.32 11617.75    12.10     1.33    0.05    0.03    0.67   0.02  39.17
sda               0.12     0.82   14.18    0.58   164.06     8.56    23.39     0.00    0.33    0.32    0.44   0.07   0.10
sdc              34.91     0.17  124.89    0.31  1871.77    96.69    31.45     0.14    1.10    0.16  381.84   0.90  11.26
sdb              32.89     0.18  126.86    0.33  1869.85    96.51    30.92     0.56    4.44    3.38  413.03   0.84  10.71
sdd              35.10     0.17  124.43    0.26  1867.84    96.19    31.50     0.88    7.05    5.18  909.23   0.90  11.28
md0               0.00     0.00  481.90    1.20  6954.86   348.79    30.24     0.00    0.00    0.00    0.00   0.00   0.00

avg-cpu:  %user   %nice %system %iowait  %steal   %idle
           0.00    0.00    0.06   13.92    0.00   86.01

Device:         rrqm/s   wrqm/s     r/s     w/s    rkB/s    wkB/s avgrq-sz avgqu-sz   await r_await w_await  svctm  %util
nvme0n1           0.00     0.00    0.00    0.00     0.00     0.00     0.00     0.00    0.00    0.00    0.00   0.00   0.00
sda               0.00     0.00   23.00    0.00   132.00     0.00    11.48     0.01    0.43    0.43    0.00   0.09   0.20
sdc               0.00     0.00  271.00    0.00  1084.00     0.00     8.00     1.91    7.04    7.04    0.00   2.46  66.80
sdb               0.00     0.00  238.00    0.00   952.00     0.00     8.00     1.76    7.11    7.11    0.00   2.53  60.10
sdd               0.00     0.00  221.00    0.00   884.00     0.00     8.00     1.31    5.94    5.94    0.00   2.68  59.20
md0               0.00     0.00  733.00    0.00  2932.00     0.00     8.00     0.00    0.00    0.00    0.00   0.00   0.00

avg-cpu:  %user   %nice %system %iowait  %steal   %idle
           0.03    0.00    0.16   15.19    0.00   84.62

Device:         rrqm/s   wrqm/s     r/s     w/s    rkB/s    wkB/s avgrq-sz avgqu-sz   await r_await w_await  svctm  %util
nvme0n1           0.00     0.00    0.00    0.00     0.00     0.00     0.00     0.00    0.00    0.00    0.00   0.00   0.00
sda               0.00     0.00    0.00    0.00     0.00     0.00     0.00     0.00    0.00    0.00    0.00   0.00   0.00
sdc               0.00     0.00  279.00    0.00  1116.00     0.00     8.00     1.66    5.95    5.95    0.00   2.29  63.90
sdb               0.00     0.00  322.00    0.00  1292.00     0.00     8.02     2.11    6.50    6.50    0.00   2.20  71.00
sdd               0.00     0.00  275.00    0.00  1100.00     0.00     8.00     1.75    6.36    6.36    0.00   2.61  71.80
md0               0.00     0.00  881.00    0.00  3524.00     0.00     8.00     0.00    0.00    0.00    0.00   0.00   0.00

avg-cpu:  %user   %nice %system %iowait  %steal   %idle
           0.00    0.00    0.09   14.64    0.00   85.27

Device:         rrqm/s   wrqm/s     r/s     w/s    rkB/s    wkB/s avgrq-sz avgqu-sz   await r_await w_await  svctm  %util
nvme0n1           0.00     0.00    0.00    0.00     0.00     0.00     0.00     0.00    0.00    0.00    0.00   0.00   0.00
sda               0.00     0.00    0.00    0.00     0.00     0.00     0.00     0.00    0.00    0.00    0.00   0.00   0.00
sdc               0.00     0.00  267.00    0.00  1068.00     0.00     8.00     1.46    5.48    5.48    0.00   2.13  57.00
sdb               0.00     0.00  269.00    0.00  1072.00     0.00     7.97     1.75    6.79    6.79    0.00   2.45  65.90
sdd               0.00     0.00  321.00    0.00  1284.00     0.00     8.00     2.04    6.39    6.39    0.00   1.86  59.80
md0               0.00     0.00  850.00    0.00  3400.00     0.00     8.00     0.00    0.00    0.00    0.00   0.00   0.00

avg-cpu:  %user   %nice %system %iowait  %steal   %idle
           0.00    0.00    0.13   15.11    0.00   84.77

Device:         rrqm/s   wrqm/s     r/s     w/s    rkB/s    wkB/s avgrq-sz avgqu-sz   await r_await w_await  svctm  %util
nvme0n1           0.00     0.00    0.00    0.00     0.00     0.00     0.00     0.00    0.00    0.00    0.00   0.00   0.00
sda               0.00     0.00    0.00    0.00     0.00     0.00     0.00     0.00    0.00    0.00    0.00   0.00   0.00
sdc               0.00     0.00  306.00    0.00  1224.00     0.00     8.00     2.37    7.48    7.48    0.00   2.56  78.40
sdb               0.00     0.00  266.00    0.00  1064.00     0.00     8.00     1.85    6.98    6.98    0.00   2.41  64.00
sdd               0.00     0.00  242.00    0.00   968.00     0.00     8.00     1.25    5.17    5.17    0.00   2.22  53.70
md0               0.00     0.00  821.00    0.00  3284.00     0.00     8.00     0.00    0.00    0.00    0.00   0.00   0.00

avg-cpu:  %user   %nice %system %iowait  %steal   %idle
           0.00    0.00    0.06   15.52    0.00   84.42

Device:         rrqm/s   wrqm/s     r/s     w/s    rkB/s    wkB/s avgrq-sz avgqu-sz   await r_await w_await  svctm  %util
nvme0n1           0.00     0.00    0.00    0.00     0.00     0.00     0.00     0.00    0.00    0.00    0.00   0.00   0.00
sda               0.00     0.00    0.00    0.00     0.00     0.00     0.00     0.00    0.00    0.00    0.00   0.00   0.00
sdc               0.00     0.00  305.00    0.00  1220.00     0.00     8.00     1.79    6.11    6.11    0.00   2.11  64.30
sdb               0.00     0.00  271.00    0.00  1084.00     0.00     8.00     1.47    5.15    5.15    0.00   2.20  59.70
sdd               0.00     0.00  345.00    0.00  1380.00     0.00     8.00     2.32    6.72    6.72    0.00   2.21  76.40
md0               0.00     0.00  921.00    0.00  3684.00     0.00     8.00     0.00    0.00    0.00    0.00   0.00   0.00

avg-cpu:  %user   %nice %system %iowait  %steal   %idle
           0.03    0.00    0.16   14.38    0.00   85.43

Device:         rrqm/s   wrqm/s     r/s     w/s    rkB/s    wkB/s avgrq-sz avgqu-sz   await r_await w_await  svctm  %util
nvme0n1           0.00     0.00    0.00    0.00     0.00     0.00     0.00     0.00    0.00    0.00    0.00   0.00   0.00
sda               0.00    11.00    0.00    2.00     0.00    52.00    52.00     0.00    0.50    0.00    0.50   0.50   0.10
sdc               0.00     0.00  345.00    0.00  1380.00     0.00     8.00     1.98    5.72    5.72    0.00   1.87  64.60
sdb               0.00     0.00  306.00    0.00  1224.00     0.00     8.00     1.55    5.25    5.25    0.00   1.92  58.80
sdd               0.00     0.00  285.00    0.00  1140.00     0.00     8.00     2.03    7.12    7.12    0.00   2.36  67.20
md0               0.00     0.00  936.00    0.00  3744.00     0.00     8.00     0.00    0.00    0.00    0.00   0.00   0.00

avg-cpu:  %user   %nice %system %iowait  %steal   %idle
           0.00    0.00    0.16   13.72    0.00   86.12

Device:         rrqm/s   wrqm/s     r/s     w/s    rkB/s    wkB/s avgrq-sz avgqu-sz   await r_await w_await  svctm  %util
nvme0n1           0.00     0.00    0.00    0.00     0.00     0.00     0.00     0.00    0.00    0.00    0.00   0.00   0.00
sda               0.00     0.00    0.00    0.00     0.00     0.00     0.00     0.00    0.00    0.00    0.00   0.00   0.00
sdc               0.00     0.00  287.00    0.00  1148.00     0.00     8.00     1.79    6.23    6.23    0.00   2.21  63.30
sdb               0.00     0.00  297.00    0.00  1188.00     0.00     8.00     2.00    6.75    6.75    0.00   2.31  68.60
sdd               0.00     0.00  268.00    0.00  1072.00     0.00     8.00     1.89    7.01    7.01    0.00   2.39  64.10
md0               0.00     0.00  852.00    0.00  3408.00     0.00     8.00     0.00    0.00    0.00    0.00   0.00   0.00

avg-cpu:  %user   %nice %system %iowait  %steal   %idle
           0.00    0.00    0.13   14.08    0.00   85.80

Device:         rrqm/s   wrqm/s     r/s     w/s    rkB/s    wkB/s avgrq-sz avgqu-sz   await r_await w_await  svctm  %util
nvme0n1           0.00     0.00    0.00    0.00     0.00     0.00     0.00     0.00    0.00    0.00    0.00   0.00   0.00
sda               0.00     0.00    0.00    0.00     0.00     0.00     0.00     0.00    0.00    0.00    0.00   0.00   0.00
sdc               0.00     0.00  335.00    0.00  1340.00     0.00     8.00     1.85    5.57    5.57    0.00   1.89  63.40
sdb               0.00     0.00  328.00    0.00  1312.00     0.00     8.00     1.99    6.08    6.08    0.00   2.09  68.40
sdd               0.00     0.00  303.00    0.00  1212.00     0.00     8.00     1.86    6.12    6.12    0.00   2.30  69.80
md0               0.00     0.00  966.00    0.00  3864.00     0.00     8.00     0.00    0.00    0.00    0.00   0.00   0.00

avg-cpu:  %user   %nice %system %iowait  %steal   %idle
           0.00    0.00    0.09   13.26    0.00   86.64

Device:         rrqm/s   wrqm/s     r/s     w/s    rkB/s    wkB/s avgrq-sz avgqu-sz   await r_await w_await  svctm  %util
nvme0n1           0.00     0.00    0.00    0.00     0.00     0.00     0.00     0.00    0.00    0.00    0.00   0.00   0.00
sda               0.00     0.00    0.00    0.00     0.00     0.00     0.00     0.00    0.00    0.00    0.00   0.00   0.00
sdc               0.00     0.00  335.00    0.00  1340.00     0.00     8.00     2.11    6.30    6.30    0.00   2.06  68.90
sdb               0.00     0.00  267.00    0.00  1068.00     0.00     8.00     1.65    6.06    6.06    0.00   2.33  62.20
sdd               0.00     0.00  306.00    0.00  1224.00     0.00     8.00     1.61    5.34    5.34    0.00   1.95  59.70
md0               0.00     0.00  905.00    0.00  3620.00     0.00     8.00     0.00    0.00    0.00    0.00   0.00   0.00

avg-cpu:  %user   %nice %system %iowait  %steal   %idle
           0.03    0.00    0.09   13.89    0.00   85.99

Device:         rrqm/s   wrqm/s     r/s     w/s    rkB/s    wkB/s avgrq-sz avgqu-sz   await r_await w_await  svctm  %util
nvme0n1           0.00     0.00    0.00    0.00     0.00     0.00     0.00     0.00    0.00    0.00    0.00   0.00   0.00
sda               0.00     0.00    0.00    0.00     0.00     0.00     0.00     0.00    0.00    0.00    0.00   0.00   0.00
sdc               0.00     0.00  269.00    0.00  1076.00     0.00     8.00     1.91    6.97    6.97    0.00   2.36  63.60
sdb               0.00     0.00  266.00    0.00  1064.00     0.00     8.00     2.07    7.59    7.59    0.00   2.48  66.10
sdd               0.00     0.00  317.00    0.00  1268.00     0.00     8.00     1.77    5.58    5.58    0.00   1.94  61.60
md0               0.00     0.00  854.00    0.00  3416.00     0.00     8.00     0.00    0.00    0.00    0.00   0.00   0.00

avg-cpu:  %user   %nice %system %iowait  %steal   %idle
           0.00    0.00    0.13   13.14    0.00   86.74

Device:         rrqm/s   wrqm/s     r/s     w/s    rkB/s    wkB/s avgrq-sz avgqu-sz   await r_await w_await  svctm  %util
nvme0n1           0.00     0.00    0.00    0.00     0.00     0.00     0.00     0.00    0.00    0.00    0.00   0.00   0.00
sda               0.00     1.00   57.00    2.00   440.00    12.00    15.32     0.02    0.34    0.33    0.50   0.08   0.50
sdc               0.00     0.00  268.00    0.00  1072.00     0.00     8.00     1.87    7.07    7.07    0.00   2.47  66.20
sdb               0.00     0.00  345.00    0.00  1380.00     0.00     8.00     2.10    6.33    6.33    0.00   2.05  70.70
sdd               0.00     0.00  240.00    0.00   960.00     0.00     8.00     1.52    6.30    6.30    0.00   2.37  56.80
md0               0.00     0.00  849.00    0.00  3396.00     0.00     8.00     0.00    0.00    0.00    0.00   0.00   0.00

avg-cpu:  %user   %nice %system %iowait  %steal   %idle
           0.00    0.00    0.09   13.51    0.00   86.39

Device:         rrqm/s   wrqm/s     r/s     w/s    rkB/s    wkB/s avgrq-sz avgqu-sz   await r_await w_await  svctm  %util
nvme0n1           0.00     0.00    0.00    0.00     0.00     0.00     0.00     0.00    0.00    0.00    0.00   0.00   0.00
sda               0.00     2.00    0.00    1.00     0.00    28.00    56.00     0.00    0.00    0.00    0.00   0.00   0.00
sdc               0.00     0.00  305.00    0.00  1220.00     0.00     8.00     1.98    6.46    6.46    0.00   2.23  68.00
sdb               0.00     0.00  270.00    0.00  1080.00     0.00     8.00     1.55    5.76    5.76    0.00   2.09  56.40
sdd               0.00     0.00  297.00    0.00  1188.00     0.00     8.00     2.01    6.71    6.71    0.00   2.30  68.40
md0               0.00     0.00  876.00    0.00  3504.00     0.00     8.00     0.00    0.00    0.00    0.00   0.00   0.00

avg-cpu:  %user   %nice %system %iowait  %steal   %idle
           0.03    0.00    0.16   13.10    0.00   86.71

Device:         rrqm/s   wrqm/s     r/s     w/s    rkB/s    wkB/s avgrq-sz avgqu-sz   await r_await w_await  svctm  %util
nvme0n1           0.00     0.00    0.00    0.00     0.00     0.00     0.00     0.00    0.00    0.00    0.00   0.00   0.00
sda               0.00     0.00    0.00    0.00     0.00     0.00     0.00     0.00    0.00    0.00    0.00   0.00   0.00
sdc               0.00     0.00  285.00    0.00  1140.00     0.00     8.00     1.49    5.28    5.28    0.00   1.97  56.20
sdb               0.00     0.00  296.00    0.00  1184.00     0.00     8.00     1.99    6.73    6.73    0.00   2.16  63.80
sdd               0.00     0.00  295.00    0.00  1180.00     0.00     8.00     2.02    6.67    6.67    0.00   2.32  68.30
md0               0.00     0.00  875.00    0.00  3500.00     0.00     8.00     0.00    0.00    0.00    0.00   0.00   0.00

avg-cpu:  %user   %nice %system %iowait  %steal   %idle
           0.00    0.00    0.09   13.17    0.00   86.74

Device:         rrqm/s   wrqm/s     r/s     w/s    rkB/s    wkB/s avgrq-sz avgqu-sz   await r_await w_await  svctm  %util
nvme0n1           0.00     0.00    0.00    0.00     0.00     0.00     0.00     0.00    0.00    0.00    0.00   0.00   0.00
sda               0.00     0.00    0.00    0.00     0.00     0.00     0.00     0.00    0.00    0.00    0.00   0.00   0.00
sdc               0.00     0.00  276.00    0.00  1104.00     0.00     8.00     1.78    6.43    6.43    0.00   2.23  61.60
sdb               0.00     0.00  255.00    0.00  1020.00     0.00     8.00     1.68    6.57    6.57    0.00   2.41  61.50
sdd               0.00     0.00  266.00    0.00  1064.00     0.00     8.00     2.00    7.79    7.79    0.00   2.54  67.60
md0               0.00     0.00  799.00    0.00  3196.00     0.00     8.00     0.00    0.00    0.00    0.00   0.00   0.00

avg-cpu:  %user   %nice %system %iowait  %steal   %idle
           0.03    0.00    0.06   13.45    0.00   86.46

Device:         rrqm/s   wrqm/s     r/s     w/s    rkB/s    wkB/s avgrq-sz avgqu-sz   await r_await w_await  svctm  %util
nvme0n1           0.00     0.00    0.00    0.00     0.00     0.00     0.00     0.00    0.00    0.00    0.00   0.00   0.00
sda               0.00     0.00    0.00    0.00     0.00     0.00     0.00     0.00    0.00    0.00    0.00   0.00   0.00
sdc               0.00     0.00  315.00    0.00  1260.00     0.00     8.00     1.97    6.27    6.27    0.00   2.18  68.60
sdb               0.00     0.00  270.00    0.00  1080.00     0.00     8.00     1.76    6.51    6.51    0.00   2.45  66.10
sdd               0.00     0.00  267.00    0.00  1068.00     0.00     8.00     1.74    6.46    6.46    0.00   2.23  59.50
md0               0.00     0.00  852.00    0.00  3408.00     0.00     8.00     0.00    0.00    0.00    0.00   0.00   0.00

avg-cpu:  %user   %nice %system %iowait  %steal   %idle
           0.00    0.00    0.13   13.45    0.00   86.42

Device:         rrqm/s   wrqm/s     r/s     w/s    rkB/s    wkB/s avgrq-sz avgqu-sz   await r_await w_await  svctm  %util
nvme0n1           0.00     0.00    0.00    0.00     0.00     0.00     0.00     0.00    0.00    0.00    0.00   0.00   0.00
sda               0.00     6.00    0.00    2.00     0.00    32.00    32.00     0.00    0.00    0.00    0.00   0.00   0.00
sdc               0.00     0.00  328.00    0.00  1312.00     0.00     8.00     1.89    5.77    5.77    0.00   2.08  68.20
sdb               0.00     0.00  302.00    0.00  1208.00     0.00     8.00     1.72    5.62    5.62    0.00   2.10  63.40
sdd               0.00     0.00  280.00    0.00  1120.00     0.00     8.00     1.95    7.00    7.00    0.00   2.56  71.60
md0               0.00     0.00  909.00    0.00  3636.00     0.00     8.00     0.00    0.00    0.00    0.00   0.00   0.00

avg-cpu:  %user   %nice %system %iowait  %steal   %idle
           0.00    0.00    0.09   13.39    0.00   86.51

Device:         rrqm/s   wrqm/s     r/s     w/s    rkB/s    wkB/s avgrq-sz avgqu-sz   await r_await w_await  svctm  %util
nvme0n1           0.00     0.00    0.00    0.00     0.00     0.00     0.00     0.00    0.00    0.00    0.00   0.00   0.00
sda               0.00     0.00    0.00    0.00     0.00     0.00     0.00     0.00    0.00    0.00    0.00   0.00   0.00
sdc               0.00     0.00  235.00    0.00   940.00     0.00     8.00     1.15    4.91    4.91    0.00   2.30  54.10
sdb               0.00     0.00  327.00    0.00  1308.00     0.00     8.00     1.90    5.80    5.80    0.00   2.11  69.00
sdd               0.00     0.00  344.00    0.00  1376.00     0.00     8.00     2.55    7.41    7.41    0.00   2.25  77.50
md0               0.00     0.00  902.00    0.00  3608.00     0.00     8.00     0.00    0.00    0.00    0.00   0.00   0.00

avg-cpu:  %user   %nice %system %iowait  %steal   %idle
           0.03    0.00    0.09   12.92    0.00   86.96

Device:         rrqm/s   wrqm/s     r/s     w/s    rkB/s    wkB/s avgrq-sz avgqu-sz   await r_await w_await  svctm  %util
nvme0n1           0.00     0.00    0.00    0.00     0.00     0.00     0.00     0.00    0.00    0.00    0.00   0.00   0.00
sda               0.00     0.00    0.00    0.00     0.00     0.00     0.00     0.00    0.00    0.00    0.00   0.00   0.00
sdc               0.00     0.00  286.00    0.00  1144.00     0.00     8.00     1.72    5.97    5.97    0.00   2.10  60.00
sdb               0.00     0.00  287.00    0.00  1148.00     0.00     8.00     1.88    6.62    6.62    0.00   2.41  69.10
sdd               0.00     0.00  311.00    0.00  1244.00     0.00     8.00     1.80    5.80    5.80    0.00   2.08  64.80
md0               0.00     0.00  887.00    0.00  3548.00     0.00     8.00     0.00    0.00    0.00    0.00   0.00   0.00

avg-cpu:  %user   %nice %system %iowait  %steal   %idle
           0.00    0.00    0.09   12.95    0.00   86.96

Device:         rrqm/s   wrqm/s     r/s     w/s    rkB/s    wkB/s avgrq-sz avgqu-sz   await r_await w_await  svctm  %util
nvme0n1           0.00     0.00    0.00    0.00     0.00     0.00     0.00     0.00    0.00    0.00    0.00   0.00   0.00
sda               0.00     0.00    0.00    0.00     0.00     0.00     0.00     0.00    0.00    0.00    0.00   0.00   0.00
sdc               0.00     0.00  293.00    0.00  1172.00     0.00     8.00     1.60    5.49    5.49    0.00   2.02  59.30
sdb               0.00     0.00  263.00    0.00  1052.00     0.00     8.00     1.94    7.40    7.40    0.00   2.56  67.20
sdd               0.00     0.00  297.00    0.00  1188.00     0.00     8.00     1.89    6.33    6.33    0.00   2.21  65.50
md0               0.00     0.00  855.00    0.00  3420.00     0.00     8.00     0.00    0.00    0.00    0.00   0.00   0.00

avg-cpu:  %user   %nice %system %iowait  %steal   %idle
           0.00    0.00    0.13   12.27    0.00   87.61

Device:         rrqm/s   wrqm/s     r/s     w/s    rkB/s    wkB/s avgrq-sz avgqu-sz   await r_await w_await  svctm  %util
nvme0n1           0.00     0.00    0.00    0.00     0.00     0.00     0.00     0.00    0.00    0.00    0.00   0.00   0.00
sda               0.00     0.00    0.00    0.00     0.00     0.00     0.00     0.00    0.00    0.00    0.00   0.00   0.00
sdc               0.00     0.00  334.00    0.00  1336.00     0.00     8.00     1.33    3.96    3.96    0.00   1.55  51.70
sdb               0.00     0.00  313.00    0.00  1252.00     0.00     8.00     1.92    6.20    6.20    0.00   1.99  62.40
sdd               0.00     0.00  305.00    0.00  1220.00     0.00     8.00     1.80    5.85    5.85    0.00   2.18  66.50
md0               0.00     0.00  946.00    0.00  3784.00     0.00     8.00     0.00    0.00    0.00    0.00   0.00   0.00

