Linux 4.17.2 (bench2) 	08/04/2018 	_x86_64_	(32 CPU)

avg-cpu:  %user   %nice %system %iowait  %steal   %idle
           1.90    0.00    1.55    1.60    0.00   94.95

Device:         rrqm/s   wrqm/s     r/s     w/s    rkB/s    wkB/s avgrq-sz avgqu-sz   await r_await w_await  svctm  %util
nvme0n1         931.65     5.06 18781.78  517.12 105057.47 11662.61    12.10     1.34    0.05    0.03    0.67   0.02  39.32
sda               0.12     0.82   14.17    0.58   164.03     8.56    23.40     0.00    0.33    0.32    0.44   0.07   0.10
sdc              34.66     0.17  122.71    0.31  1841.52    97.06    31.52     0.11    0.89   12.35  381.84   0.90  11.11
sdb              32.64     0.19  124.69    0.33  1839.56    96.88    30.98     0.54    4.30    3.22  413.03   0.84  10.56
sdd              34.86     0.17  122.25    0.26  1837.57    96.56    31.57     0.85    6.95    5.04  909.23   0.91  11.11
md0               0.00     0.00  474.63    1.20  6842.84   350.14    30.23     0.00    0.00    0.00    0.00   0.00   0.00

avg-cpu:  %user   %nice %system %iowait  %steal   %idle
           0.01    0.00    0.19   41.07    0.00   58.74

Device:         rrqm/s   wrqm/s     r/s     w/s    rkB/s    wkB/s avgrq-sz avgqu-sz   await r_await w_await  svctm  %util
nvme0n1           0.00     0.00    0.00    0.00     0.00     0.00     0.00     0.00    0.00    0.00    0.00   0.00   0.00
sda               0.00     1.90    0.20    1.50     2.80    15.60    21.65     0.00    0.06    0.25    0.03   0.03   0.01
sdc               0.00     0.00  554.25    0.00  2218.20     0.00     8.00     8.40   15.14   15.14    0.00   1.59  88.13
sdb               0.00     0.00  563.70    0.00  2254.80     0.00     8.00     7.81   13.85   13.85    0.00   1.52  85.90
sdd               0.00     0.00  559.85    0.00  2239.40     0.00     8.00     7.75   13.84   13.84    0.00   1.53  85.50
md0               0.00     0.00 1678.65    0.00  6715.20     0.00     8.00     0.00    0.00    0.00    0.00   0.00   0.00

