Linux 4.17.2 (bench2) 	08/04/2018 	_x86_64_	(32 CPU)

avg-cpu:  %user   %nice %system %iowait  %steal   %idle
           1.89    0.00    1.54    1.63    0.00   94.94

Device:         rrqm/s   wrqm/s     r/s     w/s    rkB/s    wkB/s avgrq-sz avgqu-sz   await r_await w_await  svctm  %util
nvme0n1         924.94     5.02 18646.33  513.39 104299.83 11578.51    12.10     1.33    0.05    0.03    0.67   0.02  39.03
sda               0.12     0.82   14.19    0.58   164.10     8.57    23.38     0.00    0.33    0.32    0.44   0.07   0.10
sdc              34.97     0.17  127.18    0.31  1893.86    96.36    31.22     0.15    1.18    0.26  381.84   0.89  11.38
sdb              32.96     0.18  129.15    0.33  1891.94    96.19    30.71     0.58    4.44    3.41  413.03   0.84  10.83
sdd              35.17     0.16  126.73    0.26  1889.96    95.86    31.28     0.89    7.00    5.17  909.23   0.90  11.42
md0               0.00     0.00  488.96    1.20  7033.57   347.61    30.12     0.00    0.00    0.00    0.00   0.00   0.00

avg-cpu:  %user   %nice %system %iowait  %steal   %idle
           0.03    0.00    0.44    0.79    0.00   98.74

Device:         rrqm/s   wrqm/s     r/s     w/s    rkB/s    wkB/s avgrq-sz avgqu-sz   await r_await w_await  svctm  %util
nvme0n1           0.00     0.00    0.00    0.00     0.00     0.00     0.00     0.00    0.00    0.00    0.00   0.00   0.00
sda               0.00     0.00    1.00    0.00     8.00     0.00    16.00     0.00    0.00    0.00    0.00   0.00   0.00
sdc              36.00     0.00 1447.00    0.00  5944.00     0.00     8.22    10.79    7.32    7.32    0.00   0.37  53.90
sdb              19.00     0.00 1473.00    0.00  5972.00     0.00     8.11     6.09    4.13    4.13    0.00   0.22  32.00
sdd              25.00     0.00 1422.00    0.00  5788.00     0.00     8.14    13.04    9.17    9.17    0.00   0.48  67.70
md0               0.00     0.00 4436.00    0.00 17744.00     0.00     8.00     0.00    0.00    0.00    0.00   0.00   0.00

avg-cpu:  %user   %nice %system %iowait  %steal   %idle
           0.00    0.00    0.91    0.76    0.00   98.33

Device:         rrqm/s   wrqm/s     r/s     w/s    rkB/s    wkB/s avgrq-sz avgqu-sz   await r_await w_await  svctm  %util
nvme0n1           0.00     0.00    0.00    0.00     0.00     0.00     0.00     0.00    0.00    0.00    0.00   0.00   0.00
sda               0.00     0.00    0.00    0.00     0.00     0.00     0.00     0.00    0.00    0.00    0.00   0.00   0.00
sdc              10.00     0.00 1544.00    0.00  6216.00     0.00     8.05    14.50    9.51    9.51    0.00   0.45  69.90
sdb              12.00     0.00 1496.00    0.00  6032.00     0.00     8.06     7.65    5.08    5.08    0.00   0.26  38.50
sdd              15.00     0.00 1525.00    0.00  6156.00     0.00     8.07    12.84    8.39    8.39    0.00   0.39  59.90
md0               0.00     0.00 4668.00    0.00 18672.00     0.00     8.00     0.00    0.00    0.00    0.00   0.00   0.00

avg-cpu:  %user   %nice %system %iowait  %steal   %idle
           0.03    0.00    1.07    0.53    0.00   98.37

Device:         rrqm/s   wrqm/s     r/s     w/s    rkB/s    wkB/s avgrq-sz avgqu-sz   await r_await w_await  svctm  %util
nvme0n1           0.00     0.00    0.00    0.00     0.00     0.00     0.00     0.00    0.00    0.00    0.00   0.00   0.00
sda               0.00     0.00    0.00    0.00     0.00     0.00     0.00     0.00    0.00    0.00    0.00   0.00   0.00
sdc               7.00     0.00 1362.00    0.00  5476.00     0.00     8.04    11.04    8.08    8.08    0.00   0.42  56.70
sdb               6.00     0.00 1409.00    0.00  5660.00     0.00     8.03    18.42   13.06   13.06    0.00   0.61  85.80
sdd              10.00     0.00 1425.00    0.00  5744.00     0.00     8.06     6.29    4.47    4.47    0.00   0.24  33.80
md0               0.00     0.00 4187.00    0.00 16748.00     0.00     8.00     0.00    0.00    0.00    0.00   0.00   0.00

