Linux 4.17.2 (bench2) 	08/04/2018 	_x86_64_	(32 CPU)

avg-cpu:  %user   %nice %system %iowait  %steal   %idle
           1.90    0.00    1.54    1.61    0.00   94.95

Device:         rrqm/s   wrqm/s     r/s     w/s    rkB/s    wkB/s avgrq-sz avgqu-sz   await r_await w_await  svctm  %util
nvme0n1         929.41     5.05 18736.57  515.88 104804.55 11634.54    12.10     1.33    0.05    0.03    0.67   0.02  39.22
sda               0.12     0.82   14.18    0.58   164.05     8.56    23.39     0.00    0.33    0.32    0.44   0.07   0.10
sdc              34.68     0.17  124.22    0.31  1863.07    96.83    31.48     0.12    0.94   12.23  381.84   0.90  11.20
sdb              32.66     0.19  126.20    0.33  1861.12    96.65    30.95     0.55    4.30    3.24  413.03   0.84  10.65
sdd              34.88     0.17  123.76    0.26  1859.13    96.33    31.53     0.86    6.92    5.04  909.23   0.90  11.21
md0               0.00     0.00  479.22    1.20  6923.42   349.30    30.28     0.00    0.00    0.00    0.00   0.00   0.00

avg-cpu:  %user   %nice %system %iowait  %steal   %idle
           0.06    0.00    0.72    4.67    0.00   94.55

Device:         rrqm/s   wrqm/s     r/s     w/s    rkB/s    wkB/s avgrq-sz avgqu-sz   await r_await w_await  svctm  %util
nvme0n1           0.00     0.00    0.00    0.00     0.00     0.00     0.00     0.00    0.00    0.00    0.00   0.00   0.00
sda               0.00     0.00   19.00    0.00    80.00     0.00     8.42     0.01    0.32    0.32    0.00   0.05   0.10
sdc             109.00     0.00  383.00    0.00 59696.00     0.00   311.73     3.75    9.76    9.76    0.00   2.26  86.50
sdb             116.00     0.00  360.00    0.00 59828.00     0.00   332.38     2.44    6.73    6.73    0.00   2.15  77.30
sdd             112.00     0.00  226.00    0.00 59280.00     0.00   524.60     2.33   10.19   10.19    0.00   3.50  79.20
md0               0.00     0.00 1320.00    0.00 266856.00     0.00   404.33     0.00    0.00    0.00    0.00   0.00   0.00

avg-cpu:  %user   %nice %system %iowait  %steal   %idle
           0.09    0.00    0.84    4.06    0.00   95.00

Device:         rrqm/s   wrqm/s     r/s     w/s    rkB/s    wkB/s avgrq-sz avgqu-sz   await r_await w_await  svctm  %util
nvme0n1           0.00     0.00    0.00    0.00     0.00     0.00     0.00     0.00    0.00    0.00    0.00   0.00   0.00
sda               0.00     0.00    0.00    0.00     0.00     0.00     0.00     0.00    0.00    0.00    0.00   0.00   0.00
sdc             106.00     0.00  316.00    0.00 54052.00     0.00   342.10     2.55    8.00    8.00    0.00   2.22  70.30
sdb             101.00     0.00  306.00    0.00 54968.00     0.00   359.27     1.53    5.02    5.02    0.00   1.90  58.20
sdd              94.00     0.00  313.00    0.00 55240.00     0.00   352.97     2.98    9.58    9.58    0.00   2.58  80.70
md0               0.00     0.00 1260.00    0.00 265604.00     0.00   421.59     0.00    0.00    0.00    0.00   0.00   0.00

