Linux 4.17.2 (bench2) 	08/04/2018 	_x86_64_	(32 CPU)

avg-cpu:  %user   %nice %system %iowait  %steal   %idle
           1.89    0.00    1.54    1.63    0.00   94.94

Device:         rrqm/s   wrqm/s     r/s     w/s    rkB/s    wkB/s avgrq-sz avgqu-sz   await r_await w_await  svctm  %util
nvme0n1         923.63     5.02 18619.99  512.67 104152.45 11562.15    12.10     1.33    0.05    0.03    0.67   0.02  38.98
sda               0.12     0.82   14.19    0.59   164.10     8.57    23.37     0.00    0.33    0.32    0.44   0.07   0.10
sdc              35.23     0.17  127.93    0.31  1904.46    96.22    31.20     0.17    1.33    0.42  381.84   0.89  11.44
sdb              33.22     0.18  129.90    0.33  1902.57    96.05    30.70     0.60    4.57    3.54  413.03   0.84  10.89
sdd              35.42     0.16  127.48    0.26  1900.59    95.73    31.26     0.91    7.12    5.30  909.23   0.90  11.48
md0               0.00     0.00  491.99    1.19  7072.84   347.12    30.09     0.00    0.00    0.00    0.00   0.00   0.00

avg-cpu:  %user   %nice %system %iowait  %steal   %idle
           0.00    0.00    0.03   29.55    0.00   70.42

Device:         rrqm/s   wrqm/s     r/s     w/s    rkB/s    wkB/s avgrq-sz avgqu-sz   await r_await w_await  svctm  %util
nvme0n1           0.00     0.00    0.00    0.00     0.00     0.00     0.00     0.00    0.00    0.00    0.00   0.00   0.00
sda              17.00     0.00   39.00    0.00   264.00     0.00    13.54     0.01    0.28    0.28    0.00   0.05   0.20
sdc               0.00     0.00   63.00    0.00   264.00     0.00     8.38     4.24   63.84   63.84    0.00  12.08  76.10
sdb               0.00     0.00   81.00    0.00   324.00     0.00     8.00     6.11   72.83   72.83    0.00  11.57  93.70
sdd               0.00     0.00   61.00    0.00   244.00     0.00     8.00     4.01   58.72   58.72    0.00  12.34  75.30
md0               0.00     0.00  225.00    0.00   912.00     0.00     8.11     0.00    0.00    0.00    0.00   0.00   0.00

avg-cpu:  %user   %nice %system %iowait  %steal   %idle
           0.03    0.00    0.09   29.56    0.00   70.31

Device:         rrqm/s   wrqm/s     r/s     w/s    rkB/s    wkB/s avgrq-sz avgqu-sz   await r_await w_await  svctm  %util
nvme0n1           0.00     0.00    0.00    0.00     0.00     0.00     0.00     0.00    0.00    0.00    0.00   0.00   0.00
sda               0.00     0.00    0.00    0.00     0.00     0.00     0.00     0.00    0.00    0.00    0.00   0.00   0.00
sdc               0.00     0.00  121.00    0.00   484.00     0.00     8.00     4.97   42.26   42.26    0.00   7.03  85.10
sdb               0.00     0.00  132.00    0.00   528.00     0.00     8.00     5.01   38.81   38.81    0.00   6.16  81.30
sdd               0.00     0.00  122.00    0.00   488.00     0.00     8.00     4.64   40.59   40.59    0.00   6.62  80.80
md0               0.00     0.00  384.00    0.00  1536.00     0.00     8.00     0.00    0.00    0.00    0.00   0.00   0.00

avg-cpu:  %user   %nice %system %iowait  %steal   %idle
           0.00    0.00    0.09   26.25    0.00   73.65

Device:         rrqm/s   wrqm/s     r/s     w/s    rkB/s    wkB/s avgrq-sz avgqu-sz   await r_await w_await  svctm  %util
nvme0n1           0.00     0.00    0.00    0.00     0.00     0.00     0.00     0.00    0.00    0.00    0.00   0.00   0.00
sda               0.00     0.00    0.00    0.00     0.00     0.00     0.00     0.00    0.00    0.00    0.00   0.00   0.00
sdc               0.00     0.00  143.00    0.00   572.00     0.00     8.00     4.88   34.23   34.23    0.00   5.47  78.20
sdb               0.00     0.00  119.00    0.00   476.00     0.00     8.00     3.20   27.29   27.29    0.00   5.43  64.60
sdd               0.00     0.00  153.00    0.00   612.00     0.00     8.00     5.42   35.79   35.79    0.00   5.44  83.20
md0               0.00     0.00  416.00    0.00  1664.00     0.00     8.00     0.00    0.00    0.00    0.00   0.00   0.00

avg-cpu:  %user   %nice %system %iowait  %steal   %idle
           0.00    0.00    0.19   21.57    0.00   78.24

Device:         rrqm/s   wrqm/s     r/s     w/s    rkB/s    wkB/s avgrq-sz avgqu-sz   await r_await w_await  svctm  %util
nvme0n1           0.00     0.00    0.00    0.00     0.00     0.00     0.00     0.00    0.00    0.00    0.00   0.00   0.00
sda               0.00     0.00    0.00    0.00     0.00     0.00     0.00     0.00    0.00    0.00    0.00   0.00   0.00
sdc               0.00     0.00  157.00    0.00   628.00     0.00     8.00     5.44   34.81   34.81    0.00   5.41  84.90
sdb               0.00     0.00  123.00    0.00   492.00     0.00     8.00     3.90   31.60   31.60    0.00   6.06  74.50
sdd               0.00     0.00  135.00    0.00   540.00     0.00     8.00     4.35   32.29   32.29    0.00   5.66  76.40
md0               0.00     0.00  416.00    0.00  1664.00     0.00     8.00     0.00    0.00    0.00    0.00   0.00   0.00

avg-cpu:  %user   %nice %system %iowait  %steal   %idle
           0.00    0.00    0.13   21.93    0.00   77.95

Device:         rrqm/s   wrqm/s     r/s     w/s    rkB/s    wkB/s avgrq-sz avgqu-sz   await r_await w_await  svctm  %util
nvme0n1           0.00     0.00    0.00    0.00     0.00     0.00     0.00     0.00    0.00    0.00    0.00   0.00   0.00
sda               0.00     0.00    0.00    0.00     0.00     0.00     0.00     0.00    0.00    0.00    0.00   0.00   0.00
sdc               0.00     0.00  123.00    0.00   492.00     0.00     8.00     3.62   29.67   29.67    0.00   5.74  70.60
sdb               0.00     0.00  156.00    0.00   624.00     0.00     8.00     5.82   36.85   36.85    0.00   5.56  86.80
sdd               0.00     0.00  134.00    0.00   536.00     0.00     8.00     4.42   33.39   33.39    0.00   5.95  79.70
md0               0.00     0.00  384.00    0.00  1536.00     0.00     8.00     0.00    0.00    0.00    0.00   0.00   0.00

avg-cpu:  %user   %nice %system %iowait  %steal   %idle
           0.00    0.00    0.03   22.08    0.00   77.89

Device:         rrqm/s   wrqm/s     r/s     w/s    rkB/s    wkB/s avgrq-sz avgqu-sz   await r_await w_await  svctm  %util
nvme0n1           0.00     0.00    0.00    0.00     0.00     0.00     0.00     0.00    0.00    0.00    0.00   0.00   0.00
sda               0.00    10.00    0.00    2.00     0.00    48.00    48.00     0.00    0.00    0.00    0.00   0.00   0.00
sdc               0.00     0.00  153.00    0.00   612.00     0.00     8.00     5.80   35.88   35.88    0.00   5.71  87.30
sdb               0.00     0.00  120.00    0.00   480.00     0.00     8.00     3.80   31.42   31.42    0.00   5.74  68.90
sdd               0.00     0.00  128.00    0.00   512.00     0.00     8.00     4.24   32.33   32.33    0.00   5.86  75.00
md0               0.00     0.00  416.00    0.00  1664.00     0.00     8.00     0.00    0.00    0.00    0.00   0.00   0.00

avg-cpu:  %user   %nice %system %iowait  %steal   %idle
           0.03    0.00    0.34   22.78    0.00   76.85

Device:         rrqm/s   wrqm/s     r/s     w/s    rkB/s    wkB/s avgrq-sz avgqu-sz   await r_await w_await  svctm  %util
nvme0n1           0.00     0.00    0.00    0.00     0.00     0.00     0.00     0.00    0.00    0.00    0.00   0.00   0.00
sda               0.00     0.00    0.00    0.00     0.00     0.00     0.00     0.00    0.00    0.00    0.00   0.00   0.00
sdc               0.00     0.00  136.00    0.00   544.00     0.00     8.00     4.55   34.32   34.32    0.00   5.58  75.90
sdb               0.00     0.00  135.00    0.00   540.00     0.00     8.00     3.99   30.86   30.86    0.00   5.49  74.10
sdd               0.00     0.00  149.00    0.00   596.00     0.00     8.00     5.19   33.95   33.95    0.00   5.52  82.20
md0               0.00     0.00  416.00    0.00  1664.00     0.00     8.00     0.00    0.00    0.00    0.00   0.00   0.00

avg-cpu:  %user   %nice %system %iowait  %steal   %idle
           0.00    0.00    0.31   21.65    0.00   78.04

Device:         rrqm/s   wrqm/s     r/s     w/s    rkB/s    wkB/s avgrq-sz avgqu-sz   await r_await w_await  svctm  %util
nvme0n1           0.00     0.00    0.00    0.00     0.00     0.00     0.00     0.00    0.00    0.00    0.00   0.00   0.00
sda               0.00     0.00    0.00    0.00     0.00     0.00     0.00     0.00    0.00    0.00    0.00   0.00   0.00
sdc               0.00     0.00  144.00    0.00   576.00     0.00     8.00     4.77   34.41   34.41    0.00   5.88  84.60
sdb               0.00     0.00  138.00    0.00   552.00     0.00     8.00     4.48   32.25   32.25    0.00   5.55  76.60
sdd               0.00     0.00  147.00    0.00   588.00     0.00     8.00     4.48   31.97   31.97    0.00   5.22  76.70
md0               0.00     0.00  448.00    0.00  1792.00     0.00     8.00     0.00    0.00    0.00    0.00   0.00   0.00

avg-cpu:  %user   %nice %system %iowait  %steal   %idle
           0.03    0.00    0.28   22.98    0.00   76.71

Device:         rrqm/s   wrqm/s     r/s     w/s    rkB/s    wkB/s avgrq-sz avgqu-sz   await r_await w_await  svctm  %util
nvme0n1           0.00     0.00    0.00    0.00     0.00     0.00     0.00     0.00    0.00    0.00    0.00   0.00   0.00
sda               0.00     0.00    0.00    0.00     0.00     0.00     0.00     0.00    0.00    0.00    0.00   0.00   0.00
sdc               0.00     0.00  154.00    0.00   616.00     0.00     8.00     5.42   34.71   34.71    0.00   5.83  89.80
sdb               0.00     0.00  134.00    0.00   536.00     0.00     8.00     4.06   29.86   29.86    0.00   5.42  72.60
sdd               0.00     0.00  134.00    0.00   536.00     0.00     8.00     4.43   32.08   32.08    0.00   5.54  74.30
md0               0.00     0.00  416.00    0.00  1664.00     0.00     8.00     0.00    0.00    0.00    0.00   0.00   0.00

avg-cpu:  %user   %nice %system %iowait  %steal   %idle
           0.03    0.00    0.28   22.36    0.00   77.33

Device:         rrqm/s   wrqm/s     r/s     w/s    rkB/s    wkB/s avgrq-sz avgqu-sz   await r_await w_await  svctm  %util
nvme0n1           0.00     0.00    0.00    0.00     0.00     0.00     0.00     0.00    0.00    0.00    0.00   0.00   0.00
sda               0.00     0.00    0.00    0.00     0.00     0.00     0.00     0.00    0.00    0.00    0.00   0.00   0.00
sdc               0.00     0.00  137.00    0.00   548.00     0.00     8.00     4.15   30.23   30.23    0.00   5.69  78.00
sdb               0.00     0.00  147.00    0.00   588.00     0.00     8.00     4.65   31.93   31.93    0.00   5.61  82.50
sdd               0.00     0.00  160.00    0.00   640.00     0.00     8.00     5.49   34.91   34.91    0.00   5.53  88.40
md0               0.00     0.00  448.00    0.00  1792.00     0.00     8.00     0.00    0.00    0.00    0.00   0.00   0.00

avg-cpu:  %user   %nice %system %iowait  %steal   %idle
           0.00    0.00    0.09   23.81    0.00   76.10

Device:         rrqm/s   wrqm/s     r/s     w/s    rkB/s    wkB/s avgrq-sz avgqu-sz   await r_await w_await  svctm  %util
nvme0n1           0.00     0.00    0.00    0.00     0.00     0.00     0.00     0.00    0.00    0.00    0.00   0.00   0.00
sda               0.00     1.00    0.00    2.00     0.00    12.00    12.00     0.00    0.50    0.00    0.50   0.50   0.10
sdc               0.00     0.00  128.00    0.00   512.00     0.00     8.00     4.35   33.14   33.14    0.00   6.05  77.50
sdb               0.00     0.00  118.00    0.00   472.00     0.00     8.00     3.79   31.05   31.05    0.00   6.16  72.70
sdd               0.00     0.00  149.00    0.00   596.00     0.00     8.00     5.45   35.79   35.79    0.00   5.68  84.60
md0               0.00     0.00  384.00    0.00  1536.00     0.00     8.00     0.00    0.00    0.00    0.00   0.00   0.00

avg-cpu:  %user   %nice %system %iowait  %steal   %idle
           0.00    0.00    0.19   21.86    0.00   77.95

Device:         rrqm/s   wrqm/s     r/s     w/s    rkB/s    wkB/s avgrq-sz avgqu-sz   await r_await w_await  svctm  %util
nvme0n1           0.00     0.00    0.00    0.00     0.00     0.00     0.00     0.00    0.00    0.00    0.00   0.00   0.00
sda               0.00     0.00    0.00    0.00     0.00     0.00     0.00     0.00    0.00    0.00    0.00   0.00   0.00
sdc               0.00     0.00  144.00    0.00   576.00     0.00     8.00     4.12   29.49   29.49    0.00   5.53  79.60
sdb               0.00     0.00  164.00    0.00   656.00     0.00     8.00     5.74   35.30   35.30    0.00   5.55  91.10
sdd               0.00     0.00  134.00    0.00   536.00     0.00     8.00     4.17   31.06   31.06    0.00   5.84  78.20
md0               0.00     0.00  448.00    0.00  1792.00     0.00     8.00     0.00    0.00    0.00    0.00   0.00   0.00

avg-cpu:  %user   %nice %system %iowait  %steal   %idle
           0.00    0.00    0.19   22.76    0.00   77.06

Device:         rrqm/s   wrqm/s     r/s     w/s    rkB/s    wkB/s avgrq-sz avgqu-sz   await r_await w_await  svctm  %util
nvme0n1           0.00     0.00    0.00    0.00     0.00     0.00     0.00     0.00    0.00    0.00    0.00   0.00   0.00
sda               0.00     3.00    0.00    2.00     0.00    36.00    36.00     0.00    0.00    0.00    0.00   0.00   0.00
sdc               0.00     0.00  110.00    0.00   440.00     0.00     8.00     2.98   27.82   27.82    0.00   5.53  60.80
sdb               0.00     0.00  153.00    0.00   612.00     0.00     8.00     5.49   36.71   36.71    0.00   5.65  86.50
sdd               0.00     0.00  144.00    0.00   576.00     0.00     8.00     4.90   34.21   34.21    0.00   5.38  77.50
md0               0.00     0.00  384.00    0.00  1536.00     0.00     8.00     0.00    0.00    0.00    0.00   0.00   0.00

avg-cpu:  %user   %nice %system %iowait  %steal   %idle
           0.03    0.00    0.22   23.03    0.00   76.72

Device:         rrqm/s   wrqm/s     r/s     w/s    rkB/s    wkB/s avgrq-sz avgqu-sz   await r_await w_await  svctm  %util
nvme0n1           0.00     0.00    0.00    0.00     0.00     0.00     0.00     0.00    0.00    0.00    0.00   0.00   0.00
sda               0.00     0.00    0.00    0.00     0.00     0.00     0.00     0.00    0.00    0.00    0.00   0.00   0.00
sdc               0.00     0.00  149.00    0.00   596.00     0.00     8.00     4.89   32.82   32.82    0.00   5.69  84.80
sdb               0.00     0.00  157.00    0.00   628.00     0.00     8.00     5.67   35.33   35.33    0.00   5.64  88.50
sdd               0.00     0.00  142.00    0.00   568.00     0.00     8.00     4.29   31.44   31.44    0.00   5.64  80.10
md0               0.00     0.00  448.00    0.00  1792.00     0.00     8.00     0.00    0.00    0.00    0.00   0.00   0.00

avg-cpu:  %user   %nice %system %iowait  %steal   %idle
           0.00    0.00    0.22   24.79    0.00   74.99

Device:         rrqm/s   wrqm/s     r/s     w/s    rkB/s    wkB/s avgrq-sz avgqu-sz   await r_await w_await  svctm  %util
nvme0n1           0.00     0.00    0.00    0.00     0.00     0.00     0.00     0.00    0.00    0.00    0.00   0.00   0.00
sda               0.00     0.00    0.00    0.00     0.00     0.00     0.00     0.00    0.00    0.00    0.00   0.00   0.00
sdc               0.00     0.00  145.00    0.00   580.00     0.00     8.00     4.65   31.27   31.27    0.00   5.30  76.90
sdb               0.00     0.00  152.00    0.00   608.00     0.00     8.00     4.97   33.57   33.57    0.00   5.76  87.50
sdd               0.00     0.00  151.00    0.00   604.00     0.00     8.00     4.85   32.13   32.13    0.00   5.34  80.60
md0               0.00     0.00  448.00    0.00  1792.00     0.00     8.00     0.00    0.00    0.00    0.00   0.00   0.00

avg-cpu:  %user   %nice %system %iowait  %steal   %idle
           0.00    0.00    0.25   23.48    0.00   76.27

Device:         rrqm/s   wrqm/s     r/s     w/s    rkB/s    wkB/s avgrq-sz avgqu-sz   await r_await w_await  svctm  %util
nvme0n1           0.00     0.00    0.00    0.00     0.00     0.00     0.00     0.00    0.00    0.00    0.00   0.00   0.00
sda               0.00     6.00    0.00    2.00     0.00    32.00    32.00     0.00    0.00    0.00    0.00   0.00   0.00
sdc               0.00     0.00  114.00    0.00   456.00     0.00     8.00     3.15   27.73   27.73    0.00   5.96  67.90
sdb               0.00     0.00  180.00    0.00   720.00     0.00     8.00     6.78   37.08   37.08    0.00   5.29  95.30
sdd               0.00     0.00  135.00    0.00   540.00     0.00     8.00     4.23   30.11   30.11    0.00   5.43  73.30
md0               0.00     0.00  448.00    0.00  1792.00     0.00     8.00     0.00    0.00    0.00    0.00   0.00   0.00

avg-cpu:  %user   %nice %system %iowait  %steal   %idle
           0.03    0.00    0.13   24.05    0.00   75.79

Device:         rrqm/s   wrqm/s     r/s     w/s    rkB/s    wkB/s avgrq-sz avgqu-sz   await r_await w_await  svctm  %util
nvme0n1           0.00     0.00    0.00    0.00     0.00     0.00     0.00     0.00    0.00    0.00    0.00   0.00   0.00
sda               0.00     0.00    0.00    0.00     0.00     0.00     0.00     0.00    0.00    0.00    0.00   0.00   0.00
sdc               0.00     0.00  148.00    0.00   592.00     0.00     8.00     4.90   32.83   32.83    0.00   5.68  84.00
sdb               0.00     0.00  142.00    0.00   568.00     0.00     8.00     4.52   32.60   32.60    0.00   5.72  81.20
sdd               0.00     0.00  145.00    0.00   580.00     0.00     8.00     4.71   33.61   33.61    0.00   6.00  87.00
md0               0.00     0.00  416.00    0.00  1664.00     0.00     8.00     0.00    0.00    0.00    0.00   0.00   0.00

avg-cpu:  %user   %nice %system %iowait  %steal   %idle
           0.00    0.00    0.06   22.10    0.00   77.84

Device:         rrqm/s   wrqm/s     r/s     w/s    rkB/s    wkB/s avgrq-sz avgqu-sz   await r_await w_await  svctm  %util
nvme0n1           0.00     0.00    0.00    0.00     0.00     0.00     0.00     0.00    0.00    0.00    0.00   0.00   0.00
sda               0.00     0.00    0.00    0.00     0.00     0.00     0.00     0.00    0.00    0.00    0.00   0.00   0.00
sdc               0.00     0.00  139.00    0.00   556.00     0.00     8.00     4.70   33.45   33.45    0.00   5.61  78.00
sdb               0.00     0.00  129.00    0.00   516.00     0.00     8.00     4.77   35.77   35.77    0.00   5.89  76.00
sdd               0.00     0.00  126.00    0.00   504.00     0.00     8.00     4.27   32.97   32.97    0.00   6.26  78.90
md0               0.00     0.00  416.00    0.00  1664.00     0.00     8.00     0.00    0.00    0.00    0.00   0.00   0.00

avg-cpu:  %user   %nice %system %iowait  %steal   %idle
           0.00    0.00    0.03   23.46    0.00   76.51

Device:         rrqm/s   wrqm/s     r/s     w/s    rkB/s    wkB/s avgrq-sz avgqu-sz   await r_await w_await  svctm  %util
nvme0n1           0.00     0.00    0.00    0.00     0.00     0.00     0.00     0.00    0.00    0.00    0.00   0.00   0.00
sda               0.00     0.00    0.00    0.00     0.00     0.00     0.00     0.00    0.00    0.00    0.00   0.00   0.00
sdc               0.00     0.00  142.00    0.00   568.00     0.00     8.00     4.85   33.82   33.82    0.00   5.86  83.20
sdb               0.00     0.00  151.00    0.00   604.00     0.00     8.00     4.72   32.31   32.31    0.00   5.54  83.60
sdd               0.00     0.00  142.00    0.00   568.00     0.00     8.00     4.36   31.56   31.56    0.00   5.54  78.70
md0               0.00     0.00  416.00    0.00  1664.00     0.00     8.00     0.00    0.00    0.00    0.00   0.00   0.00

avg-cpu:  %user   %nice %system %iowait  %steal   %idle
           0.00    0.00    0.22   22.57    0.00   77.21

Device:         rrqm/s   wrqm/s     r/s     w/s    rkB/s    wkB/s avgrq-sz avgqu-sz   await r_await w_await  svctm  %util
nvme0n1           0.00     0.00    0.00    0.00     0.00     0.00     0.00     0.00    0.00    0.00    0.00   0.00   0.00
sda               0.00     0.00    0.00    0.00     0.00     0.00     0.00     0.00    0.00    0.00    0.00   0.00   0.00
sdc               0.00     0.00  137.00    0.00   548.00     0.00     8.00     4.36   33.21   33.21    0.00   5.56  76.20
sdb               0.00     0.00  130.00    0.00   520.00     0.00     8.00     3.92   29.31   29.31    0.00   5.15  66.90
sdd               0.00     0.00  151.00    0.00   604.00     0.00     8.00     5.55   36.78   36.78    0.00   5.70  86.00
md0               0.00     0.00  416.00    0.00  1664.00     0.00     8.00     0.00    0.00    0.00    0.00   0.00   0.00

