Linux 4.17.2 (bench2) 	08/04/2018 	_x86_64_	(32 CPU)

avg-cpu:  %user   %nice %system %iowait  %steal   %idle
           1.90    0.00    1.54    1.61    0.00   94.95

Device:         rrqm/s   wrqm/s     r/s     w/s    rkB/s    wkB/s avgrq-sz avgqu-sz   await r_await w_await  svctm  %util
nvme0n1         929.77     5.05 18743.74  516.07 104844.66 11638.99    12.10     1.33    0.05    0.03    0.67   0.02  39.24
sda               0.12     0.82   14.17    0.58   164.04     8.56    23.39     0.00    0.33    0.32    0.44   0.07   0.10
sdc              34.65     0.17  123.86    0.31  1856.83    96.86    31.47     0.12    0.93   12.26  381.84   0.90  11.19
sdb              32.63     0.19  125.84    0.33  1854.88    96.69    30.94     0.54    4.30    3.24  413.03   0.84  10.64
sdd              34.84     0.17  123.41    0.26  1852.88    96.36    31.52     0.86    6.93    5.03  909.23   0.91  11.19
md0               0.00     0.00  478.05    1.20  6899.99   349.43    30.25     0.00    0.00    0.00    0.00   0.00   0.00

avg-cpu:  %user   %nice %system %iowait  %steal   %idle
           0.01    0.00    0.13    2.94    0.00   96.92

Device:         rrqm/s   wrqm/s     r/s     w/s    rkB/s    wkB/s avgrq-sz avgqu-sz   await r_await w_await  svctm  %util
nvme0n1           0.00     0.00    0.00    0.00     0.00     0.00     0.00     0.00    0.00    0.00    0.00   0.00   0.00
sda               0.00     1.20    3.65    0.55    29.60     7.80    17.81     0.00    0.45    0.51    0.09   0.08   0.04
sdc              11.95     0.00  244.85    0.00 22350.80     0.00   182.57     0.63    2.59    2.59    0.00   1.83  44.92
sdb              11.50     0.00  249.15    0.00 22343.40     0.00   179.36     0.64    2.56    2.56    0.00   1.82  45.43
sdd              12.40     0.00  241.15    0.00 22485.80     0.00   186.49     0.68    2.82    2.82    0.00   1.96  47.31
md0               0.00     0.00  771.30    0.00 88978.00     0.00   230.72     0.00    0.00    0.00    0.00   0.00   0.00

