Linux 4.17.2 (bench2) 	08/04/2018 	_x86_64_	(32 CPU)

avg-cpu:  %user   %nice %system %iowait  %steal   %idle
           1.89    0.00    1.54    1.62    0.00   94.95

Device:         rrqm/s   wrqm/s     r/s     w/s    rkB/s    wkB/s avgrq-sz avgqu-sz   await r_await w_await  svctm  %util
nvme0n1         926.35     5.03 18674.84  514.18 104459.29 11596.21    12.10     1.33    0.05    0.03    0.67   0.02  39.09
sda               0.12     0.82   14.18    0.58   164.09     8.57    23.38     0.00    0.33    0.32    0.44   0.07   0.10
sdc              35.00     0.17  126.34    0.31  1880.46    96.51    31.22     0.14    1.14    0.21  381.84   0.89  11.32
sdb              32.99     0.18  128.31    0.33  1878.54    96.33    30.71     0.57    4.43    3.39  413.03   0.84  10.77
sdd              35.19     0.17  125.88    0.26  1876.55    96.01    31.28     0.88    7.01    5.16  909.23   0.90  11.35
md0               0.00     0.00  486.52    1.20  6983.03   348.14    30.06     0.00    0.00    0.00    0.00   0.00   0.00

avg-cpu:  %user   %nice %system %iowait  %steal   %idle
           0.13    0.00    0.82    7.21    0.00   91.85

Device:         rrqm/s   wrqm/s     r/s     w/s    rkB/s    wkB/s avgrq-sz avgqu-sz   await r_await w_await  svctm  %util
nvme0n1           0.00     0.00    0.00    0.00     0.00     0.00     0.00     0.00    0.00    0.00    0.00   0.00   0.00
sda               0.00     0.00   18.00    0.00    76.00     0.00     8.44     0.00    0.00    0.00    0.00   0.00   0.00
sdc              44.00     0.00  860.00    0.00 35888.00     0.00    83.46     1.30    1.51    1.51    0.00   0.52  44.90
sdb              46.00     0.00  896.00    0.00 34892.00     0.00    77.88     1.63    1.85    1.85    0.00   0.59  52.60
sdd              46.00     0.00  776.00    0.00 36556.00     0.00    94.22     1.10    1.43    1.43    0.00   0.55  43.00
md0               0.00     0.00 2671.00    0.00 148780.00     0.00   111.40     0.00    0.00    0.00    0.00   0.00   0.00

avg-cpu:  %user   %nice %system %iowait  %steal   %idle
           0.13    0.00    0.82    6.87    0.00   92.18

Device:         rrqm/s   wrqm/s     r/s     w/s    rkB/s    wkB/s avgrq-sz avgqu-sz   await r_await w_await  svctm  %util
nvme0n1           0.00     0.00    0.00    0.00     0.00     0.00     0.00     0.00    0.00    0.00    0.00   0.00   0.00
sda               0.00     0.00    0.00    0.00     0.00     0.00     0.00     0.00    0.00    0.00    0.00   0.00   0.00
sdc              44.00     0.00 1087.00    0.00 35240.00     0.00    64.84     1.15    1.06    1.06    0.00   0.34  36.80
sdb              43.00     0.00  986.00    0.00 34936.00     0.00    70.86     1.82    1.84    1.84    0.00   0.66  65.10
sdd              42.00     0.00  924.00    0.00 36048.00     0.00    78.03     0.85    0.92    0.92    0.00   0.37  33.90
md0               0.00     0.00 3195.00    0.00 137032.00     0.00    85.78     0.00    0.00    0.00    0.00   0.00   0.00

