Linux 4.17.2 (bench2) 	08/04/2018 	_x86_64_	(32 CPU)

avg-cpu:  %user   %nice %system %iowait  %steal   %idle
           1.90    0.00    1.55    1.60    0.00   94.96

Device:         rrqm/s   wrqm/s     r/s     w/s    rkB/s    wkB/s avgrq-sz avgqu-sz   await r_await w_await  svctm  %util
nvme0n1         933.06     5.07 18810.15  517.90 105216.14 11680.23    12.10     1.34    0.05    0.03    0.67   0.02  39.38
sda               0.12     0.82   14.17    0.58   164.01     8.56    23.40     0.00    0.33    0.32    0.44   0.07   0.10
sdc              34.55     0.17  121.52    0.31  1838.15    97.21    31.77     0.10    0.85   12.44  381.84   0.91  11.06
sdb              32.53     0.19  123.50    0.33  1836.20    97.03    31.22     0.53    4.31    3.21  413.03   0.85  10.51
sdd              34.75     0.17  121.06    0.26  1834.21    96.71    31.83     0.85    6.99    5.05  909.23   0.91  11.06
md0               0.00     0.00  470.74    1.21  6834.74   350.67    30.45     0.00    0.00    0.00    0.00   0.00   0.00

avg-cpu:  %user   %nice %system %iowait  %steal   %idle
           0.06    0.00    0.38    0.28    0.00   99.28

Device:         rrqm/s   wrqm/s     r/s     w/s    rkB/s    wkB/s avgrq-sz avgqu-sz   await r_await w_await  svctm  %util
nvme0n1           0.00     0.00    0.00    0.00     0.00     0.00     0.00     0.00    0.00    0.00    0.00   0.00   0.00
sda               0.00     0.00   19.00    0.00   104.00     0.00    10.95     0.01    0.74    0.74    0.00   0.05   0.10
sdc               0.00     0.00 2073.00    0.00  8316.00     0.00     8.02     0.30    0.15    0.15    0.00   0.15  30.10
sdb               0.00     0.00 2017.00    0.00  8068.00     0.00     8.00     0.30    0.15    0.15    0.00   0.15  29.60
sdd               0.00     0.00 1989.00    0.00  7956.00     0.00     8.00     0.29    0.14    0.14    0.00   0.14  28.60
md0               0.00     0.00 6079.00    0.00 24328.00     0.00     8.00     0.00    0.00    0.00    0.00   0.00   0.00

avg-cpu:  %user   %nice %system %iowait  %steal   %idle
           0.09    0.00    0.38    0.25    0.00   99.28

Device:         rrqm/s   wrqm/s     r/s     w/s    rkB/s    wkB/s avgrq-sz avgqu-sz   await r_await w_await  svctm  %util
nvme0n1           0.00     0.00    0.00    0.00     0.00     0.00     0.00     0.00    0.00    0.00    0.00   0.00   0.00
sda               0.00     0.00    0.00    0.00     0.00     0.00     0.00     0.00    0.00    0.00    0.00   0.00   0.00
sdc               0.00     0.00 2210.00    0.00  8840.00     0.00     8.00     0.31    0.14    0.14    0.00   0.14  30.80
sdb               0.00     0.00 2051.00    0.00  8204.00     0.00     8.00     0.27    0.13    0.13    0.00   0.13  26.80
sdd               0.00     0.00 2176.00    0.00  8704.00     0.00     8.00     0.29    0.13    0.13    0.00   0.13  29.00
md0               0.00     0.00 6437.00    0.00 25748.00     0.00     8.00     0.00    0.00    0.00    0.00   0.00   0.00

avg-cpu:  %user   %nice %system %iowait  %steal   %idle
           0.06    0.00    0.47    0.25    0.00   99.22

Device:         rrqm/s   wrqm/s     r/s     w/s    rkB/s    wkB/s avgrq-sz avgqu-sz   await r_await w_await  svctm  %util
nvme0n1           0.00     0.00    0.00    0.00     0.00     0.00     0.00     0.00    0.00    0.00    0.00   0.00   0.00
sda               0.00     0.00    0.00    0.00     0.00     0.00     0.00     0.00    0.00    0.00    0.00   0.00   0.00
sdc               0.00     0.00 2170.00    0.00  8680.00     0.00     8.00     0.30    0.14    0.14    0.00   0.14  30.00
sdb               0.00     0.00 1995.00    0.00  7980.00     0.00     8.00     0.27    0.13    0.13    0.00   0.13  26.80
sdd               0.00     0.00 2087.00    0.00  8348.00     0.00     8.00     0.28    0.13    0.13    0.00   0.13  27.60
md0               0.00     0.00 6252.00    0.00 25008.00     0.00     8.00     0.00    0.00    0.00    0.00   0.00   0.00

avg-cpu:  %user   %nice %system %iowait  %steal   %idle
           0.06    0.00    0.50    0.25    0.00   99.19

Device:         rrqm/s   wrqm/s     r/s     w/s    rkB/s    wkB/s avgrq-sz avgqu-sz   await r_await w_await  svctm  %util
nvme0n1           0.00     0.00    0.00    0.00     0.00     0.00     0.00     0.00    0.00    0.00    0.00   0.00   0.00
sda               0.00     0.00    0.00    0.00     0.00     0.00     0.00     0.00    0.00    0.00    0.00   0.00   0.00
sdc               0.00     0.00 2121.00    0.00  8484.00     0.00     8.00     0.27    0.13    0.13    0.00   0.12  26.50
sdb               0.00     0.00 2134.00    0.00  8536.00     0.00     8.00     0.29    0.14    0.14    0.00   0.14  29.50
sdd               0.00     0.00 2213.00    0.00  8852.00     0.00     8.00     0.30    0.13    0.13    0.00   0.13  29.70
md0               0.00     0.00 6469.00    0.00 25876.00     0.00     8.00     0.00    0.00    0.00    0.00   0.00   0.00

avg-cpu:  %user   %nice %system %iowait  %steal   %idle
           0.06    0.00    0.38    0.25    0.00   99.31

Device:         rrqm/s   wrqm/s     r/s     w/s    rkB/s    wkB/s avgrq-sz avgqu-sz   await r_await w_await  svctm  %util
nvme0n1           0.00     0.00    0.00    0.00     0.00     0.00     0.00     0.00    0.00    0.00    0.00   0.00   0.00
sda               0.00     0.00    0.00    0.00     0.00     0.00     0.00     0.00    0.00    0.00    0.00   0.00   0.00
sdc               0.00     0.00 2063.00    0.00  8252.00     0.00     8.00     0.29    0.14    0.14    0.00   0.14  29.20
sdb               0.00     0.00 2091.00    0.00  8364.00     0.00     8.00     0.29    0.14    0.14    0.00   0.14  29.50
sdd               0.00     0.00 2149.00    0.00  8596.00     0.00     8.00     0.30    0.14    0.14    0.00   0.14  29.80
md0               0.00     0.00 6302.00    0.00 25208.00     0.00     8.00     0.00    0.00    0.00    0.00   0.00   0.00

avg-cpu:  %user   %nice %system %iowait  %steal   %idle
           0.06    0.00    0.53    0.28    0.00   99.12

Device:         rrqm/s   wrqm/s     r/s     w/s    rkB/s    wkB/s avgrq-sz avgqu-sz   await r_await w_await  svctm  %util
nvme0n1           0.00     0.00    0.00    0.00     0.00     0.00     0.00     0.00    0.00    0.00    0.00   0.00   0.00
sda               0.00    10.00    0.00    2.00     0.00    48.00    48.00     0.00    0.50    0.00    0.50   0.50   0.10
sdc               0.00     0.00 2137.00    0.00  8548.00     0.00     8.00     0.28    0.13    0.13    0.00   0.13  28.50
sdb               0.00     0.00 2119.00    0.00  8476.00     0.00     8.00     0.29    0.14    0.14    0.00   0.14  29.40
sdd               0.00     0.00 2104.00    0.00  8416.00     0.00     8.00     0.29    0.14    0.14    0.00   0.14  29.10
md0               0.00     0.00 6360.00    0.00 25440.00     0.00     8.00     0.00    0.00    0.00    0.00   0.00   0.00

avg-cpu:  %user   %nice %system %iowait  %steal   %idle
           0.06    0.00    0.47    0.25    0.00   99.22

Device:         rrqm/s   wrqm/s     r/s     w/s    rkB/s    wkB/s avgrq-sz avgqu-sz   await r_await w_await  svctm  %util
nvme0n1           0.00     0.00    0.00    0.00     0.00     0.00     0.00     0.00    0.00    0.00    0.00   0.00   0.00
sda               0.00     0.00    0.00    0.00     0.00     0.00     0.00     0.00    0.00    0.00    0.00   0.00   0.00
sdc               0.00     0.00 2207.00    0.00  8828.00     0.00     8.00     0.30    0.14    0.14    0.00   0.14  30.50
sdb               0.00     0.00 2217.00    0.00  8868.00     0.00     8.00     0.29    0.13    0.13    0.00   0.13  29.40
sdd               0.00     0.00 1990.00    0.00  7960.00     0.00     8.00     0.28    0.14    0.14    0.00   0.14  27.50
md0               0.00     0.00 6414.00    0.00 25656.00     0.00     8.00     0.00    0.00    0.00    0.00   0.00   0.00

avg-cpu:  %user   %nice %system %iowait  %steal   %idle
           0.06    0.00    0.41    0.25    0.00   99.28

Device:         rrqm/s   wrqm/s     r/s     w/s    rkB/s    wkB/s avgrq-sz avgqu-sz   await r_await w_await  svctm  %util
nvme0n1           0.00     0.00    0.00    0.00     0.00     0.00     0.00     0.00    0.00    0.00    0.00   0.00   0.00
sda               0.00     0.00    0.00    0.00     0.00     0.00     0.00     0.00    0.00    0.00    0.00   0.00   0.00
sdc               0.00     0.00 2099.00    0.00  8396.00     0.00     8.00     0.27    0.13    0.13    0.00   0.13  27.40
sdb               0.00     0.00 2175.00    0.00  8700.00     0.00     8.00     0.30    0.14    0.14    0.00   0.14  29.80
sdd               0.00     0.00 2159.00    0.00  8636.00     0.00     8.00     0.31    0.15    0.15    0.00   0.15  31.40
md0               0.00     0.00 6433.00    0.00 25732.00     0.00     8.00     0.00    0.00    0.00    0.00   0.00   0.00

avg-cpu:  %user   %nice %system %iowait  %steal   %idle
           0.06    0.00    0.44    0.25    0.00   99.25

Device:         rrqm/s   wrqm/s     r/s     w/s    rkB/s    wkB/s avgrq-sz avgqu-sz   await r_await w_await  svctm  %util
nvme0n1           0.00     0.00    0.00    0.00     0.00     0.00     0.00     0.00    0.00    0.00    0.00   0.00   0.00
sda               0.00     0.00    0.00    0.00     0.00     0.00     0.00     0.00    0.00    0.00    0.00   0.00   0.00
sdc               0.00     0.00 2123.00    0.00  8492.00     0.00     8.00     0.30    0.14    0.14    0.00   0.14  29.80
sdb               0.00     0.00 2074.00    0.00  8296.00     0.00     8.00     0.30    0.14    0.14    0.00   0.14  29.70
sdd               0.00     0.00 2043.00    0.00  8172.00     0.00     8.00     0.27    0.13    0.13    0.00   0.13  27.10
md0               0.00     0.00 6240.00    0.00 24960.00     0.00     8.00     0.00    0.00    0.00    0.00   0.00   0.00

avg-cpu:  %user   %nice %system %iowait  %steal   %idle
           0.06    0.00    0.47    0.28    0.00   99.19

Device:         rrqm/s   wrqm/s     r/s     w/s    rkB/s    wkB/s avgrq-sz avgqu-sz   await r_await w_await  svctm  %util
nvme0n1           0.00     0.00    0.00    0.00     0.00     0.00     0.00     0.00    0.00    0.00    0.00   0.00   0.00
sda               0.00     0.00    0.00    0.00     0.00     0.00     0.00     0.00    0.00    0.00    0.00   0.00   0.00
sdc               0.00     0.00 2113.00    0.00  8452.00     0.00     8.00     0.30    0.14    0.14    0.00   0.14  29.80
sdb               0.00     0.00 2066.00    0.00  8264.00     0.00     8.00     0.28    0.14    0.14    0.00   0.14  27.90
sdd               0.00     0.00 2140.00    0.00  8560.00     0.00     8.00     0.29    0.14    0.14    0.00   0.13  28.80
md0               0.00     0.00 6320.00    0.00 25280.00     0.00     8.00     0.00    0.00    0.00    0.00   0.00   0.00

avg-cpu:  %user   %nice %system %iowait  %steal   %idle
           0.09    0.00    0.53    0.25    0.00   99.12

Device:         rrqm/s   wrqm/s     r/s     w/s    rkB/s    wkB/s avgrq-sz avgqu-sz   await r_await w_await  svctm  %util
nvme0n1           0.00     0.00    0.00    0.00     0.00     0.00     0.00     0.00    0.00    0.00    0.00   0.00   0.00
sda               0.00     2.00    0.00    2.00     0.00    16.00    16.00     0.00    0.50    0.00    0.50   0.50   0.10
sdc               0.00     0.00 2107.00    0.00  8428.00     0.00     8.00     0.26    0.13    0.13    0.00   0.13  26.40
sdb               0.00     0.00 2068.00    0.00  8272.00     0.00     8.00     0.27    0.13    0.13    0.00   0.13  27.20
sdd               0.00     0.00 2165.00    0.00  8660.00     0.00     8.00     0.30    0.14    0.14    0.00   0.14  30.00
md0               0.00     0.00 6340.00    0.00 25360.00     0.00     8.00     0.00    0.00    0.00    0.00   0.00   0.00

avg-cpu:  %user   %nice %system %iowait  %steal   %idle
           0.03    0.00    0.47    0.25    0.00   99.25

Device:         rrqm/s   wrqm/s     r/s     w/s    rkB/s    wkB/s avgrq-sz avgqu-sz   await r_await w_await  svctm  %util
nvme0n1           0.00     0.00    0.00    0.00     0.00     0.00     0.00     0.00    0.00    0.00    0.00   0.00   0.00
sda               0.00     0.00    0.00    0.00     0.00     0.00     0.00     0.00    0.00    0.00    0.00   0.00   0.00
sdc               0.00     0.00 2077.00    0.00  8308.00     0.00     8.00     0.28    0.14    0.14    0.00   0.14  28.40
sdb               0.00     0.00 2149.00    0.00  8596.00     0.00     8.00     0.29    0.14    0.14    0.00   0.14  29.30
sdd               0.00     0.00 2156.00    0.00  8624.00     0.00     8.00     0.29    0.13    0.13    0.00   0.13  28.90
md0               0.00     0.00 6381.00    0.00 25524.00     0.00     8.00     0.00    0.00    0.00    0.00   0.00   0.00

avg-cpu:  %user   %nice %system %iowait  %steal   %idle
           0.06    0.00    0.47    0.25    0.00   99.22

Device:         rrqm/s   wrqm/s     r/s     w/s    rkB/s    wkB/s avgrq-sz avgqu-sz   await r_await w_await  svctm  %util
nvme0n1           0.00     0.00    0.00    0.00     0.00     0.00     0.00     0.00    0.00    0.00    0.00   0.00   0.00
sda               0.00     0.00    0.00    0.00     0.00     0.00     0.00     0.00    0.00    0.00    0.00   0.00   0.00
sdc               0.00     0.00 2090.00    0.00  8360.00     0.00     8.00     0.28    0.13    0.13    0.00   0.13  28.10
sdb               0.00     0.00 2179.00    0.00  8716.00     0.00     8.00     0.31    0.14    0.14    0.00   0.14  30.70
sdd               0.00     0.00 2038.00    0.00  8152.00     0.00     8.00     0.28    0.14    0.14    0.00   0.14  28.20
md0               0.00     0.00 6307.00    0.00 25228.00     0.00     8.00     0.00    0.00    0.00    0.00   0.00   0.00

avg-cpu:  %user   %nice %system %iowait  %steal   %idle
           0.06    0.00    0.50    0.25    0.00   99.19

Device:         rrqm/s   wrqm/s     r/s     w/s    rkB/s    wkB/s avgrq-sz avgqu-sz   await r_await w_await  svctm  %util
nvme0n1           0.00     0.00    0.00    0.00     0.00     0.00     0.00     0.00    0.00    0.00    0.00   0.00   0.00
sda               0.00     0.00    0.00    0.00     0.00     0.00     0.00     0.00    0.00    0.00    0.00   0.00   0.00
sdc               0.00     0.00 2153.00    0.00  8612.00     0.00     8.00     0.29    0.14    0.14    0.00   0.14  29.20
sdb               0.00     0.00 2137.00    0.00  8548.00     0.00     8.00     0.28    0.13    0.13    0.00   0.13  28.50
sdd               0.00     0.00 2150.00    0.00  8600.00     0.00     8.00     0.30    0.14    0.14    0.00   0.14  29.80
md0               0.00     0.00 6440.00    0.00 25760.00     0.00     8.00     0.00    0.00    0.00    0.00   0.00   0.00

avg-cpu:  %user   %nice %system %iowait  %steal   %idle
           0.06    0.00    0.44    0.25    0.00   99.25

Device:         rrqm/s   wrqm/s     r/s     w/s    rkB/s    wkB/s avgrq-sz avgqu-sz   await r_await w_await  svctm  %util
nvme0n1           0.00     0.00    0.00    0.00     0.00     0.00     0.00     0.00    0.00    0.00    0.00   0.00   0.00
sda               0.00     2.00    0.00    2.00     0.00    32.00    32.00     0.00    0.00    0.00    0.00   0.00   0.00
sdc               0.00     0.00 2054.00    0.00  8216.00     0.00     8.00     0.28    0.14    0.14    0.00   0.14  28.20
sdb               0.00     0.00 2123.00    0.00  8492.00     0.00     8.00     0.28    0.14    0.14    0.00   0.13  28.50
sdd               0.00     0.00 2130.00    0.00  8520.00     0.00     8.00     0.30    0.14    0.14    0.00   0.14  30.20
md0               0.00     0.00 6307.00    0.00 25228.00     0.00     8.00     0.00    0.00    0.00    0.00   0.00   0.00

avg-cpu:  %user   %nice %system %iowait  %steal   %idle
           0.06    0.00    0.41    0.25    0.00   99.28

Device:         rrqm/s   wrqm/s     r/s     w/s    rkB/s    wkB/s avgrq-sz avgqu-sz   await r_await w_await  svctm  %util
nvme0n1           0.00     0.00    0.00    0.00     0.00     0.00     0.00     0.00    0.00    0.00    0.00   0.00   0.00
sda               0.00     4.00    0.00    2.00     0.00    24.00    24.00     0.00    0.00    0.00    0.00   0.00   0.00
sdc               0.00     0.00 2033.00    0.00  8132.00     0.00     8.00     0.27    0.13    0.13    0.00   0.13  27.40
sdb               0.00     0.00 2154.00    0.00  8616.00     0.00     8.00     0.31    0.14    0.14    0.00   0.14  30.70
sdd               0.00     0.00 2134.00    0.00  8536.00     0.00     8.00     0.29    0.13    0.13    0.00   0.13  28.70
md0               0.00     0.00 6321.00    0.00 25284.00     0.00     8.00     0.00    0.00    0.00    0.00   0.00   0.00

avg-cpu:  %user   %nice %system %iowait  %steal   %idle
           0.06    0.00    0.44    0.28    0.00   99.22

Device:         rrqm/s   wrqm/s     r/s     w/s    rkB/s    wkB/s avgrq-sz avgqu-sz   await r_await w_await  svctm  %util
nvme0n1           0.00     0.00    0.00    0.00     0.00     0.00     0.00     0.00    0.00    0.00    0.00   0.00   0.00
sda               0.00     0.00    0.00    0.00     0.00     0.00     0.00     0.00    0.00    0.00    0.00   0.00   0.00
sdc               0.00     0.00 2079.00    0.00  8316.00     0.00     8.00     0.30    0.14    0.14    0.00   0.14  29.90
sdb               0.00     0.00 2000.00    0.00  8000.00     0.00     8.00     0.27    0.14    0.14    0.00   0.14  27.40
sdd               0.00     0.00 2049.00    0.00  8196.00     0.00     8.00     0.30    0.15    0.15    0.00   0.15  30.30
md0               0.00     0.00 6128.00    0.00 24512.00     0.00     8.00     0.00    0.00    0.00    0.00   0.00   0.00

avg-cpu:  %user   %nice %system %iowait  %steal   %idle
           0.06    0.00    0.50    0.25    0.00   99.19

Device:         rrqm/s   wrqm/s     r/s     w/s    rkB/s    wkB/s avgrq-sz avgqu-sz   await r_await w_await  svctm  %util
nvme0n1           0.00     0.00    0.00    0.00     0.00     0.00     0.00     0.00    0.00    0.00    0.00   0.00   0.00
sda               0.00     0.00    0.00    0.00     0.00     0.00     0.00     0.00    0.00    0.00    0.00   0.00   0.00
sdc               0.00     0.00 2133.00    0.00  8532.00     0.00     8.00     0.29    0.14    0.14    0.00   0.14  29.30
sdb               0.00     0.00 2232.00    0.00  8928.00     0.00     8.00     0.28    0.13    0.13    0.00   0.13  28.30
sdd               0.00     0.00 2035.00    0.00  8140.00     0.00     8.00     0.28    0.14    0.14    0.00   0.14  28.30
md0               0.00     0.00 6400.00    0.00 25600.00     0.00     8.00     0.00    0.00    0.00    0.00   0.00   0.00

avg-cpu:  %user   %nice %system %iowait  %steal   %idle
           0.06    0.00    0.47    0.25    0.00   99.22

Device:         rrqm/s   wrqm/s     r/s     w/s    rkB/s    wkB/s avgrq-sz avgqu-sz   await r_await w_await  svctm  %util
nvme0n1           0.00     0.00    0.00    0.00     0.00     0.00     0.00     0.00    0.00    0.00    0.00   0.00   0.00
sda               0.00     0.00    0.00    0.00     0.00     0.00     0.00     0.00    0.00    0.00    0.00   0.00   0.00
sdc               0.00     0.00 2089.00    0.00  8356.00     0.00     8.00     0.28    0.14    0.14    0.00   0.14  28.30
sdb               0.00     0.00 2090.00    0.00  8360.00     0.00     8.00     0.30    0.14    0.14    0.00   0.14  30.30
sdd               0.00     0.00 2122.00    0.00  8488.00     0.00     8.00     0.27    0.13    0.13    0.00   0.13  26.80
md0               0.00     0.00 6301.00    0.00 25204.00     0.00     8.00     0.00    0.00    0.00    0.00   0.00   0.00

avg-cpu:  %user   %nice %system %iowait  %steal   %idle
           0.09    0.00    0.47    0.28    0.00   99.15

Device:         rrqm/s   wrqm/s     r/s     w/s    rkB/s    wkB/s avgrq-sz avgqu-sz   await r_await w_await  svctm  %util
nvme0n1           0.00     0.00    0.00    0.00     0.00     0.00     0.00     0.00    0.00    0.00    0.00   0.00   0.00
sda               0.00     2.00    0.00   10.00     0.00    48.00     9.60     0.00    0.00    0.00    0.00   0.00   0.00
sdc               0.00     0.00 2265.00    0.00  9060.00     0.00     8.00     0.30    0.13    0.13    0.00   0.13  30.10
sdb               0.00     0.00 2000.00    0.00  8000.00     0.00     8.00     0.28    0.14    0.14    0.00   0.14  27.60
sdd               0.00     0.00 2035.00    0.00  8140.00     0.00     8.00     0.28    0.14    0.14    0.00   0.14  28.00
md0               0.00     0.00 6300.00    0.00 25200.00     0.00     8.00     0.00    0.00    0.00    0.00   0.00   0.00

