Linux 4.17.2 (bench2) 	08/04/2018 	_x86_64_	(32 CPU)

avg-cpu:  %user   %nice %system %iowait  %steal   %idle
           1.89    0.00    1.53    1.65    0.00   94.93

Device:         rrqm/s   wrqm/s     r/s     w/s    rkB/s    wkB/s avgrq-sz avgqu-sz   await r_await w_await  svctm  %util
nvme0n1         919.99     5.00 18546.69  510.65 103742.45 11516.63    12.10     1.32    0.05    0.03    0.67   0.02  38.83
sda               0.12     0.82   14.20    0.59   164.14     8.57    23.36     0.00    0.33    0.32    0.43   0.07   0.10
sdc              35.32     0.17  130.37    0.31  1928.65    95.84    30.99     0.19    1.48    0.59  381.84   0.89  11.59
sdb              33.32     0.18  132.33    0.33  1926.77    95.67    30.49     0.62    4.64    3.64  413.03   0.83  11.04
sdd              35.51     0.16  129.92    0.26  1924.79    95.35    31.04     0.93    7.15    5.37  909.23   0.89  11.64
md0               0.00     0.00  499.56    1.19  7159.96   345.76    29.98     0.00    0.00    0.00    0.00   0.00   0.00

avg-cpu:  %user   %nice %system %iowait  %steal   %idle
           0.00    0.00    0.12   46.28    0.00   53.59

Device:         rrqm/s   wrqm/s     r/s     w/s    rkB/s    wkB/s avgrq-sz avgqu-sz   await r_await w_await  svctm  %util
nvme0n1           0.00     0.00    0.00    0.00     0.00     0.00     0.00     0.00    0.00    0.00    0.00   0.00   0.00
sda               0.00     0.00    4.00    0.00   104.00     0.00    52.00     0.00    0.25    0.25    0.00   0.25   0.10
sdc               0.00     0.00  168.00    0.00  2600.00     0.00    30.95     8.55   43.76   43.76    0.00   5.86  98.50
sdb               1.00     0.00  179.00    0.00  4092.00     0.00    45.72     3.43   19.01   19.01    0.00   4.90  87.70
sdd               0.00     0.00  178.00    0.00  2696.00     0.00    30.29     4.94   27.74   27.74    0.00   5.13  91.30
md0               0.00     0.00  540.00    0.00 10536.00     0.00    39.02     0.00    0.00    0.00    0.00   0.00   0.00

avg-cpu:  %user   %nice %system %iowait  %steal   %idle
           0.00    0.00    0.06   40.09    0.00   59.85

Device:         rrqm/s   wrqm/s     r/s     w/s    rkB/s    wkB/s avgrq-sz avgqu-sz   await r_await w_await  svctm  %util
nvme0n1           0.00     0.00    0.00    0.00     0.00     0.00     0.00     0.00    0.00    0.00    0.00   0.00   0.00
sda               0.00     0.00    0.00    0.00     0.00     0.00     0.00     0.00    0.00    0.00    0.00   0.00   0.00
sdc               1.00     0.00  148.00    0.00  2200.00     0.00    29.73     1.78   19.92   19.92    0.00   3.61  53.40
sdb               0.00     0.00  198.00    0.00  2792.00     0.00    28.20     8.17   28.08   28.08    0.00   5.04  99.80
sdd               0.00     0.00  190.00    0.00  2276.00     0.00    23.96     4.58   24.08   24.08    0.00   4.84  91.90
md0               0.00     0.00  546.00    0.00  9364.00     0.00    34.30     0.00    0.00    0.00    0.00   0.00   0.00

avg-cpu:  %user   %nice %system %iowait  %steal   %idle
           0.03    0.00    0.09   38.62    0.00   61.25

Device:         rrqm/s   wrqm/s     r/s     w/s    rkB/s    wkB/s avgrq-sz avgqu-sz   await r_await w_await  svctm  %util
nvme0n1           0.00     0.00    0.00    0.00     0.00     0.00     0.00     0.00    0.00    0.00    0.00   0.00   0.00
sda               0.00     0.00    0.00    0.00     0.00     0.00     0.00     0.00    0.00    0.00    0.00   0.00   0.00
sdc               0.00     0.00  185.00    0.00  3116.00     0.00    33.69     1.65    9.07    9.07    0.00   3.61  66.80
sdb               0.00     0.00  210.00    0.00  2380.00     0.00    22.67     9.44   55.22   55.22    0.00   4.70  98.60
sdd               0.00     0.00  158.00    0.00  2196.00     0.00    27.80     3.54   13.90   13.90    0.00   4.07  64.30
md0               0.00     0.00  548.00    0.00  7156.00     0.00    26.12     0.00    0.00    0.00    0.00   0.00   0.00

avg-cpu:  %user   %nice %system %iowait  %steal   %idle
           0.00    0.00    0.06   38.50    0.00   61.43

Device:         rrqm/s   wrqm/s     r/s     w/s    rkB/s    wkB/s avgrq-sz avgqu-sz   await r_await w_await  svctm  %util
nvme0n1           0.00     0.00    0.00    0.00     0.00     0.00     0.00     0.00    0.00    0.00    0.00   0.00   0.00
sda               0.00     8.00    0.00    2.00     0.00    40.00    40.00     0.00    0.00    0.00    0.00   0.00   0.00
sdc               0.00     0.00  219.00    0.00  2836.00     0.00    25.90     5.62   25.05   25.05    0.00   4.35  95.20
sdb               0.00     0.00  191.00    0.00  2220.00     0.00    23.25     2.83   17.26   17.26    0.00   3.90  74.50
sdd               0.00     0.00  227.00    0.00  2432.00     0.00    21.43     5.89   30.88   30.88    0.00   4.30  97.60
md0               0.00     0.00  635.00    0.00  7688.00     0.00    24.21     0.00    0.00    0.00    0.00   0.00   0.00

avg-cpu:  %user   %nice %system %iowait  %steal   %idle
           0.00    0.00    0.06   37.98    0.00   61.96

Device:         rrqm/s   wrqm/s     r/s     w/s    rkB/s    wkB/s avgrq-sz avgqu-sz   await r_await w_await  svctm  %util
nvme0n1           0.00     0.00    0.00    0.00     0.00     0.00     0.00     0.00    0.00    0.00    0.00   0.00   0.00
sda               0.00     0.00    0.00    0.00     0.00     0.00     0.00     0.00    0.00    0.00    0.00   0.00   0.00
sdc               0.00     0.00  201.00    0.00  3184.00     0.00    31.68     7.20   36.47   36.47    0.00   4.39  88.30
sdb               0.00     0.00  157.00    0.00  1676.00     0.00    21.35     1.61   10.37   10.37    0.00   4.30  67.50
sdd               1.00     0.00  194.00    0.00  3172.00     0.00    32.70     6.57   35.06   35.06    0.00   5.08  98.60
md0               0.00     0.00  538.00    0.00  8908.00     0.00    33.12     0.00    0.00    0.00    0.00   0.00   0.00

avg-cpu:  %user   %nice %system %iowait  %steal   %idle
           0.00    0.00    0.09   46.14    0.00   53.77

Device:         rrqm/s   wrqm/s     r/s     w/s    rkB/s    wkB/s avgrq-sz avgqu-sz   await r_await w_await  svctm  %util
nvme0n1           0.00     0.00    0.00    0.00     0.00     0.00     0.00     0.00    0.00    0.00    0.00   0.00   0.00
sda               0.00     0.00   55.00    0.00   432.00     0.00    15.71     0.02    0.38    0.38    0.00   0.05   0.30
sdc               0.00     0.00  199.00    0.00  3368.00     0.00    33.85     5.51   25.47   25.47    0.00   4.85  96.50
sdb               0.00     0.00  214.00    0.00  2884.00     0.00    26.95     8.99   41.17   41.17    0.00   4.63  99.00
sdd               0.00     0.00  168.00    0.00  2624.00     0.00    31.24     2.40   14.29   14.29    0.00   4.21  70.80
md0               0.00     0.00  593.00    0.00 10116.00     0.00    34.12     0.00    0.00    0.00    0.00   0.00   0.00

avg-cpu:  %user   %nice %system %iowait  %steal   %idle
           0.03    0.00    0.06   40.59    0.00   59.32

Device:         rrqm/s   wrqm/s     r/s     w/s    rkB/s    wkB/s avgrq-sz avgqu-sz   await r_await w_await  svctm  %util
nvme0n1           0.00     0.00    0.00    0.00     0.00     0.00     0.00     0.00    0.00    0.00    0.00   0.00   0.00
sda               0.00     0.00    0.00    0.00     0.00     0.00     0.00     0.00    0.00    0.00    0.00   0.00   0.00
sdc               1.00     0.00  215.00    0.00  2468.00     0.00    22.96     5.36   24.55   24.55    0.00   4.48  96.30
sdb               0.00     0.00  208.00    0.00  2408.00     0.00    23.15     4.71   23.28   23.28    0.00   4.40  91.60
sdd               0.00     0.00  195.00    0.00  2952.00     0.00    30.28     5.09   25.50   25.50    0.00   4.23  82.50
md0               0.00     0.00  623.00    0.00  8592.00     0.00    27.58     0.00    0.00    0.00    0.00   0.00   0.00

avg-cpu:  %user   %nice %system %iowait  %steal   %idle
           0.00    0.00    0.06   39.68    0.00   60.26

Device:         rrqm/s   wrqm/s     r/s     w/s    rkB/s    wkB/s avgrq-sz avgqu-sz   await r_await w_await  svctm  %util
nvme0n1           0.00     0.00    0.00    0.00     0.00     0.00     0.00     0.00    0.00    0.00    0.00   0.00   0.00
sda               0.00     0.00    0.00    0.00     0.00     0.00     0.00     0.00    0.00    0.00    0.00   0.00   0.00
sdc               0.00     0.00  206.00    0.00  2940.00     0.00    28.54     6.06   29.69   29.69    0.00   4.83  99.60
sdb               0.00     0.00  183.00    0.00  2416.00     0.00    26.40     3.66   19.14   19.14    0.00   4.84  88.50
sdd               0.00     0.00  192.00    0.00  3140.00     0.00    32.71     5.14   26.89   26.89    0.00   4.63  88.80
md0               0.00     0.00  581.00    0.00  8928.00     0.00    30.73     0.00    0.00    0.00    0.00   0.00   0.00

avg-cpu:  %user   %nice %system %iowait  %steal   %idle
           0.00    0.00    0.03   40.76    0.00   59.21

Device:         rrqm/s   wrqm/s     r/s     w/s    rkB/s    wkB/s avgrq-sz avgqu-sz   await r_await w_await  svctm  %util
nvme0n1           0.00     0.00    0.00    0.00     0.00     0.00     0.00     0.00    0.00    0.00    0.00   0.00   0.00
sda               0.00     4.00    0.00    4.00     0.00    48.00    24.00     0.00    0.00    0.00    0.00   0.00   0.00
sdc               1.00     0.00  191.00    0.00  3024.00     0.00    31.66     6.92   35.85   35.85    0.00   4.97  94.90
sdb               0.00     0.00  205.00    0.00  2988.00     0.00    29.15     5.10   25.07   25.07    0.00   4.59  94.00
sdd               0.00     0.00  169.00    0.00  2340.00     0.00    27.69     2.88   17.60   17.60    0.00   4.50  76.00
md0               0.00     0.00  565.00    0.00  9320.00     0.00    32.99     0.00    0.00    0.00    0.00   0.00   0.00

avg-cpu:  %user   %nice %system %iowait  %steal   %idle
           0.00    0.00    0.09   37.48    0.00   62.43

Device:         rrqm/s   wrqm/s     r/s     w/s    rkB/s    wkB/s avgrq-sz avgqu-sz   await r_await w_await  svctm  %util
nvme0n1           0.00     0.00    0.00    0.00     0.00     0.00     0.00     0.00    0.00    0.00    0.00   0.00   0.00
sda               0.00     6.00    0.00    2.00     0.00    32.00    32.00     0.00    0.00    0.00    0.00   0.00   0.00
sdc               0.00     0.00  186.00    0.00  2256.00     0.00    24.26     4.92   29.27   29.27    0.00   4.33  80.60
sdb               0.00     0.00  170.00    0.00  1592.00     0.00    18.73     3.85   23.14   23.14    0.00   5.56  94.60
sdd               0.00     0.00  198.00    0.00  3388.00     0.00    34.22     5.32   25.54   25.54    0.00   4.46  88.30
md0               0.00     0.00  554.00    0.00  7676.00     0.00    27.71     0.00    0.00    0.00    0.00   0.00   0.00

avg-cpu:  %user   %nice %system %iowait  %steal   %idle
           0.03    0.00    0.09   38.56    0.00   61.31

Device:         rrqm/s   wrqm/s     r/s     w/s    rkB/s    wkB/s avgrq-sz avgqu-sz   await r_await w_await  svctm  %util
nvme0n1           0.00     0.00    0.00    0.00     0.00     0.00     0.00     0.00    0.00    0.00    0.00   0.00   0.00
sda               0.00     0.00    0.00    0.00     0.00     0.00     0.00     0.00    0.00    0.00    0.00   0.00   0.00
sdc               0.00     0.00  199.00    0.00  3424.00     0.00    34.41     4.34   21.82   21.82    0.00   4.16  82.80
sdb               0.00     0.00  244.00    0.00  3012.00     0.00    24.69     7.86   32.48   32.48    0.00   4.10 100.10
sdd               0.00     0.00  190.00    0.00  2852.00     0.00    30.02     2.99   17.10   17.10    0.00   4.32  82.10
md0               0.00     0.00  620.00    0.00  9876.00     0.00    31.86     0.00    0.00    0.00    0.00   0.00   0.00

avg-cpu:  %user   %nice %system %iowait  %steal   %idle
           0.00    0.00    0.06   43.87    0.00   56.07

Device:         rrqm/s   wrqm/s     r/s     w/s    rkB/s    wkB/s avgrq-sz avgqu-sz   await r_await w_await  svctm  %util
nvme0n1           0.00     0.00    0.00    0.00     0.00     0.00     0.00     0.00    0.00    0.00    0.00   0.00   0.00
sda               0.00     0.00    0.00    0.00     0.00     0.00     0.00     0.00    0.00    0.00    0.00   0.00   0.00
sdc               0.00     0.00  205.00    0.00  2820.00     0.00    27.51     5.03   24.35   24.35    0.00   4.43  90.80
sdb               0.00     0.00  216.00    0.00  3136.00     0.00    29.04     6.26   29.04   29.04    0.00   4.54  98.00
sdd               0.00     0.00  206.00    0.00  2352.00     0.00    22.83     4.98   24.07   24.07    0.00   4.53  93.40
md0               0.00     0.00  633.00    0.00  8604.00     0.00    27.18     0.00    0.00    0.00    0.00   0.00   0.00

avg-cpu:  %user   %nice %system %iowait  %steal   %idle
           0.00    0.00    0.09   39.64    0.00   60.27

Device:         rrqm/s   wrqm/s     r/s     w/s    rkB/s    wkB/s avgrq-sz avgqu-sz   await r_await w_await  svctm  %util
nvme0n1           0.00     0.00    0.00    0.00     0.00     0.00     0.00     0.00    0.00    0.00    0.00   0.00   0.00
sda               0.00     0.00    0.00    0.00     0.00     0.00     0.00     0.00    0.00    0.00    0.00   0.00   0.00
sdc               0.00     0.00  184.00    0.00  3004.00     0.00    32.65     3.65   19.86   19.86    0.00   4.92  90.60
sdb               0.00     0.00  161.00    0.00  3312.00     0.00    41.14     3.16   19.61   19.61    0.00   4.80  77.20
sdd               0.00     0.00  175.00    0.00  3056.00     0.00    34.93     8.46   38.74   38.74    0.00   5.22  91.30
md0               0.00     0.00  527.00    0.00 10216.00     0.00    38.77     0.00    0.00    0.00    0.00   0.00   0.00

avg-cpu:  %user   %nice %system %iowait  %steal   %idle
           0.00    0.00    0.06   40.19    0.00   59.74

Device:         rrqm/s   wrqm/s     r/s     w/s    rkB/s    wkB/s avgrq-sz avgqu-sz   await r_await w_await  svctm  %util
nvme0n1           0.00     0.00    0.00    0.00     0.00     0.00     0.00     0.00    0.00    0.00    0.00   0.00   0.00
sda               0.00     1.00    0.00   17.00     0.00    72.00     8.47     0.00    0.00    0.00    0.00   0.00   0.00
sdc               0.00     0.00  205.00    0.00  2804.00     0.00    27.36     4.75   23.35   23.35    0.00   4.46  91.40
sdb               0.00     0.00  170.00    0.00  3192.00     0.00    37.55     1.47    8.66    8.66    0.00   3.48  59.20
sdd               0.00     0.00  220.00    0.00  3268.00     0.00    29.71     9.54   45.87   45.87    0.00   4.54  99.80
md0               0.00     0.00  597.00    0.00  9948.00     0.00    33.33     0.00    0.00    0.00    0.00   0.00   0.00

avg-cpu:  %user   %nice %system %iowait  %steal   %idle
           0.00    0.00    0.09   37.57    0.00   62.33

Device:         rrqm/s   wrqm/s     r/s     w/s    rkB/s    wkB/s avgrq-sz avgqu-sz   await r_await w_await  svctm  %util
nvme0n1           0.00     0.00    0.00    0.00     0.00     0.00     0.00     0.00    0.00    0.00    0.00   0.00   0.00
sda               0.00     1.00    0.00    2.00     0.00    12.00    12.00     0.00    0.00    0.00    0.00   0.00   0.00
sdc               0.00     0.00  214.00    0.00  3496.00     0.00    32.67     5.21   24.42   24.42    0.00   3.61  77.20
sdb               0.00     0.00  193.00    0.00  2708.00     0.00    28.06     2.38   12.16   12.16    0.00   3.88  74.80
sdd               0.00     0.00  224.00    0.00  4256.00     0.00    38.00     7.43   36.12   36.12    0.00   4.38  98.00
md0               0.00     0.00  629.00    0.00 11544.00     0.00    36.71     0.00    0.00    0.00    0.00   0.00   0.00

avg-cpu:  %user   %nice %system %iowait  %steal   %idle
           0.03    0.00    0.06   39.86    0.00   60.05

Device:         rrqm/s   wrqm/s     r/s     w/s    rkB/s    wkB/s avgrq-sz avgqu-sz   await r_await w_await  svctm  %util
nvme0n1           0.00     0.00    0.00    0.00     0.00     0.00     0.00     0.00    0.00    0.00    0.00   0.00   0.00
sda               0.00     0.00    0.00    0.00     0.00     0.00     0.00     0.00    0.00    0.00    0.00   0.00   0.00
sdc               0.00     0.00  224.00    0.00  3024.00     0.00    27.00     5.78   23.32   23.32    0.00   4.33  97.10
sdb               0.00     0.00  207.00    0.00  3620.00     0.00    34.98     4.66   22.24   22.24    0.00   4.45  92.10
sdd               0.00     0.00  220.00    0.00  3072.00     0.00    27.93     4.99   24.51   24.51    0.00   3.85  84.80
md0               0.00     0.00  656.00    0.00 11096.00     0.00    33.83     0.00    0.00    0.00    0.00   0.00   0.00

avg-cpu:  %user   %nice %system %iowait  %steal   %idle
           0.00    0.00    0.09   36.89    0.00   63.02

Device:         rrqm/s   wrqm/s     r/s     w/s    rkB/s    wkB/s avgrq-sz avgqu-sz   await r_await w_await  svctm  %util
nvme0n1           0.00     0.00    0.00    0.00     0.00     0.00     0.00     0.00    0.00    0.00    0.00   0.00   0.00
sda               0.00     0.00    0.00    0.00     0.00     0.00     0.00     0.00    0.00    0.00    0.00   0.00   0.00
sdc               0.00     0.00  157.00    0.00  2200.00     0.00    28.03     2.59   18.90   18.90    0.00   4.67  73.30
sdb               0.00     0.00  205.00    0.00  3640.00     0.00    35.51     4.90   21.65   21.65    0.00   4.31  88.40
sdd               0.00     0.00  206.00    0.00  2740.00     0.00    26.60     6.80   33.41   33.41    0.00   4.63  95.30
md0               0.00     0.00  563.00    0.00  9076.00     0.00    32.24     0.00    0.00    0.00    0.00   0.00   0.00

avg-cpu:  %user   %nice %system %iowait  %steal   %idle
           0.00    0.00    0.03   38.88    0.00   61.09

Device:         rrqm/s   wrqm/s     r/s     w/s    rkB/s    wkB/s avgrq-sz avgqu-sz   await r_await w_await  svctm  %util
nvme0n1           0.00     0.00    0.00    0.00     0.00     0.00     0.00     0.00    0.00    0.00    0.00   0.00   0.00
sda               0.00     0.00    0.00    0.00     0.00     0.00     0.00     0.00    0.00    0.00    0.00   0.00   0.00
sdc               0.00     0.00  191.00    0.00  3136.00     0.00    32.84     3.76   20.28   20.28    0.00   3.95  75.40
sdb               0.00     0.00  226.00    0.00  3104.00     0.00    27.47     5.26   25.31   25.31    0.00   4.27  96.40
sdd               0.00     0.00  218.00    0.00  3364.00     0.00    30.86     5.63   24.30   24.30    0.00   4.35  94.80
md0               0.00     0.00  639.00    0.00 10684.00     0.00    33.44     0.00    0.00    0.00    0.00   0.00   0.00

avg-cpu:  %user   %nice %system %iowait  %steal   %idle
           0.00    0.00    0.06   43.17    0.00   56.77

Device:         rrqm/s   wrqm/s     r/s     w/s    rkB/s    wkB/s avgrq-sz avgqu-sz   await r_await w_await  svctm  %util
nvme0n1           0.00     0.00    0.00    0.00     0.00     0.00     0.00     0.00    0.00    0.00    0.00   0.00   0.00
sda               0.00     0.00    0.00    0.00     0.00     0.00     0.00     0.00    0.00    0.00    0.00   0.00   0.00
sdc               1.00     0.00  215.00    0.00  3912.00     0.00    36.39     9.03   41.96   41.96    0.00   4.65 100.00
sdb               0.00     0.00  198.00    0.00  2648.00     0.00    26.75     4.46   22.91   22.91    0.00   4.51  89.20
sdd               0.00     0.00  195.00    0.00  2940.00     0.00    30.15     3.67   20.57   20.57    0.00   4.32  84.30
md0               0.00     0.00  593.00    0.00 10512.00     0.00    35.45     0.00    0.00    0.00    0.00   0.00   0.00

avg-cpu:  %user   %nice %system %iowait  %steal   %idle
           0.00    0.00    0.09   44.34    0.00   55.57

Device:         rrqm/s   wrqm/s     r/s     w/s    rkB/s    wkB/s avgrq-sz avgqu-sz   await r_await w_await  svctm  %util
nvme0n1           0.00     0.00    0.00    0.00     0.00     0.00     0.00     0.00    0.00    0.00    0.00   0.00   0.00
sda               0.00     1.00    0.00    2.00     0.00    12.00    12.00     0.00    0.00    0.00    0.00   0.00   0.00
sdc               0.00     0.00  230.00    0.00  3316.00     0.00    28.83     7.47   30.62   30.62    0.00   4.27  98.10
sdb               0.00     0.00  220.00    0.00  2732.00     0.00    24.84     6.09   27.25   27.25    0.00   4.37  96.10
sdd               0.00     0.00  189.00    0.00  2504.00     0.00    26.50     2.91   15.41   15.41    0.00   4.54  85.90
md0               0.00     0.00  649.00    0.00  9908.00     0.00    30.53     0.00    0.00    0.00    0.00   0.00   0.00

