Linux 4.17.2 (bench2) 	08/04/2018 	_x86_64_	(32 CPU)

avg-cpu:  %user   %nice %system %iowait  %steal   %idle
           1.89    0.00    1.54    1.62    0.00   94.94

Device:         rrqm/s   wrqm/s     r/s     w/s    rkB/s    wkB/s avgrq-sz avgqu-sz   await r_await w_await  svctm  %util
nvme0n1         925.68     5.03 18661.42  513.81 104384.22 11587.88    12.10     1.33    0.05    0.03    0.67   0.02  39.07
sda               0.12     0.82   14.19    0.58   164.09     8.57    23.38     0.00    0.33    0.32    0.44   0.07   0.10
sdc              34.98     0.17  126.73    0.31  1886.38    96.44    31.22     0.15    1.15    0.22  381.84   0.89  11.35
sdb              32.97     0.18  128.70    0.33  1884.46    96.26    30.70     0.57    4.43    3.39  413.03   0.84  10.80
sdd              35.18     0.16  126.27    0.26  1882.47    95.94    31.27     0.89    7.00    5.16  909.23   0.90  11.38
md0               0.00     0.00  487.63    1.20  7005.21   347.89    30.08     0.00    0.00    0.00    0.00   0.00   0.00

avg-cpu:  %user   %nice %system %iowait  %steal   %idle
           0.06    0.00    1.25    0.75    0.00   97.93

Device:         rrqm/s   wrqm/s     r/s     w/s    rkB/s    wkB/s avgrq-sz avgqu-sz   await r_await w_await  svctm  %util
nvme0n1           0.00     0.00    0.00    0.00     0.00     0.00     0.00     0.00    0.00    0.00    0.00   0.00   0.00
sda               0.00     0.00   33.00    0.00   136.00     0.00     8.24     0.00    0.12    0.12    0.00   0.03   0.10
sdc               0.00     0.00 1501.00    0.00  6004.00     0.00     8.00     4.32    2.89    2.89    0.00   0.33  49.40
sdb               0.00     0.00 1491.00    0.00  5964.00     0.00     8.00     4.92    3.32    3.32    0.00   0.36  53.10
sdd               0.00     0.00 1399.00    0.00  5596.00     0.00     8.00     1.86    1.34    1.34    0.00   0.15  21.00
md0               0.00     0.00 4369.00    0.00 17476.00     0.00     8.00     0.00    0.00    0.00    0.00   0.00   0.00

avg-cpu:  %user   %nice %system %iowait  %steal   %idle
           0.03    0.00    1.10    0.69    0.00   98.18

Device:         rrqm/s   wrqm/s     r/s     w/s    rkB/s    wkB/s avgrq-sz avgqu-sz   await r_await w_await  svctm  %util
nvme0n1           0.00     0.00    0.00    0.00     0.00     0.00     0.00     0.00    0.00    0.00    0.00   0.00   0.00
sda               0.00     0.00    0.00    0.00     0.00     0.00     0.00     0.00    0.00    0.00    0.00   0.00   0.00
sdc               0.00     0.00 1438.00    0.00  5752.00     0.00     8.00     5.27    3.67    3.67    0.00   0.40  57.90
sdb               0.00     0.00 1361.00    0.00  5444.00     0.00     8.00     2.97    2.19    2.19    0.00   0.24  32.00
sdd               0.00     0.00 1411.00    0.00  5644.00     0.00     8.00     2.82    2.00    2.00    0.00   0.25  34.80
md0               0.00     0.00 4220.00    0.00 16880.00     0.00     8.00     0.00    0.00    0.00    0.00   0.00   0.00

