Linux 4.17.2 (bench2) 	08/04/2018 	_x86_64_	(32 CPU)

avg-cpu:  %user   %nice %system %iowait  %steal   %idle
           1.89    0.00    1.54    1.63    0.00   94.94

Device:         rrqm/s   wrqm/s     r/s     w/s    rkB/s    wkB/s avgrq-sz avgqu-sz   await r_await w_await  svctm  %util
nvme0n1         924.05     5.02 18628.57  512.90 104200.46 11567.48    12.10     1.33    0.05    0.03    0.67   0.02  39.00
sda               0.12     0.82   14.19    0.58   164.09     8.57    23.37     0.00    0.33    0.32    0.44   0.07   0.10
sdc              35.18     0.17  127.58    0.31  1903.43    96.27    31.27     0.17    1.33    0.42  381.84   0.89  11.43
sdb              33.17     0.18  129.54    0.33  1901.53    96.09    30.76     0.60    4.58    3.55  413.03   0.84  10.88
sdd              35.38     0.16  127.12    0.26  1899.55    95.77    31.33     0.91    7.14    5.32  909.23   0.90  11.47
md0               0.00     0.00  490.78    1.19  7070.36   347.28    30.15     0.00    0.00    0.00    0.00   0.00   0.00

avg-cpu:  %user   %nice %system %iowait  %steal   %idle
           0.00    0.00    0.94    1.25    0.00   97.81

Device:         rrqm/s   wrqm/s     r/s     w/s    rkB/s    wkB/s avgrq-sz avgqu-sz   await r_await w_await  svctm  %util
nvme0n1           0.00     0.00    0.00    0.00     0.00     0.00     0.00     0.00    0.00    0.00    0.00   0.00   0.00
sda               0.00     0.00    1.00    0.00     8.00     0.00    16.00     0.00    0.00    0.00    0.00   0.00   0.00
sdc            2505.00     0.00  713.00    0.00 13156.00     0.00    36.90    23.70   32.01   32.01    0.00   1.08  76.80
sdb            2463.00     0.00  680.00    0.00 13008.00     0.00    38.26    30.85   43.74   43.74    0.00   1.40  95.20
sdd            2442.00     0.00  651.00    0.00 12692.00     0.00    38.99    16.77   25.07   25.07    0.00   1.05  68.60
md0               0.00     0.00 9312.00    0.00 37248.00     0.00     8.00     0.00    0.00    0.00    0.00   0.00   0.00

avg-cpu:  %user   %nice %system %iowait  %steal   %idle
           0.00    0.00    1.47    0.97    0.00   97.56

Device:         rrqm/s   wrqm/s     r/s     w/s    rkB/s    wkB/s avgrq-sz avgqu-sz   await r_await w_await  svctm  %util
nvme0n1           0.00     0.00    0.00    0.00     0.00     0.00     0.00     0.00    0.00    0.00    0.00   0.00   0.00
sda               0.00     0.00    0.00   10.00     0.00    40.00     8.00     0.00    0.00    0.00    0.00   0.00   0.00
sdc            2855.00     0.00  825.00    0.00 14620.00     0.00    35.44    28.48   34.09   34.09    0.00   0.99  81.40
sdb            3001.00     0.00  848.00    0.00 15692.00     0.00    37.01    27.14   32.52   32.52    0.00   0.96  81.10
sdd            2823.00     0.00  825.00    0.00 14408.00     0.00    34.93    28.38   33.44   33.44    0.00   1.04  85.60
md0               0.00     0.00 11193.00    0.00 44772.00     0.00     8.00     0.00    0.00    0.00    0.00   0.00   0.00

avg-cpu:  %user   %nice %system %iowait  %steal   %idle
           0.03    0.00    1.28    0.97    0.00   97.71

Device:         rrqm/s   wrqm/s     r/s     w/s    rkB/s    wkB/s avgrq-sz avgqu-sz   await r_await w_await  svctm  %util
nvme0n1           0.00     0.00    0.00    0.00     0.00     0.00     0.00     0.00    0.00    0.00    0.00   0.00   0.00
sda               0.00     0.00    0.00    0.00     0.00     0.00     0.00     0.00    0.00    0.00    0.00   0.00   0.00
sdc            2748.00     0.00  839.00    0.00 14332.00     0.00    34.16    28.55   34.79   34.79    0.00   1.01  84.60
sdb            3037.00     0.00  800.00    0.00 14632.00     0.00    36.58    29.90   37.22   37.22    0.00   1.01  80.70
sdd            2851.00     0.00  804.00    0.00 14312.00     0.00    35.60    32.26   40.71   40.71    0.00   1.12  90.00
md0               0.00     0.00 11194.00    0.00 44776.00     0.00     8.00     0.00    0.00    0.00    0.00   0.00   0.00

