Linux 4.17.2 (bench2) 	08/04/2018 	_x86_64_	(32 CPU)

avg-cpu:  %user   %nice %system %iowait  %steal   %idle
           1.89    0.00    1.53    1.64    0.00   94.94

Device:         rrqm/s   wrqm/s     r/s     w/s    rkB/s    wkB/s avgrq-sz avgqu-sz   await r_await w_await  svctm  %util
nvme0n1         920.46     5.00 18556.04  510.90 103794.74 11522.44    12.10     1.32    0.05    0.03    0.67   0.02  38.84
sda               0.12     0.82   14.20    0.59   164.15     8.57    23.36     0.00    0.33    0.32    0.43   0.07   0.10
sdc              35.29     0.17  130.19    0.31  1925.77    95.89    30.98     0.18    1.40    0.51  381.84   0.89  11.57
sdb              33.29     0.18  132.15    0.33  1923.89    95.72    30.49     0.61    4.57    3.56  413.03   0.83  11.02
sdd              35.48     0.16  129.74    0.26  1921.91    95.40    31.04     0.92    7.08    5.30  909.23   0.89  11.62
md0               0.00     0.00  498.93    1.19  7148.57   345.93    29.97     0.00    0.00    0.00    0.00   0.00   0.00

avg-cpu:  %user   %nice %system %iowait  %steal   %idle
           0.00    0.00    0.31    2.63    0.00   97.06

Device:         rrqm/s   wrqm/s     r/s     w/s    rkB/s    wkB/s avgrq-sz avgqu-sz   await r_await w_await  svctm  %util
nvme0n1           0.00     0.00    0.00    0.00     0.00     0.00     0.00     0.00    0.00    0.00    0.00   0.00   0.00
sda               0.00     0.00    4.00    0.00   104.00     0.00    52.00     0.00    0.25    0.25    0.00   0.25   0.10
sdc               8.00     0.00  852.00    0.00 18488.00     0.00    43.40     8.88   10.42   10.42    0.00   0.79  67.60
sdb               6.00     0.00  835.00    0.00 19724.00     0.00    47.24    10.50   12.50   12.50    0.00   0.88  73.40
sdd               6.00     0.00  800.00    0.00 17272.00     0.00    43.18     7.11    8.79    8.79    0.00   0.87  69.90
md0               0.00     0.00 2545.00    0.00 59796.00     0.00    46.99     0.00    0.00    0.00    0.00   0.00   0.00

avg-cpu:  %user   %nice %system %iowait  %steal   %idle
           0.03    0.00    0.25    1.63    0.00   98.09

Device:         rrqm/s   wrqm/s     r/s     w/s    rkB/s    wkB/s avgrq-sz avgqu-sz   await r_await w_await  svctm  %util
nvme0n1           0.00     0.00    0.00    0.00     0.00     0.00     0.00     0.00    0.00    0.00    0.00   0.00   0.00
sda               0.00     0.00    0.00    0.00     0.00     0.00     0.00     0.00    0.00    0.00    0.00   0.00   0.00
sdc               1.00     0.00  670.00    0.00 16816.00     0.00    50.20     7.96   11.39   11.39    0.00   1.11  74.40
sdb               4.00     0.00  778.00    0.00 18712.00     0.00    48.10    11.11   14.14   14.14    0.00   0.94  73.30
sdd               3.00     0.00  789.00    0.00 19076.00     0.00    48.35     9.67   12.18   12.18    0.00   0.85  66.90
md0               0.00     0.00 2296.00    0.00 58212.00     0.00    50.71     0.00    0.00    0.00    0.00   0.00   0.00

avg-cpu:  %user   %nice %system %iowait  %steal   %idle
           0.00    0.00    0.34    4.32    0.00   95.34

Device:         rrqm/s   wrqm/s     r/s     w/s    rkB/s    wkB/s avgrq-sz avgqu-sz   await r_await w_await  svctm  %util
nvme0n1           0.00     0.00    0.00    0.00     0.00     0.00     0.00     0.00    0.00    0.00    0.00   0.00   0.00
sda               0.00     7.00   55.00    2.00   432.00    36.00    16.42     0.01    0.16    0.15    0.50   0.11   0.60
sdc               5.00     0.00  826.00    0.00 15244.00     0.00    36.91     6.70    8.51    8.51    0.00   0.90  74.20
sdb               6.00     0.00  767.00    0.00 14856.00     0.00    38.74     3.69    5.04    5.04    0.00   0.89  68.20
sdd               7.00     0.00  758.00    0.00 16732.00     0.00    44.15     3.57    4.85    4.85    0.00   0.85  64.70
md0               0.00     0.00 2335.00    0.00 50944.00     0.00    43.64     0.00    0.00    0.00    0.00   0.00   0.00

avg-cpu:  %user   %nice %system %iowait  %steal   %idle
           0.03    0.00    0.28    3.63    0.00   96.06

Device:         rrqm/s   wrqm/s     r/s     w/s    rkB/s    wkB/s avgrq-sz avgqu-sz   await r_await w_await  svctm  %util
nvme0n1           0.00     0.00    0.00    0.00     0.00     0.00     0.00     0.00    0.00    0.00    0.00   0.00   0.00
sda               0.00     0.00    0.00    0.00     0.00     0.00     0.00     0.00    0.00    0.00    0.00   0.00   0.00
sdc               3.00     0.00  760.00    0.00 12476.00     0.00    32.83     1.74    2.30    2.30    0.00   0.53  40.20
sdb               3.00     0.00  685.00    0.00 10860.00     0.00    31.71     3.31    4.79    4.79    0.00   1.23  84.20
sdd               3.00     0.00  757.00    0.00 12184.00     0.00    32.19     2.63    3.43    3.43    0.00   0.77  58.30
md0               0.00     0.00 2211.00    0.00 38564.00     0.00    34.88     0.00    0.00    0.00    0.00   0.00   0.00

avg-cpu:  %user   %nice %system %iowait  %steal   %idle
           0.03    0.00    0.41    3.91    0.00   95.65

Device:         rrqm/s   wrqm/s     r/s     w/s    rkB/s    wkB/s avgrq-sz avgqu-sz   await r_await w_await  svctm  %util
nvme0n1           0.00     0.00    0.00    0.00     0.00     0.00     0.00     0.00    0.00    0.00    0.00   0.00   0.00
sda               0.00     0.00    0.00    0.00     0.00     0.00     0.00     0.00    0.00    0.00    0.00   0.00   0.00
sdc               3.00     0.00  777.00    0.00 13520.00     0.00    34.80     2.16    2.75    2.75    0.00   0.63  49.00
sdb               2.00     0.00  831.00    0.00 14092.00     0.00    33.92     2.56    3.07    3.07    0.00   0.75  62.70
sdd               2.00     0.00  894.00    0.00 12848.00     0.00    28.74     3.62    4.12    4.12    0.00   0.77  69.20
md0               0.00     0.00 2511.00    0.00 44244.00     0.00    35.24     0.00    0.00    0.00    0.00   0.00   0.00

avg-cpu:  %user   %nice %system %iowait  %steal   %idle
           0.03    0.00    0.38    3.48    0.00   96.12

Device:         rrqm/s   wrqm/s     r/s     w/s    rkB/s    wkB/s avgrq-sz avgqu-sz   await r_await w_await  svctm  %util
nvme0n1           0.00     0.00    0.00    0.00     0.00     0.00     0.00     0.00    0.00    0.00    0.00   0.00   0.00
sda               0.00     0.00    0.00    0.00     0.00     0.00     0.00     0.00    0.00    0.00    0.00   0.00   0.00
sdc               6.00     0.00  937.00    0.00 18160.00     0.00    38.76     2.52    2.68    2.68    0.00   0.58  54.40
sdb               9.00     0.00  958.00    0.00 18708.00     0.00    39.06     3.20    3.31    3.31    0.00   0.74  71.30
sdd               6.00     0.00  952.00    0.00 16792.00     0.00    35.28     2.88    3.02    3.02    0.00   0.68  65.10
md0               0.00     0.00 2867.00    0.00 60796.00     0.00    42.41     0.00    0.00    0.00    0.00   0.00   0.00

avg-cpu:  %user   %nice %system %iowait  %steal   %idle
           0.00    0.00    0.41    2.04    0.00   97.56

Device:         rrqm/s   wrqm/s     r/s     w/s    rkB/s    wkB/s avgrq-sz avgqu-sz   await r_await w_await  svctm  %util
nvme0n1           0.00     0.00    0.00    0.00     0.00     0.00     0.00     0.00    0.00    0.00    0.00   0.00   0.00
sda               0.00     0.00    0.00    0.00     0.00     0.00     0.00     0.00    0.00    0.00    0.00   0.00   0.00
sdc              11.00     0.00  902.00    0.00 19988.00     0.00    44.32     2.42    2.70    2.70    0.00   0.58  52.30
sdb              11.00     0.00  865.00    0.00 19280.00     0.00    44.58     3.42    4.02    4.02    0.00   0.84  73.00
sdd              12.00     0.00  830.00    0.00 19032.00     0.00    45.86     2.68    3.23    3.23    0.00   0.77  63.60
md0               0.00     0.00 2622.00    0.00 66528.00     0.00    50.75     0.00    0.00    0.00    0.00   0.00   0.00

avg-cpu:  %user   %nice %system %iowait  %steal   %idle
           0.03    0.00    0.41    3.66    0.00   95.90

Device:         rrqm/s   wrqm/s     r/s     w/s    rkB/s    wkB/s avgrq-sz avgqu-sz   await r_await w_await  svctm  %util
nvme0n1           0.00     0.00    0.00    0.00     0.00     0.00     0.00     0.00    0.00    0.00    0.00   0.00   0.00
sda               0.00     8.00    0.00   23.00     0.00   140.00    12.17     0.00    0.04    0.00    0.04   0.04   0.10
sdc               7.00     0.00  801.00    0.00 16132.00     0.00    40.28     3.27    4.10    4.10    0.00   1.01  80.70
sdb               6.00     0.00  896.00    0.00 17560.00     0.00    39.20     3.19    3.56    3.56    0.00   0.68  61.10
sdd               8.00     0.00  937.00    0.00 16412.00     0.00    35.03     2.29    2.44    2.44    0.00   0.53  49.90
md0               0.00     0.00 2651.00    0.00 57496.00     0.00    43.38     0.00    0.00    0.00    0.00   0.00   0.00

avg-cpu:  %user   %nice %system %iowait  %steal   %idle
           0.03    0.00    0.44    4.00    0.00   95.53

Device:         rrqm/s   wrqm/s     r/s     w/s    rkB/s    wkB/s avgrq-sz avgqu-sz   await r_await w_await  svctm  %util
nvme0n1           0.00     0.00    0.00    0.00     0.00     0.00     0.00     0.00    0.00    0.00    0.00   0.00   0.00
sda               0.00     0.00    0.00    0.00     0.00     0.00     0.00     0.00    0.00    0.00    0.00   0.00   0.00
sdc               7.00     0.00  978.00    0.00 18384.00     0.00    37.60     3.58    3.65    3.65    0.00   0.76  74.80
sdb               7.00     0.00  900.00    0.00 17320.00     0.00    38.49     2.62    2.90    2.90    0.00   0.64  58.00
sdd               8.00     0.00  828.00    0.00 19788.00     0.00    47.80     2.34    2.82    2.82    0.00   0.72  59.60
md0               0.00     0.00 2728.00    0.00 63372.00     0.00    46.46     0.00    0.00    0.00    0.00   0.00   0.00

avg-cpu:  %user   %nice %system %iowait  %steal   %idle
           0.03    0.00    0.34    4.73    0.00   94.90

Device:         rrqm/s   wrqm/s     r/s     w/s    rkB/s    wkB/s avgrq-sz avgqu-sz   await r_await w_await  svctm  %util
nvme0n1           0.00     0.00    0.00    0.00     0.00     0.00     0.00     0.00    0.00    0.00    0.00   0.00   0.00
sda               0.00     0.00    0.00    0.00     0.00     0.00     0.00     0.00    0.00    0.00    0.00   0.00   0.00
sdc               8.00     0.00  783.00    0.00 18072.00     0.00    46.16     3.08    3.94    3.94    0.00   0.76  59.50
sdb               8.00     0.00  855.00    0.00 19372.00     0.00    45.31     3.14    3.62    3.62    0.00   0.76  65.10
sdd               5.00     0.00  856.00    0.00 17716.00     0.00    41.39     2.92    3.30    3.30    0.00   0.78  67.10
md0               0.00     0.00 2529.00    0.00 64708.00     0.00    51.17     0.00    0.00    0.00    0.00   0.00   0.00

avg-cpu:  %user   %nice %system %iowait  %steal   %idle
           0.00    0.00    0.41    3.35    0.00   96.25

Device:         rrqm/s   wrqm/s     r/s     w/s    rkB/s    wkB/s avgrq-sz avgqu-sz   await r_await w_await  svctm  %util
nvme0n1           0.00     0.00    0.00    0.00     0.00     0.00     0.00     0.00    0.00    0.00    0.00   0.00   0.00
sda               0.00     0.00    0.00    0.00     0.00     0.00     0.00     0.00    0.00    0.00    0.00   0.00   0.00
sdc               2.00     0.00  894.00    0.00 14892.00     0.00    33.32     3.30    3.70    3.70    0.00   0.80  71.50
sdb               0.00     0.00  847.00    0.00 15492.00     0.00    36.58     2.79    3.35    3.35    0.00   0.82  69.10
sdd               3.00     0.00  825.00    0.00 14488.00     0.00    35.12     2.33    2.95    2.95    0.00   0.65  53.40
md0               0.00     0.00 2573.00    0.00 49876.00     0.00    38.77     0.00    0.00    0.00    0.00   0.00   0.00

avg-cpu:  %user   %nice %system %iowait  %steal   %idle
           0.06    0.00    0.41    4.04    0.00   95.49

Device:         rrqm/s   wrqm/s     r/s     w/s    rkB/s    wkB/s avgrq-sz avgqu-sz   await r_await w_await  svctm  %util
nvme0n1           0.00     0.00    0.00    0.00     0.00     0.00     0.00     0.00    0.00    0.00    0.00   0.00   0.00
sda               0.00     0.00    0.00    0.00     0.00     0.00     0.00     0.00    0.00    0.00    0.00   0.00   0.00
sdc               6.00     0.00  913.00    0.00 17276.00     0.00    37.84     3.29    3.60    3.60    0.00   0.76  69.70
sdb               6.00     0.00  878.00    0.00 17036.00     0.00    38.81     2.97    3.38    3.38    0.00   0.75  66.10
sdd               5.00     0.00  934.00    0.00 18308.00     0.00    39.20     2.23    2.38    2.38    0.00   0.54  50.50
md0               0.00     0.00 2742.00    0.00 61244.00     0.00    44.67     0.00    0.00    0.00    0.00   0.00   0.00

avg-cpu:  %user   %nice %system %iowait  %steal   %idle
           0.03    0.00    0.41    4.29    0.00   95.27

Device:         rrqm/s   wrqm/s     r/s     w/s    rkB/s    wkB/s avgrq-sz avgqu-sz   await r_await w_await  svctm  %util
nvme0n1           0.00     0.00    0.00    0.00     0.00     0.00     0.00     0.00    0.00    0.00    0.00   0.00   0.00
sda               0.00     6.00    0.00    2.00     0.00    32.00    32.00     0.00    0.00    0.00    0.00   0.00   0.00
sdc               2.00     0.00  903.00    0.00 15256.00     0.00    33.79     3.50    3.87    3.87    0.00   0.73  66.00
sdb               0.00     0.00  951.00    0.00 12700.00     0.00    26.71     2.04    2.15    2.15    0.00   0.51  48.30
sdd               2.00     0.00  980.00    0.00 14008.00     0.00    28.59     3.62    3.67    3.67    0.00   0.73  71.40
md0               0.00     0.00 2829.00    0.00 45752.00     0.00    32.34     0.00    0.00    0.00    0.00   0.00   0.00

avg-cpu:  %user   %nice %system %iowait  %steal   %idle
           0.03    0.00    0.47    4.22    0.00   95.28

Device:         rrqm/s   wrqm/s     r/s     w/s    rkB/s    wkB/s avgrq-sz avgqu-sz   await r_await w_await  svctm  %util
nvme0n1           0.00     0.00    0.00    0.00     0.00     0.00     0.00     0.00    0.00    0.00    0.00   0.00   0.00
sda               0.00     0.00    0.00    0.00     0.00     0.00     0.00     0.00    0.00    0.00    0.00   0.00   0.00
sdc               9.00     0.00 1013.00    0.00 20004.00     0.00    39.49     3.12    2.93    2.93    0.00   0.62  63.20
sdb              12.00     0.00  976.00    0.00 21252.00     0.00    43.55     3.90    3.99    3.99    0.00   0.78  76.40
sdd              10.00     0.00  909.00    0.00 19928.00     0.00    43.85     2.35    2.59    2.59    0.00   0.59  53.50
md0               0.00     0.00 2927.00    0.00 72864.00     0.00    49.79     0.00    0.00    0.00    0.00   0.00   0.00

avg-cpu:  %user   %nice %system %iowait  %steal   %idle
           0.03    0.00    0.34    4.13    0.00   95.49

Device:         rrqm/s   wrqm/s     r/s     w/s    rkB/s    wkB/s avgrq-sz avgqu-sz   await r_await w_await  svctm  %util
nvme0n1           0.00     0.00    0.00    0.00     0.00     0.00     0.00     0.00    0.00    0.00    0.00   0.00   0.00
sda               0.00     0.00    0.00    0.00     0.00     0.00     0.00     0.00    0.00    0.00    0.00   0.00   0.00
sdc              14.00     0.00  770.00    0.00 21328.00     0.00    55.40     3.02    4.09    4.09    0.00   0.89  68.40
sdb              13.00     0.00  796.00    0.00 20056.00     0.00    50.39     2.55    3.20    3.20    0.00   0.70  55.40
sdd              15.00     0.00  785.00    0.00 19104.00     0.00    48.67     2.93    3.74    3.74    0.00   0.85  66.50
md0               0.00     0.00 2390.00    0.00 74788.00     0.00    62.58     0.00    0.00    0.00    0.00   0.00   0.00

avg-cpu:  %user   %nice %system %iowait  %steal   %idle
           0.00    0.00    0.38    4.32    0.00   95.30

Device:         rrqm/s   wrqm/s     r/s     w/s    rkB/s    wkB/s avgrq-sz avgqu-sz   await r_await w_await  svctm  %util
nvme0n1           0.00     0.00    0.00    0.00     0.00     0.00     0.00     0.00    0.00    0.00    0.00   0.00   0.00
sda               0.00     0.00    0.00    0.00     0.00     0.00     0.00     0.00    0.00    0.00    0.00   0.00   0.00
sdc               5.00     0.00 1024.00    0.00 17520.00     0.00    34.22     1.96    1.93    1.93    0.00   0.41  41.80
sdb               4.00     0.00  975.00    0.00 16688.00     0.00    34.23     2.37    2.43    2.43    0.00   0.64  62.80
sdd               4.00     0.00  938.00    0.00 18116.00     0.00    38.63     4.38    4.53    4.53    0.00   0.95  88.70
md0               0.00     0.00 2956.00    0.00 59544.00     0.00    40.29     0.00    0.00    0.00    0.00   0.00   0.00

avg-cpu:  %user   %nice %system %iowait  %steal   %idle
           0.03    0.00    0.38    3.63    0.00   95.96

Device:         rrqm/s   wrqm/s     r/s     w/s    rkB/s    wkB/s avgrq-sz avgqu-sz   await r_await w_await  svctm  %util
nvme0n1           0.00     0.00    0.00    0.00     0.00     0.00     0.00     0.00    0.00    0.00    0.00   0.00   0.00
sda               0.00     0.00    0.00    0.00     0.00     0.00     0.00     0.00    0.00    0.00    0.00   0.00   0.00
sdc               6.00     0.00  930.00    0.00 16416.00     0.00    35.30     3.39    3.60    3.60    0.00   0.70  65.10
sdb               6.00     0.00  898.00    0.00 16564.00     0.00    36.89     3.43    3.82    3.82    0.00   0.74  66.30
sdd               6.00     0.00  921.00    0.00 17900.00     0.00    38.87     2.98    3.33    3.33    0.00   0.69  63.50
md0               0.00     0.00 2773.00    0.00 58408.00     0.00    42.13     0.00    0.00    0.00    0.00   0.00   0.00

avg-cpu:  %user   %nice %system %iowait  %steal   %idle
           0.03    0.00    0.34    2.72    0.00   96.90

Device:         rrqm/s   wrqm/s     r/s     w/s    rkB/s    wkB/s avgrq-sz avgqu-sz   await r_await w_await  svctm  %util
nvme0n1           0.00     0.00    0.00    0.00     0.00     0.00     0.00     0.00    0.00    0.00    0.00   0.00   0.00
sda               0.00     1.00    0.00    2.00     0.00    12.00    12.00     0.00    0.00    0.00    0.00   0.00   0.00
sdc               8.00     0.00  899.00    0.00 16488.00     0.00    36.68     2.80    3.16    3.16    0.00   0.70  62.60
sdb               6.00     0.00  875.00    0.00 17684.00     0.00    40.42     2.80    3.18    3.18    0.00   0.66  58.10
sdd               5.00     0.00  909.00    0.00 16912.00     0.00    37.21     2.90    3.24    3.24    0.00   0.78  70.50
md0               0.00     0.00 2699.00    0.00 58444.00     0.00    43.31     0.00    0.00    0.00    0.00   0.00   0.00

avg-cpu:  %user   %nice %system %iowait  %steal   %idle
           0.03    0.00    0.41    2.91    0.00   96.65

Device:         rrqm/s   wrqm/s     r/s     w/s    rkB/s    wkB/s avgrq-sz avgqu-sz   await r_await w_await  svctm  %util
nvme0n1           0.00     0.00    0.00    0.00     0.00     0.00     0.00     0.00    0.00    0.00    0.00   0.00   0.00
sda               0.00     0.00    0.00    0.00     0.00     0.00     0.00     0.00    0.00    0.00    0.00   0.00   0.00
sdc               2.00     0.00  857.00    0.00 12616.00     0.00    29.44     2.10    2.45    2.45    0.00   0.61  52.30
sdb               2.00     0.00  851.00    0.00 12972.00     0.00    30.49     2.78    3.26    3.26    0.00   0.87  74.10
sdd               1.00     0.00  821.00    0.00 13776.00     0.00    33.56     3.13    3.81    3.81    0.00   0.85  69.40
md0               0.00     0.00 2538.00    0.00 42480.00     0.00    33.48     0.00    0.00    0.00    0.00   0.00   0.00

avg-cpu:  %user   %nice %system %iowait  %steal   %idle
           0.03    0.00    0.50    2.84    0.00   96.62

Device:         rrqm/s   wrqm/s     r/s     w/s    rkB/s    wkB/s avgrq-sz avgqu-sz   await r_await w_await  svctm  %util
nvme0n1           0.00     0.00    0.00    0.00     0.00     0.00     0.00     0.00    0.00    0.00    0.00   0.00   0.00
sda               0.00     0.00    0.00    0.00     0.00     0.00     0.00     0.00    0.00    0.00    0.00   0.00   0.00
sdc               5.00     0.00  882.00    0.00 15504.00     0.00    35.16     2.69    3.05    3.05    0.00   0.63  55.60
sdb               3.00     0.00  867.00    0.00 16004.00     0.00    36.92     3.29    3.77    3.77    0.00   0.79  68.80
sdd               2.00     0.00  875.00    0.00 13408.00     0.00    30.65     2.84    3.23    3.23    0.00   0.70  61.30
md0               0.00     0.00 2622.00    0.00 49428.00     0.00    37.70     0.00    0.00    0.00    0.00   0.00   0.00

