Linux 4.17.2 (bench2) 	08/04/2018 	_x86_64_	(32 CPU)

avg-cpu:  %user   %nice %system %iowait  %steal   %idle
           1.89    0.00    1.53    1.64    0.00   94.94

Device:         rrqm/s   wrqm/s     r/s     w/s    rkB/s    wkB/s avgrq-sz avgqu-sz   await r_await w_await  svctm  %util
nvme0n1         921.89     5.01 18584.83  511.70 103955.79 11540.32    12.10     1.32    0.05    0.03    0.67   0.02  38.91
sda               0.12     0.82   14.20    0.59   164.14     8.57    23.37     0.00    0.33    0.32    0.43   0.07   0.10
sdc              35.32     0.17  129.32    0.31  1911.86    96.04    30.98     0.18    1.37    0.47  381.84   0.89  11.51
sdb              33.31     0.18  131.28    0.33  1909.97    95.87    30.48     0.60    4.56    3.55  413.03   0.83  10.96
sdd              35.51     0.16  128.87    0.26  1907.99    95.55    31.03     0.92    7.09    5.29  909.23   0.89  11.55
md0               0.00     0.00  496.41    1.19  7096.13   346.47    29.91     0.00    0.00    0.00    0.00   0.00   0.00

avg-cpu:  %user   %nice %system %iowait  %steal   %idle
           0.08    0.00    0.58    1.05    0.00   98.28

Device:         rrqm/s   wrqm/s     r/s     w/s    rkB/s    wkB/s avgrq-sz avgqu-sz   await r_await w_await  svctm  %util
nvme0n1           0.00     0.00    0.00    0.00     0.00     0.00     0.00     0.00    0.00    0.00    0.00   0.00   0.00
sda               0.00     1.40    0.25    1.80     5.40    14.80    19.71     0.00    0.07    0.00    0.08   0.07   0.01
sdc               0.00     0.00 1122.20    0.00  4488.80     0.00     8.00     1.19    1.06    1.06    0.00   0.29  33.05
sdb               0.00     0.00 1125.50    0.00  4502.00     0.00     8.00     1.24    1.10    1.10    0.00   0.30  33.92
sdd               0.00     0.00 1121.70    0.00  4486.80     0.00     8.00     1.32    1.18    1.18    0.00   0.33  36.51
md0               0.00     0.00 3369.65    0.00 13478.60     0.00     8.00     0.00    0.00    0.00    0.00   0.00   0.00

