Linux 4.17.2 (bench2) 	08/04/2018 	_x86_64_	(32 CPU)

avg-cpu:  %user   %nice %system %iowait  %steal   %idle
           1.89    0.00    1.53    1.64    0.00   94.94

Device:         rrqm/s   wrqm/s     r/s     w/s    rkB/s    wkB/s avgrq-sz avgqu-sz   await r_await w_await  svctm  %util
nvme0n1         920.74     5.00 18561.80  511.06 103826.97 11526.01    12.10     1.32    0.05    0.03    0.67   0.02  38.86
sda               0.12     0.82   14.20    0.59   164.15     8.57    23.36     0.00    0.33    0.32    0.43   0.07   0.10
sdc              35.28     0.17  129.95    0.31  1921.54    95.92    30.98     0.18    1.39    0.50  381.84   0.89  11.55
sdb              33.29     0.18  131.91    0.33  1919.66    95.75    30.48     0.60    4.57    3.56  413.03   0.83  11.01
sdd              35.48     0.16  129.50    0.26  1917.67    95.43    31.03     0.92    7.08    5.29  909.23   0.89  11.60
md0               0.00     0.00  498.20    1.19  7133.14   346.04    29.95     0.00    0.00    0.00    0.00   0.00   0.00

avg-cpu:  %user   %nice %system %iowait  %steal   %idle
           0.03    0.00    0.19   29.69    0.00   70.09

Device:         rrqm/s   wrqm/s     r/s     w/s    rkB/s    wkB/s avgrq-sz avgqu-sz   await r_await w_await  svctm  %util
nvme0n1           0.00     0.00    0.00    0.00     0.00     0.00     0.00     0.00    0.00    0.00    0.00   0.00   0.00
sda               0.00     0.00    1.00    0.00     8.00     0.00    16.00     0.00    0.00    0.00    0.00   0.00   0.00
sdc               1.00     0.00  210.00    0.00  2672.00     0.00    25.45     5.49   25.12   25.12    0.00   3.63  76.30
sdb               0.00     0.00  192.00    0.00  2112.00     0.00    22.00     6.27   31.16   31.16    0.00   4.27  81.90
sdd               2.00     0.00  226.00    0.00  2852.00     0.00    25.24     7.32   31.58   31.58    0.00   4.10  92.60
md0               0.00     0.00  657.00    0.00  8732.00     0.00    26.58     0.00    0.00    0.00    0.00   0.00   0.00

avg-cpu:  %user   %nice %system %iowait  %steal   %idle
           0.00    0.00    0.28   30.55    0.00   69.17

Device:         rrqm/s   wrqm/s     r/s     w/s    rkB/s    wkB/s avgrq-sz avgqu-sz   await r_await w_await  svctm  %util
nvme0n1           0.00     0.00    0.00    0.00     0.00     0.00     0.00     0.00    0.00    0.00    0.00   0.00   0.00
sda               0.00     0.00    0.00    0.00     0.00     0.00     0.00     0.00    0.00    0.00    0.00   0.00   0.00
sdc               0.00     0.00  256.00    0.00  2264.00     0.00    17.69     7.63   30.14   30.14    0.00   3.73  95.60
sdb               0.00     0.00  246.00    0.00  1976.00     0.00    16.07     5.39   22.67   22.67    0.00   3.35  82.40
sdd               0.00     0.00  249.00    0.00  2020.00     0.00    16.22     6.31   25.29   25.29    0.00   3.45  86.00
md0               0.00     0.00  758.00    0.00  6292.00     0.00    16.60     0.00    0.00    0.00    0.00   0.00   0.00

avg-cpu:  %user   %nice %system %iowait  %steal   %idle
           0.03    0.00    0.31   31.35    0.00   68.31

Device:         rrqm/s   wrqm/s     r/s     w/s    rkB/s    wkB/s avgrq-sz avgqu-sz   await r_await w_await  svctm  %util
nvme0n1           0.00     0.00    0.00    0.00     0.00     0.00     0.00     0.00    0.00    0.00    0.00   0.00   0.00
sda               0.00     0.00    0.00    0.00     0.00     0.00     0.00     0.00    0.00    0.00    0.00   0.00   0.00
sdc               0.00     0.00  282.00    0.00  2660.00     0.00    18.87     6.98   24.72   24.72    0.00   3.04  85.80
sdb               0.00     0.00  265.00    0.00  2524.00     0.00    19.05     6.52   23.71   23.71    0.00   3.28  86.90
sdd               0.00     0.00  244.00    0.00  1900.00     0.00    15.57     5.62   22.23   22.23    0.00   3.33  81.30
md0               0.00     0.00  785.00    0.00  7516.00     0.00    19.15     0.00    0.00    0.00    0.00   0.00   0.00

