type: aio
filename: /mnt/raid/prefetch/prefetch-2048
I/O mode: BUFFERED
workload: SEQUENTIAL
duration: 20
queue size: 1
test mode: TEST
file size: 2147483648
file pages: 524288
start probability: 0.100
continue probability: 0.900
processed 102804 requests 102577.20 r/s elapsed 1.00
processed 133411 requests 66565.08 r/s elapsed 2.00
processed 165303 requests 55096.52 r/s elapsed 3.00
processed 196597 requests 49083.59 r/s elapsed 4.01
processed 229776 requests 45949.72 r/s elapsed 5.00
processed 260857 requests 43460.82 r/s elapsed 6.00
processed 298261 requests 42608.71 r/s elapsed 7.00
processed 529606 requests 66150.02 r/s elapsed 8.01
processed 868984 requests 96553.78 r/s elapsed 9.00
processed 1389480 requests 138947.99 r/s elapsed 10.00
processed 1930458 requests 175496.17 r/s elapsed 11.00
processed 2475797 requests 206316.40 r/s elapsed 12.00
processed 3022524 requests 232501.85 r/s elapsed 13.00
processed 3569966 requests 254997.57 r/s elapsed 14.00
processed 4117268 requests 274484.53 r/s elapsed 15.00
processed 4663344 requests 291458.98 r/s elapsed 16.00
processed 5211437 requests 306555.10 r/s elapsed 17.00
processed 5759367 requests 319964.82 r/s elapsed 18.00
processed 6307478 requests 331972.51 r/s elapsed 19.00
processed 6855248 requests 342762.38 r/s elapsed 20.00
TOTAL: 6855248 requests 342762.38 r/s elapsed 20.00
