type: aio
filename: /mnt/raid/prefetch/prefetch-2048
I/O mode: DIRECT
workload: SEQUENTIAL
duration: 20
queue size: 8
test mode: TEST
file size: 2147483648
file pages: 524288
start probability: 0.010
continue probability: 0.500
processed 1000 requests 994.12 r/s elapsed 1.01
processed 1984 requests 989.27 r/s elapsed 2.01
processed 2984 requests 992.82 r/s elapsed 3.01
processed 3992 requests 996.32 r/s elapsed 4.01
processed 4912 requests 980.95 r/s elapsed 5.01
processed 5856 requests 974.46 r/s elapsed 6.01
processed 6712 requests 956.99 r/s elapsed 7.01
processed 7648 requests 955.48 r/s elapsed 8.00
processed 8656 requests 960.97 r/s elapsed 9.01
processed 9688 requests 967.86 r/s elapsed 10.01
processed 10640 requests 967.21 r/s elapsed 11.00
processed 11568 requests 963.16 r/s elapsed 12.01
processed 12512 requests 961.53 r/s elapsed 13.01
processed 13520 requests 964.65 r/s elapsed 14.02
processed 14400 requests 959.11 r/s elapsed 15.01
processed 15352 requests 958.98 r/s elapsed 16.01
processed 16240 requests 955.28 r/s elapsed 17.00
processed 17224 requests 956.84 r/s elapsed 18.00
processed 18232 requests 959.18 r/s elapsed 19.01
processed 19192 requests 959.53 r/s elapsed 20.00
TOTAL: 19192 requests 959.53 r/s elapsed 20.00
