type: fadvise
filename: /mnt/raid/prefetch/prefetch-2048
I/O mode: BUFFERED
workload: RANDOM
duration: 20
queue size: 1
test mode: WARMUP
file size: 2147483648
file pages: 524288
processed 158 requests 157.85 r/s elapsed 1.00
elapsed 1.00 : warmup interval speed 157.85 previous 0.00
processed 316 requests 157.90 r/s elapsed 2.00
elapsed 2.00 : warmup interval speed 157.95 previous 157.85
within 5% of the preceding interval, warmup terminating
TOTAL: 316 requests 157.90 r/s elapsed 2.00
