type: fadvise
filename: /mnt/raid/prefetch/prefetch-2048
I/O mode: BUFFERED
workload: SEQUENTIAL
duration: 20
queue size: 8
test mode: WARMUP
file size: 2147483648
file pages: 524288
start probability: 0.010
continue probability: 0.900
processed 5696 requests 5692.79 r/s elapsed 1.00
elapsed 1.00 : warmup interval speed 5692.79 previous 0.00
processed 11648 requests 5810.01 r/s elapsed 2.00
elapsed 2.00 : warmup interval speed 5926.79 previous 5692.79
within 5% of the preceding interval, warmup terminating
TOTAL: 11648 requests 5810.01 r/s elapsed 2.00
