type: fadvise
filename: /mnt/raid/prefetch/prefetch-2048
I/O mode: BUFFERED
workload: SEQUENTIAL
duration: 20
queue size: 128
test mode: WARMUP
file size: 2147483648
file pages: 524288
start probability: 0.010
continue probability: 0.100
processed 1024 requests 931.76 r/s elapsed 1.10
elapsed 1.10 : warmup interval speed 931.76 previous 0.00
processed 1920 requests 926.29 r/s elapsed 2.07
elapsed 2.07 : warmup interval speed 920.13 previous 931.76
within 5% of the preceding interval, warmup terminating
TOTAL: 1920 requests 926.29 r/s elapsed 2.07
