type: POSIX aio
filename: /mnt/raid/prefetch/prefetch-2048
I/O mode: BUFFERED
workload: SEQUENTIAL
duration: 20
threads: 8
queue size: 8
test mode: TEST
file size: 2147483648
file pages: 524288
start probability: 0.100
continue probability: 0.900
processed 94584 requests 93873.01 r/s elapsed 1.01
processed 121808 requests 60821.95 r/s elapsed 2.00
processed 154016 requests 51287.79 r/s elapsed 3.00
processed 183352 requests 45787.86 r/s elapsed 4.00
processed 215192 requests 43026.81 r/s elapsed 5.00
processed 245096 requests 40846.24 r/s elapsed 6.00
processed 276096 requests 39436.09 r/s elapsed 7.00
processed 397936 requests 49741.75 r/s elapsed 8.00
processed 524528 requests 58280.80 r/s elapsed 9.00
processed 712544 requests 71254.23 r/s elapsed 10.00
processed 934432 requests 84947.99 r/s elapsed 11.00
processed 1125344 requests 93778.50 r/s elapsed 12.00
processed 1312864 requests 100989.41 r/s elapsed 13.00
processed 1498152 requests 107010.84 r/s elapsed 14.00
processed 1685720 requests 112381.06 r/s elapsed 15.00
processed 1874608 requests 117162.94 r/s elapsed 16.00
processed 2061568 requests 121268.68 r/s elapsed 17.00
processed 2248696 requests 124927.38 r/s elapsed 18.00
processed 2437352 requests 128281.43 r/s elapsed 19.00
processed 2624360 requests 131217.90 r/s elapsed 20.00
TOTAL: 2624360 requests 131217.90 r/s elapsed 20.00
