type: POSIX aio
filename: /mnt/raid/prefetch/prefetch-2048
I/O mode: DIRECT
workload: SEQUENTIAL
duration: 20
threads: 1
queue size: 8
test mode: TEST
file size: 2147483648
file pages: 524288
start probability: 0.010
continue probability: 0.500
processed 920 requests 918.45 r/s elapsed 1.00
processed 1792 requests 890.55 r/s elapsed 2.01
processed 2664 requests 887.42 r/s elapsed 3.00
processed 3600 requests 899.45 r/s elapsed 4.00
processed 4384 requests 874.00 r/s elapsed 5.02
processed 5288 requests 879.88 r/s elapsed 6.01
processed 6096 requests 869.63 r/s elapsed 7.01
processed 6968 requests 869.94 r/s elapsed 8.01
processed 7800 requests 866.53 r/s elapsed 9.00
processed 8576 requests 857.16 r/s elapsed 10.01
processed 9424 requests 855.56 r/s elapsed 11.02
processed 10304 requests 858.08 r/s elapsed 12.01
processed 11160 requests 858.32 r/s elapsed 13.00
processed 12040 requests 859.84 r/s elapsed 14.00
processed 13016 requests 867.42 r/s elapsed 15.01
processed 13856 requests 865.19 r/s elapsed 16.02
processed 14768 requests 868.48 r/s elapsed 17.00
processed 15664 requests 869.67 r/s elapsed 18.01
processed 16560 requests 870.81 r/s elapsed 19.02
processed 17456 requests 872.59 r/s elapsed 20.00
TOTAL: 17456 requests 872.59 r/s elapsed 20.00
