type: POSIX aio
filename: /mnt/raid/prefetch/prefetch-2048
I/O mode: BUFFERED
workload: SEQUENTIAL
duration: 20
threads: 1
queue size: 8
test mode: TEST
file size: 2147483648
file pages: 524288
start probability: 0.100
continue probability: 0.500
processed 12784 requests 12605.78 r/s elapsed 1.01
processed 24832 requests 12414.81 r/s elapsed 2.00
processed 36000 requests 11998.44 r/s elapsed 3.00
processed 47552 requests 11885.88 r/s elapsed 4.00
processed 58936 requests 11782.71 r/s elapsed 5.00
processed 70528 requests 11753.85 r/s elapsed 6.00
processed 82232 requests 11743.52 r/s elapsed 7.00
processed 93888 requests 11735.36 r/s elapsed 8.00
processed 105608 requests 11727.65 r/s elapsed 9.01
processed 130880 requests 13086.67 r/s elapsed 10.00
processed 143072 requests 13003.71 r/s elapsed 11.00
processed 155824 requests 12985.33 r/s elapsed 12.00
processed 168496 requests 12958.75 r/s elapsed 13.00
processed 179616 requests 12828.21 r/s elapsed 14.00
processed 191120 requests 12738.96 r/s elapsed 15.00
processed 203048 requests 12690.22 r/s elapsed 16.00
processed 237472 requests 13965.69 r/s elapsed 17.00
processed 271432 requests 15079.54 r/s elapsed 18.00
processed 297536 requests 15658.12 r/s elapsed 19.00
processed 364304 requests 18207.39 r/s elapsed 20.01
TOTAL: 364304 requests 18207.39 r/s elapsed 20.01
