type: POSIX aio
filename: /mnt/raid/prefetch/prefetch-2048
I/O mode: DIRECT
workload: SEQUENTIAL
duration: 20
threads: 8
queue size: 1024
test mode: TEST
file size: 2147483648
file pages: 524288
start probability: 0.010
continue probability: 0.100
processed 1024 requests 499.34 r/s elapsed 2.05
processed 2048 requests 507.90 r/s elapsed 4.03
processed 3072 requests 505.60 r/s elapsed 6.08
processed 4096 requests 492.04 r/s elapsed 8.32
processed 5120 requests 495.23 r/s elapsed 10.34
processed 6144 requests 494.41 r/s elapsed 12.43
processed 7168 requests 500.67 r/s elapsed 14.32
processed 8192 requests 500.44 r/s elapsed 16.37
processed 9216 requests 500.74 r/s elapsed 18.40
processed 10240 requests 501.55 r/s elapsed 20.42
TOTAL: 10240 requests 501.55 r/s elapsed 20.42
