type: POSIX aio
filename: /mnt/raid/prefetch/prefetch-2048
I/O mode: BUFFERED
workload: SEQUENTIAL
duration: 20
threads: 32
queue size: 1024
test mode: TEST
file size: 2147483648
file pages: 524288
start probability: 0.100
continue probability: 0.500
processed 14336 requests 13678.79 r/s elapsed 1.05
processed 25600 requests 12738.80 r/s elapsed 2.01
processed 37888 requests 12417.32 r/s elapsed 3.05
processed 50176 requests 12277.32 r/s elapsed 4.09
processed 60416 requests 12072.68 r/s elapsed 5.00
processed 72704 requests 12063.19 r/s elapsed 6.03
processed 83968 requests 11990.64 r/s elapsed 7.00
processed 95232 requests 11885.59 r/s elapsed 8.01
processed 109568 requests 12165.58 r/s elapsed 9.01
processed 138240 requests 13797.22 r/s elapsed 10.02
processed 150528 requests 13631.86 r/s elapsed 11.04
processed 162816 requests 13446.47 r/s elapsed 12.11
processed 175104 requests 13425.38 r/s elapsed 13.04
processed 188416 requests 13358.89 r/s elapsed 14.10
processed 199680 requests 13275.89 r/s elapsed 15.04
processed 233472 requests 14581.52 r/s elapsed 16.01
processed 266240 requests 15658.23 r/s elapsed 17.00
processed 300032 requests 16656.94 r/s elapsed 18.01
processed 347136 requests 18255.82 r/s elapsed 19.02
processed 420864 requests 21022.33 r/s elapsed 20.02
TOTAL: 420864 requests 21022.33 r/s elapsed 20.02
