type: POSIX aio
filename: /mnt/raid/prefetch/prefetch-2048
I/O mode: DIRECT
workload: SEQUENTIAL
duration: 20
threads: 1
queue size: 128
test mode: TEST
file size: 2147483648
file pages: 524288
start probability: 0.010
continue probability: 0.100
processed 512 requests 511.27 r/s elapsed 1.00
processed 1152 requests 505.32 r/s elapsed 2.28
processed 1536 requests 507.79 r/s elapsed 3.02
processed 2048 requests 510.03 r/s elapsed 4.02
processed 2688 requests 522.85 r/s elapsed 5.14
processed 3200 requests 522.63 r/s elapsed 6.12
processed 3712 requests 520.31 r/s elapsed 7.13
processed 4224 requests 518.49 r/s elapsed 8.15
processed 4736 requests 514.29 r/s elapsed 9.21
processed 5248 requests 514.68 r/s elapsed 10.20
processed 5760 requests 516.14 r/s elapsed 11.16
processed 6272 requests 517.50 r/s elapsed 12.12
processed 6784 requests 519.12 r/s elapsed 13.07
processed 7296 requests 516.31 r/s elapsed 14.13
processed 7808 requests 516.31 r/s elapsed 15.12
processed 8320 requests 516.49 r/s elapsed 16.11
processed 8832 requests 515.06 r/s elapsed 17.15
processed 9344 requests 516.25 r/s elapsed 18.10
processed 9856 requests 514.55 r/s elapsed 19.15
processed 10368 requests 514.50 r/s elapsed 20.15
TOTAL: 10368 requests 514.50 r/s elapsed 20.15
