type: POSIX aio
filename: /mnt/raid/prefetch/prefetch-2048
I/O mode: BUFFERED
workload: SEQUENTIAL
duration: 20
threads: 16
queue size: 32
test mode: TEST
file size: 2147483648
file pages: 524288
start probability: 0.100
continue probability: 0.900
processed 75616 requests 75553.29 r/s elapsed 1.00
processed 106848 requests 53353.65 r/s elapsed 2.00
processed 137344 requests 45780.59 r/s elapsed 3.00
processed 170432 requests 42503.16 r/s elapsed 4.01
processed 201952 requests 40356.90 r/s elapsed 5.00
processed 233504 requests 38876.78 r/s elapsed 6.01
processed 262720 requests 37525.15 r/s elapsed 7.00
processed 293248 requests 36630.04 r/s elapsed 8.01
processed 453664 requests 50393.49 r/s elapsed 9.00
processed 587968 requests 58796.58 r/s elapsed 10.00
processed 810688 requests 73698.23 r/s elapsed 11.00
processed 1035104 requests 86258.13 r/s elapsed 12.00
processed 1271136 requests 97779.37 r/s elapsed 13.00
processed 1510240 requests 107873.80 r/s elapsed 14.00
processed 1750240 requests 116681.64 r/s elapsed 15.00
processed 1989120 requests 124319.77 r/s elapsed 16.00
processed 2228800 requests 131105.84 r/s elapsed 17.00
processed 2468960 requests 137164.21 r/s elapsed 18.00
processed 2708800 requests 142568.02 r/s elapsed 19.00
processed 2947008 requests 147350.16 r/s elapsed 20.00
TOTAL: 2947008 requests 147350.16 r/s elapsed 20.00
