type: POSIX aio
filename: /mnt/raid/prefetch/prefetch-2048
I/O mode: DIRECT
workload: SEQUENTIAL
duration: 20
threads: 8
queue size: 128
test mode: TEST
file size: 2147483648
file pages: 524288
start probability: 0.100
continue probability: 0.500
processed 6528 requests 6445.54 r/s elapsed 1.01
processed 13312 requests 6597.98 r/s elapsed 2.02
processed 19968 requests 6646.72 r/s elapsed 3.00
processed 26624 requests 6652.02 r/s elapsed 4.00
processed 33280 requests 6650.33 r/s elapsed 5.00
processed 39936 requests 6641.73 r/s elapsed 6.01
processed 46720 requests 6659.35 r/s elapsed 7.02
processed 53504 requests 6677.15 r/s elapsed 8.01
processed 60160 requests 6671.01 r/s elapsed 9.02
processed 66816 requests 6672.45 r/s elapsed 10.01
processed 73344 requests 6667.60 r/s elapsed 11.00
processed 80000 requests 6664.71 r/s elapsed 12.00
processed 86656 requests 6661.57 r/s elapsed 13.01
processed 93312 requests 6664.02 r/s elapsed 14.00
processed 99968 requests 6662.34 r/s elapsed 15.00
processed 106368 requests 6645.18 r/s elapsed 16.01
processed 113024 requests 6646.44 r/s elapsed 17.01
processed 119680 requests 6647.80 r/s elapsed 18.00
processed 126336 requests 6644.76 r/s elapsed 19.01
processed 132864 requests 6640.86 r/s elapsed 20.01
TOTAL: 132864 requests 6640.86 r/s elapsed 20.01
