type: POSIX aio
filename: /mnt/raid/prefetch/prefetch-2048
I/O mode: DIRECT
workload: SEQUENTIAL
duration: 20
threads: 16
queue size: 1024
test mode: TEST
file size: 2147483648
file pages: 524288
start probability: 0.100
continue probability: 0.100
processed 4096 requests 3958.75 r/s elapsed 1.03
processed 9216 requests 4334.24 r/s elapsed 2.13
processed 14336 requests 4455.07 r/s elapsed 3.22
processed 18432 requests 4559.08 r/s elapsed 4.04
processed 22528 requests 4495.81 r/s elapsed 5.01
processed 27648 requests 4434.26 r/s elapsed 6.24
processed 31744 requests 4505.20 r/s elapsed 7.05
processed 36864 requests 4538.90 r/s elapsed 8.12
processed 41984 requests 4552.97 r/s elapsed 9.22
processed 46080 requests 4549.50 r/s elapsed 10.13
processed 51200 requests 4584.84 r/s elapsed 11.17
processed 55296 requests 4603.69 r/s elapsed 12.01
processed 60416 requests 4604.44 r/s elapsed 13.12
processed 64512 requests 4596.07 r/s elapsed 14.04
processed 69632 requests 4586.51 r/s elapsed 15.18
processed 73728 requests 4577.42 r/s elapsed 16.11
processed 77824 requests 4575.95 r/s elapsed 17.01
processed 82944 requests 4559.92 r/s elapsed 18.19
processed 87040 requests 4536.70 r/s elapsed 19.19
processed 91136 requests 4538.75 r/s elapsed 20.08
TOTAL: 91136 requests 4538.75 r/s elapsed 20.08
