type: POSIX aio
filename: /mnt/raid/prefetch/prefetch-2048
I/O mode: BUFFERED
workload: RANDOM
duration: 20
threads: 32
queue size: 1024
test mode: WARMUP
file size: 2147483648
file pages: 524288
processed 1024 requests 154.25 r/s elapsed 6.64
elapsed 6.64 : warmup interval speed 154.25 previous 0.00
processed 2048 requests 155.08 r/s elapsed 13.21
elapsed 13.21 : warmup interval speed 155.91 previous 154.25
within 5% of the preceding interval, warmup terminating
TOTAL: 2048 requests 155.08 r/s elapsed 13.21
