type: POSIX aio
filename: /mnt/raid/prefetch/prefetch-2048
I/O mode: DIRECT
workload: RANDOM
duration: 20
threads: 8
queue size: 1024
test mode: TEST
file size: 2147483648
file pages: 524288
processed 1024 requests 156.67 r/s elapsed 6.54
processed 2048 requests 157.68 r/s elapsed 12.99
processed 3072 requests 158.47 r/s elapsed 19.39
processed 4096 requests 158.06 r/s elapsed 25.91
TOTAL: 4096 requests 158.06 r/s elapsed 25.91
