type: pthread fadvise
filename: /mnt/raid/prefetch/prefetch-2048
I/O mode: BUFFERED
workload: RANDOM
duration: 20
threads: 8
queue size: 8
test mode: WARMUP
file size: 2147483648
file pages: 524288
processed 1000 requests 280.32 r/s elapsed 3.57
elapsed 3.57 : warmup interval speed 280.32 previous 0.00
processed 1136 requests 282.44 r/s elapsed 4.02
elapsed 4.02 : warmup interval speed 299.11 previous 280.32
processed 1440 requests 286.93 r/s elapsed 5.02
elapsed 5.02 : warmup interval speed 305.04 previous 299.11
within 5% of the preceding interval, warmup terminating
TOTAL: 1440 requests 286.93 r/s elapsed 5.02
