type: pthread fadvise
filename: /mnt/raid/prefetch/prefetch-2048
I/O mode: BUFFERED
workload: SEQUENTIAL
duration: 20
threads: 16
queue size: 32
test mode: TEST
file size: 2147483648
file pages: 524288
start probability: 0.100
continue probability: 0.900
processed 18016 requests 18005.77 r/s elapsed 1.00
processed 36000 requests 12926.55 r/s elapsed 2.78
processed 38784 requests 12765.59 r/s elapsed 3.04
processed 51072 requests 11903.07 r/s elapsed 4.29
processed 59520 requests 11340.12 r/s elapsed 5.25
processed 68064 requests 10953.24 r/s elapsed 6.21
processed 76672 requests 10685.09 r/s elapsed 7.18
processed 85504 requests 10617.51 r/s elapsed 8.05
processed 95584 requests 10482.56 r/s elapsed 9.12
processed 104832 requests 10382.49 r/s elapsed 10.10
processed 114208 requests 10306.05 r/s elapsed 11.08
processed 123680 requests 10281.13 r/s elapsed 12.03
processed 133664 requests 10165.80 r/s elapsed 13.15
processed 142336 requests 10147.62 r/s elapsed 14.03
processed 152224 requests 10127.45 r/s elapsed 15.03
processed 162272 requests 10140.30 r/s elapsed 16.00
processed 172416 requests 10092.08 r/s elapsed 17.08
processed 181664 requests 10076.34 r/s elapsed 18.03
processed 192000 requests 10102.99 r/s elapsed 19.00
processed 202080 requests 10098.89 r/s elapsed 20.01
TOTAL: 202080 requests 10098.89 r/s elapsed 20.01
