type: pthread aio
filename: /mnt/raid/prefetch/prefetch-2048
I/O mode: BUFFERED
workload: SEQUENTIAL
duration: 20
threads: 16
queue size: 32
test mode: TEST
file size: 2147483648
file pages: 524288
start probability: 0.010
continue probability: 0.500
processed 1024 requests 1006.73 r/s elapsed 1.02
processed 2016 requests 975.53 r/s elapsed 2.07
processed 3008 requests 999.32 r/s elapsed 3.01
processed 4000 requests 998.43 r/s elapsed 4.01
processed 5088 requests 1011.91 r/s elapsed 5.03
processed 6112 requests 1015.17 r/s elapsed 6.02
processed 7136 requests 1012.25 r/s elapsed 7.05
processed 8128 requests 1004.08 r/s elapsed 8.09
processed 9056 requests 996.11 r/s elapsed 9.09
processed 9984 requests 990.97 r/s elapsed 10.07
processed 10976 requests 997.66 r/s elapsed 11.00
processed 12000 requests 989.83 r/s elapsed 12.12
processed 12896 requests 990.14 r/s elapsed 13.02
processed 13888 requests 989.43 r/s elapsed 14.04
processed 14976 requests 997.78 r/s elapsed 15.01
processed 15968 requests 996.25 r/s elapsed 16.03
processed 16960 requests 993.96 r/s elapsed 17.06
processed 17952 requests 996.66 r/s elapsed 18.01
processed 19040 requests 1002.03 r/s elapsed 19.00
processed 20064 requests 1002.04 r/s elapsed 20.02
TOTAL: 20064 requests 1002.04 r/s elapsed 20.02
