type: pthread fadvise
filename: /mnt/raid/prefetch/prefetch-2048
I/O mode: BUFFERED
workload: SEQUENTIAL
duration: 20
threads: 1
queue size: 1
test mode: WARMUP
file size: 2147483648
file pages: 524288
start probability: 0.100
continue probability: 0.900
processed 7765 requests 7763.97 r/s elapsed 1.00
elapsed 1.00 : warmup interval speed 7763.97 previous 0.00
processed 15604 requests 7801.87 r/s elapsed 2.00
elapsed 2.00 : warmup interval speed 7839.78 previous 7763.97
within 5% of the preceding interval, warmup terminating
TOTAL: 15604 requests 7801.87 r/s elapsed 2.00
