type: pthread aio
filename: /mnt/raid/prefetch/prefetch-2048
I/O mode: BUFFERED
workload: RANDOM
duration: 20
threads: 8
queue size: 32
test mode: WARMUP
file size: 2147483648
file pages: 524288
processed 1024 requests 349.16 r/s elapsed 2.93
elapsed 2.93 : warmup interval speed 349.16 previous 0.00
processed 1056 requests 347.64 r/s elapsed 3.04
elapsed 3.04 : warmup interval speed 305.17 previous 349.16
within 5% of the preceding interval, warmup terminating
TOTAL: 1056 requests 347.64 r/s elapsed 3.04
