type: pthread aio
filename: /mnt/raid/prefetch/prefetch-2048
I/O mode: BUFFERED
workload: SEQUENTIAL
duration: 20
threads: 8
queue size: 128
test mode: TEST
file size: 2147483648
file pages: 524288
start probability: 0.010
continue probability: 0.100
processed 1024 requests 534.00 r/s elapsed 1.92
processed 1152 requests 530.29 r/s elapsed 2.17
processed 1664 requests 550.11 r/s elapsed 3.02
processed 2304 requests 547.53 r/s elapsed 4.21
processed 2816 requests 550.46 r/s elapsed 5.12
processed 3328 requests 550.13 r/s elapsed 6.05
processed 3968 requests 551.41 r/s elapsed 7.20
processed 4480 requests 551.57 r/s elapsed 8.12
processed 4992 requests 554.60 r/s elapsed 9.00
processed 5632 requests 556.94 r/s elapsed 10.11
processed 6144 requests 555.90 r/s elapsed 11.05
processed 6784 requests 557.96 r/s elapsed 12.16
processed 7296 requests 561.21 r/s elapsed 13.00
processed 7936 requests 562.23 r/s elapsed 14.12
processed 8576 requests 562.26 r/s elapsed 15.25
processed 9088 requests 563.02 r/s elapsed 16.14
processed 9600 requests 561.63 r/s elapsed 17.09
processed 10112 requests 561.14 r/s elapsed 18.02
processed 10752 requests 563.50 r/s elapsed 19.08
processed 11392 requests 563.30 r/s elapsed 20.22
TOTAL: 11392 requests 563.30 r/s elapsed 20.22
