type: pthread fadvise
filename: /mnt/raid/prefetch/prefetch-2048
I/O mode: BUFFERED
workload: SEQUENTIAL
duration: 20
threads: 32
queue size: 128
test mode: TEST
file size: 2147483648
file pages: 524288
start probability: 0.010
continue probability: 0.500
processed 1536 requests 1474.48 r/s elapsed 1.04
processed 3072 requests 1488.64 r/s elapsed 2.06
processed 4608 requests 1517.58 r/s elapsed 3.04
processed 6144 requests 1484.06 r/s elapsed 4.14
processed 7552 requests 1486.32 r/s elapsed 5.08
processed 9088 requests 1498.48 r/s elapsed 6.06
processed 10624 requests 1501.13 r/s elapsed 7.08
processed 12032 requests 1498.28 r/s elapsed 8.03
processed 13568 requests 1504.06 r/s elapsed 9.02
processed 15104 requests 1493.66 r/s elapsed 10.11
processed 16512 requests 1489.95 r/s elapsed 11.08
processed 17920 requests 1480.22 r/s elapsed 12.11
processed 19328 requests 1481.79 r/s elapsed 13.04
processed 20864 requests 1483.02 r/s elapsed 14.07
processed 22272 requests 1480.98 r/s elapsed 15.04
processed 23808 requests 1478.50 r/s elapsed 16.10
processed 25216 requests 1481.20 r/s elapsed 17.02
processed 26752 requests 1478.39 r/s elapsed 18.10
processed 28160 requests 1477.95 r/s elapsed 19.05
processed 29568 requests 1477.11 r/s elapsed 20.02
TOTAL: 29568 requests 1477.11 r/s elapsed 20.02
