type: pthread fadvise
filename: /mnt/raid/prefetch/prefetch-2048
I/O mode: BUFFERED
workload: SEQUENTIAL
duration: 20
threads: 8
queue size: 8
test mode: TEST
file size: 2147483648
file pages: 524288
start probability: 0.100
continue probability: 0.500
processed 6088 requests 6086.41 r/s elapsed 1.00
processed 12176 requests 6030.05 r/s elapsed 2.02
processed 18096 requests 5890.51 r/s elapsed 3.07
processed 23568 requests 5794.66 r/s elapsed 4.07
processed 29224 requests 5843.53 r/s elapsed 5.00
processed 35280 requests 5877.06 r/s elapsed 6.00
processed 41440 requests 5915.32 r/s elapsed 7.01
processed 47440 requests 5928.77 r/s elapsed 8.00
processed 53360 requests 5916.94 r/s elapsed 9.02
processed 59496 requests 5940.48 r/s elapsed 10.02
processed 65352 requests 5927.62 r/s elapsed 11.02
processed 71136 requests 5900.27 r/s elapsed 12.06
processed 76816 requests 5908.80 r/s elapsed 13.00
processed 82728 requests 5884.11 r/s elapsed 14.06
processed 88264 requests 5866.95 r/s elapsed 15.04
processed 93872 requests 5846.14 r/s elapsed 16.06
processed 99384 requests 5841.11 r/s elapsed 17.01
processed 105616 requests 5866.34 r/s elapsed 18.00
processed 111800 requests 5879.92 r/s elapsed 19.01
processed 118168 requests 5906.27 r/s elapsed 20.01
TOTAL: 118168 requests 5906.27 r/s elapsed 20.01
