type: pthread aio
filename: /mnt/raid/prefetch/prefetch-2048
I/O mode: DIRECT
workload: SEQUENTIAL
duration: 20
threads: 1
queue size: 1024
test mode: TEST
file size: 2147483648
file pages: 524288
start probability: 0.010
continue probability: 0.500
processed 1024 requests 892.50 r/s elapsed 1.15
processed 2048 requests 858.56 r/s elapsed 2.39
processed 3072 requests 852.61 r/s elapsed 3.60
processed 4096 requests 860.72 r/s elapsed 4.76
processed 5120 requests 872.38 r/s elapsed 5.87
processed 6144 requests 868.81 r/s elapsed 7.07
processed 7168 requests 876.51 r/s elapsed 8.18
processed 8192 requests 883.65 r/s elapsed 9.27
processed 9216 requests 888.19 r/s elapsed 10.38
processed 10240 requests 892.08 r/s elapsed 11.48
processed 11264 requests 885.32 r/s elapsed 12.72
processed 12288 requests 891.57 r/s elapsed 13.78
processed 13312 requests 882.66 r/s elapsed 15.08
processed 14336 requests 888.05 r/s elapsed 16.14
processed 15360 requests 885.54 r/s elapsed 17.35
processed 16384 requests 888.38 r/s elapsed 18.44
processed 17408 requests 883.20 r/s elapsed 19.71
processed 18432 requests 882.38 r/s elapsed 20.89
TOTAL: 18432 requests 882.38 r/s elapsed 20.89
