type: pthread fadvise
filename: /mnt/raid/prefetch/prefetch-2048
I/O mode: BUFFERED
workload: SEQUENTIAL
duration: 20
threads: 8
queue size: 1024
test mode: WARMUP
file size: 2147483648
file pages: 524288
start probability: 0.010
continue probability: 0.100
processed 1024 requests 856.53 r/s elapsed 1.20
elapsed 1.20 : warmup interval speed 856.53 previous 0.00
processed 2048 requests 868.51 r/s elapsed 2.36
elapsed 2.36 : warmup interval speed 880.83 previous 856.53
within 5% of the preceding interval, warmup terminating
TOTAL: 2048 requests 868.51 r/s elapsed 2.36
