type: pthread aio
filename: /mnt/raid/prefetch/prefetch-2048
I/O mode: BUFFERED
workload: SEQUENTIAL
duration: 20
threads: 8
queue size: 8
test mode: TEST
file size: 2147483648
file pages: 524288
start probability: 0.100
continue probability: 0.900
processed 128000 requests 50494.05 r/s elapsed 2.53
processed 151488 requests 44045.61 r/s elapsed 3.44
processed 176184 requests 40205.33 r/s elapsed 4.38
processed 201032 requests 37156.68 r/s elapsed 5.41
processed 222944 requests 35695.02 r/s elapsed 6.25
processed 249872 requests 34198.23 r/s elapsed 7.31
processed 273592 requests 33313.86 r/s elapsed 8.21
processed 299824 requests 33312.30 r/s elapsed 9.00
processed 468880 requests 46870.47 r/s elapsed 10.00
processed 643536 requests 58503.24 r/s elapsed 11.00
processed 863392 requests 71949.21 r/s elapsed 12.00
processed 1099960 requests 84612.07 r/s elapsed 13.00
processed 1336488 requests 95463.31 r/s elapsed 14.00
processed 1576832 requests 105121.92 r/s elapsed 15.00
processed 1817432 requests 113589.34 r/s elapsed 16.00
processed 2058008 requests 121059.29 r/s elapsed 17.00
processed 2302288 requests 127904.85 r/s elapsed 18.00
processed 2547232 requests 134064.81 r/s elapsed 19.00
processed 2792488 requests 139624.18 r/s elapsed 20.00
TOTAL: 2792488 requests 139624.18 r/s elapsed 20.00
