type: pthread fadvise
filename: /mnt/raid/prefetch/prefetch-2048
I/O mode: BUFFERED
workload: SEQUENTIAL
duration: 20
threads: 32
queue size: 128
test mode: TEST
file size: 2147483648
file pages: 524288
start probability: 0.100
continue probability: 0.500
processed 6144 requests 6114.22 r/s elapsed 1.00
processed 12928 requests 6420.85 r/s elapsed 2.01
processed 19328 requests 6401.69 r/s elapsed 3.02
processed 25728 requests 6277.42 r/s elapsed 4.10
processed 31488 requests 6172.41 r/s elapsed 5.10
processed 37248 requests 6190.78 r/s elapsed 6.02
processed 43392 requests 6098.59 r/s elapsed 7.12
processed 49024 requests 6114.73 r/s elapsed 8.02
processed 55168 requests 6114.51 r/s elapsed 9.02
processed 61440 requests 6133.93 r/s elapsed 10.02
processed 67584 requests 6080.50 r/s elapsed 11.11
processed 73088 requests 6073.80 r/s elapsed 12.03
processed 79104 requests 6076.54 r/s elapsed 13.02
processed 85248 requests 6085.23 r/s elapsed 14.01
processed 91392 requests 6052.43 r/s elapsed 15.10
processed 96896 requests 6029.75 r/s elapsed 16.07
processed 102528 requests 6025.33 r/s elapsed 17.02
processed 108800 requests 6034.31 r/s elapsed 18.03
processed 115328 requests 6057.98 r/s elapsed 19.04
processed 121984 requests 6099.12 r/s elapsed 20.00
TOTAL: 121984 requests 6099.12 r/s elapsed 20.00
