type: pthread aio
filename: /mnt/raid/prefetch/prefetch-2048
I/O mode: DIRECT
workload: SEQUENTIAL
duration: 20
threads: 16
queue size: 128
test mode: TEST
file size: 2147483648
file pages: 524288
start probability: 0.010
continue probability: 0.100
processed 1024 requests 563.26 r/s elapsed 1.82
processed 1152 requests 569.67 r/s elapsed 2.02
processed 1792 requests 574.51 r/s elapsed 3.12
processed 2432 requests 591.90 r/s elapsed 4.11
processed 3072 requests 601.87 r/s elapsed 5.10
processed 3712 requests 610.88 r/s elapsed 6.08
processed 4352 requests 609.32 r/s elapsed 7.14
processed 4992 requests 619.32 r/s elapsed 8.06
processed 5632 requests 621.63 r/s elapsed 9.06
processed 6272 requests 623.73 r/s elapsed 10.06
processed 6912 requests 622.58 r/s elapsed 11.10
processed 7552 requests 623.18 r/s elapsed 12.12
processed 8192 requests 626.72 r/s elapsed 13.07
processed 8832 requests 629.86 r/s elapsed 14.02
processed 9472 requests 629.18 r/s elapsed 15.05
processed 10112 requests 631.93 r/s elapsed 16.00
processed 10880 requests 633.13 r/s elapsed 17.18
processed 11520 requests 632.47 r/s elapsed 18.21
processed 12032 requests 630.66 r/s elapsed 19.08
processed 12672 requests 631.20 r/s elapsed 20.08
TOTAL: 12672 requests 631.20 r/s elapsed 20.08
