type: pthread aio
filename: /mnt/raid/prefetch/prefetch-2048
I/O mode: DIRECT
workload: SEQUENTIAL
duration: 20
threads: 32
queue size: 32
test mode: TEST
file size: 2147483648
file pages: 524288
start probability: 0.010
continue probability: 0.100
processed 1024 requests 704.60 r/s elapsed 1.45
processed 1504 requests 742.67 r/s elapsed 2.03
processed 2240 requests 741.60 r/s elapsed 3.02
processed 2976 requests 743.14 r/s elapsed 4.00
processed 3744 requests 742.00 r/s elapsed 5.05
processed 4480 requests 739.81 r/s elapsed 6.06
processed 5184 requests 740.42 r/s elapsed 7.00
processed 5952 requests 740.51 r/s elapsed 8.04
processed 6688 requests 739.98 r/s elapsed 9.04
processed 7424 requests 738.63 r/s elapsed 10.05
processed 8128 requests 735.07 r/s elapsed 11.06
processed 8864 requests 736.58 r/s elapsed 12.03
processed 9600 requests 734.90 r/s elapsed 13.06
processed 10368 requests 739.37 r/s elapsed 14.02
processed 11104 requests 739.38 r/s elapsed 15.02
processed 11840 requests 737.69 r/s elapsed 16.05
processed 12544 requests 737.28 r/s elapsed 17.01
processed 13280 requests 736.01 r/s elapsed 18.04
processed 13984 requests 734.78 r/s elapsed 19.03
processed 14752 requests 735.94 r/s elapsed 20.05
TOTAL: 14752 requests 735.94 r/s elapsed 20.05
