type: pthread fadvise
filename: /mnt/raid/prefetch/prefetch-2048
I/O mode: BUFFERED
workload: SEQUENTIAL
duration: 20
threads: 1
queue size: 32
test mode: TEST
file size: 2147483648
file pages: 524288
start probability: 0.100
continue probability: 0.500
processed 11424 requests 11407.22 r/s elapsed 1.00
processed 23232 requests 11580.49 r/s elapsed 2.01
processed 34752 requests 11533.37 r/s elapsed 3.01
processed 46144 requests 11532.40 r/s elapsed 4.00
processed 57824 requests 11557.55 r/s elapsed 5.00
processed 69376 requests 11562.40 r/s elapsed 6.00
processed 81152 requests 11591.18 r/s elapsed 7.00
processed 92736 requests 11576.44 r/s elapsed 8.01
processed 104224 requests 11573.39 r/s elapsed 9.01
processed 115744 requests 11549.17 r/s elapsed 10.02
processed 127168 requests 11557.05 r/s elapsed 11.00
processed 138688 requests 11533.93 r/s elapsed 12.02
processed 149952 requests 11526.10 r/s elapsed 13.01
processed 161728 requests 11546.30 r/s elapsed 14.01
processed 173536 requests 11564.84 r/s elapsed 15.01
processed 185344 requests 11582.27 r/s elapsed 16.00
processed 196928 requests 11567.82 r/s elapsed 17.02
processed 208224 requests 11563.69 r/s elapsed 18.01
processed 219712 requests 11547.83 r/s elapsed 19.03
processed 231168 requests 11554.97 r/s elapsed 20.01
TOTAL: 231168 requests 11554.97 r/s elapsed 20.01
