type: pthread fadvise
filename: /mnt/raid/prefetch/prefetch-2048
I/O mode: BUFFERED
workload: SEQUENTIAL
duration: 20
threads: 16
queue size: 1024
test mode: TEST
file size: 2147483648
file pages: 524288
start probability: 0.100
continue probability: 0.500
processed 6144 requests 5436.04 r/s elapsed 1.13
processed 11264 requests 5352.26 r/s elapsed 2.10
processed 16384 requests 5201.17 r/s elapsed 3.15
processed 21504 requests 5153.31 r/s elapsed 4.17
processed 26624 requests 5061.42 r/s elapsed 5.26
processed 30720 requests 5028.06 r/s elapsed 6.11
processed 35840 requests 4991.17 r/s elapsed 7.18
processed 39936 requests 4987.66 r/s elapsed 8.01
processed 46080 requests 5037.11 r/s elapsed 9.15
processed 51200 requests 5065.03 r/s elapsed 10.11
processed 56320 requests 5086.92 r/s elapsed 11.07
processed 61440 requests 5099.21 r/s elapsed 12.05
processed 66560 requests 5105.42 r/s elapsed 13.04
processed 71680 requests 5090.81 r/s elapsed 14.08
processed 76800 requests 5074.73 r/s elapsed 15.13
processed 81920 requests 5088.23 r/s elapsed 16.10
processed 87040 requests 5077.97 r/s elapsed 17.14
processed 92160 requests 5079.76 r/s elapsed 18.14
processed 97280 requests 5080.79 r/s elapsed 19.15
processed 102400 requests 5063.82 r/s elapsed 20.22
TOTAL: 102400 requests 5063.82 r/s elapsed 20.22
