type: pthread aio
filename: /mnt/raid/prefetch/prefetch-2048
I/O mode: BUFFERED
workload: RANDOM
duration: 20
threads: 8
queue size: 128
test mode: TEST
file size: 2147483648
file pages: 524288
processed 1024 requests 402.80 r/s elapsed 2.54
processed 1280 requests 410.22 r/s elapsed 3.12
processed 1664 requests 409.19 r/s elapsed 4.07
processed 2048 requests 408.66 r/s elapsed 5.01
processed 2560 requests 413.56 r/s elapsed 6.19
processed 2944 requests 415.68 r/s elapsed 7.08
processed 3328 requests 414.86 r/s elapsed 8.02
processed 3840 requests 415.87 r/s elapsed 9.23
processed 4224 requests 414.31 r/s elapsed 10.20
processed 4608 requests 413.95 r/s elapsed 11.13
processed 4992 requests 412.42 r/s elapsed 12.10
processed 5376 requests 412.69 r/s elapsed 13.03
processed 5888 requests 413.34 r/s elapsed 14.25
processed 6272 requests 413.04 r/s elapsed 15.18
processed 6656 requests 413.58 r/s elapsed 16.09
processed 7040 requests 413.53 r/s elapsed 17.02
processed 7552 requests 413.48 r/s elapsed 18.26
processed 7936 requests 411.32 r/s elapsed 19.29
processed 8320 requests 411.98 r/s elapsed 20.19
TOTAL: 8320 requests 411.98 r/s elapsed 20.19
