type: pthread fadvise
filename: /mnt/raid/prefetch/prefetch-2048
I/O mode: BUFFERED
workload: SEQUENTIAL
duration: 20
threads: 1
queue size: 8
test mode: TEST
file size: 2147483648
file pages: 524288
start probability: 0.100
continue probability: 0.500
processed 11048 requests 11045.98 r/s elapsed 1.00
processed 22656 requests 11324.91 r/s elapsed 2.00
processed 34136 requests 11378.63 r/s elapsed 3.00
processed 45816 requests 11452.98 r/s elapsed 4.00
processed 57512 requests 11497.20 r/s elapsed 5.00
processed 68984 requests 11424.81 r/s elapsed 6.04
processed 80624 requests 11511.97 r/s elapsed 7.00
processed 92096 requests 11497.29 r/s elapsed 8.01
processed 103480 requests 11473.39 r/s elapsed 9.02
processed 114736 requests 11420.11 r/s elapsed 10.05
processed 126040 requests 11458.15 r/s elapsed 11.00
processed 137688 requests 11471.59 r/s elapsed 12.00
processed 149152 requests 11471.92 r/s elapsed 13.00
processed 160936 requests 11494.76 r/s elapsed 14.00
processed 172696 requests 11512.74 r/s elapsed 15.00
processed 184320 requests 11517.42 r/s elapsed 16.00
processed 195800 requests 11504.02 r/s elapsed 17.02
processed 207072 requests 11470.87 r/s elapsed 18.05
processed 217952 requests 11462.94 r/s elapsed 19.01
processed 229264 requests 11454.83 r/s elapsed 20.01
TOTAL: 229264 requests 11454.83 r/s elapsed 20.01
