Linux 4.17.2 (bench2) 	08/05/2018 	_x86_64_	(32 CPU)

avg-cpu:  %user   %nice %system %iowait  %steal   %idle
           1.88    0.00    1.59    1.68    0.00   94.86

Device:         rrqm/s   wrqm/s     r/s     w/s    rkB/s    wkB/s avgrq-sz avgqu-sz   await r_await w_await  svctm  %util
nvme0n1         996.26     4.91 20261.96  502.32 112335.34 11376.33    11.92     1.37    0.05    0.03    0.70   0.02  39.82
sda               0.12     0.83   14.27    0.59   164.48     8.61    23.29     0.00    0.33    0.32    0.43   0.07   0.10
sdc              34.92     0.17  128.42    0.30  1903.45    94.20    31.04     0.20    1.55    0.66  381.84   0.89  11.42
sdb              32.96     0.18  130.35    0.32  1901.63    94.03    30.54     0.62    4.71    3.71  413.03   0.83  10.88
sdd              35.12     0.16  127.98    0.25  1899.66    93.71    31.09     0.93    7.21    5.44  909.23   0.89  11.47
md0               0.00     0.00  492.51    1.17  7066.87   339.81    30.01     0.00    0.00    0.00    0.00   0.00   0.00

avg-cpu:  %user   %nice %system %iowait  %steal   %idle
           0.04    0.00    1.40    1.41    0.00   97.15

Device:         rrqm/s   wrqm/s     r/s     w/s    rkB/s    wkB/s avgrq-sz avgqu-sz   await r_await w_await  svctm  %util
nvme0n1           0.00     0.00 66877.35    0.00 267890.20     0.00     8.01     1.00    0.01    0.01    0.00   0.01 100.00
sda               0.00     1.00    0.25    0.75     5.40     9.00    28.80     0.00    0.00    0.00    0.00   0.00   0.00
sdc               0.00     0.00    0.00    0.00     0.00     0.00     0.00     0.00    0.00    0.00    0.00   0.00   0.00
sdb               0.00     0.00    0.00    0.00     0.00     0.00     0.00     0.00    0.00    0.00    0.00   0.00   0.00
sdd               0.00     0.00    0.00    0.00     0.00     0.00     0.00     0.00    0.00    0.00    0.00   0.00   0.00
md0               0.00     0.00    0.00    0.00     0.00     0.00     0.00     0.00    0.00    0.00    0.00   0.00   0.00

