Linux 4.17.2 (bench2) 	08/05/2018 	_x86_64_	(32 CPU)

avg-cpu:  %user   %nice %system %iowait  %steal   %idle
           1.87    0.00    1.61    1.69    0.00   94.83

Device:         rrqm/s   wrqm/s     r/s     w/s    rkB/s    wkB/s avgrq-sz avgqu-sz   await r_await w_await  svctm  %util
nvme0n1        1014.21     4.89 20837.21  500.04 115414.87 11324.81    11.88     1.38    0.05    0.03    0.70   0.02  40.09
sda               0.13     0.83   14.30    0.59   164.61     8.62    23.26     0.00    0.33    0.32    0.43   0.07   0.11
sdc              34.77     0.17  127.84    0.30  1894.83    93.77    31.04     0.20    1.55    0.66  381.84   0.89  11.37
sdb              32.81     0.18  129.76    0.32  1893.02    93.60    30.54     0.61    4.71    3.71  413.03   0.83  10.83
sdd              34.96     0.16  127.40    0.25  1891.05    93.29    31.09     0.92    7.21    5.44  909.23   0.89  11.42
md0               0.00     0.00  490.28    1.16  7034.87   338.27    30.01     0.00    0.00    0.00    0.00   0.00   0.00

avg-cpu:  %user   %nice %system %iowait  %steal   %idle
           0.13    0.00    1.38    1.35    0.00   97.13

Device:         rrqm/s   wrqm/s     r/s     w/s    rkB/s    wkB/s avgrq-sz avgqu-sz   await r_await w_await  svctm  %util
nvme0n1           0.00     0.00 65065.25    0.00 260616.60     0.00     8.01     1.00    0.01    0.01    0.00   0.02 100.00
sda               0.00     0.60    3.45    0.90    28.80     6.80    16.37     0.00    0.36    0.45    0.00   0.05   0.02
sdc               0.00     0.00    0.00    0.00     0.00     0.00     0.00     0.00    0.00    0.00    0.00   0.00   0.00
sdb               0.00     0.00    0.00    0.00     0.00     0.00     0.00     0.00    0.00    0.00    0.00   0.00   0.00
sdd               0.00     0.00    0.00    0.00     0.00     0.00     0.00     0.00    0.00    0.00    0.00   0.00   0.00
md0               0.00     0.00    0.00    0.00     0.00     0.00     0.00     0.00    0.00    0.00    0.00   0.00   0.00

