Linux 4.17.2 (bench2) 	08/04/2018 	_x86_64_	(32 CPU)

avg-cpu:  %user   %nice %system %iowait  %steal   %idle
           1.88    0.00    1.58    1.67    0.00   94.87

Device:         rrqm/s   wrqm/s     r/s     w/s    rkB/s    wkB/s avgrq-sz avgqu-sz   await r_await w_await  svctm  %util
nvme0n1         975.84     4.92 19999.23  503.29 111197.30 11398.37    11.96     1.37    0.05    0.03    0.70   0.02  39.70
sda               0.12     0.83   14.26    0.59   164.41     8.59    23.30     0.00    0.33    0.32    0.42   0.07   0.10
sdc              34.99     0.17  128.67    0.30  1907.14    94.38    31.04     0.20    1.55    0.66  381.84   0.89  11.44
sdb              33.02     0.18  130.60    0.32  1905.31    94.21    30.54     0.62    4.71    3.71  413.03   0.83  10.90
sdd              35.18     0.16  128.23    0.25  1903.34    93.89    31.09     0.93    7.21    5.44  909.23   0.89  11.49
md0               0.00     0.00  493.46    1.17  7080.57   340.47    30.01     0.00    0.00    0.00    0.00   0.00   0.00

avg-cpu:  %user   %nice %system %iowait  %steal   %idle
           2.17    0.00    2.69    0.67    0.00   94.47

Device:         rrqm/s   wrqm/s     r/s     w/s    rkB/s    wkB/s avgrq-sz avgqu-sz   await r_await w_await  svctm  %util
nvme0n1           0.00     0.00 34883.65    0.00 139534.60     0.00     8.00     1.00    0.01    0.01    0.00   0.03  99.99
sda               0.00     0.80    6.00    0.40    36.60     5.60    13.19     0.00    0.12    0.12    0.00   0.04   0.03
sdc               0.00     0.00    0.00    0.00     0.00     0.00     0.00     0.00    0.00    0.00    0.00   0.00   0.00
sdb               0.00     0.00    0.00    0.00     0.00     0.00     0.00     0.00    0.00    0.00    0.00   0.00   0.00
sdd               0.00     0.00    0.00    0.00     0.00     0.00     0.00     0.00    0.00    0.00    0.00   0.00   0.00
md0               0.00     0.00    0.00    0.00     0.00     0.00     0.00     0.00    0.00    0.00    0.00   0.00   0.00

