Linux 4.17.2 (bench2) 	08/05/2018 	_x86_64_	(32 CPU)

avg-cpu:  %user   %nice %system %iowait  %steal   %idle
           1.87    0.00    1.61    1.69    0.00   94.83

Device:         rrqm/s   wrqm/s     r/s     w/s    rkB/s    wkB/s avgrq-sz avgqu-sz   await r_await w_await  svctm  %util
nvme0n1        1010.70     4.89 20807.69  500.11 115286.60 11326.39    11.88     1.38    0.05    0.03    0.70   0.02  40.08
sda               0.13     0.83   14.30    0.59   164.60     8.62    23.26     0.00    0.33    0.32    0.43   0.07   0.11
sdc              34.77     0.17  127.86    0.30  1895.10    93.78    31.04     0.20    1.55    0.66  381.84   0.89  11.37
sdb              32.82     0.18  129.78    0.32  1893.28    93.61    30.54     0.61    4.71    3.71  413.03   0.83  10.83
sdd              34.96     0.16  127.42    0.25  1891.32    93.30    31.09     0.92    7.21    5.44  909.23   0.89  11.42
md0               0.00     0.00  490.34    1.16  7035.85   338.32    30.01     0.00    0.00    0.00    0.00   0.00   0.00

avg-cpu:  %user   %nice %system %iowait  %steal   %idle
           2.64    0.00    1.27    1.25    0.00   94.84

Device:         rrqm/s   wrqm/s     r/s     w/s    rkB/s    wkB/s avgrq-sz avgqu-sz   await r_await w_await  svctm  %util
nvme0n1           0.00     0.00 64560.85    0.00 258243.40     0.00     8.00     1.00    0.01    0.01    0.00   0.02  99.97
sda               0.00     1.05    6.65    0.80    39.20     8.20    12.72     0.00    0.46    0.51    0.06   0.04   0.03
sdc               0.00     0.00    0.00    0.00     0.00     0.00     0.00     0.00    0.00    0.00    0.00   0.00   0.00
sdb               0.00     0.00    0.00    0.00     0.00     0.00     0.00     0.00    0.00    0.00    0.00   0.00   0.00
sdd               0.00     0.00    0.00    0.00     0.00     0.00     0.00     0.00    0.00    0.00    0.00   0.00   0.00
md0               0.00     0.00    0.00    0.00     0.00     0.00     0.00     0.00    0.00    0.00    0.00   0.00   0.00

