Linux 4.17.2 (bench2) 	08/05/2018 	_x86_64_	(32 CPU)

avg-cpu:  %user   %nice %system %iowait  %steal   %idle
           1.87    0.00    1.63    1.69    0.00   94.81

Device:         rrqm/s   wrqm/s     r/s     w/s    rkB/s    wkB/s avgrq-sz avgqu-sz   await r_await w_await  svctm  %util
nvme0n1        1011.30     4.87 21164.46  498.49 117509.66 11289.72    11.89     1.39    0.05    0.03    0.70   0.02  40.27
sda               0.13     0.83   14.31    0.60   164.64     8.62    23.25     0.00    0.33    0.32    0.43   0.07   0.11
sdc              34.66     0.17  127.45    0.30  1888.96    93.48    31.04     0.20    1.55    0.66  381.84   0.89  11.33
sdb              32.71     0.18  129.36    0.32  1887.15    93.31    30.54     0.61    4.71    3.71  413.03   0.83  10.80
sdd              34.85     0.16  127.01    0.25  1885.19    93.00    31.09     0.92    7.21    5.44  909.23   0.89  11.39
md0               0.00     0.00  488.76    1.16  7013.07   337.22    30.01     0.00    0.00    0.00    0.00   0.00   0.00

avg-cpu:  %user   %nice %system %iowait  %steal   %idle
           2.21    0.00    2.77    0.66    0.00   94.35

Device:         rrqm/s   wrqm/s     r/s     w/s    rkB/s    wkB/s avgrq-sz avgqu-sz   await r_await w_await  svctm  %util
nvme0n1           0.00     0.00 33839.05    0.00 135356.20     0.00     8.00     1.00    0.01    0.01    0.00   0.03  99.99
sda               0.00     1.00    4.85    0.45    32.00     6.60    14.57     0.00    0.17    0.16    0.22   0.06   0.03
sdc               0.00     0.00    0.00    0.00     0.00     0.00     0.00     0.00    0.00    0.00    0.00   0.00   0.00
sdb               0.00     0.00    0.00    0.00     0.00     0.00     0.00     0.00    0.00    0.00    0.00   0.00   0.00
sdd               0.00     0.00    0.00    0.00     0.00     0.00     0.00     0.00    0.00    0.00    0.00   0.00   0.00
md0               0.00     0.00    0.00    0.00     0.00     0.00     0.00     0.00    0.00    0.00    0.00   0.00   0.00

