Linux 4.17.2 (bench2) 	08/05/2018 	_x86_64_	(32 CPU)

avg-cpu:  %user   %nice %system %iowait  %steal   %idle
           1.87    0.00    1.59    1.68    0.00   94.85

Device:         rrqm/s   wrqm/s     r/s     w/s    rkB/s    wkB/s avgrq-sz avgqu-sz   await r_await w_await  svctm  %util
nvme0n1         995.25     4.91 20374.55  501.76 113016.08 11363.76    11.92     1.37    0.05    0.03    0.70   0.02  39.88
sda               0.12     0.83   14.27    0.59   164.50     8.61    23.29     0.00    0.33    0.32    0.43   0.07   0.10
sdc              34.88     0.17  128.28    0.30  1901.35    94.09    31.04     0.20    1.55    0.66  381.84   0.89  11.41
sdb              32.92     0.18  130.21    0.32  1899.53    93.92    30.54     0.61    4.71    3.71  413.03   0.83  10.87
sdd              35.08     0.16  127.84    0.25  1897.56    93.61    31.09     0.92    7.21    5.44  909.23   0.89  11.46
md0               0.00     0.00  491.96    1.17  7059.07   339.43    30.01     0.00    0.00    0.00    0.00   0.00   0.00

avg-cpu:  %user   %nice %system %iowait  %steal   %idle
           2.44    0.00    1.61    1.29    0.00   94.66

Device:         rrqm/s   wrqm/s     r/s     w/s    rkB/s    wkB/s avgrq-sz avgqu-sz   await r_await w_await  svctm  %util
nvme0n1           0.00     0.00 45096.30    0.00 774873.40     0.00    34.37     1.11    0.01    0.01    0.00   0.02 100.00
sda               0.00     1.00    0.15    1.15     5.00     9.40    22.15     0.00    0.12    0.33    0.09   0.12   0.01
sdc               0.00     0.00    0.00    0.00     0.00     0.00     0.00     0.00    0.00    0.00    0.00   0.00   0.00
sdb               0.00     0.00    0.00    0.00     0.00     0.00     0.00     0.00    0.00    0.00    0.00   0.00   0.00
sdd               0.00     0.00    0.00    0.00     0.00     0.00     0.00     0.00    0.00    0.00    0.00   0.00   0.00
md0               0.00     0.00    0.00    0.00     0.00     0.00     0.00     0.00    0.00    0.00    0.00   0.00   0.00

