Linux 4.17.2 (bench2) 	08/05/2018 	_x86_64_	(32 CPU)

avg-cpu:  %user   %nice %system %iowait  %steal   %idle
           1.88    0.00    1.59    1.68    0.00   94.86

Device:         rrqm/s   wrqm/s     r/s     w/s    rkB/s    wkB/s avgrq-sz avgqu-sz   await r_await w_await  svctm  %util
nvme0n1         996.51     4.91 20254.46  502.44 112254.94 11379.17    11.91     1.37    0.05    0.03    0.70   0.02  39.80
sda               0.12     0.83   14.27    0.59   164.48     8.61    23.29     0.00    0.33    0.32    0.43   0.07   0.10
sdc              34.93     0.17  128.46    0.30  1903.93    94.22    31.04     0.20    1.55    0.66  381.84   0.89  11.42
sdb              32.97     0.18  130.38    0.32  1902.10    94.05    30.54     0.62    4.71    3.71  413.03   0.83  10.88
sdd              35.12     0.16  128.01    0.25  1900.13    93.73    31.09     0.93    7.21    5.44  909.23   0.89  11.48
md0               0.00     0.00  492.63    1.17  7068.64   339.89    30.01     0.00    0.00    0.00    0.00   0.00   0.00

avg-cpu:  %user   %nice %system %iowait  %steal   %idle
           0.30    0.00    1.56    1.03    0.00   97.11

Device:         rrqm/s   wrqm/s     r/s     w/s    rkB/s    wkB/s avgrq-sz avgqu-sz   await r_await w_await  svctm  %util
nvme0n1           0.00     0.00 54002.70    0.00 216202.00     0.00     8.01     1.00    0.01    0.01    0.00   0.02 100.00
sda               0.00     1.05    0.20    0.80     5.20     9.40    29.20     0.00    0.15    0.25    0.12   0.15   0.01
sdc               0.00     0.00    0.00    0.00     0.00     0.00     0.00     0.00    0.00    0.00    0.00   0.00   0.00
sdb               0.00     0.00    0.00    0.00     0.00     0.00     0.00     0.00    0.00    0.00    0.00   0.00   0.00
sdd               0.00     0.00    0.00    0.00     0.00     0.00     0.00     0.00    0.00    0.00    0.00   0.00   0.00
md0               0.00     0.00    0.00    0.00     0.00     0.00     0.00     0.00    0.00    0.00    0.00   0.00   0.00

