Linux 4.17.2 (bench2) 	08/05/2018 	_x86_64_	(32 CPU)

avg-cpu:  %user   %nice %system %iowait  %steal   %idle
           1.87    0.00    1.63    1.69    0.00   94.81

Device:         rrqm/s   wrqm/s     r/s     w/s    rkB/s    wkB/s avgrq-sz avgqu-sz   await r_await w_await  svctm  %util
nvme0n1        1011.46     4.88 21143.33  498.58 117337.74 11291.70    11.89     1.39    0.05    0.03    0.70   0.02  40.26
sda               0.13     0.83   14.31    0.60   164.64     8.62    23.25     0.00    0.33    0.32    0.43   0.07   0.11
sdc              34.66     0.17  127.47    0.30  1889.30    93.50    31.04     0.20    1.55    0.66  381.84   0.89  11.34
sdb              32.71     0.18  129.38    0.32  1887.48    93.33    30.54     0.61    4.71    3.71  413.03   0.83  10.80
sdd              34.85     0.16  127.03    0.25  1885.52    93.01    31.09     0.92    7.21    5.44  909.23   0.89  11.39
md0               0.00     0.00  488.84    1.16  7014.31   337.28    30.01     0.00    0.00    0.00    0.00   0.00   0.00

avg-cpu:  %user   %nice %system %iowait  %steal   %idle
           0.54    0.00   14.91    0.00    0.00   84.55

Device:         rrqm/s   wrqm/s     r/s     w/s    rkB/s    wkB/s avgrq-sz avgqu-sz   await r_await w_await  svctm  %util
nvme0n1           0.00     0.00 309112.20    0.00 1236448.80     0.00     8.00     8.98    0.02    0.02    0.00   0.00 103.41
sda               0.00     1.00    0.20    1.30     5.20    11.40    22.13     0.00    0.07    0.25    0.04   0.07   0.01
sdc               0.00     0.00    0.00    0.00     0.00     0.00     0.00     0.00    0.00    0.00    0.00   0.00   0.00
sdb               0.00     0.00    0.00    0.00     0.00     0.00     0.00     0.00    0.00    0.00    0.00   0.00   0.00
sdd               0.00     0.00    0.00    0.00     0.00     0.00     0.00     0.00    0.00    0.00    0.00   0.00   0.00
md0               0.00     0.00    0.00    0.00     0.00     0.00     0.00     0.00    0.00    0.00    0.00   0.00   0.00

