Linux 4.17.2 (bench2) 	08/05/2018 	_x86_64_	(32 CPU)

avg-cpu:  %user   %nice %system %iowait  %steal   %idle
           1.87    0.00    1.62    1.69    0.00   94.82

Device:         rrqm/s   wrqm/s     r/s     w/s    rkB/s    wkB/s avgrq-sz avgqu-sz   await r_await w_await  svctm  %util
nvme0n1        1013.12     4.88 20931.88  499.46 116033.94 11311.64    11.88     1.38    0.05    0.03    0.70   0.02  40.16
sda               0.13     0.83   14.30    0.60   164.63     8.62    23.26     0.00    0.33    0.32    0.43   0.07   0.11
sdc              34.72     0.17  127.69    0.30  1892.63    93.66    31.04     0.20    1.55    0.66  381.84   0.89  11.36
sdb              32.77     0.18  129.61    0.32  1890.81    93.49    30.54     0.61    4.71    3.71  413.03   0.83  10.82
sdd              34.92     0.16  127.25    0.25  1888.85    93.18    31.09     0.92    7.21    5.44  909.23   0.89  11.41
md0               0.00     0.00  489.71    1.16  7026.69   337.88    30.01     0.00    0.00    0.00    0.00   0.00   0.00

avg-cpu:  %user   %nice %system %iowait  %steal   %idle
           1.73    0.00   23.91    0.00    0.00   74.36

Device:         rrqm/s   wrqm/s     r/s     w/s    rkB/s    wkB/s avgrq-sz avgqu-sz   await r_await w_await  svctm  %util
nvme0n1           0.00     0.00 215777.00    0.00 863108.00     0.00     8.00     4.11    0.01    0.01    0.00   0.00 104.60
sda               0.00     0.00    1.00    0.00     8.00     0.00    16.00     0.00    1.00    1.00    0.00   1.00   0.10
sdc               0.00     0.00    0.00    0.00     0.00     0.00     0.00     0.00    0.00    0.00    0.00   0.00   0.00
sdb               0.00     0.00    0.00    0.00     0.00     0.00     0.00     0.00    0.00    0.00    0.00   0.00   0.00
sdd               0.00     0.00    0.00    0.00     0.00     0.00     0.00     0.00    0.00    0.00    0.00   0.00   0.00
md0               0.00     0.00    0.00    0.00     0.00     0.00     0.00     0.00    0.00    0.00    0.00   0.00   0.00

avg-cpu:  %user   %nice %system %iowait  %steal   %idle
           1.77    0.00   25.70    0.00    0.00   72.53

Device:         rrqm/s   wrqm/s     r/s     w/s    rkB/s    wkB/s avgrq-sz avgqu-sz   await r_await w_await  svctm  %util
nvme0n1           0.00     0.00 210919.00    0.00 843676.00     0.00     8.00     3.79    0.01    0.01    0.00   0.01 105.50
sda               0.00     8.00    0.00    2.00     0.00    40.00    40.00     0.00    0.00    0.00    0.00   0.00   0.00
sdc               0.00     0.00    0.00    0.00     0.00     0.00     0.00     0.00    0.00    0.00    0.00   0.00   0.00
sdb               0.00     0.00    0.00    0.00     0.00     0.00     0.00     0.00    0.00    0.00    0.00   0.00   0.00
sdd               0.00     0.00    0.00    0.00     0.00     0.00     0.00     0.00    0.00    0.00    0.00   0.00   0.00
md0               0.00     0.00    0.00    0.00     0.00     0.00     0.00     0.00    0.00    0.00    0.00   0.00   0.00

