Linux 4.17.2 (bench2) 	08/05/2018 	_x86_64_	(32 CPU)

avg-cpu:  %user   %nice %system %iowait  %steal   %idle
           1.87    0.00    1.62    1.69    0.00   94.82

Device:         rrqm/s   wrqm/s     r/s     w/s    rkB/s    wkB/s avgrq-sz avgqu-sz   await r_await w_await  svctm  %util
nvme0n1        1012.23     4.88 21041.29  498.99 116699.43 11300.95    11.88     1.38    0.05    0.03    0.70   0.02  40.21
sda               0.13     0.83   14.30    0.60   164.63     8.62    23.25     0.00    0.33    0.32    0.43   0.07   0.11
sdc              34.69     0.17  127.57    0.30  1890.84    93.57    31.04     0.20    1.55    0.66  381.84   0.89  11.35
sdb              32.74     0.18  129.49    0.32  1889.03    93.40    30.54     0.61    4.71    3.71  413.03   0.83  10.81
sdd              34.88     0.16  127.13    0.25  1887.07    93.09    31.09     0.92    7.21    5.44  909.23   0.89  11.40
md0               0.00     0.00  489.24    1.16  7020.05   337.56    30.01     0.00    0.00    0.00    0.00   0.00   0.00

avg-cpu:  %user   %nice %system %iowait  %steal   %idle
           0.41    0.00    2.70    0.00    0.00   96.89

Device:         rrqm/s   wrqm/s     r/s     w/s    rkB/s    wkB/s avgrq-sz avgqu-sz   await r_await w_await  svctm  %util
nvme0n1           0.00     0.00 272618.35    0.00 1090473.40     0.00     8.00     2.45    0.01    0.01    0.00   0.00 100.00
sda               0.00     1.15    0.15    1.30     5.00    11.80    23.17     0.00    0.03    0.33    0.00   0.03   0.01
sdc               0.00     0.00    0.00    0.00     0.00     0.00     0.00     0.00    0.00    0.00    0.00   0.00   0.00
sdb               0.00     0.00    0.00    0.00     0.00     0.00     0.00     0.00    0.00    0.00    0.00   0.00   0.00
sdd               0.00     0.00    0.00    0.00     0.00     0.00     0.00     0.00    0.00    0.00    0.00   0.00   0.00
md0               0.00     0.00    0.00    0.00     0.00     0.00     0.00     0.00    0.00    0.00    0.00   0.00   0.00

