Linux 4.17.2 (bench2) 	08/05/2018 	_x86_64_	(32 CPU)

avg-cpu:  %user   %nice %system %iowait  %steal   %idle
           1.87    0.00    1.63    1.69    0.00   94.81

Device:         rrqm/s   wrqm/s     r/s     w/s    rkB/s    wkB/s avgrq-sz avgqu-sz   await r_await w_await  svctm  %util
nvme0n1        1013.07     4.87 21188.31  498.33 117602.85 11286.06    11.89     1.39    0.05    0.03    0.70   0.02  40.29
sda               0.13     0.83   14.31    0.60   164.65     8.62    23.25     0.00    0.33    0.32    0.43   0.07   0.11
sdc              34.65     0.17  127.40    0.30  1888.35    93.45    31.04     0.20    1.55    0.66  381.84   0.89  11.33
sdb              32.70     0.18  129.32    0.32  1886.54    93.28    30.54     0.61    4.71    3.71  413.03   0.83  10.80
sdd              34.84     0.16  126.97    0.25  1884.58    92.97    31.09     0.92    7.21    5.44  909.23   0.89  11.38
md0               0.00     0.00  488.60    1.16  7010.80   337.11    30.01     0.00    0.00    0.00    0.00   0.00   0.00

avg-cpu:  %user   %nice %system %iowait  %steal   %idle
           0.11    0.00    0.84    1.80    0.00   97.24

Device:         rrqm/s   wrqm/s     r/s     w/s    rkB/s    wkB/s avgrq-sz avgqu-sz   await r_await w_await  svctm  %util
nvme0n1           0.00     0.00 88970.00    0.00 355880.00     0.00     8.00     1.00    0.01    0.01    0.00   0.01  99.99
sda               0.35     1.00    5.45    1.65    35.80    11.40    13.30     0.00    0.07    0.09    0.00   0.02   0.01
sdc               0.00     0.00    0.00    0.00     0.00     0.00     0.00     0.00    0.00    0.00    0.00   0.00   0.00
sdb               0.00     0.00    0.00    0.00     0.00     0.00     0.00     0.00    0.00    0.00    0.00   0.00   0.00
sdd               0.00     0.00    0.00    0.00     0.00     0.00     0.00     0.00    0.00    0.00    0.00   0.00   0.00
md0               0.00     0.00    0.00    0.00     0.00     0.00     0.00     0.00    0.00    0.00    0.00   0.00   0.00

