Linux 4.17.2 (bench2) 	08/05/2018 	_x86_64_	(32 CPU)

avg-cpu:  %user   %nice %system %iowait  %steal   %idle
           1.87    0.00    1.65    1.70    0.00   94.78

Device:         rrqm/s   wrqm/s     r/s     w/s    rkB/s    wkB/s avgrq-sz avgqu-sz   await r_await w_await  svctm  %util
nvme0n1        1029.16     4.85 21690.06  496.32 120271.57 11240.41    11.86     1.40    0.05    0.03    0.70   0.02  40.53
sda               0.13     0.83   14.33    0.60   164.73     8.62    23.23     0.00    0.33    0.32    0.42   0.07   0.11
sdc              34.51     0.17  126.89    0.30  1880.71    93.07    31.04     0.20    1.55    0.66  381.84   0.89  11.28
sdb              32.57     0.18  128.79    0.32  1878.91    92.90    30.54     0.61    4.71    3.71  413.03   0.83  10.75
sdd              34.70     0.16  126.45    0.25  1876.96    92.59    31.09     0.91    7.21    5.44  909.23   0.89  11.34
md0               0.00     0.00  486.62    1.15  6982.44   335.75    30.01     0.00    0.00    0.00    0.00   0.00   0.00

avg-cpu:  %user   %nice %system %iowait  %steal   %idle
           0.63    0.00   13.38    0.00    0.00   85.99

Device:         rrqm/s   wrqm/s     r/s     w/s    rkB/s    wkB/s avgrq-sz avgqu-sz   await r_await w_await  svctm  %util
nvme0n1           0.00     0.00 376197.10    0.00 1504788.40     0.00     8.00    80.90    0.16    0.16    0.00   0.00 111.35
sda               0.00     1.00    3.00    1.15    27.00     9.40    17.54     0.00    0.27    0.35    0.04   0.07   0.03
sdc               0.00     0.00    0.00    0.00     0.00     0.00     0.00     0.00    0.00    0.00    0.00   0.00   0.00
sdb               0.00     0.00    0.00    0.00     0.00     0.00     0.00     0.00    0.00    0.00    0.00   0.00   0.00
sdd               0.00     0.00    0.00    0.00     0.00     0.00     0.00     0.00    0.00    0.00    0.00   0.00   0.00
md0               0.00     0.00    0.00    0.00     0.00     0.00     0.00     0.00    0.00    0.00    0.00   0.00   0.00

