Linux 4.17.2 (bench2) 	08/05/2018 	_x86_64_	(32 CPU)

avg-cpu:  %user   %nice %system %iowait  %steal   %idle
           1.88    0.00    1.59    1.68    0.00   94.85

Device:         rrqm/s   wrqm/s     r/s     w/s    rkB/s    wkB/s avgrq-sz avgqu-sz   await r_await w_await  svctm  %util
nvme0n1         995.54     4.91 20336.01  501.93 112753.05 11367.53    11.91     1.37    0.05    0.03    0.70   0.02  39.86
sda               0.12     0.83   14.27    0.59   164.49     8.61    23.29     0.00    0.33    0.32    0.43   0.07   0.10
sdc              34.90     0.17  128.32    0.30  1901.98    94.12    31.04     0.20    1.55    0.66  381.84   0.89  11.41
sdb              32.93     0.18  130.25    0.32  1900.16    93.95    30.54     0.62    4.71    3.71  413.03   0.83  10.87
sdd              35.09     0.16  127.88    0.25  1898.19    93.64    31.09     0.92    7.21    5.44  909.23   0.89  11.46
md0               0.00     0.00  492.13    1.17  7061.41   339.55    30.01     0.00    0.00    0.00    0.00   0.00   0.00

avg-cpu:  %user   %nice %system %iowait  %steal   %idle
           1.86    0.00   19.09    3.82    0.00   75.24

Device:         rrqm/s   wrqm/s     r/s     w/s    rkB/s    wkB/s avgrq-sz avgqu-sz   await r_await w_await  svctm  %util
nvme0n1           0.00     0.00 143609.00    0.00 786208.00     0.00    10.95     3.24    0.01    0.01    0.00   0.01 102.10
sda               0.00     0.00    1.00    0.00     8.00     0.00    16.00     0.00    1.00    1.00    0.00   1.00   0.10
sdc               0.00     0.00    0.00    0.00     0.00     0.00     0.00     0.00    0.00    0.00    0.00   0.00   0.00
sdb               0.00     0.00    0.00    0.00     0.00     0.00     0.00     0.00    0.00    0.00    0.00   0.00   0.00
sdd               0.00     0.00    0.00    0.00     0.00     0.00     0.00     0.00    0.00    0.00    0.00   0.00   0.00
md0               0.00     0.00    0.00    0.00     0.00     0.00     0.00     0.00    0.00    0.00    0.00   0.00   0.00

avg-cpu:  %user   %nice %system %iowait  %steal   %idle
           1.85    0.00   19.79    3.77    0.00   74.59

Device:         rrqm/s   wrqm/s     r/s     w/s    rkB/s    wkB/s avgrq-sz avgqu-sz   await r_await w_await  svctm  %util
nvme0n1           0.00     0.00 143255.00    0.00 787672.00     0.00    11.00     3.22    0.01    0.01    0.00   0.01 102.20
sda               0.00     0.00    0.00    0.00     0.00     0.00     0.00     0.00    0.00    0.00    0.00   0.00   0.00
sdc               0.00     0.00    0.00    0.00     0.00     0.00     0.00     0.00    0.00    0.00    0.00   0.00   0.00
sdb               0.00     0.00    0.00    0.00     0.00     0.00     0.00     0.00    0.00    0.00    0.00   0.00   0.00
sdd               0.00     0.00    0.00    0.00     0.00     0.00     0.00     0.00    0.00    0.00    0.00   0.00   0.00
md0               0.00     0.00    0.00    0.00     0.00     0.00     0.00     0.00    0.00    0.00    0.00   0.00   0.00

