Linux 4.17.2 (bench2) 	08/05/2018 	_x86_64_	(32 CPU)

avg-cpu:  %user   %nice %system %iowait  %steal   %idle
           1.87    0.00    1.62    1.69    0.00   94.82

Device:         rrqm/s   wrqm/s     r/s     w/s    rkB/s    wkB/s avgrq-sz avgqu-sz   await r_await w_await  svctm  %util
nvme0n1        1012.95     4.88 20951.73  499.38 116137.62 11309.74    11.88     1.38    0.05    0.03    0.70   0.02  40.17
sda               0.13     0.83   14.30    0.60   164.63     8.62    23.26     0.00    0.33    0.32    0.43   0.07   0.11
sdc              34.72     0.17  127.67    0.30  1892.31    93.64    31.04     0.20    1.55    0.66  381.84   0.89  11.35
sdb              32.77     0.18  129.59    0.32  1890.50    93.48    30.54     0.61    4.71    3.71  413.03   0.83  10.82
sdd              34.91     0.16  127.23    0.25  1888.54    93.16    31.09     0.92    7.21    5.44  909.23   0.89  11.41
md0               0.00     0.00  489.62    1.16  7025.51   337.82    30.01     0.00    0.00    0.00    0.00   0.00   0.00

avg-cpu:  %user   %nice %system %iowait  %steal   %idle
           0.67    0.00    6.16    5.52    0.00   87.65

Device:         rrqm/s   wrqm/s     r/s     w/s    rkB/s    wkB/s avgrq-sz avgqu-sz   await r_await w_await  svctm  %util
nvme0n1           0.00     0.00 154621.00    0.00 1343572.00     0.00    17.38     3.80    0.02    0.02    0.00   0.01 101.30
sda               0.00     8.00    1.00    1.00     8.00    40.00    48.00     0.00    0.50    0.00    1.00   0.50   0.10
sdc               0.00     0.00    0.00    0.00     0.00     0.00     0.00     0.00    0.00    0.00    0.00   0.00   0.00
sdb               0.00     0.00    0.00    0.00     0.00     0.00     0.00     0.00    0.00    0.00    0.00   0.00   0.00
sdd               0.00     0.00    0.00    0.00     0.00     0.00     0.00     0.00    0.00    0.00    0.00   0.00   0.00
md0               0.00     0.00    0.00    0.00     0.00     0.00     0.00     0.00    0.00    0.00    0.00   0.00   0.00

