type: fadvise
filename: /mnt/raid/prefetch/prefetch-131072
I/O mode: BUFFERED
workload: SEQUENTIAL
duration: 20
queue size: 1024
test mode: WARMUP
file size: 137438953472
file pages: 33554432
start probability: 0.010
continue probability: 0.100
processed 2048 requests 1083.46 r/s elapsed 1.89
elapsed 1.89 : warmup interval speed 1083.46 previous 0.00
processed 3072 requests 1058.45 r/s elapsed 2.90
elapsed 2.90 : warmup interval speed 1011.73 previous 1083.46
within 5% of the preceding interval, warmup terminating
TOTAL: 3072 requests 1058.45 r/s elapsed 2.90
