type: fadvise
filename: /mnt/raid/prefetch/prefetch-131072
I/O mode: BUFFERED
workload: SEQUENTIAL
duration: 20
queue size: 128
test mode: WARMUP
file size: 137438953472
file pages: 33554432
start probability: 0.010
continue probability: 0.900
processed 5376 requests 5267.05 r/s elapsed 1.02
elapsed 1.02 : warmup interval speed 5267.05 previous 0.00
processed 10624 requests 5283.08 r/s elapsed 2.01
elapsed 2.01 : warmup interval speed 5299.60 previous 5267.05
within 5% of the preceding interval, warmup terminating
TOTAL: 10624 requests 5283.08 r/s elapsed 2.01
