type: POSIX aio
filename: /mnt/raid/prefetch/prefetch-131072
I/O mode: DIRECT
workload: SEQUENTIAL
duration: 20
threads: 1
queue size: 8
test mode: TEST
file size: 137438953472
file pages: 33554432
start probability: 0.010
continue probability: 0.500
processed 784 requests 762.74 r/s elapsed 1.03
processed 1744 requests 871.12 r/s elapsed 2.00
processed 2664 requests 887.88 r/s elapsed 3.00
processed 3624 requests 905.68 r/s elapsed 4.00
processed 4456 requests 890.47 r/s elapsed 5.00
processed 5344 requests 889.93 r/s elapsed 6.00
processed 6040 requests 859.37 r/s elapsed 7.03
processed 6800 requests 847.98 r/s elapsed 8.02
processed 7600 requests 843.66 r/s elapsed 9.01
processed 8456 requests 844.52 r/s elapsed 10.01
processed 9336 requests 848.73 r/s elapsed 11.00
processed 10240 requests 853.09 r/s elapsed 12.00
processed 11128 requests 855.55 r/s elapsed 13.01
processed 12048 requests 859.86 r/s elapsed 14.01
processed 12912 requests 860.75 r/s elapsed 15.00
processed 13704 requests 856.07 r/s elapsed 16.01
processed 14584 requests 857.69 r/s elapsed 17.00
processed 15392 requests 854.58 r/s elapsed 18.01
processed 16360 requests 860.94 r/s elapsed 19.00
processed 17272 requests 862.93 r/s elapsed 20.02
TOTAL: 17272 requests 862.93 r/s elapsed 20.02
