type: POSIX aio
filename: /mnt/raid/prefetch/prefetch-131072
I/O mode: BUFFERED
workload: RANDOM
duration: 20
threads: 32
queue size: 1024
test mode: TEST
file size: 137438953472
file pages: 33554432
processed 1024 requests 105.94 r/s elapsed 9.67
processed 2048 requests 105.37 r/s elapsed 19.44
processed 3072 requests 105.89 r/s elapsed 29.01
TOTAL: 3072 requests 105.89 r/s elapsed 29.01
