type: POSIX aio
filename: /mnt/raid/prefetch/prefetch-131072
I/O mode: BUFFERED
workload: SEQUENTIAL
duration: 20
threads: 1
queue size: 8
test mode: TEST
file size: 137438953472
file pages: 33554432
start probability: 0.100
continue probability: 0.100
processed 6600 requests 6592.54 r/s elapsed 1.00
processed 13856 requests 6919.78 r/s elapsed 2.00
processed 20712 requests 6902.69 r/s elapsed 3.00
processed 27072 requests 6767.51 r/s elapsed 4.00
processed 34176 requests 6834.65 r/s elapsed 5.00
processed 39856 requests 6639.81 r/s elapsed 6.00
processed 47120 requests 6730.24 r/s elapsed 7.00
processed 53680 requests 6709.67 r/s elapsed 8.00
processed 60192 requests 6685.83 r/s elapsed 9.00
processed 67280 requests 6727.98 r/s elapsed 10.00
processed 74352 requests 6759.25 r/s elapsed 11.00
processed 81552 requests 6795.69 r/s elapsed 12.00
processed 88656 requests 6819.51 r/s elapsed 13.00
processed 95864 requests 6847.24 r/s elapsed 14.00
processed 103056 requests 6869.45 r/s elapsed 15.00
processed 109872 requests 6866.20 r/s elapsed 16.00
processed 117008 requests 6882.79 r/s elapsed 17.00
processed 124168 requests 6897.51 r/s elapsed 18.00
processed 128736 requests 6775.55 r/s elapsed 19.00
processed 134656 requests 6732.55 r/s elapsed 20.00
TOTAL: 134656 requests 6732.55 r/s elapsed 20.00
