type: POSIX aio
filename: /mnt/raid/prefetch/prefetch-131072
I/O mode: BUFFERED
workload: SEQUENTIAL
duration: 20
threads: 8
queue size: 8
test mode: TEST
file size: 137438953472
file pages: 33554432
start probability: 0.100
continue probability: 0.900
processed 95704 requests 95218.29 r/s elapsed 1.01
processed 123384 requests 61681.27 r/s elapsed 2.00
processed 150904 requests 50270.55 r/s elapsed 3.00
processed 179040 requests 43882.55 r/s elapsed 4.08
processed 205424 requests 41069.50 r/s elapsed 5.00
processed 234680 requests 39108.02 r/s elapsed 6.00
processed 262288 requests 37422.25 r/s elapsed 7.01
processed 290448 requests 36305.82 r/s elapsed 8.00
processed 318952 requests 35428.90 r/s elapsed 9.00
processed 348384 requests 34834.03 r/s elapsed 10.00
processed 375144 requests 34094.93 r/s elapsed 11.00
processed 406248 requests 33842.37 r/s elapsed 12.00
processed 438424 requests 33699.49 r/s elapsed 13.01
processed 466472 requests 33319.41 r/s elapsed 14.00
processed 494176 requests 32945.01 r/s elapsed 15.00
processed 523216 requests 32697.20 r/s elapsed 16.00
processed 551920 requests 32465.49 r/s elapsed 17.00
processed 577616 requests 31935.61 r/s elapsed 18.09
processed 595192 requests 31325.03 r/s elapsed 19.00
processed 624736 requests 31234.90 r/s elapsed 20.00
TOTAL: 624736 requests 31234.90 r/s elapsed 20.00
