type: POSIX aio
filename: /mnt/raid/prefetch/prefetch-131072
I/O mode: BUFFERED
workload: SEQUENTIAL
duration: 20
threads: 32
queue size: 1024
test mode: TEST
file size: 137438953472
file pages: 33554432
start probability: 0.010
continue probability: 0.900
processed 6144 requests 5643.15 r/s elapsed 1.09
processed 11264 requests 4919.05 r/s elapsed 2.29
processed 14336 requests 4756.42 r/s elapsed 3.01
processed 19456 requests 4694.80 r/s elapsed 4.14
processed 23552 requests 4634.99 r/s elapsed 5.08
processed 27648 requests 4539.71 r/s elapsed 6.09
processed 31744 requests 4439.40 r/s elapsed 7.15
processed 35840 requests 4473.38 r/s elapsed 8.01
processed 39936 requests 4411.77 r/s elapsed 9.05
processed 44032 requests 4332.90 r/s elapsed 10.16
processed 48128 requests 4342.49 r/s elapsed 11.08
processed 52224 requests 4350.93 r/s elapsed 12.00
processed 57344 requests 4357.22 r/s elapsed 13.16
processed 61440 requests 4331.04 r/s elapsed 14.19
processed 65536 requests 4317.84 r/s elapsed 15.18
processed 69632 requests 4310.96 r/s elapsed 16.15
processed 73728 requests 4293.65 r/s elapsed 17.17
processed 77824 requests 4299.23 r/s elapsed 18.10
processed 81920 requests 4309.65 r/s elapsed 19.01
processed 87040 requests 4306.28 r/s elapsed 20.21
TOTAL: 87040 requests 4306.28 r/s elapsed 20.21
