type: POSIX aio
filename: /mnt/raid/prefetch/prefetch-131072
I/O mode: BUFFERED
workload: SEQUENTIAL
duration: 20
threads: 16
queue size: 128
test mode: WARMUP
file size: 137438953472
file pages: 33554432
start probability: 0.010
continue probability: 0.100
processed 512 requests 493.82 r/s elapsed 1.04
elapsed 1.04 : warmup interval speed 493.82 previous 0.00
processed 1024 requests 481.01 r/s elapsed 2.13
elapsed 2.13 : warmup interval speed 468.85 previous 493.82
within 5% of the preceding interval, warmup terminating
TOTAL: 1024 requests 481.01 r/s elapsed 2.13
