type: POSIX aio
filename: /mnt/raid/prefetch/prefetch-131072
I/O mode: BUFFERED
workload: RANDOM
duration: 20
threads: 32
queue size: 32
test mode: WARMUP
file size: 137438953472
file pages: 33554432
processed 128 requests 108.30 r/s elapsed 1.18
elapsed 1.18 : warmup interval speed 108.30 previous 0.00
processed 224 requests 105.26 r/s elapsed 2.13
elapsed 2.13 : warmup interval speed 101.46 previous 108.30
within 5% of the preceding interval, warmup terminating
TOTAL: 224 requests 105.26 r/s elapsed 2.13
