type: POSIX aio
filename: /mnt/raid/prefetch/prefetch-131072
I/O mode: DIRECT
workload: SEQUENTIAL
duration: 20
threads: 8
queue size: 8
test mode: TEST
file size: 137438953472
file pages: 33554432
start probability: 0.010
continue probability: 0.100
processed 488 requests 487.22 r/s elapsed 1.00
processed 976 requests 481.56 r/s elapsed 2.03
processed 1472 requests 488.96 r/s elapsed 3.01
processed 1928 requests 481.87 r/s elapsed 4.00
processed 2392 requests 476.49 r/s elapsed 5.02
processed 2832 requests 470.15 r/s elapsed 6.02
processed 3248 requests 462.85 r/s elapsed 7.02
processed 3648 requests 455.26 r/s elapsed 8.01
processed 4136 requests 459.17 r/s elapsed 9.01
processed 4616 requests 460.93 r/s elapsed 10.01
processed 5064 requests 460.28 r/s elapsed 11.00
processed 5608 requests 466.43 r/s elapsed 12.02
processed 6064 requests 466.24 r/s elapsed 13.01
processed 6568 requests 468.86 r/s elapsed 14.01
processed 7040 requests 469.09 r/s elapsed 15.01
processed 7560 requests 472.25 r/s elapsed 16.01
processed 8040 requests 472.42 r/s elapsed 17.02
processed 8576 requests 475.54 r/s elapsed 18.03
processed 9032 requests 475.21 r/s elapsed 19.01
processed 9536 requests 476.29 r/s elapsed 20.02
TOTAL: 9536 requests 476.29 r/s elapsed 20.02
