type: POSIX aio
filename: /mnt/raid/prefetch/prefetch-131072
I/O mode: DIRECT
workload: SEQUENTIAL
duration: 20
threads: 32
queue size: 1024
test mode: TEST
file size: 137438953472
file pages: 33554432
start probability: 0.100
continue probability: 0.500
processed 7168 requests 6409.60 r/s elapsed 1.12
processed 13312 requests 6486.35 r/s elapsed 2.05
processed 20480 requests 6531.23 r/s elapsed 3.14
processed 26624 requests 6563.48 r/s elapsed 4.06
processed 33792 requests 6572.25 r/s elapsed 5.14
processed 39936 requests 6567.53 r/s elapsed 6.08
processed 46080 requests 6499.79 r/s elapsed 7.09
processed 52224 requests 6501.07 r/s elapsed 8.03
processed 58368 requests 6459.83 r/s elapsed 9.04
processed 64512 requests 6423.41 r/s elapsed 10.04
processed 70656 requests 6414.42 r/s elapsed 11.02
processed 77824 requests 6431.74 r/s elapsed 12.10
processed 83968 requests 6407.60 r/s elapsed 13.10
processed 90112 requests 6414.43 r/s elapsed 14.05
processed 96256 requests 6383.87 r/s elapsed 15.08
processed 102400 requests 6393.62 r/s elapsed 16.02
processed 109568 requests 6410.13 r/s elapsed 17.09
processed 115712 requests 6424.47 r/s elapsed 18.01
processed 122880 requests 6435.51 r/s elapsed 19.09
processed 129024 requests 6438.96 r/s elapsed 20.04
TOTAL: 129024 requests 6438.96 r/s elapsed 20.04
