type: POSIX aio
filename: /mnt/raid/prefetch/prefetch-131072
I/O mode: BUFFERED
workload: SEQUENTIAL
duration: 20
threads: 32
queue size: 128
test mode: WARMUP
file size: 137438953472
file pages: 33554432
start probability: 0.100
continue probability: 0.500
processed 11008 requests 10899.20 r/s elapsed 1.01
elapsed 1.01 : warmup interval speed 10899.20 previous 0.00
processed 22656 requests 11322.07 r/s elapsed 2.00
elapsed 2.00 : warmup interval speed 11753.01 previous 10899.20
processed 34944 requests 11646.25 r/s elapsed 3.00
elapsed 3.00 : warmup interval speed 12295.33 previous 11753.01
within 5% of the preceding interval, warmup terminating
TOTAL: 34944 requests 11646.25 r/s elapsed 3.00
