type: POSIX aio
filename: /mnt/raid/prefetch/prefetch-131072
I/O mode: BUFFERED
workload: SEQUENTIAL
duration: 20
threads: 1
queue size: 8
test mode: WARMUP
file size: 137438953472
file pages: 33554432
start probability: 0.100
continue probability: 0.900
processed 28120 requests 28040.11 r/s elapsed 1.00
elapsed 1.00 : warmup interval speed 28040.11 previous 0.00
processed 59800 requests 29874.44 r/s elapsed 2.00
elapsed 2.00 : warmup interval speed 31716.09 previous 28040.11
processed 91112 requests 30286.81 r/s elapsed 3.01
elapsed 3.01 : warmup interval speed 31106.85 previous 31716.09
within 5% of the preceding interval, warmup terminating
TOTAL: 91112 requests 30286.81 r/s elapsed 3.01
