type: POSIX aio
filename: /mnt/raid/prefetch/prefetch-131072
I/O mode: BUFFERED
workload: SEQUENTIAL
duration: 20
threads: 8
queue size: 1024
test mode: TEST
file size: 137438953472
file pages: 33554432
start probability: 0.100
continue probability: 0.500
processed 13312 requests 12013.77 r/s elapsed 1.11
processed 24576 requests 11853.41 r/s elapsed 2.07
processed 37888 requests 12286.18 r/s elapsed 3.08
processed 48128 requests 11852.18 r/s elapsed 4.06
processed 58368 requests 11490.24 r/s elapsed 5.08
processed 67584 requests 11214.65 r/s elapsed 6.03
processed 78848 requests 11252.72 r/s elapsed 7.01
processed 90112 requests 11169.62 r/s elapsed 8.07
processed 100352 requests 11108.83 r/s elapsed 9.03
processed 111616 requests 11112.57 r/s elapsed 10.04
processed 122880 requests 11156.53 r/s elapsed 11.01
processed 135168 requests 11204.21 r/s elapsed 12.06
processed 146432 requests 11226.57 r/s elapsed 13.04
processed 157696 requests 11258.74 r/s elapsed 14.01
processed 169984 requests 11273.15 r/s elapsed 15.08
processed 181248 requests 11272.22 r/s elapsed 16.08
processed 192512 requests 11296.41 r/s elapsed 17.04
processed 203776 requests 11316.00 r/s elapsed 18.01
processed 210944 requests 11000.31 r/s elapsed 19.18
processed 221184 requests 11041.54 r/s elapsed 20.03
TOTAL: 221184 requests 11041.54 r/s elapsed 20.03
