type: POSIX aio
filename: /mnt/raid/prefetch/prefetch-131072
I/O mode: BUFFERED
workload: SEQUENTIAL
duration: 20
threads: 16
queue size: 128
test mode: WARMUP
file size: 137438953472
file pages: 33554432
start probability: 0.100
continue probability: 0.900
processed 29184 requests 29108.64 r/s elapsed 1.00
elapsed 1.00 : warmup interval speed 29108.64 previous 0.00
processed 60288 requests 30108.55 r/s elapsed 2.00
elapsed 2.00 : warmup interval speed 31111.28 previous 29108.64
processed 89984 requests 29936.97 r/s elapsed 3.01
elapsed 3.01 : warmup interval speed 29594.58 previous 31111.28
within 5% of the preceding interval, warmup terminating
TOTAL: 89984 requests 29936.97 r/s elapsed 3.01
