type: pthread aio
filename: /mnt/raid/prefetch/prefetch-131072
I/O mode: BUFFERED
workload: SEQUENTIAL
duration: 20
threads: 1
queue size: 8
test mode: TEST
file size: 137438953472
file pages: 33554432
start probability: 0.100
continue probability: 0.500
processed 11496 requests 11467.05 r/s elapsed 1.00
processed 23504 requests 11683.48 r/s elapsed 2.01
processed 38016 requests 12527.01 r/s elapsed 3.03
processed 50112 requests 12035.37 r/s elapsed 4.16
processed 60176 requests 11705.79 r/s elapsed 5.14
processed 70240 requests 11449.93 r/s elapsed 6.13
processed 80312 requests 11470.77 r/s elapsed 7.00
processed 91768 requests 11234.34 r/s elapsed 8.17
processed 101112 requests 11230.36 r/s elapsed 9.00
processed 112576 requests 11256.08 r/s elapsed 10.00
processed 123816 requests 11255.24 r/s elapsed 11.00
processed 135408 requests 11280.85 r/s elapsed 12.00
processed 146952 requests 11299.77 r/s elapsed 13.00
processed 158368 requests 11311.93 r/s elapsed 14.00
processed 169880 requests 11323.34 r/s elapsed 15.00
processed 181288 requests 11329.66 r/s elapsed 16.00
processed 193064 requests 11353.19 r/s elapsed 17.01
processed 204360 requests 11346.27 r/s elapsed 18.01
processed 215584 requests 11078.09 r/s elapsed 19.46
processed 221808 requests 11090.32 r/s elapsed 20.00
TOTAL: 221808 requests 11090.32 r/s elapsed 20.00
