type: pthread fadvise
filename: /mnt/raid/prefetch/prefetch-131072
I/O mode: BUFFERED
workload: SEQUENTIAL
duration: 20
threads: 16
queue size: 128
test mode: TEST
file size: 137438953472
file pages: 33554432
start probability: 0.100
continue probability: 0.100
processed 4096 requests 4029.56 r/s elapsed 1.02
processed 8064 requests 3949.48 r/s elapsed 2.04
processed 11904 requests 3837.34 r/s elapsed 3.10
processed 15360 requests 3741.13 r/s elapsed 4.11
processed 18816 requests 3699.69 r/s elapsed 5.09
processed 22272 requests 3677.50 r/s elapsed 6.06
processed 25856 requests 3630.36 r/s elapsed 7.12
processed 29056 requests 3628.48 r/s elapsed 8.01
processed 32768 requests 3621.80 r/s elapsed 9.05
processed 36224 requests 3589.36 r/s elapsed 10.09
processed 39680 requests 3600.24 r/s elapsed 11.02
processed 43264 requests 3600.34 r/s elapsed 12.02
processed 46848 requests 3599.49 r/s elapsed 13.02
processed 50432 requests 3564.13 r/s elapsed 14.15
processed 53760 requests 3576.55 r/s elapsed 15.03
processed 57344 requests 3574.44 r/s elapsed 16.04
processed 60800 requests 3573.08 r/s elapsed 17.02
processed 64384 requests 3571.24 r/s elapsed 18.03
processed 68096 requests 3579.92 r/s elapsed 19.02
processed 71680 requests 3574.50 r/s elapsed 20.05
TOTAL: 71680 requests 3574.50 r/s elapsed 20.05
