type: pthread fadvise
filename: /mnt/raid/prefetch/prefetch-131072
I/O mode: BUFFERED
workload: RANDOM
duration: 20
threads: 32
queue size: 1024
test mode: WARMUP
file size: 137438953472
file pages: 33554432
processed 1024 requests 369.79 r/s elapsed 2.77
elapsed 2.77 : warmup interval speed 369.79 previous 0.00
processed 2048 requests 381.64 r/s elapsed 5.37
elapsed 5.37 : warmup interval speed 394.29 previous 369.79
processed 3072 requests 379.87 r/s elapsed 8.09
elapsed 8.09 : warmup interval speed 376.38 previous 394.29
within 5% of the preceding interval, warmup terminating
TOTAL: 3072 requests 379.87 r/s elapsed 8.09
