type: pthread aio
filename: /mnt/raid/prefetch/prefetch-131072
I/O mode: BUFFERED
workload: SEQUENTIAL
duration: 20
threads: 16
queue size: 32
test mode: WARMUP
file size: 137438953472
file pages: 33554432
start probability: 0.010
continue probability: 0.500
processed 1024 requests 1013.28 r/s elapsed 1.01
elapsed 1.01 : warmup interval speed 1013.28 previous 0.00
processed 2080 requests 1031.44 r/s elapsed 2.02
elapsed 2.02 : warmup interval speed 1049.69 previous 1013.28
within 5% of the preceding interval, warmup terminating
TOTAL: 2080 requests 1031.44 r/s elapsed 2.02
