type: pthread aio
filename: /mnt/raid/prefetch/prefetch-131072
I/O mode: BUFFERED
workload: SEQUENTIAL
duration: 20
threads: 8
queue size: 32
test mode: TEST
file size: 137438953472
file pages: 33554432
start probability: 0.100
continue probability: 0.500
processed 11648 requests 11578.07 r/s elapsed 1.01
processed 23168 requests 9793.66 r/s elapsed 2.37
processed 29408 requests 8589.03 r/s elapsed 3.42
processed 34368 requests 7728.66 r/s elapsed 4.45
processed 38656 requests 7482.86 r/s elapsed 5.17
processed 44928 requests 7228.42 r/s elapsed 6.22
processed 50624 requests 6984.38 r/s elapsed 7.25
processed 55904 requests 6926.83 r/s elapsed 8.07
processed 62368 requests 6779.23 r/s elapsed 9.20
processed 67808 requests 6689.14 r/s elapsed 10.14
processed 73600 requests 6690.64 r/s elapsed 11.00
processed 80288 requests 6688.01 r/s elapsed 12.00
processed 86944 requests 6635.45 r/s elapsed 13.10
processed 92896 requests 6610.14 r/s elapsed 14.05
processed 99168 requests 6580.21 r/s elapsed 15.07
processed 105312 requests 6571.95 r/s elapsed 16.02
processed 111744 requests 6567.10 r/s elapsed 17.02
processed 118752 requests 6596.70 r/s elapsed 18.00
processed 125344 requests 6576.17 r/s elapsed 19.06
processed 131552 requests 6559.57 r/s elapsed 20.05
TOTAL: 131552 requests 6559.57 r/s elapsed 20.05
