type: pthread fadvise
filename: /mnt/raid/prefetch/prefetch-131072
I/O mode: BUFFERED
workload: SEQUENTIAL
duration: 20
threads: 16
queue size: 32
test mode: WARMUP
file size: 137438953472
file pages: 33554432
start probability: 0.100
continue probability: 0.100
processed 4256 requests 4247.43 r/s elapsed 1.00
elapsed 1.00 : warmup interval speed 4247.43 previous 0.00
processed 8928 requests 4424.92 r/s elapsed 2.02
elapsed 2.02 : warmup interval speed 4600.03 previous 4247.43
processed 13280 requests 4424.57 r/s elapsed 3.00
elapsed 3.00 : warmup interval speed 4423.86 previous 4600.03
within 5% of the preceding interval, warmup terminating
TOTAL: 13280 requests 4424.57 r/s elapsed 3.00
