type: pthread aio
filename: /mnt/raid/prefetch/prefetch-131072
I/O mode: BUFFERED
workload: SEQUENTIAL
duration: 20
threads: 1
queue size: 1024
test mode: TEST
file size: 137438953472
file pages: 33554432
start probability: 0.010
continue probability: 0.500
processed 1024 requests 929.93 r/s elapsed 1.10
processed 2048 requests 914.38 r/s elapsed 2.24
processed 3072 requests 930.57 r/s elapsed 3.30
processed 4096 requests 897.81 r/s elapsed 4.56
processed 5120 requests 868.04 r/s elapsed 5.90
processed 6144 requests 869.02 r/s elapsed 7.07
processed 7168 requests 858.34 r/s elapsed 8.35
processed 8192 requests 857.52 r/s elapsed 9.55
processed 9216 requests 863.54 r/s elapsed 10.67
processed 10240 requests 870.68 r/s elapsed 11.76
processed 11264 requests 883.35 r/s elapsed 12.75
processed 12288 requests 885.91 r/s elapsed 13.87
processed 13312 requests 891.68 r/s elapsed 14.93
processed 14336 requests 895.00 r/s elapsed 16.02
processed 15360 requests 896.95 r/s elapsed 17.12
processed 16384 requests 893.12 r/s elapsed 18.34
processed 17408 requests 891.47 r/s elapsed 19.53
processed 18432 requests 894.77 r/s elapsed 20.60
TOTAL: 18432 requests 894.77 r/s elapsed 20.60
