type: pthread aio
filename: /mnt/raid/prefetch/prefetch-131072
I/O mode: BUFFERED
workload: SEQUENTIAL
duration: 20
threads: 8
queue size: 8
test mode: WARMUP
file size: 137438953472
file pages: 33554432
start probability: 0.100
continue probability: 0.900
processed 25728 requests 25347.43 r/s elapsed 1.02
elapsed 1.02 : warmup interval speed 25347.43 previous 0.00
processed 50696 requests 25323.65 r/s elapsed 2.00
elapsed 2.00 : warmup interval speed 25299.19 previous 25347.43
within 5% of the preceding interval, warmup terminating
TOTAL: 50696 requests 25323.65 r/s elapsed 2.00
