type: pthread fadvise
filename: /mnt/raid/prefetch/prefetch-131072
I/O mode: BUFFERED
workload: RANDOM
duration: 20
threads: 1
queue size: 1024
test mode: TEST
file size: 137438953472
file pages: 33554432
processed 1024 requests 475.01 r/s elapsed 2.16
processed 2048 requests 477.87 r/s elapsed 4.29
processed 3072 requests 475.47 r/s elapsed 6.46
processed 4096 requests 469.43 r/s elapsed 8.73
processed 5120 requests 473.75 r/s elapsed 10.81
processed 6144 requests 466.98 r/s elapsed 13.16
processed 7168 requests 469.17 r/s elapsed 15.28
processed 8192 requests 471.70 r/s elapsed 17.37
processed 9216 requests 473.52 r/s elapsed 19.46
processed 10240 requests 474.79 r/s elapsed 21.57
TOTAL: 10240 requests 474.79 r/s elapsed 21.57
