type: pthread fadvise
filename: /mnt/raid/prefetch/prefetch-131072
I/O mode: BUFFERED
workload: SEQUENTIAL
duration: 20
threads: 32
queue size: 128
test mode: WARMUP
file size: 137438953472
file pages: 33554432
start probability: 0.010
continue probability: 0.100
processed 1024 requests 832.28 r/s elapsed 1.23
elapsed 1.23 : warmup interval speed 832.28 previous 0.00
processed 1792 requests 882.49 r/s elapsed 2.03
elapsed 2.03 : warmup interval speed 959.69 previous 832.28
processed 2688 requests 883.01 r/s elapsed 3.04
elapsed 3.04 : warmup interval speed 884.06 previous 959.69
within 5% of the preceding interval, warmup terminating
TOTAL: 2688 requests 883.01 r/s elapsed 3.04
