type: pthread aio
filename: /mnt/raid/prefetch/prefetch-131072
I/O mode: BUFFERED
workload: SEQUENTIAL
duration: 20
threads: 1
queue size: 1
test mode: WARMUP
file size: 137438953472
file pages: 33554432
start probability: 0.010
continue probability: 0.100
processed 1000 requests 479.53 r/s elapsed 2.09
elapsed 2.09 : warmup interval speed 479.53 previous 0.00
processed 1480 requests 488.59 r/s elapsed 3.03
elapsed 3.03 : warmup interval speed 508.61 previous 479.53
processed 1986 requests 495.44 r/s elapsed 4.01
elapsed 4.01 : warmup interval speed 516.63 previous 508.61
within 5% of the preceding interval, warmup terminating
TOTAL: 1986 requests 495.44 r/s elapsed 4.01
