type: pthread fadvise
filename: /mnt/raid/prefetch/prefetch-131072
I/O mode: BUFFERED
workload: SEQUENTIAL
duration: 20
threads: 1
queue size: 128
test mode: TEST
file size: 137438953472
file pages: 33554432
start probability: 0.100
continue probability: 0.100
processed 7040 requests 6998.30 r/s elapsed 1.01
processed 14336 requests 7134.79 r/s elapsed 2.01
processed 21760 requests 7227.99 r/s elapsed 3.01
processed 28928 requests 7019.31 r/s elapsed 4.12
processed 35200 requests 6914.67 r/s elapsed 5.09
processed 41600 requests 6787.73 r/s elapsed 6.13
processed 48128 requests 6860.61 r/s elapsed 7.02
processed 54912 requests 6819.28 r/s elapsed 8.05
processed 61440 requests 6776.08 r/s elapsed 9.07
processed 68096 requests 6805.78 r/s elapsed 10.01
processed 75008 requests 6815.30 r/s elapsed 11.01
processed 82048 requests 6837.08 r/s elapsed 12.00
processed 89344 requests 6863.36 r/s elapsed 13.02
processed 96512 requests 6887.34 r/s elapsed 14.01
processed 103424 requests 6890.50 r/s elapsed 15.01
processed 110336 requests 6886.14 r/s elapsed 16.02
processed 117376 requests 6900.99 r/s elapsed 17.01
processed 124416 requests 6907.77 r/s elapsed 18.01
processed 131328 requests 6730.34 r/s elapsed 19.51
processed 134784 requests 6736.59 r/s elapsed 20.01
TOTAL: 134784 requests 6736.59 r/s elapsed 20.01
