type: pthread aio
filename: /mnt/raid/prefetch/prefetch-131072
I/O mode: BUFFERED
workload: SEQUENTIAL
duration: 20
threads: 8
queue size: 32
test mode: WARMUP
file size: 137438953472
file pages: 33554432
start probability: 0.100
continue probability: 0.500
processed 6848 requests 6792.80 r/s elapsed 1.01
elapsed 1.01 : warmup interval speed 6792.80 previous 0.00
processed 13600 requests 5373.30 r/s elapsed 2.53
elapsed 2.53 : warmup interval speed 4433.62 previous 6792.80
within 5% of the preceding interval, warmup terminating
TOTAL: 13600 requests 5373.30 r/s elapsed 2.53
