type: pthread aio
filename: /mnt/raid/prefetch/prefetch-131072
I/O mode: DIRECT
workload: SEQUENTIAL
duration: 20
threads: 1
queue size: 8
test mode: TEST
file size: 137438953472
file pages: 33554432
start probability: 0.010
continue probability: 0.500
processed 1000 requests 926.51 r/s elapsed 1.08
processed 1856 requests 902.03 r/s elapsed 2.06
processed 2712 requests 900.60 r/s elapsed 3.01
processed 3608 requests 885.05 r/s elapsed 4.08
processed 4432 requests 876.51 r/s elapsed 5.06
processed 5264 requests 872.97 r/s elapsed 6.03
processed 6112 requests 864.65 r/s elapsed 7.07
processed 6920 requests 849.99 r/s elapsed 8.14
processed 7672 requests 851.09 r/s elapsed 9.01
processed 8512 requests 842.98 r/s elapsed 10.10
processed 9328 requests 847.67 r/s elapsed 11.00
processed 10176 requests 844.16 r/s elapsed 12.05
processed 11024 requests 846.41 r/s elapsed 13.02
processed 11960 requests 853.48 r/s elapsed 14.01
processed 12808 requests 848.62 r/s elapsed 15.09
processed 13768 requests 859.85 r/s elapsed 16.01
processed 14624 requests 856.32 r/s elapsed 17.08
processed 15576 requests 864.61 r/s elapsed 18.02
processed 16456 requests 864.85 r/s elapsed 19.03
processed 17328 requests 866.39 r/s elapsed 20.00
TOTAL: 17328 requests 866.39 r/s elapsed 20.00
