type: pthread fadvise
filename: /mnt/raid/prefetch/prefetch-131072
I/O mode: BUFFERED
workload: SEQUENTIAL
duration: 20
threads: 1
queue size: 128
test mode: TEST
file size: 137438953472
file pages: 33554432
start probability: 0.010
continue probability: 0.100
processed 1024 requests 940.67 r/s elapsed 1.09
processed 1920 requests 945.15 r/s elapsed 2.03
processed 2944 requests 930.95 r/s elapsed 3.16
processed 3840 requests 891.12 r/s elapsed 4.31
processed 4480 requests 891.51 r/s elapsed 5.03
processed 5376 requests 884.52 r/s elapsed 6.08
processed 6272 requests 894.24 r/s elapsed 7.01
processed 7168 requests 894.69 r/s elapsed 8.01
processed 8192 requests 900.84 r/s elapsed 9.09
processed 9088 requests 902.13 r/s elapsed 10.07
processed 9984 requests 904.30 r/s elapsed 11.04
processed 10880 requests 904.92 r/s elapsed 12.02
processed 11904 requests 908.57 r/s elapsed 13.10
processed 12800 requests 909.83 r/s elapsed 14.07
processed 13696 requests 910.75 r/s elapsed 15.04
processed 14720 requests 914.25 r/s elapsed 16.10
processed 15616 requests 915.75 r/s elapsed 17.05
processed 16640 requests 916.94 r/s elapsed 18.15
processed 17536 requests 916.67 r/s elapsed 19.13
processed 18432 requests 918.22 r/s elapsed 20.07
TOTAL: 18432 requests 918.22 r/s elapsed 20.07
