type: pthread aio
filename: /mnt/raid/prefetch/prefetch-131072
I/O mode: DIRECT
workload: SEQUENTIAL
duration: 20
threads: 8
queue size: 1024
test mode: TEST
file size: 137438953472
file pages: 33554432
start probability: 0.010
continue probability: 0.100
processed 1024 requests 520.98 r/s elapsed 1.97
processed 2048 requests 547.62 r/s elapsed 3.74
processed 3072 requests 560.57 r/s elapsed 5.48
processed 4096 requests 563.03 r/s elapsed 7.27
processed 5120 requests 562.91 r/s elapsed 9.10
processed 6144 requests 563.37 r/s elapsed 10.91
processed 7168 requests 565.86 r/s elapsed 12.67
processed 8192 requests 566.81 r/s elapsed 14.45
processed 9216 requests 566.43 r/s elapsed 16.27
processed 10240 requests 566.37 r/s elapsed 18.08
processed 11264 requests 566.83 r/s elapsed 19.87
processed 12288 requests 569.05 r/s elapsed 21.59
TOTAL: 12288 requests 569.05 r/s elapsed 21.59
