type: pthread aio
filename: /mnt/raid/prefetch/prefetch-131072
I/O mode: BUFFERED
workload: RANDOM
duration: 20
threads: 16
queue size: 32
test mode: TEST
file size: 137438953472
file pages: 33554432
processed 1024 requests 244.96 r/s elapsed 4.18
processed 1248 requests 246.35 r/s elapsed 5.07
processed 1504 requests 248.01 r/s elapsed 6.06
processed 1760 requests 249.08 r/s elapsed 7.07
processed 2048 requests 253.48 r/s elapsed 8.08
processed 2304 requests 256.00 r/s elapsed 9.00
processed 2592 requests 258.02 r/s elapsed 10.05
processed 2848 requests 258.04 r/s elapsed 11.04
processed 3104 requests 258.30 r/s elapsed 12.02
processed 3392 requests 258.98 r/s elapsed 13.10
processed 3648 requests 259.14 r/s elapsed 14.08
processed 3936 requests 260.43 r/s elapsed 15.11
processed 4192 requests 260.94 r/s elapsed 16.06
processed 4448 requests 261.22 r/s elapsed 17.03
processed 4736 requests 262.33 r/s elapsed 18.05
processed 5024 requests 263.12 r/s elapsed 19.09
processed 5280 requests 263.56 r/s elapsed 20.03
TOTAL: 5280 requests 263.56 r/s elapsed 20.03
