type: pthread fadvise
filename: /mnt/raid/prefetch/prefetch-131072
I/O mode: BUFFERED
workload: SEQUENTIAL
duration: 20
threads: 8
queue size: 8
test mode: TEST
file size: 137438953472
file pages: 33554432
start probability: 0.100
continue probability: 0.100
processed 4624 requests 4610.05 r/s elapsed 1.00
processed 9224 requests 4378.38 r/s elapsed 2.11
processed 13136 requests 4311.64 r/s elapsed 3.05
processed 17248 requests 4205.09 r/s elapsed 4.10
processed 21240 requests 4245.48 r/s elapsed 5.00
processed 25472 requests 4237.53 r/s elapsed 6.01
processed 29664 requests 4171.85 r/s elapsed 7.11
processed 33376 requests 4149.50 r/s elapsed 8.04
processed 37352 requests 4091.88 r/s elapsed 9.13
processed 40920 requests 4073.04 r/s elapsed 10.05
processed 45168 requests 4104.06 r/s elapsed 11.01
processed 49384 requests 4113.89 r/s elapsed 12.00
processed 53480 requests 4103.05 r/s elapsed 13.03
processed 57448 requests 4066.15 r/s elapsed 14.13
processed 60992 requests 4064.64 r/s elapsed 15.01
processed 65048 requests 4065.47 r/s elapsed 16.00
processed 69400 requests 4079.75 r/s elapsed 17.01
processed 73656 requests 4090.66 r/s elapsed 18.01
processed 77728 requests 4085.89 r/s elapsed 19.02
processed 81720 requests 4082.66 r/s elapsed 20.02
TOTAL: 81720 requests 4082.66 r/s elapsed 20.02
