type: pthread fadvise
filename: /mnt/raid/prefetch/prefetch-131072
I/O mode: BUFFERED
workload: RANDOM
duration: 20
threads: 32
queue size: 32
test mode: WARMUP
file size: 137438953472
file pages: 33554432
processed 1024 requests 234.80 r/s elapsed 4.36
elapsed 4.36 : warmup interval speed 234.80 previous 0.00
processed 1216 requests 241.32 r/s elapsed 5.04
elapsed 5.04 : warmup interval speed 283.26 previous 234.80
processed 1536 requests 251.13 r/s elapsed 6.12
elapsed 6.12 : warmup interval speed 297.00 previous 283.26
within 5% of the preceding interval, warmup terminating
TOTAL: 1536 requests 251.13 r/s elapsed 6.12
