type: pthread aio
filename: /mnt/raid/prefetch/prefetch-131072
I/O mode: BUFFERED
workload: SEQUENTIAL
duration: 20
threads: 8
queue size: 1024
test mode: WARMUP
file size: 137438953472
file pages: 33554432
start probability: 0.100
continue probability: 0.900
processed 19456 requests 19070.81 r/s elapsed 1.02
elapsed 1.02 : warmup interval speed 19070.81 previous 0.00
processed 40960 requests 20452.60 r/s elapsed 2.00
elapsed 2.00 : warmup interval speed 21887.45 previous 19070.81
processed 65536 requests 21504.60 r/s elapsed 3.05
elapsed 3.05 : warmup interval speed 23520.97 previous 21887.45
processed 87040 requests 21572.15 r/s elapsed 4.03
elapsed 4.03 : warmup interval speed 21780.66 previous 23520.97
within 5% of the preceding interval, warmup terminating
TOTAL: 87040 requests 21572.15 r/s elapsed 4.03
