type: pthread fadvise
filename: /mnt/raid/prefetch/prefetch-131072
I/O mode: BUFFERED
workload: SEQUENTIAL
duration: 20
threads: 32
queue size: 32
test mode: TEST
file size: 137438953472
file pages: 33554432
start probability: 0.010
continue probability: 0.100
processed 1024 requests 734.26 r/s elapsed 1.39
processed 1472 requests 730.47 r/s elapsed 2.02
processed 2208 requests 723.86 r/s elapsed 3.05
processed 2944 requests 729.88 r/s elapsed 4.03
processed 3712 requests 734.89 r/s elapsed 5.05
processed 4448 requests 736.93 r/s elapsed 6.04
processed 5184 requests 737.67 r/s elapsed 7.03
processed 5920 requests 737.58 r/s elapsed 8.03
processed 6656 requests 732.10 r/s elapsed 9.09
processed 7328 requests 732.09 r/s elapsed 10.01
processed 8064 requests 728.95 r/s elapsed 11.06
processed 8800 requests 732.43 r/s elapsed 12.01
processed 9536 requests 728.13 r/s elapsed 13.10
processed 10240 requests 729.51 r/s elapsed 14.04
processed 10976 requests 730.05 r/s elapsed 15.03
processed 11680 requests 720.25 r/s elapsed 16.22
processed 12288 requests 722.71 r/s elapsed 17.00
processed 13024 requests 722.27 r/s elapsed 18.03
processed 13728 requests 722.51 r/s elapsed 19.00
processed 14496 requests 723.95 r/s elapsed 20.02
TOTAL: 14496 requests 723.95 r/s elapsed 20.02
