type: pthread fadvise
filename: /mnt/raid/prefetch/prefetch-131072
I/O mode: BUFFERED
workload: SEQUENTIAL
duration: 20
threads: 1
queue size: 1024
test mode: WARMUP
file size: 137438953472
file pages: 33554432
start probability: 0.010
continue probability: 0.900
processed 6144 requests 5234.77 r/s elapsed 1.17
elapsed 1.17 : warmup interval speed 5234.77 previous 0.00
processed 11264 requests 5516.19 r/s elapsed 2.04
elapsed 2.04 : warmup interval speed 5896.60 previous 5234.77
processed 17408 requests 5497.22 r/s elapsed 3.17
elapsed 3.17 : warmup interval speed 5462.78 previous 5896.60
within 5% of the preceding interval, warmup terminating
TOTAL: 17408 requests 5497.22 r/s elapsed 3.17
