type: aio
filename: /mnt/data/prefetch/prefetch-131072
I/O mode: BUFFERED
workload: SEQUENTIAL
duration: 20
queue size: 128
test mode: WARMUP
file size: 137438953472
file pages: 33554432
start probability: 0.100
continue probability: 0.500
processed 97664 requests 97602.51 r/s elapsed 1.00
elapsed 1.00 : warmup interval speed 97602.51 previous 0.00
processed 195072 requests 97483.85 r/s elapsed 2.00
elapsed 2.00 : warmup interval speed 97365.16 previous 97602.51
within 5% of the preceding interval, warmup terminating
TOTAL: 195072 requests 97483.85 r/s elapsed 2.00
