type: aio
filename: /mnt/data/prefetch/prefetch-131072
I/O mode: BUFFERED
workload: SEQUENTIAL
duration: 20
queue size: 32
test mode: WARMUP
file size: 137438953472
file pages: 33554432
start probability: 0.010
continue probability: 0.100
processed 74368 requests 74365.25 r/s elapsed 1.00
elapsed 1.00 : warmup interval speed 74365.25 previous 0.00
processed 148064 requests 74024.15 r/s elapsed 2.00
elapsed 2.00 : warmup interval speed 73683.11 previous 74365.25
within 5% of the preceding interval, warmup terminating
TOTAL: 148064 requests 74024.15 r/s elapsed 2.00
