type: fadvise
filename: /mnt/data/prefetch/prefetch-131072
I/O mode: BUFFERED
workload: SEQUENTIAL
duration: 20
queue size: 128
test mode: TEST
file size: 137438953472
file pages: 33554432
start probability: 0.100
continue probability: 0.500
processed 463104 requests 463070.20 r/s elapsed 1.00
processed 916736 requests 458299.03 r/s elapsed 2.00
processed 1325312 requests 441743.28 r/s elapsed 3.00
processed 1730944 requests 432715.34 r/s elapsed 4.00
processed 2134912 requests 426955.33 r/s elapsed 5.00
processed 2536320 requests 422707.53 r/s elapsed 6.00
processed 2937856 requests 419674.89 r/s elapsed 7.00
processed 3336704 requests 417080.96 r/s elapsed 8.00
processed 3738368 requests 415371.08 r/s elapsed 9.00
processed 4140416 requests 414036.59 r/s elapsed 10.00
processed 4539264 requests 412659.46 r/s elapsed 11.00
processed 4939520 requests 411624.54 r/s elapsed 12.00
processed 5339264 requests 410703.61 r/s elapsed 13.00
processed 5737472 requests 409815.15 r/s elapsed 14.00
processed 6135680 requests 409043.75 r/s elapsed 15.00
processed 6533760 requests 408354.51 r/s elapsed 16.00
processed 6980992 requests 410645.16 r/s elapsed 17.00
processed 7467136 requests 414837.99 r/s elapsed 18.00
processed 7931520 requests 417444.18 r/s elapsed 19.00
processed 8392448 requests 419620.99 r/s elapsed 20.00
TOTAL: 8392448 requests 419620.99 r/s elapsed 20.00
