type: POSIX aio
filename: /mnt/data/prefetch/prefetch-131072
I/O mode: DIRECT
workload: SEQUENTIAL
duration: 20
threads: 8
queue size: 128
test mode: TEST
file size: 137438953472
file pages: 33554432
start probability: 0.100
continue probability: 0.500
processed 77184 requests 77156.84 r/s elapsed 1.00
processed 154112 requests 77022.42 r/s elapsed 2.00
processed 230912 requests 76949.66 r/s elapsed 3.00
processed 307840 requests 76933.55 r/s elapsed 4.00
processed 384768 requests 76927.74 r/s elapsed 5.00
processed 461440 requests 76897.11 r/s elapsed 6.00
processed 538112 requests 76865.24 r/s elapsed 7.00
processed 615296 requests 76905.66 r/s elapsed 8.00
processed 692224 requests 76897.38 r/s elapsed 9.00
processed 768768 requests 76875.71 r/s elapsed 10.00
processed 845696 requests 76881.31 r/s elapsed 11.00
processed 921984 requests 76826.48 r/s elapsed 12.00
processed 998528 requests 76799.72 r/s elapsed 13.00
processed 1075072 requests 76790.59 r/s elapsed 14.00
processed 1151488 requests 76757.10 r/s elapsed 15.00
processed 1227776 requests 76730.00 r/s elapsed 16.00
processed 1303936 requests 76697.56 r/s elapsed 17.00
processed 1380352 requests 76685.87 r/s elapsed 18.00
processed 1457792 requests 76719.80 r/s elapsed 19.00
processed 1535232 requests 76756.68 r/s elapsed 20.00
TOTAL: 1535232 requests 76756.68 r/s elapsed 20.00
