type: POSIX aio
filename: /mnt/data/prefetch/prefetch-131072
I/O mode: DIRECT
workload: SEQUENTIAL
duration: 20
threads: 16
queue size: 128
test mode: TEST
file size: 137438953472
file pages: 33554432
start probability: 0.100
continue probability: 0.900
processed 77312 requests 77198.36 r/s elapsed 1.00
processed 153344 requests 76661.77 r/s elapsed 2.00
processed 229248 requests 76379.87 r/s elapsed 3.00
processed 305024 requests 76231.83 r/s elapsed 4.00
processed 380928 requests 76170.90 r/s elapsed 5.00
processed 457088 requests 76181.23 r/s elapsed 6.00
processed 533632 requests 76217.63 r/s elapsed 7.00
processed 609920 requests 76229.82 r/s elapsed 8.00
processed 686208 requests 76239.53 r/s elapsed 9.00
processed 762496 requests 76240.98 r/s elapsed 10.00
processed 838912 requests 76254.77 r/s elapsed 11.00
processed 915072 requests 76245.73 r/s elapsed 12.00
processed 991360 requests 76248.77 r/s elapsed 13.00
processed 1067264 requests 76225.43 r/s elapsed 14.00
processed 1143296 requests 76212.13 r/s elapsed 15.00
processed 1218944 requests 76182.95 r/s elapsed 16.00
processed 1294976 requests 76169.58 r/s elapsed 17.00
processed 1371136 requests 76167.42 r/s elapsed 18.00
processed 1447168 requests 76161.57 r/s elapsed 19.00
processed 1523072 requests 76152.47 r/s elapsed 20.00
TOTAL: 1523072 requests 76152.47 r/s elapsed 20.00
