type: POSIX aio
filename: /mnt/data/prefetch/prefetch-131072
I/O mode: DIRECT
workload: SEQUENTIAL
duration: 20
threads: 1
queue size: 1
test mode: TEST
file size: 137438953472
file pages: 33554432
start probability: 0.100
continue probability: 0.900
processed 36911 requests 36910.93 r/s elapsed 1.00
processed 73810 requests 36904.91 r/s elapsed 2.00
processed 109500 requests 36499.46 r/s elapsed 3.00
processed 145237 requests 36309.23 r/s elapsed 4.00
processed 181349 requests 36269.74 r/s elapsed 5.00
processed 216855 requests 36142.22 r/s elapsed 6.00
processed 252729 requests 36103.94 r/s elapsed 7.00
processed 288324 requests 36040.44 r/s elapsed 8.00
processed 324012 requests 36001.25 r/s elapsed 9.00
processed 360170 requests 36016.97 r/s elapsed 10.00
processed 396177 requests 36016.07 r/s elapsed 11.00
processed 431525 requests 35960.39 r/s elapsed 12.00
processed 467283 requests 35944.81 r/s elapsed 13.00
processed 502872 requests 35919.42 r/s elapsed 14.00
processed 538571 requests 35904.73 r/s elapsed 15.00
processed 574196 requests 35887.24 r/s elapsed 16.00
processed 609884 requests 35875.52 r/s elapsed 17.00
processed 645512 requests 35861.70 r/s elapsed 18.00
processed 681003 requests 35842.21 r/s elapsed 19.00
processed 716759 requests 35837.91 r/s elapsed 20.00
TOTAL: 716759 requests 35837.91 r/s elapsed 20.00
