type: POSIX aio
filename: /mnt/data/prefetch/prefetch-131072
I/O mode: BUFFERED
workload: SEQUENTIAL
duration: 20
threads: 32
queue size: 32
test mode: TEST
file size: 137438953472
file pages: 33554432
start probability: 0.100
continue probability: 0.500
processed 133376 requests 133370.40 r/s elapsed 1.00
processed 238080 requests 119034.11 r/s elapsed 2.00
processed 331968 requests 110652.13 r/s elapsed 3.00
processed 426368 requests 106587.98 r/s elapsed 4.00
processed 521120 requests 104222.94 r/s elapsed 5.00
processed 615488 requests 102579.76 r/s elapsed 6.00
processed 709472 requests 101351.26 r/s elapsed 7.00
processed 802592 requests 100320.95 r/s elapsed 8.00
processed 896992 requests 99662.46 r/s elapsed 9.00
processed 991360 requests 99134.99 r/s elapsed 10.00
processed 1085568 requests 98685.42 r/s elapsed 11.00
processed 1180128 requests 98341.34 r/s elapsed 12.00
processed 1274944 requests 98072.48 r/s elapsed 13.00
processed 1369728 requests 97836.48 r/s elapsed 14.00
processed 1464256 requests 97616.06 r/s elapsed 15.00
processed 1557920 requests 97369.34 r/s elapsed 16.00
processed 1651232 requests 97129.55 r/s elapsed 17.00
processed 1745056 requests 96945.74 r/s elapsed 18.00
processed 1838560 requests 96765.29 r/s elapsed 19.00
processed 1931872 requests 96592.32 r/s elapsed 20.00
TOTAL: 1931872 requests 96592.32 r/s elapsed 20.00
