type: POSIX aio
filename: /mnt/data/prefetch/prefetch-131072
I/O mode: DIRECT
workload: SEQUENTIAL
duration: 20
threads: 16
queue size: 32
test mode: TEST
file size: 137438953472
file pages: 33554432
start probability: 0.010
continue probability: 0.500
processed 77408 requests 77404.21 r/s elapsed 1.00
processed 154816 requests 77396.55 r/s elapsed 2.00
processed 231936 requests 77310.74 r/s elapsed 3.00
processed 309312 requests 77320.79 r/s elapsed 4.00
processed 386240 requests 77242.72 r/s elapsed 5.00
processed 463872 requests 77307.07 r/s elapsed 6.00
processed 541120 requests 77301.04 r/s elapsed 7.00
processed 617856 requests 77231.49 r/s elapsed 8.00
processed 694496 requests 77164.58 r/s elapsed 9.00
processed 772960 requests 77294.72 r/s elapsed 10.00
processed 850848 requests 77348.44 r/s elapsed 11.00
processed 928480 requests 77371.38 r/s elapsed 12.00
processed 1006592 requests 77428.59 r/s elapsed 13.00
processed 1084608 requests 77471.08 r/s elapsed 14.00
processed 1162400 requests 77491.82 r/s elapsed 15.00
processed 1240448 requests 77526.97 r/s elapsed 16.00
processed 1318176 requests 77538.09 r/s elapsed 17.00
processed 1395904 requests 77549.17 r/s elapsed 18.00
processed 1474272 requests 77592.70 r/s elapsed 19.00
processed 1552576 requests 77628.23 r/s elapsed 20.00
TOTAL: 1552576 requests 77628.23 r/s elapsed 20.00
