type: POSIX aio
filename: /mnt/data/prefetch/prefetch-131072
I/O mode: BUFFERED
workload: SEQUENTIAL
duration: 20
threads: 32
queue size: 128
test mode: TEST
file size: 137438953472
file pages: 33554432
start probability: 0.010
continue probability: 0.100
processed 76416 requests 76362.47 r/s elapsed 1.00
processed 153088 requests 76489.04 r/s elapsed 2.00
processed 228736 requests 76227.72 r/s elapsed 3.00
processed 303744 requests 75910.87 r/s elapsed 4.00
processed 379008 requests 75778.12 r/s elapsed 5.00
processed 455936 requests 75973.68 r/s elapsed 6.00
processed 533120 requests 76148.96 r/s elapsed 7.00
processed 605440 requests 75665.62 r/s elapsed 8.00
processed 675968 requests 75101.59 r/s elapsed 9.00
processed 747008 requests 74693.52 r/s elapsed 10.00
processed 818304 requests 74380.97 r/s elapsed 11.00
processed 893440 requests 74442.66 r/s elapsed 12.00
processed 970496 requests 74645.57 r/s elapsed 13.00
processed 1046656 requests 74758.07 r/s elapsed 14.00
processed 1123200 requests 74877.94 r/s elapsed 15.00
processed 1200256 requests 75010.56 r/s elapsed 16.00
processed 1277440 requests 75136.07 r/s elapsed 17.00
processed 1354752 requests 75261.03 r/s elapsed 18.00
processed 1431936 requests 75359.86 r/s elapsed 19.00
processed 1504640 requests 75225.70 r/s elapsed 20.00
TOTAL: 1504640 requests 75225.70 r/s elapsed 20.00
