type: pthread aio
filename: /mnt/data/prefetch/prefetch-131072
I/O mode: DIRECT
workload: SEQUENTIAL
duration: 20
threads: 1
queue size: 8
test mode: TEST
file size: 137438953472
file pages: 33554432
start probability: 0.010
continue probability: 0.500
processed 74736 requests 74731.29 r/s elapsed 1.00
processed 149464 requests 74693.83 r/s elapsed 2.00
processed 224264 requests 74752.82 r/s elapsed 3.00
processed 299224 requests 74804.60 r/s elapsed 4.00
processed 374208 requests 74841.11 r/s elapsed 5.00
processed 449176 requests 74861.51 r/s elapsed 6.00
processed 524032 requests 74813.69 r/s elapsed 7.00
processed 598512 requests 74771.86 r/s elapsed 8.00
processed 672952 requests 74708.49 r/s elapsed 9.01
processed 748224 requests 74819.77 r/s elapsed 10.00
processed 824296 requests 74935.67 r/s elapsed 11.00
processed 900080 requests 75006.49 r/s elapsed 12.00
processed 975912 requests 75070.06 r/s elapsed 13.00
processed 1051792 requests 75127.55 r/s elapsed 14.00
processed 1127448 requests 75162.75 r/s elapsed 15.00
processed 1202960 requests 75184.80 r/s elapsed 16.00
processed 1278472 requests 75203.80 r/s elapsed 17.00
processed 1354080 requests 75226.17 r/s elapsed 18.00
processed 1429888 requests 75257.14 r/s elapsed 19.00
processed 1505480 requests 75273.31 r/s elapsed 20.00
TOTAL: 1505480 requests 75273.31 r/s elapsed 20.00
