type: pthread fadvise
filename: /mnt/data/prefetch/prefetch-131072
I/O mode: BUFFERED
workload: SEQUENTIAL
duration: 20
threads: 1
queue size: 1024
test mode: TEST
file size: 137438953472
file pages: 33554432
start probability: 0.010
continue probability: 0.100
processed 237568 requests 236981.71 r/s elapsed 1.00
processed 475136 requests 237447.50 r/s elapsed 2.00
processed 713728 requests 237744.10 r/s elapsed 3.00
processed 951296 requests 237627.36 r/s elapsed 4.00
processed 1188864 requests 237674.26 r/s elapsed 5.00
processed 1427456 requests 237777.09 r/s elapsed 6.00
processed 1665024 requests 237820.82 r/s elapsed 7.00
processed 1903616 requests 237929.72 r/s elapsed 8.00
processed 2142208 requests 237986.43 r/s elapsed 9.00
processed 2380800 requests 238038.99 r/s elapsed 10.00
processed 2620416 requests 238176.42 r/s elapsed 11.00
processed 2859008 requests 238184.87 r/s elapsed 12.00
processed 3097600 requests 238244.54 r/s elapsed 13.00
processed 3337216 requests 238329.28 r/s elapsed 14.00
processed 3575808 requests 238355.32 r/s elapsed 15.00
processed 3815424 requests 238403.34 r/s elapsed 16.00
processed 4054016 requests 238466.07 r/s elapsed 17.00
processed 4292608 requests 238475.25 r/s elapsed 18.00
processed 4531200 requests 238473.18 r/s elapsed 19.00
processed 4770816 requests 238490.86 r/s elapsed 20.00
TOTAL: 4770816 requests 238490.86 r/s elapsed 20.00
