type: pthread aio
filename: /mnt/data/prefetch/prefetch-131072
I/O mode: DIRECT
workload: SEQUENTIAL
duration: 20
threads: 16
queue size: 128
test mode: TEST
file size: 137438953472
file pages: 33554432
start probability: 0.010
continue probability: 0.500
processed 347776 requests 347683.17 r/s elapsed 1.00
processed 703360 requests 351679.30 r/s elapsed 2.00
processed 1065344 requests 355109.34 r/s elapsed 3.00
processed 1426176 requests 356537.49 r/s elapsed 4.00
processed 1790592 requests 358108.87 r/s elapsed 5.00
processed 2153600 requests 358919.51 r/s elapsed 6.00
processed 2516736 requests 359513.32 r/s elapsed 7.00
processed 2880384 requests 360032.11 r/s elapsed 8.00
processed 3248128 requests 360892.81 r/s elapsed 9.00
processed 3612800 requests 361273.39 r/s elapsed 10.00
processed 3976320 requests 361473.29 r/s elapsed 11.00
processed 4340480 requests 361704.35 r/s elapsed 12.00
processed 4704768 requests 361900.86 r/s elapsed 13.00
processed 5066624 requests 361853.85 r/s elapsed 14.00
processed 5427840 requests 360843.67 r/s elapsed 15.04
processed 5777920 requests 361119.71 r/s elapsed 16.00
processed 6142720 requests 361333.05 r/s elapsed 17.00
processed 6508288 requests 361567.36 r/s elapsed 18.00
processed 6874752 requests 361827.81 r/s elapsed 19.00
processed 7242368 requests 362114.04 r/s elapsed 20.00
TOTAL: 7242368 requests 362114.04 r/s elapsed 20.00
