type: pthread aio
filename: /mnt/data/prefetch/prefetch-131072
I/O mode: BUFFERED
workload: SEQUENTIAL
duration: 20
threads: 32
queue size: 128
test mode: WARMUP
file size: 137438953472
file pages: 33554432
start probability: 0.100
continue probability: 0.500
processed 250752 requests 250555.06 r/s elapsed 1.00
elapsed 1.00 : warmup interval speed 250555.06 previous 0.00
processed 501120 requests 250551.23 r/s elapsed 2.00
elapsed 2.00 : warmup interval speed 250547.39 previous 250555.06
within 5% of the preceding interval, warmup terminating
TOTAL: 501120 requests 250551.23 r/s elapsed 2.00
