type: pthread aio
filename: /mnt/data/prefetch/prefetch-131072
I/O mode: DIRECT
workload: SEQUENTIAL
duration: 20
threads: 8
queue size: 8
test mode: TEST
file size: 137438953472
file pages: 33554432
start probability: 0.010
continue probability: 0.100
processed 157392 requests 157168.66 r/s elapsed 1.00
processed 314344 requests 156571.47 r/s elapsed 2.01
processed 470920 requests 156972.44 r/s elapsed 3.00
processed 632376 requests 158091.94 r/s elapsed 4.00
processed 793592 requests 158718.02 r/s elapsed 5.00
processed 955072 requests 159177.55 r/s elapsed 6.00
processed 1115992 requests 159427.31 r/s elapsed 7.00
processed 1277144 requests 159642.08 r/s elapsed 8.00
processed 1436784 requests 159536.91 r/s elapsed 9.01
processed 1595376 requests 159460.66 r/s elapsed 10.00
processed 1755656 requests 159605.09 r/s elapsed 11.00
processed 1916152 requests 159678.72 r/s elapsed 12.00
processed 2076888 requests 159760.48 r/s elapsed 13.00
processed 2237352 requests 159810.81 r/s elapsed 14.00
processed 2398072 requests 159871.11 r/s elapsed 15.00
processed 2558568 requests 159910.08 r/s elapsed 16.00
processed 2718472 requests 159823.49 r/s elapsed 17.01
processed 2878848 requests 159933.83 r/s elapsed 18.00
processed 3038744 requests 159883.61 r/s elapsed 19.01
processed 3197672 requests 159881.59 r/s elapsed 20.00
TOTAL: 3197672 requests 159881.59 r/s elapsed 20.00
