type: pthread aio
filename: /mnt/data/prefetch/prefetch-131072
I/O mode: DIRECT
workload: RANDOM
duration: 20
threads: 8
queue size: 1024
test mode: TEST
file size: 137438953472
file pages: 33554432
processed 505856 requests 504080.63 r/s elapsed 1.00
processed 1008640 requests 498509.37 r/s elapsed 2.02
processed 1496064 requests 492699.24 r/s elapsed 3.04
processed 1971200 requests 487835.54 r/s elapsed 4.04
processed 2440192 requests 485463.89 r/s elapsed 5.03
processed 2913280 requests 481861.79 r/s elapsed 6.05
processed 3373056 requests 479383.44 r/s elapsed 7.04
processed 3835904 requests 477574.60 r/s elapsed 8.03
processed 4298752 requests 475950.70 r/s elapsed 9.03
processed 4759552 requests 474673.77 r/s elapsed 10.03
processed 5222400 requests 473675.60 r/s elapsed 11.03
processed 5684224 requests 472732.78 r/s elapsed 12.02
processed 6146048 requests 472292.35 r/s elapsed 13.01
processed 6612992 requests 471868.05 r/s elapsed 14.01
processed 7078912 requests 471456.10 r/s elapsed 15.01
processed 7549952 requests 471821.84 r/s elapsed 16.00
processed 8036352 requests 472670.17 r/s elapsed 17.00
processed 8523776 requests 473489.61 r/s elapsed 18.00
processed 9006080 requests 473980.66 r/s elapsed 19.00
processed 9480192 requests 473955.10 r/s elapsed 20.00
TOTAL: 9480192 requests 473955.10 r/s elapsed 20.00
