type: pthread aio
filename: /mnt/data/prefetch/prefetch-131072
I/O mode: BUFFERED
workload: SEQUENTIAL
duration: 20
threads: 8
queue size: 1024
test mode: TEST
file size: 137438953472
file pages: 33554432
start probability: 0.010
continue probability: 0.500
processed 242688 requests 242533.02 r/s elapsed 1.00
processed 484352 requests 241189.17 r/s elapsed 2.01
processed 723968 requests 239605.97 r/s elapsed 3.02
processed 958464 requests 239448.63 r/s elapsed 4.00
processed 1199104 requests 239647.63 r/s elapsed 5.00
processed 1438720 requests 239778.51 r/s elapsed 6.00
processed 1683456 requests 240348.89 r/s elapsed 7.00
processed 1929216 requests 241139.10 r/s elapsed 8.00
processed 2178048 requests 241946.46 r/s elapsed 9.00
processed 2424832 requests 242420.41 r/s elapsed 10.00
processed 2669568 requests 242660.54 r/s elapsed 11.00
processed 2918400 requests 243182.55 r/s elapsed 12.00
processed 3168256 requests 243687.80 r/s elapsed 13.00
processed 3416064 requests 243979.42 r/s elapsed 14.00
processed 3666944 requests 244455.68 r/s elapsed 15.00
processed 3917824 requests 244823.25 r/s elapsed 16.00
processed 4168704 requests 245210.99 r/s elapsed 17.00
processed 4424704 requests 245790.32 r/s elapsed 18.00
processed 4677632 requests 246170.44 r/s elapsed 19.00
processed 4934656 requests 246693.69 r/s elapsed 20.00
TOTAL: 4934656 requests 246693.69 r/s elapsed 20.00
