type: pthread fadvise
filename: /mnt/data/prefetch/prefetch-131072
I/O mode: BUFFERED
workload: RANDOM
duration: 20
threads: 1
queue size: 1024
test mode: WARMUP
file size: 137438953472
file pages: 33554432
processed 245760 requests 240097.07 r/s elapsed 1.02
elapsed 1.02 : warmup interval speed 240097.07 previous 0.00
processed 480256 requests 234780.18 r/s elapsed 2.05
elapsed 2.05 : warmup interval speed 229454.88 previous 240097.07
within 5% of the preceding interval, warmup terminating
TOTAL: 480256 requests 234780.18 r/s elapsed 2.05
