Linux 4.17.2 (bench) 	08/03/2018 	_x86_64_	(4 CPU)

avg-cpu:  %user   %nice %system %iowait  %steal   %idle
          10.28    0.02    4.08    2.60    0.00   83.03

Device:         rrqm/s   wrqm/s     r/s     w/s    rkB/s    wkB/s avgrq-sz avgqu-sz   await r_await w_await  svctm  %util
sda              47.08     4.24 1667.01  102.31 20993.73  3130.64    27.27     1.04    0.59    0.26    5.92   0.06  10.78
sdb              46.93     4.20 1666.96  102.45 20983.14  3127.31    27.25     1.03    0.58    0.26    5.85   0.06  10.66
sdc              84.85     4.26 1626.95  102.00 20975.22  3129.77    27.88     1.45    0.84    0.45    7.12   0.08  14.12
sdd              78.29     4.22 1632.68  102.07 20960.20  3125.97    27.77     1.46    0.84    0.44    7.33   0.08  14.21
sde              80.31     4.27 1637.75  102.17 21019.91  3130.21    27.76     1.48    0.85    0.44    7.44   0.08  14.23
sdf              77.43     4.24 1639.90  102.12 21001.17  3127.08    27.70     1.53    0.88    0.44    7.90   0.08  14.27
sdg               0.00     3.17   26.36   73.31   324.19   392.03    14.37     0.44    4.41    0.20    5.93   0.08   0.78
sdh               0.00     0.13    0.02    0.23     2.21     5.05    56.82     0.00    1.15    0.65    1.19   0.21   0.01
md0               0.00     0.00 10292.94  479.38 143774.41 21428.83    30.67     0.00    0.00    0.00    0.00   0.00   0.00

avg-cpu:  %user   %nice %system %iowait  %steal   %idle
           0.51    0.00    1.79    1.28    0.00   96.42

Device:         rrqm/s   wrqm/s     r/s     w/s    rkB/s    wkB/s avgrq-sz avgqu-sz   await r_await w_await  svctm  %util
sda               0.00     0.00 1321.00    0.00  5656.00     0.00     8.56     0.14    0.11    0.11    0.00   0.11  14.10
sdb               0.00     0.00 1396.00    0.00  6884.00     0.00     9.86     0.15    0.11    0.11    0.00   0.11  14.90
sdc               1.00     0.00 1274.00    0.00  6208.00     0.00     9.75     0.16    0.13    0.13    0.00   0.13  16.10
sdd               1.00     0.00 1382.00    0.00  6464.00     0.00     9.35     0.16    0.12    0.12    0.00   0.12  15.90
sde               0.00     0.00 1307.00    0.00  5556.00     0.00     8.50     0.17    0.13    0.13    0.00   0.13  17.00
sdf               0.00     0.00 1300.00    0.00  5596.00     0.00     8.61     0.13    0.10    0.10    0.00   0.10  12.60
sdg               0.00     0.00    0.00    1.00     0.00     8.00    16.00     0.00    0.00    0.00    0.00   0.00   0.00
sdh               0.00     0.00    0.00    0.00     0.00     0.00     0.00     0.00    0.00    0.00    0.00   0.00   0.00
md0               0.00     0.00 7982.00    0.00 36916.00     0.00     9.25     0.00    0.00    0.00    0.00   0.00   0.00

avg-cpu:  %user   %nice %system %iowait  %steal   %idle
           0.51    0.00    2.54    1.02    0.00   95.94

Device:         rrqm/s   wrqm/s     r/s     w/s    rkB/s    wkB/s avgrq-sz avgqu-sz   await r_await w_await  svctm  %util
sda               0.00     0.00 1289.00    0.00  5720.00     0.00     8.88     0.13    0.10    0.10    0.00   0.10  13.20
sdb               0.00     0.00 1283.00    0.00  5480.00     0.00     8.54     0.14    0.11    0.11    0.00   0.11  13.50
sdc               0.00     0.00 1287.00    0.00  5460.00     0.00     8.48     0.15    0.12    0.12    0.00   0.12  14.90
sdd               0.00     0.00 1316.00    0.00  5712.00     0.00     8.68     0.16    0.12    0.12    0.00   0.12  15.80
sde               0.00     0.00 1377.00    0.00  6316.00     0.00     9.17     0.18    0.13    0.13    0.00   0.13  17.70
sdf               0.00     0.00 1400.00    0.00  6256.00     0.00     8.94     0.14    0.10    0.10    0.00   0.10  13.90
sdg               0.00     0.00    0.00    0.00     0.00     0.00     0.00     0.00    0.00    0.00    0.00   0.00   0.00
sdh               0.00     0.00    0.00    0.00     0.00     0.00     0.00     0.00    0.00    0.00    0.00   0.00   0.00
md0               0.00     0.00 7950.00    0.00 35204.00     0.00     8.86     0.00    0.00    0.00    0.00   0.00   0.00

