Linux 4.17.2 (bench) 	08/03/2018 	_x86_64_	(4 CPU)

avg-cpu:  %user   %nice %system %iowait  %steal   %idle
          10.26    0.02    4.16    2.71    0.00   82.85

Device:         rrqm/s   wrqm/s     r/s     w/s    rkB/s    wkB/s avgrq-sz avgqu-sz   await r_await w_await  svctm  %util
sda              52.55     4.19 1717.08  101.32 21307.39  3100.26    26.85     1.05    0.58    0.26    5.92   0.06  11.00
sdb              52.35     4.15 1717.08  101.46 21296.90  3096.96    26.83     1.05    0.57    0.26    5.85   0.06  10.88
sdc              90.17     4.21 1677.16  101.01 21289.08  3099.39    27.43     1.47    0.82    0.45    7.12   0.08  14.37
sdd              83.69     4.18 1682.83  101.08 21274.08  3095.64    27.32     1.47    0.83    0.44    7.33   0.08  14.46
sde              85.69     4.23 1687.91  101.18 21333.50  3099.83    27.31     1.49    0.84    0.44    7.44   0.08  14.48
sdf              82.83     4.20 1690.03  101.12 21314.94  3096.73    27.26     1.54    0.86    0.44    7.90   0.08  14.52
sdg               0.00     3.17   26.75   73.27   325.76   392.03    14.35     0.44    4.40    0.20    5.93   0.08   0.78
sdh               0.00     0.13    0.02    0.23     2.18     5.00    56.82     0.00    1.15    0.65    1.19   0.21   0.01
md0               0.00     0.00 10626.78  474.73 146036.71 21220.86    30.13     0.00    0.00    0.00    0.00   0.00   0.00

avg-cpu:  %user   %nice %system %iowait  %steal   %idle
           0.53    0.00    5.32    0.00    0.00   94.15

Device:         rrqm/s   wrqm/s     r/s     w/s    rkB/s    wkB/s avgrq-sz avgqu-sz   await r_await w_await  svctm  %util
sda           16895.00     0.00 4325.00    0.00 84880.00     0.00    39.25     1.83    0.42    0.42    0.00   0.11  47.90
sdb           16602.00     0.00 4242.00    0.00 83376.00     0.00    39.31     1.83    0.43    0.43    0.00   0.11  47.10
sdc           17319.00     0.00 4275.00    0.00 86376.00     0.00    40.41     2.22    0.52    0.52    0.00   0.13  57.70
sdd           17148.00     0.00 4276.00    0.00 85696.00     0.00    40.08     2.28    0.53    0.53    0.00   0.14  57.80
sde           16769.00     0.00 4265.00    0.00 83904.00     0.00    39.35     2.20    0.52    0.52    0.00   0.13  56.10
sdf           16320.00     0.00 4302.00    0.00 82488.00     0.00    38.35     2.24    0.52    0.52    0.00   0.13  56.90
sdg               0.00     0.00    7.00    0.00   104.00     0.00    29.71     0.00    0.14    0.14    0.00   0.14   0.10
sdh               0.00     0.00    0.00    0.00     0.00     0.00     0.00     0.00    0.00    0.00    0.00   0.00   0.00
md0               0.00     0.00 126744.00    0.00 506976.00     0.00     8.00     0.00    0.00    0.00    0.00   0.00   0.00

avg-cpu:  %user   %nice %system %iowait  %steal   %idle
           0.26    0.52    8.51    0.52    0.00   90.21

Device:         rrqm/s   wrqm/s     r/s     w/s    rkB/s    wkB/s avgrq-sz avgqu-sz   await r_await w_await  svctm  %util
sda           17160.00     0.00 4315.00    0.00 85900.00     0.00    39.81     1.83    0.43    0.43    0.00   0.11  48.10
sdb           16606.00     0.00 4283.00    0.00 83308.00     0.00    38.90     1.79    0.42    0.42    0.00   0.11  45.90
sdc           17017.00     0.00 4346.00    0.00 85400.00     0.00    39.30     2.20    0.51    0.51    0.00   0.13  57.70
sdd           16485.00     0.00 4221.00    0.00 82760.00     0.00    39.21     2.16    0.51    0.51    0.00   0.13  56.60
sde           16068.00     0.00 4262.00    0.00 81552.00     0.00    38.27     2.17    0.51    0.51    0.00   0.13  57.40
sdf           17581.00     0.00 4224.00    0.00 87192.00     0.00    41.28     2.20    0.52    0.52    0.00   0.14  57.70
sdg               0.00     0.00 1906.00    0.00  8416.00     0.00     8.83     0.23    0.12    0.12    0.00   0.11  21.90
sdh               0.00     0.00    0.00    0.00     0.00     0.00     0.00     0.00    0.00    0.00    0.00   0.00   0.00
md0               0.00     0.00 126592.00    0.00 506368.00     0.00     8.00     0.00    0.00    0.00    0.00   0.00   0.00

avg-cpu:  %user   %nice %system %iowait  %steal   %idle
           0.27    0.00    5.60    0.00    0.00   94.13

Device:         rrqm/s   wrqm/s     r/s     w/s    rkB/s    wkB/s avgrq-sz avgqu-sz   await r_await w_await  svctm  %util
sda           17133.00     0.00 4198.00    0.00 85324.00     0.00    40.65     1.78    0.42    0.42    0.00   0.11  47.00
sdb           17384.00     0.00 4402.00    0.00 87392.00     0.00    39.71     1.87    0.42    0.42    0.00   0.11  47.40
sdc           17209.00     0.00 4324.00    0.00 86184.00     0.00    39.86     2.26    0.52    0.52    0.00   0.13  57.60
sdd           16781.00     0.00 4270.00    0.00 84268.00     0.00    39.47     2.26    0.53    0.53    0.00   0.13  57.30
sde           17036.00     0.00 4164.00    0.00 84784.00     0.00    40.72     2.22    0.53    0.53    0.00   0.14  57.00
sdf           16234.00     0.00 4125.00    0.00 81464.00     0.00    39.50     2.21    0.54    0.54    0.00   0.14  56.90
sdg               0.00     0.00    0.00    0.00     0.00     0.00     0.00     0.00    0.00    0.00    0.00   0.00   0.00
sdh               0.00     0.00    0.00    0.00     0.00     0.00     0.00     0.00    0.00    0.00    0.00   0.00   0.00
md0               0.00     0.00 127232.00    0.00 508928.00     0.00     8.00     0.00    0.00    0.00    0.00   0.00   0.00

avg-cpu:  %user   %nice %system %iowait  %steal   %idle
           0.78    0.00    7.27    0.00    0.00   91.95

Device:         rrqm/s   wrqm/s     r/s     w/s    rkB/s    wkB/s avgrq-sz avgqu-sz   await r_await w_await  svctm  %util
sda           16359.00     0.00 4173.00    0.00 82040.00     0.00    39.32     1.81    0.43    0.43    0.00   0.12  49.20
sdb           17027.00     0.00 4254.00    0.00 85088.00     0.00    40.00     1.90    0.45    0.45    0.00   0.11  48.00
sdc           16945.00     0.00 4145.00    0.00 84360.00     0.00    40.70     2.16    0.52    0.52    0.00   0.14  58.20
sdd           16613.00     0.00 4139.00    0.00 82852.00     0.00    40.03     2.16    0.52    0.52    0.00   0.14  58.40
sde           16937.00     0.00 4242.00    0.00 84660.00     0.00    39.92     2.23    0.53    0.53    0.00   0.13  56.10
sdf           17258.00     0.00 4338.00    0.00 86368.00     0.00    39.82     2.31    0.53    0.53    0.00   0.13  58.40
sdg               0.00     0.00    0.00    4.00     0.00   124.00    62.00     0.00    0.00    0.00    0.00   0.00   0.00
sdh               0.00     0.00    0.00    0.00     0.00     0.00     0.00     0.00    0.00    0.00    0.00   0.00   0.00
md0               0.00     0.00 126464.00    0.00 505856.00     0.00     8.00     0.00    0.00    0.00    0.00   0.00   0.00

avg-cpu:  %user   %nice %system %iowait  %steal   %idle
           0.26    0.00    6.35    0.00    0.00   93.39

Device:         rrqm/s   wrqm/s     r/s     w/s    rkB/s    wkB/s avgrq-sz avgqu-sz   await r_await w_await  svctm  %util
sda           16553.00     0.00 4124.00    0.00 82796.00     0.00    40.15     1.83    0.44    0.44    0.00   0.12  47.60
sdb           17290.00     0.00 4271.00    0.00 86244.00     0.00    40.39     1.87    0.44    0.44    0.00   0.12  49.30
sdc           16768.00     0.00 4176.00    0.00 83776.00     0.00    40.12     2.20    0.53    0.53    0.00   0.14  56.80
sdd           16999.00     0.00 4196.00    0.00 84752.00     0.00    40.40     2.25    0.53    0.53    0.00   0.14  59.40
sde           16438.00     0.00 4169.00    0.00 82500.00     0.00    39.58     2.28    0.55    0.55    0.00   0.15  61.50
sdf           16783.00     0.00 4212.00    0.00 83996.00     0.00    39.88     2.25    0.53    0.53    0.00   0.14  58.50
sdg               0.00     0.00    0.00    0.00     0.00     0.00     0.00     0.00    0.00    0.00    0.00   0.00   0.00
sdh               0.00     0.00    0.00    0.00     0.00     0.00     0.00     0.00    0.00    0.00    0.00   0.00   0.00
md0               0.00     0.00 125952.00    0.00 503808.00     0.00     8.00     0.00    0.00    0.00    0.00   0.00   0.00

avg-cpu:  %user   %nice %system %iowait  %steal   %idle
           0.26    0.00    8.01    0.00    0.00   91.73

Device:         rrqm/s   wrqm/s     r/s     w/s    rkB/s    wkB/s avgrq-sz avgqu-sz   await r_await w_await  svctm  %util
sda           16752.00     0.00 4233.00    0.00 83940.00     0.00    39.66     1.89    0.45    0.45    0.00   0.11  48.40
sdb           17380.00     0.00 4249.00    0.00 86556.00     0.00    40.74     1.90    0.45    0.45    0.00   0.11  48.50
sdc           16677.00     0.00 4238.00    0.00 83660.00     0.00    39.48     2.16    0.51    0.51    0.00   0.14  57.60
sdd           16314.00     0.00 4178.00    0.00 82152.00     0.00    39.33     2.14    0.51    0.51    0.00   0.13  55.10
sde           16937.00     0.00 4298.00    0.00 84940.00     0.00    39.53     2.25    0.52    0.52    0.00   0.13  57.50
sdf           17319.00     0.00 4150.00    0.00 85820.00     0.00    41.36     2.31    0.56    0.56    0.00   0.14  58.90
sdg               0.00     0.00   16.00    0.00   296.00     0.00    37.00     0.01    0.31    0.31    0.00   0.31   0.50
sdh               0.00     0.00    0.00    0.00     0.00     0.00     0.00     0.00    0.00    0.00    0.00   0.00   0.00
md0               0.00     0.00 126720.00    0.00 506880.00     0.00     8.00     0.00    0.00    0.00    0.00   0.00   0.00

avg-cpu:  %user   %nice %system %iowait  %steal   %idle
           0.77    0.00    7.47    0.00    0.00   91.75

Device:         rrqm/s   wrqm/s     r/s     w/s    rkB/s    wkB/s avgrq-sz avgqu-sz   await r_await w_await  svctm  %util
sda           16943.00     0.00 4327.00    0.00 85080.00     0.00    39.33     1.97    0.46    0.46    0.00   0.11  49.20
sdb           16930.00     0.00 4137.00    0.00 84264.00     0.00    40.74     1.84    0.45    0.45    0.00   0.12  49.20
sdc           16612.00     0.00 4127.00    0.00 82948.00     0.00    40.20     2.22    0.54    0.54    0.00   0.14  57.00
sdd           16989.00     0.00 4249.00    0.00 84724.00     0.00    39.88     2.33    0.55    0.55    0.00   0.14  59.50
sde           16723.00     0.00 4195.00    0.00 83640.00     0.00    39.88     2.29    0.54    0.54    0.00   0.14  58.90
sdf           17557.00     0.00 4304.00    0.00 87500.00     0.00    40.66     2.34    0.54    0.54    0.00   0.14  60.20
sdg               0.00     0.00    0.00    0.00     0.00     0.00     0.00     0.00    0.00    0.00    0.00   0.00   0.00
sdh               0.00     0.00    0.00    0.00     0.00     0.00     0.00     0.00    0.00    0.00    0.00   0.00   0.00
md0               0.00     0.00 127104.00    0.00 508416.00     0.00     8.00     0.00    0.00    0.00    0.00   0.00   0.00

avg-cpu:  %user   %nice %system %iowait  %steal   %idle
           0.50    0.00    9.50    0.00    0.00   90.00

Device:         rrqm/s   wrqm/s     r/s     w/s    rkB/s    wkB/s avgrq-sz avgqu-sz   await r_await w_await  svctm  %util
sda           17276.00     0.00 4327.00    0.00 86412.00     0.00    39.94     1.76    0.41    0.41    0.00   0.11  46.80
sdb           16923.00     0.00 4343.00    0.00 85064.00     0.00    39.17     1.81    0.42    0.42    0.00   0.11  46.30
sdc           17194.00     0.00 4186.00    0.00 85528.00     0.00    40.86     2.13    0.51    0.51    0.00   0.14  58.00
sdd           17172.00     0.00 4337.00    0.00 86264.00     0.00    39.78     2.16    0.50    0.50    0.00   0.13  57.50
sde           17111.00     0.00 4333.00    0.00 85808.00     0.00    39.61     2.21    0.51    0.51    0.00   0.13  55.90
sdf           16474.00     0.00 4211.00    0.00 82740.00     0.00    39.30     2.11    0.50    0.50    0.00   0.13  55.70
sdg               0.00     0.00    0.00    0.00     0.00     0.00     0.00     0.00    0.00    0.00    0.00   0.00   0.00
sdh               0.00     0.00    0.00    0.00     0.00     0.00     0.00     0.00    0.00    0.00    0.00   0.00   0.00
md0               0.00     0.00 127913.00    0.00 511652.00     0.00     8.00     0.00    0.00    0.00    0.00   0.00   0.00

avg-cpu:  %user   %nice %system %iowait  %steal   %idle
           0.26    0.00    7.93    0.00    0.00   91.82

Device:         rrqm/s   wrqm/s     r/s     w/s    rkB/s    wkB/s avgrq-sz avgqu-sz   await r_await w_await  svctm  %util
sda           17438.00     0.00 4358.00    0.00 87184.00     0.00    40.01     1.84    0.42    0.42    0.00   0.11  48.80
sdb           17111.00     0.00 4335.00    0.00 85784.00     0.00    39.58     1.86    0.43    0.43    0.00   0.11  47.00
sdc           15970.00     0.00 4172.00    0.00 80568.00     0.00    38.62     1.99    0.48    0.48    0.00   0.13  54.60
sdd           17203.00     0.00 4284.00    0.00 85864.00     0.00    40.09     2.17    0.51    0.51    0.00   0.13  57.40
sde           17441.00     0.00 4360.00    0.00 87204.00     0.00    40.00     2.38    0.55    0.55    0.00   0.13  58.80
sdf           16709.00     0.00 4231.00    0.00 83628.00     0.00    39.53     2.19    0.52    0.52    0.00   0.14  57.50
sdg               0.00     0.00    0.00    0.00     0.00     0.00     0.00     0.00    0.00    0.00    0.00   0.00   0.00
sdh               0.00     0.00    0.00    0.00     0.00     0.00     0.00     0.00    0.00    0.00    0.00   0.00   0.00
md0               0.00     0.00 127575.00    0.00 510300.00     0.00     8.00     0.00    0.00    0.00    0.00   0.00   0.00

avg-cpu:  %user   %nice %system %iowait  %steal   %idle
           0.53    0.00    6.08    0.00    0.00   93.39

Device:         rrqm/s   wrqm/s     r/s     w/s    rkB/s    wkB/s avgrq-sz avgqu-sz   await r_await w_await  svctm  %util
sda           16569.00     0.00 4276.00    0.00 83356.00     0.00    38.99     1.81    0.42    0.42    0.00   0.11  47.60
sdb           16332.00     0.00 4090.00    0.00 81500.00     0.00    39.85     1.86    0.46    0.46    0.00   0.12  48.90
sdc           16728.00     0.00 4193.00    0.00 83684.00     0.00    39.92     2.26    0.54    0.54    0.00   0.14  57.00
sdd           16512.00     0.00 4211.00    0.00 82924.00     0.00    39.38     2.22    0.53    0.53    0.00   0.14  57.90
sde           16794.00     0.00 4297.00    0.00 84300.00     0.00    39.24     2.30    0.54    0.54    0.00   0.14  58.70
sdf           17477.00     0.00 4303.00    0.00 87252.00     0.00    40.55     2.39    0.56    0.56    0.00   0.14  59.70
sdg               0.00     0.00    0.00    0.00     0.00     0.00     0.00     0.00    0.00    0.00    0.00   0.00   0.00
sdh               0.00     0.00    0.00    0.00     0.00     0.00     0.00     0.00    0.00    0.00    0.00   0.00   0.00
md0               0.00     0.00 125824.00    0.00 503296.00     0.00     8.00     0.00    0.00    0.00    0.00   0.00   0.00

avg-cpu:  %user   %nice %system %iowait  %steal   %idle
           0.52    0.00    7.31    0.00    0.00   92.17

Device:         rrqm/s   wrqm/s     r/s     w/s    rkB/s    wkB/s avgrq-sz avgqu-sz   await r_await w_await  svctm  %util
sda           16867.00     0.00 4173.00    0.00 84184.00     0.00    40.35     1.70    0.41    0.41    0.00   0.11  45.20
sdb           17404.00     0.00 4313.00    0.00 87060.00     0.00    40.37     1.79    0.42    0.42    0.00   0.11  46.50
sdc           16616.00     0.00 4150.00    0.00 83064.00     0.00    40.03     2.01    0.49    0.49    0.00   0.13  55.80
sdd           16962.00     0.00 4260.00    0.00 84860.00     0.00    39.84     2.10    0.49    0.49    0.00   0.13  55.70
sde           17020.00     0.00 4234.00    0.00 85080.00     0.00    40.19     2.13    0.50    0.50    0.00   0.13  55.60
sdf           16629.00     0.00 4257.00    0.00 83516.00     0.00    39.24     2.09    0.49    0.49    0.00   0.13  55.90
sdg               0.00     0.00    0.00    0.00     0.00     0.00     0.00     0.00    0.00    0.00    0.00   0.00   0.00
sdh               0.00     0.00    0.00    0.00     0.00     0.00     0.00     0.00    0.00    0.00    0.00   0.00   0.00
md0               0.00     0.00 126848.00    0.00 507392.00     0.00     8.00     0.00    0.00    0.00    0.00   0.00   0.00

avg-cpu:  %user   %nice %system %iowait  %steal   %idle
           0.78    0.26    8.29    2.59    0.00   88.08

Device:         rrqm/s   wrqm/s     r/s     w/s    rkB/s    wkB/s avgrq-sz avgqu-sz   await r_await w_await  svctm  %util
sda           16895.00     0.00 4264.00    0.00 84636.00     0.00    39.70     1.92    0.45    0.45    0.00   0.12  49.20
sdb           17250.00     0.00 4353.00    0.00 86408.00     0.00    39.70     1.96    0.45    0.45    0.00   0.12  50.50
sdc           17225.00     0.00 4309.00    0.00 86136.00     0.00    39.98     2.33    0.54    0.54    0.00   0.14  58.50
sdd           17491.00     0.00 4408.00    0.00 87624.00     0.00    39.76     2.30    0.52    0.52    0.00   0.13  57.70
sde           16476.00     0.00 4057.00    0.00 81996.00     0.00    40.42     2.21    0.55    0.55    0.00   0.14  57.30
sdf           16451.00     0.00 4249.00    0.00 82780.00     0.00    38.96     2.29    0.54    0.54    0.00   0.14  58.90
sdg               0.00     0.00 1339.00    0.00  5356.00     0.00     8.00     0.16    0.12    0.12    0.00   0.12  15.80
sdh               0.00     0.00    0.00    0.00     0.00     0.00     0.00     0.00    0.00    0.00    0.00   0.00   0.00
md0               0.00     0.00 127461.00    0.00 509844.00     0.00     8.00     0.00    0.00    0.00    0.00   0.00   0.00

avg-cpu:  %user   %nice %system %iowait  %steal   %idle
           0.53    0.00    6.58    0.00    0.00   92.89

Device:         rrqm/s   wrqm/s     r/s     w/s    rkB/s    wkB/s avgrq-sz avgqu-sz   await r_await w_await  svctm  %util
sda           16316.00     0.00 4242.00    0.00 82232.00     0.00    38.77     1.81    0.43    0.43    0.00   0.11  46.30
sdb           17097.00     0.00 4298.00    0.00 85580.00     0.00    39.82     1.91    0.45    0.45    0.00   0.11  47.90
sdc           16841.00     0.00 4230.00    0.00 84284.00     0.00    39.85     2.20    0.52    0.52    0.00   0.14  58.40
sdd           16720.00     0.00 4295.00    0.00 84112.00     0.00    39.17     2.21    0.52    0.52    0.00   0.13  56.40
sde           16323.00     0.00 4178.00    0.00 82140.00     0.00    39.32     2.18    0.52    0.52    0.00   0.14  57.80
sdf           17114.00     0.00 4111.00    0.00 84948.00     0.00    41.33     2.19    0.53    0.53    0.00   0.14  57.80
sdg               0.00     1.00    8.00    2.00    32.00    36.00    13.60     0.00    0.20    0.12    0.50   0.10   0.10
sdh               0.00     0.00    0.00    0.00     0.00     0.00     0.00     0.00    0.00    0.00    0.00   0.00   0.00
md0               0.00     0.00 125785.00    0.00 503140.00     0.00     8.00     0.00    0.00    0.00    0.00   0.00   0.00

avg-cpu:  %user   %nice %system %iowait  %steal   %idle
           0.53    0.00    6.33    0.00    0.00   93.14

Device:         rrqm/s   wrqm/s     r/s     w/s    rkB/s    wkB/s avgrq-sz avgqu-sz   await r_await w_await  svctm  %util
sda           17004.00     0.00 4355.00    0.00 85436.00     0.00    39.24     1.80    0.41    0.41    0.00   0.11  46.50
sdb           17605.00     0.00 4178.00    0.00 87132.00     0.00    41.71     1.83    0.44    0.44    0.00   0.11  47.30
sdc           16548.00     0.00 4131.00    0.00 82644.00     0.00    40.01     2.10    0.51    0.51    0.00   0.13  54.70
sdd           16380.00     0.00 4197.00    0.00 82308.00     0.00    39.22     2.08    0.50    0.50    0.00   0.13  55.30
sde           16649.00     0.00 4185.00    0.00 83336.00     0.00    39.83     2.10    0.50    0.50    0.00   0.13  54.20
sdf           15988.00     0.00 4088.00    0.00 80304.00     0.00    39.29     2.01    0.49    0.49    0.00   0.13  54.70
sdg               0.00     0.00    0.00    0.00     0.00     0.00     0.00     0.00    0.00    0.00    0.00   0.00   0.00
sdh               0.00     0.00    0.00    0.00     0.00     0.00     0.00     0.00    0.00    0.00    0.00   0.00   0.00
md0               0.00     0.00 125250.00    0.00 501000.00     0.00     8.00     0.00    0.00    0.00    0.00   0.00   0.00

avg-cpu:  %user   %nice %system %iowait  %steal   %idle
           0.27    0.00    6.10    0.00    0.00   93.63

Device:         rrqm/s   wrqm/s     r/s     w/s    rkB/s    wkB/s avgrq-sz avgqu-sz   await r_await w_await  svctm  %util
sda           17166.00     0.00 4379.00    0.00 86180.00     0.00    39.36     1.80    0.41    0.41    0.00   0.11  46.90
sdb           15707.00     0.00 4040.00    0.00 78988.00     0.00    39.10     1.68    0.42    0.42    0.00   0.11  45.40
sdc           16940.00     0.00 4174.00    0.00 84444.00     0.00    40.46     2.14    0.51    0.51    0.00   0.14  56.90
sdd           17318.00     0.00 4181.00    0.00 85996.00     0.00    41.14     2.11    0.51    0.51    0.00   0.14  56.80
sde           17458.00     0.00 4365.00    0.00 87292.00     0.00    40.00     2.24    0.51    0.51    0.00   0.14  59.50
sdf           15607.00     0.00 4103.00    0.00 78712.00     0.00    38.37     1.97    0.48    0.48    0.00   0.13  53.60
sdg               0.00     0.00    0.00    0.00     0.00     0.00     0.00     0.00    0.00    0.00    0.00   0.00   0.00
sdh               0.00     0.00    0.00    0.00     0.00     0.00     0.00     0.00    0.00    0.00    0.00   0.00   0.00
md0               0.00     0.00 125440.00    0.00 501760.00     0.00     8.00     0.00    0.00    0.00    0.00   0.00   0.00

avg-cpu:  %user   %nice %system %iowait  %steal   %idle
           0.52    0.00    7.05    0.00    0.00   92.43

Device:         rrqm/s   wrqm/s     r/s     w/s    rkB/s    wkB/s avgrq-sz avgqu-sz   await r_await w_await  svctm  %util
sda           15901.00     0.00 4198.00    0.00 80396.00     0.00    38.30     1.62    0.39    0.39    0.00   0.10  43.00
sdb           15753.00     0.00 4102.00    0.00 79420.00     0.00    38.72     1.71    0.42    0.42    0.00   0.11  45.10
sdc           17352.00     0.00 4269.00    0.00 86552.00     0.00    40.55     2.15    0.50    0.50    0.00   0.13  57.20
sdd           15899.00     0.00 4140.00    0.00 80100.00     0.00    38.70     2.04    0.49    0.49    0.00   0.13  52.50
sde           17832.00     0.00 4210.00    0.00 88088.00     0.00    41.85     2.09    0.50    0.50    0.00   0.13  56.20
sdf           16985.00     0.00 4243.00    0.00 84880.00     0.00    40.01     2.06    0.49    0.49    0.00   0.13  54.50
sdg               0.00     0.00    0.00    0.00     0.00     0.00     0.00     0.00    0.00    0.00    0.00   0.00   0.00
sdh               0.00     0.00    0.00    0.00     0.00     0.00     0.00     0.00    0.00    0.00    0.00   0.00   0.00
md0               0.00     0.00 124928.00    0.00 499712.00     0.00     8.00     0.00    0.00    0.00    0.00   0.00   0.00

avg-cpu:  %user   %nice %system %iowait  %steal   %idle
           0.53    0.00    6.33    0.00    0.00   93.14

Device:         rrqm/s   wrqm/s     r/s     w/s    rkB/s    wkB/s avgrq-sz avgqu-sz   await r_await w_await  svctm  %util
sda           16608.00     0.00 4113.00    0.00 82756.00     0.00    40.24     1.80    0.44    0.44    0.00   0.12  48.20
sdb           16525.00     0.00 4095.00    0.00 82436.00     0.00    40.26     1.74    0.42    0.42    0.00   0.11  46.90
sdc           17064.00     0.00 4195.00    0.00 85004.00     0.00    40.53     2.22    0.53    0.53    0.00   0.14  58.30
sdd           16678.00     0.00 4265.00    0.00 83788.00     0.00    39.29     2.28    0.53    0.53    0.00   0.14  57.90
sde           16499.00     0.00 4168.00    0.00 82720.00     0.00    39.69     2.20    0.53    0.53    0.00   0.14  58.80
sdf           16731.00     0.00 4131.00    0.00 83520.00     0.00    40.44     2.25    0.55    0.55    0.00   0.14  57.70
sdg               0.00     0.00    0.00    0.00     0.00     0.00     0.00     0.00    0.00    0.00    0.00   0.00   0.00
sdh               0.00     0.00    0.00    0.00     0.00     0.00     0.00     0.00    0.00    0.00    0.00   0.00   0.00
md0               0.00     0.00 125056.00    0.00 500224.00     0.00     8.00     0.00    0.00    0.00    0.00   0.00   0.00

avg-cpu:  %user   %nice %system %iowait  %steal   %idle
           0.52    0.00    7.27    0.00    0.00   92.21

Device:         rrqm/s   wrqm/s     r/s     w/s    rkB/s    wkB/s avgrq-sz avgqu-sz   await r_await w_await  svctm  %util
sda           17613.00     0.00 4487.00    0.00 88524.00     0.00    39.46     1.92    0.43    0.43    0.00   0.11  48.50
sdb           17019.00     0.00 4182.00    0.00 84732.00     0.00    40.52     1.76    0.42    0.42    0.00   0.12  48.60
sdc           16333.00     0.00 4380.00    0.00 82860.00     0.00    37.84     2.24    0.51    0.51    0.00   0.13  57.30
sdd           17059.00     0.00 4265.00    0.00 85212.00     0.00    39.96     2.22    0.52    0.52    0.00   0.13  56.90
sde           16718.00     0.00 4287.00    0.00 83968.00     0.00    39.17     2.17    0.51    0.51    0.00   0.13  55.40
sdf           16610.00     0.00 4286.00    0.00 83632.00     0.00    39.03     2.17    0.51    0.51    0.00   0.13  56.80
sdg               0.00     0.00    0.00    0.00     0.00     0.00     0.00     0.00    0.00    0.00    0.00   0.00   0.00
sdh               0.00     0.00    0.00    0.00     0.00     0.00     0.00     0.00    0.00    0.00    0.00   0.00   0.00
md0               0.00     0.00 127232.00    0.00 508928.00     0.00     8.00     0.00    0.00    0.00    0.00   0.00   0.00

avg-cpu:  %user   %nice %system %iowait  %steal   %idle
           0.52    0.00    6.82    0.00    0.00   92.65

Device:         rrqm/s   wrqm/s     r/s     w/s    rkB/s    wkB/s avgrq-sz avgqu-sz   await r_await w_await  svctm  %util
sda           16433.00     0.00 4187.00    0.00 82484.00     0.00    39.40     1.80    0.43    0.43    0.00   0.11  46.00
sdb           16667.00     0.00 4341.00    0.00 84148.00     0.00    38.77     1.88    0.43    0.43    0.00   0.11  47.80
sdc           17109.00     0.00 4202.00    0.00 85284.00     0.00    40.59     2.24    0.53    0.53    0.00   0.14  60.20
sdd           16249.00     0.00 4174.00    0.00 81816.00     0.00    39.20     2.12    0.51    0.51    0.00   0.13  55.70
sde           16835.00     0.00 4189.00    0.00 84132.00     0.00    40.17     2.24    0.54    0.54    0.00   0.14  57.60
sdf           16504.00     0.00 4082.00    0.00 82360.00     0.00    40.35     2.15    0.53    0.53    0.00   0.14  55.70
sdg               0.00     0.00    0.00    0.00     0.00     0.00     0.00     0.00    0.00    0.00    0.00   0.00   0.00
sdh               0.00     0.00    0.00    0.00     0.00     0.00     0.00     0.00    0.00    0.00    0.00   0.00   0.00
md0               0.00     0.00 124997.00    0.00 499988.00     0.00     8.00     0.00    0.00    0.00    0.00   0.00   0.00

avg-cpu:  %user   %nice %system %iowait  %steal   %idle
           0.00    0.00    5.61    0.00    0.00   94.39

Device:         rrqm/s   wrqm/s     r/s     w/s    rkB/s    wkB/s avgrq-sz avgqu-sz   await r_await w_await  svctm  %util
sda           16961.00     0.00 4199.00    0.00 84620.00     0.00    40.30     1.95    0.46    0.46    0.00   0.12  51.20
sdb           17215.00     0.00 4294.00    0.00 85956.00     0.00    40.04     2.01    0.47    0.47    0.00   0.12  50.00
sdc           16212.00     0.00 4315.00    0.00 82016.00     0.00    38.01     2.26    0.52    0.52    0.00   0.14  59.00
sdd           16714.00     0.00 4179.00    0.00 83536.00     0.00    39.98     2.29    0.55    0.55    0.00   0.14  59.50
sde           17342.00     0.00 4212.00    0.00 86176.00     0.00    40.92     2.41    0.57    0.57    0.00   0.15  61.10
sdf           16165.00     0.00 4235.00    0.00 81584.00     0.00    38.53     2.31    0.54    0.54    0.00   0.14  60.20
sdg               0.00     0.00    0.00    0.00     0.00     0.00     0.00     0.00    0.00    0.00    0.00   0.00   0.00
sdh               0.00     0.00    0.00    0.00     0.00     0.00     0.00     0.00    0.00    0.00    0.00   0.00   0.00
md0               0.00     0.00 126011.00    0.00 504044.00     0.00     8.00     0.00    0.00    0.00    0.00   0.00   0.00

