Linux 4.17.2 (bench) 	08/03/2018 	_x86_64_	(4 CPU)

avg-cpu:  %user   %nice %system %iowait  %steal   %idle
          10.25    0.02    4.18    2.74    0.00   82.81

Device:         rrqm/s   wrqm/s     r/s     w/s    rkB/s    wkB/s avgrq-sz avgqu-sz   await r_await w_await  svctm  %util
sda              53.44     4.18 1729.19  101.05 21372.68  3092.05    26.73     1.05    0.57    0.26    5.92   0.06  11.05
sdb              53.25     4.14 1729.19  101.19 21362.22  3088.76    26.72     1.05    0.57    0.26    5.85   0.06  10.93
sdc              90.97     4.20 1689.37  100.75 21354.45  3091.19    27.31     1.47    0.82    0.44    7.12   0.08  14.43
sdd              84.50     4.17 1695.03  100.82 21339.51  3087.44    27.20     1.47    0.82    0.43    7.33   0.08  14.53
sde              86.49     4.22 1700.10  100.91 21398.84  3091.63    27.20     1.49    0.83    0.44    7.44   0.08  14.55
sdf              83.65     4.19 1702.21  100.86 21380.33  3088.53    27.14     1.54    0.85    0.44    7.90   0.08  14.58
sdg               0.00     3.17   26.84   73.25   326.10   391.99    14.35     0.44    4.39    0.20    5.93   0.08   0.79
sdh               0.00     0.13    0.02    0.23     2.18     4.99    56.82     0.00    1.15    0.65    1.19   0.21   0.01
md0               0.00     0.00 10704.80  473.47 146512.45 21164.68    30.00     0.00    0.00    0.00    0.00   0.00   0.00

avg-cpu:  %user   %nice %system %iowait  %steal   %idle
           0.25    0.00    2.78    1.77    0.00   95.19

Device:         rrqm/s   wrqm/s     r/s     w/s    rkB/s    wkB/s avgrq-sz avgqu-sz   await r_await w_await  svctm  %util
sda              14.00     0.00 1036.00    0.00 17308.00     0.00    33.41     0.14    0.14    0.14    0.00   0.13  13.70
sdb              21.00     0.00 1100.00    0.00 20220.00     0.00    36.76     0.17    0.16    0.16    0.00   0.15  16.50
sdc              28.00     0.00 1080.00    0.00 22892.00     0.00    42.39     0.20    0.19    0.19    0.00   0.17  18.90
sdd              22.00     0.00 1108.00    0.00 20748.00     0.00    37.45     0.20    0.18    0.18    0.00   0.16  18.20
sde              17.00     0.00 1096.00    0.00 19848.00     0.00    36.22     0.21    0.19    0.19    0.00   0.18  19.70
sdf              22.00     0.00 1031.00    0.00 19388.00     0.00    37.61     0.19    0.19    0.19    0.00   0.18  18.10
sdg               0.00     0.00    0.00    4.00     0.00   124.00    62.00     0.00    0.75    0.00    0.75   0.25   0.10
sdh               0.00     0.00    0.00    0.00     0.00     0.00     0.00     0.00    0.00    0.00    0.00   0.00   0.00
md0               0.00     0.00 6576.00    0.00 138284.00     0.00    42.06     0.00    0.00    0.00    0.00   0.00   0.00

avg-cpu:  %user   %nice %system %iowait  %steal   %idle
           0.00    0.00    3.03   11.36    0.00   85.61

Device:         rrqm/s   wrqm/s     r/s     w/s    rkB/s    wkB/s avgrq-sz avgqu-sz   await r_await w_await  svctm  %util
sda              17.00     0.00 1140.00    0.00 19652.00     0.00    34.48     0.16    0.14    0.14    0.00   0.13  14.90
sdb              12.00     0.00 1145.00    0.00 17824.00     0.00    31.13     0.16    0.14    0.14    0.00   0.13  14.90
sdc              16.00     0.00 1197.00    0.00 20364.00     0.00    34.03     0.21    0.17    0.17    0.00   0.16  19.40
sdd              22.00     0.00 1090.00    0.00 19568.00     0.00    35.90     0.19    0.18    0.18    0.00   0.17  18.00
sde              13.00     0.00 1143.00    0.00 18020.00     0.00    31.53     0.20    0.17    0.17    0.00   0.16  18.50
sdf              24.00     0.00 1132.00    0.00 20556.00     0.00    36.32     0.21    0.19    0.19    0.00   0.18  20.10
sdg               0.00     0.00    0.00    0.00     0.00     0.00     0.00     0.00    0.00    0.00    0.00   0.00   0.00
sdh               0.00     0.00    0.00    0.00     0.00     0.00     0.00     0.00    0.00    0.00    0.00   0.00   0.00
md0               0.00     0.00 6949.00    0.00 130348.00     0.00    37.52     0.00    0.00    0.00    0.00   0.00   0.00

