Linux 4.17.2 (bench) 	08/03/2018 	_x86_64_	(4 CPU)

avg-cpu:  %user   %nice %system %iowait  %steal   %idle
          10.27    0.02    4.07    2.57    0.00   83.07

Device:         rrqm/s   wrqm/s     r/s     w/s    rkB/s    wkB/s avgrq-sz avgqu-sz   await r_await w_await  svctm  %util
sda              45.95     4.24 1658.37  102.46 20975.20  3135.19    27.39     1.04    0.59    0.26    5.92   0.06  10.75
sdb              45.80     4.20 1658.32  102.60 20964.57  3131.85    27.37     1.03    0.59    0.26    5.85   0.06  10.63
sdc              83.77     4.26 1618.25  102.15 20956.67  3134.31    28.01     1.45    0.84    0.45    7.12   0.08  14.09
sdd              77.20     4.23 1623.99  102.22 20941.59  3130.51    27.89     1.46    0.85    0.44    7.33   0.08  14.18
sde              79.23     4.27 1629.06  102.32 21001.37  3134.76    27.88     1.48    0.86    0.44    7.44   0.08  14.20
sdf              76.35     4.25 1631.22  102.26 20982.64  3131.62    27.82     1.53    0.88    0.44    7.90   0.08  14.23
sdg               0.00     3.17   26.33   73.32   324.08   392.08    14.37     0.44    4.42    0.20    5.93   0.08   0.78
sdh               0.00     0.13    0.02    0.23     2.21     5.06    56.82     0.00    1.15    0.65    1.19   0.21   0.01
md0               0.00     0.00 10234.34  480.07 143689.00 21459.95    30.83     0.00    0.00    0.00    0.00   0.00   0.00

avg-cpu:  %user   %nice %system %iowait  %steal   %idle
           2.24    0.00    6.44    0.00    0.00   91.32

Device:         rrqm/s   wrqm/s     r/s     w/s    rkB/s    wkB/s avgrq-sz avgqu-sz   await r_await w_await  svctm  %util
sda             272.00     0.00 14461.00    0.00 58928.00     0.00     8.15     3.10    0.21    0.21    0.00   0.05  69.50
sdb             245.00     0.00 14253.00    0.00 57992.00     0.00     8.14     3.08    0.22    0.22    0.00   0.05  70.90
sdc             251.00     0.00 14219.00    0.00 57880.00     0.00     8.14     3.08    0.22    0.22    0.00   0.05  72.40
sdd             270.00     0.00 14285.00    0.00 58220.00     0.00     8.15     3.20    0.22    0.22    0.00   0.05  71.10
sde             299.00     0.00 14483.00    0.00 59128.00     0.00     8.17     3.28    0.23    0.23    0.00   0.05  72.60
sdf             304.00     0.00 14507.00    0.00 59244.00     0.00     8.17     3.35    0.23    0.23    0.00   0.05  74.40
sdg               0.00     0.00    4.00    1.00    80.00     8.00    35.20     0.00    0.20    0.25    0.00   0.20   0.10
sdh               0.00     0.00    0.00    0.00     0.00     0.00     0.00     0.00    0.00    0.00    0.00   0.00   0.00
md0               0.00     0.00 87865.00    0.00 351460.00     0.00     8.00     0.00    0.00    0.00    0.00   0.00   0.00

avg-cpu:  %user   %nice %system %iowait  %steal   %idle
           2.49    0.00    7.18    0.00    0.00   90.33

Device:         rrqm/s   wrqm/s     r/s     w/s    rkB/s    wkB/s avgrq-sz avgqu-sz   await r_await w_await  svctm  %util
sda             239.00     0.00 14212.00    0.00 57808.00     0.00     8.14     3.03    0.21    0.21    0.00   0.05  68.60
sdb             266.00     0.00 14380.00    0.00 58584.00     0.00     8.15     3.17    0.22    0.22    0.00   0.05  71.50
sdc             299.00     0.00 14497.00    0.00 59184.00     0.00     8.16     3.18    0.22    0.22    0.00   0.05  71.20
sdd             257.00     0.00 14319.00    0.00 58304.00     0.00     8.14     3.21    0.22    0.22    0.00   0.05  71.90
sde             289.00     0.00 14412.00    0.00 58804.00     0.00     8.16     3.22    0.22    0.22    0.00   0.05  73.60
sdf             260.00     0.00 14393.00    0.00 58612.00     0.00     8.14     3.33    0.23    0.23    0.00   0.05  74.30
sdg               0.00     0.00    0.00    0.00     0.00     0.00     0.00     0.00    0.00    0.00    0.00   0.00   0.00
sdh               0.00     0.00    0.00    0.00     0.00     0.00     0.00     0.00    0.00    0.00    0.00   0.00   0.00
md0               0.00     0.00 87839.00    0.00 351356.00     0.00     8.00     0.00    0.00    0.00    0.00   0.00   0.00

avg-cpu:  %user   %nice %system %iowait  %steal   %idle
           2.49    0.00    7.46    0.00    0.00   90.06

Device:         rrqm/s   wrqm/s     r/s     w/s    rkB/s    wkB/s avgrq-sz avgqu-sz   await r_await w_await  svctm  %util
sda             290.00     0.00 14233.00    0.00 58092.00     0.00     8.16     3.16    0.22    0.22    0.00   0.05  70.20
sdb             272.00     0.00 14167.00    0.00 57756.00     0.00     8.15     3.21    0.23    0.23    0.00   0.05  71.40
sdc             279.00     0.00 14440.00    0.00 58876.00     0.00     8.15     3.23    0.22    0.22    0.00   0.05  72.30
sdd             253.00     0.00 13940.00    0.00 56772.00     0.00     8.15     3.17    0.23    0.23    0.00   0.05  72.60
sde             257.00     0.00 14653.00    0.00 59640.00     0.00     8.14     3.23    0.22    0.22    0.00   0.05  75.10
sdf             271.00     0.00 14113.00    0.00 57536.00     0.00     8.15     3.20    0.23    0.23    0.00   0.05  72.80
sdg               0.00    20.00   76.00   78.00  1216.00  1352.00    33.35     0.27    1.77    0.21    3.29   0.15   2.30
sdh               0.00     0.00    0.00    0.00     0.00     0.00     0.00     0.00    0.00    0.00    0.00   0.00   0.00
md0               0.00     0.00 87168.00    0.00 348672.00     0.00     8.00     0.00    0.00    0.00    0.00   0.00   0.00

avg-cpu:  %user   %nice %system %iowait  %steal   %idle
           2.23    0.00    6.96    0.00    0.00   90.81

Device:         rrqm/s   wrqm/s     r/s     w/s    rkB/s    wkB/s avgrq-sz avgqu-sz   await r_await w_await  svctm  %util
sda             262.00     0.00 14169.00    0.00 57724.00     0.00     8.15     3.17    0.22    0.22    0.00   0.05  72.90
sdb             291.00     0.00 14438.00    0.00 58916.00     0.00     8.16     3.22    0.22    0.22    0.00   0.05  71.40
sdc             292.00     0.00 14252.00    0.00 58172.00     0.00     8.16     3.27    0.23    0.23    0.00   0.05  72.90
sdd             259.00     0.00 14459.00    0.00 58872.00     0.00     8.14     3.34    0.23    0.23    0.00   0.05  73.60
sde             276.00     0.00 14313.00    0.00 58356.00     0.00     8.15     3.32    0.23    0.23    0.00   0.05  74.60
sdf             231.00     0.00 14503.00    0.00 58936.00     0.00     8.13     3.45    0.24    0.24    0.00   0.05  74.20
sdg               0.00     0.00    0.00    0.00     0.00     0.00     0.00     0.00    0.00    0.00    0.00   0.00   0.00
sdh               0.00     0.00    0.00    0.00     0.00     0.00     0.00     0.00    0.00    0.00    0.00   0.00   0.00
md0               0.00     0.00 87744.00    0.00 350976.00     0.00     8.00     0.00    0.00    0.00    0.00   0.00   0.00

avg-cpu:  %user   %nice %system %iowait  %steal   %idle
           2.50    0.00    6.67    0.00    0.00   90.83

Device:         rrqm/s   wrqm/s     r/s     w/s    rkB/s    wkB/s avgrq-sz avgqu-sz   await r_await w_await  svctm  %util
sda             265.00     0.00 14467.00    0.00 58928.00     0.00     8.15     3.15    0.22    0.22    0.00   0.05  71.60
sdb             258.00     0.00 14568.00    0.00 59304.00     0.00     8.14     3.28    0.22    0.22    0.00   0.05  72.50
sdc             283.00     0.00 14096.00    0.00 57516.00     0.00     8.16     3.10    0.22    0.22    0.00   0.05  72.90
sdd             268.00     0.00 14262.00    0.00 58120.00     0.00     8.15     3.22    0.23    0.23    0.00   0.05  71.50
sde             272.00     0.00 14386.00    0.00 58632.00     0.00     8.15     3.30    0.23    0.23    0.00   0.05  73.50
sdf             267.00     0.00 14272.00    0.00 58156.00     0.00     8.15     3.34    0.23    0.23    0.00   0.05  75.60
sdg               0.00     0.00    0.00    0.00     0.00     0.00     0.00     0.00    0.00    0.00    0.00   0.00   0.00
sdh               0.00     0.00    0.00    0.00     0.00     0.00     0.00     0.00    0.00    0.00    0.00   0.00   0.00
md0               0.00     0.00 87680.00    0.00 350720.00     0.00     8.00     0.00    0.00    0.00    0.00   0.00   0.00

avg-cpu:  %user   %nice %system %iowait  %steal   %idle
           2.38    0.00   10.05    0.00    0.00   87.57

Device:         rrqm/s   wrqm/s     r/s     w/s    rkB/s    wkB/s avgrq-sz avgqu-sz   await r_await w_await  svctm  %util
sda             279.00     0.00 14589.00    0.00 59472.00     0.00     8.15     2.99    0.21    0.21    0.00   0.05  67.10
sdb             287.00     0.00 14432.00    0.00 58876.00     0.00     8.16     2.96    0.21    0.21    0.00   0.05  68.20
sdc             237.00     0.00 14458.00    0.00 58784.00     0.00     8.13     3.01    0.21    0.21    0.00   0.05  68.70
sdd             283.00     0.00 14615.00    0.00 59592.00     0.00     8.15     3.15    0.22    0.22    0.00   0.05  70.40
sde             261.00     0.00 14631.00    0.00 59568.00     0.00     8.14     3.12    0.21    0.21    0.00   0.05  71.30
sdf             254.00     0.00 14468.00    0.00 58888.00     0.00     8.14     3.12    0.22    0.22    0.00   0.05  71.00
sdg               0.00     0.00    0.00    0.00     0.00     0.00     0.00     0.00    0.00    0.00    0.00   0.00   0.00
sdh               0.00     0.00    0.00    0.00     0.00     0.00     0.00     0.00    0.00    0.00    0.00   0.00   0.00
md0               0.00     0.00 88768.00    0.00 355072.00     0.00     8.00     0.00    0.00    0.00    0.00   0.00   0.00

avg-cpu:  %user   %nice %system %iowait  %steal   %idle
           2.49    0.00    6.93    0.00    0.00   90.58

Device:         rrqm/s   wrqm/s     r/s     w/s    rkB/s    wkB/s avgrq-sz avgqu-sz   await r_await w_await  svctm  %util
sda             292.00     0.00 14637.00    0.00 59716.00     0.00     8.16     3.12    0.21    0.21    0.00   0.05  70.30
sdb             243.00     0.00 14593.00    0.00 59344.00     0.00     8.13     3.28    0.22    0.22    0.00   0.05  72.40
sdc             259.00     0.00 14249.00    0.00 58032.00     0.00     8.15     3.20    0.22    0.22    0.00   0.05  71.40
sdd             284.00     0.00 14459.00    0.00 58972.00     0.00     8.16     3.21    0.22    0.22    0.00   0.05  73.90
sde             264.00     0.00 14513.00    0.00 59108.00     0.00     8.15     3.33    0.23    0.23    0.00   0.05  73.80
sdf             272.00     0.00 14372.00    0.00 58576.00     0.00     8.15     3.30    0.23    0.23    0.00   0.05  73.80
sdg               0.00     0.00    0.00    0.00     0.00     0.00     0.00     0.00    0.00    0.00    0.00   0.00   0.00
sdh               0.00     0.00    0.00    0.00     0.00     0.00     0.00     0.00    0.00    0.00    0.00   0.00   0.00
md0               0.00     0.00 88448.00    0.00 353792.00     0.00     8.00     0.00    0.00    0.00    0.00   0.00   0.00

avg-cpu:  %user   %nice %system %iowait  %steal   %idle
           2.22    0.00    7.48    0.00    0.00   90.30

Device:         rrqm/s   wrqm/s     r/s     w/s    rkB/s    wkB/s avgrq-sz avgqu-sz   await r_await w_await  svctm  %util
sda             265.00     0.00 14413.00    0.00 58712.00     0.00     8.15     3.32    0.23    0.23    0.00   0.05  72.60
sdb             253.00     0.00 14295.00    0.00 58192.00     0.00     8.14     3.23    0.23    0.23    0.00   0.05  71.90
sdc             248.00     0.00 14452.00    0.00 58800.00     0.00     8.14     3.22    0.22    0.22    0.00   0.05  73.40
sdd             227.00     0.00 14507.00    0.00 58936.00     0.00     8.13     3.30    0.23    0.23    0.00   0.05  74.50
sde             271.00     0.00 14667.00    0.00 59752.00     0.00     8.15     3.39    0.23    0.23    0.00   0.05  75.40
sdf             247.00     0.00 14795.00    0.00 60168.00     0.00     8.13     3.45    0.23    0.23    0.00   0.05  75.10
sdg               0.00     0.00    0.00    0.00     0.00     0.00     0.00     0.00    0.00    0.00    0.00   0.00   0.00
sdh               0.00     0.00    0.00    0.00     0.00     0.00     0.00     0.00    0.00    0.00    0.00   0.00   0.00
md0               0.00     0.00 88640.00    0.00 354560.00     0.00     8.00     0.00    0.00    0.00    0.00   0.00   0.00

avg-cpu:  %user   %nice %system %iowait  %steal   %idle
           2.40    0.27    9.87    0.00    0.00   87.47

Device:         rrqm/s   wrqm/s     r/s     w/s    rkB/s    wkB/s avgrq-sz avgqu-sz   await r_await w_await  svctm  %util
sda             244.00     0.00 14500.00    0.00 58976.00     0.00     8.13     3.03    0.21    0.21    0.00   0.05  69.80
sdb             292.00     0.00 14556.00    0.00 59392.00     0.00     8.16     3.11    0.21    0.21    0.00   0.05  70.80
sdc             270.00     0.00 14685.00    0.00 59820.00     0.00     8.15     2.99    0.20    0.20    0.00   0.05  69.90
sdd             225.00     0.00 14633.00    0.00 59432.00     0.00     8.12     3.15    0.22    0.22    0.00   0.05  71.40
sde             285.00     0.00 14567.00    0.00 59408.00     0.00     8.16     3.18    0.22    0.22    0.00   0.05  72.10
sdf             271.00     0.00 14426.00    0.00 58788.00     0.00     8.15     3.21    0.22    0.22    0.00   0.05  71.70
sdg               0.00     0.00   18.00    0.00   120.00     0.00    13.33     0.00    0.17    0.17    0.00   0.17   0.30
sdh               0.00     0.00    0.00    0.00     0.00     0.00     0.00     0.00    0.00    0.00    0.00   0.00   0.00
md0               0.00     0.00 88928.00    0.00 355712.00     0.00     8.00     0.00    0.00    0.00    0.00   0.00   0.00

avg-cpu:  %user   %nice %system %iowait  %steal   %idle
           2.22    0.00    7.48    0.00    0.00   90.30

Device:         rrqm/s   wrqm/s     r/s     w/s    rkB/s    wkB/s avgrq-sz avgqu-sz   await r_await w_await  svctm  %util
sda             267.00     0.00 14360.00    0.00 58508.00     0.00     8.15     3.14    0.22    0.22    0.00   0.05  70.40
sdb             256.00     0.00 14427.00    0.00 58732.00     0.00     8.14     3.17    0.22    0.22    0.00   0.05  72.70
sdc             289.00     0.00 14428.00    0.00 58868.00     0.00     8.16     3.19    0.22    0.22    0.00   0.05  72.80
sdd             278.00     0.00 14463.00    0.00 58964.00     0.00     8.15     3.32    0.23    0.23    0.00   0.05  73.10
sde             258.00     0.00 14315.00    0.00 58292.00     0.00     8.14     3.32    0.23    0.23    0.00   0.05  73.30
sdf             303.00     0.00 14522.00    0.00 59300.00     0.00     8.17     3.35    0.23    0.23    0.00   0.05  73.90
sdg               0.00     0.00    0.00    0.00     0.00     0.00     0.00     0.00    0.00    0.00    0.00   0.00   0.00
sdh               0.00     0.00    0.00    0.00     0.00     0.00     0.00     0.00    0.00    0.00    0.00   0.00   0.00
md0               0.00     0.00 88192.00    0.00 352768.00     0.00     8.00     0.00    0.00    0.00    0.00   0.00   0.00

avg-cpu:  %user   %nice %system %iowait  %steal   %idle
           2.22    0.00    7.48    0.00    0.00   90.30

Device:         rrqm/s   wrqm/s     r/s     w/s    rkB/s    wkB/s avgrq-sz avgqu-sz   await r_await w_await  svctm  %util
sda             253.00     0.00 14169.00    0.00 57684.00     0.00     8.14     3.18    0.22    0.22    0.00   0.05  72.10
sdb             238.00     0.00 14386.00    0.00 58492.00     0.00     8.13     3.27    0.23    0.23    0.00   0.05  73.10
sdc             253.00     0.00 14397.00    0.00 58600.00     0.00     8.14     3.25    0.23    0.23    0.00   0.05  73.10
sdd             263.00     0.00 14569.00    0.00 59328.00     0.00     8.14     3.33    0.23    0.23    0.00   0.05  73.60
sde             259.00     0.00 14448.00    0.00 58828.00     0.00     8.14     3.29    0.23    0.23    0.00   0.05  73.30
sdf             272.00     0.00 14463.00    0.00 58940.00     0.00     8.15     3.30    0.23    0.23    0.00   0.05  75.00
sdg               0.00     0.00    0.00    0.00     0.00     0.00     0.00     0.00    0.00    0.00    0.00   0.00   0.00
sdh               0.00     0.00    0.00    0.00     0.00     0.00     0.00     0.00    0.00    0.00    0.00   0.00   0.00
md0               0.00     0.00 87968.00    0.00 351872.00     0.00     8.00     0.00    0.00    0.00    0.00   0.00   0.00

avg-cpu:  %user   %nice %system %iowait  %steal   %idle
           2.60    0.00   11.95    2.08    0.00   83.38

Device:         rrqm/s   wrqm/s     r/s     w/s    rkB/s    wkB/s avgrq-sz avgqu-sz   await r_await w_await  svctm  %util
sda             318.00     0.00 14532.00    0.00 59404.00     0.00     8.18     3.04    0.21    0.21    0.00   0.05  68.80
sdb             287.00     0.00 14679.00    0.00 59868.00     0.00     8.16     3.03    0.21    0.21    0.00   0.05  68.80
sdc             262.00     0.00 14829.00    0.00 60364.00     0.00     8.14     3.02    0.20    0.20    0.00   0.05  68.80
sdd             252.00     0.00 14562.00    0.00 59256.00     0.00     8.14     3.12    0.21    0.21    0.00   0.05  72.50
sde             264.00     0.00 14288.00    0.00 58208.00     0.00     8.15     3.08    0.22    0.22    0.00   0.05  71.10
sdf             270.00     0.00 14401.00    0.00 58684.00     0.00     8.15     3.16    0.22    0.22    0.00   0.05  70.90
sdg               0.00    83.00    8.00 2627.00    32.00 12772.00     9.72    15.97    6.06    1.75    6.07   0.05  12.10
sdh               0.00     0.00    0.00    0.00     0.00     0.00     0.00     0.00    0.00    0.00    0.00   0.00   0.00
md0               0.00     0.00 88948.00    0.00 355788.00     0.00     8.00     0.00    0.00    0.00    0.00   0.00   0.00

avg-cpu:  %user   %nice %system %iowait  %steal   %idle
           2.34    0.00   11.20    0.00    0.00   86.46

Device:         rrqm/s   wrqm/s     r/s     w/s    rkB/s    wkB/s avgrq-sz avgqu-sz   await r_await w_await  svctm  %util
sda             274.00     0.00 14479.00    0.00 59012.00     0.00     8.15     2.98    0.21    0.21    0.00   0.05  67.80
sdb             280.00     0.00 14470.00    0.00 59000.00     0.00     8.15     3.02    0.21    0.21    0.00   0.05  68.10
sdc             300.00     0.00 14380.00    0.00 58720.00     0.00     8.17     3.12    0.22    0.22    0.00   0.05  70.80
sdd             252.00     0.00 14469.00    0.00 58884.00     0.00     8.14     3.02    0.21    0.21    0.00   0.05  70.10
sde             283.00     0.00 14572.00    0.00 59420.00     0.00     8.16     3.14    0.22    0.22    0.00   0.05  70.60
sdf             268.00     0.00 14595.00    0.00 59452.00     0.00     8.15     3.25    0.22    0.22    0.00   0.05  73.10
sdg               0.00     0.00    0.00    0.00     0.00     0.00     0.00     0.00    0.00    0.00    0.00   0.00   0.00
sdh               0.00     0.00    0.00    0.00     0.00     0.00     0.00     0.00    0.00    0.00    0.00   0.00   0.00
md0               0.00     0.00 88620.00    0.00 354484.00     0.00     8.00     0.00    0.00    0.00    0.00   0.00   0.00

avg-cpu:  %user   %nice %system %iowait  %steal   %idle
           2.51    0.00   13.32    0.00    0.00   84.17

Device:         rrqm/s   wrqm/s     r/s     w/s    rkB/s    wkB/s avgrq-sz avgqu-sz   await r_await w_await  svctm  %util
sda             259.00     0.00 14606.00    0.00 59460.00     0.00     8.14     2.97    0.20    0.20    0.00   0.05  67.10
sdb             288.00     0.00 14435.00    0.00 58892.00     0.00     8.16     2.92    0.20    0.20    0.00   0.05  67.60
sdc             272.00     0.00 14647.00    0.00 59676.00     0.00     8.15     3.12    0.21    0.21    0.00   0.05  71.20
sdd             264.00     0.00 14721.00    0.00 59940.00     0.00     8.14     3.22    0.22    0.22    0.00   0.05  71.40
sde             311.00     0.00 14692.00    0.00 60004.00     0.00     8.17     3.06    0.21    0.21    0.00   0.05  71.50
sdf             271.00     0.00 14557.00    0.00 59312.00     0.00     8.15     3.06    0.21    0.21    0.00   0.05  70.70
sdg               0.00     0.00    0.00    0.00     0.00     0.00     0.00     0.00    0.00    0.00    0.00   0.00   0.00
sdh               0.00     0.00    0.00    0.00     0.00     0.00     0.00     0.00    0.00    0.00    0.00   0.00   0.00
md0               0.00     0.00 89312.00    0.00 357248.00     0.00     8.00     0.00    0.00    0.00    0.00   0.00   0.00

avg-cpu:  %user   %nice %system %iowait  %steal   %idle
           2.26    0.00   13.57    0.00    0.00   84.17

Device:         rrqm/s   wrqm/s     r/s     w/s    rkB/s    wkB/s avgrq-sz avgqu-sz   await r_await w_await  svctm  %util
sda             251.00     0.00 14401.00    0.00 58608.00     0.00     8.14     2.77    0.19    0.19    0.00   0.05  67.70
sdb             274.00     0.00 14607.00    0.00 59524.00     0.00     8.15     3.01    0.21    0.21    0.00   0.05  67.80
sdc             257.00     0.00 14480.00    0.00 58948.00     0.00     8.14     2.99    0.21    0.21    0.00   0.05  69.40
sdd             275.00     0.00 14245.00    0.00 58080.00     0.00     8.15     2.94    0.21    0.21    0.00   0.05  70.00
sde             319.00     0.00 14594.00    0.00 59660.00     0.00     8.18     3.09    0.21    0.21    0.00   0.05  69.40
sdf             250.00     0.00 14613.00    0.00 59448.00     0.00     8.14     3.13    0.21    0.21    0.00   0.05  70.50
sdg               0.00     0.00    0.00    0.00     0.00     0.00     0.00     0.00    0.00    0.00    0.00   0.00   0.00
sdh               0.00     0.00    0.00    0.00     0.00     0.00     0.00     0.00    0.00    0.00    0.00   0.00   0.00
md0               0.00     0.00 88576.00    0.00 354304.00     0.00     8.00     0.00    0.00    0.00    0.00   0.00   0.00

avg-cpu:  %user   %nice %system %iowait  %steal   %idle
           2.45    0.00    8.17    0.00    0.00   89.37

Device:         rrqm/s   wrqm/s     r/s     w/s    rkB/s    wkB/s avgrq-sz avgqu-sz   await r_await w_await  svctm  %util
sda             267.00     0.00 14529.00    0.00 59184.00     0.00     8.15     3.17    0.22    0.22    0.00   0.05  69.70
sdb             282.00     0.00 14614.00    0.00 59584.00     0.00     8.15     3.17    0.22    0.22    0.00   0.05  69.30
sdc             285.00     0.00 14408.00    0.00 58772.00     0.00     8.16     2.99    0.21    0.21    0.00   0.05  70.50
sdd             264.00     0.00 14239.00    0.00 58012.00     0.00     8.15     3.01    0.21    0.21    0.00   0.05  70.40
sde             288.00     0.00 14426.00    0.00 58856.00     0.00     8.16     3.20    0.22    0.22    0.00   0.05  72.60
sdf             269.00     0.00 14480.00    0.00 59000.00     0.00     8.15     3.36    0.23    0.23    0.00   0.05  73.10
sdg               0.00     0.00    0.00    0.00     0.00     0.00     0.00     0.00    0.00    0.00    0.00   0.00   0.00
sdh               0.00     0.00    0.00    0.00     0.00     0.00     0.00     0.00    0.00    0.00    0.00   0.00   0.00
md0               0.00     0.00 88352.00    0.00 353408.00     0.00     8.00     0.00    0.00    0.00    0.00   0.00   0.00

avg-cpu:  %user   %nice %system %iowait  %steal   %idle
           2.67    0.00    9.36    0.00    0.00   87.97

Device:         rrqm/s   wrqm/s     r/s     w/s    rkB/s    wkB/s avgrq-sz avgqu-sz   await r_await w_await  svctm  %util
sda             284.00     0.00 14295.00    0.00 58312.00     0.00     8.16     2.98    0.21    0.21    0.00   0.05  68.20
sdb             291.00     0.00 14533.00    0.00 59296.00     0.00     8.16     3.01    0.21    0.21    0.00   0.05  69.40
sdc             265.00     0.00 14525.00    0.00 59160.00     0.00     8.15     3.06    0.21    0.21    0.00   0.05  69.70
sdd             282.00     0.00 14628.00    0.00 59640.00     0.00     8.15     3.10    0.21    0.21    0.00   0.05  71.20
sde             287.00     0.00 14555.00    0.00 59368.00     0.00     8.16     3.13    0.21    0.21    0.00   0.05  71.20
sdf             276.00     0.00 14437.00    0.00 58852.00     0.00     8.15     3.02    0.21    0.21    0.00   0.05  71.60
sdg               0.00     0.00    0.00    0.00     0.00     0.00     0.00     0.00    0.00    0.00    0.00   0.00   0.00
sdh               0.00     0.00    0.00    0.00     0.00     0.00     0.00     0.00    0.00    0.00    0.00   0.00   0.00
md0               0.00     0.00 88661.00    0.00 354644.00     0.00     8.00     0.00    0.00    0.00    0.00   0.00   0.00

avg-cpu:  %user   %nice %system %iowait  %steal   %idle
           2.49    0.00    7.20    0.00    0.00   90.30

Device:         rrqm/s   wrqm/s     r/s     w/s    rkB/s    wkB/s avgrq-sz avgqu-sz   await r_await w_await  svctm  %util
sda             240.00     0.00 14290.00    0.00 58124.00     0.00     8.13     3.19    0.22    0.22    0.00   0.05  72.10
sdb             265.00     0.00 14329.00    0.00 58376.00     0.00     8.15     3.22    0.22    0.22    0.00   0.05  73.10
sdc             259.00     0.00 14345.00    0.00 58416.00     0.00     8.14     3.15    0.22    0.22    0.00   0.05  73.20
sdd             244.00     0.00 14277.00    0.00 58084.00     0.00     8.14     3.33    0.23    0.23    0.00   0.05  74.10
sde             239.00     0.00 14385.00    0.00 58496.00     0.00     8.13     3.38    0.23    0.23    0.00   0.05  74.50
sdf             251.00     0.00 14602.00    0.00 59412.00     0.00     8.14     3.48    0.24    0.24    0.00   0.05  75.40
sdg               0.00     0.00    0.00    0.00     0.00     0.00     0.00     0.00    0.00    0.00    0.00   0.00   0.00
sdh               0.00     0.00    0.00    0.00     0.00     0.00     0.00     0.00    0.00    0.00    0.00   0.00   0.00
md0               0.00     0.00 87723.00    0.00 350892.00     0.00     8.00     0.00    0.00    0.00    0.00   0.00   0.00

avg-cpu:  %user   %nice %system %iowait  %steal   %idle
           2.69    0.00    9.95    3.76    0.00   83.60

Device:         rrqm/s   wrqm/s     r/s     w/s    rkB/s    wkB/s avgrq-sz avgqu-sz   await r_await w_await  svctm  %util
sda             304.00     0.00 14326.00    0.00 58520.00     0.00     8.17     2.97    0.21    0.21    0.00   0.05  71.00
sdb             254.00     0.00 14505.00    0.00 59036.00     0.00     8.14     3.09    0.21    0.21    0.00   0.05  69.80
sdc             254.00     0.00 14383.00    0.00 58548.00     0.00     8.14     3.15    0.22    0.22    0.00   0.05  71.10
sdd             283.00     0.00 14454.00    0.00 58948.00     0.00     8.16     3.22    0.22    0.22    0.00   0.05  73.20
sde             271.00     0.00 14251.00    0.00 58088.00     0.00     8.15     3.29    0.23    0.23    0.00   0.05  72.60
sdf             269.00     0.00 14639.00    0.00 59628.00     0.00     8.15     3.25    0.22    0.22    0.00   0.05  71.20
sdg               0.00     0.00 1319.00    0.00  5276.00     0.00     8.00     0.15    0.12    0.12    0.00   0.12  15.20
sdh               0.00     0.00    0.00    0.00     0.00     0.00     0.00     0.00    0.00    0.00    0.00   0.00   0.00
md0               0.00     0.00 88192.00    0.00 352768.00     0.00     8.00     0.00    0.00    0.00    0.00   0.00   0.00

avg-cpu:  %user   %nice %system %iowait  %steal   %idle
           2.49    0.00    7.46    0.00    0.00   90.06

Device:         rrqm/s   wrqm/s     r/s     w/s    rkB/s    wkB/s avgrq-sz avgqu-sz   await r_await w_await  svctm  %util
sda             294.00     0.00 14426.00    0.00 58880.00     0.00     8.16     2.97    0.21    0.21    0.00   0.05  68.80
sdb             266.00     0.00 14426.00    0.00 58768.00     0.00     8.15     3.00    0.21    0.21    0.00   0.05  67.60
sdc             274.00     0.00 14242.00    0.00 58064.00     0.00     8.15     2.96    0.21    0.21    0.00   0.05  69.80
sdd             230.00     0.00 14478.00    0.00 58832.00     0.00     8.13     3.05    0.21    0.21    0.00   0.05  68.60
sde             263.00     0.00 14427.00    0.00 58760.00     0.00     8.15     3.14    0.22    0.22    0.00   0.05  70.40
sdf             267.00     0.00 14483.00    0.00 59004.00     0.00     8.15     3.15    0.22    0.22    0.00   0.05  71.10
sdg               0.00     0.00    0.00    0.00     0.00     0.00     0.00     0.00    0.00    0.00    0.00   0.00   0.00
sdh               0.00     0.00    0.00    0.00     0.00     0.00     0.00     0.00    0.00    0.00    0.00   0.00   0.00
md0               0.00     0.00 88064.00    0.00 352256.00     0.00     8.00     0.00    0.00    0.00    0.00   0.00   0.00

