Linux 4.17.2 (bench) 	08/03/2018 	_x86_64_	(4 CPU)

avg-cpu:  %user   %nice %system %iowait  %steal   %idle
          10.25    0.02    4.19    2.75    0.00   82.79

Device:         rrqm/s   wrqm/s     r/s     w/s    rkB/s    wkB/s avgrq-sz avgqu-sz   await r_await w_await  svctm  %util
sda              54.40     4.18 1737.49  100.94 21437.00  3088.64    26.68     1.05    0.57    0.26    5.92   0.06  11.08
sdb              54.21     4.14 1737.50  101.08 21426.52  3085.35    26.66     1.05    0.57    0.26    5.85   0.06  10.96
sdc              91.94     4.20 1697.66  100.64 21418.75  3087.78    27.26     1.47    0.82    0.44    7.12   0.08  14.47
sdd              85.49     4.17 1703.31  100.70 21403.88  3084.03    27.15     1.48    0.82    0.43    7.33   0.08  14.56
sde              87.48     4.21 1708.39  100.80 21463.13  3088.22    27.14     1.50    0.83    0.44    7.44   0.08  14.59
sdf              84.64     4.18 1710.48  100.75 21444.65  3085.13    27.09     1.54    0.85    0.44    7.90   0.08  14.62
sdg               0.00     3.17   26.91   73.26   326.39   392.03    14.34     0.44    4.39    0.20    5.93   0.08   0.79
sdh               0.00     0.13    0.02    0.23     2.18     4.98    56.82     0.00    1.15    0.65    1.19   0.21   0.01
md0               0.00     0.00 10760.59  472.95 146974.84 21141.34    29.93     0.00    0.00    0.00    0.00   0.00   0.00

avg-cpu:  %user   %nice %system %iowait  %steal   %idle
           0.25    0.25    3.80   14.68    0.00   81.01

Device:         rrqm/s   wrqm/s     r/s     w/s    rkB/s    wkB/s avgrq-sz avgqu-sz   await r_await w_await  svctm  %util
sda               4.00     0.00 1993.00    0.00 46132.00     0.00    46.29     1.47    0.74    0.74    0.00   0.11  21.80
sdb               7.00     0.00 2076.00    0.00 49184.00     0.00    47.38     1.52    0.73    0.73    0.00   0.11  23.30
sdc               3.00     0.00 2108.00    0.00 45236.00     0.00    42.92     2.66    1.26    1.26    0.00   0.15  30.70
sdd               3.00     0.00 2002.00    0.00 43088.00     0.00    43.04     2.34    1.17    1.17    0.00   0.15  29.10
sde               3.00     0.00 2020.00    0.00 43676.00     0.00    43.24     2.45    1.21    1.21    0.00   0.15  29.50
sdf               4.00     0.00 1936.00    0.00 43208.00     0.00    44.64     2.62    1.35    1.35    0.00   0.15  28.50
sdg               0.00     0.00   13.00    0.00    76.00     0.00    11.69     0.00    0.08    0.08    0.00   0.08   0.10
sdh               0.00     0.00    0.00    0.00     0.00     0.00     0.00     0.00    0.00    0.00    0.00   0.00   0.00
md0               0.00     0.00 12161.00    0.00 286788.00     0.00    47.17     0.00    0.00    0.00    0.00   0.00   0.00

avg-cpu:  %user   %nice %system %iowait  %steal   %idle
           0.00    0.00    2.78    1.27    0.00   95.95

Device:         rrqm/s   wrqm/s     r/s     w/s    rkB/s    wkB/s avgrq-sz avgqu-sz   await r_await w_await  svctm  %util
sda              33.00     0.00 1087.00    0.00 25972.00     0.00    47.79     0.21    0.19    0.19    0.00   0.16  17.90
sdb              35.00     0.00 1063.00    0.00 27172.00     0.00    51.12     0.20    0.19    0.19    0.00   0.16  17.30
sdc              34.00     0.00 1037.00    0.00 26912.00     0.00    51.90     0.27    0.26    0.26    0.00   0.19  20.00
sdd              34.00     0.00 1102.00    0.00 25356.00     0.00    46.02     0.30    0.27    0.27    0.00   0.20  22.00
sde              26.00     0.00 1158.00    0.00 22684.00     0.00    39.18     0.27    0.23    0.23    0.00   0.18  20.90
sdf              29.00     0.00 1152.00    0.00 24832.00     0.00    43.11     0.29    0.25    0.25    0.00   0.20  22.50
sdg               0.00     0.00    0.00    0.00     0.00     0.00     0.00     0.00    0.00    0.00    0.00   0.00   0.00
sdh               0.00     0.00    0.00    0.00     0.00     0.00     0.00     0.00    0.00    0.00    0.00   0.00   0.00
md0               0.00     0.00 6790.00    0.00 196288.00     0.00    57.82     0.00    0.00    0.00    0.00   0.00   0.00

avg-cpu:  %user   %nice %system %iowait  %steal   %idle
           0.25    0.00    2.53    1.27    0.00   95.95

Device:         rrqm/s   wrqm/s     r/s     w/s    rkB/s    wkB/s avgrq-sz avgqu-sz   await r_await w_await  svctm  %util
sda              16.00     0.00 1149.00    0.00 16508.00     0.00    28.73     0.16    0.14    0.14    0.00   0.14  15.90
sdb              17.00     0.00 1146.00    0.00 19244.00     0.00    33.58     0.17    0.15    0.15    0.00   0.15  17.50
sdc              21.00     0.00 1095.00    0.00 19892.00     0.00    36.33     0.18    0.17    0.17    0.00   0.17  18.40
sdd              17.00     0.00 1131.00    0.00 18008.00     0.00    31.84     0.18    0.16    0.16    0.00   0.15  17.30
sde              15.00     0.00 1121.00    0.00 17328.00     0.00    30.92     0.19    0.17    0.17    0.00   0.17  18.70
sdf              14.00     0.00 1117.00    0.00 16408.00     0.00    29.38     0.19    0.17    0.17    0.00   0.16  18.30
sdg               0.00     0.00    0.00    0.00     0.00     0.00     0.00     0.00    0.00    0.00    0.00   0.00   0.00
sdh               0.00     0.00    0.00    0.00     0.00     0.00     0.00     0.00    0.00    0.00    0.00   0.00   0.00
md0               0.00     0.00 6859.00    0.00 133324.00     0.00    38.88     0.00    0.00    0.00    0.00   0.00   0.00

avg-cpu:  %user   %nice %system %iowait  %steal   %idle
           0.00    0.00    2.78    1.26    0.00   95.96

Device:         rrqm/s   wrqm/s     r/s     w/s    rkB/s    wkB/s avgrq-sz avgqu-sz   await r_await w_await  svctm  %util
sda              41.00     0.00 1081.00    0.00 28636.00     0.00    52.98     0.23    0.21    0.21    0.00   0.17  18.90
sdb              40.00     0.00 1000.00    0.00 30196.00     0.00    60.39     0.22    0.21    0.21    0.00   0.18  17.70
sdc              41.00     0.00 1071.00    0.00 27740.00     0.00    51.80     0.31    0.27    0.27    0.00   0.22  23.80
sdd              39.00     0.00 1036.00    0.00 26452.00     0.00    51.07     0.29    0.27    0.27    0.00   0.21  21.90
sde              39.00     0.00 1067.00    0.00 28316.00     0.00    53.08     0.29    0.26    0.26    0.00   0.21  22.70
sdf              37.00     0.00 1060.00    0.00 27452.00     0.00    51.80     0.29    0.27    0.27    0.00   0.21  22.30
sdg               0.00     0.00    0.00    0.00     0.00     0.00     0.00     0.00    0.00    0.00    0.00   0.00   0.00
sdh               0.00     0.00    0.00    0.00     0.00     0.00     0.00     0.00    0.00    0.00    0.00   0.00   0.00
md0               0.00     0.00 6565.00    0.00 235660.00     0.00    71.79     0.00    0.00    0.00    0.00   0.00   0.00

avg-cpu:  %user   %nice %system %iowait  %steal   %idle
           0.00    0.00    2.54    1.52    0.00   95.94

Device:         rrqm/s   wrqm/s     r/s     w/s    rkB/s    wkB/s avgrq-sz avgqu-sz   await r_await w_await  svctm  %util
sda              19.00     0.00 1130.00    0.00 20124.00     0.00    35.62     0.18    0.16    0.16    0.00   0.15  16.90
sdb              17.00     0.00 1142.00    0.00 20044.00     0.00    35.10     0.17    0.15    0.15    0.00   0.14  15.80
sdc              20.00     0.00 1100.00    0.00 23156.00     0.00    42.10     0.23    0.22    0.22    0.00   0.19  21.40
sdd              24.00     0.00 1115.00    0.00 22160.00     0.00    39.75     0.21    0.20    0.20    0.00   0.17  19.00
sde              28.00     0.00 1062.00    0.00 21900.00     0.00    41.24     0.21    0.21    0.21    0.00   0.19  20.10
sdf              23.00     0.00 1120.00    0.00 22796.00     0.00    40.71     0.23    0.21    0.21    0.00   0.18  19.90
sdg               0.00     0.00   18.00    0.00   328.00     0.00    36.44     0.00    0.22    0.22    0.00   0.22   0.40
sdh               0.00     0.00    0.00    0.00     0.00     0.00     0.00     0.00    0.00    0.00    0.00   0.00   0.00
md0               0.00     0.00 6786.00    0.00 165200.00     0.00    48.69     0.00    0.00    0.00    0.00   0.00   0.00

avg-cpu:  %user   %nice %system %iowait  %steal   %idle
           0.25    0.00    2.53    1.26    0.00   95.96

Device:         rrqm/s   wrqm/s     r/s     w/s    rkB/s    wkB/s avgrq-sz avgqu-sz   await r_await w_await  svctm  %util
sda              28.00     0.00 1099.00    0.00 24352.00     0.00    44.32     0.18    0.16    0.16    0.00   0.15  16.60
sdb              32.00     0.00 1071.00    0.00 24408.00     0.00    45.58     0.20    0.18    0.18    0.00   0.16  17.60
sdc              27.00     0.00 1058.00    0.00 23480.00     0.00    44.39     0.24    0.22    0.22    0.00   0.19  20.60
sdd              27.00     0.00 1143.00    0.00 21648.00     0.00    37.88     0.22    0.19    0.19    0.00   0.18  20.40
sde              27.00     0.00 1121.00    0.00 22448.00     0.00    40.05     0.22    0.19    0.19    0.00   0.18  20.60
sdf              27.00     0.00 1045.00    0.00 23720.00     0.00    45.40     0.23    0.22    0.22    0.00   0.20  20.90
sdg               0.00     0.00    0.00    0.00     0.00     0.00     0.00     0.00    0.00    0.00    0.00   0.00   0.00
sdh               0.00     0.00    0.00    0.00     0.00     0.00     0.00     0.00    0.00    0.00    0.00   0.00   0.00
md0               0.00     0.00 6706.00    0.00 188468.00     0.00    56.21     0.00    0.00    0.00    0.00   0.00   0.00

avg-cpu:  %user   %nice %system %iowait  %steal   %idle
           0.00    0.00    2.54    1.27    0.00   96.19

Device:         rrqm/s   wrqm/s     r/s     w/s    rkB/s    wkB/s avgrq-sz avgqu-sz   await r_await w_await  svctm  %util
sda              30.00     0.00 1109.00    0.00 22888.00     0.00    41.28     0.20    0.18    0.18    0.00   0.16  18.00
sdb              23.00     0.00 1106.00    0.00 21528.00     0.00    38.93     0.19    0.17    0.17    0.00   0.15  16.30
sdc              24.00     0.00 1107.00    0.00 21724.00     0.00    39.25     0.25    0.23    0.23    0.00   0.19  21.40
sdd              23.00     0.00 1101.00    0.00 21024.00     0.00    38.19     0.23    0.21    0.21    0.00   0.19  20.40
sde              25.00     0.00 1098.00    0.00 21272.00     0.00    38.75     0.21    0.19    0.19    0.00   0.17  19.00
sdf              27.00     0.00 1112.00    0.00 23564.00     0.00    42.38     0.24    0.22    0.22    0.00   0.20  21.90
sdg               0.00     0.00    0.00    0.00     0.00     0.00     0.00     0.00    0.00    0.00    0.00   0.00   0.00
sdh               0.00     0.00    0.00    0.00     0.00     0.00     0.00     0.00    0.00    0.00    0.00   0.00   0.00
md0               0.00     0.00 6785.00    0.00 170544.00     0.00    50.27     0.00    0.00    0.00    0.00   0.00   0.00

avg-cpu:  %user   %nice %system %iowait  %steal   %idle
           0.00    0.00    2.78    1.27    0.00   95.95

Device:         rrqm/s   wrqm/s     r/s     w/s    rkB/s    wkB/s avgrq-sz avgqu-sz   await r_await w_await  svctm  %util
sda              25.00     0.00 1054.00    0.00 19972.00     0.00    37.90     0.17    0.16    0.16    0.00   0.15  15.70
sdb              20.00     0.00 1134.00    0.00 20060.00     0.00    35.38     0.17    0.15    0.15    0.00   0.14  16.30
sdc              19.00     0.00 1177.00    0.00 19076.00     0.00    32.41     0.24    0.21    0.21    0.00   0.17  20.10
sdd              24.00     0.00 1098.00    0.00 19972.00     0.00    36.38     0.22    0.20    0.20    0.00   0.16  18.10
sde              19.00     0.00 1100.00    0.00 21024.00     0.00    38.23     0.24    0.22    0.22    0.00   0.19  20.50
sdf              24.00     0.00 1096.00    0.00 21780.00     0.00    39.74     0.23    0.21    0.21    0.00   0.18  19.80
sdg               0.00     0.00    0.00    0.00     0.00     0.00     0.00     0.00    0.00    0.00    0.00   0.00   0.00
sdh               0.00     0.00    0.00    0.00     0.00     0.00     0.00     0.00    0.00    0.00    0.00   0.00   0.00
md0               0.00     0.00 6790.00    0.00 160984.00     0.00    47.42     0.00    0.00    0.00    0.00   0.00   0.00

avg-cpu:  %user   %nice %system %iowait  %steal   %idle
           0.00    0.00    2.04    1.53    0.00   96.44

Device:         rrqm/s   wrqm/s     r/s     w/s    rkB/s    wkB/s avgrq-sz avgqu-sz   await r_await w_await  svctm  %util
sda              29.00     0.00 1123.00    0.00 24700.00     0.00    43.99     0.19    0.17    0.17    0.00   0.15  17.10
sdb              28.00     0.00 1014.00    0.00 23128.00     0.00    45.62     0.18    0.18    0.18    0.00   0.16  16.20
sdc              26.00     0.00 1063.00    0.00 22264.00     0.00    41.89     0.23    0.22    0.22    0.00   0.19  19.90
sdd              27.00     0.00 1083.00    0.00 22172.00     0.00    40.95     0.25    0.23    0.23    0.00   0.19  20.40
sde              21.00     0.00 1104.00    0.00 21168.00     0.00    38.35     0.25    0.23    0.23    0.00   0.19  20.60
sdf              22.00     0.00 1134.00    0.00 22960.00     0.00    40.49     0.24    0.21    0.21    0.00   0.18  20.70
sdg               0.00     0.00    0.00    0.00     0.00     0.00     0.00     0.00    0.00    0.00    0.00   0.00   0.00
sdh               0.00     0.00    0.00    0.00     0.00     0.00     0.00     0.00    0.00    0.00    0.00   0.00   0.00
md0               0.00     0.00 6674.00    0.00 183324.00     0.00    54.94     0.00    0.00    0.00    0.00   0.00   0.00

avg-cpu:  %user   %nice %system %iowait  %steal   %idle
           0.25    0.00    2.28    3.55    0.00   93.91

Device:         rrqm/s   wrqm/s     r/s     w/s    rkB/s    wkB/s avgrq-sz avgqu-sz   await r_await w_await  svctm  %util
sda              18.00     0.00 1193.00    0.00 18960.00     0.00    31.79     0.18    0.15    0.15    0.00   0.14  16.90
sdb              25.00     0.00 1127.00    0.00 20120.00     0.00    35.71     0.17    0.15    0.15    0.00   0.14  15.50
sdc              22.00     0.00 1104.00    0.00 19928.00     0.00    36.10     0.22    0.20    0.20    0.00   0.17  19.00
sdd              18.00     0.00 1114.00    0.00 19164.00     0.00    34.41     0.23    0.21    0.21    0.00   0.18  20.30
sde              22.00     0.00 1142.00    0.00 20784.00     0.00    36.40     0.22    0.19    0.19    0.00   0.18  20.20
sdf              20.00     0.00 1129.00    0.00 19476.00     0.00    34.50     0.22    0.19    0.19    0.00   0.17  19.00
sdg               0.00     0.00    0.00    0.00     0.00     0.00     0.00     0.00    0.00    0.00    0.00   0.00   0.00
sdh               0.00     0.00    0.00    0.00     0.00     0.00     0.00     0.00    0.00    0.00    0.00   0.00   0.00
md0               0.00     0.00 6934.00    0.00 155700.00     0.00    44.91     0.00    0.00    0.00    0.00   0.00   0.00

avg-cpu:  %user   %nice %system %iowait  %steal   %idle
           0.00    0.25    2.78    1.27    0.00   95.70

Device:         rrqm/s   wrqm/s     r/s     w/s    rkB/s    wkB/s avgrq-sz avgqu-sz   await r_await w_await  svctm  %util
sda              20.00     0.00 1114.00    0.00 21852.00     0.00    39.23     0.19    0.17    0.17    0.00   0.15  16.90
sdb              22.00     0.00 1113.00    0.00 20312.00     0.00    36.50     0.17    0.16    0.16    0.00   0.14  15.50
sdc              23.00     0.00 1126.00    0.00 20324.00     0.00    36.10     0.23    0.20    0.20    0.00   0.17  19.60
sdd              25.00     0.00 1143.00    0.00 22600.00     0.00    39.55     0.24    0.21    0.21    0.00   0.17  19.60
sde              27.00     0.00 1075.00    0.00 24592.00     0.00    45.75     0.25    0.23    0.23    0.00   0.19  20.30
sdf              24.00     0.00 1117.00    0.00 22556.00     0.00    40.39     0.26    0.23    0.23    0.00   0.19  20.70
sdg               0.00     0.00    4.00    7.00    16.00   140.00    28.36     0.00    0.36    0.25    0.43   0.18   0.20
sdh               0.00     0.00    0.00    0.00     0.00     0.00     0.00     0.00    0.00    0.00    0.00   0.00   0.00
md0               0.00     0.00 6829.00    0.00 166592.00     0.00    48.79     0.00    0.00    0.00    0.00   0.00   0.00

avg-cpu:  %user   %nice %system %iowait  %steal   %idle
           0.25    0.00    2.28    1.52    0.00   95.95

Device:         rrqm/s   wrqm/s     r/s     w/s    rkB/s    wkB/s avgrq-sz avgqu-sz   await r_await w_await  svctm  %util
sda              28.00     0.00 1068.00    0.00 23928.00     0.00    44.81     0.17    0.16    0.16    0.00   0.15  15.80
sdb              26.00     0.00 1094.00    0.00 23016.00     0.00    42.08     0.19    0.17    0.17    0.00   0.15  16.70
sdc              23.00     0.00 1197.00    0.00 19876.00     0.00    33.21     0.23    0.19    0.19    0.00   0.16  19.60
sdd              24.00     0.00 1122.00    0.00 21364.00     0.00    38.08     0.24    0.21    0.21    0.00   0.19  21.10
sde              26.00     0.00 1140.00    0.00 21568.00     0.00    37.84     0.22    0.20    0.20    0.00   0.18  20.60
sdf              27.00     0.00 1087.00    0.00 24016.00     0.00    44.19     0.22    0.20    0.20    0.00   0.18  20.00
sdg               0.00     0.00    0.00    0.00     0.00     0.00     0.00     0.00    0.00    0.00    0.00   0.00   0.00
sdh               0.00     0.00    0.00    0.00     0.00     0.00     0.00     0.00    0.00    0.00    0.00   0.00   0.00
md0               0.00     0.00 6861.00    0.00 178328.00     0.00    51.98     0.00    0.00    0.00    0.00   0.00   0.00

avg-cpu:  %user   %nice %system %iowait  %steal   %idle
           0.00    0.00    2.54    1.52    0.00   95.94

Device:         rrqm/s   wrqm/s     r/s     w/s    rkB/s    wkB/s avgrq-sz avgqu-sz   await r_await w_await  svctm  %util
sda              19.00     0.00 1061.00    0.00 17636.00     0.00    33.24     0.15    0.14    0.14    0.00   0.14  14.70
sdb              17.00     0.00 1125.00    0.00 17800.00     0.00    31.64     0.16    0.14    0.14    0.00   0.14  15.50
sdc              15.00     0.00 1127.00    0.00 17732.00     0.00    31.47     0.19    0.17    0.17    0.00   0.16  18.20
sdd              18.00     0.00 1109.00    0.00 17628.00     0.00    31.79     0.20    0.18    0.18    0.00   0.17  18.60
sde              17.00     0.00 1118.00    0.00 18424.00     0.00    32.96     0.20    0.18    0.18    0.00   0.16  18.30
sdf              16.00     0.00 1159.00    0.00 18836.00     0.00    32.50     0.21    0.18    0.18    0.00   0.17  20.00
sdg               0.00     0.00    0.00    0.00     0.00     0.00     0.00     0.00    0.00    0.00    0.00   0.00   0.00
sdh               0.00     0.00    0.00    0.00     0.00     0.00     0.00     0.00    0.00    0.00    0.00   0.00   0.00
md0               0.00     0.00 6802.00    0.00 134384.00     0.00    39.51     0.00    0.00    0.00    0.00   0.00   0.00

avg-cpu:  %user   %nice %system %iowait  %steal   %idle
           0.00    0.00    2.04    1.28    0.00   96.68

Device:         rrqm/s   wrqm/s     r/s     w/s    rkB/s    wkB/s avgrq-sz avgqu-sz   await r_await w_await  svctm  %util
sda              21.00     0.00 1074.00    0.00 19740.00     0.00    36.76     0.18    0.16    0.16    0.00   0.15  15.90
sdb              25.00     0.00 1090.00    0.00 20688.00     0.00    37.96     0.17    0.16    0.16    0.00   0.14  15.60
sdc              24.00     0.00 1151.00    0.00 20436.00     0.00    35.51     0.22    0.19    0.19    0.00   0.17  19.50
sdd              20.00     0.00 1105.00    0.00 20004.00     0.00    36.21     0.23    0.21    0.21    0.00   0.18  19.60
sde              18.00     0.00 1201.00    0.00 19844.00     0.00    33.05     0.25    0.21    0.21    0.00   0.17  21.00
sdf              22.00     0.00 1163.00    0.00 19492.00     0.00    33.52     0.22    0.19    0.19    0.00   0.16  19.10
sdg               0.00     0.00    0.00    0.00     0.00     0.00     0.00     0.00    0.00    0.00    0.00   0.00   0.00
sdh               0.00     0.00    0.00    0.00     0.00     0.00     0.00     0.00    0.00    0.00    0.00   0.00   0.00
md0               0.00     0.00 6914.00    0.00 149840.00     0.00    43.34     0.00    0.00    0.00    0.00   0.00   0.00

avg-cpu:  %user   %nice %system %iowait  %steal   %idle
           0.25    0.00    2.53    1.52    0.00   95.71

Device:         rrqm/s   wrqm/s     r/s     w/s    rkB/s    wkB/s avgrq-sz avgqu-sz   await r_await w_await  svctm  %util
sda              30.00     0.00 1136.00    0.00 22472.00     0.00    39.56     0.18    0.16    0.16    0.00   0.15  16.60
sdb              21.00     0.00 1098.00    0.00 21816.00     0.00    39.74     0.19    0.17    0.17    0.00   0.15  16.70
sdc              21.00     0.00 1080.00    0.00 20724.00     0.00    38.38     0.22    0.20    0.20    0.00   0.17  18.40
sdd              25.00     0.00 1089.00    0.00 22308.00     0.00    40.97     0.23    0.21    0.21    0.00   0.18  19.80
sde              22.00     0.00 1100.00    0.00 20896.00     0.00    37.99     0.21    0.20    0.20    0.00   0.17  19.10
sdf              24.00     0.00 1129.00    0.00 22380.00     0.00    39.65     0.22    0.19    0.19    0.00   0.18  20.30
sdg               0.00     0.00    0.00    0.00     0.00     0.00     0.00     0.00    0.00    0.00    0.00   0.00   0.00
sdh               0.00     0.00    0.00    0.00     0.00     0.00     0.00     0.00    0.00    0.00    0.00   0.00   0.00
md0               0.00     0.00 6775.00    0.00 178860.00     0.00    52.80     0.00    0.00    0.00    0.00   0.00   0.00

avg-cpu:  %user   %nice %system %iowait  %steal   %idle
           0.00    0.00    2.78    1.77    0.00   95.44

Device:         rrqm/s   wrqm/s     r/s     w/s    rkB/s    wkB/s avgrq-sz avgqu-sz   await r_await w_await  svctm  %util
sda              10.00     0.00 1208.00    0.00 14692.00     0.00    24.32     0.16    0.14    0.14    0.00   0.13  15.90
sdb              10.00     0.00 1102.00    0.00 16140.00     0.00    29.29     0.15    0.14    0.14    0.00   0.14  15.20
sdc              12.00     0.00 1120.00    0.00 16096.00     0.00    28.74     0.18    0.16    0.16    0.00   0.16  17.60
sdd              14.00     0.00 1165.00    0.00 16800.00     0.00    28.84     0.18    0.15    0.15    0.00   0.15  17.50
sde              15.00     0.00 1170.00    0.00 17052.00     0.00    29.15     0.20    0.17    0.17    0.00   0.16  18.90
sdf              13.00     0.00 1149.00    0.00 16184.00     0.00    28.17     0.18    0.16    0.16    0.00   0.15  17.50
sdg               0.00     0.00    0.00    0.00     0.00     0.00     0.00     0.00    0.00    0.00    0.00   0.00   0.00
sdh               0.00     0.00    0.00    0.00     0.00     0.00     0.00     0.00    0.00    0.00    0.00   0.00   0.00
md0               0.00     0.00 6988.00    0.00 116184.00     0.00    33.25     0.00    0.00    0.00    0.00   0.00   0.00

avg-cpu:  %user   %nice %system %iowait  %steal   %idle
           0.25    0.00    3.26   21.30    0.00   75.19

Device:         rrqm/s   wrqm/s     r/s     w/s    rkB/s    wkB/s avgrq-sz avgqu-sz   await r_await w_await  svctm  %util
sda              10.00     0.00 1163.00    0.00 16496.00     0.00    28.37     0.17    0.15    0.15    0.00   0.14  16.30
sdb              12.00     0.00 1096.00    0.00 17708.00     0.00    32.31     0.15    0.14    0.14    0.00   0.13  14.50
sdc              14.00     0.00 1113.00    0.00 17796.00     0.00    31.98     0.20    0.18    0.18    0.00   0.17  18.40
sdd              14.00     0.00 1105.00    0.00 17824.00     0.00    32.26     0.19    0.17    0.17    0.00   0.17  18.50
sde              15.00     0.00 1116.00    0.00 17540.00     0.00    31.43     0.20    0.17    0.17    0.00   0.17  18.80
sdf              14.00     0.00 1221.00    0.00 15492.00     0.00    25.38     0.19    0.15    0.15    0.00   0.15  18.50
sdg               0.00     1.00    1.00    2.00     4.00    24.00    18.67     0.00    0.00    0.00    0.00   0.00   0.00
sdh               0.00     0.00    0.00    0.00     0.00     0.00     0.00     0.00    0.00    0.00    0.00   0.00   0.00
md0               0.00     0.00 6893.00    0.00 127644.00     0.00    37.04     0.00    0.00    0.00    0.00   0.00   0.00

avg-cpu:  %user   %nice %system %iowait  %steal   %idle
           0.00    0.00    2.78   21.27    0.00   75.95

Device:         rrqm/s   wrqm/s     r/s     w/s    rkB/s    wkB/s avgrq-sz avgqu-sz   await r_await w_await  svctm  %util
sda              19.00     0.00 1112.00    0.00 20292.00     0.00    36.50     0.16    0.15    0.15    0.00   0.14  15.50
sdb              24.00     0.00 1098.00    0.00 21552.00     0.00    39.26     0.18    0.16    0.16    0.00   0.16  17.20
sdc              23.00     0.00 1111.00    0.00 21508.00     0.00    38.72     0.23    0.20    0.20    0.00   0.18  20.20
sdd              19.00     0.00 1160.00    0.00 20444.00     0.00    35.25     0.24    0.21    0.21    0.00   0.19  21.50
sde              23.00     0.00 1133.00    0.00 20952.00     0.00    36.98     0.23    0.20    0.20    0.00   0.18  19.90
sdf              24.00     0.00 1107.00    0.00 21660.00     0.00    39.13     0.23    0.21    0.21    0.00   0.18  20.40
sdg               0.00     0.00    0.00    0.00     0.00     0.00     0.00     0.00    0.00    0.00    0.00   0.00   0.00
sdh               0.00     0.00    0.00    0.00     0.00     0.00     0.00     0.00    0.00    0.00    0.00   0.00   0.00
md0               0.00     0.00 6853.00    0.00 163872.00     0.00    47.82     0.00    0.00    0.00    0.00   0.00   0.00

avg-cpu:  %user   %nice %system %iowait  %steal   %idle
           0.00    0.00    3.03   17.42    0.00   79.55

Device:         rrqm/s   wrqm/s     r/s     w/s    rkB/s    wkB/s avgrq-sz avgqu-sz   await r_await w_await  svctm  %util
sda              22.00     0.00 1140.00    0.00 20688.00     0.00    36.29     0.18    0.16    0.16    0.00   0.15  16.80
sdb              23.00     0.00 1056.00    0.00 20308.00     0.00    38.46     0.18    0.17    0.17    0.00   0.15  16.10
sdc              20.00     0.00 1112.00    0.00 20148.00     0.00    36.24     0.23    0.21    0.21    0.00   0.18  20.50
sdd              23.00     0.00 1085.00    0.00 21608.00     0.00    39.83     0.23    0.21    0.21    0.00   0.19  20.60
sde              24.00     0.00 1107.00    0.00 21956.00     0.00    39.67     0.23    0.21    0.21    0.00   0.18  20.10
sdf              24.00     0.00 1071.00    0.00 21540.00     0.00    40.22     0.24    0.22    0.22    0.00   0.19  20.50
sdg               0.00     0.00    0.00    0.00     0.00     0.00     0.00     0.00    0.00    0.00    0.00   0.00   0.00
sdh               0.00     0.00    0.00    0.00     0.00     0.00     0.00     0.00    0.00    0.00    0.00   0.00   0.00
md0               0.00     0.00 6706.00    0.00 163772.00     0.00    48.84     0.00    0.00    0.00    0.00   0.00   0.00

avg-cpu:  %user   %nice %system %iowait  %steal   %idle
           0.00    0.00    2.28    1.52    0.00   96.19

Device:         rrqm/s   wrqm/s     r/s     w/s    rkB/s    wkB/s avgrq-sz avgqu-sz   await r_await w_await  svctm  %util
sda              24.00     0.00 1155.00    0.00 21636.00     0.00    37.46     0.21    0.18    0.18    0.00   0.15  17.50
sdb              22.00     0.00 1148.00    0.00 21048.00     0.00    36.67     0.20    0.17    0.17    0.00   0.15  17.30
sdc              23.00     0.00 1115.00    0.00 21580.00     0.00    38.71     0.26    0.23    0.23    0.00   0.18  20.00
sdd              24.00     0.00 1160.00    0.00 20776.00     0.00    35.82     0.26    0.22    0.22    0.00   0.17  20.10
sde              24.00     0.00 1128.00    0.00 20836.00     0.00    36.94     0.27    0.24    0.24    0.00   0.19  21.30
sdf              28.00     0.00 1165.00    0.00 21340.00     0.00    36.64     0.26    0.22    0.22    0.00   0.17  19.50
sdg               0.00     0.00    0.00    0.00     0.00     0.00     0.00     0.00    0.00    0.00    0.00   0.00   0.00
sdh               0.00     0.00    0.00    0.00     0.00     0.00     0.00     0.00    0.00    0.00    0.00   0.00   0.00
md0               0.00     0.00 7016.00    0.00 160256.00     0.00    45.68     0.00    0.00    0.00    0.00   0.00   0.00

