Linux 4.17.2 (bench) 	08/03/2018 	_x86_64_	(4 CPU)

avg-cpu:  %user   %nice %system %iowait  %steal   %idle
          10.27    0.02    4.13    2.66    0.00   82.93

Device:         rrqm/s   wrqm/s     r/s     w/s    rkB/s    wkB/s avgrq-sz avgqu-sz   await r_await w_await  svctm  %util
sda              50.29     4.21 1694.91  101.76 21158.95  3113.68    27.02     1.04    0.58    0.26    5.92   0.06  10.90
sdb              50.13     4.17 1694.87  101.90 21148.45  3110.37    27.00     1.04    0.58    0.26    5.85   0.06  10.78
sdc              87.96     4.23 1654.95  101.45 21140.56  3112.82    27.62     1.46    0.83    0.45    7.12   0.08  14.26
sdd              81.44     4.20 1660.64  101.52 21125.49  3109.04    27.51     1.47    0.83    0.44    7.33   0.08  14.35
sde              83.45     4.24 1665.72  101.62 21185.04  3113.26    27.50     1.49    0.84    0.44    7.44   0.08  14.37
sdf              80.58     4.22 1667.84  101.56 21166.40  3110.14    27.44     1.53    0.87    0.44    7.90   0.08  14.40
sdg               0.00     3.17   26.56   73.28   324.99   392.02    14.36     0.44    4.41    0.20    5.93   0.08   0.78
sdh               0.00     0.13    0.02    0.23     2.19     5.02    56.82     0.00    1.15    0.65    1.19   0.21   0.01
md0               0.00     0.00 10479.89  476.78 144952.94 21312.76    30.35     0.00    0.00    0.00    0.00   0.00   0.00

avg-cpu:  %user   %nice %system %iowait  %steal   %idle
           0.18    0.01    2.03    9.04    0.00   88.74

Device:         rrqm/s   wrqm/s     r/s     w/s    rkB/s    wkB/s avgrq-sz avgqu-sz   await r_await w_await  svctm  %util
sda               0.00     0.00 1486.75    0.00  5947.00     0.00     8.00     0.15    0.10    0.10    0.00   0.10  14.78
sdb               0.00     0.00 1484.70    0.00  5938.80     0.00     8.00     0.15    0.10    0.10    0.00   0.10  14.72
sdc               0.00     0.00 1490.00    0.00  5960.00     0.00     8.00     0.16    0.11    0.11    0.00   0.11  16.02
sdd               0.00     0.00 1480.35    0.00  5921.40     0.00     8.00     0.16    0.11    0.11    0.00   0.11  15.93
sde               0.00     0.00 1476.00    0.00  5904.00     0.00     8.00     0.16    0.11    0.11    0.00   0.11  16.22
sdf               0.00     0.00 1488.90    0.00  5955.60     0.00     8.00     0.16    0.11    0.11    0.00   0.11  16.11
sdg               0.00     3.25    1.75  127.75    14.40   642.80    10.15     0.81    6.27    0.14    6.36   0.05   0.62
sdh               0.00     0.00    0.00    0.00     0.00     0.00     0.00     0.00    0.00    0.00    0.00   0.00   0.00
md0               0.00     0.00 8906.75    0.00 35627.00     0.00     8.00     0.00    0.00    0.00    0.00   0.00   0.00

