Linux 4.17.2 (bench) 	08/03/2018 	_x86_64_	(4 CPU)

avg-cpu:  %user   %nice %system %iowait  %steal   %idle
          10.25    0.02    4.19    2.75    0.00   82.80

Device:         rrqm/s   wrqm/s     r/s     w/s    rkB/s    wkB/s avgrq-sz avgqu-sz   await r_await w_await  svctm  %util
sda              53.68     4.18 1734.55  100.98 21415.87  3089.75    26.70     1.05    0.57    0.26    5.92   0.06  11.07
sdb              53.49     4.14 1734.55  101.11 21405.39  3086.46    26.68     1.05    0.57    0.26    5.85   0.06  10.95
sdc              91.18     4.20 1694.76  100.67 21397.63  3088.89    27.28     1.47    0.82    0.44    7.12   0.08  14.46
sdd              84.72     4.17 1700.41  100.74 21382.73  3085.14    27.17     1.48    0.82    0.43    7.33   0.08  14.55
sde              86.71     4.21 1705.49  100.84 21442.02  3089.32    27.16     1.50    0.83    0.44    7.44   0.08  14.57
sdf              83.87     4.18 1707.59  100.78 21423.51  3086.23    27.11     1.54    0.85    0.44    7.90   0.08  14.61
sdg               0.00     3.17   26.89   73.26   326.30   392.02    14.35     0.44    4.39    0.20    5.93   0.08   0.79
sdh               0.00     0.13    0.02    0.23     2.18     4.99    56.82     0.00    1.15    0.65    1.19   0.21   0.01
md0               0.00     0.00 10738.53  473.12 146833.84 21148.91    29.97     0.00    0.00    0.00    0.00   0.00   0.00

avg-cpu:  %user   %nice %system %iowait  %steal   %idle
           3.99    0.00   21.20    0.00    0.00   74.81

Device:         rrqm/s   wrqm/s     r/s     w/s    rkB/s    wkB/s avgrq-sz avgqu-sz   await r_await w_await  svctm  %util
sda               0.00     0.00 19315.00    0.00 77260.00     0.00     8.00     2.22    0.12    0.12    0.00   0.04  72.40
sdb               0.00     0.00 19031.00    0.00 76124.00     0.00     8.00     2.12    0.11    0.11    0.00   0.04  71.60
sdc               0.00     0.00 19006.00    0.00 76024.00     0.00     8.00     2.57    0.14    0.14    0.00   0.04  75.40
sdd               0.00     0.00 19180.00    0.00 76720.00     0.00     8.00     2.51    0.13    0.13    0.00   0.04  74.00
sde               0.00     0.00 18968.00    0.00 75872.00     0.00     8.00     2.43    0.13    0.13    0.00   0.04  74.20
sdf               0.00     0.00 19268.00    0.00 77072.00     0.00     8.00     2.58    0.13    0.13    0.00   0.04  74.90
sdg               0.00     0.00    3.00    0.00    88.00     0.00    58.67     0.00    0.67    0.67    0.00   0.33   0.10
sdh               0.00     0.00    0.00    0.00     0.00     0.00     0.00     0.00    0.00    0.00    0.00   0.00   0.00
md0               0.00     0.00 114797.00    0.00 459188.00     0.00     8.00     0.00    0.00    0.00    0.00   0.00   0.00

avg-cpu:  %user   %nice %system %iowait  %steal   %idle
           4.00    0.00   21.00    0.00    0.00   75.00

Device:         rrqm/s   wrqm/s     r/s     w/s    rkB/s    wkB/s avgrq-sz avgqu-sz   await r_await w_await  svctm  %util
sda               0.00     0.00 19372.00    0.00 77488.00     0.00     8.00     2.21    0.11    0.11    0.00   0.04  72.30
sdb               0.00     0.00 19169.00    0.00 76676.00     0.00     8.00     2.12    0.11    0.11    0.00   0.04  72.30
sdc               0.00     0.00 19375.00    0.00 77500.00     0.00     8.00     2.59    0.13    0.13    0.00   0.04  75.30
sdd               0.00     0.00 19209.00    0.00 76836.00     0.00     8.00     2.56    0.13    0.13    0.00   0.04  74.90
sde               0.00     0.00 19272.00    0.00 77088.00     0.00     8.00     2.52    0.13    0.13    0.00   0.04  74.80
sdf               0.00     0.00 19137.00    0.00 76548.00     0.00     8.00     2.58    0.14    0.14    0.00   0.04  75.20
sdg               0.00     0.00    0.00    0.00     0.00     0.00     0.00     0.00    0.00    0.00    0.00   0.00   0.00
sdh               0.00     0.00    0.00    0.00     0.00     0.00     0.00     0.00    0.00    0.00    0.00   0.00   0.00
md0               0.00     0.00 115505.00    0.00 462020.00     0.00     8.00     0.00    0.00    0.00    0.00   0.00   0.00

avg-cpu:  %user   %nice %system %iowait  %steal   %idle
           3.76    0.00   21.05    0.00    0.00   75.19

Device:         rrqm/s   wrqm/s     r/s     w/s    rkB/s    wkB/s avgrq-sz avgqu-sz   await r_await w_await  svctm  %util
sda               0.00     0.00 19272.00    0.00 77088.00     0.00     8.00     2.20    0.11    0.11    0.00   0.04  73.10
sdb               0.00     0.00 19271.00    0.00 77084.00     0.00     8.00     2.14    0.11    0.11    0.00   0.04  73.40
sdc               0.00     0.00 19216.00    0.00 76864.00     0.00     8.00     2.71    0.14    0.14    0.00   0.04  75.80
sdd               0.00     0.00 19298.00    0.00 77192.00     0.00     8.00     2.65    0.14    0.14    0.00   0.04  75.70
sde               0.00     0.00 19122.00    0.00 76488.00     0.00     8.00     2.67    0.14    0.14    0.00   0.04  76.10
sdf               0.00     0.00 19091.00    0.00 76364.00     0.00     8.00     2.59    0.14    0.14    0.00   0.04  75.70
sdg               0.00     0.00    0.00    0.00     0.00     0.00     0.00     0.00    0.00    0.00    0.00   0.00   0.00
sdh               0.00     0.00    0.00    0.00     0.00     0.00     0.00     0.00    0.00    0.00    0.00   0.00   0.00
md0               0.00     0.00 115270.00    0.00 461080.00     0.00     8.00     0.00    0.00    0.00    0.00   0.00   0.00

avg-cpu:  %user   %nice %system %iowait  %steal   %idle
           3.75    0.00   21.25    0.00    0.00   75.00

Device:         rrqm/s   wrqm/s     r/s     w/s    rkB/s    wkB/s avgrq-sz avgqu-sz   await r_await w_await  svctm  %util
sda               0.00     0.00 18862.00    0.00 75448.00     0.00     8.00     2.14    0.11    0.11    0.00   0.04  72.50
sdb               0.00     0.00 19023.00    0.00 76092.00     0.00     8.00     2.12    0.11    0.11    0.00   0.04  71.80
sdc               0.00     0.00 19099.00    0.00 76396.00     0.00     8.00     2.51    0.13    0.13    0.00   0.04  74.40
sdd               0.00     0.00 19130.00    0.00 76520.00     0.00     8.00     2.56    0.13    0.13    0.00   0.04  73.90
sde               0.00     0.00 19082.00    0.00 76328.00     0.00     8.00     2.49    0.13    0.13    0.00   0.04  74.80
sdf               0.00     0.00 18984.00    0.00 75936.00     0.00     8.00     2.55    0.13    0.13    0.00   0.04  76.00
sdg               0.00     0.00    0.00    0.00     0.00     0.00     0.00     0.00    0.00    0.00    0.00   0.00   0.00
sdh               0.00     0.00    0.00    0.00     0.00     0.00     0.00     0.00    0.00    0.00    0.00   0.00   0.00
md0               0.00     0.00 114211.00    0.00 456844.00     0.00     8.00     0.00    0.00    0.00    0.00   0.00   0.00

avg-cpu:  %user   %nice %system %iowait  %steal   %idle
           4.26    0.25   21.80    0.50    0.00   73.18

Device:         rrqm/s   wrqm/s     r/s     w/s    rkB/s    wkB/s avgrq-sz avgqu-sz   await r_await w_await  svctm  %util
sda               0.00     0.00 18774.00    0.00 75096.00     0.00     8.00     2.08    0.11    0.11    0.00   0.04  70.90
sdb               0.00     0.00 19203.00    0.00 76812.00     0.00     8.00     2.11    0.11    0.11    0.00   0.04  70.60
sdc               0.00     0.00 19068.00    0.00 76272.00     0.00     8.00     2.43    0.13    0.13    0.00   0.04  73.30
sdd               0.00     0.00 19014.00    0.00 76056.00     0.00     8.00     2.54    0.13    0.13    0.00   0.04  73.20
sde               0.00     0.00 18878.00    0.00 75512.00     0.00     8.00     2.44    0.13    0.13    0.00   0.04  74.00
sdf               0.00     0.00 19053.00    0.00 76212.00     0.00     8.00     2.58    0.14    0.14    0.00   0.04  74.50
sdg               0.00     0.00 2249.00    0.00  9508.00     0.00     8.46     0.29    0.13    0.13    0.00   0.13  28.30
sdh               0.00     0.00    0.00    0.00     0.00     0.00     0.00     0.00    0.00    0.00    0.00   0.00   0.00
md0               0.00     0.00 113994.00    0.00 455976.00     0.00     8.00     0.00    0.00    0.00    0.00   0.00   0.00

avg-cpu:  %user   %nice %system %iowait  %steal   %idle
           4.00    0.00   21.50    0.25    0.00   74.25

Device:         rrqm/s   wrqm/s     r/s     w/s    rkB/s    wkB/s avgrq-sz avgqu-sz   await r_await w_await  svctm  %util
sda               0.00     0.00 19116.00    0.00 76464.00     0.00     8.00     2.14    0.11    0.11    0.00   0.04  71.90
sdb               0.00     0.00 18871.00    0.00 75484.00     0.00     8.00     2.05    0.11    0.11    0.00   0.04  71.20
sdc               0.00     0.00 18934.00    0.00 75736.00     0.00     8.00     2.56    0.14    0.14    0.00   0.04  74.90
sdd               0.00     0.00 19099.00    0.00 76396.00     0.00     8.00     2.67    0.14    0.14    0.00   0.04  74.80
sde               0.00     0.00 19032.00    0.00 76128.00     0.00     8.00     2.46    0.13    0.13    0.00   0.04  74.50
sdf               0.00     0.00 19177.00    0.00 76708.00     0.00     8.00     2.50    0.13    0.13    0.00   0.04  74.20
sdg               0.00     0.00  967.00    0.00  3868.00     0.00     8.00     0.12    0.13    0.13    0.00   0.13  12.20
sdh               0.00     0.00    0.00    0.00     0.00     0.00     0.00     0.00    0.00    0.00    0.00   0.00   0.00
md0               0.00     0.00 114227.00    0.00 456908.00     0.00     8.00     0.00    0.00    0.00    0.00   0.00   0.00

avg-cpu:  %user   %nice %system %iowait  %steal   %idle
           4.26    0.00   20.55    0.00    0.00   75.19

Device:         rrqm/s   wrqm/s     r/s     w/s    rkB/s    wkB/s avgrq-sz avgqu-sz   await r_await w_await  svctm  %util
sda               0.00     0.00 18981.00    0.00 75924.00     0.00     8.00     2.16    0.11    0.11    0.00   0.04  71.60
sdb               0.00     0.00 18889.00    0.00 75556.00     0.00     8.00     2.04    0.11    0.11    0.00   0.04  71.60
sdc               0.00     0.00 18960.00    0.00 75840.00     0.00     8.00     2.55    0.13    0.13    0.00   0.04  75.80
sdd               0.00     0.00 18930.00    0.00 75720.00     0.00     8.00     2.49    0.13    0.13    0.00   0.04  75.40
sde               0.00     0.00 18862.00    0.00 75448.00     0.00     8.00     2.57    0.14    0.14    0.00   0.04  74.80
sdf               0.00     0.00 18867.00    0.00 75468.00     0.00     8.00     2.52    0.13    0.13    0.00   0.04  75.90
sdg               0.00     0.00    0.00    0.00     0.00     0.00     0.00     0.00    0.00    0.00    0.00   0.00   0.00
sdh               0.00     0.00    0.00    0.00     0.00     0.00     0.00     0.00    0.00    0.00    0.00   0.00   0.00
md0               0.00     0.00 113487.00    0.00 453948.00     0.00     8.00     0.00    0.00    0.00    0.00   0.00   0.00

avg-cpu:  %user   %nice %system %iowait  %steal   %idle
           3.74    0.00   21.45    0.00    0.00   74.81

Device:         rrqm/s   wrqm/s     r/s     w/s    rkB/s    wkB/s avgrq-sz avgqu-sz   await r_await w_await  svctm  %util
sda               0.00     0.00 19074.00    0.00 76296.00     0.00     8.00     2.17    0.11    0.11    0.00   0.04  72.90
sdb               0.00     0.00 18924.00    0.00 75696.00     0.00     8.00     2.17    0.11    0.11    0.00   0.04  72.80
sdc               0.00     0.00 19190.00    0.00 76760.00     0.00     8.00     2.49    0.13    0.13    0.00   0.04  74.80
sdd               0.00     0.00 18672.00    0.00 74688.00     0.00     8.00     2.56    0.14    0.14    0.00   0.04  75.30
sde               0.00     0.00 18775.00    0.00 75100.00     0.00     8.00     2.51    0.13    0.13    0.00   0.04  75.70
sdf               0.00     0.00 18763.00    0.00 75052.00     0.00     8.00     2.50    0.13    0.13    0.00   0.04  74.10
sdg               0.00     0.00    0.00    0.00     0.00     0.00     0.00     0.00    0.00    0.00    0.00   0.00   0.00
sdh               0.00     0.00    0.00    0.00     0.00     0.00     0.00     0.00    0.00    0.00    0.00   0.00   0.00
md0               0.00     0.00 113398.00    0.00 453592.00     0.00     8.00     0.00    0.00    0.00    0.00   0.00   0.00

avg-cpu:  %user   %nice %system %iowait  %steal   %idle
           4.01    0.00   21.05    0.00    0.00   74.94

Device:         rrqm/s   wrqm/s     r/s     w/s    rkB/s    wkB/s avgrq-sz avgqu-sz   await r_await w_await  svctm  %util
sda               0.00     0.00 18755.00    0.00 75020.00     0.00     8.00     2.14    0.11    0.11    0.00   0.04  73.10
sdb               0.00     0.00 18848.00    0.00 75392.00     0.00     8.00     2.13    0.11    0.11    0.00   0.04  73.10
sdc               0.00     0.00 18652.00    0.00 74608.00     0.00     8.00     2.48    0.13    0.13    0.00   0.04  75.50
sdd               0.00     0.00 18927.00    0.00 75708.00     0.00     8.00     2.51    0.13    0.13    0.00   0.04  74.30
sde               0.00     0.00 18780.00    0.00 75120.00     0.00     8.00     2.55    0.14    0.14    0.00   0.04  76.30
sdf               0.00     0.00 18951.00    0.00 75804.00     0.00     8.00     2.48    0.13    0.13    0.00   0.04  74.70
sdg               0.00     2.00    8.00   12.00    32.00   200.00    23.20     0.01    0.50    0.62    0.42   0.35   0.70
sdh               0.00     0.00    0.00    0.00     0.00     0.00     0.00     0.00    0.00    0.00    0.00   0.00   0.00
md0               0.00     0.00 112882.00    0.00 451528.00     0.00     8.00     0.00    0.00    0.00    0.00   0.00   0.00

avg-cpu:  %user   %nice %system %iowait  %steal   %idle
           3.75    0.00   21.25    0.00    0.00   75.00

Device:         rrqm/s   wrqm/s     r/s     w/s    rkB/s    wkB/s avgrq-sz avgqu-sz   await r_await w_await  svctm  %util
sda               0.00     0.00 18603.00    0.00 74412.00     0.00     8.00     2.08    0.11    0.11    0.00   0.04  71.40
sdb               0.00     0.00 18674.00    0.00 74696.00     0.00     8.00     2.03    0.11    0.11    0.00   0.04  70.40
sdc               0.00     0.00 18897.00    0.00 75588.00     0.00     8.00     2.43    0.13    0.13    0.00   0.04  73.80
sdd               0.00     0.00 18643.00    0.00 74572.00     0.00     8.00     2.44    0.13    0.13    0.00   0.04  74.40
sde               0.00     0.00 19055.00    0.00 76220.00     0.00     8.00     2.48    0.13    0.13    0.00   0.04  73.80
sdf               0.00     0.00 18798.00    0.00 75192.00     0.00     8.00     2.54    0.14    0.14    0.00   0.04  75.20
sdg               0.00     0.00    0.00    0.00     0.00     0.00     0.00     0.00    0.00    0.00    0.00   0.00   0.00
sdh               0.00     0.00    0.00    0.00     0.00     0.00     0.00     0.00    0.00    0.00    0.00   0.00   0.00
md0               0.00     0.00 112671.00    0.00 450684.00     0.00     8.00     0.00    0.00    0.00    0.00   0.00   0.00

avg-cpu:  %user   %nice %system %iowait  %steal   %idle
           3.99    0.00   21.20    0.00    0.00   74.81

Device:         rrqm/s   wrqm/s     r/s     w/s    rkB/s    wkB/s avgrq-sz avgqu-sz   await r_await w_await  svctm  %util
sda               0.00     0.00 18834.00    0.00 75336.00     0.00     8.00     2.10    0.11    0.11    0.00   0.04  72.10
sdb               0.00     0.00 18821.00    0.00 75284.00     0.00     8.00     2.12    0.11    0.11    0.00   0.04  71.00
sdc               0.00     0.00 18826.00    0.00 75304.00     0.00     8.00     2.54    0.14    0.14    0.00   0.04  74.80
sdd               0.00     0.00 18674.00    0.00 74696.00     0.00     8.00     2.48    0.13    0.13    0.00   0.04  74.00
sde               0.00     0.00 18714.00    0.00 74856.00     0.00     8.00     2.43    0.13    0.13    0.00   0.04  74.90
sdf               0.00     0.00 18695.00    0.00 74780.00     0.00     8.00     2.51    0.13    0.13    0.00   0.04  74.90
sdg               0.00     0.00    0.00    0.00     0.00     0.00     0.00     0.00    0.00    0.00    0.00   0.00   0.00
sdh               0.00     0.00    0.00    0.00     0.00     0.00     0.00     0.00    0.00    0.00    0.00   0.00   0.00
md0               0.00     0.00 112563.00    0.00 450252.00     0.00     8.00     0.00    0.00    0.00    0.00   0.00   0.00

avg-cpu:  %user   %nice %system %iowait  %steal   %idle
           3.77    0.00   20.85    0.00    0.00   75.38

Device:         rrqm/s   wrqm/s     r/s     w/s    rkB/s    wkB/s avgrq-sz avgqu-sz   await r_await w_await  svctm  %util
sda               0.00     0.00 18671.00    0.00 74684.00     0.00     8.00     2.09    0.11    0.11    0.00   0.04  71.00
sdb               0.00     0.00 18703.00    0.00 74812.00     0.00     8.00     2.04    0.11    0.11    0.00   0.04  72.40
sdc               0.00     0.00 18591.00    0.00 74364.00     0.00     8.00     2.41    0.13    0.13    0.00   0.04  74.60
sdd               0.00     0.00 18600.00    0.00 74400.00     0.00     8.00     2.49    0.13    0.13    0.00   0.04  75.40
sde               0.00     0.00 18912.00    0.00 75648.00     0.00     8.00     2.52    0.13    0.13    0.00   0.04  75.00
sdf               0.00     0.00 18787.00    0.00 75148.00     0.00     8.00     2.49    0.13    0.13    0.00   0.04  75.80
sdg               0.00     0.00    0.00    0.00     0.00     0.00     0.00     0.00    0.00    0.00    0.00   0.00   0.00
sdh               0.00     0.00    0.00    0.00     0.00     0.00     0.00     0.00    0.00    0.00    0.00   0.00   0.00
md0               0.00     0.00 112264.00    0.00 449056.00     0.00     8.00     0.00    0.00    0.00    0.00   0.00   0.00

avg-cpu:  %user   %nice %system %iowait  %steal   %idle
           4.25    0.00   20.75    0.00    0.00   75.00

Device:         rrqm/s   wrqm/s     r/s     w/s    rkB/s    wkB/s avgrq-sz avgqu-sz   await r_await w_await  svctm  %util
sda               0.00     0.00 18593.00    0.00 74372.00     0.00     8.00     2.10    0.11    0.11    0.00   0.04  71.60
sdb               0.00     0.00 18875.00    0.00 75500.00     0.00     8.00     2.14    0.11    0.11    0.00   0.04  72.70
sdc               0.00     0.00 18833.00    0.00 75332.00     0.00     8.00     2.49    0.13    0.13    0.00   0.04  74.30
sdd               0.00     0.00 18653.00    0.00 74612.00     0.00     8.00     2.39    0.13    0.13    0.00   0.04  74.30
sde               0.00     0.00 18647.00    0.00 74588.00     0.00     8.00     2.44    0.13    0.13    0.00   0.04  73.00
sdf               0.00     0.00 18311.00    0.00 73244.00     0.00     8.00     2.40    0.13    0.13    0.00   0.04  73.50
sdg               0.00     0.00    0.00    0.00     0.00     0.00     0.00     0.00    0.00    0.00    0.00   0.00   0.00
sdh               0.00     0.00    0.00    0.00     0.00     0.00     0.00     0.00    0.00    0.00    0.00   0.00   0.00
md0               0.00     0.00 111943.00    0.00 447772.00     0.00     8.00     0.00    0.00    0.00    0.00   0.00   0.00

avg-cpu:  %user   %nice %system %iowait  %steal   %idle
           3.74    0.00   21.95    0.00    0.00   74.31

Device:         rrqm/s   wrqm/s     r/s     w/s    rkB/s    wkB/s avgrq-sz avgqu-sz   await r_await w_await  svctm  %util
sda               0.00     0.00 18512.00    0.00 74048.00     0.00     8.00     2.07    0.11    0.11    0.00   0.04  72.40
sdb               0.00     0.00 18498.00    0.00 73992.00     0.00     8.00     2.02    0.11    0.11    0.00   0.04  72.20
sdc               0.00     0.00 18590.00    0.00 74360.00     0.00     8.00     2.46    0.13    0.13    0.00   0.04  74.60
sdd               0.00     0.00 18586.00    0.00 74344.00     0.00     8.00     2.43    0.13    0.13    0.00   0.04  75.40
sde               0.00     0.00 18598.00    0.00 74392.00     0.00     8.00     2.42    0.13    0.13    0.00   0.04  74.60
sdf               0.00     0.00 18907.00    0.00 75628.00     0.00     8.00     2.55    0.13    0.13    0.00   0.04  75.60
sdg               0.00     1.00    9.00    1.00    36.00    20.00    11.20     0.00    0.10    0.11    0.00   0.10   0.10
sdh               0.00     0.00    0.00    0.00     0.00     0.00     0.00     0.00    0.00    0.00    0.00   0.00   0.00
md0               0.00     0.00 111692.00    0.00 446768.00     0.00     8.00     0.00    0.00    0.00    0.00   0.00   0.00

avg-cpu:  %user   %nice %system %iowait  %steal   %idle
           4.00    0.25   22.25    0.00    0.00   73.50

Device:         rrqm/s   wrqm/s     r/s     w/s    rkB/s    wkB/s avgrq-sz avgqu-sz   await r_await w_await  svctm  %util
sda               0.00     0.00 18576.00    0.00 74304.00     0.00     8.00     2.08    0.11    0.11    0.00   0.04  71.30
sdb               0.00     0.00 18702.00    0.00 74808.00     0.00     8.00     2.10    0.11    0.11    0.00   0.04  73.30
sdc               0.00     0.00 18519.00    0.00 74076.00     0.00     8.00     2.54    0.14    0.14    0.00   0.04  74.50
sdd               0.00     0.00 18745.00    0.00 74980.00     0.00     8.00     2.50    0.13    0.13    0.00   0.04  75.20
sde               0.00     0.00 18535.00    0.00 74140.00     0.00     8.00     2.40    0.13    0.13    0.00   0.04  73.20
sdf               0.00     0.00 18199.00    0.00 72796.00     0.00     8.00     2.49    0.14    0.14    0.00   0.04  74.80
sdg               0.00     0.00    0.00    0.00     0.00     0.00     0.00     0.00    0.00    0.00    0.00   0.00   0.00
sdh               0.00     0.00    0.00    0.00     0.00     0.00     0.00     0.00    0.00    0.00    0.00   0.00   0.00
md0               0.00     0.00 111274.00    0.00 445096.00     0.00     8.00     0.00    0.00    0.00    0.00   0.00   0.00

avg-cpu:  %user   %nice %system %iowait  %steal   %idle
           4.00    0.00   21.75    0.00    0.00   74.25

Device:         rrqm/s   wrqm/s     r/s     w/s    rkB/s    wkB/s avgrq-sz avgqu-sz   await r_await w_await  svctm  %util
sda               0.00     0.00 18327.00    0.00 73308.00     0.00     8.00     2.06    0.11    0.11    0.00   0.04  71.90
sdb               0.00     0.00 18640.00    0.00 74560.00     0.00     8.00     2.12    0.11    0.11    0.00   0.04  71.80
sdc               0.00     0.00 18796.00    0.00 75184.00     0.00     8.00     2.46    0.13    0.13    0.00   0.04  72.80
sdd               0.00     0.00 18488.00    0.00 73952.00     0.00     8.00     2.42    0.13    0.13    0.00   0.04  73.40
sde               0.00     0.00 18557.00    0.00 74228.00     0.00     8.00     2.46    0.13    0.13    0.00   0.04  74.30
sdf               0.00     0.00 18394.00    0.00 73576.00     0.00     8.00     2.40    0.13    0.13    0.00   0.04  75.10
sdg               0.00     0.00    0.00    0.00     0.00     0.00     0.00     0.00    0.00    0.00    0.00   0.00   0.00
sdh               0.00     0.00    0.00    0.00     0.00     0.00     0.00     0.00    0.00    0.00    0.00   0.00   0.00
md0               0.00     0.00 111203.00    0.00 444812.00     0.00     8.00     0.00    0.00    0.00    0.00   0.00   0.00

avg-cpu:  %user   %nice %system %iowait  %steal   %idle
           4.25    0.00   21.75    0.00    0.00   74.00

Device:         rrqm/s   wrqm/s     r/s     w/s    rkB/s    wkB/s avgrq-sz avgqu-sz   await r_await w_await  svctm  %util
sda               0.00     0.00 18471.00    0.00 73884.00     0.00     8.00     2.02    0.11    0.11    0.00   0.04  71.00
sdb               0.00     0.00 18510.00    0.00 74040.00     0.00     8.00     2.10    0.11    0.11    0.00   0.04  72.70
sdc               0.00     0.00 18481.00    0.00 73924.00     0.00     8.00     2.40    0.13    0.13    0.00   0.04  73.80
sdd               0.00     0.00 18828.00    0.00 75312.00     0.00     8.00     2.42    0.13    0.13    0.00   0.04  73.50
sde               0.00     0.00 18633.00    0.00 74532.00     0.00     8.00     2.43    0.13    0.13    0.00   0.04  73.30
sdf               0.00     0.00 18909.00    0.00 75636.00     0.00     8.00     2.56    0.14    0.14    0.00   0.04  75.20
sdg               0.00     0.00    0.00    0.00     0.00     0.00     0.00     0.00    0.00    0.00    0.00   0.00   0.00
sdh               0.00     0.00    0.00    0.00     0.00     0.00     0.00     0.00    0.00    0.00    0.00   0.00   0.00
md0               0.00     0.00 111827.00    0.00 447308.00     0.00     8.00     0.00    0.00    0.00    0.00   0.00   0.00

avg-cpu:  %user   %nice %system %iowait  %steal   %idle
           5.11    0.00   23.12    0.00    0.00   71.77

Device:         rrqm/s   wrqm/s     r/s     w/s    rkB/s    wkB/s avgrq-sz avgqu-sz   await r_await w_await  svctm  %util
sda               0.00     0.00 22339.00    0.00 89356.00     0.00     8.00     2.86    0.13    0.13    0.00   0.03  70.90
sdb               0.00     0.00 22351.00    0.00 89404.00     0.00     8.00     2.94    0.13    0.13    0.00   0.03  71.10
sdc               0.00     0.00 22378.00    0.00 89512.00     0.00     8.00     3.85    0.17    0.17    0.00   0.03  73.20
sdd               0.00     0.00 22213.00    0.00 88852.00     0.00     8.00     3.93    0.18    0.18    0.00   0.03  73.70
sde               0.00     0.00 22552.00    0.00 90208.00     0.00     8.00     3.96    0.18    0.18    0.00   0.03  73.40
sdf               0.00     0.00 22561.00    0.00 90244.00     0.00     8.00     3.95    0.18    0.18    0.00   0.03  73.40
sdg               0.00     0.00    0.00    0.00     0.00     0.00     0.00     0.00    0.00    0.00    0.00   0.00   0.00
sdh               0.00     0.00    0.00    0.00     0.00     0.00     0.00     0.00    0.00    0.00    0.00   0.00   0.00
md0               0.00     0.00 134368.00    0.00 537472.00     0.00     8.00     0.00    0.00    0.00    0.00   0.00   0.00

avg-cpu:  %user   %nice %system %iowait  %steal   %idle
           6.43    0.00   24.85    0.00    0.00   68.71

Device:         rrqm/s   wrqm/s     r/s     w/s    rkB/s    wkB/s avgrq-sz avgqu-sz   await r_await w_await  svctm  %util
sda               0.00     0.00 26954.00    0.00 107816.00     0.00     8.00     4.02    0.15    0.15    0.00   0.03  69.90
sdb               0.00     0.00 26953.00    0.00 107812.00     0.00     8.00     3.80    0.14    0.14    0.00   0.03  69.70
sdc               0.00     0.00 26749.00    0.00 106996.00     0.00     8.00     5.56    0.21    0.21    0.00   0.03  71.00
sdd               0.00     0.00 26958.00    0.00 107832.00     0.00     8.00     5.50    0.20    0.20    0.00   0.03  71.00
sde               0.00     0.00 26788.00    0.00 107152.00     0.00     8.00     5.53    0.21    0.21    0.00   0.03  71.00
sdf               0.00     0.00 26836.00    0.00 107344.00     0.00     8.00     5.56    0.21    0.21    0.00   0.03  71.00
sdg               0.00     0.00    0.00    0.00     0.00     0.00     0.00     0.00    0.00    0.00    0.00   0.00   0.00
sdh               0.00     0.00    0.00    0.00     0.00     0.00     0.00     0.00    0.00    0.00    0.00   0.00   0.00
md0               0.00     0.00 161309.00    0.00 645236.00     0.00     8.00     0.00    0.00    0.00    0.00   0.00   0.00

avg-cpu:  %user   %nice %system %iowait  %steal   %idle
           6.47    0.00   25.00    0.00    0.00   68.53

Device:         rrqm/s   wrqm/s     r/s     w/s    rkB/s    wkB/s avgrq-sz avgqu-sz   await r_await w_await  svctm  %util
sda               0.00     0.00 26767.00    0.00 107068.00     0.00     8.00     3.83    0.14    0.14    0.00   0.03  69.70
sdb               0.00     0.00 27149.00    0.00 108596.00     0.00     8.00     3.83    0.14    0.14    0.00   0.03  69.50
sdc               0.00     0.00 27013.00    0.00 108052.00     0.00     8.00     5.54    0.21    0.21    0.00   0.03  71.20
sdd               0.00     0.00 26930.00    0.00 107720.00     0.00     8.00     5.47    0.20    0.20    0.00   0.03  71.00
sde               0.00     0.00 26933.00    0.00 107732.00     0.00     8.00     5.67    0.21    0.21    0.00   0.03  71.00
sdf               0.00     0.00 26990.00    0.00 107960.00     0.00     8.00     5.74    0.21    0.21    0.00   0.03  70.80
sdg               0.00     0.00    0.00    0.00     0.00     0.00     0.00     0.00    0.00    0.00    0.00   0.00   0.00
sdh               0.00     0.00    0.00    0.00     0.00     0.00     0.00     0.00    0.00    0.00    0.00   0.00   0.00
md0               0.00     0.00 161743.00    0.00 646972.00     0.00     8.00     0.00    0.00    0.00    0.00   0.00   0.00

