Linux 4.17.2 (bench) 	08/03/2018 	_x86_64_	(4 CPU)

avg-cpu:  %user   %nice %system %iowait  %steal   %idle
          10.27    0.02    4.08    2.60    0.00   83.02

Device:         rrqm/s   wrqm/s     r/s     w/s    rkB/s    wkB/s avgrq-sz avgqu-sz   await r_await w_await  svctm  %util
sda              47.07     4.23 1667.25  102.27 20996.51  3129.36    27.27     1.04    0.59    0.26    5.92   0.06  10.79
sdb              46.92     4.19 1667.21  102.41 20985.94  3126.03    27.25     1.03    0.58    0.26    5.85   0.06  10.67
sdc              84.82     4.25 1627.21  101.96 20978.03  3128.49    27.88     1.45    0.84    0.45    7.12   0.08  14.13
sdd              78.27     4.22 1632.94  102.03 20963.00  3124.69    27.77     1.46    0.84    0.44    7.33   0.08  14.22
sde              80.29     4.27 1638.01  102.13 21022.69  3128.93    27.76     1.48    0.85    0.44    7.44   0.08  14.24
sdf              77.41     4.24 1640.16  102.07 21003.96  3125.80    27.70     1.53    0.88    0.44    7.90   0.08  14.27
sdg               0.00     3.17   26.37   73.30   324.21   392.02    14.37     0.44    4.41    0.20    5.93   0.08   0.78
sdh               0.00     0.13    0.02    0.23     2.21     5.05    56.82     0.00    1.15    0.65    1.19   0.21   0.01
md0               0.00     0.00 10294.37  479.18 143803.90 21420.07    30.67     0.00    0.00    0.00    0.00   0.00   0.00

avg-cpu:  %user   %nice %system %iowait  %steal   %idle
           1.30    0.00    4.95    0.78    0.00   92.97

Device:         rrqm/s   wrqm/s     r/s     w/s    rkB/s    wkB/s avgrq-sz avgqu-sz   await r_await w_await  svctm  %util
sda               0.00     0.00 5893.00    0.00 23572.00     0.00     8.00     0.67    0.11    0.11    0.00   0.06  34.10
sdb               0.00     0.00 5913.00    0.00 23652.00     0.00     8.00     0.64    0.11    0.11    0.00   0.05  32.20
sdc               0.00     0.00 6095.00    0.00 24380.00     0.00     8.00     0.80    0.13    0.13    0.00   0.07  40.40
sdd               0.00     0.00 6108.00    0.00 24432.00     0.00     8.00     0.77    0.13    0.13    0.00   0.06  37.80
sde               0.00     0.00 5857.00    0.00 23428.00     0.00     8.00     0.67    0.11    0.11    0.00   0.06  35.30
sdf               0.00     0.00 5744.00    0.00 22976.00     0.00     8.00     0.69    0.12    0.12    0.00   0.06  34.50
sdg               0.00     0.00    0.00    0.00     0.00     0.00     0.00     0.00    0.00    0.00    0.00   0.00   0.00
sdh               0.00     0.00    0.00    0.00     0.00     0.00     0.00     0.00    0.00    0.00    0.00   0.00   0.00
md0               0.00     0.00 35603.00    0.00 142412.00     0.00     8.00     0.00    0.00    0.00    0.00   0.00   0.00

