Linux 4.17.2 (bench) 	08/03/2018 	_x86_64_	(4 CPU)

avg-cpu:  %user   %nice %system %iowait  %steal   %idle
          10.26    0.02    4.15    2.69    0.00   82.89

Device:         rrqm/s   wrqm/s     r/s     w/s    rkB/s    wkB/s avgrq-sz avgqu-sz   await r_await w_await  svctm  %util
sda              50.69     4.20 1709.49  101.49 21264.46  3105.27    26.91     1.04    0.58    0.26    5.92   0.06  10.96
sdb              50.52     4.16 1709.47  101.62 21254.00  3101.97    26.90     1.04    0.58    0.26    5.85   0.06  10.84
sdc              88.26     4.22 1669.63  101.18 21246.17  3104.41    27.50     1.46    0.83    0.45    7.12   0.08  14.33
sdd              81.76     4.19 1675.31  101.25 21231.21  3100.64    27.39     1.47    0.83    0.44    7.33   0.08  14.43
sde              83.77     4.23 1680.39  101.34 21290.67  3104.85    27.38     1.49    0.84    0.44    7.44   0.08  14.45
sdf              80.91     4.20 1682.50  101.29 21271.99  3101.74    27.33     1.54    0.86    0.44    7.90   0.08  14.48
sdg               0.00     3.17   26.68   73.28   325.50   392.04    14.36     0.44    4.40    0.20    5.93   0.08   0.78
sdh               0.00     0.13    0.02    0.23     2.19     5.01    56.82     0.00    1.15    0.65    1.19   0.21   0.01
md0               0.00     0.00 10569.97  475.49 145744.17 21255.17    30.24     0.00    0.00    0.00    0.00   0.00   0.00

avg-cpu:  %user   %nice %system %iowait  %steal   %idle
           1.70    0.01   26.80    0.16    0.00   71.33

Device:         rrqm/s   wrqm/s     r/s     w/s    rkB/s    wkB/s avgrq-sz avgqu-sz   await r_await w_await  svctm  %util
sda            2695.75     0.00 25204.00    0.00 111599.00     0.00     8.86     6.59    0.26    0.26    0.00   0.02  49.68
sdb            2650.55     0.00 24667.00    0.00 109269.20     0.00     8.86     6.81    0.28    0.28    0.00   0.02  53.65
sdc            4609.70     0.00 23480.85    0.00 112354.60     0.00     9.57     9.73    0.41    0.41    0.00   0.03  64.09
sdd            4535.40     0.00 23203.65    0.00 110953.00     0.00     9.56     9.48    0.41    0.41    0.00   0.03  63.06
sde            4645.40     0.00 23202.00    0.00 111387.60     0.00     9.60     9.63    0.42    0.42    0.00   0.03  63.79
sdf            4656.55     0.00 23238.80    0.00 111574.80     0.00     9.60     9.68    0.42    0.42    0.00   0.03  63.20
sdg               0.00     0.05    1.25    0.60    25.20    13.40    41.73     0.00    0.30    0.20    0.50   0.16   0.03
sdh               0.00     0.00    0.00    0.00     0.00     0.00     0.00     0.00    0.00    0.00    0.00   0.00   0.00
md0               0.00     0.00 166801.00    0.00 667204.00     0.00     8.00     0.00    0.00    0.00    0.00   0.00   0.00

