Linux 4.17.2 (bench) 	08/03/2018 	_x86_64_	(4 CPU)

avg-cpu:  %user   %nice %system %iowait  %steal   %idle
          10.26    0.02    4.14    2.68    0.00   82.90

Device:         rrqm/s   wrqm/s     r/s     w/s    rkB/s    wkB/s avgrq-sz avgqu-sz   await r_await w_await  svctm  %util
sda              50.34     4.20 1704.52  101.55 21229.93  3107.19    26.95     1.04    0.58    0.26    5.92   0.06  10.95
sdb              50.17     4.16 1704.50  101.68 21219.48  3103.88    26.93     1.04    0.58    0.26    5.85   0.06  10.82
sdc              87.92     4.22 1664.64  101.24 21211.63  3106.32    27.54     1.46    0.83    0.44    7.12   0.08  14.31
sdd              81.42     4.19 1670.33  101.31 21196.66  3102.55    27.43     1.47    0.83    0.43    7.33   0.08  14.40
sde              83.43     4.24 1675.40  101.40 21256.12  3106.76    27.42     1.49    0.84    0.44    7.44   0.08  14.43
sdf              80.57     4.21 1677.52  101.35 21237.43  3103.65    27.37     1.53    0.86    0.44    7.90   0.08  14.46
sdg               0.00     3.17   26.65   73.28   325.33   392.02    14.36     0.44    4.40    0.20    5.93   0.08   0.78
sdh               0.00     0.13    0.02    0.23     2.19     5.01    56.82     0.00    1.15    0.65    1.19   0.21   0.01
md0               0.00     0.00 10537.91  475.79 145495.03 21268.27    30.28     0.00    0.00    0.00    0.00   0.00   0.00

avg-cpu:  %user   %nice %system %iowait  %steal   %idle
           1.37    0.01   21.83    0.70    0.00   76.09

Device:         rrqm/s   wrqm/s     r/s     w/s    rkB/s    wkB/s avgrq-sz avgqu-sz   await r_await w_await  svctm  %util
sda              18.20     0.00 20673.55    0.00 82767.00     0.00     8.01     4.22    0.20    0.20    0.00   0.02  38.55
sdb              14.25     0.00 20668.25    0.00 82730.00     0.00     8.01     4.25    0.21    0.21    0.00   0.02  38.41
sdc              13.00     0.00 20626.75    0.00 82559.00     0.00     8.01     5.43    0.26    0.26    0.00   0.02  51.47
sdd              13.70     0.00 20647.80    0.00 82646.00     0.00     8.01     5.37    0.26    0.26    0.00   0.03  52.01
sde              18.75     0.00 20698.70    0.00 82869.80     0.00     8.01     5.50    0.27    0.27    0.00   0.03  51.88
sdf              14.40     0.00 20718.00    0.00 82929.60     0.00     8.01     5.53    0.27    0.27    0.00   0.02  51.50
sdg               0.00     3.60  160.50  145.25   652.80   747.20     9.16     0.92    3.01    0.14    6.19   0.10   2.96
sdh               0.00     0.00    0.00    0.00     0.00     0.00     0.00     0.00    0.00    0.00    0.00   0.00   0.00
md0               0.00     0.00 124126.15    0.00 496504.60     0.00     8.00     0.00    0.00    0.00    0.00   0.00   0.00

