Linux 4.17.2 (bench) 	08/03/2018 	_x86_64_	(4 CPU)

avg-cpu:  %user   %nice %system %iowait  %steal   %idle
          10.26    0.02    4.17    2.73    0.00   82.83

Device:         rrqm/s   wrqm/s     r/s     w/s    rkB/s    wkB/s avgrq-sz avgqu-sz   await r_await w_await  svctm  %util
sda              53.46     4.19 1722.45  101.22 21321.67  3097.16    26.78     1.05    0.57    0.26    5.92   0.06  11.02
sdb              53.26     4.15 1722.45  101.36 21311.21  3093.87    26.76     1.05    0.57    0.26    5.85   0.06  10.90
sdc              91.04     4.21 1682.57  100.91 21303.38  3096.30    27.36     1.47    0.82    0.44    7.12   0.08  14.39
sdd              84.56     4.18 1688.22  100.98 21288.37  3092.54    27.25     1.47    0.82    0.43    7.33   0.08  14.49
sde              86.56     4.22 1693.31  101.08 21347.78  3096.74    27.25     1.50    0.83    0.44    7.44   0.08  14.51
sdf              83.71     4.19 1695.42  101.02 21329.22  3093.64    27.19     1.54    0.86    0.44    7.90   0.08  14.54
sdg               0.00     3.17   26.78   73.26   325.85   392.00    14.35     0.44    4.40    0.20    5.93   0.08   0.78
sdh               0.00     0.13    0.02    0.23     2.18     5.00    56.82     0.00    1.15    0.65    1.19   0.21   0.01
md0               0.00     0.00 10664.40  474.25 146111.97 21199.68    30.04     0.00    0.00    0.00    0.00   0.00   0.00

avg-cpu:  %user   %nice %system %iowait  %steal   %idle
          23.36    0.03    5.05    7.41    0.00   64.16

Device:         rrqm/s   wrqm/s     r/s     w/s    rkB/s    wkB/s avgrq-sz avgqu-sz   await r_await w_await  svctm  %util
sda              83.80     0.00  682.10    0.00 60121.20     0.00   176.28     0.31    0.45    0.45    0.00   0.32  21.99
sdb              82.85     0.00  689.55    0.00 59589.20     0.00   172.84     0.32    0.46    0.46    0.00   0.32  22.09
sdc              82.35     0.00  687.40    0.00 59602.00     0.00   173.41     0.49    0.71    0.71    0.00   0.46  31.95
sdd              83.25     0.00  688.85    0.00 59235.40     0.00   171.98     0.48    0.70    0.70    0.00   0.46  31.73
sde              83.05     0.00  681.45    0.00 59720.20     0.00   175.27     0.48    0.71    0.71    0.00   0.47  32.13
sdf              83.45     0.00  678.50    0.00 59865.00     0.00   176.46     0.49    0.72    0.72    0.00   0.47  31.85
sdg               0.00     0.10    2.00   72.20    16.00   381.60    10.72     0.41    5.58    0.12    5.73   0.04   0.33
sdh               0.00     0.00    0.00    0.00     0.00     0.00     0.00     0.00    0.00    0.00    0.00   0.00   0.00
md0               0.00     0.00 4606.70    0.00 503383.60     0.00   218.54     0.00    0.00    0.00    0.00   0.00   0.00

