Linux 4.17.2 (bench) 	08/03/2018 	_x86_64_	(4 CPU)

avg-cpu:  %user   %nice %system %iowait  %steal   %idle
          10.27    0.02    4.09    2.61    0.00   83.01

Device:         rrqm/s   wrqm/s     r/s     w/s    rkB/s    wkB/s avgrq-sz avgqu-sz   await r_await w_await  svctm  %util
sda              47.08     4.23 1672.36  102.14 21042.46  3125.29    27.24     1.04    0.58    0.26    5.92   0.06  10.81
sdb              46.93     4.19 1672.32  102.28 21031.93  3121.97    27.22     1.03    0.58    0.26    5.85   0.06  10.69
sdc              84.78     4.25 1632.37  101.83 21024.08  3124.42    27.85     1.45    0.84    0.45    7.12   0.08  14.16
sdd              78.23     4.22 1638.09  101.90 21009.01  3120.63    27.74     1.46    0.84    0.44    7.33   0.08  14.25
sde              80.25     4.26 1643.16  102.00 21068.64  3124.87    27.73     1.48    0.85    0.44    7.44   0.08  14.27
sdf              77.38     4.23 1645.30  101.94 21049.96  3121.74    27.67     1.53    0.87    0.44    7.90   0.08  14.30
sdg               0.00     3.17   26.43   73.30   324.43   392.02    14.37     0.44    4.41    0.20    5.93   0.08   0.78
sdh               0.00     0.13    0.02    0.23     2.20     5.04    56.82     0.00    1.15    0.65    1.19   0.21   0.01
md0               0.00     0.00 10325.08  478.56 144170.51 21392.23    30.65     0.00    0.00    0.00    0.00   0.00   0.00

avg-cpu:  %user   %nice %system %iowait  %steal   %idle
          24.67    0.03    3.03   15.11    0.00   57.17

Device:         rrqm/s   wrqm/s     r/s     w/s    rkB/s    wkB/s avgrq-sz avgqu-sz   await r_await w_await  svctm  %util
sda               0.00     0.00 1484.70    0.00  5938.80     0.00     8.00     0.14    0.10    0.10    0.00   0.10  14.29
sdb               0.00     0.00 1506.00    0.00  6024.00     0.00     8.00     0.15    0.10    0.10    0.00   0.10  14.57
sdc               0.00     0.00 1510.25    0.00  6041.00     0.00     8.00     0.16    0.10    0.10    0.00   0.10  15.79
sdd               0.00     0.00 1502.90    0.00  6011.60     0.00     8.00     0.16    0.11    0.11    0.00   0.10  15.78
sde               0.00     0.00 1507.05    0.00  6028.20     0.00     8.00     0.16    0.10    0.10    0.00   0.10  15.58
sdf               0.00     0.00 1515.15    0.00  6060.60     0.00     8.00     0.16    0.10    0.10    0.00   0.10  15.89
sdg               0.00     0.05    1.50    0.50    22.80    10.00    32.80     0.00    0.33    0.33    0.30   0.25   0.05
sdh               0.00     0.00    0.00    0.00     0.00     0.00     0.00     0.00    0.00    0.00    0.00   0.00   0.00
md0               0.00     0.00 9026.10    0.00 36104.40     0.00     8.00     0.00    0.00    0.00    0.00   0.00   0.00

