Linux 4.17.2 (bench) 	08/03/2018 	_x86_64_	(4 CPU)

avg-cpu:  %user   %nice %system %iowait  %steal   %idle
          10.27    0.02    4.10    2.61    0.00   83.01

Device:         rrqm/s   wrqm/s     r/s     w/s    rkB/s    wkB/s avgrq-sz avgqu-sz   await r_await w_await  svctm  %util
sda              47.08     4.23 1672.91  102.14 21044.03  3125.16    27.23     1.04    0.58    0.26    5.92   0.06  10.81
sdb              46.93     4.19 1672.86  102.27 21033.49  3121.83    27.22     1.03    0.58    0.26    5.85   0.06  10.69
sdc              84.78     4.25 1632.92  101.82 21025.65  3124.28    27.84     1.45    0.84    0.45    7.12   0.08  14.16
sdd              78.23     4.22 1638.65  101.89 21010.58  3120.49    27.73     1.46    0.84    0.44    7.33   0.08  14.25
sde              80.25     4.26 1643.71  101.99 21070.21  3124.73    27.72     1.48    0.85    0.44    7.44   0.08  14.27
sdf              77.37     4.23 1645.85  101.94 21051.53  3121.60    27.66     1.53    0.87    0.44    7.90   0.08  14.31
sdg               0.00     3.17   26.43   73.30   324.43   392.02    14.37     0.44    4.41    0.20    5.93   0.08   0.78
sdh               0.00     0.13    0.02    0.23     2.20     5.04    56.82     0.00    1.15    0.65    1.19   0.21   0.01
md0               0.00     0.00 10328.37  478.54 144179.13 21391.28    30.64     0.00    0.00    0.00    0.00   0.00   0.00

avg-cpu:  %user   %nice %system %iowait  %steal   %idle
          24.56    0.00    2.03    1.27    0.00   72.15

Device:         rrqm/s   wrqm/s     r/s     w/s    rkB/s    wkB/s avgrq-sz avgqu-sz   await r_await w_await  svctm  %util
sda               0.00     0.00 1501.00    0.00  6444.00     0.00     8.59     0.16    0.11    0.11    0.00   0.11  15.80
sdb               0.00     0.00 1440.00    0.00  6368.00     0.00     8.84     0.13    0.09    0.09    0.00   0.09  12.90
sdc               0.00     0.00 1446.00    0.00  6316.00     0.00     8.74     0.15    0.10    0.10    0.00   0.10  14.50
sdd               0.00     0.00 1461.00    0.00  6588.00     0.00     9.02     0.17    0.12    0.12    0.00   0.11  16.80
sde               0.00     0.00 1525.00    0.00  6760.00     0.00     8.87     0.17    0.11    0.11    0.00   0.11  16.80
sdf               0.00     0.00 1460.00    0.00  6284.00     0.00     8.61     0.16    0.11    0.11    0.00   0.11  15.80
sdg               0.00     0.00    4.00    0.00    92.00     0.00    46.00     0.00    0.25    0.25    0.00   0.25   0.10
sdh               0.00     0.00    0.00    0.00     0.00     0.00     0.00     0.00    0.00    0.00    0.00   0.00   0.00
md0               0.00     0.00 8834.00    0.00 38840.00     0.00     8.79     0.00    0.00    0.00    0.00   0.00   0.00

avg-cpu:  %user   %nice %system %iowait  %steal   %idle
          25.00    0.00    2.02    0.76    0.00   72.22

Device:         rrqm/s   wrqm/s     r/s     w/s    rkB/s    wkB/s avgrq-sz avgqu-sz   await r_await w_await  svctm  %util
sda               0.00     0.00 1543.00    0.00  6792.00     0.00     8.80     0.15    0.10    0.10    0.00   0.10  14.90
sdb               0.00     0.00 1519.00    0.00  7040.00     0.00     9.27     0.15    0.10    0.10    0.00   0.10  14.60
sdc               0.00     0.00 1531.00    0.00  6440.00     0.00     8.41     0.16    0.10    0.10    0.00   0.10  15.80
sdd               0.00     0.00 1590.00    0.00  7104.00     0.00     8.94     0.18    0.11    0.11    0.00   0.11  17.70
sde               0.00     0.00 1478.00    0.00  6296.00     0.00     8.52     0.15    0.10    0.10    0.00   0.10  14.80
sdf               0.00     0.00 1527.00    0.00  6500.00     0.00     8.51     0.16    0.10    0.10    0.00   0.10  15.70
sdg               0.00     0.00    0.00    0.00     0.00     0.00     0.00     0.00    0.00    0.00    0.00   0.00   0.00
sdh               0.00     0.00    0.00    0.00     0.00     0.00     0.00     0.00    0.00    0.00    0.00   0.00   0.00
md0               0.00     0.00 9189.00    0.00 40464.00     0.00     8.81     0.00    0.00    0.00    0.00   0.00   0.00

avg-cpu:  %user   %nice %system %iowait  %steal   %idle
          24.87    0.00    1.52    1.27    0.00   72.34

Device:         rrqm/s   wrqm/s     r/s     w/s    rkB/s    wkB/s avgrq-sz avgqu-sz   await r_await w_await  svctm  %util
sda               0.00     0.00 1552.00    0.00  6648.00     0.00     8.57     0.14    0.09    0.09    0.00   0.09  13.40
sdb               0.00     0.00 1588.00    0.00  7116.00     0.00     8.96     0.17    0.11    0.11    0.00   0.11  17.00
sdc               0.00     0.00 1537.00    0.00  6556.00     0.00     8.53     0.18    0.12    0.12    0.00   0.12  18.50
sdd               0.00     0.00 1523.00    0.00  6776.00     0.00     8.90     0.16    0.11    0.11    0.00   0.11  16.40
sde               0.00     0.00 1483.00    0.00  6468.00     0.00     8.72     0.14    0.09    0.09    0.00   0.09  14.00
sdf               0.00     0.00 1519.00    0.00  6612.00     0.00     8.71     0.17    0.11    0.11    0.00   0.11  16.80
sdg               0.00     0.00    0.00    0.00     0.00     0.00     0.00     0.00    0.00    0.00    0.00   0.00   0.00
sdh               0.00     0.00    0.00    0.00     0.00     0.00     0.00     0.00    0.00    0.00    0.00   0.00   0.00
md0               0.00     0.00 9202.00    0.00 40516.00     0.00     8.81     0.00    0.00    0.00    0.00   0.00   0.00

avg-cpu:  %user   %nice %system %iowait  %steal   %idle
          24.56    0.00    3.01   17.79    0.00   54.64

Device:         rrqm/s   wrqm/s     r/s     w/s    rkB/s    wkB/s avgrq-sz avgqu-sz   await r_await w_await  svctm  %util
sda               0.00     0.00 1480.00    0.00  6212.00     0.00     8.39     0.15    0.10    0.10    0.00   0.10  14.60
sdb               0.00     0.00 1509.00    0.00  6664.00     0.00     8.83     0.13    0.09    0.09    0.00   0.08  12.80
sdc               0.00     0.00 1543.00    0.00  6740.00     0.00     8.74     0.17    0.11    0.11    0.00   0.11  17.00
sdd               0.00     0.00 1546.00    0.00  6400.00     0.00     8.28     0.18    0.11    0.11    0.00   0.11  17.60
sde               0.00     0.00 1523.00    0.00  6688.00     0.00     8.78     0.17    0.11    0.11    0.00   0.11  16.50
sdf               0.00     0.00 1523.00    0.00  6492.00     0.00     8.53     0.14    0.09    0.09    0.00   0.09  13.50
sdg               0.00     0.00    0.00    0.00     0.00     0.00     0.00     0.00    0.00    0.00    0.00   0.00   0.00
sdh               0.00     0.00    0.00    0.00     0.00     0.00     0.00     0.00    0.00    0.00    0.00   0.00   0.00
md0               0.00     0.00 9123.00    0.00 39212.00     0.00     8.60     0.00    0.00    0.00    0.00   0.00   0.00

avg-cpu:  %user   %nice %system %iowait  %steal   %idle
          24.69    0.25    3.02   14.11    0.00   57.93

Device:         rrqm/s   wrqm/s     r/s     w/s    rkB/s    wkB/s avgrq-sz avgqu-sz   await r_await w_await  svctm  %util
sda               0.00     0.00 1428.00    0.00  6640.00     0.00     9.30     0.15    0.10    0.10    0.00   0.10  14.40
sdb               0.00     0.00 1467.00    0.00  6772.00     0.00     9.23     0.16    0.11    0.11    0.00   0.11  15.60
sdc               0.00     0.00 1466.00    0.00  6344.00     0.00     8.65     0.15    0.10    0.10    0.00   0.10  15.10
sdd               0.00     0.00 1537.00    0.00  6860.00     0.00     8.93     0.16    0.10    0.10    0.00   0.10  15.50
sde               0.00     0.00 1486.00    0.00  6552.00     0.00     8.82     0.16    0.11    0.11    0.00   0.11  15.70
sdf               0.00     0.00 1533.00    0.00  6516.00     0.00     8.50     0.16    0.10    0.10    0.00   0.10  15.90
sdg               0.00     0.00   27.00    0.00   288.00     0.00    21.33     0.00    0.15    0.15    0.00   0.15   0.40
sdh               0.00     0.00    0.00    0.00     0.00     0.00     0.00     0.00    0.00    0.00    0.00   0.00   0.00
md0               0.00     0.00 8918.00    0.00 39876.00     0.00     8.94     0.00    0.00    0.00    0.00   0.00   0.00

avg-cpu:  %user   %nice %system %iowait  %steal   %idle
          24.31    0.00    3.01   17.04    0.00   55.64

Device:         rrqm/s   wrqm/s     r/s     w/s    rkB/s    wkB/s avgrq-sz avgqu-sz   await r_await w_await  svctm  %util
sda               0.00     0.00 1498.00    0.00  6876.00     0.00     9.18     0.18    0.12    0.12    0.00   0.12  17.70
sdb               0.00     0.00 1476.00    0.00  6408.00     0.00     8.68     0.16    0.11    0.11    0.00   0.11  15.70
sdc               0.00     0.00 1491.00    0.00  6292.00     0.00     8.44     0.14    0.09    0.09    0.00   0.09  14.00
sdd               0.00     0.00 1530.00    0.00  6948.00     0.00     9.08     0.14    0.09    0.09    0.00   0.09  14.30
sde               0.00     0.00 1516.00    0.00  6788.00     0.00     8.96     0.15    0.10    0.10    0.00   0.10  15.40
sdf               0.00     0.00 1493.00    0.00  6452.00     0.00     8.64     0.15    0.10    0.10    0.00   0.10  15.10
sdg               0.00     0.00    0.00    0.00     0.00     0.00     0.00     0.00    0.00    0.00    0.00   0.00   0.00
sdh               0.00     0.00    0.00    0.00     0.00     0.00     0.00     0.00    0.00    0.00    0.00   0.00   0.00
md0               0.00     0.00 9004.00    0.00 40176.00     0.00     8.92     0.00    0.00    0.00    0.00   0.00   0.00

avg-cpu:  %user   %nice %system %iowait  %steal   %idle
          24.56    0.00    3.01   21.80    0.00   50.63

Device:         rrqm/s   wrqm/s     r/s     w/s    rkB/s    wkB/s avgrq-sz avgqu-sz   await r_await w_await  svctm  %util
sda               0.00     0.00 1498.00    0.00  6368.00     0.00     8.50     0.14    0.10    0.10    0.00   0.10  14.50
sdb               0.00     0.00 1506.00    0.00  6924.00     0.00     9.20     0.14    0.09    0.09    0.00   0.09  13.70
sdc               0.00     0.00 1522.00    0.00  6484.00     0.00     8.52     0.18    0.12    0.12    0.00   0.12  18.40
sdd               0.00     0.00 1510.00    0.00  6616.00     0.00     8.76     0.16    0.11    0.11    0.00   0.11  16.30
sde               0.00     0.00 1505.00    0.00  6540.00     0.00     8.69     0.15    0.10    0.10    0.00   0.10  15.00
sdf               0.00     0.00 1554.00    0.00  6792.00     0.00     8.74     0.15    0.10    0.10    0.00   0.10  14.90
sdg               0.00     0.00    0.00    0.00     0.00     0.00     0.00     0.00    0.00    0.00    0.00   0.00   0.00
sdh               0.00     0.00    0.00    0.00     0.00     0.00     0.00     0.00    0.00    0.00    0.00   0.00   0.00
md0               0.00     0.00 9095.00    0.00 39772.00     0.00     8.75     0.00    0.00    0.00    0.00   0.00   0.00

avg-cpu:  %user   %nice %system %iowait  %steal   %idle
          24.75    0.00    2.78   18.18    0.00   54.29

Device:         rrqm/s   wrqm/s     r/s     w/s    rkB/s    wkB/s avgrq-sz avgqu-sz   await r_await w_await  svctm  %util
sda               0.00     0.00 1392.00    0.00  5820.00     0.00     8.36     0.13    0.09    0.09    0.00   0.09  13.00
sdb               0.00     0.00 1530.00    0.00  6548.00     0.00     8.56     0.15    0.10    0.10    0.00   0.10  15.40
sdc               0.00     0.00 1539.00    0.00  6516.00     0.00     8.47     0.18    0.12    0.12    0.00   0.12  18.00
sdd               0.00     0.00 1534.00    0.00  6492.00     0.00     8.46     0.18    0.11    0.11    0.00   0.11  17.60
sde               0.00     0.00 1504.00    0.00  6868.00     0.00     9.13     0.15    0.10    0.10    0.00   0.10  14.70
sdf               0.00     0.00 1576.00    0.00  6636.00     0.00     8.42     0.14    0.09    0.09    0.00   0.09  14.00
sdg               0.00     2.00    1.00    3.00     4.00    44.00    24.00     0.00    0.00    0.00    0.00   0.00   0.00
sdh               0.00     0.00    0.00    0.00     0.00     0.00     0.00     0.00    0.00    0.00    0.00   0.00   0.00
md0               0.00     0.00 9076.00    0.00 38896.00     0.00     8.57     0.00    0.00    0.00    0.00   0.00   0.00

avg-cpu:  %user   %nice %system %iowait  %steal   %idle
          24.37    0.00    2.51    6.03    0.00   67.09

Device:         rrqm/s   wrqm/s     r/s     w/s    rkB/s    wkB/s avgrq-sz avgqu-sz   await r_await w_await  svctm  %util
sda               0.00     0.00 1460.00    0.00  6224.00     0.00     8.53     0.15    0.10    0.10    0.00   0.10  15.20
sdb               0.00     0.00 1527.00    0.00  6596.00     0.00     8.64     0.14    0.09    0.09    0.00   0.09  14.40
sdc               0.00     0.00 1487.00    0.00  6672.00     0.00     8.97     0.16    0.11    0.11    0.00   0.11  15.70
sdd               0.00     0.00 1493.00    0.00  6784.00     0.00     9.09     0.17    0.11    0.11    0.00   0.11  16.80
sde               0.00     0.00 1458.00    0.00  6568.00     0.00     9.01     0.15    0.10    0.10    0.00   0.10  14.50
sdf               0.00     0.00 1437.00    0.00  6032.00     0.00     8.40     0.15    0.10    0.10    0.00   0.10  14.70
sdg               0.00     0.00    0.00    0.00     0.00     0.00     0.00     0.00    0.00    0.00    0.00   0.00   0.00
sdh               0.00     0.00    0.00    0.00     0.00     0.00     0.00     0.00    0.00    0.00    0.00   0.00   0.00
md0               0.00     0.00 8860.00    0.00 38904.00     0.00     8.78     0.00    0.00    0.00    0.00   0.00   0.00

avg-cpu:  %user   %nice %system %iowait  %steal   %idle
          24.18    0.00    2.52    1.01    0.00   72.29

Device:         rrqm/s   wrqm/s     r/s     w/s    rkB/s    wkB/s avgrq-sz avgqu-sz   await r_await w_await  svctm  %util
sda               0.00     0.00 1537.00    0.00  6988.00     0.00     9.09     0.16    0.10    0.10    0.00   0.10  16.00
sdb               1.00     0.00 1528.00    0.00  7512.00     0.00     9.83     0.14    0.09    0.09    0.00   0.09  13.70
sdc               1.00     0.00 1510.00    0.00  7060.00     0.00     9.35     0.18    0.12    0.12    0.00   0.12  17.90
sdd               0.00     0.00 1504.00    0.00  6532.00     0.00     8.69     0.15    0.10    0.10    0.00   0.10  14.90
sde               0.00     0.00 1488.00    0.00  6520.00     0.00     8.76     0.17    0.11    0.11    0.00   0.11  16.60
sdf               0.00     0.00 1464.00    0.00  6400.00     0.00     8.74     0.14    0.09    0.09    0.00   0.09  13.50
sdg               0.00     0.00    0.00    0.00     0.00     0.00     0.00     0.00    0.00    0.00    0.00   0.00   0.00
sdh               0.00     0.00    0.00    0.00     0.00     0.00     0.00     0.00    0.00    0.00    0.00   0.00   0.00
md0               0.00     0.00 9034.00    0.00 41600.00     0.00     9.21     0.00    0.00    0.00    0.00   0.00   0.00

avg-cpu:  %user   %nice %system %iowait  %steal   %idle
          24.75    0.00    2.27    0.76    0.00   72.22

Device:         rrqm/s   wrqm/s     r/s     w/s    rkB/s    wkB/s avgrq-sz avgqu-sz   await r_await w_await  svctm  %util
sda               0.00     0.00 1545.00    0.00  6812.00     0.00     8.82     0.14    0.09    0.09    0.00   0.09  14.40
sdb               0.00     0.00 1564.00    0.00  6820.00     0.00     8.72     0.13    0.08    0.08    0.00   0.08  12.80
sdc               0.00     0.00 1486.00    0.00  6484.00     0.00     8.73     0.17    0.11    0.11    0.00   0.11  17.00
sdd               0.00     0.00 1541.00    0.00  6652.00     0.00     8.63     0.16    0.11    0.11    0.00   0.11  16.20
sde               0.00     0.00 1508.00    0.00  6488.00     0.00     8.60     0.16    0.11    0.11    0.00   0.11  15.90
sdf               0.00     0.00 1532.00    0.00  6512.00     0.00     8.50     0.16    0.11    0.11    0.00   0.11  16.20
sdg               0.00     0.00    0.00    0.00     0.00     0.00     0.00     0.00    0.00    0.00    0.00   0.00   0.00
sdh               0.00     0.00    0.00    0.00     0.00     0.00     0.00     0.00    0.00    0.00    0.00   0.00   0.00
md0               0.00     0.00 9177.00    0.00 39864.00     0.00     8.69     0.00    0.00    0.00    0.00   0.00   0.00

avg-cpu:  %user   %nice %system %iowait  %steal   %idle
          24.43    0.00    2.52    1.26    0.00   71.79

Device:         rrqm/s   wrqm/s     r/s     w/s    rkB/s    wkB/s avgrq-sz avgqu-sz   await r_await w_await  svctm  %util
sda               0.00     0.00 1511.00    0.00  6844.00     0.00     9.06     0.15    0.10    0.10    0.00   0.10  14.40
sdb               0.00     0.00 1628.00    0.00  7036.00     0.00     8.64     0.16    0.10    0.10    0.00   0.10  16.00
sdc               0.00     0.00 1517.00    0.00  6528.00     0.00     8.61     0.14    0.09    0.09    0.00   0.09  14.10
sdd               0.00     0.00 1504.00    0.00  6712.00     0.00     8.93     0.16    0.10    0.10    0.00   0.10  15.60
sde               0.00     0.00 1487.00    0.00  6480.00     0.00     8.72     0.15    0.10    0.10    0.00   0.10  15.30
sdf               0.00     0.00 1484.00    0.00  6568.00     0.00     8.85     0.16    0.11    0.11    0.00   0.11  16.00
sdg               0.00     0.00    0.00    0.00     0.00     0.00     0.00     0.00    0.00    0.00    0.00   0.00   0.00
sdh               0.00     0.00    0.00    0.00     0.00     0.00     0.00     0.00    0.00    0.00    0.00   0.00   0.00
md0               0.00     0.00 9130.00    0.00 40540.00     0.00     8.88     0.00    0.00    0.00    0.00   0.00   0.00

avg-cpu:  %user   %nice %system %iowait  %steal   %idle
          24.87    0.00    2.03    1.02    0.00   72.08

Device:         rrqm/s   wrqm/s     r/s     w/s    rkB/s    wkB/s avgrq-sz avgqu-sz   await r_await w_await  svctm  %util
sda               0.00     0.00 1526.00    0.00  6528.00     0.00     8.56     0.16    0.10    0.10    0.00   0.10  15.80
sdb               0.00     0.00 1570.00    0.00  6632.00     0.00     8.45     0.13    0.08    0.08    0.00   0.08  13.30
sdc               0.00     0.00 1479.00    0.00  6504.00     0.00     8.80     0.17    0.11    0.11    0.00   0.11  16.70
sdd               0.00     0.00 1508.00    0.00  6936.00     0.00     9.20     0.15    0.10    0.10    0.00   0.10  14.60
sde               0.00     0.00 1585.00    0.00  7020.00     0.00     8.86     0.16    0.10    0.10    0.00   0.10  16.30
sdf               0.00     0.00 1468.00    0.00  6516.00     0.00     8.88     0.17    0.12    0.12    0.00   0.12  17.10
sdg               0.00     0.00    0.00    0.00     0.00     0.00     0.00     0.00    0.00    0.00    0.00   0.00   0.00
sdh               0.00     0.00    0.00    0.00     0.00     0.00     0.00     0.00    0.00    0.00    0.00   0.00   0.00
md0               0.00     0.00 9136.00    0.00 40404.00     0.00     8.85     0.00    0.00    0.00    0.00   0.00   0.00

avg-cpu:  %user   %nice %system %iowait  %steal   %idle
          24.87    0.00    1.78    1.02    0.00   72.34

Device:         rrqm/s   wrqm/s     r/s     w/s    rkB/s    wkB/s avgrq-sz avgqu-sz   await r_await w_await  svctm  %util
sda               0.00     0.00 1563.00    0.00  7308.00     0.00     9.35     0.15    0.10    0.10    0.00   0.10  15.00
sdb               0.00     0.00 1516.00    0.00  6676.00     0.00     8.81     0.14    0.09    0.09    0.00   0.09  13.70
sdc               0.00     0.00 1518.00    0.00  6672.00     0.00     8.79     0.16    0.11    0.11    0.00   0.11  16.20
sdd               0.00     0.00 1494.00    0.00  6612.00     0.00     8.85     0.15    0.10    0.10    0.00   0.10  15.30
sde               0.00     0.00 1468.00    0.00  6284.00     0.00     8.56     0.17    0.12    0.12    0.00   0.12  17.00
sdf               0.00     0.00 1577.00    0.00  7548.00     0.00     9.57     0.17    0.11    0.11    0.00   0.11  16.90
sdg               0.00     0.00    0.00    0.00     0.00     0.00     0.00     0.00    0.00    0.00    0.00   0.00   0.00
sdh               0.00     0.00    0.00    0.00     0.00     0.00     0.00     0.00    0.00    0.00    0.00   0.00   0.00
md0               0.00     0.00 9136.00    0.00 41416.00     0.00     9.07     0.00    0.00    0.00    0.00   0.00   0.00

avg-cpu:  %user   %nice %system %iowait  %steal   %idle
          24.94    0.00    1.78    1.27    0.00   72.01

Device:         rrqm/s   wrqm/s     r/s     w/s    rkB/s    wkB/s avgrq-sz avgqu-sz   await r_await w_await  svctm  %util
sda               0.00     0.00 1417.00    0.00  6224.00     0.00     8.78     0.16    0.11    0.11    0.00   0.11  16.20
sdb               0.00     0.00 1488.00    0.00  6704.00     0.00     9.01     0.15    0.10    0.10    0.00   0.10  14.80
sdc               0.00     0.00 1491.00    0.00  6384.00     0.00     8.56     0.15    0.10    0.10    0.00   0.10  15.30
sdd               0.00     0.00 1466.00    0.00  6352.00     0.00     8.67     0.14    0.10    0.10    0.00   0.10  14.00
sde               0.00     0.00 1500.00    0.00  6604.00     0.00     8.81     0.16    0.10    0.10    0.00   0.10  15.50
sdf               0.00     0.00 1509.00    0.00  6464.00     0.00     8.57     0.18    0.12    0.12    0.00   0.12  17.50
sdg               0.00     0.00    4.00    0.00    16.00     0.00     8.00     0.00    0.25    0.25    0.00   0.25   0.10
sdh               0.00     0.00    0.00    0.00     0.00     0.00     0.00     0.00    0.00    0.00    0.00   0.00   0.00
md0               0.00     0.00 8871.00    0.00 38864.00     0.00     8.76     0.00    0.00    0.00    0.00   0.00   0.00

avg-cpu:  %user   %nice %system %iowait  %steal   %idle
          25.06    0.00    1.77    1.01    0.00   72.15

Device:         rrqm/s   wrqm/s     r/s     w/s    rkB/s    wkB/s avgrq-sz avgqu-sz   await r_await w_await  svctm  %util
sda               0.00     0.00 1518.00    0.00  6644.00     0.00     8.75     0.14    0.09    0.09    0.00   0.09  13.60
sdb               0.00     0.00 1550.00    0.00  7340.00     0.00     9.47     0.17    0.11    0.11    0.00   0.11  16.90
sdc               0.00     0.00 1453.00    0.00  7040.00     0.00     9.69     0.14    0.10    0.10    0.00   0.10  14.20
sdd               1.00     0.00 1546.00    0.00  7780.00     0.00    10.06     0.18    0.11    0.11    0.00   0.11  17.70
sde               1.00     0.00 1469.00    0.00  6740.00     0.00     9.18     0.14    0.10    0.10    0.00   0.10  14.40
sdf               0.00     0.00 1495.00    0.00  6576.00     0.00     8.80     0.17    0.11    0.11    0.00   0.11  16.80
sdg               0.00     0.00    0.00    0.00     0.00     0.00     0.00     0.00    0.00    0.00    0.00   0.00   0.00
sdh               0.00     0.00    0.00    0.00     0.00     0.00     0.00     0.00    0.00    0.00    0.00   0.00   0.00
md0               0.00     0.00 9034.00    0.00 42640.00     0.00     9.44     0.00    0.00    0.00    0.00   0.00   0.00

avg-cpu:  %user   %nice %system %iowait  %steal   %idle
          24.56    0.00    2.28    1.01    0.00   72.15

Device:         rrqm/s   wrqm/s     r/s     w/s    rkB/s    wkB/s avgrq-sz avgqu-sz   await r_await w_await  svctm  %util
sda               0.00     0.00 1487.00    0.00  6452.00     0.00     8.68     0.15    0.10    0.10    0.00   0.10  15.50
sdb               0.00     0.00 1599.00    0.00  6860.00     0.00     8.58     0.15    0.09    0.09    0.00   0.09  15.00
sdc               0.00     0.00 1508.00    0.00  6876.00     0.00     9.12     0.17    0.11    0.11    0.00   0.11  17.00
sdd               1.00     0.00 1550.00    0.00  7588.00     0.00     9.79     0.14    0.09    0.09    0.00   0.09  14.40
sde               1.00     0.00 1488.00    0.00  6780.00     0.00     9.11     0.15    0.10    0.10    0.00   0.10  15.50
sdf               0.00     0.00 1513.00    0.00  6984.00     0.00     9.23     0.17    0.11    0.11    0.00   0.11  17.00
sdg               0.00     0.00    0.00    0.00     0.00     0.00     0.00     0.00    0.00    0.00    0.00   0.00   0.00
sdh               0.00     0.00    0.00    0.00     0.00     0.00     0.00     0.00    0.00    0.00    0.00   0.00   0.00
md0               0.00     0.00 9146.00    0.00 41756.00     0.00     9.13     0.00    0.00    0.00    0.00   0.00   0.00

avg-cpu:  %user   %nice %system %iowait  %steal   %idle
          24.81    0.00    2.28    2.28    0.00   70.63

Device:         rrqm/s   wrqm/s     r/s     w/s    rkB/s    wkB/s avgrq-sz avgqu-sz   await r_await w_await  svctm  %util
sda               1.00     0.00 1564.00    0.00  7500.00     0.00     9.59     0.14    0.09    0.09    0.00   0.09  14.00
sdb               0.00     0.00 1481.00    0.00  6408.00     0.00     8.65     0.15    0.10    0.10    0.00   0.10  14.90
sdc               0.00     0.00 1507.00    0.00  6520.00     0.00     8.65     0.17    0.11    0.11    0.00   0.11  16.80
sdd               0.00     0.00 1550.00    0.00  6820.00     0.00     8.80     0.18    0.11    0.11    0.00   0.11  17.60
sde               0.00     0.00 1515.00    0.00  6752.00     0.00     8.91     0.16    0.11    0.11    0.00   0.11  16.40
sdf               1.00     0.00 1529.00    0.00  7208.00     0.00     9.43     0.13    0.09    0.09    0.00   0.09  13.30
sdg               0.00   193.00    0.00 1431.00     0.00  7440.00    10.40     9.00    6.29    0.00    6.29   0.05   6.70
sdh               0.00     0.00    0.00    0.00     0.00     0.00     0.00     0.00    0.00    0.00    0.00   0.00   0.00
md0               0.00     0.00 9149.00    0.00 42124.00     0.00     9.21     0.00    0.00    0.00    0.00   0.00   0.00

avg-cpu:  %user   %nice %system %iowait  %steal   %idle
          24.94    0.00    2.52   13.35    0.00   59.19

Device:         rrqm/s   wrqm/s     r/s     w/s    rkB/s    wkB/s avgrq-sz avgqu-sz   await r_await w_await  svctm  %util
sda               0.00     0.00 1482.00    0.00  6464.00     0.00     8.72     0.13    0.09    0.09    0.00   0.09  12.80
sdb               0.00     0.00 1483.00    0.00  6420.00     0.00     8.66     0.14    0.10    0.10    0.00   0.10  14.50
sdc               0.00     0.00 1487.00    0.00  6696.00     0.00     9.01     0.18    0.12    0.12    0.00   0.12  17.90
sdd               0.00     0.00 1544.00    0.00  6828.00     0.00     8.84     0.16    0.10    0.10    0.00   0.10  15.90
sde               0.00     0.00 1516.00    0.00  6432.00     0.00     8.49     0.15    0.10    0.10    0.00   0.10  15.10
sdf               0.00     0.00 1600.00    0.00  7020.00     0.00     8.78     0.17    0.11    0.11    0.00   0.11  16.90
sdg               0.00     0.00   17.00    0.00   328.00     0.00    38.59     0.01    0.35    0.35    0.00   0.29   0.50
sdh               0.00     0.00    0.00    0.00     0.00     0.00     0.00     0.00    0.00    0.00    0.00   0.00   0.00
md0               0.00     0.00 9110.00    0.00 40164.00     0.00     8.82     0.00    0.00    0.00    0.00   0.00   0.00

avg-cpu:  %user   %nice %system %iowait  %steal   %idle
          24.56    0.00    2.03    1.27    0.00   72.15

Device:         rrqm/s   wrqm/s     r/s     w/s    rkB/s    wkB/s avgrq-sz avgqu-sz   await r_await w_await  svctm  %util
sda               0.00     0.00 1539.00    0.00  6600.00     0.00     8.58     0.16    0.11    0.11    0.00   0.11  16.20
sdb               0.00     0.00 1477.00    0.00  6608.00     0.00     8.95     0.17    0.11    0.11    0.00   0.11  16.90
sdc               0.00     0.00 1565.00    0.00  7056.00     0.00     9.02     0.16    0.10    0.10    0.00   0.10  16.20
sdd               0.00     0.00 1422.00    0.00  6136.00     0.00     8.63     0.15    0.10    0.10    0.00   0.10  14.90
sde               0.00     0.00 1539.00    0.00  6812.00     0.00     8.85     0.14    0.09    0.09    0.00   0.09  13.70
sdf               0.00     0.00 1493.00    0.00  6304.00     0.00     8.44     0.16    0.11    0.11    0.00   0.11  16.20
sdg               0.00     0.00    0.00    0.00     0.00     0.00     0.00     0.00    0.00    0.00    0.00   0.00   0.00
sdh               0.00     0.00    0.00    0.00     0.00     0.00     0.00     0.00    0.00    0.00    0.00   0.00   0.00
md0               0.00     0.00 9035.00    0.00 39576.00     0.00     8.76     0.00    0.00    0.00    0.00   0.00   0.00

