Linux 4.17.2 (bench) 	08/03/2018 	_x86_64_	(4 CPU)

avg-cpu:  %user   %nice %system %iowait  %steal   %idle
          10.27    0.02    4.12    2.63    0.00   82.97

Device:         rrqm/s   wrqm/s     r/s     w/s    rkB/s    wkB/s avgrq-sz avgqu-sz   await r_await w_await  svctm  %util
sda              49.12     4.22 1685.81  101.95 21141.42  3119.42    27.14     1.04    0.58    0.26    5.92   0.06  10.86
sdb              48.95     4.18 1685.78  102.08 21130.91  3116.10    27.12     1.04    0.58    0.26    5.85   0.06  10.74
sdc              86.85     4.24 1645.78  101.64 21123.01  3118.55    27.75     1.46    0.84    0.45    7.12   0.08  14.22
sdd              80.32     4.21 1651.48  101.71 21107.92  3114.76    27.63     1.47    0.84    0.44    7.33   0.08  14.31
sde              82.34     4.25 1656.56  101.80 21167.53  3118.99    27.62     1.49    0.85    0.44    7.44   0.08  14.33
sdf              79.46     4.22 1658.69  101.75 21148.88  3115.87    27.57     1.53    0.87    0.44    7.90   0.08  14.37
sdg               0.00     3.17   26.53   73.30   324.88   392.07    14.36     0.44    4.41    0.20    5.93   0.08   0.78
sdh               0.00     0.13    0.02    0.23     2.20     5.03    56.82     0.00    1.15    0.65    1.19   0.21   0.01
md0               0.00     0.00 10418.26  477.66 144875.38 21351.99    30.51     0.00    0.00    0.00    0.00   0.00   0.00

avg-cpu:  %user   %nice %system %iowait  %steal   %idle
          24.17    0.00    5.07    9.97    0.00   60.79

Device:         rrqm/s   wrqm/s     r/s     w/s    rkB/s    wkB/s avgrq-sz avgqu-sz   await r_await w_await  svctm  %util
sda               0.00     0.00 1507.05    0.00  6028.20     0.00     8.00     0.14    0.10    0.10    0.00   0.10  14.44
sdb               0.00     0.00 1498.10    0.00  5992.40     0.00     8.00     0.14    0.10    0.10    0.00   0.10  14.29
sdc               0.00     0.00 1535.70    0.00  6142.80     0.00     8.00     0.15    0.10    0.10    0.00   0.10  15.44
sdd               0.00     0.00 1516.10    0.00  6064.40     0.00     8.00     0.17    0.11    0.11    0.00   0.11  17.10
sde               0.00     0.00 1531.95    0.00  6127.80     0.00     8.00     0.15    0.10    0.10    0.00   0.10  15.43
sdf               0.00     0.00 1528.95    0.00  6115.80     0.00     8.00     0.15    0.10    0.10    0.00   0.10  15.10
sdg               0.00     7.50    2.35  130.40    26.40   663.00    10.39     0.75    5.76    0.40    5.86   0.05   0.64
sdh               0.00     0.00    0.00    0.00     0.00     0.00     0.00     0.00    0.00    0.00    0.00   0.00   0.00
md0               0.00     0.00 9117.90    0.00 36471.60     0.00     8.00     0.00    0.00    0.00    0.00   0.00   0.00

