Linux 4.17.2 (bench) 	08/03/2018 	_x86_64_	(4 CPU)

avg-cpu:  %user   %nice %system %iowait  %steal   %idle
          10.26    0.02    4.14    2.68    0.00   82.90

Device:         rrqm/s   wrqm/s     r/s     w/s    rkB/s    wkB/s avgrq-sz avgqu-sz   await r_await w_await  svctm  %util
sda              50.33     4.20 1703.19  101.56 21222.46  3107.67    26.96     1.04    0.58    0.26    5.92   0.06  10.94
sdb              50.16     4.16 1703.17  101.70 21212.00  3104.37    26.95     1.04    0.58    0.26    5.85   0.06  10.82
sdc              87.92     4.22 1663.31  101.26 21204.13  3106.81    27.55     1.46    0.83    0.44    7.12   0.08  14.30
sdd              81.42     4.19 1668.99  101.32 21189.16  3103.04    27.44     1.47    0.83    0.43    7.33   0.08  14.40
sde              83.43     4.24 1674.07  101.42 21248.63  3107.25    27.44     1.49    0.84    0.44    7.44   0.08  14.42
sdf              80.56     4.21 1676.19  101.37 21229.95  3104.14    27.38     1.53    0.86    0.44    7.90   0.08  14.45
sdg               0.00     3.17   26.64   73.28   325.29   392.02    14.36     0.44    4.40    0.20    5.93   0.08   0.78
sdh               0.00     0.13    0.02    0.23     2.19     5.02    56.82     0.00    1.15    0.65    1.19   0.21   0.01
md0               0.00     0.00 10529.87  475.86 145443.51 21271.62    30.30     0.00    0.00    0.00    0.00   0.00   0.00

avg-cpu:  %user   %nice %system %iowait  %steal   %idle
          23.00    0.00    5.00    1.00    0.00   71.00

Device:         rrqm/s   wrqm/s     r/s     w/s    rkB/s    wkB/s avgrq-sz avgqu-sz   await r_await w_await  svctm  %util
sda              44.00     0.00  712.00    0.00 71476.00     0.00   200.78     0.36    0.51    0.51    0.00   0.35  25.00
sdb              46.00     0.00  710.00    0.00 73704.00     0.00   207.62     0.36    0.50    0.50    0.00   0.35  24.50
sdc              49.00     0.00  628.00    0.00 69492.00     0.00   221.31     0.48    0.77    0.77    0.00   0.51  31.80
sdd              39.00     0.00  683.00    0.00 65140.00     0.00   190.75     0.49    0.72    0.72    0.00   0.47  32.20
sde              49.00     0.00  704.00    0.00 69040.00     0.00   196.14     0.51    0.72    0.72    0.00   0.49  34.40
sdf              44.00     0.00  690.00    0.00 72280.00     0.00   209.51     0.54    0.78    0.78    0.00   0.51  35.10
sdg               0.00     0.00    2.00    0.00    84.00     0.00    84.00     0.00    0.50    0.50    0.00   0.50   0.10
sdh               0.00     0.00    0.00    0.00     0.00     0.00     0.00     0.00    0.00    0.00    0.00   0.00   0.00
md0               0.00     0.00 4400.00    0.00 550736.00     0.00   250.33     0.00    0.00    0.00    0.00   0.00   0.00

avg-cpu:  %user   %nice %system %iowait  %steal   %idle
          23.62    0.00    3.27    1.01    0.00   72.11

Device:         rrqm/s   wrqm/s     r/s     w/s    rkB/s    wkB/s avgrq-sz avgqu-sz   await r_await w_await  svctm  %util
sda              85.00     0.00  638.00    0.00 81768.00     0.00   256.33     0.34    0.54    0.54    0.00   0.44  27.80
sdb              89.00     0.00  610.00    0.00 81840.00     0.00   268.33     0.33    0.55    0.55    0.00   0.44  26.90
sdc              93.00     0.00  579.00    0.00 83920.00     0.00   289.88     0.52    0.90    0.90    0.00   0.72  41.40
sdd              91.00     0.00  612.00    0.00 83176.00     0.00   271.82     0.53    0.86    0.86    0.00   0.68  41.80
sde              86.00     0.00  596.00    0.00 81168.00     0.00   272.38     0.50    0.84    0.84    0.00   0.65  38.70
sdf              87.00     0.00  590.00    0.00 80204.00     0.00   271.88     0.50    0.84    0.84    0.00   0.67  39.80
sdg               0.00     0.00    4.00    3.00    16.00    12.00     8.00     0.00    0.00    0.00    0.00   0.00   0.00
sdh               0.00     0.00    0.00    0.00     0.00     0.00     0.00     0.00    0.00    0.00    0.00   0.00   0.00
md0               0.00     0.00 4157.00    0.00 692992.00     0.00   333.41     0.00    0.00    0.00    0.00   0.00   0.00

avg-cpu:  %user   %nice %system %iowait  %steal   %idle
          23.44    0.00    3.99    1.50    0.00   71.07

Device:         rrqm/s   wrqm/s     r/s     w/s    rkB/s    wkB/s avgrq-sz avgqu-sz   await r_await w_await  svctm  %util
sda              87.00     0.00  640.00    0.00 81204.00     0.00   253.76     0.37    0.57    0.57    0.00   0.41  26.50
sdb              97.00     0.00  584.00    0.00 82316.00     0.00   281.90     0.35    0.60    0.60    0.00   0.47  27.50
sdc              93.00     0.00  573.00    0.00 86880.00     0.00   303.25     0.57    0.99    0.99    0.00   0.73  41.70
sdd             101.00     0.00  603.00    0.00 90692.00     0.00   300.80     0.59    0.98    0.98    0.00   0.72  43.30
sde             100.00     0.00  597.00    0.00 85500.00     0.00   286.43     0.57    0.94    0.94    0.00   0.70  41.90
sdf              88.00     0.00  602.00    0.00 80340.00     0.00   266.91     0.54    0.89    0.89    0.00   0.65  39.40
sdg               0.00     0.00    0.00    0.00     0.00     0.00     0.00     0.00    0.00    0.00    0.00   0.00   0.00
sdh               0.00     0.00    0.00    0.00     0.00     0.00     0.00     0.00    0.00    0.00    0.00   0.00   0.00
md0               0.00     0.00 4171.00    0.00 718844.00     0.00   344.69     0.00    0.00    0.00    0.00   0.00   0.00

avg-cpu:  %user   %nice %system %iowait  %steal   %idle
          23.62    0.00    3.27    0.75    0.00   72.36

Device:         rrqm/s   wrqm/s     r/s     w/s    rkB/s    wkB/s avgrq-sz avgqu-sz   await r_await w_await  svctm  %util
sda             112.00     0.00  585.00    0.00 93540.00     0.00   319.79     0.39    0.68    0.68    0.00   0.49  28.80
sdb             109.00     0.00  568.00    0.00 88628.00     0.00   312.07     0.41    0.72    0.72    0.00   0.51  28.90
sdc             106.00     0.00  629.00    0.00 95364.00     0.00   303.22     0.66    1.06    1.06    0.00   0.73  45.80
sdd             110.00     0.00  571.00    0.00 90680.00     0.00   317.62     0.62    1.08    1.08    0.00   0.76  43.60
sde             108.00     0.00  609.00    0.00 94424.00     0.00   310.10     0.64    1.06    1.06    0.00   0.75  45.40
sdf             108.00     0.00  568.00    0.00 93520.00     0.00   329.30     0.64    1.13    1.13    0.00   0.80  45.40
sdg               0.00     0.00    0.00    0.00     0.00     0.00     0.00     0.00    0.00    0.00    0.00   0.00   0.00
sdh               0.00     0.00    0.00    0.00     0.00     0.00     0.00     0.00    0.00    0.00    0.00   0.00   0.00
md0               0.00     0.00 4177.00    0.00 776068.00     0.00   371.59     0.00    0.00    0.00    0.00   0.00   0.00

avg-cpu:  %user   %nice %system %iowait  %steal   %idle
          24.37    0.00    2.76    1.01    0.00   71.86

Device:         rrqm/s   wrqm/s     r/s     w/s    rkB/s    wkB/s avgrq-sz avgqu-sz   await r_await w_await  svctm  %util
sda              99.00     0.00  636.00    0.00 91920.00     0.00   289.06     0.41    0.64    0.64    0.00   0.47  29.60
sdb             107.00     0.00  617.00    0.00 92676.00     0.00   300.41     0.40    0.65    0.65    0.00   0.49  30.20
sdc             101.00     0.00  545.00    0.00 88024.00     0.00   323.02     0.60    1.11    1.11    0.00   0.77  41.90
sdd             104.00     0.00  534.00    0.00 84068.00     0.00   314.86     0.61    1.14    1.14    0.00   0.80  42.50
sde              98.00     0.00  602.00    0.00 86096.00     0.00   286.03     0.61    1.01    1.01    0.00   0.70  42.40
sdf             101.00     0.00  546.00    0.00 82680.00     0.00   302.86     0.58    1.07    1.07    0.00   0.75  41.20
sdg               0.00     0.00    0.00    0.00     0.00     0.00     0.00     0.00    0.00    0.00    0.00   0.00   0.00
sdh               0.00     0.00    0.00    0.00     0.00     0.00     0.00     0.00    0.00    0.00    0.00   0.00   0.00
md0               0.00     0.00 4089.00    0.00 736840.00     0.00   360.40     0.00    0.00    0.00    0.00   0.00   0.00

avg-cpu:  %user   %nice %system %iowait  %steal   %idle
          24.37    0.25    3.30    3.05    0.00   69.04

Device:         rrqm/s   wrqm/s     r/s     w/s    rkB/s    wkB/s avgrq-sz avgqu-sz   await r_await w_await  svctm  %util
sda              73.00     0.00  570.00    0.00 74180.00     0.00   260.28     0.32    0.56    0.56    0.00   0.46  26.10
sdb              73.00     0.00  591.00    0.00 76576.00     0.00   259.14     0.31    0.52    0.52    0.00   0.42  25.00
sdc              72.00     0.00  636.00    0.00 77468.00     0.00   243.61     0.49    0.78    0.78    0.00   0.60  38.40
sdd              73.00     0.00  612.00    0.00 76316.00     0.00   249.40     0.55    0.90    0.90    0.00   0.68  41.50
sde              73.00     0.00  593.00    0.00 77400.00     0.00   261.05     0.48    0.81    0.81    0.00   0.63  37.20
sdf              70.00     0.00  575.00    0.00 73160.00     0.00   254.47     0.46    0.80    0.80    0.00   0.62  35.90
sdg               0.00     0.00 1359.00    0.00  5748.00     0.00     8.46     0.16    0.12    0.12    0.00   0.11  15.40
sdh               0.00     0.00    0.00    0.00     0.00     0.00     0.00     0.00    0.00    0.00    0.00   0.00   0.00
md0               0.00     0.00 4011.00    0.00 615448.00     0.00   306.88     0.00    0.00    0.00    0.00   0.00   0.00

avg-cpu:  %user   %nice %system %iowait  %steal   %idle
          24.18    0.00    3.53    9.57    0.00   62.72

Device:         rrqm/s   wrqm/s     r/s     w/s    rkB/s    wkB/s avgrq-sz avgqu-sz   await r_await w_await  svctm  %util
sda              73.00     0.00  651.00    0.00 81256.00     0.00   249.63     0.35    0.53    0.53    0.00   0.43  27.70
sdb              75.00     0.00  556.00    0.00 78104.00     0.00   280.95     0.30    0.55    0.55    0.00   0.44  24.50
sdc              80.00     0.00  566.00    0.00 76784.00     0.00   271.32     0.47    0.83    0.83    0.00   0.65  36.70
sdd              66.00     0.00  597.00    0.00 71416.00     0.00   239.25     0.52    0.87    0.87    0.00   0.66  39.70
sde              73.00     0.00  659.00    0.00 76700.00     0.00   232.78     0.50    0.75    0.75    0.00   0.59  39.20
sdf              77.00     0.00  611.00    0.00 79492.00     0.00   260.20     0.49    0.81    0.81    0.00   0.64  39.20
sdg               0.00   107.00    4.00 2571.00    16.00 12736.00     9.90    15.81    6.14    1.75    6.15   0.05  11.60
sdh               0.00     0.00    0.00    0.00     0.00     0.00     0.00     0.00    0.00    0.00    0.00   0.00   0.00
md0               0.00     0.00 4085.00    0.00 626456.00     0.00   306.71     0.00    0.00    0.00    0.00   0.00   0.00

avg-cpu:  %user   %nice %system %iowait  %steal   %idle
          24.18    0.00    2.77   21.66    0.00   51.39

Device:         rrqm/s   wrqm/s     r/s     w/s    rkB/s    wkB/s avgrq-sz avgqu-sz   await r_await w_await  svctm  %util
sda              96.00     0.00  625.00    0.00 86008.00     0.00   275.23     0.36    0.58    0.58    0.00   0.45  27.90
sdb              92.00     0.00  585.00    0.00 85236.00     0.00   291.41     0.36    0.61    0.61    0.00   0.46  27.20
sdc              92.00     0.00  568.00    0.00 82556.00     0.00   290.69     0.55    0.96    0.96    0.00   0.70  40.00
sdd              87.00     0.00  597.00    0.00 81036.00     0.00   271.48     0.62    1.05    1.05    0.00   0.74  44.30
sde              94.00     0.00  558.00    0.00 80180.00     0.00   287.38     0.54    0.98    0.98    0.00   0.71  39.50
sdf              90.00     0.00  605.00    0.00 85808.00     0.00   283.66     0.58    0.97    0.97    0.00   0.70  42.10
sdg               0.00     0.00    0.00    0.00     0.00     0.00     0.00     0.00    0.00    0.00    0.00   0.00   0.00
sdh               0.00     0.00    0.00    0.00     0.00     0.00     0.00     0.00    0.00    0.00    0.00   0.00   0.00
md0               0.00     0.00 4090.00    0.00 713512.00     0.00   348.91     0.00    0.00    0.00    0.00   0.00   0.00

avg-cpu:  %user   %nice %system %iowait  %steal   %idle
          24.43    0.00    2.77   21.66    0.00   51.13

Device:         rrqm/s   wrqm/s     r/s     w/s    rkB/s    wkB/s avgrq-sz avgqu-sz   await r_await w_await  svctm  %util
sda              98.00     0.00  583.00    0.00 88196.00     0.00   302.56     0.37    0.63    0.63    0.00   0.49  28.40
sdb             101.00     0.00  590.00    0.00 86848.00     0.00   294.40     0.38    0.65    0.65    0.00   0.51  29.90
sdc              96.00     0.00  592.00    0.00 86820.00     0.00   293.31     0.58    0.98    0.98    0.00   0.72  42.40
sdd             104.00     0.00  570.00    0.00 86044.00     0.00   301.91     0.62    1.08    1.08    0.00   0.80  45.50
sde              99.00     0.00  570.00    0.00 85352.00     0.00   299.48     0.56    0.98    0.98    0.00   0.73  41.50
sdf              95.00     0.00  612.00    0.00 84968.00     0.00   277.67     0.56    0.92    0.92    0.00   0.67  41.30
sdg               0.00     0.00    0.00    0.00     0.00     0.00     0.00     0.00    0.00    0.00    0.00   0.00   0.00
sdh               0.00     0.00    0.00    0.00     0.00     0.00     0.00     0.00    0.00    0.00    0.00   0.00   0.00
md0               0.00     0.00 4112.00    0.00 721728.00     0.00   351.04     0.00    0.00    0.00    0.00   0.00   0.00

avg-cpu:  %user   %nice %system %iowait  %steal   %idle
          24.62    0.00    2.51   21.61    0.00   51.26

Device:         rrqm/s   wrqm/s     r/s     w/s    rkB/s    wkB/s avgrq-sz avgqu-sz   await r_await w_await  svctm  %util
sda             101.00     0.00  574.00    0.00 87212.00     0.00   303.87     0.37    0.64    0.64    0.00   0.47  27.10
sdb              99.00     0.00  587.00    0.00 86060.00     0.00   293.22     0.38    0.65    0.65    0.00   0.47  27.40
sdc              97.00     0.00  632.00    0.00 86060.00     0.00   272.34     0.61    0.95    0.95    0.00   0.66  41.80
sdd             101.00     0.00  612.00    0.00 89032.00     0.00   290.95     0.66    1.05    1.05    0.00   0.76  46.30
sde             101.00     0.00  536.00    0.00 84524.00     0.00   315.39     0.58    1.07    1.07    0.00   0.77  41.10
sdf             102.00     0.00  554.00    0.00 84872.00     0.00   306.40     0.59    1.05    1.05    0.00   0.75  41.80
sdg               0.00     0.00    0.00    0.00     0.00     0.00     0.00     0.00    0.00    0.00    0.00   0.00   0.00
sdh               0.00     0.00    0.00    0.00     0.00     0.00     0.00     0.00    0.00    0.00    0.00   0.00   0.00
md0               0.00     0.00 4098.00    0.00 722988.00     0.00   352.85     0.00    0.00    0.00    0.00   0.00   0.00

avg-cpu:  %user   %nice %system %iowait  %steal   %idle
          24.18    0.00    3.27   21.41    0.00   51.13

Device:         rrqm/s   wrqm/s     r/s     w/s    rkB/s    wkB/s avgrq-sz avgqu-sz   await r_await w_await  svctm  %util
sda             110.00     0.00  605.00    0.00 93220.00     0.00   308.17     0.40    0.65    0.65    0.00   0.50  30.20
sdb             106.00     0.00  563.00    0.00 91320.00     0.00   324.40     0.37    0.66    0.66    0.00   0.50  28.30
sdc             108.00     0.00  533.00    0.00 89500.00     0.00   335.83     0.59    1.14    1.14    0.00   0.81  43.40
sdd             103.00     0.00  551.00    0.00 86828.00     0.00   315.17     0.61    1.14    1.14    0.00   0.81  44.80
sde              99.00     0.00  573.00    0.00 87300.00     0.00   304.71     0.56    0.99    0.99    0.00   0.73  41.80
sdf             107.00     0.00  546.00    0.00 91552.00     0.00   335.36     0.58    1.08    1.08    0.00   0.80  43.60
sdg               0.00     0.00    0.00    0.00     0.00     0.00     0.00     0.00    0.00    0.00    0.00   0.00   0.00
sdh               0.00     0.00    0.00    0.00     0.00     0.00     0.00     0.00    0.00    0.00    0.00   0.00   0.00
md0               0.00     0.00 3998.00    0.00 748920.00     0.00   374.65     0.00    0.00    0.00    0.00   0.00   0.00

avg-cpu:  %user   %nice %system %iowait  %steal   %idle
          24.12    0.00    3.27    1.01    0.00   71.61

Device:         rrqm/s   wrqm/s     r/s     w/s    rkB/s    wkB/s avgrq-sz avgqu-sz   await r_await w_await  svctm  %util
sda             106.00     0.00  581.00    0.00 88924.00     0.00   306.11     0.40    0.68    0.68    0.00   0.50  29.30
sdb             102.00     0.00  568.00    0.00 85784.00     0.00   302.06     0.38    0.66    0.66    0.00   0.48  27.40
sdc             103.00     0.00  555.00    0.00 86616.00     0.00   312.13     0.60    1.07    1.07    0.00   0.75  41.60
sdd             109.00     0.00  564.00    0.00 88128.00     0.00   312.51     0.66    1.17    1.17    0.00   0.81  45.90
sde             103.00     0.00  607.00    0.00 88592.00     0.00   291.90     0.63    1.04    1.04    0.00   0.71  43.30
sdf             109.00     0.00  549.00    0.00 90068.00     0.00   328.12     0.62    1.13    1.13    0.00   0.79  43.30
sdg               0.00     1.00    0.00    2.00     0.00    36.00    36.00     0.00    0.00    0.00    0.00   0.00   0.00
sdh               0.00     0.00    0.00    0.00     0.00     0.00     0.00     0.00    0.00    0.00    0.00   0.00   0.00
md0               0.00     0.00 4058.00    0.00 747420.00     0.00   368.37     0.00    0.00    0.00    0.00   0.00   0.00

avg-cpu:  %user   %nice %system %iowait  %steal   %idle
          24.18    0.00    3.27   16.12    0.00   56.42

Device:         rrqm/s   wrqm/s     r/s     w/s    rkB/s    wkB/s avgrq-sz avgqu-sz   await r_await w_await  svctm  %util
sda             117.00     0.00  543.00    0.00 93232.00     0.00   343.40     0.41    0.75    0.75    0.00   0.56  30.30
sdb             118.00     0.00  578.00    0.00 94020.00     0.00   325.33     0.42    0.73    0.73    0.00   0.53  30.80
sdc             120.00     0.00  545.00    0.00 98424.00     0.00   361.19     0.67    1.23    1.23    0.00   0.87  47.60
sdd             122.00     0.00  522.00    0.00 93368.00     0.00   357.73     0.67    1.29    1.29    0.00   0.93  48.30
sde             118.00     0.00  590.00    0.00 93292.00     0.00   316.24     0.65    1.10    1.10    0.00   0.78  46.10
sdf             117.00     0.00  563.00    0.00 92108.00     0.00   327.20     0.65    1.14    1.14    0.00   0.82  45.90
sdg               0.00     0.00   50.00    1.00   896.00     4.00    35.29     0.01    0.24    0.24    0.00   0.24   1.20
sdh               0.00     0.00    0.00    0.00     0.00     0.00     0.00     0.00    0.00    0.00    0.00   0.00   0.00
md0               0.00     0.00 4053.00    0.00 774452.00     0.00   382.16     0.00    0.00    0.00    0.00   0.00   0.00

avg-cpu:  %user   %nice %system %iowait  %steal   %idle
          24.00    0.00    4.25   21.50    0.00   50.25

Device:         rrqm/s   wrqm/s     r/s     w/s    rkB/s    wkB/s avgrq-sz avgqu-sz   await r_await w_await  svctm  %util
sda              96.00     0.00  582.00    0.00 82840.00     0.00   284.67     0.31    0.54    0.54    0.00   0.44  25.50
sdb              94.00     0.00  587.00    0.00 84076.00     0.00   286.46     0.33    0.56    0.56    0.00   0.46  27.00
sdc              91.00     0.00  581.00    0.00 83200.00     0.00   286.40     0.52    0.89    0.89    0.00   0.69  40.00
sdd              85.00     0.00  573.00    0.00 82304.00     0.00   287.27     0.57    0.99    0.99    0.00   0.75  43.20
sde             101.00     0.00  615.00    0.00 89120.00     0.00   289.82     0.53    0.87    0.87    0.00   0.69  42.30
sdf              93.00     0.00  593.00    0.00 87148.00     0.00   293.92     0.53    0.90    0.90    0.00   0.71  42.30
sdg               0.00     0.00    0.00    0.00     0.00     0.00     0.00     0.00    0.00    0.00    0.00   0.00   0.00
sdh               0.00     0.00    0.00    0.00     0.00     0.00     0.00     0.00    0.00    0.00    0.00   0.00   0.00
md0               0.00     0.00 4089.00    0.00 719300.00     0.00   351.82     0.00    0.00    0.00    0.00   0.00   0.00

avg-cpu:  %user   %nice %system %iowait  %steal   %idle
          24.56    0.00    3.29   21.52    0.00   50.63

Device:         rrqm/s   wrqm/s     r/s     w/s    rkB/s    wkB/s avgrq-sz avgqu-sz   await r_await w_await  svctm  %util
sda              82.00     0.00  612.00    0.00 80076.00     0.00   261.69     0.34    0.55    0.55    0.00   0.42  25.90
sdb              83.00     0.00  595.00    0.00 79084.00     0.00   265.83     0.34    0.57    0.57    0.00   0.45  26.50
sdc              82.00     0.00  647.00    0.00 86120.00     0.00   266.21     0.55    0.85    0.85    0.00   0.67  43.10
sdd              86.00     0.00  583.00    0.00 80828.00     0.00   277.28     0.55    0.94    0.94    0.00   0.73  42.70
sde              80.00     0.00  614.00    0.00 81320.00     0.00   264.89     0.52    0.84    0.84    0.00   0.65  40.20
sdf              84.00     0.00  573.00    0.00 78892.00     0.00   275.36     0.50    0.88    0.88    0.00   0.67  38.20
sdg               0.00     0.00    0.00    0.00     0.00     0.00     0.00     0.00    0.00    0.00    0.00   0.00   0.00
sdh               0.00     0.00    0.00    0.00     0.00     0.00     0.00     0.00    0.00    0.00    0.00   0.00   0.00
md0               0.00     0.00 4120.00    0.00 678064.00     0.00   329.16     0.00    0.00    0.00    0.00   0.00   0.00

avg-cpu:  %user   %nice %system %iowait  %steal   %idle
          24.25    0.25    5.00    6.00    0.00   64.50

Device:         rrqm/s   wrqm/s     r/s     w/s    rkB/s    wkB/s avgrq-sz avgqu-sz   await r_await w_await  svctm  %util
sda             105.00     0.00  562.00    0.00 88056.00     0.00   313.37     0.37    0.66    0.66    0.00   0.50  28.20
sdb             102.00     0.00  586.00    0.00 91272.00     0.00   311.51     0.39    0.67    0.67    0.00   0.50  29.30
sdc             109.00     0.00  552.00    0.00 92280.00     0.00   334.35     0.62    1.12    1.12    0.00   0.81  44.60
sdd              98.00     0.00  543.00    0.00 86228.00     0.00   317.60     0.63    1.15    1.15    0.00   0.81  44.10
sde             107.00     0.00  543.00    0.00 87812.00     0.00   323.43     0.58    1.07    1.07    0.00   0.77  41.90
sdf              93.00     0.00  601.00    0.00 89260.00     0.00   297.04     0.62    1.04    1.04    0.00   0.74  44.20
sdg               0.00     0.00 1843.00    6.00  7372.00   140.00     8.13     0.22    0.12    0.12    0.00   0.12  22.10
sdh               0.00     0.00    0.00    0.00     0.00     0.00     0.00     0.00    0.00    0.00    0.00   0.00   0.00
md0               0.00     0.00 4001.00    0.00 761400.00     0.00   380.60     0.00    0.00    0.00    0.00   0.00   0.00

avg-cpu:  %user   %nice %system %iowait  %steal   %idle
          24.31    0.00    4.01    1.00    0.00   70.68

Device:         rrqm/s   wrqm/s     r/s     w/s    rkB/s    wkB/s avgrq-sz avgqu-sz   await r_await w_await  svctm  %util
sda             109.00     0.00  548.00    0.00 88956.00     0.00   324.66     0.40    0.74    0.74    0.00   0.52  28.40
sdb             106.00     0.00  539.00    0.00 85804.00     0.00   318.38     0.41    0.75    0.75    0.00   0.52  27.80
sdc             114.00     0.00  563.00    0.00 87472.00     0.00   310.74     0.65    1.15    1.15    0.00   0.77  43.10
sdd             107.00     0.00  569.00    0.00 88472.00     0.00   310.97     0.69    1.21    1.21    0.00   0.80  45.80
sde             102.00     0.00  557.00    0.00 89336.00     0.00   320.78     0.68    1.22    1.22    0.00   0.81  44.90
sdf             113.00     0.00  495.00    0.00 88128.00     0.00   356.07     0.64    1.29    1.29    0.00   0.83  41.30
sdg               0.00     0.00    0.00    0.00     0.00     0.00     0.00     0.00    0.00    0.00    0.00   0.00   0.00
sdh               0.00     0.00    0.00    0.00     0.00     0.00     0.00     0.00    0.00    0.00    0.00   0.00   0.00
md0               0.00     0.00 3924.00    0.00 737492.00     0.00   375.89     0.00    0.00    0.00    0.00   0.00   0.00

avg-cpu:  %user   %nice %system %iowait  %steal   %idle
          24.24    0.00    3.54    6.57    0.00   65.66

Device:         rrqm/s   wrqm/s     r/s     w/s    rkB/s    wkB/s avgrq-sz avgqu-sz   await r_await w_await  svctm  %util
sda              89.00     0.00  537.00    0.00 82128.00     0.00   305.88     0.35    0.66    0.66    0.00   0.50  26.60
sdb              94.00     0.00  590.00    0.00 83736.00     0.00   283.85     0.35    0.60    0.60    0.00   0.46  27.10
sdc              92.00     0.00  560.00    0.00 81828.00     0.00   292.24     0.54    0.96    0.96    0.00   0.70  39.10
sdd              92.00     0.00  553.00    0.00 82552.00     0.00   298.56     0.59    1.07    1.07    0.00   0.78  43.40
sde              97.00     0.00  550.00    0.00 83292.00     0.00   302.88     0.57    1.03    1.03    0.00   0.74  40.60
sdf              96.00     0.00  558.00    0.00 81892.00     0.00   293.52     0.55    0.98    0.98    0.00   0.70  38.80
sdg               0.00     0.00    0.00    0.00     0.00     0.00     0.00     0.00    0.00    0.00    0.00   0.00   0.00
sdh               0.00     0.00    0.00    0.00     0.00     0.00     0.00     0.00    0.00    0.00    0.00   0.00   0.00
md0               0.00     0.00 3908.00    0.00 671144.00     0.00   343.47     0.00    0.00    0.00    0.00   0.00   0.00

avg-cpu:  %user   %nice %system %iowait  %steal   %idle
          24.18    0.00    3.53   21.66    0.00   50.63

Device:         rrqm/s   wrqm/s     r/s     w/s    rkB/s    wkB/s avgrq-sz avgqu-sz   await r_await w_await  svctm  %util
sda             105.00     0.00  627.00    0.00 90596.00     0.00   288.98     0.38    0.61    0.61    0.00   0.46  28.70
sdb             104.00     0.00  555.00    0.00 87564.00     0.00   315.55     0.38    0.69    0.69    0.00   0.52  28.60
sdc             112.00     0.00  599.00    0.00 93652.00     0.00   312.69     0.65    1.08    1.08    0.00   0.77  46.10
sdd             110.00     0.00  564.00    0.00 90408.00     0.00   320.60     0.66    1.16    1.16    0.00   0.85  47.70
sde             106.00     0.00  557.00    0.00 90780.00     0.00   325.96     0.61    1.09    1.09    0.00   0.80  44.50
sdf             103.00     0.00  561.00    0.00 87060.00     0.00   310.37     0.60    1.07    1.07    0.00   0.75  41.90
sdg               0.00     0.00    0.00    0.00     0.00     0.00     0.00     0.00    0.00    0.00    0.00   0.00   0.00
sdh               0.00     0.00    0.00    0.00     0.00     0.00     0.00     0.00    0.00    0.00    0.00   0.00   0.00
md0               0.00     0.00 4103.00    0.00 753332.00     0.00   367.21     0.00    0.00    0.00    0.00   0.00   0.00

avg-cpu:  %user   %nice %system %iowait  %steal   %idle
          24.24    0.00    3.54   21.72    0.00   50.51

Device:         rrqm/s   wrqm/s     r/s     w/s    rkB/s    wkB/s avgrq-sz avgqu-sz   await r_await w_await  svctm  %util
sda              76.00     0.00  585.00    0.00 76180.00     0.00   260.44     0.33    0.56    0.56    0.00   0.45  26.40
sdb              86.00     0.00  555.00    0.00 75880.00     0.00   273.44     0.33    0.60    0.60    0.00   0.46  25.70
sdc              82.00     0.00  596.00    0.00 81988.00     0.00   275.13     0.53    0.88    0.88    0.00   0.67  40.00
sdd              90.00     0.00  612.00    0.00 83724.00     0.00   273.61     0.59    0.96    0.96    0.00   0.76  46.30
sde              86.00     0.00  555.00    0.00 81616.00     0.00   294.11     0.51    0.91    0.91    0.00   0.71  39.60
sdf              86.00     0.00  619.00    0.00 78308.00     0.00   253.01     0.50    0.81    0.81    0.00   0.63  39.00
sdg               0.00     0.00    0.00    0.00     0.00     0.00     0.00     0.00    0.00    0.00    0.00   0.00   0.00
sdh               0.00     0.00    0.00    0.00     0.00     0.00     0.00     0.00    0.00    0.00    0.00   0.00   0.00
md0               0.00     0.00 4028.00    0.00 669600.00     0.00   332.47     0.00    0.00    0.00    0.00   0.00   0.00

