Linux 4.17.2 (bench) 	08/03/2018 	_x86_64_	(4 CPU)

avg-cpu:  %user   %nice %system %iowait  %steal   %idle
          10.27    0.02    4.08    2.58    0.00   83.05

Device:         rrqm/s   wrqm/s     r/s     w/s    rkB/s    wkB/s avgrq-sz avgqu-sz   await r_await w_await  svctm  %util
sda              46.11     4.24 1659.88  102.42 20976.11  3133.91    27.36     1.04    0.59    0.26    5.92   0.06  10.75
sdb              45.97     4.20 1659.83  102.56 20965.51  3130.58    27.34     1.03    0.59    0.26    5.85   0.06  10.63
sdc              83.92     4.26 1619.78  102.11 20957.61  3133.04    27.98     1.45    0.84    0.45    7.12   0.08  14.09
sdd              77.35     4.23 1625.52  102.18 20942.54  3129.24    27.87     1.46    0.85    0.44    7.33   0.08  14.19
sde              79.38     4.27 1630.59  102.28 21002.29  3133.48    27.86     1.48    0.85    0.44    7.44   0.08  14.21
sdf              76.50     4.24 1632.74  102.22 20983.56  3130.35    27.80     1.53    0.88    0.44    7.90   0.08  14.24
sdg               0.00     3.17   26.33   73.32   324.10   392.06    14.37     0.44    4.42    0.20    5.93   0.08   0.78
sdh               0.00     0.13    0.02    0.23     2.21     5.06    56.82     0.00    1.15    0.65    1.19   0.21   0.01
md0               0.00     0.00 10244.36  479.88 143687.31 21451.23    30.80     0.00    0.00    0.00    0.00   0.00   0.00

avg-cpu:  %user   %nice %system %iowait  %steal   %idle
          23.08    0.02    5.77    3.47    0.00   67.66

Device:         rrqm/s   wrqm/s     r/s     w/s    rkB/s    wkB/s avgrq-sz avgqu-sz   await r_await w_await  svctm  %util
sda               0.00     0.00 2221.25    0.00  8885.00     0.00     8.00     0.14    0.07    0.07    0.00   0.07  14.46
sdb               0.00     0.00 2232.15    0.00  8928.60     0.00     8.00     0.15    0.07    0.07    0.00   0.07  14.78
sdc               0.00     0.00 2232.55    0.00  8930.20     0.00     8.00     0.15    0.07    0.07    0.00   0.07  15.38
sdd               0.00     0.00 2167.15    0.00  8668.60     0.00     8.00     0.15    0.07    0.07    0.00   0.07  15.20
sde               0.00     0.00 2221.60    0.00  8886.40     0.00     8.00     0.15    0.07    0.07    0.00   0.07  15.45
sdf               0.00     0.00 2208.15    0.00  8832.60     0.00     8.00     0.16    0.07    0.07    0.00   0.07  15.51
sdg               0.00     0.00    2.10   20.65    16.20   116.00    11.62     0.08    3.41    0.67    3.69   0.07   0.17
sdh               0.00     0.00    0.00    0.00     0.00     0.00     0.00     0.00    0.00    0.00    0.00   0.00   0.00
md0               0.00     0.00 13282.95    0.00 53131.80     0.00     8.00     0.00    0.00    0.00    0.00   0.00   0.00

