Linux 4.17.2 (bench) 	08/03/2018 	_x86_64_	(4 CPU)

avg-cpu:  %user   %nice %system %iowait  %steal   %idle
          10.28    0.02    4.08    2.59    0.00   83.04

Device:         rrqm/s   wrqm/s     r/s     w/s    rkB/s    wkB/s avgrq-sz avgqu-sz   await r_await w_await  svctm  %util
sda              46.44     4.24 1663.38  102.37 20983.67  3132.20    27.32     1.04    0.59    0.26    5.92   0.06  10.77
sdb              46.29     4.20 1663.33  102.50 20973.07  3128.87    27.30     1.03    0.59    0.26    5.85   0.06  10.65
sdc              84.23     4.26 1623.30  102.05 20965.17  3131.33    27.93     1.45    0.84    0.45    7.12   0.08  14.11
sdd              77.66     4.23 1629.03  102.12 20950.11  3127.53    27.82     1.46    0.84    0.44    7.33   0.08  14.20
sde              79.69     4.27 1634.10  102.22 21009.85  3131.77    27.81     1.48    0.85    0.44    7.44   0.08  14.22
sdf              76.80     4.24 1636.25  102.17 20991.10  3128.64    27.75     1.53    0.88    0.44    7.90   0.08  14.25
sdg               0.00     3.17   26.35   73.31   324.14   392.04    14.37     0.44    4.42    0.20    5.93   0.08   0.78
sdh               0.00     0.13    0.02    0.23     2.21     5.05    56.82     0.00    1.15    0.65    1.19   0.21   0.01
md0               0.00     0.00 10267.31  479.62 143722.88 21439.49    30.74     0.00    0.00    0.00    0.00   0.00   0.00

avg-cpu:  %user   %nice %system %iowait  %steal   %idle
          23.90    0.01    2.78    1.26    0.00   72.05

Device:         rrqm/s   wrqm/s     r/s     w/s    rkB/s    wkB/s avgrq-sz avgqu-sz   await r_await w_await  svctm  %util
sda               0.00     0.00 1479.35    0.00  5917.40     0.00     8.00     0.15    0.10    0.10    0.00   0.10  14.88
sdb               0.00     0.00 1493.60    0.00  5974.40     0.00     8.00     0.15    0.10    0.10    0.00   0.10  14.78
sdc               0.00     0.00 1486.25    0.00  5945.00     0.00     8.00     0.16    0.11    0.11    0.00   0.11  15.68
sdd               0.00     0.00 1482.20    0.00  5928.80     0.00     8.00     0.16    0.11    0.11    0.00   0.11  15.88
sde               0.00     0.00 1480.50    0.00  5922.00     0.00     8.00     0.16    0.11    0.11    0.00   0.11  15.62
sdf               0.00     0.00 1504.15    0.00  6016.60     0.00     8.00     0.16    0.10    0.10    0.00   0.10  15.74
sdg               0.00     0.00  135.50  187.55   559.40   902.00     9.05     1.16    3.59    0.12    6.09   0.07   2.37
sdh               0.00     0.00    0.00    0.00     0.00     0.00     0.00     0.00    0.00    0.00    0.00   0.00   0.00
md0               0.00     0.00 8926.20    0.00 35704.80     0.00     8.00     0.00    0.00    0.00    0.00   0.00   0.00

