Linux 4.17.2 (bench) 	08/03/2018 	_x86_64_	(4 CPU)

avg-cpu:  %user   %nice %system %iowait  %steal   %idle
          10.26    0.02    4.17    2.73    0.00   82.83

Device:         rrqm/s   wrqm/s     r/s     w/s    rkB/s    wkB/s avgrq-sz avgqu-sz   await r_await w_await  svctm  %util
sda              53.46     4.19 1722.49  101.21 21324.27  3096.81    26.78     1.05    0.57    0.26    5.92   0.06  11.02
sdb              53.26     4.15 1722.49  101.34 21313.81  3093.52    26.76     1.05    0.57    0.26    5.85   0.06  10.90
sdc              91.04     4.21 1682.62  100.90 21305.97  3095.95    27.36     1.47    0.82    0.44    7.12   0.08  14.39
sdd              84.56     4.18 1688.27  100.97 21290.96  3092.20    27.26     1.47    0.82    0.43    7.33   0.08  14.49
sde              86.56     4.22 1693.36  101.07 21350.37  3096.39    27.25     1.49    0.83    0.44    7.44   0.08  14.51
sdf              83.71     4.19 1695.47  101.01 21331.81  3093.29    27.19     1.54    0.86    0.44    7.90   0.08  14.54
sdg               0.00     3.17   26.78   73.26   325.85   392.00    14.35     0.44    4.40    0.20    5.93   0.08   0.78
sdh               0.00     0.13    0.02    0.23     2.18     5.00    56.82     0.00    1.15    0.65    1.19   0.21   0.01
md0               0.00     0.00 10664.69  474.20 146137.12 21197.29    30.05     0.00    0.00    0.00    0.00   0.00   0.00

avg-cpu:  %user   %nice %system %iowait  %steal   %idle
          24.32    0.02    4.36   17.64    0.00   53.66

Device:         rrqm/s   wrqm/s     r/s     w/s    rkB/s    wkB/s avgrq-sz avgqu-sz   await r_await w_await  svctm  %util
sda               0.00     0.00 1460.40    0.00  5841.60     0.00     8.00     0.14    0.10    0.10    0.00   0.10  14.25
sdb               0.00     0.00 1482.15    0.00  5929.00     0.00     8.00     0.14    0.09    0.09    0.00   0.09  13.95
sdc               0.00     0.00 1464.55    0.00  5858.60     0.00     8.00     0.15    0.10    0.10    0.00   0.10  14.93
sdd               0.00     0.00 1469.05    0.00  5876.20     0.00     8.00     0.15    0.11    0.11    0.00   0.11  15.45
sde               0.00     0.00 1483.45    0.00  5934.20     0.00     8.00     0.15    0.10    0.10    0.00   0.10  15.40
sdf               0.00     0.00 1479.15    0.00  5916.60     0.00     8.00     0.17    0.11    0.11    0.00   0.11  16.79
sdg               0.00     7.60   67.40  113.55   274.60   575.40     9.39     0.68    3.75    0.12    5.91   0.07   1.27
sdh               0.00     0.00    0.00    0.00     0.00     0.00     0.00     0.00    0.00    0.00    0.00   0.00   0.00
md0               0.00     0.00 8838.80    0.00 35356.40     0.00     8.00     0.00    0.00    0.00    0.00   0.00   0.00

