Linux 4.17.2 (bench) 	08/03/2018 	_x86_64_	(4 CPU)

avg-cpu:  %user   %nice %system %iowait  %steal   %idle
          10.26    0.02    4.16    2.69    0.00   82.88

Device:         rrqm/s   wrqm/s     r/s     w/s    rkB/s    wkB/s avgrq-sz avgqu-sz   await r_await w_await  svctm  %util
sda              51.64     4.20 1712.87  101.45 21293.86  3104.09    26.89     1.05    0.58    0.26    5.92   0.06  10.98
sdb              51.45     4.16 1712.85  101.58 21283.36  3100.79    26.88     1.05    0.58    0.26    5.85   0.06  10.85
sdc              89.28     4.22 1672.93  101.14 21275.53  3103.23    27.48     1.47    0.83    0.45    7.12   0.08  14.35
sdd              82.78     4.19 1678.61  101.21 21260.53  3099.46    27.37     1.47    0.83    0.44    7.33   0.08  14.44
sde              84.79     4.23 1683.69  101.30 21319.99  3103.67    27.37     1.49    0.84    0.44    7.44   0.08  14.46
sdf              81.93     4.20 1685.81  101.25 21301.39  3100.56    27.31     1.54    0.86    0.44    7.90   0.08  14.49
sdg               0.00     3.17   26.71   73.28   325.60   392.05    14.35     0.44    4.40    0.20    5.93   0.08   0.78
sdh               0.00     0.13    0.02    0.23     2.19     5.01    56.82     0.00    1.15    0.65    1.19   0.21   0.01
md0               0.00     0.00 10595.99  475.31 145948.37 21247.11    30.20     0.00    0.00    0.00    0.00   0.00   0.00

avg-cpu:  %user   %nice %system %iowait  %steal   %idle
          18.32    0.00   15.27    4.33    0.00   62.09

Device:         rrqm/s   wrqm/s     r/s     w/s    rkB/s    wkB/s avgrq-sz avgqu-sz   await r_await w_await  svctm  %util
sda             263.00     0.00  318.00    0.00 140340.00     0.00   882.64     0.69    2.17    2.17    0.00   1.26  40.00
sdb             257.00     0.00  324.00    0.00 139988.00     0.00   864.12     0.70    2.17    2.17    0.00   1.24  40.20
sdc             257.00     0.00  326.00    0.00 139200.00     0.00   853.99     1.28    3.89    3.89    0.00   2.03  66.10
sdd             259.00     0.00  319.00    0.00 139052.00     0.00   871.80     1.32    4.12    4.12    0.00   2.08  66.20
sde             257.00     0.00  354.00    0.00 139808.00     0.00   789.88     1.34    3.75    3.75    0.00   1.90  67.20
sdf             260.00     0.00  317.00    0.00 140080.00     0.00   883.79     1.30    4.07    4.07    0.00   2.11  66.90
sdg               0.00    18.00   22.00   69.00   352.00  1264.00    35.52     0.21    2.33    0.18    3.01   0.11   1.00
sdh               0.00     0.00    0.00    0.00     0.00     0.00     0.00     0.00    0.00    0.00    0.00   0.00   0.00
md0               0.00     0.00 3519.00    0.00 1278748.00     0.00   726.77     0.00    0.00    0.00    0.00   0.00   0.00

avg-cpu:  %user   %nice %system %iowait  %steal   %idle
          18.32    0.00   15.27    4.33    0.00   62.09

Device:         rrqm/s   wrqm/s     r/s     w/s    rkB/s    wkB/s avgrq-sz avgqu-sz   await r_await w_await  svctm  %util
sda             255.00     0.00  316.00    0.00 138188.00     0.00   874.61     0.72    2.29    2.29    0.00   1.23  38.90
sdb             260.00     0.00  307.00    0.00 138476.00     0.00   902.12     0.76    2.49    2.49    0.00   1.31  40.30
sdc             258.00     0.00  332.00    0.00 139844.00     0.00   842.43     1.36    4.14    4.14    0.00   1.99  66.20
sdd             259.00     0.00  310.00    0.00 139372.00     0.00   899.17     1.34    4.37    4.37    0.00   2.13  66.10
sde             259.00     0.00  319.00    0.00 139520.00     0.00   874.73     1.35    4.28    4.28    0.00   2.08  66.30
sdf             259.00     0.00  336.00    0.00 139484.00     0.00   830.26     1.38    4.14    4.14    0.00   1.96  66.00
sdg               0.00     0.00    0.00    0.00     0.00     0.00     0.00     0.00    0.00    0.00    0.00   0.00   0.00
sdh               0.00     0.00    0.00    0.00     0.00     0.00     0.00     0.00    0.00    0.00    0.00   0.00   0.00
md0               0.00     0.00 3462.00    0.00 1233876.00     0.00   712.81     0.00    0.00    0.00    0.00   0.00   0.00

