Linux 4.17.2 (bench) 	08/03/2018 	_x86_64_	(4 CPU)

avg-cpu:  %user   %nice %system %iowait  %steal   %idle
          10.27    0.02    4.07    2.57    0.00   83.07

Device:         rrqm/s   wrqm/s     r/s     w/s    rkB/s    wkB/s avgrq-sz avgqu-sz   await r_await w_await  svctm  %util
sda              45.92     4.24 1657.78  102.48 20975.55  3135.83    27.40     1.04    0.59    0.26    5.92   0.06  10.74
sdb              45.77     4.20 1657.72  102.62 20964.93  3132.49    27.38     1.03    0.59    0.26    5.85   0.06  10.62
sdc              83.75     4.26 1617.64  102.17 20957.01  3134.95    28.02     1.45    0.85    0.45    7.12   0.08  14.08
sdd              77.17     4.23 1623.38  102.24 20941.93  3131.15    27.90     1.46    0.85    0.44    7.33   0.08  14.18
sde              79.20     4.27 1628.46  102.34 21001.72  3135.40    27.89     1.48    0.86    0.44    7.44   0.08  14.20
sdf              76.32     4.25 1630.61  102.28 20982.99  3132.26    27.83     1.53    0.88    0.44    7.90   0.08  14.23
sdg               0.00     3.17   26.32   73.33   324.06   392.08    14.37     0.44    4.42    0.20    5.93   0.08   0.78
sdh               0.00     0.13    0.02    0.23     2.21     5.06    56.82     0.00    1.15    0.65    1.19   0.21   0.01
md0               0.00     0.00 10230.54  480.17 143694.71 21464.32    30.84     0.00    0.00    0.00    0.00   0.00   0.00

avg-cpu:  %user   %nice %system %iowait  %steal   %idle
          22.67    0.00    3.78    1.01    0.00   72.54

Device:         rrqm/s   wrqm/s     r/s     w/s    rkB/s    wkB/s avgrq-sz avgqu-sz   await r_await w_await  svctm  %util
sda               0.00     0.00 2395.00    0.00  9580.00     0.00     8.00     0.15    0.06    0.06    0.00   0.06  15.00
sdb               0.00     0.00 2277.00    0.00  9108.00     0.00     8.00     0.14    0.06    0.06    0.00   0.06  13.50
sdc               0.00     0.00 1980.00    0.00  7920.00     0.00     8.00     0.14    0.07    0.07    0.00   0.07  13.90
sdd               0.00     0.00 2250.00    0.00  9000.00     0.00     8.00     0.16    0.07    0.07    0.00   0.07  16.10
sde               0.00     0.00 2350.00    0.00  9400.00     0.00     8.00     0.17    0.07    0.07    0.00   0.07  16.90
sdf               0.00     0.00 2118.00    0.00  8472.00     0.00     8.00     0.15    0.07    0.07    0.00   0.07  15.20
sdg               0.00     0.00    7.00   63.00   100.00  1200.00    37.14     0.18    2.63    1.57    2.75   0.19   1.30
sdh               0.00     0.00    0.00    0.00     0.00     0.00     0.00     0.00    0.00    0.00    0.00   0.00   0.00
md0               0.00     0.00 13372.00    0.00 53488.00     0.00     8.00     0.00    0.00    0.00    0.00   0.00   0.00

avg-cpu:  %user   %nice %system %iowait  %steal   %idle
          24.06    0.25    4.51    8.02    0.00   63.16

Device:         rrqm/s   wrqm/s     r/s     w/s    rkB/s    wkB/s avgrq-sz avgqu-sz   await r_await w_await  svctm  %util
sda               0.00     0.00 2255.00    0.00  9020.00     0.00     8.00     0.14    0.06    0.06    0.00   0.06  13.80
sdb               0.00     0.00 2244.00    0.00  8976.00     0.00     8.00     0.14    0.06    0.06    0.00   0.06  13.90
sdc               0.00     0.00 2151.00    0.00  8604.00     0.00     8.00     0.16    0.07    0.07    0.00   0.07  15.80
sdd               0.00     0.00 2538.00    0.00 10152.00     0.00     8.00     0.16    0.06    0.06    0.00   0.06  16.00
sde               0.00     0.00 2193.00    0.00  8772.00     0.00     8.00     0.15    0.07    0.07    0.00   0.07  14.80
sdf               0.00     0.00 2313.00    0.00  9252.00     0.00     8.00     0.16    0.07    0.07    0.00   0.07  16.20
sdg               0.00     0.00 1338.00    0.00  5400.00     0.00     8.07     0.15    0.11    0.11    0.00   0.11  15.10
sdh               0.00     0.00    0.00    0.00     0.00     0.00     0.00     0.00    0.00    0.00    0.00   0.00   0.00
md0               0.00     0.00 13696.00    0.00 54784.00     0.00     8.00     0.00    0.00    0.00    0.00   0.00   0.00

avg-cpu:  %user   %nice %system %iowait  %steal   %idle
          24.94    0.00    2.54    6.11    0.00   66.41

Device:         rrqm/s   wrqm/s     r/s     w/s    rkB/s    wkB/s avgrq-sz avgqu-sz   await r_await w_await  svctm  %util
sda               0.00     0.00 2110.00    0.00  8440.00     0.00     8.00     0.14    0.07    0.07    0.00   0.07  14.10
sdb               0.00     0.00 2507.00    0.00 10028.00     0.00     8.00     0.14    0.06    0.06    0.00   0.06  14.10
sdc               0.00     0.00 2250.00    0.00  9000.00     0.00     8.00     0.15    0.07    0.07    0.00   0.07  15.20
sdd               0.00     0.00 2335.00    0.00  9340.00     0.00     8.00     0.16    0.07    0.07    0.00   0.07  16.10
sde               0.00     0.00 2330.00    0.00  9320.00     0.00     8.00     0.16    0.07    0.07    0.00   0.07  15.80
sdf               0.00     0.00 2167.00    0.00  8668.00     0.00     8.00     0.15    0.07    0.07    0.00   0.07  14.90
sdg               0.00     0.00    0.00    0.00     0.00     0.00     0.00     0.00    0.00    0.00    0.00   0.00   0.00
sdh               0.00     0.00    0.00    0.00     0.00     0.00     0.00     0.00    0.00    0.00    0.00   0.00   0.00
md0               0.00     0.00 13697.00    0.00 54788.00     0.00     8.00     0.00    0.00    0.00    0.00   0.00   0.00

avg-cpu:  %user   %nice %system %iowait  %steal   %idle
          24.62    0.00    3.52   21.11    0.00   50.75

Device:         rrqm/s   wrqm/s     r/s     w/s    rkB/s    wkB/s avgrq-sz avgqu-sz   await r_await w_await  svctm  %util
sda               0.00     0.00 2227.00    0.00  8908.00     0.00     8.00     0.14    0.06    0.06    0.00   0.06  14.20
sdb               0.00     0.00 2300.00    0.00  9200.00     0.00     8.00     0.15    0.06    0.06    0.00   0.06  14.80
sdc               0.00     0.00 2339.00    0.00  9356.00     0.00     8.00     0.16    0.07    0.07    0.00   0.07  16.00
sdd               0.00     0.00 2465.00    0.00  9860.00     0.00     8.00     0.16    0.07    0.07    0.00   0.07  16.40
sde               0.00     0.00 2074.00    0.00  8296.00     0.00     8.00     0.15    0.07    0.07    0.00   0.07  15.20
sdf               0.00     0.00 2086.00    0.00  8344.00     0.00     8.00     0.15    0.07    0.07    0.00   0.07  14.60
sdg               0.00     0.00    0.00    0.00     0.00     0.00     0.00     0.00    0.00    0.00    0.00   0.00   0.00
sdh               0.00     0.00    0.00    0.00     0.00     0.00     0.00     0.00    0.00    0.00    0.00   0.00   0.00
md0               0.00     0.00 13491.00    0.00 53964.00     0.00     8.00     0.00    0.00    0.00    0.00   0.00   0.00

avg-cpu:  %user   %nice %system %iowait  %steal   %idle
          25.19    0.00    3.27   19.90    0.00   51.64

Device:         rrqm/s   wrqm/s     r/s     w/s    rkB/s    wkB/s avgrq-sz avgqu-sz   await r_await w_await  svctm  %util
sda               0.00     0.00 2441.00    0.00  9764.00     0.00     8.00     0.15    0.06    0.06    0.00   0.06  15.20
sdb               0.00     0.00 1761.00    0.00  7044.00     0.00     8.00     0.12    0.07    0.07    0.00   0.07  11.90
sdc               0.00     0.00 2455.00    0.00  9820.00     0.00     8.00     0.16    0.06    0.06    0.00   0.06  15.80
sdd               0.00     0.00 2493.00    0.00  9972.00     0.00     8.00     0.17    0.07    0.07    0.00   0.07  16.90
sde               0.00     0.00 2032.00    0.00  8128.00     0.00     8.00     0.15    0.07    0.07    0.00   0.07  14.60
sdf               0.00     0.00 2389.00    0.00  9556.00     0.00     8.00     0.16    0.07    0.07    0.00   0.07  16.10
sdg               0.00     0.00    0.00    0.00     0.00     0.00     0.00     0.00    0.00    0.00    0.00   0.00   0.00
sdh               0.00     0.00    0.00    0.00     0.00     0.00     0.00     0.00    0.00    0.00    0.00   0.00   0.00
md0               0.00     0.00 13571.00    0.00 54284.00     0.00     8.00     0.00    0.00    0.00    0.00   0.00   0.00

avg-cpu:  %user   %nice %system %iowait  %steal   %idle
          24.68    0.00    2.54    2.54    0.00   70.23

Device:         rrqm/s   wrqm/s     r/s     w/s    rkB/s    wkB/s avgrq-sz avgqu-sz   await r_await w_await  svctm  %util
sda               0.00     0.00 2491.00    0.00  9964.00     0.00     8.00     0.15    0.06    0.06    0.00   0.06  14.70
sdb               0.00     0.00 2113.00    0.00  8452.00     0.00     8.00     0.14    0.07    0.07    0.00   0.07  13.80
sdc               0.00     0.00 2318.00    0.00  9272.00     0.00     8.00     0.15    0.07    0.07    0.00   0.06  14.90
sdd               0.00     0.00 2311.00    0.00  9244.00     0.00     8.00     0.16    0.07    0.07    0.00   0.07  16.40
sde               0.00     0.00 2155.00    0.00  8620.00     0.00     8.00     0.15    0.07    0.07    0.00   0.07  15.00
sdf               0.00     0.00 2210.00    0.00  8840.00     0.00     8.00     0.16    0.07    0.07    0.00   0.07  16.00
sdg               0.00     0.00    0.00    0.00     0.00     0.00     0.00     0.00    0.00    0.00    0.00   0.00   0.00
sdh               0.00     0.00    0.00    0.00     0.00     0.00     0.00     0.00    0.00    0.00    0.00   0.00   0.00
md0               0.00     0.00 13598.00    0.00 54392.00     0.00     8.00     0.00    0.00    0.00    0.00   0.00   0.00

avg-cpu:  %user   %nice %system %iowait  %steal   %idle
          25.06    0.00    3.80   22.28    0.00   48.86

Device:         rrqm/s   wrqm/s     r/s     w/s    rkB/s    wkB/s avgrq-sz avgqu-sz   await r_await w_await  svctm  %util
sda               0.00     0.00 2253.00    0.00  9012.00     0.00     8.00     0.13    0.06    0.06    0.00   0.06  13.00
sdb               0.00     0.00 2257.00    0.00  9028.00     0.00     8.00     0.14    0.06    0.06    0.00   0.06  14.50
sdc               0.00     0.00 2232.00    0.00  8928.00     0.00     8.00     0.15    0.07    0.07    0.00   0.07  15.30
sdd               0.00     0.00 2193.00    0.00  8772.00     0.00     8.00     0.16    0.07    0.07    0.00   0.07  16.10
sde               0.00     0.00 2095.00    0.00  8380.00     0.00     8.00     0.14    0.07    0.07    0.00   0.07  14.50
sdf               0.00     0.00 2397.00    0.00  9588.00     0.00     8.00     0.17    0.07    0.07    0.00   0.07  17.50
sdg               0.00   204.00    9.00 3688.00    36.00 17964.00     9.74    23.05    6.24    1.44    6.25   0.05  17.00
sdh               0.00     0.00    0.00    0.00     0.00     0.00     0.00     0.00    0.00    0.00    0.00   0.00   0.00
md0               0.00     0.00 13426.00    0.00 53704.00     0.00     8.00     0.00    0.00    0.00    0.00   0.00   0.00

avg-cpu:  %user   %nice %system %iowait  %steal   %idle
          24.87    0.00    2.79    5.08    0.00   67.26

Device:         rrqm/s   wrqm/s     r/s     w/s    rkB/s    wkB/s avgrq-sz avgqu-sz   await r_await w_await  svctm  %util
sda               0.00     0.00 2360.00    0.00  9440.00     0.00     8.00     0.16    0.07    0.07    0.00   0.07  15.70
sdb               0.00     0.00 1981.00    0.00  7924.00     0.00     8.00     0.14    0.07    0.07    0.00   0.07  13.60
sdc               0.00     0.00 2256.00    0.00  9024.00     0.00     8.00     0.15    0.07    0.07    0.00   0.07  15.30
sdd               0.00     0.00 2377.00    0.00  9508.00     0.00     8.00     0.14    0.06    0.06    0.00   0.06  14.20
sde               0.00     0.00 2404.00    0.00  9616.00     0.00     8.00     0.16    0.07    0.07    0.00   0.07  15.90
sdf               0.00     0.00 2345.00    0.00  9380.00     0.00     8.00     0.15    0.07    0.07    0.00   0.06  15.20
sdg               0.00     0.00    0.00    0.00     0.00     0.00     0.00     0.00    0.00    0.00    0.00   0.00   0.00
sdh               0.00     0.00    0.00    0.00     0.00     0.00     0.00     0.00    0.00    0.00    0.00   0.00   0.00
md0               0.00     0.00 13724.00    0.00 54896.00     0.00     8.00     0.00    0.00    0.00    0.00   0.00   0.00

avg-cpu:  %user   %nice %system %iowait  %steal   %idle
          24.94    0.00    2.54   11.45    0.00   61.07

Device:         rrqm/s   wrqm/s     r/s     w/s    rkB/s    wkB/s avgrq-sz avgqu-sz   await r_await w_await  svctm  %util
sda               0.00     0.00 2168.00    0.00  8672.00     0.00     8.00     0.14    0.06    0.06    0.00   0.06  13.90
sdb               0.00     0.00 2284.00    0.00  9136.00     0.00     8.00     0.14    0.06    0.06    0.00   0.06  14.50
sdc               0.00     0.00 2445.00    0.00  9780.00     0.00     8.00     0.17    0.07    0.07    0.00   0.07  16.80
sdd               0.00     0.00 2098.00    0.00  8392.00     0.00     8.00     0.15    0.07    0.07    0.00   0.07  15.30
sde               0.00     0.00 2384.00    0.00  9536.00     0.00     8.00     0.17    0.07    0.07    0.00   0.07  16.60
sdf               0.00     0.00 2030.00    0.00  8120.00     0.00     8.00     0.14    0.07    0.07    0.00   0.07  14.00
sdg               0.00     0.00    0.00    0.00     0.00     0.00     0.00     0.00    0.00    0.00    0.00   0.00   0.00
sdh               0.00     0.00    0.00    0.00     0.00     0.00     0.00     0.00    0.00    0.00    0.00   0.00   0.00
md0               0.00     0.00 13409.00    0.00 53636.00     0.00     8.00     0.00    0.00    0.00    0.00   0.00   0.00

avg-cpu:  %user   %nice %system %iowait  %steal   %idle
          24.94    0.00    3.27   20.65    0.00   51.13

Device:         rrqm/s   wrqm/s     r/s     w/s    rkB/s    wkB/s avgrq-sz avgqu-sz   await r_await w_await  svctm  %util
sda               0.00     0.00 2123.00    0.00  8492.00     0.00     8.00     0.15    0.07    0.07    0.00   0.07  14.70
sdb               0.00     0.00 2316.00    0.00  9264.00     0.00     8.00     0.15    0.06    0.06    0.00   0.06  14.60
sdc               0.00     0.00 2524.00    0.00 10096.00     0.00     8.00     0.17    0.07    0.07    0.00   0.07  17.50
sdd               0.00     0.00 2229.00    0.00  8916.00     0.00     8.00     0.15    0.07    0.07    0.00   0.07  15.50
sde               0.00     0.00 1975.00    0.00  7900.00     0.00     8.00     0.14    0.07    0.07    0.00   0.07  13.90
sdf               0.00     0.00 2299.00    0.00  9196.00     0.00     8.00     0.15    0.07    0.07    0.00   0.07  15.10
sdg               0.00     0.00    0.00    0.00     0.00     0.00     0.00     0.00    0.00    0.00    0.00   0.00   0.00
sdh               0.00     0.00    0.00    0.00     0.00     0.00     0.00     0.00    0.00    0.00    0.00   0.00   0.00
md0               0.00     0.00 13466.00    0.00 53864.00     0.00     8.00     0.00    0.00    0.00    0.00   0.00   0.00

avg-cpu:  %user   %nice %system %iowait  %steal   %idle
          24.94    0.00    2.54    5.34    0.00   67.18

Device:         rrqm/s   wrqm/s     r/s     w/s    rkB/s    wkB/s avgrq-sz avgqu-sz   await r_await w_await  svctm  %util
sda               0.00     0.00 2219.00    0.00  8876.00     0.00     8.00     0.14    0.06    0.06    0.00   0.06  14.30
sdb               0.00     0.00 2334.00    0.00  9336.00     0.00     8.00     0.14    0.06    0.06    0.00   0.06  14.00
sdc               0.00     0.00 2300.00    0.00  9200.00     0.00     8.00     0.17    0.07    0.07    0.00   0.07  16.70
sdd               0.00     0.00 2266.00    0.00  9064.00     0.00     8.00     0.14    0.06    0.06    0.00   0.06  14.00
sde               0.00     0.00 2547.00    0.00 10188.00     0.00     8.00     0.17    0.07    0.07    0.00   0.07  17.50
sdf               0.00     0.00 2299.00    0.00  9196.00     0.00     8.00     0.15    0.06    0.06    0.00   0.06  14.70
sdg               0.00     0.00    0.00    0.00     0.00     0.00     0.00     0.00    0.00    0.00    0.00   0.00   0.00
sdh               0.00     0.00    0.00    0.00     0.00     0.00     0.00     0.00    0.00    0.00    0.00   0.00   0.00
md0               0.00     0.00 13965.00    0.00 55860.00     0.00     8.00     0.00    0.00    0.00    0.00   0.00   0.00

avg-cpu:  %user   %nice %system %iowait  %steal   %idle
          24.31    0.25    4.51   20.80    0.00   50.13

Device:         rrqm/s   wrqm/s     r/s     w/s    rkB/s    wkB/s avgrq-sz avgqu-sz   await r_await w_await  svctm  %util
sda               0.00     0.00 2234.00    0.00  8936.00     0.00     8.00     0.15    0.07    0.07    0.00   0.07  15.30
sdb               0.00     0.00 2260.00    0.00  9040.00     0.00     8.00     0.14    0.06    0.06    0.00   0.06  13.60
sdc               0.00     0.00 2291.00    0.00  9164.00     0.00     8.00     0.15    0.07    0.07    0.00   0.07  15.00
sdd               0.00     0.00 2293.00    0.00  9172.00     0.00     8.00     0.15    0.07    0.07    0.00   0.07  15.10
sde               0.00     0.00 2257.00    0.00  9028.00     0.00     8.00     0.16    0.07    0.07    0.00   0.07  16.30
sdf               0.00     0.00 2205.00    0.00  8820.00     0.00     8.00     0.15    0.07    0.07    0.00   0.07  15.20
sdg               0.00     1.00    1.00   16.00    16.00   208.00    26.35     0.01    0.88    0.00    0.94   0.06   0.10
sdh               0.00     0.00    0.00    0.00     0.00     0.00     0.00     0.00    0.00    0.00    0.00   0.00   0.00
md0               0.00     0.00 13541.00    0.00 54164.00     0.00     8.00     0.00    0.00    0.00    0.00   0.00   0.00

avg-cpu:  %user   %nice %system %iowait  %steal   %idle
          24.43    0.00    3.05    1.02    0.00   71.50

Device:         rrqm/s   wrqm/s     r/s     w/s    rkB/s    wkB/s avgrq-sz avgqu-sz   await r_await w_await  svctm  %util
sda               0.00     0.00 2210.00    0.00  8840.00     0.00     8.00     0.16    0.07    0.07    0.00   0.07  15.90
sdb               0.00     0.00 2244.00    0.00  8976.00     0.00     8.00     0.14    0.06    0.06    0.00   0.06  14.40
sdc               0.00     0.00 2232.00    0.00  8928.00     0.00     8.00     0.15    0.07    0.07    0.00   0.07  15.50
sdd               0.00     0.00 2137.00    0.00  8548.00     0.00     8.00     0.14    0.07    0.07    0.00   0.07  14.40
sde               0.00     0.00 2512.00    0.00 10048.00     0.00     8.00     0.16    0.06    0.06    0.00   0.06  15.80
sdf               0.00     0.00 2237.00    0.00  8948.00     0.00     8.00     0.15    0.07    0.07    0.00   0.07  14.80
sdg               0.00     1.00    8.00    4.00    32.00    44.00    12.67     0.00    0.08    0.12    0.00   0.08   0.10
sdh               0.00     0.00    0.00    0.00     0.00     0.00     0.00     0.00    0.00    0.00    0.00   0.00   0.00
md0               0.00     0.00 13571.00    0.00 54284.00     0.00     8.00     0.00    0.00    0.00    0.00   0.00   0.00

avg-cpu:  %user   %nice %system %iowait  %steal   %idle
          24.87    0.00    2.54    0.76    0.00   71.83

Device:         rrqm/s   wrqm/s     r/s     w/s    rkB/s    wkB/s avgrq-sz avgqu-sz   await r_await w_await  svctm  %util
sda               0.00     0.00 2363.00    0.00  9452.00     0.00     8.00     0.15    0.06    0.06    0.00   0.06  14.70
sdb               0.00     0.00 2193.00    0.00  8772.00     0.00     8.00     0.15    0.07    0.07    0.00   0.07  15.10
sdc               0.00     0.00 1887.00    0.00  7548.00     0.00     8.00     0.14    0.07    0.07    0.00   0.07  13.70
sdd               0.00     0.00 2084.00    0.00  8336.00     0.00     8.00     0.14    0.07    0.07    0.00   0.07  13.90
sde               0.00     0.00 2494.00    0.00  9976.00     0.00     8.00     0.17    0.07    0.07    0.00   0.07  17.00
sdf               0.00     0.00 2469.00    0.00  9876.00     0.00     8.00     0.16    0.07    0.07    0.00   0.07  16.30
sdg               0.00     0.00    0.00    0.00     0.00     0.00     0.00     0.00    0.00    0.00    0.00   0.00   0.00
sdh               0.00     0.00    0.00    0.00     0.00     0.00     0.00     0.00    0.00    0.00    0.00   0.00   0.00
md0               0.00     0.00 13490.00    0.00 53960.00     0.00     8.00     0.00    0.00    0.00    0.00   0.00   0.00

avg-cpu:  %user   %nice %system %iowait  %steal   %idle
          24.87    0.00    2.54    0.76    0.00   71.83

Device:         rrqm/s   wrqm/s     r/s     w/s    rkB/s    wkB/s avgrq-sz avgqu-sz   await r_await w_await  svctm  %util
sda               0.00     0.00 2310.00    0.00  9240.00     0.00     8.00     0.14    0.06    0.06    0.00   0.06  14.50
sdb               0.00     0.00 1996.00    0.00  7984.00     0.00     8.00     0.14    0.07    0.07    0.00   0.07  13.80
sdc               0.00     0.00 2298.00    0.00  9192.00     0.00     8.00     0.16    0.07    0.07    0.00   0.07  16.10
sdd               0.00     0.00 2170.00    0.00  8680.00     0.00     8.00     0.15    0.07    0.07    0.00   0.07  15.20
sde               0.00     0.00 2376.00    0.00  9504.00     0.00     8.00     0.16    0.07    0.07    0.00   0.07  15.70
sdf               0.00     0.00 2352.00    0.00  9408.00     0.00     8.00     0.15    0.07    0.07    0.00   0.07  15.50
sdg               0.00     0.00    0.00    0.00     0.00     0.00     0.00     0.00    0.00    0.00    0.00   0.00   0.00
sdh               0.00     0.00    0.00    0.00     0.00     0.00     0.00     0.00    0.00    0.00    0.00   0.00   0.00
md0               0.00     0.00 13502.00    0.00 54008.00     0.00     8.00     0.00    0.00    0.00    0.00   0.00   0.00

avg-cpu:  %user   %nice %system %iowait  %steal   %idle
          25.06    0.00    2.05    0.51    0.00   72.38

Device:         rrqm/s   wrqm/s     r/s     w/s    rkB/s    wkB/s avgrq-sz avgqu-sz   await r_await w_await  svctm  %util
sda               0.00     0.00 2342.00    0.00  9368.00     0.00     8.00     0.15    0.07    0.07    0.00   0.07  15.40
sdb               0.00     0.00 2111.00    0.00  8444.00     0.00     8.00     0.14    0.07    0.07    0.00   0.07  13.80
sdc               0.00     0.00 2193.00    0.00  8772.00     0.00     8.00     0.14    0.06    0.06    0.00   0.06  14.10
sdd               0.00     0.00 2574.00    0.00 10296.00     0.00     8.00     0.18    0.07    0.07    0.00   0.07  18.50
sde               0.00     0.00 2072.00    0.00  8288.00     0.00     8.00     0.15    0.07    0.07    0.00   0.07  15.20
sdf               0.00     0.00 2083.00    0.00  8332.00     0.00     8.00     0.15    0.07    0.07    0.00   0.07  15.10
sdg               0.00     0.00    0.00    0.00     0.00     0.00     0.00     0.00    0.00    0.00    0.00   0.00   0.00
sdh               0.00     0.00    0.00    0.00     0.00     0.00     0.00     0.00    0.00    0.00    0.00   0.00   0.00
md0               0.00     0.00 13374.00    0.00 53496.00     0.00     8.00     0.00    0.00    0.00    0.00   0.00   0.00

avg-cpu:  %user   %nice %system %iowait  %steal   %idle
          24.87    0.00    2.54    0.76    0.00   71.83

Device:         rrqm/s   wrqm/s     r/s     w/s    rkB/s    wkB/s avgrq-sz avgqu-sz   await r_await w_await  svctm  %util
sda               0.00     0.00 2100.00    0.00  8400.00     0.00     8.00     0.13    0.06    0.06    0.00   0.06  12.90
sdb               0.00     0.00 2300.00    0.00  9200.00     0.00     8.00     0.14    0.06    0.06    0.00   0.06  14.50
sdc               0.00     0.00 2185.00    0.00  8740.00     0.00     8.00     0.15    0.07    0.07    0.00   0.07  15.20
sdd               0.00     0.00 2188.00    0.00  8752.00     0.00     8.00     0.15    0.07    0.07    0.00   0.07  15.10
sde               0.00     0.00 2545.00    0.00 10180.00     0.00     8.00     0.17    0.07    0.07    0.00   0.07  17.20
sdf               0.00     0.00 2439.00    0.00  9756.00     0.00     8.00     0.17    0.07    0.07    0.00   0.07  16.70
sdg               0.00     0.00    0.00    0.00     0.00     0.00     0.00     0.00    0.00    0.00    0.00   0.00   0.00
sdh               0.00     0.00    0.00    0.00     0.00     0.00     0.00     0.00    0.00    0.00    0.00   0.00   0.00
md0               0.00     0.00 13757.00    0.00 55028.00     0.00     8.00     0.00    0.00    0.00    0.00   0.00   0.00

avg-cpu:  %user   %nice %system %iowait  %steal   %idle
          24.74    0.00    2.81    0.51    0.00   71.94

Device:         rrqm/s   wrqm/s     r/s     w/s    rkB/s    wkB/s avgrq-sz avgqu-sz   await r_await w_await  svctm  %util
sda               0.00     0.00 2271.00    0.00  9084.00     0.00     8.00     0.15    0.07    0.07    0.00   0.07  14.90
sdb               0.00     0.00 2256.00    0.00  9024.00     0.00     8.00     0.14    0.06    0.06    0.00   0.06  13.80
sdc               0.00     0.00 2248.00    0.00  8992.00     0.00     8.00     0.14    0.06    0.06    0.00   0.06  14.30
sdd               0.00     0.00 2128.00    0.00  8512.00     0.00     8.00     0.16    0.08    0.08    0.00   0.08  16.10
sde               0.00     0.00 2479.00    0.00  9916.00     0.00     8.00     0.15    0.06    0.06    0.00   0.06  15.50
sdf               0.00     0.00 2435.00    0.00  9740.00     0.00     8.00     0.16    0.06    0.06    0.00   0.06  15.80
sdg               0.00     0.00    0.00    0.00     0.00     0.00     0.00     0.00    0.00    0.00    0.00   0.00   0.00
sdh               0.00     0.00    0.00    0.00     0.00     0.00     0.00     0.00    0.00    0.00    0.00   0.00   0.00
md0               0.00     0.00 13817.00    0.00 55268.00     0.00     8.00     0.00    0.00    0.00    0.00   0.00   0.00

avg-cpu:  %user   %nice %system %iowait  %steal   %idle
          24.94    0.00    2.29    0.76    0.00   72.01

Device:         rrqm/s   wrqm/s     r/s     w/s    rkB/s    wkB/s avgrq-sz avgqu-sz   await r_await w_await  svctm  %util
sda               0.00     0.00 2366.00    0.00  9464.00     0.00     8.00     0.16    0.07    0.07    0.00   0.07  15.70
sdb               0.00     0.00 2254.00    0.00  9016.00     0.00     8.00     0.14    0.06    0.06    0.00   0.06  14.30
sdc               0.00     0.00 2379.00    0.00  9516.00     0.00     8.00     0.16    0.07    0.07    0.00   0.07  15.80
sdd               0.00     0.00 2572.00    0.00 10288.00     0.00     8.00     0.17    0.07    0.07    0.00   0.07  17.20
sde               0.00     0.00 2113.00    0.00  8452.00     0.00     8.00     0.15    0.07    0.07    0.00   0.07  15.50
sdf               0.00     0.00 2078.00    0.00  8312.00     0.00     8.00     0.13    0.06    0.06    0.00   0.06  13.20
sdg               0.00     0.00    0.00    0.00     0.00     0.00     0.00     0.00    0.00    0.00    0.00   0.00   0.00
sdh               0.00     0.00    0.00    0.00     0.00     0.00     0.00     0.00    0.00    0.00    0.00   0.00   0.00
md0               0.00     0.00 13763.00    0.00 55052.00     0.00     8.00     0.00    0.00    0.00    0.00   0.00   0.00

avg-cpu:  %user   %nice %system %iowait  %steal   %idle
          25.00    0.00    2.55    0.51    0.00   71.94

Device:         rrqm/s   wrqm/s     r/s     w/s    rkB/s    wkB/s avgrq-sz avgqu-sz   await r_await w_await  svctm  %util
sda               0.00     0.00 1924.00    0.00  7696.00     0.00     8.00     0.12    0.06    0.06    0.00   0.06  11.70
sdb               0.00     0.00 2438.00    0.00  9752.00     0.00     8.00     0.15    0.06    0.06    0.00   0.06  15.10
sdc               0.00     0.00 2071.00    0.00  8284.00     0.00     8.00     0.14    0.07    0.07    0.00   0.07  14.50
sdd               0.00     0.00 2373.00    0.00  9492.00     0.00     8.00     0.17    0.07    0.07    0.00   0.07  16.60
sde               0.00     0.00 2464.00    0.00  9856.00     0.00     8.00     0.16    0.07    0.07    0.00   0.07  16.40
sdf               0.00     0.00 2488.00    0.00  9952.00     0.00     8.00     0.17    0.07    0.07    0.00   0.07  17.30
sdg               0.00     0.00    0.00    0.00     0.00     0.00     0.00     0.00    0.00    0.00    0.00   0.00   0.00
sdh               0.00     0.00    0.00    0.00     0.00     0.00     0.00     0.00    0.00    0.00    0.00   0.00   0.00
md0               0.00     0.00 13757.00    0.00 55028.00     0.00     8.00     0.00    0.00    0.00    0.00   0.00   0.00

