Linux 4.17.2 (bench) 	08/03/2018 	_x86_64_	(4 CPU)

avg-cpu:  %user   %nice %system %iowait  %steal   %idle
          10.27    0.02    4.11    2.63    0.00   82.98

Device:         rrqm/s   wrqm/s     r/s     w/s    rkB/s    wkB/s avgrq-sz avgqu-sz   await r_await w_await  svctm  %util
sda              48.10     4.22 1684.32  101.99 21121.14  3120.83    27.14     1.04    0.58    0.26    5.92   0.06  10.85
sdb              47.96     4.18 1684.28  102.13 21110.67  3117.51    27.13     1.04    0.58    0.26    5.85   0.06  10.73
sdc              85.82     4.24 1644.32  101.68 21102.77  3119.96    27.75     1.46    0.84    0.45    7.12   0.08  14.21
sdd              79.28     4.21 1650.03  101.75 21087.67  3116.17    27.63     1.47    0.84    0.44    7.33   0.08  14.30
sde              81.30     4.25 1655.11  101.85 21147.27  3120.40    27.62     1.49    0.85    0.44    7.44   0.08  14.32
sdf              78.43     4.23 1657.24  101.80 21128.64  3117.28    27.57     1.53    0.87    0.44    7.90   0.08  14.35
sdg               0.00     3.17   26.50   73.30   324.76   392.05    14.36     0.44    4.41    0.20    5.93   0.08   0.78
sdh               0.00     0.13    0.02    0.23     2.20     5.04    56.82     0.00    1.15    0.65    1.19   0.21   0.01
md0               0.00     0.00 10403.20  477.88 144721.02 21361.66    30.53     0.00    0.00    0.00    0.00   0.00   0.00

avg-cpu:  %user   %nice %system %iowait  %steal   %idle
          24.25    0.00    3.75    7.25    0.00   64.75

Device:         rrqm/s   wrqm/s     r/s     w/s    rkB/s    wkB/s avgrq-sz avgqu-sz   await r_await w_await  svctm  %util
sda              73.00     0.00  767.00    0.00 55552.00     0.00   144.86     0.29    0.38    0.38    0.00   0.28  21.70
sdb              77.00     0.00  706.00    0.00 54340.00     0.00   153.94     0.28    0.39    0.39    0.00   0.30  21.10
sdc              73.00     0.00  720.00    0.00 55172.00     0.00   153.26     0.44    0.62    0.62    0.00   0.44  31.50
sdd              75.00     0.00  696.00    0.00 55000.00     0.00   158.05     0.42    0.62    0.62    0.00   0.43  29.80
sde              82.00     0.00  664.00    0.00 58400.00     0.00   175.90     0.43    0.66    0.66    0.00   0.48  31.90
sdf              75.00     0.00  695.00    0.00 56776.00     0.00   163.38     0.45    0.66    0.66    0.00   0.44  30.80
sdg               0.00     0.00    0.00    1.00     0.00     8.00    16.00     0.00    0.00    0.00    0.00   0.00   0.00
sdh               0.00     0.00    0.00    0.00     0.00     0.00     0.00     0.00    0.00    0.00    0.00   0.00   0.00
md0               0.00     0.00 4697.00    0.00 477172.00     0.00   203.18     0.00    0.00    0.00    0.00   0.00   0.00

avg-cpu:  %user   %nice %system %iowait  %steal   %idle
          23.93    0.00    4.03    4.53    0.00   67.51

Device:         rrqm/s   wrqm/s     r/s     w/s    rkB/s    wkB/s avgrq-sz avgqu-sz   await r_await w_await  svctm  %util
sda             111.00     0.00  622.00    0.00 70292.00     0.00   226.02     0.33    0.53    0.53    0.00   0.40  24.90
sdb             111.00     0.00  588.00    0.00 70080.00     0.00   238.37     0.34    0.58    0.58    0.00   0.41  24.00
sdc             105.00     0.00  640.00    0.00 70256.00     0.00   219.55     0.59    0.92    0.92    0.00   0.57  36.60
sdd             107.00     0.00  605.00    0.00 70228.00     0.00   232.16     0.57    0.95    0.95    0.00   0.60  36.10
sde              96.00     0.00  730.00    0.00 67124.00     0.00   183.90     0.57    0.78    0.78    0.00   0.50  36.40
sdf              98.00     0.00  677.00    0.00 67892.00     0.00   200.57     0.55    0.82    0.82    0.00   0.54  36.70
sdg               0.00     0.00    0.00    0.00     0.00     0.00     0.00     0.00    0.00    0.00    0.00   0.00   0.00
sdh               0.00     0.00    0.00    0.00     0.00     0.00     0.00     0.00    0.00    0.00    0.00   0.00   0.00
md0               0.00     0.00 4489.00    0.00 600528.00     0.00   267.56     0.00    0.00    0.00    0.00   0.00   0.00

avg-cpu:  %user   %nice %system %iowait  %steal   %idle
          23.99    0.00    3.54    6.06    0.00   66.41

Device:         rrqm/s   wrqm/s     r/s     w/s    rkB/s    wkB/s avgrq-sz avgqu-sz   await r_await w_await  svctm  %util
sda              91.00     0.00  663.00    0.00 64240.00     0.00   193.79     0.32    0.48    0.48    0.00   0.35  23.40
sdb              92.00     0.00  685.00    0.00 64016.00     0.00   186.91     0.34    0.50    0.50    0.00   0.36  25.00
sdc              93.00     0.00  671.00    0.00 62752.00     0.00   187.04     0.49    0.73    0.73    0.00   0.51  34.40
sdd              94.00     0.00  670.00    0.00 64980.00     0.00   193.97     0.50    0.75    0.75    0.00   0.52  35.10
sde              99.00     0.00  650.00    0.00 65700.00     0.00   202.15     0.53    0.81    0.81    0.00   0.55  35.70
sdf              99.00     0.00  607.00    0.00 65396.00     0.00   215.47     0.53    0.87    0.87    0.00   0.58  35.00
sdg               0.00     0.00    0.00    0.00     0.00     0.00     0.00     0.00    0.00    0.00    0.00   0.00   0.00
sdh               0.00     0.00    0.00    0.00     0.00     0.00     0.00     0.00    0.00    0.00    0.00   0.00   0.00
md0               0.00     0.00 4515.00    0.00 553344.00     0.00   245.11     0.00    0.00    0.00    0.00   0.00   0.00

