Linux 4.17.2 (bench) 	08/03/2018 	_x86_64_	(4 CPU)

avg-cpu:  %user   %nice %system %iowait  %steal   %idle
          10.26    0.02    4.16    2.72    0.00   82.84

Device:         rrqm/s   wrqm/s     r/s     w/s    rkB/s    wkB/s avgrq-sz avgqu-sz   await r_await w_await  svctm  %util
sda              52.90     4.19 1720.24  101.27 21314.70  3098.79    26.81     1.05    0.57    0.26    5.92   0.06  11.01
sdb              52.70     4.15 1720.24  101.41 21304.21  3095.50    26.79     1.05    0.57    0.26    5.85   0.06  10.89
sdc              90.50     4.21 1680.34  100.97 21296.40  3097.93    27.39     1.47    0.82    0.45    7.12   0.08  14.38
sdd              84.02     4.18 1686.00  101.04 21281.40  3094.17    27.28     1.47    0.82    0.43    7.33   0.08  14.47
sde              86.02     4.22 1691.09  101.13 21340.80  3098.37    27.27     1.49    0.83    0.44    7.44   0.08  14.50
sdf              83.17     4.20 1693.20  101.08 21322.25  3095.27    27.22     1.54    0.86    0.44    7.90   0.08  14.53
sdg               0.00     3.17   26.77   73.27   325.83   392.02    14.35     0.44    4.40    0.20    5.93   0.08   0.78
sdh               0.00     0.13    0.02    0.23     2.18     5.00    56.82     0.00    1.15    0.65    1.19   0.21   0.01
md0               0.00     0.00 10647.81  474.50 146071.96 21210.84    30.08     0.00    0.00    0.00    0.00   0.00   0.00

avg-cpu:  %user   %nice %system %iowait  %steal   %idle
          24.90    0.01    2.11   12.63    0.00   60.35

Device:         rrqm/s   wrqm/s     r/s     w/s    rkB/s    wkB/s avgrq-sz avgqu-sz   await r_await w_await  svctm  %util
sda               0.00     0.00 1606.25    0.00  6425.00     0.00     8.00     0.15    0.09    0.09    0.00   0.09  15.08
sdb               0.00     0.00 1610.95    0.00  6443.80     0.00     8.00     0.15    0.09    0.09    0.00   0.09  15.07
sdc               0.00     0.00 1561.45    0.00  6245.80     0.00     8.00     0.16    0.10    0.10    0.00   0.10  15.70
sdd               0.00     0.00 1585.80    0.00  6343.40     0.00     8.00     0.16    0.10    0.10    0.00   0.10  16.31
sde               0.00     0.00 1580.90    0.00  6323.60     0.00     8.00     0.16    0.10    0.10    0.00   0.10  15.92
sdf               0.00     0.00 1599.50    0.00  6398.00     0.00     8.00     0.16    0.10    0.10    0.00   0.10  15.84
sdg               0.00     0.10    1.90  130.70    14.20   684.00    10.53     0.79    6.07    0.34    6.15   0.05   0.64
sdh               0.00     0.00    0.00    0.00     0.00     0.00     0.00     0.00    0.00    0.00    0.00   0.00   0.00
md0               0.00     0.00 9544.95    0.00 38179.80     0.00     8.00     0.00    0.00    0.00    0.00   0.00   0.00

