Linux 4.17.2 (bench) 	08/03/2018 	_x86_64_	(4 CPU)

avg-cpu:  %user   %nice %system %iowait  %steal   %idle
          10.27    0.02    4.10    2.62    0.00   82.99

Device:         rrqm/s   wrqm/s     r/s     w/s    rkB/s    wkB/s avgrq-sz avgqu-sz   await r_await w_await  svctm  %util
sda              47.32     4.22 1678.69  102.05 21088.42  3122.62    27.19     1.04    0.58    0.26    5.92   0.06  10.84
sdb              47.17     4.18 1678.65  102.19 21077.91  3119.30    27.18     1.04    0.58    0.26    5.85   0.06  10.72
sdc              84.99     4.24 1638.73  101.74 21070.04  3121.75    27.80     1.46    0.84    0.45    7.12   0.08  14.19
sdd              78.45     4.21 1644.45  101.81 21054.94  3117.96    27.69     1.46    0.84    0.44    7.33   0.08  14.28
sde              80.47     4.26 1649.52  101.91 21114.58  3122.19    27.68     1.48    0.85    0.44    7.44   0.08  14.30
sdf              77.59     4.23 1651.66  101.85 21095.92  3119.07    27.62     1.53    0.87    0.44    7.90   0.08  14.33
sdg               0.00     3.17   26.47   73.30   324.62   392.03    14.37     0.44    4.41    0.20    5.93   0.08   0.78
sdh               0.00     0.13    0.02    0.23     2.20     5.04    56.82     0.00    1.15    0.65    1.19   0.21   0.01
md0               0.00     0.00 10364.64  478.15 144507.37 21373.91    30.60     0.00    0.00    0.00    0.00   0.00   0.00

avg-cpu:  %user   %nice %system %iowait  %steal   %idle
           1.26    0.00   50.38    0.76    0.00   47.61

Device:         rrqm/s   wrqm/s     r/s     w/s    rkB/s    wkB/s avgrq-sz avgqu-sz   await r_await w_await  svctm  %util
sda               0.00     0.00 32290.00    0.00 129160.00     0.00     8.00    41.05    1.27    1.27    0.00   0.02  77.00
sdb               0.00     0.00 32377.00    0.00 129508.00     0.00     8.00    40.96    1.27    1.27    0.00   0.02  77.70
sdc               0.00     0.00 32941.00    0.00 131764.00     0.00     8.00    50.36    1.53    1.53    0.00   0.02  82.30
sdd               0.00     0.00 32413.00    0.00 129652.00     0.00     8.00    48.99    1.51    1.51    0.00   0.03  82.20
sde               0.00     0.00 32578.00    0.00 130312.00     0.00     8.00    49.34    1.51    1.51    0.00   0.03  82.00
sdf               0.00     0.00 32370.00    0.00 129480.00     0.00     8.00    49.24    1.52    1.52    0.00   0.03  82.00
sdg               0.00     0.00    2.00    0.00    84.00     0.00    84.00     0.00    0.50    0.50    0.00   0.50   0.10
sdh               0.00     0.00    0.00    0.00     0.00     0.00     0.00     0.00    0.00    0.00    0.00   0.00   0.00
md0               0.00     0.00 195060.00    0.00 780236.00     0.00     8.00     0.00    0.00    0.00    0.00   0.00   0.00

avg-cpu:  %user   %nice %system %iowait  %steal   %idle
           0.75    0.00   51.87    0.25    0.00   47.13

Device:         rrqm/s   wrqm/s     r/s     w/s    rkB/s    wkB/s avgrq-sz avgqu-sz   await r_await w_await  svctm  %util
sda               0.00     0.00 32572.00    0.00 130288.00     0.00     8.00    41.07    1.26    1.26    0.00   0.02  77.50
sdb               0.00     0.00 32343.00    0.00 129372.00     0.00     8.00    41.25    1.28    1.28    0.00   0.02  77.90
sdc               0.00     0.00 32555.00    0.00 130220.00     0.00     8.00    48.51    1.49    1.49    0.00   0.02  81.30
sdd               1.00     0.00 32610.00    0.00 130444.00     0.00     8.00    49.33    1.51    1.51    0.00   0.03  82.10
sde               1.00     0.00 32853.00    0.00 131416.00     0.00     8.00    49.80    1.51    1.51    0.00   0.03  82.80
sdf               1.00     0.00 32408.00    0.00 129636.00     0.00     8.00    48.96    1.51    1.51    0.00   0.03  82.30
sdg               0.00     0.00    0.00    0.00     0.00     0.00     0.00     0.00    0.00    0.00    0.00   0.00   0.00
sdh               0.00     0.00    0.00    0.00     0.00     0.00     0.00     0.00    0.00    0.00    0.00   0.00   0.00
md0               0.00     0.00 195265.00    0.00 781064.00     0.00     8.00     0.00    0.00    0.00    0.00   0.00   0.00

avg-cpu:  %user   %nice %system %iowait  %steal   %idle
           1.50    0.00   50.88    0.50    0.00   47.12

Device:         rrqm/s   wrqm/s     r/s     w/s    rkB/s    wkB/s avgrq-sz avgqu-sz   await r_await w_await  svctm  %util
sda               2.00     0.00 32773.00    0.00 131100.00     0.00     8.00    41.87    1.28    1.28    0.00   0.02  78.10
sdb               1.00     0.00 32302.00    0.00 129212.00     0.00     8.00    41.16    1.27    1.27    0.00   0.02  77.60
sdc               1.00     0.00 32797.00    0.00 131192.00     0.00     8.00    49.04    1.50    1.50    0.00   0.03  82.10
sdd               0.00     0.00 32301.00    0.00 129204.00     0.00     8.00    48.08    1.49    1.49    0.00   0.03  81.30
sde               0.00     0.00 32326.00    0.00 129304.00     0.00     8.00    48.51    1.49    1.49    0.00   0.03  82.20
sdf               0.00     0.00 32197.00    0.00 128788.00     0.00     8.00    48.09    1.49    1.49    0.00   0.03  81.50
sdg               0.00     0.00    0.00    0.00     0.00     0.00     0.00     0.00    0.00    0.00    0.00   0.00   0.00
sdh               0.00     0.00    0.00    0.00     0.00     0.00     0.00     0.00    0.00    0.00    0.00   0.00   0.00
md0               0.00     0.00 195197.00    0.00 780788.00     0.00     8.00     0.00    0.00    0.00    0.00   0.00   0.00

avg-cpu:  %user   %nice %system %iowait  %steal   %idle
           1.51    0.00   51.76    0.25    0.00   46.48

Device:         rrqm/s   wrqm/s     r/s     w/s    rkB/s    wkB/s avgrq-sz avgqu-sz   await r_await w_await  svctm  %util
sda               0.00     0.00 32233.00    0.00 128932.00     0.00     8.00    38.85    1.21    1.21    0.00   0.02  77.00
sdb               1.00     0.00 32287.00    0.00 129152.00     0.00     8.00    39.05    1.21    1.21    0.00   0.02  76.80
sdc               0.00     0.00 32434.00    0.00 129736.00     0.00     8.00    46.30    1.43    1.43    0.00   0.03  82.30
sdd               0.00     0.00 32437.00    0.00 129748.00     0.00     8.00    46.33    1.43    1.43    0.00   0.03  82.30
sde               0.00     0.00 32407.00    0.00 129628.00     0.00     8.00    46.34    1.43    1.43    0.00   0.03  82.50
sdf               0.00     0.00 32335.00    0.00 129340.00     0.00     8.00    46.74    1.45    1.45    0.00   0.03  82.70
sdg               0.00     0.00    0.00    0.00     0.00     0.00     0.00     0.00    0.00    0.00    0.00   0.00   0.00
sdh               0.00     0.00    0.00    0.00     0.00     0.00     0.00     0.00    0.00    0.00    0.00   0.00   0.00
md0               0.00     0.00 193625.00    0.00 774500.00     0.00     8.00     0.00    0.00    0.00    0.00   0.00   0.00

avg-cpu:  %user   %nice %system %iowait  %steal   %idle
           1.26    0.00   53.02    0.25    0.00   45.48

Device:         rrqm/s   wrqm/s     r/s     w/s    rkB/s    wkB/s avgrq-sz avgqu-sz   await r_await w_await  svctm  %util
sda               0.00     0.00 32570.00    0.00 130280.00     0.00     8.00    36.79    1.13    1.13    0.00   0.02  75.80
sdb               0.00     0.00 32829.00    0.00 131316.00     0.00     8.00    37.86    1.15    1.15    0.00   0.02  77.40
sdc               0.00     0.00 32254.00    0.00 129016.00     0.00     8.00    44.02    1.36    1.36    0.00   0.03  81.30
sdd               0.00     0.00 32432.00    0.00 129728.00     0.00     8.00    44.42    1.37    1.37    0.00   0.03  82.00
sde               1.00     0.00 32492.00    0.00 129972.00     0.00     8.00    44.44    1.37    1.37    0.00   0.03  81.60
sdf               0.00     0.00 32517.00    0.00 130068.00     0.00     8.00    44.74    1.37    1.37    0.00   0.03  81.80
sdg               0.00     0.00    0.00    0.00     0.00     0.00     0.00     0.00    0.00    0.00    0.00   0.00   0.00
sdh               0.00     0.00    0.00    0.00     0.00     0.00     0.00     0.00    0.00    0.00    0.00   0.00   0.00
md0               0.00     0.00 195218.00    0.00 780872.00     0.00     8.00     0.00    0.00    0.00    0.00   0.00   0.00

avg-cpu:  %user   %nice %system %iowait  %steal   %idle
           1.01    0.00   52.51    0.25    0.00   46.23

Device:         rrqm/s   wrqm/s     r/s     w/s    rkB/s    wkB/s avgrq-sz avgqu-sz   await r_await w_await  svctm  %util
sda               0.00     0.00 32472.00    0.00 129888.00     0.00     8.00    37.44    1.15    1.15    0.00   0.02  75.00
sdb               0.00     0.00 32303.00    0.00 129212.00     0.00     8.00    37.43    1.16    1.16    0.00   0.02  76.00
sdc               0.00     0.00 32454.00    0.00 129816.00     0.00     8.00    45.02    1.38    1.38    0.00   0.02  80.20
sdd               0.00     0.00 32254.00    0.00 129016.00     0.00     8.00    44.43    1.38    1.38    0.00   0.03  81.10
sde               1.00     0.00 32284.00    0.00 129140.00     0.00     8.00    44.62    1.38    1.38    0.00   0.02  80.20
sdf               0.00     0.00 32231.00    0.00 128924.00     0.00     8.00    44.61    1.38    1.38    0.00   0.02  80.10
sdg               0.00     0.00    0.00    0.00     0.00     0.00     0.00     0.00    0.00    0.00    0.00   0.00   0.00
sdh               0.00     0.00    0.00    0.00     0.00     0.00     0.00     0.00    0.00    0.00    0.00   0.00   0.00
md0               0.00     0.00 193997.00    0.00 775988.00     0.00     8.00     0.00    0.00    0.00    0.00   0.00   0.00

avg-cpu:  %user   %nice %system %iowait  %steal   %idle
           1.26    0.00   52.27    0.25    0.00   46.21

Device:         rrqm/s   wrqm/s     r/s     w/s    rkB/s    wkB/s avgrq-sz avgqu-sz   await r_await w_await  svctm  %util
sda               0.00     0.00 32503.00    0.00 130012.00     0.00     8.00    37.92    1.17    1.17    0.00   0.02  76.40
sdb               1.00     0.00 32623.00    0.00 130496.00     0.00     8.00    38.58    1.18    1.18    0.00   0.02  76.70
sdc               1.00     0.00 32439.00    0.00 129760.00     0.00     8.00    45.18    1.39    1.39    0.00   0.03  81.10
sdd               0.00     0.00 32443.00    0.00 129772.00     0.00     8.00    45.50    1.40    1.40    0.00   0.03  81.40
sde               1.00     0.00 32715.00    0.00 130864.00     0.00     8.00    46.03    1.41    1.41    0.00   0.03  82.00
sdf               0.00     0.00 32073.00    0.00 128292.00     0.00     8.00    44.87    1.40    1.40    0.00   0.03  81.20
sdg               0.00     0.00    0.00    0.00     0.00     0.00     0.00     0.00    0.00    0.00    0.00   0.00   0.00
sdh               0.00     0.00    0.00    0.00     0.00     0.00     0.00     0.00    0.00    0.00    0.00   0.00   0.00
md0               0.00     0.00 194685.00    0.00 778740.00     0.00     8.00     0.00    0.00    0.00    0.00   0.00   0.00

avg-cpu:  %user   %nice %system %iowait  %steal   %idle
           1.50    0.00   54.61    0.25    0.00   43.64

Device:         rrqm/s   wrqm/s     r/s     w/s    rkB/s    wkB/s avgrq-sz avgqu-sz   await r_await w_await  svctm  %util
sda               0.00     0.00 31952.00    0.00 127808.00     0.00     8.00    35.49    1.11    1.11    0.00   0.02  75.80
sdb               1.00     0.00 31662.00    0.00 126652.00     0.00     8.00    34.82    1.10    1.10    0.00   0.02  75.50
sdc               0.00     0.00 31750.00    0.00 127000.00     0.00     8.00    41.66    1.31    1.31    0.00   0.03  80.50
sdd               0.00     0.00 31939.00    0.00 127756.00     0.00     8.00    42.85    1.34    1.34    0.00   0.03  81.00
sde               0.00     0.00 31676.00    0.00 126704.00     0.00     8.00    42.06    1.33    1.33    0.00   0.03  79.60
sdf               0.00     0.00 31778.00    0.00 127112.00     0.00     8.00    42.42    1.33    1.33    0.00   0.03  80.50
sdg               0.00     0.00    0.00    0.00     0.00     0.00     0.00     0.00    0.00    0.00    0.00   0.00   0.00
sdh               0.00     0.00    0.00    0.00     0.00     0.00     0.00     0.00    0.00    0.00    0.00   0.00   0.00
md0               0.00     0.00 190751.00    0.00 763004.00     0.00     8.00     0.00    0.00    0.00    0.00   0.00   0.00

avg-cpu:  %user   %nice %system %iowait  %steal   %idle
           1.01    0.00   56.42    0.25    0.00   42.32

Device:         rrqm/s   wrqm/s     r/s     w/s    rkB/s    wkB/s avgrq-sz avgqu-sz   await r_await w_await  svctm  %util
sda               0.00     0.00 31585.00    0.00 126340.00     0.00     8.00    35.08    1.11    1.11    0.00   0.02  76.40
sdb               0.00     0.00 31385.00    0.00 125540.00     0.00     8.00    34.51    1.10    1.10    0.00   0.02  75.50
sdc               1.00     0.00 31370.00    0.00 125484.00     0.00     8.00    41.07    1.31    1.31    0.00   0.03  79.50
sdd               0.00     0.00 31258.00    0.00 125032.00     0.00     8.00    40.91    1.31    1.31    0.00   0.03  79.70
sde               0.00     0.00 31077.00    0.00 124308.00     0.00     8.00    40.59    1.31    1.31    0.00   0.03  79.30
sdf               0.00     0.00 31340.00    0.00 125360.00     0.00     8.00    41.44    1.32    1.32    0.00   0.03  80.10
sdg               0.00     0.00    0.00    0.00     0.00     0.00     0.00     0.00    0.00    0.00    0.00   0.00   0.00
sdh               0.00     0.00    0.00    0.00     0.00     0.00     0.00     0.00    0.00    0.00    0.00   0.00   0.00
md0               0.00     0.00 188391.00    0.00 753564.00     0.00     8.00     0.00    0.00    0.00    0.00   0.00   0.00

avg-cpu:  %user   %nice %system %iowait  %steal   %idle
           1.00    0.00   57.25    0.25    0.00   41.50

Device:         rrqm/s   wrqm/s     r/s     w/s    rkB/s    wkB/s avgrq-sz avgqu-sz   await r_await w_await  svctm  %util
sda               0.00     0.00 31993.00    0.00 127972.00     0.00     8.00    34.48    1.08    1.08    0.00   0.02  77.40
sdb               1.00     0.00 31936.00    0.00 127748.00     0.00     8.00    34.50    1.08    1.08    0.00   0.02  76.70
sdc               0.00     0.00 31367.00    0.00 125468.00     0.00     8.00    39.56    1.26    1.26    0.00   0.03  79.60
sdd               0.00     0.00 31531.00    0.00 126124.00     0.00     8.00    40.45    1.28    1.28    0.00   0.03  79.70
sde               1.00     0.00 31695.00    0.00 126784.00     0.00     8.00    40.87    1.29    1.29    0.00   0.03  80.90
sdf               0.00     0.00 31842.00    0.00 127368.00     0.00     8.00    41.52    1.30    1.30    0.00   0.03  81.00
sdg               0.00     0.00    4.00    0.00    16.00     0.00     8.00     0.00    0.25    0.25    0.00   0.25   0.10
sdh               0.00     0.00    0.00    0.00     0.00     0.00     0.00     0.00    0.00    0.00    0.00   0.00   0.00
md0               0.00     0.00 190043.00    0.00 760172.00     0.00     8.00     0.00    0.00    0.00    0.00   0.00   0.00

avg-cpu:  %user   %nice %system %iowait  %steal   %idle
           1.51    0.00   54.02    0.25    0.00   44.22

Device:         rrqm/s   wrqm/s     r/s     w/s    rkB/s    wkB/s avgrq-sz avgqu-sz   await r_await w_await  svctm  %util
sda               0.00     0.00 30496.00    0.00 121984.00     0.00     8.00    34.00    1.11    1.11    0.00   0.02  73.50
sdb               1.00     0.00 30882.00    0.00 123532.00     0.00     8.00    35.28    1.14    1.14    0.00   0.02  73.20
sdc               0.00     0.00 30623.00    0.00 122492.00     0.00     8.00    41.09    1.34    1.34    0.00   0.03  78.20
sdd               1.00     0.00 30747.00    0.00 122992.00     0.00     8.00    41.14    1.34    1.34    0.00   0.03  77.90
sde               0.00     0.00 30731.00    0.00 122924.00     0.00     8.00    41.51    1.35    1.35    0.00   0.03  78.20
sdf               0.00     0.00 30549.00    0.00 122196.00     0.00     8.00    41.24    1.35    1.35    0.00   0.03  77.70
sdg               0.00     0.00    0.00    0.00     0.00     0.00     0.00     0.00    0.00    0.00    0.00   0.00   0.00
sdh               0.00     0.00    0.00    0.00     0.00     0.00     0.00     0.00    0.00    0.00    0.00   0.00   0.00
md0               0.00     0.00 184362.00    0.00 737448.00     0.00     8.00     0.00    0.00    0.00    0.00   0.00   0.00

avg-cpu:  %user   %nice %system %iowait  %steal   %idle
           1.26    0.00   55.05    0.25    0.00   43.43

Device:         rrqm/s   wrqm/s     r/s     w/s    rkB/s    wkB/s avgrq-sz avgqu-sz   await r_await w_await  svctm  %util
sda               0.00     0.00 30862.00    0.00 123448.00     0.00     8.00    32.74    1.06    1.06    0.00   0.02  73.50
sdb               1.00     0.00 30868.00    0.00 123476.00     0.00     8.00    33.02    1.07    1.07    0.00   0.02  74.20
sdc               0.00     0.00 30850.00    0.00 123400.00     0.00     8.00    39.45    1.27    1.27    0.00   0.03  77.80
sdd               0.00     0.00 30637.00    0.00 122548.00     0.00     8.00    38.72    1.26    1.26    0.00   0.03  77.30
sde               0.00     0.00 30799.00    0.00 123196.00     0.00     8.00    39.17    1.27    1.27    0.00   0.03  77.50
sdf               1.00     0.00 30556.00    0.00 122228.00     0.00     8.00    38.93    1.27    1.27    0.00   0.03  77.10
sdg               0.00     0.00    0.00    0.00     0.00     0.00     0.00     0.00    0.00    0.00    0.00   0.00   0.00
sdh               0.00     0.00    0.00    0.00     0.00     0.00     0.00     0.00    0.00    0.00    0.00   0.00   0.00
md0               0.00     0.00 184338.00    0.00 737352.00     0.00     8.00     0.00    0.00    0.00    0.00   0.00   0.00

avg-cpu:  %user   %nice %system %iowait  %steal   %idle
           1.00    0.00   55.36    0.50    0.00   43.14

Device:         rrqm/s   wrqm/s     r/s     w/s    rkB/s    wkB/s avgrq-sz avgqu-sz   await r_await w_await  svctm  %util
sda               2.00     0.00 31368.00    0.00 125480.00     0.00     8.00    34.43    1.09    1.09    0.00   0.02  75.40
sdb               1.00     0.00 30949.00    0.00 123800.00     0.00     8.00    33.92    1.09    1.09    0.00   0.02  74.60
sdc               2.00     0.00 31402.00    0.00 125616.00     0.00     8.00    41.45    1.32    1.32    0.00   0.03  78.90
sdd               2.00     0.00 31112.00    0.00 124456.00     0.00     8.00    41.33    1.32    1.32    0.00   0.03  79.70
sde               1.00     0.00 31124.00    0.00 124500.00     0.00     8.00    40.96    1.31    1.31    0.00   0.03  78.30
sdf               1.00     0.00 31252.00    0.00 125012.00     0.00     8.00    42.01    1.34    1.34    0.00   0.03  79.50
sdg               0.00     0.00    0.00    0.00     0.00     0.00     0.00     0.00    0.00    0.00    0.00   0.00   0.00
sdh               0.00     0.00    0.00    0.00     0.00     0.00     0.00     0.00    0.00    0.00    0.00   0.00   0.00
md0               0.00     0.00 187515.00    0.00 750060.00     0.00     8.00     0.00    0.00    0.00    0.00   0.00   0.00

avg-cpu:  %user   %nice %system %iowait  %steal   %idle
           1.01    0.00   54.55    0.25    0.00   44.19

Device:         rrqm/s   wrqm/s     r/s     w/s    rkB/s    wkB/s avgrq-sz avgqu-sz   await r_await w_await  svctm  %util
sda               0.00     0.00 31081.00    0.00 124324.00     0.00     8.00    35.15    1.13    1.13    0.00   0.02  73.40
sdb               0.00     0.00 30621.00    0.00 122484.00     0.00     8.00    34.40    1.12    1.12    0.00   0.02  72.90
sdc               1.00     0.00 30986.00    0.00 123948.00     0.00     8.00    41.91    1.35    1.35    0.00   0.03  77.80
sdd               0.00     0.00 31244.00    0.00 124976.00     0.00     8.00    42.26    1.36    1.36    0.00   0.03  78.60
sde               1.00     0.00 31181.00    0.00 124728.00     0.00     8.00    42.42    1.36    1.36    0.00   0.02  77.80
sdf               0.00     0.00 31050.00    0.00 124200.00     0.00     8.00    42.21    1.36    1.36    0.00   0.03  78.90
sdg               0.00     0.00    0.00    4.00     0.00   128.00    64.00     0.00    0.75    0.00    0.75   0.25   0.10
sdh               0.00     0.00    0.00    0.00     0.00     0.00     0.00     0.00    0.00    0.00    0.00   0.00   0.00
md0               0.00     0.00 185742.00    0.00 742968.00     0.00     8.00     0.00    0.00    0.00    0.00   0.00   0.00

avg-cpu:  %user   %nice %system %iowait  %steal   %idle
           0.75    0.00   56.89    0.25    0.00   42.11

Device:         rrqm/s   wrqm/s     r/s     w/s    rkB/s    wkB/s avgrq-sz avgqu-sz   await r_await w_await  svctm  %util
sda               1.00     0.00 31914.00    0.00 127660.00     0.00     8.00    36.46    1.14    1.14    0.00   0.02  76.40
sdb               0.00     0.00 31623.00    0.00 126492.00     0.00     8.00    35.57    1.13    1.13    0.00   0.02  76.20
sdc               0.00     0.00 31817.00    0.00 127268.00     0.00     8.00    43.20    1.36    1.36    0.00   0.03  80.80
sdd               1.00     0.00 31909.00    0.00 127640.00     0.00     8.00    43.67    1.37    1.37    0.00   0.03  81.70
sde               0.00     0.00 31751.00    0.00 127004.00     0.00     8.00    42.98    1.35    1.35    0.00   0.03  81.20
sdf               0.00     0.00 31675.00    0.00 126700.00     0.00     8.00    43.01    1.36    1.36    0.00   0.03  80.50
sdg               0.00     0.00    0.00    0.00     0.00     0.00     0.00     0.00    0.00    0.00    0.00   0.00   0.00
sdh               0.00     0.00    0.00    0.00     0.00     0.00     0.00     0.00    0.00    0.00    0.00   0.00   0.00
md0               0.00     0.00 190670.00    0.00 762680.00     0.00     8.00     0.00    0.00    0.00    0.00   0.00   0.00

avg-cpu:  %user   %nice %system %iowait  %steal   %idle
           1.00    0.00   57.36    0.50    0.00   41.15

Device:         rrqm/s   wrqm/s     r/s     w/s    rkB/s    wkB/s avgrq-sz avgqu-sz   await r_await w_await  svctm  %util
sda               0.00     0.00 31973.00    0.00 127896.00     0.00     8.00    35.91    1.12    1.12    0.00   0.02  76.80
sdb               0.00     0.00 32122.00    0.00 128488.00     0.00     8.00    36.40    1.13    1.13    0.00   0.02  77.00
sdc               0.00     0.00 31731.00    0.00 126924.00     0.00     8.00    42.44    1.34    1.34    0.00   0.03  80.90
sdd               1.00     0.00 31827.00    0.00 127312.00     0.00     8.00    42.63    1.34    1.34    0.00   0.03  80.70
sde               1.00     0.00 31821.00    0.00 127288.00     0.00     8.00    42.98    1.35    1.35    0.00   0.03  81.40
sdf               0.00     0.00 32021.00    0.00 128084.00     0.00     8.00    43.52    1.36    1.36    0.00   0.03  81.30
sdg               0.00     0.00    0.00    0.00     0.00     0.00     0.00     0.00    0.00    0.00    0.00   0.00   0.00
sdh               0.00     0.00    0.00    0.00     0.00     0.00     0.00     0.00    0.00    0.00    0.00   0.00   0.00
md0               0.00     0.00 191714.00    0.00 766856.00     0.00     8.00     0.00    0.00    0.00    0.00   0.00   0.00

avg-cpu:  %user   %nice %system %iowait  %steal   %idle
           1.26    0.00   57.04    0.50    0.00   41.21

Device:         rrqm/s   wrqm/s     r/s     w/s    rkB/s    wkB/s avgrq-sz avgqu-sz   await r_await w_await  svctm  %util
sda               1.00     0.00 31784.00    0.00 127136.00     0.00     8.00    35.56    1.12    1.12    0.00   0.02  76.00
sdb               0.00     0.00 31770.00    0.00 127080.00     0.00     8.00    36.38    1.14    1.14    0.00   0.02  75.20
sdc               1.00     0.00 31831.00    0.00 127328.00     0.00     8.00    43.10    1.35    1.35    0.00   0.03  80.80
sdd               1.00     0.00 31708.00    0.00 126836.00     0.00     8.00    43.15    1.36    1.36    0.00   0.03  79.90
sde               0.00     0.00 31881.00    0.00 127524.00     0.00     8.00    43.28    1.36    1.36    0.00   0.03  80.60
sdf               0.00     0.00 31753.00    0.00 127012.00     0.00     8.00    42.98    1.35    1.35    0.00   0.03  80.40
sdg               0.00     0.00    0.00    0.00     0.00     0.00     0.00     0.00    0.00    0.00    0.00   0.00   0.00
sdh               0.00     0.00    0.00    0.00     0.00     0.00     0.00     0.00    0.00    0.00    0.00   0.00   0.00
md0               0.00     0.00 191062.00    0.00 764248.00     0.00     8.00     0.00    0.00    0.00    0.00   0.00   0.00

avg-cpu:  %user   %nice %system %iowait  %steal   %idle
           1.01    0.00   54.80    0.51    0.00   43.69

Device:         rrqm/s   wrqm/s     r/s     w/s    rkB/s    wkB/s avgrq-sz avgqu-sz   await r_await w_await  svctm  %util
sda               0.00     0.00 31032.00    0.00 124128.00     0.00     8.00    34.78    1.12    1.12    0.00   0.02  74.20
sdb               0.00     0.00 31396.00    0.00 125584.00     0.00     8.00    35.75    1.14    1.14    0.00   0.02  73.60
sdc               0.00     0.00 31479.00    0.00 125916.00     0.00     8.00    42.83    1.36    1.36    0.00   0.02  78.50
sdd               1.00     0.00 30920.00    0.00 123684.00     0.00     8.00    41.54    1.34    1.34    0.00   0.03  78.50
sde               0.00     0.00 31045.00    0.00 124180.00     0.00     8.00    41.76    1.35    1.35    0.00   0.03  77.90
sdf               0.00     0.00 30515.00    0.00 122060.00     0.00     8.00    40.92    1.34    1.34    0.00   0.03  77.60
sdg               0.00     0.00    0.00    0.00     0.00     0.00     0.00     0.00    0.00    0.00    0.00   0.00   0.00
sdh               0.00     0.00    0.00    0.00     0.00     0.00     0.00     0.00    0.00    0.00    0.00   0.00   0.00
md0               0.00     0.00 185852.00    0.00 743408.00     0.00     8.00     0.00    0.00    0.00    0.00   0.00   0.00

avg-cpu:  %user   %nice %system %iowait  %steal   %idle
           1.00    0.00   52.63    0.25    0.00   46.12

Device:         rrqm/s   wrqm/s     r/s     w/s    rkB/s    wkB/s avgrq-sz avgqu-sz   await r_await w_await  svctm  %util
sda               1.00     0.00 29166.00    0.00 116668.00     0.00     8.00    32.47    1.11    1.11    0.00   0.02  69.90
sdb               0.00     0.00 29026.00    0.00 116104.00     0.00     8.00    32.27    1.11    1.11    0.00   0.02  70.50
sdc               0.00     0.00 29177.00    0.00 116708.00     0.00     8.00    39.00    1.33    1.33    0.00   0.03  75.10
sdd               0.00     0.00 28958.00    0.00 115832.00     0.00     8.00    38.28    1.32    1.32    0.00   0.03  74.40
sde               0.00     0.00 29129.00    0.00 116516.00     0.00     8.00    38.54    1.32    1.32    0.00   0.03  75.70
sdf               0.00     0.00 28962.00    0.00 115848.00     0.00     8.00    38.46    1.33    1.33    0.00   0.03  74.40
sdg               0.00     0.00    0.00    0.00     0.00     0.00     0.00     0.00    0.00    0.00    0.00   0.00   0.00
sdh               0.00     0.00    0.00    0.00     0.00     0.00     0.00     0.00    0.00    0.00    0.00   0.00   0.00
md0               0.00     0.00 174900.00    0.00 699600.00     0.00     8.00     0.00    0.00    0.00    0.00   0.00   0.00

avg-cpu:  %user   %nice %system %iowait  %steal   %idle
           1.26    0.25   55.28    0.50    0.00   42.71

Device:         rrqm/s   wrqm/s     r/s     w/s    rkB/s    wkB/s avgrq-sz avgqu-sz   await r_await w_await  svctm  %util
sda               0.00     0.00 30891.00    0.00 123564.00     0.00     8.00    34.24    1.10    1.10    0.00   0.02  74.40
sdb               0.00     0.00 30861.00    0.00 123444.00     0.00     8.00    34.26    1.10    1.10    0.00   0.02  74.20
sdc               0.00     0.00 31084.00    0.00 124336.00     0.00     8.00    41.45    1.33    1.33    0.00   0.03  78.60
sdd               0.00     0.00 30571.00    0.00 122284.00     0.00     8.00    40.28    1.32    1.32    0.00   0.03  78.30
sde               0.00     0.00 30733.00    0.00 122932.00     0.00     8.00    40.69    1.32    1.32    0.00   0.03  79.50
sdf               1.00     0.00 30874.00    0.00 123500.00     0.00     8.00    41.26    1.33    1.33    0.00   0.03  79.20
sdg               0.00     0.00    5.00    0.00    20.00     0.00     8.00     0.00    0.20    0.20    0.00   0.20   0.10
sdh               0.00     0.00    0.00    0.00     0.00     0.00     0.00     0.00    0.00    0.00    0.00   0.00   0.00
md0               0.00     0.00 184891.00    0.00 739564.00     0.00     8.00     0.00    0.00    0.00    0.00   0.00   0.00

