Linux 4.17.2 (bench) 	08/03/2018 	_x86_64_	(4 CPU)

avg-cpu:  %user   %nice %system %iowait  %steal   %idle
          10.27    0.02    4.13    2.66    0.00   82.93

Device:         rrqm/s   wrqm/s     r/s     w/s    rkB/s    wkB/s avgrq-sz avgqu-sz   await r_await w_await  svctm  %util
sda              50.30     4.21 1694.96  101.78 21158.76  3114.14    27.02     1.04    0.58    0.26    5.92   0.06  10.90
sdb              50.13     4.17 1694.93  101.91 21148.25  3110.83    27.00     1.04    0.58    0.26    5.85   0.06  10.78
sdc              87.97     4.23 1655.00  101.47 21140.38  3113.28    27.62     1.46    0.83    0.45    7.12   0.08  14.25
sdd              81.45     4.20 1660.69  101.54 21125.32  3109.50    27.50     1.47    0.83    0.44    7.33   0.08  14.35
sde              83.46     4.25 1665.77  101.63 21184.87  3113.72    27.50     1.49    0.84    0.44    7.44   0.08  14.37
sdf              80.59     4.22 1667.90  101.58 21166.23  3110.60    27.44     1.53    0.87    0.44    7.90   0.08  14.40
sdg               0.00     3.17   26.56   73.29   324.97   392.02    14.36     0.44    4.41    0.20    5.93   0.08   0.78
sdh               0.00     0.13    0.02    0.23     2.19     5.03    56.82     0.00    1.15    0.65    1.19   0.21   0.01
md0               0.00     0.00 10480.26  476.85 144948.99 21315.90    30.35     0.00    0.00    0.00    0.00   0.00   0.00

avg-cpu:  %user   %nice %system %iowait  %steal   %idle
           0.51    0.00    3.05    8.91    0.00   87.53

Device:         rrqm/s   wrqm/s     r/s     w/s    rkB/s    wkB/s avgrq-sz avgqu-sz   await r_await w_await  svctm  %util
sda               0.00     0.00 1492.00    0.00  5968.00     0.00     8.00     0.14    0.09    0.09    0.00   0.09  13.60
sdb               0.00     0.00 1524.00    0.00  6096.00     0.00     8.00     0.16    0.11    0.11    0.00   0.11  16.20
sdc               0.00     0.00 1459.00    0.00  5836.00     0.00     8.00     0.16    0.11    0.11    0.00   0.11  16.30
sdd               0.00     0.00 1374.00    0.00  5496.00     0.00     8.00     0.13    0.10    0.10    0.00   0.10  13.30
sde               0.00     0.00 1472.00    0.00  5888.00     0.00     8.00     0.15    0.11    0.11    0.00   0.11  15.50
sdf               0.00     0.00 1508.00    0.00  6032.00     0.00     8.00     0.17    0.11    0.11    0.00   0.11  17.10
sdg               0.00    80.00    8.00 1424.00    32.00  7412.00    10.40     8.71    6.08    0.25    6.11   0.05   6.50
sdh               0.00     0.00    0.00    0.00     0.00     0.00     0.00     0.00    0.00    0.00    0.00   0.00   0.00
md0               0.00     0.00 8828.00    0.00 35312.00     0.00     8.00     0.00    0.00    0.00    0.00   0.00   0.00

