Linux 4.17.2 (bench) 	08/03/2018 	_x86_64_	(4 CPU)

avg-cpu:  %user   %nice %system %iowait  %steal   %idle
          10.25    0.02    4.17    2.74    0.00   82.82

Device:         rrqm/s   wrqm/s     r/s     w/s    rkB/s    wkB/s avgrq-sz avgqu-sz   await r_await w_await  svctm  %util
sda              53.44     4.18 1726.34  101.10 21351.00  3093.48    26.75     1.05    0.57    0.26    5.92   0.06  11.04
sdb              53.24     4.15 1726.34  101.24 21340.55  3090.19    26.74     1.05    0.57    0.26    5.85   0.06  10.92
sdc              90.98     4.20 1686.51  100.79 21332.76  3092.62    27.33     1.47    0.82    0.44    7.12   0.08  14.42
sdd              84.51     4.17 1692.16  100.86 21317.80  3088.87    27.22     1.47    0.82    0.43    7.33   0.08  14.51
sde              86.50     4.22 1697.24  100.96 21377.16  3093.06    27.22     1.49    0.83    0.44    7.44   0.08  14.53
sdf              83.65     4.19 1699.34  100.90 21358.64  3089.96    27.16     1.54    0.85    0.44    7.90   0.08  14.56
sdg               0.00     3.17   26.82   73.25   325.99   391.98    14.35     0.44    4.39    0.20    5.93   0.08   0.78
sdh               0.00     0.13    0.02    0.23     2.18     4.99    56.82     0.00    1.15    0.65    1.19   0.21   0.01
md0               0.00     0.00 10687.66  473.69 146343.13 21174.46    30.02     0.00    0.00    0.00    0.00   0.00   0.00

avg-cpu:  %user   %nice %system %iowait  %steal   %idle
           0.32    0.03    3.00   11.47    0.00   85.18

Device:         rrqm/s   wrqm/s     r/s     w/s    rkB/s    wkB/s avgrq-sz avgqu-sz   await r_await w_await  svctm  %util
sda              90.10     0.00  695.15    0.00 63997.60     0.00   184.13     0.35    0.50    0.50    0.00   0.34  23.66
sdb              90.15     0.00  681.45    0.00 64356.20     0.00   188.88     0.35    0.52    0.52    0.00   0.35  23.84
sdc              90.45     0.00  684.70    0.00 64257.80     0.00   187.70     0.55    0.80    0.80    0.00   0.50  34.50
sdd              89.55     0.00  681.65    0.00 64129.80     0.00   188.16     0.55    0.80    0.80    0.00   0.51  34.58
sde              88.80     0.00  699.30    0.00 64008.20     0.00   183.06     0.56    0.80    0.80    0.00   0.49  34.61
sdf              89.55     0.00  692.75    0.00 63978.20     0.00   184.71     0.56    0.81    0.81    0.00   0.50  34.41
sdg               0.00     3.30   74.30  119.20   332.00   598.00     9.61     0.75    3.86    0.13    6.18   0.07   1.41
sdh               0.00     0.00    0.00    0.00     0.00     0.00     0.00     0.00    0.00    0.00    0.00   0.00   0.00
md0               0.00     0.00 4673.75    0.00 542279.00     0.00   232.05     0.00    0.00    0.00    0.00   0.00   0.00

