Linux 4.17.2 (bench) 	08/03/2018 	_x86_64_	(4 CPU)

avg-cpu:  %user   %nice %system %iowait  %steal   %idle
          10.26    0.02    4.17    2.73    0.00   82.83

Device:         rrqm/s   wrqm/s     r/s     w/s    rkB/s    wkB/s avgrq-sz avgqu-sz   await r_await w_await  svctm  %util
sda              53.45     4.19 1722.92  101.18 21327.07  3095.99    26.78     1.05    0.57    0.26    5.92   0.06  11.03
sdb              53.25     4.15 1722.92  101.32 21316.62  3092.69    26.76     1.05    0.57    0.26    5.85   0.06  10.90
sdc              91.02     4.21 1683.06  100.87 21308.80  3095.12    27.36     1.47    0.82    0.44    7.12   0.08  14.40
sdd              84.54     4.18 1688.72  100.94 21293.83  3091.37    27.25     1.47    0.82    0.43    7.33   0.08  14.49
sde              86.54     4.22 1693.80  101.04 21353.21  3095.56    27.24     1.49    0.83    0.44    7.44   0.08  14.51
sdf              83.69     4.19 1695.91  100.98 21334.68  3092.47    27.19     1.54    0.86    0.44    7.90   0.08  14.54
sdg               0.00     3.17   26.79   73.26   325.88   391.99    14.35     0.44    4.40    0.20    5.93   0.08   0.78
sdh               0.00     0.13    0.02    0.23     2.18     5.00    56.82     0.00    1.15    0.65    1.19   0.21   0.01
md0               0.00     0.00 10667.24  474.07 146160.00 21191.62    30.04     0.00    0.00    0.00    0.00   0.00   0.00

avg-cpu:  %user   %nice %system %iowait  %steal   %idle
           0.62    0.03    5.45    2.48    0.00   91.43

Device:         rrqm/s   wrqm/s     r/s     w/s    rkB/s    wkB/s avgrq-sz avgqu-sz   await r_await w_await  svctm  %util
sda               0.00     0.00 5331.00    0.00 21324.00     0.00     8.00     0.63    0.12    0.12    0.00   0.03  17.49
sdb               0.00     0.00 5316.85    0.00 21267.40     0.00     8.00     0.61    0.11    0.11    0.00   0.03  17.24
sdc               0.00     0.00 5330.80    0.00 21323.20     0.00     8.00     0.71    0.13    0.13    0.00   0.04  19.80
sdd               0.00     0.00 5323.10    0.00 21292.40     0.00     8.00     0.73    0.14    0.14    0.00   0.04  20.11
sde               0.00     0.00 5318.45    0.00 21273.80     0.00     8.00     0.74    0.14    0.14    0.00   0.04  19.99
sdf               0.00     0.00 5293.95    0.00 21175.80     0.00     8.00     0.71    0.13    0.13    0.00   0.04  19.66
sdg               0.00     3.30   69.90   72.70   312.00   381.40     9.73     0.44    3.12    0.13    5.99   0.08   1.16
sdh               0.00     0.00    0.00    0.00     0.00     0.00     0.00     0.00    0.00    0.00    0.00   0.00   0.00
md0               0.00     0.00 31914.55    0.00 127658.20     0.00     8.00     0.00    0.00    0.00    0.00   0.00   0.00

