Linux 4.17.2 (bench) 	08/03/2018 	_x86_64_	(4 CPU)

avg-cpu:  %user   %nice %system %iowait  %steal   %idle
          10.26    0.02    4.16    2.70    0.00   82.87

Device:         rrqm/s   wrqm/s     r/s     w/s    rkB/s    wkB/s avgrq-sz avgqu-sz   await r_await w_await  svctm  %util
sda              52.35     4.20 1714.25  101.38 21303.52  3102.06    26.88     1.05    0.58    0.26    5.92   0.06  10.99
sdb              52.16     4.16 1714.24  101.52 21293.02  3098.76    26.87     1.05    0.58    0.26    5.85   0.06  10.86
sdc              90.00     4.22 1674.30  101.07 21285.20  3101.19    27.47     1.47    0.83    0.45    7.12   0.08  14.36
sdd              83.51     4.18 1679.97  101.14 21270.20  3097.43    27.36     1.47    0.83    0.44    7.33   0.08  14.45
sde              85.51     4.23 1685.06  101.24 21329.63  3101.63    27.35     1.49    0.84    0.44    7.44   0.08  14.47
sdf              82.66     4.20 1687.17  101.18 21311.06  3098.53    27.30     1.54    0.86    0.44    7.90   0.08  14.51
sdg               0.00     3.17   26.74   73.28   325.73   392.05    14.35     0.44    4.40    0.20    5.93   0.08   0.78
sdh               0.00     0.13    0.02    0.23     2.19     5.01    56.82     0.00    1.15    0.65    1.19   0.21   0.01
md0               0.00     0.00 10608.59  475.00 146024.03 21233.18    30.18     0.00    0.00    0.00    0.00   0.00   0.00

avg-cpu:  %user   %nice %system %iowait  %steal   %idle
           3.81    0.00   22.59   54.57    0.00   19.04

Device:         rrqm/s   wrqm/s     r/s     w/s    rkB/s    wkB/s avgrq-sz avgqu-sz   await r_await w_await  svctm  %util
sda               0.00     0.00 13730.00    0.00 54920.00     0.00     8.00     1.65    0.12    0.12    0.00   0.05  65.30
sdb               0.00     0.00 13590.00    0.00 54360.00     0.00     8.00     1.63    0.12    0.12    0.00   0.05  65.60
sdc               0.00     0.00 13732.00    0.00 54928.00     0.00     8.00     1.81    0.13    0.13    0.00   0.05  70.60
sdd               0.00     0.00 13872.00    0.00 55488.00     0.00     8.00     1.83    0.13    0.13    0.00   0.05  72.40
sde               0.00     0.00 14062.00    0.00 56248.00     0.00     8.00     1.88    0.13    0.13    0.00   0.05  72.40
sdf               0.00     0.00 13754.00    0.00 55016.00     0.00     8.00     1.78    0.13    0.13    0.00   0.05  71.80
sdg               0.00    18.00    3.00   68.00    60.00  1252.00    36.96     0.21    2.90    1.00    2.99   0.08   0.60
sdh               0.00     0.00    0.00    0.00     0.00     0.00     0.00     0.00    0.00    0.00    0.00   0.00   0.00
md0               0.00     0.00 82740.00    0.00 330960.00     0.00     8.00     0.00    0.00    0.00    0.00   0.00   0.00

avg-cpu:  %user   %nice %system %iowait  %steal   %idle
           3.33    0.00   22.56   55.38    0.00   18.72

Device:         rrqm/s   wrqm/s     r/s     w/s    rkB/s    wkB/s avgrq-sz avgqu-sz   await r_await w_await  svctm  %util
sda               0.00     0.00 13775.00    0.00 55100.00     0.00     8.00     1.65    0.12    0.12    0.00   0.05  66.40
sdb               0.00     0.00 13963.00    0.00 55852.00     0.00     8.00     1.59    0.11    0.11    0.00   0.05  65.30
sdc               0.00     0.00 13731.00    0.00 54924.00     0.00     8.00     1.82    0.13    0.13    0.00   0.05  69.50
sdd               0.00     0.00 13671.00    0.00 54684.00     0.00     8.00     1.79    0.13    0.13    0.00   0.05  71.40
sde               0.00     0.00 13933.00    0.00 55732.00     0.00     8.00     1.84    0.13    0.13    0.00   0.05  72.00
sdf               0.00     0.00 14018.00    0.00 56072.00     0.00     8.00     1.88    0.13    0.13    0.00   0.05  72.10
sdg               0.00     0.00    0.00    0.00     0.00     0.00     0.00     0.00    0.00    0.00    0.00   0.00   0.00
sdh               0.00     0.00    0.00    0.00     0.00     0.00     0.00     0.00    0.00    0.00    0.00   0.00   0.00
md0               0.00     0.00 83103.00    0.00 332412.00     0.00     8.00     0.00    0.00    0.00    0.00   0.00   0.00

avg-cpu:  %user   %nice %system %iowait  %steal   %idle
           3.56    0.00   22.90   55.22    0.00   18.32

Device:         rrqm/s   wrqm/s     r/s     w/s    rkB/s    wkB/s avgrq-sz avgqu-sz   await r_await w_await  svctm  %util
sda               0.00     0.00 13801.00    0.00 55204.00     0.00     8.00     1.61    0.12    0.12    0.00   0.05  68.10
sdb               0.00     0.00 14015.00    0.00 56060.00     0.00     8.00     1.61    0.12    0.12    0.00   0.05  66.30
sdc               0.00     0.00 14046.00    0.00 56184.00     0.00     8.00     1.87    0.13    0.13    0.00   0.05  71.30
sdd               0.00     0.00 13868.00    0.00 55472.00     0.00     8.00     1.82    0.13    0.13    0.00   0.05  72.70
sde               0.00     0.00 13709.00    0.00 54836.00     0.00     8.00     1.74    0.13    0.13    0.00   0.05  71.10
sdf               0.00     0.00 14126.00    0.00 56504.00     0.00     8.00     1.84    0.13    0.13    0.00   0.05  73.10
sdg               0.00     0.00    3.00   18.00    48.00   120.00    16.00     0.01    0.62    0.00    0.72   0.05   0.10
sdh               0.00     0.00    0.00    0.00     0.00     0.00     0.00     0.00    0.00    0.00    0.00   0.00   0.00
md0               0.00     0.00 83569.00    0.00 334276.00     0.00     8.00     0.00    0.00    0.00    0.00   0.00   0.00

avg-cpu:  %user   %nice %system %iowait  %steal   %idle
           3.58    0.00   22.25   56.27    0.00   17.90

Device:         rrqm/s   wrqm/s     r/s     w/s    rkB/s    wkB/s avgrq-sz avgqu-sz   await r_await w_await  svctm  %util
sda               0.00     0.00 13991.00    0.00 55964.00     0.00     8.00     1.72    0.12    0.12    0.00   0.05  67.50
sdb               0.00     0.00 14093.00    0.00 56372.00     0.00     8.00     1.64    0.12    0.12    0.00   0.05  68.40
sdc               0.00     0.00 14129.00    0.00 56516.00     0.00     8.00     1.92    0.14    0.14    0.00   0.05  73.40
sdd               0.00     0.00 13975.00    0.00 55900.00     0.00     8.00     1.85    0.13    0.13    0.00   0.05  72.40
sde               0.00     0.00 13826.00    0.00 55304.00     0.00     8.00     1.85    0.13    0.13    0.00   0.05  72.30
sdf               0.00     0.00 13771.00    0.00 55084.00     0.00     8.00     1.83    0.13    0.13    0.00   0.05  73.60
sdg               0.00     0.00    0.00    0.00     0.00     0.00     0.00     0.00    0.00    0.00    0.00   0.00   0.00
sdh               0.00     0.00    0.00    0.00     0.00     0.00     0.00     0.00    0.00    0.00    0.00   0.00   0.00
md0               0.00     0.00 83791.00    0.00 335164.00     0.00     8.00     0.00    0.00    0.00    0.00   0.00   0.00

avg-cpu:  %user   %nice %system %iowait  %steal   %idle
           3.59    0.00   22.31   56.67    0.00   17.44

Device:         rrqm/s   wrqm/s     r/s     w/s    rkB/s    wkB/s avgrq-sz avgqu-sz   await r_await w_await  svctm  %util
sda               0.00     0.00 13922.00    0.00 55688.00     0.00     8.00     1.65    0.12    0.12    0.00   0.05  67.00
sdb               0.00     0.00 13797.00    0.00 55188.00     0.00     8.00     1.70    0.12    0.12    0.00   0.05  69.60
sdc               0.00     0.00 13930.00    0.00 55720.00     0.00     8.00     1.90    0.14    0.14    0.00   0.05  73.70
sdd               0.00     0.00 14013.00    0.00 56052.00     0.00     8.00     1.86    0.13    0.13    0.00   0.05  72.80
sde               0.00     0.00 14017.00    0.00 56068.00     0.00     8.00     1.91    0.14    0.14    0.00   0.05  73.50
sdf               0.00     0.00 14056.00    0.00 56224.00     0.00     8.00     1.84    0.13    0.13    0.00   0.05  72.10
sdg               0.00     0.00    0.00    0.00     0.00     0.00     0.00     0.00    0.00    0.00    0.00   0.00   0.00
sdh               0.00     0.00    0.00    0.00     0.00     0.00     0.00     0.00    0.00    0.00    0.00   0.00   0.00
md0               0.00     0.00 83742.00    0.00 334968.00     0.00     8.00     0.00    0.00    0.00    0.00   0.00   0.00

avg-cpu:  %user   %nice %system %iowait  %steal   %idle
           3.31    0.00   22.65   56.49    0.00   17.56

Device:         rrqm/s   wrqm/s     r/s     w/s    rkB/s    wkB/s avgrq-sz avgqu-sz   await r_await w_await  svctm  %util
sda               0.00     0.00 14058.00    0.00 56232.00     0.00     8.00     1.69    0.12    0.12    0.00   0.05  67.40
sdb               0.00     0.00 13989.00    0.00 55956.00     0.00     8.00     1.60    0.11    0.11    0.00   0.05  66.80
sdc               0.00     0.00 13928.00    0.00 55712.00     0.00     8.00     1.91    0.14    0.14    0.00   0.05  72.60
sdd               0.00     0.00 13856.00    0.00 55424.00     0.00     8.00     1.89    0.14    0.14    0.00   0.05  73.70
sde               0.00     0.00 14145.00    0.00 56580.00     0.00     8.00     1.78    0.13    0.13    0.00   0.05  73.70
sdf               0.00     0.00 13952.00    0.00 55808.00     0.00     8.00     1.88    0.13    0.13    0.00   0.05  72.50
sdg               0.00     0.00    0.00    0.00     0.00     0.00     0.00     0.00    0.00    0.00    0.00   0.00   0.00
sdh               0.00     0.00    0.00    0.00     0.00     0.00     0.00     0.00    0.00    0.00    0.00   0.00   0.00
md0               0.00     0.00 83907.00    0.00 335628.00     0.00     8.00     0.00    0.00    0.00    0.00   0.00   0.00

avg-cpu:  %user   %nice %system %iowait  %steal   %idle
           3.32    0.00   22.45   56.89    0.00   17.35

Device:         rrqm/s   wrqm/s     r/s     w/s    rkB/s    wkB/s avgrq-sz avgqu-sz   await r_await w_await  svctm  %util
sda               0.00     0.00 13653.00    0.00 54612.00     0.00     8.00     1.63    0.12    0.12    0.00   0.05  68.30
sdb               0.00     0.00 14098.00    0.00 56392.00     0.00     8.00     1.69    0.12    0.12    0.00   0.05  67.90
sdc               0.00     0.00 13843.00    0.00 55372.00     0.00     8.00     1.90    0.14    0.14    0.00   0.05  73.20
sdd               0.00     0.00 14034.00    0.00 56136.00     0.00     8.00     1.94    0.14    0.14    0.00   0.05  75.40
sde               0.00     0.00 14063.00    0.00 56252.00     0.00     8.00     1.91    0.14    0.14    0.00   0.05  73.50
sdf               0.00     0.00 13787.00    0.00 55148.00     0.00     8.00     1.83    0.13    0.13    0.00   0.05  71.80
sdg               0.00     0.00    0.00    0.00     0.00     0.00     0.00     0.00    0.00    0.00    0.00   0.00   0.00
sdh               0.00     0.00    0.00    0.00     0.00     0.00     0.00     0.00    0.00    0.00    0.00   0.00   0.00
md0               0.00     0.00 83486.00    0.00 333944.00     0.00     8.00     0.00    0.00    0.00    0.00   0.00   0.00

avg-cpu:  %user   %nice %system %iowait  %steal   %idle
           3.03    0.00   23.74   55.81    0.00   17.42

Device:         rrqm/s   wrqm/s     r/s     w/s    rkB/s    wkB/s avgrq-sz avgqu-sz   await r_await w_await  svctm  %util
sda               0.00     0.00 14167.00    0.00 56668.00     0.00     8.00     1.72    0.12    0.12    0.00   0.05  71.40
sdb               0.00     0.00 13882.00    0.00 55528.00     0.00     8.00     1.67    0.12    0.12    0.00   0.05  70.10
sdc               0.00     0.00 14006.00    0.00 56024.00     0.00     8.00     1.92    0.14    0.14    0.00   0.05  74.20
sdd               0.00     0.00 14291.00    0.00 57164.00     0.00     8.00     1.97    0.14    0.14    0.00   0.05  75.40
sde               0.00     0.00 13668.00    0.00 54672.00     0.00     8.00     1.84    0.13    0.13    0.00   0.05  72.90
sdf               0.00     0.00 14036.00    0.00 56144.00     0.00     8.00     1.88    0.13    0.13    0.00   0.05  72.20
sdg               0.00     0.00    0.00    0.00     0.00     0.00     0.00     0.00    0.00    0.00    0.00   0.00   0.00
sdh               0.00     0.00    0.00    0.00     0.00     0.00     0.00     0.00    0.00    0.00    0.00   0.00   0.00
md0               0.00     0.00 84034.00    0.00 336136.00     0.00     8.00     0.00    0.00    0.00    0.00   0.00   0.00

avg-cpu:  %user   %nice %system %iowait  %steal   %idle
           3.59    0.00   22.05   55.90    0.00   18.46

Device:         rrqm/s   wrqm/s     r/s     w/s    rkB/s    wkB/s avgrq-sz avgqu-sz   await r_await w_await  svctm  %util
sda               0.00     0.00 13783.00    0.00 55132.00     0.00     8.00     1.66    0.12    0.12    0.00   0.05  68.20
sdb               0.00     0.00 14019.00    0.00 56076.00     0.00     8.00     1.60    0.11    0.11    0.00   0.05  65.70
sdc               0.00     0.00 13719.00    0.00 54876.00     0.00     8.00     1.83    0.13    0.13    0.00   0.05  70.80
sdd               0.00     0.00 13779.00    0.00 55116.00     0.00     8.00     1.88    0.14    0.14    0.00   0.05  73.70
sde               0.00     0.00 13958.00    0.00 55832.00     0.00     8.00     1.88    0.13    0.13    0.00   0.05  71.90
sdf               0.00     0.00 13933.00    0.00 55732.00     0.00     8.00     1.85    0.13    0.13    0.00   0.05  71.80
sdg               0.00     0.00    0.00    0.00     0.00     0.00     0.00     0.00    0.00    0.00    0.00   0.00   0.00
sdh               0.00     0.00    0.00    0.00     0.00     0.00     0.00     0.00    0.00    0.00    0.00   0.00   0.00
md0               0.00     0.00 83214.00    0.00 332856.00     0.00     8.00     0.00    0.00    0.00    0.00   0.00   0.00

avg-cpu:  %user   %nice %system %iowait  %steal   %idle
           3.58    0.26   22.76   55.24    0.00   18.16

Device:         rrqm/s   wrqm/s     r/s     w/s    rkB/s    wkB/s avgrq-sz avgqu-sz   await r_await w_await  svctm  %util
sda               0.00     0.00 13819.00    0.00 55276.00     0.00     8.00     1.62    0.12    0.12    0.00   0.05  65.80
sdb               0.00     0.00 13658.00    0.00 54632.00     0.00     8.00     1.61    0.12    0.12    0.00   0.05  67.70
sdc               0.00     0.00 13648.00    0.00 54592.00     0.00     8.00     1.78    0.13    0.13    0.00   0.05  69.50
sdd               0.00     0.00 13626.00    0.00 54504.00     0.00     8.00     1.76    0.13    0.13    0.00   0.05  70.60
sde               0.00     0.00 13805.00    0.00 55220.00     0.00     8.00     1.79    0.13    0.13    0.00   0.05  71.20
sdf               0.00     0.00 13718.00    0.00 54872.00     0.00     8.00     1.80    0.13    0.13    0.00   0.05  71.50
sdg               0.00    62.00   20.00 2568.00   128.00 12700.00     9.91    15.52    6.00    0.05    6.04   0.04  11.30
sdh               0.00     0.00    0.00    0.00     0.00     0.00     0.00     0.00    0.00    0.00    0.00   0.00   0.00
md0               0.00     0.00 82256.00    0.00 329024.00     0.00     8.00     0.00    0.00    0.00    0.00   0.00   0.00

avg-cpu:  %user   %nice %system %iowait  %steal   %idle
           3.75    0.00   23.75   54.75    0.00   17.75

Device:         rrqm/s   wrqm/s     r/s     w/s    rkB/s    wkB/s avgrq-sz avgqu-sz   await r_await w_await  svctm  %util
sda               0.00     0.00 13995.00    0.00 55980.00     0.00     8.00     1.63    0.12    0.12    0.00   0.05  66.00
sdb               0.00     0.00 14006.00    0.00 56024.00     0.00     8.00     1.52    0.11    0.11    0.00   0.05  63.90
sdc               0.00     0.00 13690.00    0.00 54760.00     0.00     8.00     1.81    0.13    0.13    0.00   0.05  71.70
sdd               0.00     0.00 13825.00    0.00 55300.00     0.00     8.00     1.81    0.13    0.13    0.00   0.05  70.50
sde               0.00     0.00 13864.00    0.00 55456.00     0.00     8.00     1.79    0.13    0.13    0.00   0.05  69.70
sdf               0.00     0.00 13923.00    0.00 55696.00     0.00     8.00     1.85    0.13    0.13    0.00   0.05  70.60
sdg               0.00     0.00    0.00    0.00     0.00     0.00     0.00     0.00    0.00    0.00    0.00   0.00   0.00
sdh               0.00     0.00    0.00    0.00     0.00     0.00     0.00     0.00    0.00    0.00    0.00   0.00   0.00
md0               0.00     0.00 83322.00    0.00 333288.00     0.00     8.00     0.00    0.00    0.00    0.00   0.00   0.00

avg-cpu:  %user   %nice %system %iowait  %steal   %idle
           3.49    0.00   24.19   55.11    0.00   17.21

Device:         rrqm/s   wrqm/s     r/s     w/s    rkB/s    wkB/s avgrq-sz avgqu-sz   await r_await w_await  svctm  %util
sda               0.00     0.00 14163.00    0.00 56652.00     0.00     8.00     1.67    0.12    0.12    0.00   0.05  68.10
sdb               0.00     0.00 14283.00    0.00 57132.00     0.00     8.00     1.62    0.11    0.11    0.00   0.05  67.60
sdc               0.00     0.00 13860.00    0.00 55440.00     0.00     8.00     1.80    0.13    0.13    0.00   0.05  70.40
sdd               0.00     0.00 13799.00    0.00 55196.00     0.00     8.00     1.80    0.13    0.13    0.00   0.05  72.00
sde               0.00     0.00 13786.00    0.00 55144.00     0.00     8.00     1.82    0.13    0.13    0.00   0.05  71.90
sdf               0.00     0.00 13981.00    0.00 55920.00     0.00     8.00     1.86    0.13    0.13    0.00   0.05  73.70
sdg               0.00     0.00    0.00    0.00     0.00     0.00     0.00     0.00    0.00    0.00    0.00   0.00   0.00
sdh               0.00     0.00    0.00    0.00     0.00     0.00     0.00     0.00    0.00    0.00    0.00   0.00   0.00
md0               0.00     0.00 83872.00    0.00 335488.00     0.00     8.00     0.00    0.00    0.00    0.00   0.00   0.00

avg-cpu:  %user   %nice %system %iowait  %steal   %idle
           3.61    0.00   21.39   56.96    0.00   18.04

Device:         rrqm/s   wrqm/s     r/s     w/s    rkB/s    wkB/s avgrq-sz avgqu-sz   await r_await w_await  svctm  %util
sda               0.00     0.00 14021.00    0.00 56084.00     0.00     8.00     1.71    0.12    0.12    0.00   0.05  68.70
sdb               0.00     0.00 13907.00    0.00 55628.00     0.00     8.00     1.65    0.12    0.12    0.00   0.05  67.80
sdc               0.00     0.00 14062.00    0.00 56248.00     0.00     8.00     1.86    0.13    0.13    0.00   0.05  70.90
sdd               0.00     0.00 13797.00    0.00 55188.00     0.00     8.00     1.86    0.14    0.14    0.00   0.05  73.20
sde               0.00     0.00 13659.00    0.00 54636.00     0.00     8.00     1.86    0.14    0.14    0.00   0.05  72.80
sdf               0.00     0.00 13946.00    0.00 55784.00     0.00     8.00     1.82    0.13    0.13    0.00   0.05  72.80
sdg               0.00     0.00    0.00    0.00     0.00     0.00     0.00     0.00    0.00    0.00    0.00   0.00   0.00
sdh               0.00     0.00    0.00    0.00     0.00     0.00     0.00     0.00    0.00    0.00    0.00   0.00   0.00
md0               0.00     0.00 83385.00    0.00 333540.00     0.00     8.00     0.00    0.00    0.00    0.00   0.00   0.00

avg-cpu:  %user   %nice %system %iowait  %steal   %idle
           3.02    0.00   24.18   55.16    0.00   17.63

Device:         rrqm/s   wrqm/s     r/s     w/s    rkB/s    wkB/s avgrq-sz avgqu-sz   await r_await w_await  svctm  %util
sda               0.00     0.00 13734.00    0.00 54936.00     0.00     8.00     1.64    0.12    0.12    0.00   0.05  68.00
sdb               0.00     0.00 14018.00    0.00 56072.00     0.00     8.00     1.65    0.12    0.12    0.00   0.05  68.80
sdc               0.00     0.00 13914.00    0.00 55656.00     0.00     8.00     1.83    0.13    0.13    0.00   0.05  72.30
sdd               0.00     0.00 14009.00    0.00 56036.00     0.00     8.00     1.84    0.13    0.13    0.00   0.05  73.40
sde               0.00     0.00 14059.00    0.00 56240.00     0.00     8.00     1.91    0.14    0.14    0.00   0.05  74.00
sdf               0.00     0.00 13810.00    0.00 55240.00     0.00     8.00     1.84    0.13    0.13    0.00   0.05  73.30
sdg               0.00     0.00   16.00    0.00   308.00     0.00    38.50     0.00    0.12    0.12    0.00   0.12   0.20
sdh               0.00     0.00    0.00    0.00     0.00     0.00     0.00     0.00    0.00    0.00    0.00   0.00   0.00
md0               0.00     0.00 83533.00    0.00 334132.00     0.00     8.00     0.00    0.00    0.00    0.00   0.00   0.00

avg-cpu:  %user   %nice %system %iowait  %steal   %idle
           3.59    0.00   22.31   56.41    0.00   17.69

Device:         rrqm/s   wrqm/s     r/s     w/s    rkB/s    wkB/s avgrq-sz avgqu-sz   await r_await w_await  svctm  %util
sda               0.00     0.00 14090.00    0.00 56360.00     0.00     8.00     1.64    0.12    0.12    0.00   0.05  68.00
sdb               0.00     0.00 14160.00    0.00 56640.00     0.00     8.00     1.70    0.12    0.12    0.00   0.05  67.30
sdc               0.00     0.00 13859.00    0.00 55436.00     0.00     8.00     1.87    0.14    0.14    0.00   0.05  72.00
sdd               0.00     0.00 13962.00    0.00 55848.00     0.00     8.00     1.88    0.13    0.13    0.00   0.05  72.60
sde               0.00     0.00 13888.00    0.00 55548.00     0.00     8.00     1.84    0.13    0.13    0.00   0.05  73.80
sdf               0.00     0.00 13446.00    0.00 53784.00     0.00     8.00     1.79    0.13    0.13    0.00   0.05  71.30
sdg               0.00     1.00    2.00    2.00     8.00    36.00    22.00     0.00    0.00    0.00    0.00   0.00   0.00
sdh               0.00     0.00    0.00    0.00     0.00     0.00     0.00     0.00    0.00    0.00    0.00   0.00   0.00
md0               0.00     0.00 83420.00    0.00 333680.00     0.00     8.00     0.00    0.00    0.00    0.00   0.00   0.00

avg-cpu:  %user   %nice %system %iowait  %steal   %idle
           3.77    0.00   23.37   55.78    0.00   17.09

Device:         rrqm/s   wrqm/s     r/s     w/s    rkB/s    wkB/s avgrq-sz avgqu-sz   await r_await w_await  svctm  %util
sda               0.00     0.00 14043.00    0.00 56172.00     0.00     8.00     1.68    0.12    0.12    0.00   0.05  66.90
sdb               0.00     0.00 13968.00    0.00 55872.00     0.00     8.00     1.64    0.12    0.12    0.00   0.05  66.90
sdc               0.00     0.00 13858.00    0.00 55432.00     0.00     8.00     1.86    0.13    0.13    0.00   0.05  71.10
sdd               0.00     0.00 13844.00    0.00 55376.00     0.00     8.00     1.86    0.13    0.13    0.00   0.05  73.40
sde               0.00     0.00 13899.00    0.00 55596.00     0.00     8.00     1.86    0.13    0.13    0.00   0.05  73.20
sdf               0.00     0.00 13999.00    0.00 55996.00     0.00     8.00     1.83    0.13    0.13    0.00   0.05  73.30
sdg               0.00     0.00    0.00    0.00     0.00     0.00     0.00     0.00    0.00    0.00    0.00   0.00   0.00
sdh               0.00     0.00    0.00    0.00     0.00     0.00     0.00     0.00    0.00    0.00    0.00   0.00   0.00
md0               0.00     0.00 83590.00    0.00 334360.00     0.00     8.00     0.00    0.00    0.00    0.00   0.00   0.00

avg-cpu:  %user   %nice %system %iowait  %steal   %idle
           3.33    0.00   22.05   56.67    0.00   17.95

Device:         rrqm/s   wrqm/s     r/s     w/s    rkB/s    wkB/s avgrq-sz avgqu-sz   await r_await w_await  svctm  %util
sda               0.00     0.00 13762.00    0.00 55048.00     0.00     8.00     1.70    0.12    0.12    0.00   0.05  68.30
sdb               0.00     0.00 13786.00    0.00 55144.00     0.00     8.00     1.63    0.12    0.12    0.00   0.05  67.70
sdc               0.00     0.00 14011.00    0.00 56044.00     0.00     8.00     1.91    0.14    0.14    0.00   0.05  73.00
sdd               0.00     0.00 13900.00    0.00 55600.00     0.00     8.00     1.80    0.13    0.13    0.00   0.05  71.30
sde               0.00     0.00 14111.00    0.00 56444.00     0.00     8.00     1.84    0.13    0.13    0.00   0.05  72.00
sdf               0.00     0.00 13732.00    0.00 54928.00     0.00     8.00     1.84    0.13    0.13    0.00   0.05  73.40
sdg               0.00     0.00    0.00    0.00     0.00     0.00     0.00     0.00    0.00    0.00    0.00   0.00   0.00
sdh               0.00     0.00    0.00    0.00     0.00     0.00     0.00     0.00    0.00    0.00    0.00   0.00   0.00
md0               0.00     0.00 83322.00    0.00 333288.00     0.00     8.00     0.00    0.00    0.00    0.00   0.00   0.00

avg-cpu:  %user   %nice %system %iowait  %steal   %idle
           3.79    0.00   23.23   55.56    0.00   17.42

Device:         rrqm/s   wrqm/s     r/s     w/s    rkB/s    wkB/s avgrq-sz avgqu-sz   await r_await w_await  svctm  %util
sda               0.00     0.00 13989.00    0.00 55956.00     0.00     8.00     1.65    0.12    0.12    0.00   0.05  67.40
sdb               0.00     0.00 13761.00    0.00 55044.00     0.00     8.00     1.60    0.12    0.12    0.00   0.05  66.70
sdc               0.00     0.00 13872.00    0.00 55488.00     0.00     8.00     1.90    0.14    0.14    0.00   0.05  72.60
sdd               0.00     0.00 14024.00    0.00 56096.00     0.00     8.00     1.86    0.13    0.13    0.00   0.05  72.10
sde               0.00     0.00 13938.00    0.00 55752.00     0.00     8.00     1.95    0.14    0.14    0.00   0.05  73.30
sdf               0.00     0.00 13850.00    0.00 55400.00     0.00     8.00     1.80    0.13    0.13    0.00   0.05  72.80
sdg               0.00     0.00    0.00    0.00     0.00     0.00     0.00     0.00    0.00    0.00    0.00   0.00   0.00
sdh               0.00     0.00    0.00    0.00     0.00     0.00     0.00     0.00    0.00    0.00    0.00   0.00   0.00
md0               0.00     0.00 83428.00    0.00 333712.00     0.00     8.00     0.00    0.00    0.00    0.00   0.00   0.00

avg-cpu:  %user   %nice %system %iowait  %steal   %idle
           3.88    0.00   21.19   56.59    0.00   18.35

Device:         rrqm/s   wrqm/s     r/s     w/s    rkB/s    wkB/s avgrq-sz avgqu-sz   await r_await w_await  svctm  %util
sda               0.00     0.00 13871.00    0.00 55484.00     0.00     8.00     1.64    0.12    0.12    0.00   0.05  67.20
sdb               0.00     0.00 13697.00    0.00 54788.00     0.00     8.00     1.66    0.12    0.12    0.00   0.05  64.50
sdc               0.00     0.00 13984.00    0.00 55936.00     0.00     8.00     1.90    0.14    0.14    0.00   0.05  68.90
sdd               0.00     0.00 13901.00    0.00 55604.00     0.00     8.00     1.82    0.13    0.13    0.00   0.05  70.80
sde               0.00     0.00 13947.00    0.00 55788.00     0.00     8.00     1.79    0.13    0.13    0.00   0.05  71.20
sdf               0.00     0.00 14013.00    0.00 56052.00     0.00     8.00     1.79    0.13    0.13    0.00   0.05  71.20
sdg               0.00     0.00    0.00    0.00     0.00     0.00     0.00     0.00    0.00    0.00    0.00   0.00   0.00
sdh               0.00     0.00    0.00    0.00     0.00     0.00     0.00     0.00    0.00    0.00    0.00   0.00   0.00
md0               0.00     0.00 83420.00    0.00 333680.00     0.00     8.00     0.00    0.00    0.00    0.00   0.00   0.00

avg-cpu:  %user   %nice %system %iowait  %steal   %idle
           3.38    0.00   22.60   56.88    0.00   17.14

Device:         rrqm/s   wrqm/s     r/s     w/s    rkB/s    wkB/s avgrq-sz avgqu-sz   await r_await w_await  svctm  %util
sda               0.00     0.00 13919.00    0.00 55676.00     0.00     8.00     1.70    0.12    0.12    0.00   0.05  68.70
sdb               0.00     0.00 13624.00    0.00 54496.00     0.00     8.00     1.63    0.12    0.12    0.00   0.05  68.30
sdc               0.00     0.00 13808.00    0.00 55232.00     0.00     8.00     1.87    0.14    0.14    0.00   0.05  72.00
sdd               0.00     0.00 13907.00    0.00 55628.00     0.00     8.00     1.82    0.13    0.13    0.00   0.05  71.80
sde               0.00     0.00 13799.00    0.00 55196.00     0.00     8.00     1.90    0.14    0.14    0.00   0.05  74.20
sdf               0.00     0.00 13904.00    0.00 55616.00     0.00     8.00     1.85    0.13    0.13    0.00   0.05  71.90
sdg               0.00     0.00 1326.00    0.00  5304.00     0.00     8.00     0.16    0.12    0.12    0.00   0.12  15.70
sdh               0.00     0.00    0.00    0.00     0.00     0.00     0.00     0.00    0.00    0.00    0.00   0.00   0.00
md0               0.00     0.00 82949.00    0.00 331796.00     0.00     8.00     0.00    0.00    0.00    0.00   0.00   0.00

