Linux 4.17.2 (bench) 	08/03/2018 	_x86_64_	(4 CPU)

avg-cpu:  %user   %nice %system %iowait  %steal   %idle
          10.27    0.02    4.11    2.62    0.00   82.98

Device:         rrqm/s   wrqm/s     r/s     w/s    rkB/s    wkB/s avgrq-sz avgqu-sz   await r_await w_await  svctm  %util
sda              47.37     4.22 1681.38  102.03 21097.44  3121.88    27.16     1.04    0.58    0.26    5.92   0.06  10.84
sdb              47.22     4.18 1681.33  102.17 21086.92  3118.55    27.14     1.04    0.58    0.26    5.85   0.06  10.72
sdc              85.04     4.24 1641.42  101.72 21079.06  3121.01    27.77     1.46    0.84    0.45    7.12   0.08  14.19
sdd              78.50     4.21 1647.13  101.79 21063.97  3117.22    27.65     1.46    0.84    0.44    7.33   0.08  14.29
sde              80.51     4.26 1652.21  101.88 21123.60  3121.45    27.64     1.49    0.85    0.44    7.44   0.08  14.31
sdf              77.64     4.23 1654.34  101.83 21104.94  3118.33    27.59     1.53    0.87    0.44    7.90   0.08  14.34
sdg               0.00     3.17   26.48   73.30   324.66   392.03    14.37     0.44    4.41    0.20    5.93   0.08   0.78
sdh               0.00     0.13    0.02    0.23     2.20     5.04    56.82     0.00    1.15    0.65    1.19   0.21   0.01
md0               0.00     0.00 10381.04  478.04 144558.50 21368.83    30.56     0.00    0.00    0.00    0.00   0.00   0.00

avg-cpu:  %user   %nice %system %iowait  %steal   %idle
           1.57    0.01   16.51   64.09    0.00   17.81

Device:         rrqm/s   wrqm/s     r/s     w/s    rkB/s    wkB/s avgrq-sz avgqu-sz   await r_await w_await  svctm  %util
sda               6.65     0.00 8169.75    0.00 117890.40     0.00    28.86     1.74    0.21    0.21    0.00   0.08  64.57
sdb               6.75     0.00 8168.80    0.00 117977.40     0.00    28.88     1.73    0.21    0.21    0.00   0.08  64.28
sdc               7.20     0.00 8185.95    0.00 118045.40     0.00    28.84     2.88    0.35    0.35    0.00   0.09  73.16
sdd               6.45     0.00 8118.10    0.00 117010.00     0.00    28.83     2.81    0.35    0.35    0.00   0.09  73.07
sde               5.55     0.00 8151.60    0.00 115978.00     0.00    28.46     2.73    0.33    0.33    0.00   0.09  73.19
sdf               6.75     0.00 8182.65    0.00 118206.80     0.00    28.89     2.85    0.35    0.35    0.00   0.09  74.22
sdg               0.00     0.15   70.20    0.40   318.80     4.00     9.14     0.01    0.11    0.11    0.38   0.11   0.79
sdh               0.00     0.00    0.00    0.00     0.00     0.00     0.00     0.00    0.00    0.00    0.00   0.00   0.00
md0               0.00     0.00 49017.35    0.00 767123.60     0.00    31.30     0.00    0.00    0.00    0.00   0.00   0.00

