Linux 4.17.2 (bench) 	08/03/2018 	_x86_64_	(4 CPU)

avg-cpu:  %user   %nice %system %iowait  %steal   %idle
          10.26    0.02    4.16    2.70    0.00   82.87

Device:         rrqm/s   wrqm/s     r/s     w/s    rkB/s    wkB/s avgrq-sz avgqu-sz   await r_await w_await  svctm  %util
sda              52.44     4.20 1714.76  101.37 21304.40  3101.72    26.88     1.05    0.58    0.26    5.92   0.06  10.99
sdb              52.24     4.16 1714.76  101.51 21293.90  3098.42    26.86     1.05    0.58    0.26    5.85   0.06  10.87
sdc              90.08     4.22 1674.82  101.06 21286.07  3100.86    27.46     1.47    0.83    0.45    7.12   0.08  14.36
sdd              83.59     4.18 1680.49  101.13 21271.08  3097.10    27.36     1.47    0.83    0.44    7.33   0.08  14.45
sde              85.59     4.23 1685.58  101.23 21330.50  3101.30    27.35     1.49    0.84    0.44    7.44   0.08  14.48
sdf              82.74     4.20 1687.69  101.17 21311.94  3098.20    27.29     1.54    0.86    0.44    7.90   0.08  14.51
sdg               0.00     3.17   26.74   73.28   325.73   392.05    14.35     0.44    4.40    0.20    5.93   0.08   0.78
sdh               0.00     0.13    0.02    0.23     2.19     5.01    56.82     0.00    1.15    0.65    1.19   0.21   0.01
md0               0.00     0.00 10612.21  474.95 146027.31 21230.88    30.17     0.00    0.00    0.00    0.00   0.00   0.00

avg-cpu:  %user   %nice %system %iowait  %steal   %idle
           0.26    0.00    2.05    1.03    0.00   96.67

Device:         rrqm/s   wrqm/s     r/s     w/s    rkB/s    wkB/s avgrq-sz avgqu-sz   await r_await w_await  svctm  %util
sda               0.00     0.00 2028.00    0.00  8112.00     0.00     8.00     0.13    0.07    0.07    0.00   0.07  13.40
sdb               0.00     0.00 2244.00    0.00  8976.00     0.00     8.00     0.14    0.06    0.06    0.00   0.06  13.60
sdc               0.00     0.00 2199.00    0.00  8796.00     0.00     8.00     0.15    0.07    0.07    0.00   0.07  14.70
sdd               0.00     0.00 2318.00    0.00  9272.00     0.00     8.00     0.17    0.07    0.07    0.00   0.07  16.90
sde               0.00     0.00 2437.00    0.00  9748.00     0.00     8.00     0.16    0.07    0.07    0.00   0.07  16.40
sdf               0.00     0.00 2163.00    0.00  8652.00     0.00     8.00     0.15    0.07    0.07    0.00   0.07  14.70
sdg               0.00     0.00    2.00    0.00    44.00     0.00    44.00     0.00    0.50    0.50    0.00   0.50   0.10
sdh               0.00     0.00    0.00    0.00     0.00     0.00     0.00     0.00    0.00    0.00    0.00   0.00   0.00
md0               0.00     0.00 13391.00    0.00 53564.00     0.00     8.00     0.00    0.00    0.00    0.00   0.00   0.00

avg-cpu:  %user   %nice %system %iowait  %steal   %idle
           0.00    0.00    2.06    0.77    0.00   97.17

Device:         rrqm/s   wrqm/s     r/s     w/s    rkB/s    wkB/s avgrq-sz avgqu-sz   await r_await w_await  svctm  %util
sda               0.00     0.00 2144.00    0.00  8576.00     0.00     8.00     0.14    0.07    0.07    0.00   0.07  14.40
sdb               0.00     0.00 2170.00    0.00  8680.00     0.00     8.00     0.15    0.07    0.07    0.00   0.07  14.60
sdc               0.00     0.00 2391.00    0.00  9564.00     0.00     8.00     0.15    0.06    0.06    0.00   0.06  15.30
sdd               0.00     0.00 2056.00    0.00  8224.00     0.00     8.00     0.14    0.07    0.07    0.00   0.07  14.20
sde               0.00     0.00 2122.00    0.00  8488.00     0.00     8.00     0.15    0.07    0.07    0.00   0.07  14.60
sdf               0.00     0.00 2336.00    0.00  9344.00     0.00     8.00     0.16    0.07    0.07    0.00   0.07  16.00
sdg               0.00     0.00    0.00    0.00     0.00     0.00     0.00     0.00    0.00    0.00    0.00   0.00   0.00
sdh               0.00     0.00    0.00    0.00     0.00     0.00     0.00     0.00    0.00    0.00    0.00   0.00   0.00
md0               0.00     0.00 13219.00    0.00 52876.00     0.00     8.00     0.00    0.00    0.00    0.00   0.00   0.00

avg-cpu:  %user   %nice %system %iowait  %steal   %idle
           0.26    0.00    1.80    0.77    0.00   97.17

Device:         rrqm/s   wrqm/s     r/s     w/s    rkB/s    wkB/s avgrq-sz avgqu-sz   await r_await w_await  svctm  %util
sda               0.00     0.00 2233.00    0.00  8932.00     0.00     8.00     0.13    0.06    0.06    0.00   0.06  13.40
sdb               0.00     0.00 2659.00    0.00 10636.00     0.00     8.00     0.17    0.06    0.06    0.00   0.06  16.90
sdc               0.00     0.00 2341.00    0.00  9364.00     0.00     8.00     0.16    0.07    0.07    0.00   0.07  15.60
sdd               0.00     0.00 2341.00    0.00  9364.00     0.00     8.00     0.16    0.07    0.07    0.00   0.07  15.90
sde               0.00     0.00 2406.00    0.00  9624.00     0.00     8.00     0.16    0.06    0.06    0.00   0.06  15.60
sdf               0.00     0.00 1795.00    0.00  7180.00     0.00     8.00     0.13    0.07    0.07    0.00   0.07  12.70
sdg               0.00     0.00    0.00    0.00     0.00     0.00     0.00     0.00    0.00    0.00    0.00   0.00   0.00
sdh               0.00     0.00    0.00    0.00     0.00     0.00     0.00     0.00    0.00    0.00    0.00   0.00   0.00
md0               0.00     0.00 13775.00    0.00 55100.00     0.00     8.00     0.00    0.00    0.00    0.00   0.00   0.00

avg-cpu:  %user   %nice %system %iowait  %steal   %idle
           0.26    0.00    2.05    1.03    0.00   96.67

Device:         rrqm/s   wrqm/s     r/s     w/s    rkB/s    wkB/s avgrq-sz avgqu-sz   await r_await w_await  svctm  %util
sda               0.00     0.00 2042.00    0.00  8168.00     0.00     8.00     0.12    0.06    0.06    0.00   0.06  12.50
sdb               0.00     0.00 2284.00    0.00  9136.00     0.00     8.00     0.14    0.06    0.06    0.00   0.06  14.00
sdc               0.00     0.00 2241.00    0.00  8964.00     0.00     8.00     0.16    0.07    0.07    0.00   0.07  15.80
sdd               0.00     0.00 2398.00    0.00  9592.00     0.00     8.00     0.16    0.07    0.07    0.00   0.07  16.10
sde               0.00     0.00 2205.00    0.00  8820.00     0.00     8.00     0.16    0.07    0.07    0.00   0.07  15.80
sdf               0.00     0.00 2305.00    0.00  9220.00     0.00     8.00     0.16    0.07    0.07    0.00   0.07  16.20
sdg               0.00     0.00    0.00    0.00     0.00     0.00     0.00     0.00    0.00    0.00    0.00   0.00   0.00
sdh               0.00     0.00    0.00    0.00     0.00     0.00     0.00     0.00    0.00    0.00    0.00   0.00   0.00
md0               0.00     0.00 13475.00    0.00 53900.00     0.00     8.00     0.00    0.00    0.00    0.00   0.00   0.00

avg-cpu:  %user   %nice %system %iowait  %steal   %idle
           0.26    0.00    2.05    0.77    0.00   96.92

Device:         rrqm/s   wrqm/s     r/s     w/s    rkB/s    wkB/s avgrq-sz avgqu-sz   await r_await w_await  svctm  %util
sda               0.00     0.00 2247.00    0.00  8988.00     0.00     8.00     0.13    0.06    0.06    0.00   0.06  13.20
sdb               0.00     0.00 2467.00    0.00  9868.00     0.00     8.00     0.16    0.06    0.06    0.00   0.06  15.60
sdc               0.00     0.00 2097.00    0.00  8388.00     0.00     8.00     0.14    0.07    0.07    0.00   0.07  14.50
sdd               0.00     0.00 2239.00    0.00  8956.00     0.00     8.00     0.16    0.07    0.07    0.00   0.07  16.10
sde               0.00     0.00 1985.00    0.00  7940.00     0.00     8.00     0.14    0.07    0.07    0.00   0.07  14.30
sdf               0.00     0.00 2426.00    0.00  9704.00     0.00     8.00     0.17    0.07    0.07    0.00   0.07  17.00
sdg               0.00     1.00    9.00    1.00    36.00    20.00    11.20     0.00    0.20    0.22    0.00   0.10   0.10
sdh               0.00     0.00    0.00    0.00     0.00     0.00     0.00     0.00    0.00    0.00    0.00   0.00   0.00
md0               0.00     0.00 13460.00    0.00 53840.00     0.00     8.00     0.00    0.00    0.00    0.00   0.00   0.00

avg-cpu:  %user   %nice %system %iowait  %steal   %idle
           0.26    0.00    2.05    1.02    0.00   96.68

Device:         rrqm/s   wrqm/s     r/s     w/s    rkB/s    wkB/s avgrq-sz avgqu-sz   await r_await w_await  svctm  %util
sda               0.00     0.00 2149.00    0.00  8596.00     0.00     8.00     0.14    0.06    0.06    0.00   0.06  13.80
sdb               0.00     0.00 2328.00    0.00  9312.00     0.00     8.00     0.14    0.06    0.06    0.00   0.06  14.20
sdc               0.00     0.00 2046.00    0.00  8184.00     0.00     8.00     0.13    0.07    0.07    0.00   0.07  13.30
sdd               0.00     0.00 2107.00    0.00  8428.00     0.00     8.00     0.15    0.07    0.07    0.00   0.07  15.20
sde               0.00     0.00 2210.00    0.00  8840.00     0.00     8.00     0.15    0.07    0.07    0.00   0.07  15.30
sdf               0.00     0.00 2495.00    0.00  9980.00     0.00     8.00     0.17    0.07    0.07    0.00   0.07  17.40
sdg               0.00     0.00    0.00    0.00     0.00     0.00     0.00     0.00    0.00    0.00    0.00   0.00   0.00
sdh               0.00     0.00    0.00    0.00     0.00     0.00     0.00     0.00    0.00    0.00    0.00   0.00   0.00
md0               0.00     0.00 13335.00    0.00 53340.00     0.00     8.00     0.00    0.00    0.00    0.00   0.00   0.00

avg-cpu:  %user   %nice %system %iowait  %steal   %idle
           0.26    0.00    2.05    0.77    0.00   96.92

Device:         rrqm/s   wrqm/s     r/s     w/s    rkB/s    wkB/s avgrq-sz avgqu-sz   await r_await w_await  svctm  %util
sda               0.00     0.00 2330.00    0.00  9320.00     0.00     8.00     0.15    0.06    0.06    0.00   0.06  14.60
sdb               0.00     0.00 2120.00    0.00  8480.00     0.00     8.00     0.15    0.07    0.07    0.00   0.07  14.90
sdc               0.00     0.00 2078.00    0.00  8312.00     0.00     8.00     0.14    0.07    0.07    0.00   0.07  14.10
sdd               0.00     0.00 2417.00    0.00  9668.00     0.00     8.00     0.15    0.06    0.06    0.00   0.06  15.00
sde               0.00     0.00 1988.00    0.00  7952.00     0.00     8.00     0.15    0.07    0.07    0.00   0.07  14.60
sdf               0.00     0.00 2369.00    0.00  9476.00     0.00     8.00     0.16    0.07    0.07    0.00   0.07  16.40
sdg               0.00     0.00    0.00    0.00     0.00     0.00     0.00     0.00    0.00    0.00    0.00   0.00   0.00
sdh               0.00     0.00    0.00    0.00     0.00     0.00     0.00     0.00    0.00    0.00    0.00   0.00   0.00
md0               0.00     0.00 13303.00    0.00 53212.00     0.00     8.00     0.00    0.00    0.00    0.00   0.00   0.00

avg-cpu:  %user   %nice %system %iowait  %steal   %idle
           0.26    0.00    2.05    1.02    0.00   96.68

Device:         rrqm/s   wrqm/s     r/s     w/s    rkB/s    wkB/s avgrq-sz avgqu-sz   await r_await w_await  svctm  %util
sda               0.00     0.00 1961.00    0.00  7844.00     0.00     8.00     0.12    0.06    0.06    0.00   0.06  12.20
sdb               0.00     0.00 2218.00    0.00  8872.00     0.00     8.00     0.15    0.07    0.07    0.00   0.07  15.00
sdc               0.00     0.00 2248.00    0.00  8992.00     0.00     8.00     0.15    0.07    0.07    0.00   0.07  15.30
sdd               0.00     0.00 2455.00    0.00  9820.00     0.00     8.00     0.16    0.07    0.07    0.00   0.07  16.20
sde               0.00     0.00 1951.00    0.00  7808.00     0.00     8.00     0.14    0.07    0.07    0.00   0.07  14.50
sdf               0.00     0.00 2407.00    0.00  9628.00     0.00     8.00     0.16    0.06    0.06    0.00   0.06  15.60
sdg               0.00     0.00    0.00    0.00     0.00     0.00     0.00     0.00    0.00    0.00    0.00   0.00   0.00
sdh               0.00     0.00    0.00    0.00     0.00     0.00     0.00     0.00    0.00    0.00    0.00   0.00   0.00
md0               0.00     0.00 13240.00    0.00 52960.00     0.00     8.00     0.00    0.00    0.00    0.00   0.00   0.00

avg-cpu:  %user   %nice %system %iowait  %steal   %idle
           0.00    0.00    4.29   15.66    0.00   80.05

Device:         rrqm/s   wrqm/s     r/s     w/s    rkB/s    wkB/s avgrq-sz avgqu-sz   await r_await w_await  svctm  %util
sda               0.00     0.00 2158.00    0.00  8632.00     0.00     8.00     0.14    0.06    0.06    0.00   0.06  13.50
sdb               0.00     0.00 2074.00    0.00  8296.00     0.00     8.00     0.13    0.06    0.06    0.00   0.06  13.30
sdc               0.00     0.00 2398.00    0.00  9592.00     0.00     8.00     0.17    0.07    0.07    0.00   0.07  17.20
sdd               0.00     0.00 2144.00    0.00  8576.00     0.00     8.00     0.15    0.07    0.07    0.00   0.07  14.60
sde               0.00     0.00 2259.00    0.00  9032.00     0.00     8.00     0.15    0.07    0.07    0.00   0.07  15.10
sdf               0.00     0.00 2149.00    0.00  8596.00     0.00     8.00     0.15    0.07    0.07    0.00   0.07  14.70
sdg               0.00     0.00  134.00    0.00   788.00     0.00    11.76     0.02    0.14    0.14    0.00   0.13   1.80
sdh               0.00     0.00    0.00    0.00     0.00     0.00     0.00     0.00    0.00    0.00    0.00   0.00   0.00
md0               0.00     0.00 13183.00    0.00 52732.00     0.00     8.00     0.00    0.00    0.00    0.00   0.00   0.00

avg-cpu:  %user   %nice %system %iowait  %steal   %idle
           0.00    0.00    1.55    1.03    0.00   97.42

Device:         rrqm/s   wrqm/s     r/s     w/s    rkB/s    wkB/s avgrq-sz avgqu-sz   await r_await w_await  svctm  %util
sda               0.00     0.00 2424.00    0.00  9696.00     0.00     8.00     0.15    0.06    0.06    0.00   0.06  15.40
sdb               0.00     0.00 2145.00    0.00  8580.00     0.00     8.00     0.13    0.06    0.06    0.00   0.06  12.90
sdc               0.00     0.00 2351.00    0.00  9404.00     0.00     8.00     0.16    0.07    0.07    0.00   0.07  15.70
sdd               0.00     0.00 2138.00    0.00  8552.00     0.00     8.00     0.16    0.07    0.07    0.00   0.07  15.90
sde               0.00     0.00 2223.00    0.00  8892.00     0.00     8.00     0.17    0.08    0.08    0.00   0.08  16.70
sdf               0.00     0.00 2173.00    0.00  8692.00     0.00     8.00     0.15    0.07    0.07    0.00   0.07  14.70
sdg               0.00     0.00    0.00    0.00     0.00     0.00     0.00     0.00    0.00    0.00    0.00   0.00   0.00
sdh               0.00     0.00    0.00    0.00     0.00     0.00     0.00     0.00    0.00    0.00    0.00   0.00   0.00
md0               0.00     0.00 13453.00    0.00 53812.00     0.00     8.00     0.00    0.00    0.00    0.00   0.00   0.00

avg-cpu:  %user   %nice %system %iowait  %steal   %idle
           0.26    0.00    1.80    0.77    0.00   97.16

Device:         rrqm/s   wrqm/s     r/s     w/s    rkB/s    wkB/s avgrq-sz avgqu-sz   await r_await w_await  svctm  %util
sda               0.00     0.00 2229.00    0.00  8916.00     0.00     8.00     0.13    0.06    0.06    0.00   0.06  13.20
sdb               0.00     0.00 2398.00    0.00  9592.00     0.00     8.00     0.16    0.07    0.07    0.00   0.07  15.70
sdc               0.00     0.00 2048.00    0.00  8192.00     0.00     8.00     0.14    0.07    0.07    0.00   0.07  14.40
sdd               0.00     0.00 2279.00    0.00  9116.00     0.00     8.00     0.16    0.07    0.07    0.00   0.07  15.70
sde               0.00     0.00 2178.00    0.00  8712.00     0.00     8.00     0.15    0.07    0.07    0.00   0.07  15.50
sdf               0.00     0.00 2111.00    0.00  8444.00     0.00     8.00     0.15    0.07    0.07    0.00   0.07  15.00
sdg               0.00     0.00    0.00    0.00     0.00     0.00     0.00     0.00    0.00    0.00    0.00   0.00   0.00
sdh               0.00     0.00    0.00    0.00     0.00     0.00     0.00     0.00    0.00    0.00    0.00   0.00   0.00
md0               0.00     0.00 13243.00    0.00 52972.00     0.00     8.00     0.00    0.00    0.00    0.00   0.00   0.00

avg-cpu:  %user   %nice %system %iowait  %steal   %idle
           0.26    0.00    1.79    1.03    0.00   96.92

Device:         rrqm/s   wrqm/s     r/s     w/s    rkB/s    wkB/s avgrq-sz avgqu-sz   await r_await w_await  svctm  %util
sda               0.00     0.00 2193.00    0.00  8772.00     0.00     8.00     0.14    0.06    0.06    0.00   0.06  13.60
sdb               0.00     0.00 2176.00    0.00  8704.00     0.00     8.00     0.15    0.07    0.07    0.00   0.07  15.20
sdc               0.00     0.00 2360.00    0.00  9440.00     0.00     8.00     0.15    0.06    0.06    0.00   0.06  15.00
sdd               0.00     0.00 2451.00    0.00  9804.00     0.00     8.00     0.16    0.07    0.07    0.00   0.07  16.10
sde               0.00     0.00 2241.00    0.00  8964.00     0.00     8.00     0.16    0.07    0.07    0.00   0.07  15.80
sdf               0.00     0.00 2134.00    0.00  8536.00     0.00     8.00     0.14    0.07    0.07    0.00   0.07  14.10
sdg               0.00     0.00    0.00    0.00     0.00     0.00     0.00     0.00    0.00    0.00    0.00   0.00   0.00
sdh               0.00     0.00    0.00    0.00     0.00     0.00     0.00     0.00    0.00    0.00    0.00   0.00   0.00
md0               0.00     0.00 13555.00    0.00 54220.00     0.00     8.00     0.00    0.00    0.00    0.00   0.00   0.00

avg-cpu:  %user   %nice %system %iowait  %steal   %idle
           0.26    0.00    1.80    0.77    0.00   97.17

Device:         rrqm/s   wrqm/s     r/s     w/s    rkB/s    wkB/s avgrq-sz avgqu-sz   await r_await w_await  svctm  %util
sda               0.00     0.00 2334.00    0.00  9336.00     0.00     8.00     0.15    0.07    0.07    0.00   0.06  15.10
sdb               0.00     0.00 2061.00    0.00  8244.00     0.00     8.00     0.13    0.06    0.06    0.00   0.06  13.00
sdc               0.00     0.00 2040.00    0.00  8160.00     0.00     8.00     0.14    0.07    0.07    0.00   0.07  14.10
sdd               0.00     0.00 2257.00    0.00  9028.00     0.00     8.00     0.16    0.07    0.07    0.00   0.07  16.20
sde               0.00     0.00 2342.00    0.00  9368.00     0.00     8.00     0.16    0.07    0.07    0.00   0.07  16.10
sdf               0.00     0.00 2430.00    0.00  9720.00     0.00     8.00     0.17    0.07    0.07    0.00   0.07  16.60
sdg               0.00     0.00    0.00    0.00     0.00     0.00     0.00     0.00    0.00    0.00    0.00   0.00   0.00
sdh               0.00     0.00    0.00    0.00     0.00     0.00     0.00     0.00    0.00    0.00    0.00   0.00   0.00
md0               0.00     0.00 13463.00    0.00 53852.00     0.00     8.00     0.00    0.00    0.00    0.00   0.00   0.00

avg-cpu:  %user   %nice %system %iowait  %steal   %idle
           0.00    0.00    2.31    0.77    0.00   96.92

Device:         rrqm/s   wrqm/s     r/s     w/s    rkB/s    wkB/s avgrq-sz avgqu-sz   await r_await w_await  svctm  %util
sda               0.00     0.00 2214.00    0.00  8856.00     0.00     8.00     0.14    0.06    0.06    0.00   0.06  13.50
sdb               0.00     0.00 2128.00    0.00  8512.00     0.00     8.00     0.14    0.07    0.07    0.00   0.07  13.90
sdc               0.00     0.00 2394.00    0.00  9576.00     0.00     8.00     0.16    0.07    0.07    0.00   0.07  16.30
sdd               0.00     0.00 2268.00    0.00  9072.00     0.00     8.00     0.16    0.07    0.07    0.00   0.07  15.70
sde               0.00     0.00 2247.00    0.00  8988.00     0.00     8.00     0.15    0.07    0.07    0.00   0.07  14.90
sdf               0.00     0.00 2281.00    0.00  9124.00     0.00     8.00     0.15    0.07    0.07    0.00   0.07  14.90
sdg               0.00     0.00    0.00    0.00     0.00     0.00     0.00     0.00    0.00    0.00    0.00   0.00   0.00
sdh               0.00     0.00    0.00    0.00     0.00     0.00     0.00     0.00    0.00    0.00    0.00   0.00   0.00
md0               0.00     0.00 13533.00    0.00 54132.00     0.00     8.00     0.00    0.00    0.00    0.00   0.00   0.00

avg-cpu:  %user   %nice %system %iowait  %steal   %idle
           0.26    0.00    2.30    0.77    0.00   96.68

Device:         rrqm/s   wrqm/s     r/s     w/s    rkB/s    wkB/s avgrq-sz avgqu-sz   await r_await w_await  svctm  %util
sda               0.00     0.00 2256.00    0.00  9024.00     0.00     8.00     0.14    0.06    0.06    0.00   0.06  14.20
sdb               0.00     0.00 2353.00    0.00  9412.00     0.00     8.00     0.14    0.06    0.06    0.00   0.06  14.30
sdc               0.00     0.00 2206.00    0.00  8824.00     0.00     8.00     0.15    0.07    0.07    0.00   0.07  14.90
sdd               0.00     0.00 2071.00    0.00  8284.00     0.00     8.00     0.15    0.07    0.07    0.00   0.07  14.80
sde               0.00     0.00 2526.00    0.00 10104.00     0.00     8.00     0.16    0.07    0.07    0.00   0.06  16.40
sdf               0.00     0.00 2068.00    0.00  8272.00     0.00     8.00     0.12    0.06    0.06    0.00   0.06  12.50
sdg               0.00     1.00    8.00    3.00    32.00    40.00    13.09     0.00    0.18    0.12    0.33   0.18   0.20
sdh               0.00     0.00    0.00    0.00     0.00     0.00     0.00     0.00    0.00    0.00    0.00   0.00   0.00
md0               0.00     0.00 13481.00    0.00 53924.00     0.00     8.00     0.00    0.00    0.00    0.00   0.00   0.00

avg-cpu:  %user   %nice %system %iowait  %steal   %idle
           0.26    0.00    2.30    3.07    0.00   94.37

Device:         rrqm/s   wrqm/s     r/s     w/s    rkB/s    wkB/s avgrq-sz avgqu-sz   await r_await w_await  svctm  %util
sda               0.00     0.00 2276.00    0.00  9104.00     0.00     8.00     0.14    0.06    0.06    0.00   0.06  14.00
sdb               0.00     0.00 2637.00    0.00 10548.00     0.00     8.00     0.15    0.06    0.06    0.00   0.06  15.00
sdc               0.00     0.00 2289.00    0.00  9156.00     0.00     8.00     0.16    0.07    0.07    0.00   0.07  16.00
sdd               0.00     0.00 2324.00    0.00  9296.00     0.00     8.00     0.16    0.07    0.07    0.00   0.07  16.20
sde               0.00     0.00 1902.00    0.00  7608.00     0.00     8.00     0.13    0.07    0.07    0.00   0.07  13.00
sdf               0.00     0.00 2205.00    0.00  8820.00     0.00     8.00     0.15    0.07    0.07    0.00   0.07  14.90
sdg               0.00     0.00    0.00    0.00     0.00     0.00     0.00     0.00    0.00    0.00    0.00   0.00   0.00
sdh               0.00     0.00    0.00    0.00     0.00     0.00     0.00     0.00    0.00    0.00    0.00   0.00   0.00
md0               0.00     0.00 13632.00    0.00 54528.00     0.00     8.00     0.00    0.00    0.00    0.00   0.00   0.00

avg-cpu:  %user   %nice %system %iowait  %steal   %idle
           0.25    0.00    3.04   20.25    0.00   76.46

Device:         rrqm/s   wrqm/s     r/s     w/s    rkB/s    wkB/s avgrq-sz avgqu-sz   await r_await w_await  svctm  %util
sda               0.00     0.00 2477.00    0.00  9908.00     0.00     8.00     0.15    0.06    0.06    0.00   0.06  15.30
sdb               0.00     0.00 2080.00    0.00  8320.00     0.00     8.00     0.15    0.07    0.07    0.00   0.07  14.90
sdc               0.00     0.00 2293.00    0.00  9172.00     0.00     8.00     0.15    0.07    0.07    0.00   0.07  15.40
sdd               0.00     0.00 2144.00    0.00  8576.00     0.00     8.00     0.15    0.07    0.07    0.00   0.07  14.80
sde               0.00     0.00 2149.00    0.00  8596.00     0.00     8.00     0.14    0.07    0.07    0.00   0.07  14.20
sdf               0.00     0.00 2161.00    0.00  8644.00     0.00     8.00     0.14    0.07    0.07    0.00   0.07  14.50
sdg               0.00     0.00    0.00    0.00     0.00     0.00     0.00     0.00    0.00    0.00    0.00   0.00   0.00
sdh               0.00     0.00    0.00    0.00     0.00     0.00     0.00     0.00    0.00    0.00    0.00   0.00   0.00
md0               0.00     0.00 13303.00    0.00 53212.00     0.00     8.00     0.00    0.00    0.00    0.00   0.00   0.00

avg-cpu:  %user   %nice %system %iowait  %steal   %idle
           0.00    0.00    2.31    1.54    0.00   96.15

Device:         rrqm/s   wrqm/s     r/s     w/s    rkB/s    wkB/s avgrq-sz avgqu-sz   await r_await w_await  svctm  %util
sda               0.00     0.00 2158.00    0.00  8632.00     0.00     8.00     0.15    0.07    0.07    0.00   0.07  15.00
sdb               0.00     0.00 2171.00    0.00  8684.00     0.00     8.00     0.14    0.07    0.07    0.00   0.07  14.30
sdc               0.00     0.00 2335.00    0.00  9340.00     0.00     8.00     0.15    0.06    0.06    0.00   0.06  15.10
sdd               0.00     0.00 2234.00    0.00  8936.00     0.00     8.00     0.16    0.07    0.07    0.00   0.07  15.80
sde               0.00     0.00 2196.00    0.00  8784.00     0.00     8.00     0.15    0.07    0.07    0.00   0.07  14.80
sdf               0.00     0.00 2147.00    0.00  8588.00     0.00     8.00     0.15    0.07    0.07    0.00   0.07  15.50
sdg               0.00     0.00    0.00    0.00     0.00     0.00     0.00     0.00    0.00    0.00    0.00   0.00   0.00
sdh               0.00     0.00    0.00    0.00     0.00     0.00     0.00     0.00    0.00    0.00    0.00   0.00   0.00
md0               0.00     0.00 13244.00    0.00 52976.00     0.00     8.00     0.00    0.00    0.00    0.00   0.00   0.00

avg-cpu:  %user   %nice %system %iowait  %steal   %idle
           0.25    0.25    3.78   18.89    0.00   76.83

Device:         rrqm/s   wrqm/s     r/s     w/s    rkB/s    wkB/s avgrq-sz avgqu-sz   await r_await w_await  svctm  %util
sda               0.00     0.00 2122.00    0.00  8488.00     0.00     8.00     0.14    0.07    0.07    0.00   0.07  14.30
sdb               0.00     0.00 2249.00    0.00  8996.00     0.00     8.00     0.14    0.06    0.06    0.00   0.06  14.20
sdc               0.00     0.00 2129.00    0.00  8516.00     0.00     8.00     0.15    0.07    0.07    0.00   0.07  15.00
sdd               0.00     0.00 2415.00    0.00  9660.00     0.00     8.00     0.18    0.07    0.07    0.00   0.07  17.80
sde               0.00     0.00 1956.00    0.00  7824.00     0.00     8.00     0.14    0.07    0.07    0.00   0.07  13.70
sdf               0.00     0.00 2266.00    0.00  9064.00     0.00     8.00     0.14    0.06    0.06    0.00   0.06  14.40
sdg               0.00     0.00    6.00    0.00    24.00     0.00     8.00     0.00    0.00    0.00    0.00   0.00   0.00
sdh               0.00     0.00    0.00    0.00     0.00     0.00     0.00     0.00    0.00    0.00    0.00   0.00   0.00
md0               0.00     0.00 13136.00    0.00 52544.00     0.00     8.00     0.00    0.00    0.00    0.00   0.00   0.00

avg-cpu:  %user   %nice %system %iowait  %steal   %idle
           0.25    0.00    2.54   20.36    0.00   76.84

Device:         rrqm/s   wrqm/s     r/s     w/s    rkB/s    wkB/s avgrq-sz avgqu-sz   await r_await w_await  svctm  %util
sda               0.00     0.00 1971.00    0.00  7884.00     0.00     8.00     0.14    0.07    0.07    0.00   0.07  13.50
sdb               0.00     0.00 2438.00    0.00  9752.00     0.00     8.00     0.15    0.06    0.06    0.00   0.06  14.80
sdc               0.00     0.00 2331.00    0.00  9324.00     0.00     8.00     0.15    0.07    0.07    0.00   0.07  15.20
sdd               0.00     0.00 2185.00    0.00  8740.00     0.00     8.00     0.16    0.07    0.07    0.00   0.07  15.70
sde               0.00     0.00 2337.00    0.00  9348.00     0.00     8.00     0.17    0.07    0.07    0.00   0.07  16.70
sdf               0.00     0.00 2151.00    0.00  8604.00     0.00     8.00     0.15    0.07    0.07    0.00   0.07  15.10
sdg               0.00     0.00    0.00    0.00     0.00     0.00     0.00     0.00    0.00    0.00    0.00   0.00   0.00
sdh               0.00     0.00    0.00    0.00     0.00     0.00     0.00     0.00    0.00    0.00    0.00   0.00   0.00
md0               0.00     0.00 13411.00    0.00 53644.00     0.00     8.00     0.00    0.00    0.00    0.00   0.00   0.00

