Linux 4.17.2 (bench) 	08/03/2018 	_x86_64_	(4 CPU)

avg-cpu:  %user   %nice %system %iowait  %steal   %idle
          10.26    0.02    4.16    2.69    0.00   82.88

Device:         rrqm/s   wrqm/s     r/s     w/s    rkB/s    wkB/s avgrq-sz avgqu-sz   await r_await w_await  svctm  %util
sda              51.64     4.20 1712.85  101.44 21296.05  3104.04    26.90     1.05    0.58    0.26    5.92   0.06  10.98
sdb              51.46     4.16 1712.83  101.58 21285.55  3100.74    26.88     1.05    0.58    0.26    5.85   0.06  10.86
sdc              89.28     4.22 1672.91  101.14 21277.72  3103.17    27.49     1.47    0.83    0.45    7.12   0.08  14.35
sdd              82.79     4.19 1678.59  101.21 21262.72  3099.41    27.38     1.47    0.83    0.44    7.33   0.08  14.44
sde              84.79     4.23 1683.67  101.30 21322.18  3103.61    27.37     1.49    0.84    0.44    7.44   0.08  14.46
sdf              81.93     4.20 1685.79  101.25 21303.58  3100.51    27.31     1.54    0.86    0.44    7.90   0.08  14.50
sdg               0.00     3.17   26.71   73.28   325.61   392.05    14.35     0.44    4.40    0.20    5.93   0.08   0.78
sdh               0.00     0.13    0.02    0.23     2.19     5.01    56.82     0.00    1.15    0.65    1.19   0.21   0.01
md0               0.00     0.00 10595.87  475.30 145968.85 21246.73    30.21     0.00    0.00    0.00    0.00   0.00   0.00

avg-cpu:  %user   %nice %system %iowait  %steal   %idle
           1.25    0.00   23.31    0.00    0.00   75.44

Device:         rrqm/s   wrqm/s     r/s     w/s    rkB/s    wkB/s avgrq-sz avgqu-sz   await r_await w_await  svctm  %util
sda            7174.00     0.00 18939.00    0.00 104452.00     0.00    11.03     6.41    0.34    0.34    0.00   0.02  37.40
sdb            5291.00     0.00 20639.00    0.00 103720.00     0.00    10.05     6.37    0.31    0.31    0.00   0.02  36.90
sdc            9036.00     0.00 17084.00    0.00 104600.00     0.00    12.25     8.31    0.49    0.49    0.00   0.03  55.00
sdd            9270.00     0.00 17393.00    0.00 106696.00     0.00    12.27     8.29    0.48    0.48    0.00   0.03  54.00
sde            8257.00     0.00 17866.00    0.00 104616.00     0.00    11.71     8.61    0.48    0.48    0.00   0.03  52.60
sdf            7509.00     0.00 18504.00    0.00 104076.00     0.00    11.25     8.31    0.45    0.45    0.00   0.03  51.50
sdg               0.00     0.00    0.00    1.00     0.00    12.00    24.00     0.00    0.00    0.00    0.00   0.00   0.00
sdh               0.00     0.00    0.00    0.00     0.00     0.00     0.00     0.00    0.00    0.00    0.00   0.00   0.00
md0               0.00     0.00 156906.00    0.00 627624.00     0.00     8.00     0.00    0.00    0.00    0.00   0.00   0.00

avg-cpu:  %user   %nice %system %iowait  %steal   %idle
           0.75    0.00   24.31    0.00    0.00   74.94

Device:         rrqm/s   wrqm/s     r/s     w/s    rkB/s    wkB/s avgrq-sz avgqu-sz   await r_await w_await  svctm  %util
sda            7106.00     0.00 19451.00    0.00 106228.00     0.00    10.92     6.37    0.33    0.33    0.00   0.02  38.30
sdb            5738.00     0.00 21130.00    0.00 107472.00     0.00    10.17     6.64    0.31    0.31    0.00   0.02  37.40
sdc            9017.00     0.00 17687.00    0.00 106816.00     0.00    12.08     7.52    0.43    0.43    0.00   0.03  52.60
sdd            9536.00     0.00 17411.00    0.00 107788.00     0.00    12.38     8.10    0.47    0.47    0.00   0.03  53.20
sde            7995.00     0.00 18284.00    0.00 105016.00     0.00    11.49     8.90    0.49    0.49    0.00   0.03  55.10
sdf            8013.00     0.00 18477.00    0.00 105920.00     0.00    11.47     8.06    0.44    0.44    0.00   0.03  53.50
sdg               0.00     0.00    0.00    0.00     0.00     0.00     0.00     0.00    0.00    0.00    0.00   0.00   0.00
sdh               0.00     0.00    0.00    0.00     0.00     0.00     0.00     0.00    0.00    0.00    0.00   0.00   0.00
md0               0.00     0.00 159902.00    0.00 639608.00     0.00     8.00     0.00    0.00    0.00    0.00   0.00   0.00

