Linux 4.17.2 (bench) 	08/03/2018 	_x86_64_	(4 CPU)

avg-cpu:  %user   %nice %system %iowait  %steal   %idle
          10.27    0.02    4.09    2.61    0.00   83.01

Device:         rrqm/s   wrqm/s     r/s     w/s    rkB/s    wkB/s avgrq-sz avgqu-sz   await r_await w_await  svctm  %util
sda              47.07     4.23 1671.26  102.16 21030.87  3125.90    27.24     1.04    0.58    0.26    5.92   0.06  10.81
sdb              46.92     4.19 1671.21  102.30 21020.33  3122.58    27.23     1.03    0.58    0.26    5.85   0.06  10.69
sdc              84.78     4.25 1631.26  101.85 21012.47  3125.03    27.85     1.45    0.84    0.45    7.12   0.08  14.15
sdd              78.23     4.22 1636.98  101.92 20997.40  3121.24    27.74     1.46    0.84    0.44    7.33   0.08  14.24
sde              80.25     4.26 1642.06  102.02 21057.04  3125.48    27.73     1.48    0.85    0.44    7.44   0.08  14.27
sdf              77.37     4.23 1644.19  101.96 21038.36  3122.35    27.67     1.53    0.87    0.44    7.90   0.08  14.30
sdg               0.00     3.17   26.41   73.30   324.37   392.01    14.37     0.44    4.41    0.20    5.93   0.08   0.78
sdh               0.00     0.13    0.02    0.23     2.20     5.04    56.82     0.00    1.15    0.65    1.19   0.21   0.01
md0               0.00     0.00 10318.41  478.65 144074.89 21396.41    30.65     0.00    0.00    0.00    0.00   0.00   0.00

avg-cpu:  %user   %nice %system %iowait  %steal   %idle
           1.01    0.00    6.55    8.82    0.00   83.63

Device:         rrqm/s   wrqm/s     r/s     w/s    rkB/s    wkB/s avgrq-sz avgqu-sz   await r_await w_await  svctm  %util
sda             332.00     0.00  364.00    0.00 177028.00     0.00   972.68     0.95    2.61    2.61    0.00   1.36  49.60
sdb             331.00     0.00  397.00    0.00 176484.00     0.00   889.09     1.01    2.54    2.54    0.00   1.28  50.90
sdc             328.00     0.00  403.00    0.00 176580.00     0.00   876.33     2.09    5.17    5.17    0.00   2.08  84.00
sdd             329.00     0.00  388.00    0.00 176788.00     0.00   911.28     2.05    5.26    5.26    0.00   2.17  84.20
sde             329.00     0.00  392.00    0.00 177004.00     0.00   903.08     2.06    5.21    5.21    0.00   2.15  84.30
sdf             327.00     0.00  385.00    0.00 177476.00     0.00   921.95     2.04    5.28    5.28    0.00   2.21  84.90
sdg               0.00     0.00    0.00    0.00     0.00     0.00     0.00     0.00    0.00    0.00    0.00   0.00   0.00
sdh               0.00     0.00    0.00    0.00     0.00     0.00     0.00     0.00    0.00    0.00    0.00   0.00   0.00
md0               0.00     0.00 4308.00    0.00 1519816.00     0.00   705.58     0.00    0.00    0.00    0.00   0.00   0.00

avg-cpu:  %user   %nice %system %iowait  %steal   %idle
           1.26    0.00    6.30    8.06    0.00   84.38

Device:         rrqm/s   wrqm/s     r/s     w/s    rkB/s    wkB/s avgrq-sz avgqu-sz   await r_await w_await  svctm  %util
sda             323.00     0.00  395.00    0.00 173604.00     0.00   879.01     0.93    2.36    2.36    0.00   1.23  48.50
sdb             329.00     0.00  381.00    0.00 173144.00     0.00   908.89     0.94    2.45    2.45    0.00   1.30  49.50
sdc             325.00     0.00  392.00    0.00 173684.00     0.00   886.14     1.94    4.96    4.96    0.00   2.08  81.60
sdd             329.00     0.00  391.00    0.00 173940.00     0.00   889.72     1.96    5.04    5.04    0.00   2.11  82.60
sde             327.00     0.00  378.00    0.00 174548.00     0.00   923.53     1.90    5.07    5.07    0.00   2.17  82.20
sdf             331.00     0.00  364.00    0.00 174196.00     0.00   957.12     1.94    5.34    5.34    0.00   2.27  82.70
sdg               0.00     0.00    0.00    0.00     0.00     0.00     0.00     0.00    0.00    0.00    0.00   0.00   0.00
sdh               0.00     0.00    0.00    0.00     0.00     0.00     0.00     0.00    0.00    0.00    0.00   0.00   0.00
md0               0.00     0.00 4262.00    0.00 1589220.00     0.00   745.76     0.00    0.00    0.00    0.00   0.00   0.00

