Linux 4.17.2 (bench) 	08/03/2018 	_x86_64_	(4 CPU)

avg-cpu:  %user   %nice %system %iowait  %steal   %idle
          10.27    0.02    4.07    2.56    0.00   83.07

Device:         rrqm/s   wrqm/s     r/s     w/s    rkB/s    wkB/s avgrq-sz avgqu-sz   await r_await w_await  svctm  %util
sda              45.89     4.24 1657.73  102.49 20975.72  3135.92    27.40     1.04    0.59    0.26    5.92   0.06  10.74
sdb              45.74     4.20 1657.68  102.62 20965.09  3132.59    27.38     1.03    0.59    0.26    5.85   0.06  10.62
sdc              83.72     4.26 1617.60  102.18 20957.18  3135.05    28.02     1.45    0.85    0.45    7.12   0.08  14.08
sdd              77.15     4.23 1623.34  102.25 20942.09  3131.25    27.90     1.46    0.85    0.44    7.33   0.08  14.18
sde              79.18     4.27 1628.41  102.34 21001.88  3135.49    27.89     1.48    0.86    0.44    7.44   0.08  14.20
sdf              76.29     4.25 1630.57  102.29 20983.15  3132.36    27.83     1.53    0.88    0.44    7.90   0.08  14.23
sdg               0.00     3.17   26.32   73.33   324.06   392.09    14.37     0.44    4.42    0.20    5.93   0.08   0.78
sdh               0.00     0.13    0.02    0.23     2.21     5.06    56.82     0.00    1.15    0.65    1.19   0.21   0.01
md0               0.00     0.00 10230.13  480.19 143696.25 21464.99    30.84     0.00    0.00    0.00    0.00   0.00   0.00

avg-cpu:  %user   %nice %system %iowait  %steal   %idle
           1.52    0.00   11.17   42.39    0.00   44.92

Device:         rrqm/s   wrqm/s     r/s     w/s    rkB/s    wkB/s avgrq-sz avgqu-sz   await r_await w_await  svctm  %util
sda               0.00     0.00 5794.00    0.00 23176.00     0.00     8.00     0.73    0.13    0.13    0.00   0.05  31.50
sdb               0.00     0.00 6108.00    0.00 24432.00     0.00     8.00     0.82    0.13    0.13    0.00   0.05  33.10
sdc               0.00     0.00 6158.00    0.00 24632.00     0.00     8.00     0.85    0.14    0.14    0.00   0.06  35.00
sdd               0.00     0.00 6362.00    0.00 25448.00     0.00     8.00     0.85    0.13    0.13    0.00   0.06  36.20
sde               0.00     0.00 6100.00    0.00 24400.00     0.00     8.00     0.85    0.14    0.14    0.00   0.06  34.50
sdf               0.00     0.00 6027.00    0.00 24108.00     0.00     8.00     0.85    0.14    0.14    0.00   0.06  34.10
sdg               0.00     0.00    2.00   32.00    44.00   564.00    35.76     0.03    7.38    2.50    7.69   0.15   0.50
sdh               0.00     0.00    0.00    0.00     0.00     0.00     0.00     0.00    0.00    0.00    0.00   0.00   0.00
md0               0.00     0.00 36557.00    0.00 146228.00     0.00     8.00     0.00    0.00    0.00    0.00   0.00   0.00

avg-cpu:  %user   %nice %system %iowait  %steal   %idle
           1.53    0.26   11.22   42.86    0.00   44.13

Device:         rrqm/s   wrqm/s     r/s     w/s    rkB/s    wkB/s avgrq-sz avgqu-sz   await r_await w_await  svctm  %util
sda               0.00     0.00 6220.00    0.00 24880.00     0.00     8.00     0.74    0.12    0.12    0.00   0.05  32.20
sdb               0.00     0.00 6207.00    0.00 24828.00     0.00     8.00     0.75    0.12    0.12    0.00   0.05  33.80
sdc               0.00     0.00 6176.00    0.00 24704.00     0.00     8.00     0.86    0.14    0.14    0.00   0.06  34.80
sdd               0.00     0.00 6159.00    0.00 24636.00     0.00     8.00     0.88    0.14    0.14    0.00   0.06  36.60
sde               0.00     0.00 6078.00    0.00 24312.00     0.00     8.00     0.83    0.14    0.14    0.00   0.06  34.50
sdf               0.00     0.00 6182.00    0.00 24728.00     0.00     8.00     0.87    0.14    0.14    0.00   0.06  34.60
sdg               0.00     1.00   19.00   14.00   148.00   108.00    15.52     0.01    0.15    0.16    0.14   0.12   0.40
sdh               0.00     0.00    0.00    0.00     0.00     0.00     0.00     0.00    0.00    0.00    0.00   0.00   0.00
md0               0.00     0.00 37024.00    0.00 148096.00     0.00     8.00     0.00    0.00    0.00    0.00   0.00   0.00

avg-cpu:  %user   %nice %system %iowait  %steal   %idle
           1.77    0.00   11.39   44.30    0.00   42.53

Device:         rrqm/s   wrqm/s     r/s     w/s    rkB/s    wkB/s avgrq-sz avgqu-sz   await r_await w_await  svctm  %util
sda               0.00     0.00 6260.00    0.00 25040.00     0.00     8.00     0.82    0.13    0.13    0.00   0.05  34.10
sdb               0.00     0.00 6156.00    0.00 24624.00     0.00     8.00     0.81    0.13    0.13    0.00   0.05  33.50
sdc               0.00     0.00 6474.00    0.00 25896.00     0.00     8.00     0.93    0.14    0.14    0.00   0.06  38.70
sdd               0.00     0.00 6064.00    0.00 24256.00     0.00     8.00     0.79    0.13    0.13    0.00   0.06  33.60
sde               0.00     0.00 6279.00    0.00 25116.00     0.00     8.00     0.85    0.14    0.14    0.00   0.06  34.60
sdf               0.00     0.00 6209.00    0.00 24836.00     0.00     8.00     0.86    0.14    0.14    0.00   0.06  36.50
sdg               0.00     0.00    0.00    0.00     0.00     0.00     0.00     0.00    0.00    0.00    0.00   0.00   0.00
sdh               0.00     0.00    0.00    0.00     0.00     0.00     0.00     0.00    0.00    0.00    0.00   0.00   0.00
md0               0.00     0.00 37440.00    0.00 149760.00     0.00     8.00     0.00    0.00    0.00    0.00   0.00   0.00

avg-cpu:  %user   %nice %system %iowait  %steal   %idle
           2.03    0.00   11.17   43.65    0.00   43.15

Device:         rrqm/s   wrqm/s     r/s     w/s    rkB/s    wkB/s avgrq-sz avgqu-sz   await r_await w_await  svctm  %util
sda               0.00     0.00 6194.00    0.00 24776.00     0.00     8.00     0.70    0.11    0.11    0.00   0.05  29.70
sdb               0.00     0.00 6113.00    0.00 24452.00     0.00     8.00     0.73    0.12    0.12    0.00   0.05  30.40
sdc               0.00     0.00 6265.00    0.00 25060.00     0.00     8.00     0.92    0.15    0.15    0.00   0.06  35.40
sdd               0.00     0.00 6148.00    0.00 24592.00     0.00     8.00     0.82    0.13    0.13    0.00   0.06  35.80
sde               0.00     0.00 6488.00    0.00 25952.00     0.00     8.00     0.97    0.15    0.15    0.00   0.06  37.80
sdf               0.00     0.00 6310.00    0.00 25240.00     0.00     8.00     0.89    0.14    0.14    0.00   0.06  36.50
sdg               0.00     0.00    0.00    0.00     0.00     0.00     0.00     0.00    0.00    0.00    0.00   0.00   0.00
sdh               0.00     0.00    0.00    0.00     0.00     0.00     0.00     0.00    0.00    0.00    0.00   0.00   0.00
md0               0.00     0.00 37512.00    0.00 150048.00     0.00     8.00     0.00    0.00    0.00    0.00   0.00   0.00

avg-cpu:  %user   %nice %system %iowait  %steal   %idle
           2.01    0.00   12.31   43.47    0.00   42.21

Device:         rrqm/s   wrqm/s     r/s     w/s    rkB/s    wkB/s avgrq-sz avgqu-sz   await r_await w_await  svctm  %util
sda               0.00     0.00 6145.00    0.00 24580.00     0.00     8.00     0.84    0.14    0.14    0.00   0.05  33.40
sdb               0.00     0.00 6143.00    0.00 24572.00     0.00     8.00     0.76    0.12    0.12    0.00   0.05  30.50
sdc               0.00     0.00 6303.00    0.00 25212.00     0.00     8.00     0.86    0.14    0.14    0.00   0.05  34.20
sdd               0.00     0.00 6194.00    0.00 24776.00     0.00     8.00     0.78    0.13    0.13    0.00   0.05  31.70
sde               0.00     0.00 6268.00    0.00 25072.00     0.00     8.00     0.84    0.13    0.13    0.00   0.06  34.60
sdf               0.00     0.00 6318.00    0.00 25272.00     0.00     8.00     0.85    0.14    0.14    0.00   0.06  35.10
sdg               0.00    57.00    1.00 2437.00     4.00 11960.00     9.81    14.89    6.11    0.00    6.11   0.04  10.70
sdh               0.00     0.00    0.00    0.00     0.00     0.00     0.00     0.00    0.00    0.00    0.00   0.00   0.00
md0               0.00     0.00 37376.00    0.00 149504.00     0.00     8.00     0.00    0.00    0.00    0.00   0.00   0.00

avg-cpu:  %user   %nice %system %iowait  %steal   %idle
           1.53    0.00   11.22   43.88    0.00   43.37

Device:         rrqm/s   wrqm/s     r/s     w/s    rkB/s    wkB/s avgrq-sz avgqu-sz   await r_await w_await  svctm  %util
sda               0.00     0.00 5988.00    0.00 23952.00     0.00     8.00     0.77    0.13    0.13    0.00   0.05  31.30
sdb               0.00     0.00 6166.00    0.00 24664.00     0.00     8.00     0.78    0.13    0.13    0.00   0.05  33.30
sdc               0.00     0.00 6366.00    0.00 25464.00     0.00     8.00     0.90    0.14    0.14    0.00   0.06  37.00
sdd               0.00     0.00 6314.00    0.00 25256.00     0.00     8.00     0.84    0.13    0.13    0.00   0.05  34.60
sde               0.00     0.00 6305.00    0.00 25220.00     0.00     8.00     0.84    0.13    0.13    0.00   0.05  33.30
sdf               0.00     0.00 6228.00    0.00 24912.00     0.00     8.00     0.83    0.13    0.13    0.00   0.06  35.30
sdg               0.00     0.00    0.00    0.00     0.00     0.00     0.00     0.00    0.00    0.00    0.00   0.00   0.00
sdh               0.00     0.00    0.00    0.00     0.00     0.00     0.00     0.00    0.00    0.00    0.00   0.00   0.00
md0               0.00     0.00 37368.00    0.00 149472.00     0.00     8.00     0.00    0.00    0.00    0.00   0.00   0.00

avg-cpu:  %user   %nice %system %iowait  %steal   %idle
           1.50    0.00   12.53   42.86    0.00   43.11

Device:         rrqm/s   wrqm/s     r/s     w/s    rkB/s    wkB/s avgrq-sz avgqu-sz   await r_await w_await  svctm  %util
sda               0.00     0.00 6375.00    0.00 25500.00     0.00     8.00     0.79    0.12    0.12    0.00   0.05  32.40
sdb               0.00     0.00 6126.00    0.00 24504.00     0.00     8.00     0.74    0.12    0.12    0.00   0.05  31.70
sdc               0.00     0.00 6210.00    0.00 24840.00     0.00     8.00     0.84    0.14    0.14    0.00   0.06  34.80
sdd               0.00     0.00 6381.00    0.00 25524.00     0.00     8.00     0.96    0.15    0.15    0.00   0.06  38.40
sde               0.00     0.00 6241.00    0.00 24964.00     0.00     8.00     0.93    0.15    0.15    0.00   0.06  38.10
sdf               0.00     0.00 6200.00    0.00 24800.00     0.00     8.00     0.82    0.13    0.13    0.00   0.06  36.00
sdg               0.00     0.00    0.00    0.00     0.00     0.00     0.00     0.00    0.00    0.00    0.00   0.00   0.00
sdh               0.00     0.00    0.00    0.00     0.00     0.00     0.00     0.00    0.00    0.00    0.00   0.00   0.00
md0               0.00     0.00 37531.00    0.00 150124.00     0.00     8.00     0.00    0.00    0.00    0.00   0.00   0.00

avg-cpu:  %user   %nice %system %iowait  %steal   %idle
           1.79    0.00   10.71   43.11    0.00   44.39

Device:         rrqm/s   wrqm/s     r/s     w/s    rkB/s    wkB/s avgrq-sz avgqu-sz   await r_await w_await  svctm  %util
sda               0.00     0.00 6125.00    0.00 24500.00     0.00     8.00     0.74    0.12    0.12    0.00   0.05  31.00
sdb               0.00     0.00 6115.00    0.00 24460.00     0.00     8.00     0.79    0.13    0.13    0.00   0.05  33.20
sdc               0.00     0.00 6235.00    0.00 24940.00     0.00     8.00     0.87    0.14    0.14    0.00   0.06  35.80
sdd               0.00     0.00 6410.00    0.00 25640.00     0.00     8.00     0.92    0.14    0.14    0.00   0.06  37.70
sde               0.00     0.00 6279.00    0.00 25116.00     0.00     8.00     0.94    0.15    0.15    0.00   0.06  37.70
sdf               0.00     0.00 6231.00    0.00 24924.00     0.00     8.00     0.81    0.13    0.13    0.00   0.05  33.00
sdg               0.00     0.00    0.00    0.00     0.00     0.00     0.00     0.00    0.00    0.00    0.00   0.00   0.00
sdh               0.00     0.00    0.00    0.00     0.00     0.00     0.00     0.00    0.00    0.00    0.00   0.00   0.00
md0               0.00     0.00 37397.00    0.00 149588.00     0.00     8.00     0.00    0.00    0.00    0.00   0.00   0.00

avg-cpu:  %user   %nice %system %iowait  %steal   %idle
           1.54    0.00   10.54   43.44    0.00   44.47

Device:         rrqm/s   wrqm/s     r/s     w/s    rkB/s    wkB/s avgrq-sz avgqu-sz   await r_await w_await  svctm  %util
sda               0.00     0.00 6199.00    0.00 24796.00     0.00     8.00     0.79    0.13    0.13    0.00   0.06  34.50
sdb               0.00     0.00 6216.00    0.00 24864.00     0.00     8.00     0.77    0.12    0.12    0.00   0.05  31.60
sdc               0.00     0.00 6370.00    0.00 25480.00     0.00     8.00     0.83    0.13    0.13    0.00   0.06  35.30
sdd               0.00     0.00 6399.00    0.00 25596.00     0.00     8.00     0.93    0.15    0.15    0.00   0.06  36.90
sde               0.00     0.00 6289.00    0.00 25156.00     0.00     8.00     0.83    0.13    0.13    0.00   0.05  34.40
sdf               0.00     0.00 6150.00    0.00 24600.00     0.00     8.00     0.84    0.14    0.14    0.00   0.05  33.60
sdg               0.00     0.00    0.00    0.00     0.00     0.00     0.00     0.00    0.00    0.00    0.00   0.00   0.00
sdh               0.00     0.00    0.00    0.00     0.00     0.00     0.00     0.00    0.00    0.00    0.00   0.00   0.00
md0               0.00     0.00 37616.00    0.00 150464.00     0.00     8.00     0.00    0.00    0.00    0.00   0.00   0.00

avg-cpu:  %user   %nice %system %iowait  %steal   %idle
           1.55    0.00   10.05   43.56    0.00   44.85

Device:         rrqm/s   wrqm/s     r/s     w/s    rkB/s    wkB/s avgrq-sz avgqu-sz   await r_await w_await  svctm  %util
sda               0.00     0.00 6282.00    0.00 25128.00     0.00     8.00     0.83    0.13    0.13    0.00   0.06  35.40
sdb               0.00     0.00 6300.00    0.00 25200.00     0.00     8.00     0.80    0.13    0.13    0.00   0.05  33.50
sdc               0.00     0.00 6146.00    0.00 24584.00     0.00     8.00     0.84    0.14    0.14    0.00   0.06  35.10
sdd               0.00     0.00 6071.00    0.00 24284.00     0.00     8.00     0.85    0.14    0.14    0.00   0.06  36.20
sde               0.00     0.00 6399.00    0.00 25596.00     0.00     8.00     0.90    0.14    0.14    0.00   0.06  35.60
sdf               0.00     0.00 6219.00    0.00 24876.00     0.00     8.00     0.88    0.14    0.14    0.00   0.05  34.00
sdg               0.00     5.00   10.00  148.00    40.00   752.00    10.03     0.29    1.82    0.80    1.89   0.06   0.90
sdh               0.00     0.00    0.00    0.00     0.00     0.00     0.00     0.00    0.00    0.00    0.00   0.00   0.00
md0               0.00     0.00 37424.00    0.00 149696.00     0.00     8.00     0.00    0.00    0.00    0.00   0.00   0.00

avg-cpu:  %user   %nice %system %iowait  %steal   %idle
           1.27    0.00   11.45   43.26    0.00   44.02

Device:         rrqm/s   wrqm/s     r/s     w/s    rkB/s    wkB/s avgrq-sz avgqu-sz   await r_await w_await  svctm  %util
sda               0.00     0.00 6325.00    0.00 25300.00     0.00     8.00     0.71    0.11    0.11    0.00   0.05  31.10
sdb               0.00     0.00 6137.00    0.00 24548.00     0.00     8.00     0.75    0.12    0.12    0.00   0.05  33.60
sdc               0.00     0.00 6217.00    0.00 24868.00     0.00     8.00     0.86    0.14    0.14    0.00   0.06  36.90
sdd               0.00     0.00 6246.00    0.00 24988.00     0.00     8.00     0.88    0.14    0.14    0.00   0.06  37.40
sde               0.00     0.00 6254.00    0.00 25016.00     0.00     8.00     0.87    0.14    0.14    0.00   0.06  34.90
sdf               0.00     0.00 6367.00    0.00 25468.00     0.00     8.00     0.91    0.14    0.14    0.00   0.06  36.90
sdg               0.00     0.00    0.00    0.00     0.00     0.00     0.00     0.00    0.00    0.00    0.00   0.00   0.00
sdh               0.00     0.00    0.00    0.00     0.00     0.00     0.00     0.00    0.00    0.00    0.00   0.00   0.00
md0               0.00     0.00 37544.00    0.00 150176.00     0.00     8.00     0.00    0.00    0.00    0.00   0.00   0.00

avg-cpu:  %user   %nice %system %iowait  %steal   %idle
           1.78    0.25   11.42   42.64    0.00   43.91

Device:         rrqm/s   wrqm/s     r/s     w/s    rkB/s    wkB/s avgrq-sz avgqu-sz   await r_await w_await  svctm  %util
sda               0.00     0.00 6257.00    0.00 25028.00     0.00     8.00     0.78    0.12    0.12    0.00   0.05  32.80
sdb               0.00     0.00 6429.00    0.00 25716.00     0.00     8.00     0.81    0.13    0.13    0.00   0.05  33.20
sdc               0.00     0.00 6080.00    0.00 24320.00     0.00     8.00     0.76    0.12    0.12    0.00   0.05  31.10
sdd               0.00     0.00 6068.00    0.00 24268.00     0.00     8.00     0.78    0.13    0.13    0.00   0.05  32.50
sde               0.00     0.00 6255.00    0.00 25020.00     0.00     8.00     0.89    0.14    0.14    0.00   0.06  34.80
sdf               0.00     0.00 6365.00    0.00 25460.00     0.00     8.00     0.87    0.14    0.14    0.00   0.06  37.50
sdg               0.00     0.00    4.00    0.00    16.00     0.00     8.00     0.00    0.00    0.00    0.00   0.00   0.00
sdh               0.00     0.00    0.00    0.00     0.00     0.00     0.00     0.00    0.00    0.00    0.00   0.00   0.00
md0               0.00     0.00 37456.00    0.00 149824.00     0.00     8.00     0.00    0.00    0.00    0.00   0.00   0.00

avg-cpu:  %user   %nice %system %iowait  %steal   %idle
           1.78    0.00   11.20   43.77    0.00   43.26

Device:         rrqm/s   wrqm/s     r/s     w/s    rkB/s    wkB/s avgrq-sz avgqu-sz   await r_await w_await  svctm  %util
sda               0.00     0.00 6151.00    0.00 24604.00     0.00     8.00     0.83    0.14    0.14    0.00   0.05  33.70
sdb               0.00     0.00 6416.00    0.00 25664.00     0.00     8.00     0.79    0.12    0.12    0.00   0.05  32.90
sdc               0.00     0.00 6035.00    0.00 24140.00     0.00     8.00     0.76    0.13    0.13    0.00   0.05  32.70
sdd               0.00     0.00 6209.00    0.00 24836.00     0.00     8.00     0.81    0.13    0.13    0.00   0.05  31.20
sde               0.00     0.00 6255.00    0.00 25020.00     0.00     8.00     0.86    0.14    0.14    0.00   0.06  36.10
sdf               0.00     0.00 6262.00    0.00 25048.00     0.00     8.00     0.90    0.14    0.14    0.00   0.06  36.10
sdg               0.00     0.00    0.00    0.00     0.00     0.00     0.00     0.00    0.00    0.00    0.00   0.00   0.00
sdh               0.00     0.00    0.00    0.00     0.00     0.00     0.00     0.00    0.00    0.00    0.00   0.00   0.00
md0               0.00     0.00 37328.00    0.00 149312.00     0.00     8.00     0.00    0.00    0.00    0.00   0.00   0.00

avg-cpu:  %user   %nice %system %iowait  %steal   %idle
           1.75    0.00   12.97   42.14    0.00   43.14

Device:         rrqm/s   wrqm/s     r/s     w/s    rkB/s    wkB/s avgrq-sz avgqu-sz   await r_await w_await  svctm  %util
sda               0.00     0.00 6016.00    0.00 24064.00     0.00     8.00     0.66    0.11    0.11    0.00   0.05  27.90
sdb               0.00     0.00 6228.00    0.00 24912.00     0.00     8.00     0.76    0.12    0.12    0.00   0.05  32.40
sdc               0.00     0.00 6143.00    0.00 24572.00     0.00     8.00     0.84    0.14    0.14    0.00   0.05  33.40
sdd               0.00     0.00 6129.00    0.00 24516.00     0.00     8.00     0.88    0.14    0.14    0.00   0.06  36.70
sde               0.00     0.00 6340.00    0.00 25360.00     0.00     8.00     0.84    0.13    0.13    0.00   0.05  34.80
sdf               0.00     0.00 6317.00    0.00 25268.00     0.00     8.00     0.84    0.13    0.13    0.00   0.05  34.60
sdg               0.00     0.00    0.00    0.00     0.00     0.00     0.00     0.00    0.00    0.00    0.00   0.00   0.00
sdh               0.00     0.00    0.00    0.00     0.00     0.00     0.00     0.00    0.00    0.00    0.00   0.00   0.00
md0               0.00     0.00 37168.00    0.00 148672.00     0.00     8.00     0.00    0.00    0.00    0.00   0.00   0.00

avg-cpu:  %user   %nice %system %iowait  %steal   %idle
           1.76    0.00   12.06   43.97    0.00   42.21

Device:         rrqm/s   wrqm/s     r/s     w/s    rkB/s    wkB/s avgrq-sz avgqu-sz   await r_await w_await  svctm  %util
sda               0.00     0.00 6105.00    0.00 24420.00     0.00     8.00     0.70    0.12    0.12    0.00   0.05  32.60
sdb               0.00     0.00 6129.00    0.00 24516.00     0.00     8.00     0.79    0.13    0.13    0.00   0.05  32.60
sdc               0.00     0.00 6003.00    0.00 24012.00     0.00     8.00     0.86    0.14    0.14    0.00   0.06  34.10
sdd               0.00     0.00 6222.00    0.00 24888.00     0.00     8.00     0.97    0.16    0.16    0.00   0.06  37.20
sde               0.00     0.00 6469.00    0.00 25876.00     0.00     8.00     0.92    0.14    0.14    0.00   0.06  36.70
sdf               0.00     0.00 6423.00    0.00 25692.00     0.00     8.00     0.83    0.13    0.13    0.00   0.05  35.20
sdg               0.00     0.00    0.00    0.00     0.00     0.00     0.00     0.00    0.00    0.00    0.00   0.00   0.00
sdh               0.00     0.00    0.00    0.00     0.00     0.00     0.00     0.00    0.00    0.00    0.00   0.00   0.00
md0               0.00     0.00 37352.00    0.00 149408.00     0.00     8.00     0.00    0.00    0.00    0.00   0.00   0.00

avg-cpu:  %user   %nice %system %iowait  %steal   %idle
           1.53    0.00   11.00   43.22    0.00   44.25

Device:         rrqm/s   wrqm/s     r/s     w/s    rkB/s    wkB/s avgrq-sz avgqu-sz   await r_await w_await  svctm  %util
sda               0.00     0.00 6118.00    0.00 24472.00     0.00     8.00     0.73    0.12    0.12    0.00   0.05  33.40
sdb               0.00     0.00 6172.00    0.00 24688.00     0.00     8.00     0.75    0.12    0.12    0.00   0.05  32.10
sdc               0.00     0.00 6294.00    0.00 25176.00     0.00     8.00     0.89    0.14    0.14    0.00   0.06  35.40
sdd               0.00     0.00 6056.00    0.00 24224.00     0.00     8.00     0.86    0.14    0.14    0.00   0.06  36.70
sde               0.00     0.00 6343.00    0.00 25372.00     0.00     8.00     0.93    0.15    0.15    0.00   0.06  36.40
sdf               0.00     0.00 6265.00    0.00 25060.00     0.00     8.00     0.84    0.13    0.13    0.00   0.06  35.20
sdg               0.00     0.00    0.00    0.00     0.00     0.00     0.00     0.00    0.00    0.00    0.00   0.00   0.00
sdh               0.00     0.00    0.00    0.00     0.00     0.00     0.00     0.00    0.00    0.00    0.00   0.00   0.00
md0               0.00     0.00 37248.00    0.00 148992.00     0.00     8.00     0.00    0.00    0.00    0.00   0.00   0.00

avg-cpu:  %user   %nice %system %iowait  %steal   %idle
           1.76    0.00   11.84   42.57    0.00   43.83

Device:         rrqm/s   wrqm/s     r/s     w/s    rkB/s    wkB/s avgrq-sz avgqu-sz   await r_await w_await  svctm  %util
sda               0.00     0.00 6227.00    0.00 24908.00     0.00     8.00     0.86    0.14    0.14    0.00   0.06  34.60
sdb               0.00     0.00 6137.00    0.00 24548.00     0.00     8.00     0.82    0.13    0.13    0.00   0.06  33.90
sdc               0.00     0.00 6257.00    0.00 25028.00     0.00     8.00     0.85    0.14    0.14    0.00   0.06  35.50
sdd               0.00     0.00 6213.00    0.00 24852.00     0.00     8.00     0.77    0.12    0.12    0.00   0.05  33.00
sde               0.00     0.00 6428.00    0.00 25712.00     0.00     8.00     0.82    0.13    0.13    0.00   0.05  33.60
sdf               0.00     0.00 6171.00    0.00 24684.00     0.00     8.00     0.86    0.14    0.14    0.00   0.06  36.80
sdg               0.00     0.00    0.00    0.00     0.00     0.00     0.00     0.00    0.00    0.00    0.00   0.00   0.00
sdh               0.00     0.00    0.00    0.00     0.00     0.00     0.00     0.00    0.00    0.00    0.00   0.00   0.00
md0               0.00     0.00 37437.00    0.00 149744.00     0.00     8.00     0.00    0.00    0.00    0.00   0.00   0.00

avg-cpu:  %user   %nice %system %iowait  %steal   %idle
           2.02    0.00   11.62   43.43    0.00   42.93

Device:         rrqm/s   wrqm/s     r/s     w/s    rkB/s    wkB/s avgrq-sz avgqu-sz   await r_await w_await  svctm  %util
sda               0.00     0.00 6146.00    0.00 24584.00     0.00     8.00     0.70    0.11    0.11    0.00   0.05  31.50
sdb               0.00     0.00 6116.00    0.00 24464.00     0.00     8.00     0.73    0.12    0.12    0.00   0.05  29.90
sdc               0.00     0.00 6505.00    0.00 26020.00     0.00     8.00     0.80    0.12    0.12    0.00   0.05  32.80
sdd               0.00     0.00 6117.00    0.00 24468.00     0.00     8.00     0.84    0.14    0.14    0.00   0.06  34.20
sde               0.00     0.00 6160.00    0.00 24640.00     0.00     8.00     0.86    0.14    0.14    0.00   0.06  35.90
sdf               0.00     0.00 6230.00    0.00 24920.00     0.00     8.00     0.87    0.14    0.14    0.00   0.06  35.10
sdg               0.00     0.00    0.00    0.00     0.00     0.00     0.00     0.00    0.00    0.00    0.00   0.00   0.00
sdh               0.00     0.00    0.00    0.00     0.00     0.00     0.00     0.00    0.00    0.00    0.00   0.00   0.00
md0               0.00     0.00 37267.00    0.00 149072.00     0.00     8.00     0.00    0.00    0.00    0.00   0.00   0.00

avg-cpu:  %user   %nice %system %iowait  %steal   %idle
           1.27    0.00   11.45   43.26    0.00   44.02

Device:         rrqm/s   wrqm/s     r/s     w/s    rkB/s    wkB/s avgrq-sz avgqu-sz   await r_await w_await  svctm  %util
sda               0.00     0.00 6491.00    0.00 25964.00     0.00     8.00     0.89    0.14    0.14    0.00   0.06  36.40
sdb               0.00     0.00 6266.00    0.00 25064.00     0.00     8.00     0.81    0.13    0.13    0.00   0.06  35.10
sdc               0.00     0.00 6254.00    0.00 25016.00     0.00     8.00     0.86    0.14    0.14    0.00   0.06  35.20
sdd               0.00     0.00 6231.00    0.00 24924.00     0.00     8.00     0.80    0.13    0.13    0.00   0.06  34.40
sde               0.00     0.00 6286.00    0.00 25144.00     0.00     8.00     0.92    0.15    0.15    0.00   0.06  36.10
sdf               0.00     0.00 6089.00    0.00 24356.00     0.00     8.00     0.83    0.14    0.14    0.00   0.06  34.20
sdg               0.00     0.00    0.00    0.00     0.00     0.00     0.00     0.00    0.00    0.00    0.00   0.00   0.00
sdh               0.00     0.00    0.00    0.00     0.00     0.00     0.00     0.00    0.00    0.00    0.00   0.00   0.00
md0               0.00     0.00 37624.00    0.00 150496.00     0.00     8.00     0.00    0.00    0.00    0.00   0.00   0.00

avg-cpu:  %user   %nice %system %iowait  %steal   %idle
           1.29    0.00   10.05   43.81    0.00   44.85

Device:         rrqm/s   wrqm/s     r/s     w/s    rkB/s    wkB/s avgrq-sz avgqu-sz   await r_await w_await  svctm  %util
sda               0.00     0.00 6136.00    0.00 24544.00     0.00     8.00     0.81    0.13    0.13    0.00   0.05  32.20
sdb               0.00     0.00 6277.00    0.00 25108.00     0.00     8.00     0.76    0.12    0.12    0.00   0.05  31.00
sdc               0.00     0.00 6354.00    0.00 25416.00     0.00     8.00     0.88    0.14    0.14    0.00   0.05  34.10
sdd               0.00     0.00 6364.00    0.00 25456.00     0.00     8.00     0.80    0.12    0.12    0.00   0.05  34.20
sde               0.00     0.00 6289.00    0.00 25156.00     0.00     8.00     0.85    0.14    0.14    0.00   0.06  35.60
sdf               0.00     0.00 6204.00    0.00 24816.00     0.00     8.00     0.92    0.15    0.15    0.00   0.06  37.30
sdg               0.00     0.00    0.00    0.00     0.00     0.00     0.00     0.00    0.00    0.00    0.00   0.00   0.00
sdh               0.00     0.00    0.00    0.00     0.00     0.00     0.00     0.00    0.00    0.00    0.00   0.00   0.00
md0               0.00     0.00 37624.00    0.00 150496.00     0.00     8.00     0.00    0.00    0.00    0.00   0.00   0.00

