Linux 4.17.2 (bench) 	08/03/2018 	_x86_64_	(4 CPU)

avg-cpu:  %user   %nice %system %iowait  %steal   %idle
          10.26    0.02    4.15    2.68    0.00   82.89

Device:         rrqm/s   wrqm/s     r/s     w/s    rkB/s    wkB/s avgrq-sz avgqu-sz   await r_await w_await  svctm  %util
sda              50.52     4.20 1707.49  101.51 21254.96  3105.90    26.93     1.04    0.58    0.26    5.92   0.06  10.96
sdb              50.35     4.16 1707.47  101.64 21244.51  3102.59    26.92     1.04    0.58    0.26    5.85   0.06  10.84
sdc              88.10     4.22 1667.62  101.20 21236.66  3105.03    27.52     1.46    0.83    0.44    7.12   0.08  14.32
sdd              81.60     4.19 1673.31  101.27 21221.71  3101.27    27.41     1.47    0.83    0.43    7.33   0.08  14.42
sde              83.61     4.23 1678.39  101.36 21281.16  3105.47    27.40     1.49    0.84    0.44    7.44   0.08  14.44
sdf              80.74     4.21 1680.50  101.31 21262.49  3102.37    27.35     1.53    0.86    0.44    7.90   0.08  14.47
sdg               0.00     3.17   26.67   73.28   325.45   392.03    14.36     0.44    4.40    0.20    5.93   0.08   0.78
sdh               0.00     0.13    0.02    0.23     2.19     5.01    56.82     0.00    1.15    0.65    1.19   0.21   0.01
md0               0.00     0.00 10556.92  475.59 145686.93 21259.47    30.26     0.00    0.00    0.00    0.00   0.00   0.00

avg-cpu:  %user   %nice %system %iowait  %steal   %idle
           2.21    0.03   15.97   54.05    0.00   27.74

Device:         rrqm/s   wrqm/s     r/s     w/s    rkB/s    wkB/s avgrq-sz avgqu-sz   await r_await w_await  svctm  %util
sda               0.10     0.00 9389.75    0.00 41324.80     0.00     8.80     1.00    0.11    0.11    0.00   0.06  60.54
sdb               0.15     0.00 9413.25    0.00 41348.60     0.00     8.79     0.99    0.11    0.11    0.00   0.06  60.44
sdc               0.15     0.00 9421.95    0.00 41455.80     0.00     8.80     1.12    0.12    0.12    0.00   0.07  63.98
sdd               0.00     0.00 9455.45    0.00 41291.80     0.00     8.73     1.13    0.12    0.12    0.00   0.07  64.33
sde               0.00     0.00 9425.55    0.00 41192.40     0.00     8.74     1.11    0.12    0.12    0.00   0.07  63.55
sdf               0.05     0.00 9429.10    0.00 41079.00     0.00     8.71     1.13    0.12    0.12    0.00   0.07  64.56
sdg               0.00     0.30    3.10  129.40    31.80   645.20    10.22     0.75    5.67    0.29    5.80   0.05   0.62
sdh               0.00     0.00    0.00    0.00     0.00     0.00     0.00     0.00    0.00    0.00    0.00   0.00   0.00
md0               0.00     0.00 56535.75    0.00 249249.00     0.00     8.82     0.00    0.00    0.00    0.00   0.00   0.00

