Linux 4.17.2 (bench) 	08/03/2018 	_x86_64_	(4 CPU)

avg-cpu:  %user   %nice %system %iowait  %steal   %idle
          10.26    0.02    4.14    2.68    0.00   82.89

Device:         rrqm/s   wrqm/s     r/s     w/s    rkB/s    wkB/s avgrq-sz avgqu-sz   await r_await w_await  svctm  %util
sda              50.53     4.20 1705.99  101.52 21250.74  3106.28    26.95     1.04    0.58    0.26    5.92   0.06  10.95
sdb              50.36     4.16 1705.97  101.65 21240.28  3102.98    26.93     1.04    0.58    0.26    5.85   0.06  10.83
sdc              88.11     4.22 1666.12  101.21 21232.44  3105.42    27.54     1.46    0.83    0.44    7.12   0.08  14.32
sdd              81.61     4.19 1671.81  101.28 21217.49  3101.65    27.43     1.47    0.83    0.43    7.33   0.08  14.41
sde              83.62     4.23 1676.89  101.37 21276.94  3105.86    27.42     1.49    0.84    0.44    7.44   0.08  14.44
sdf              80.75     4.21 1679.00  101.32 21258.27  3102.75    27.37     1.53    0.86    0.44    7.90   0.08  14.47
sdg               0.00     3.17   26.67   73.28   325.43   392.04    14.36     0.44    4.40    0.20    5.93   0.08   0.78
sdh               0.00     0.13    0.02    0.23     2.19     5.01    56.82     0.00    1.15    0.65    1.19   0.21   0.01
md0               0.00     0.00 10548.00  475.65 145663.83 21262.09    30.29     0.00    0.00    0.00    0.00   0.00   0.00

avg-cpu:  %user   %nice %system %iowait  %steal   %idle
           0.51    0.00   18.83   62.09    0.00   18.58

Device:         rrqm/s   wrqm/s     r/s     w/s    rkB/s    wkB/s avgrq-sz avgqu-sz   await r_await w_await  svctm  %util
sda               0.00     0.00 10576.00    0.00 42304.00     0.00     8.00     1.05    0.10    0.10    0.00   0.06  63.80
sdb               0.00     0.00 10495.00    0.00 41980.00     0.00     8.00     1.01    0.10    0.10    0.00   0.06  66.40
sdc               0.00     0.00 10691.00    0.00 42772.00     0.00     8.00     1.25    0.12    0.12    0.00   0.07  72.80
sdd               0.00     0.00 10502.00    0.00 42024.00     0.00     8.00     1.16    0.11    0.11    0.00   0.07  68.30
sde               0.00     0.00 10541.00    0.00 42164.00     0.00     8.00     1.22    0.12    0.12    0.00   0.07  70.10
sdf               0.00     0.00 10697.00    0.00 42788.00     0.00     8.00     1.24    0.12    0.12    0.00   0.07  72.10
sdg               0.00     0.00    3.00    1.00    88.00    16.00    52.00     0.00    0.25    0.33    0.00   0.25   0.10
sdh               0.00     0.00    0.00    0.00     0.00     0.00     0.00     0.00    0.00    0.00    0.00   0.00   0.00
md0               0.00     0.00 63510.00    0.00 254064.00     0.00     8.00     0.00    0.00    0.00    0.00   0.00   0.00

avg-cpu:  %user   %nice %system %iowait  %steal   %idle
           0.77    0.00   18.62   63.27    0.00   17.35

Device:         rrqm/s   wrqm/s     r/s     w/s    rkB/s    wkB/s avgrq-sz avgqu-sz   await r_await w_await  svctm  %util
sda               0.00     0.00 10709.00    0.00 42844.00     0.00     8.00     1.08    0.10    0.10    0.00   0.06  65.50
sdb               0.00     0.00 10672.00    0.00 42712.00     0.00     8.00     1.14    0.11    0.11    0.00   0.06  65.90
sdc               0.00     0.00 10606.00    0.00 42424.00     0.00     8.00     1.20    0.11    0.11    0.00   0.07  70.40
sdd               0.00     0.00 10504.00    0.00 42024.00     0.00     8.00     1.13    0.11    0.11    0.00   0.06  67.80
sde               0.00     0.00 10690.00    0.00 42760.00     0.00     8.00     1.22    0.11    0.11    0.00   0.07  70.10
sdf               0.00     0.00 10573.00    0.00 42292.00     0.00     8.00     1.16    0.11    0.11    0.00   0.06  66.50
sdg               0.00     0.00    0.00    0.00     0.00     0.00     0.00     0.00    0.00    0.00    0.00   0.00   0.00
sdh               0.00     0.00    0.00    0.00     0.00     0.00     0.00     0.00    0.00    0.00    0.00   0.00   0.00
md0               0.00     0.00 63759.00    0.00 255076.00     0.00     8.00     0.00    0.00    0.00    0.00   0.00   0.00

avg-cpu:  %user   %nice %system %iowait  %steal   %idle
           0.51    0.26   18.72   62.82    0.00   17.69

Device:         rrqm/s   wrqm/s     r/s     w/s    rkB/s    wkB/s avgrq-sz avgqu-sz   await r_await w_await  svctm  %util
sda               0.00     0.00 10576.00    0.00 42304.00     0.00     8.00     1.10    0.10    0.10    0.00   0.06  65.40
sdb               0.00     0.00 10440.00    0.00 41760.00     0.00     8.00     1.05    0.10    0.10    0.00   0.06  64.20
sdc               0.00     0.00 10459.00    0.00 41836.00     0.00     8.00     1.23    0.12    0.12    0.00   0.07  71.50
sdd               0.00     0.00 10583.00    0.00 42332.00     0.00     8.00     1.22    0.12    0.12    0.00   0.07  68.90
sde               0.00     0.00 10581.00    0.00 42324.00     0.00     8.00     1.16    0.11    0.11    0.00   0.06  68.70
sdf               0.00     0.00 10473.00    0.00 41900.00     0.00     8.00     1.18    0.11    0.11    0.00   0.07  68.10
sdg               0.00     0.00   43.00    0.00   484.00     0.00    22.51     0.01    0.14    0.14    0.00   0.12   0.50
sdh               0.00     0.00    0.00    0.00     0.00     0.00     0.00     0.00    0.00    0.00    0.00   0.00   0.00
md0               0.00     0.00 63117.00    0.00 252476.00     0.00     8.00     0.00    0.00    0.00    0.00   0.00   0.00

avg-cpu:  %user   %nice %system %iowait  %steal   %idle
           0.75    0.00   19.60   60.05    0.00   19.60

Device:         rrqm/s   wrqm/s     r/s     w/s    rkB/s    wkB/s avgrq-sz avgqu-sz   await r_await w_await  svctm  %util
sda               0.00     0.00 10251.00    0.00 41004.00     0.00     8.00     1.05    0.10    0.10    0.00   0.06  64.30
sdb               0.00     0.00 10245.00    0.00 40992.00     0.00     8.00     1.07    0.10    0.10    0.00   0.07  67.60
sdc               0.00     0.00 10340.00    0.00 41368.00     0.00     8.00     1.17    0.11    0.11    0.00   0.07  69.00
sdd               0.00     0.00 10262.00    0.00 41072.00     0.00     8.00     1.14    0.11    0.11    0.00   0.07  67.30
sde               0.00     0.00 10307.00    0.00 41236.00     0.00     8.00     1.13    0.11    0.11    0.00   0.07  67.40
sdf               0.00     0.00 10260.00    0.00 41048.00     0.00     8.00     1.26    0.12    0.12    0.00   0.07  68.50
sdg               0.00     0.00    0.00    0.00     0.00     0.00     0.00     0.00    0.00    0.00    0.00   0.00   0.00
sdh               0.00     0.00    0.00    0.00     0.00     0.00     0.00     0.00    0.00    0.00    0.00   0.00   0.00
md0               0.00     0.00 61647.00    0.00 246656.00     0.00     8.00     0.00    0.00    0.00    0.00   0.00   0.00

avg-cpu:  %user   %nice %system %iowait  %steal   %idle
           0.51    0.00   17.95   59.74    0.00   21.79

Device:         rrqm/s   wrqm/s     r/s     w/s    rkB/s    wkB/s avgrq-sz avgqu-sz   await r_await w_await  svctm  %util
sda               0.00     0.00 10192.00    0.00 40784.00     0.00     8.00     1.06    0.10    0.10    0.00   0.06  64.00
sdb               0.00     0.00 10058.00    0.00 40256.00     0.00     8.00     1.00    0.10    0.10    0.00   0.06  63.20
sdc               0.00     0.00 10127.00    0.00 40524.00     0.00     8.00     1.18    0.12    0.12    0.00   0.07  68.80
sdd               0.00     0.00 10248.00    0.00 40992.00     0.00     8.00     1.13    0.11    0.11    0.00   0.07  66.80
sde               0.00     0.00 10034.00    0.00 40144.00     0.00     8.00     1.12    0.11    0.11    0.00   0.07  67.30
sdf               0.00     0.00 10202.00    0.00 40816.00     0.00     8.00     1.31    0.13    0.13    0.00   0.07  70.80
sdg               0.00     0.00    0.00    0.00     0.00     0.00     0.00     0.00    0.00    0.00    0.00   0.00   0.00
sdh               0.00     0.00    0.00    0.00     0.00     0.00     0.00     0.00    0.00    0.00    0.00   0.00   0.00
md0               0.00     0.00 60879.00    0.00 243588.00     0.00     8.00     0.00    0.00    0.00    0.00   0.00   0.00

avg-cpu:  %user   %nice %system %iowait  %steal   %idle
           0.51    0.00   19.19   59.60    0.00   20.71

Device:         rrqm/s   wrqm/s     r/s     w/s    rkB/s    wkB/s avgrq-sz avgqu-sz   await r_await w_await  svctm  %util
sda               0.00     0.00 10217.00    0.00 40884.00     0.00     8.00     1.05    0.10    0.10    0.00   0.06  64.80
sdb               0.00     0.00 10097.00    0.00 40388.00     0.00     8.00     1.03    0.10    0.10    0.00   0.06  62.50
sdc               0.00     0.00 10059.00    0.00 40284.00     0.00     8.01     1.11    0.11    0.11    0.00   0.07  66.00
sdd               0.00     0.00 10090.00    0.00 40368.00     0.00     8.00     1.15    0.11    0.11    0.00   0.07  68.70
sde               0.00     0.00 10077.00    0.00 40324.00     0.00     8.00     1.15    0.11    0.11    0.00   0.07  68.70
sdf               0.00     0.00 10435.00    0.00 41740.00     0.00     8.00     1.32    0.13    0.13    0.00   0.07  70.50
sdg               0.00     0.00    0.00    0.00     0.00     0.00     0.00     0.00    0.00    0.00    0.00   0.00   0.00
sdh               0.00     0.00    0.00    0.00     0.00     0.00     0.00     0.00    0.00    0.00    0.00   0.00   0.00
md0               0.00     0.00 60972.00    0.00 243976.00     0.00     8.00     0.00    0.00    0.00    0.00   0.00   0.00

avg-cpu:  %user   %nice %system %iowait  %steal   %idle
           0.51    0.00   18.58   60.05    0.00   20.87

Device:         rrqm/s   wrqm/s     r/s     w/s    rkB/s    wkB/s avgrq-sz avgqu-sz   await r_await w_await  svctm  %util
sda               0.00     0.00 10022.00    0.00 40120.00     0.00     8.01     1.02    0.10    0.10    0.00   0.06  63.30
sdb               0.00     0.00 10036.00    0.00 40176.00     0.00     8.01     1.01    0.10    0.10    0.00   0.06  63.50
sdc               0.00     0.00 10307.00    0.00 41268.00     0.00     8.01     1.13    0.11    0.11    0.00   0.07  67.20
sdd               0.00     0.00 10207.00    0.00 40852.00     0.00     8.00     1.16    0.11    0.11    0.00   0.07  69.70
sde               0.00     0.00 10205.00    0.00 40844.00     0.00     8.00     1.20    0.12    0.12    0.00   0.07  69.70
sdf               0.00     0.00 10217.00    0.00 40884.00     0.00     8.00     1.27    0.12    0.12    0.00   0.07  71.90
sdg               0.00     0.00   16.00    0.00   296.00     0.00    37.00     0.00    0.19    0.19    0.00   0.19   0.30
sdh               0.00     0.00    0.00    0.00     0.00     0.00     0.00     0.00    0.00    0.00    0.00   0.00   0.00
md0               0.00     0.00 60999.00    0.00 244164.00     0.00     8.01     0.00    0.00    0.00    0.00   0.00   0.00

avg-cpu:  %user   %nice %system %iowait  %steal   %idle
           0.76    0.00   18.78   60.41    0.00   20.05

Device:         rrqm/s   wrqm/s     r/s     w/s    rkB/s    wkB/s avgrq-sz avgqu-sz   await r_await w_await  svctm  %util
sda               0.00     0.00 10237.00    0.00 40972.00     0.00     8.00     1.03    0.10    0.10    0.00   0.06  63.60
sdb               0.00     0.00 10243.00    0.00 41000.00     0.00     8.01     1.02    0.10    0.10    0.00   0.06  63.50
sdc               0.00     0.00 10348.00    0.00 41400.00     0.00     8.00     1.20    0.12    0.12    0.00   0.07  69.60
sdd               0.00     0.00 10092.00    0.00 40404.00     0.00     8.01     1.12    0.11    0.11    0.00   0.07  67.50
sde               0.00     0.00 10308.00    0.00 41268.00     0.00     8.01     1.23    0.12    0.12    0.00   0.07  70.00
sdf               0.00     0.00 9955.00    0.00 39836.00     0.00     8.00     1.24    0.12    0.12    0.00   0.07  68.90
sdg               0.00     0.00    0.00    0.00     0.00     0.00     0.00     0.00    0.00    0.00    0.00   0.00   0.00
sdh               0.00     0.00    0.00    0.00     0.00     0.00     0.00     0.00    0.00    0.00    0.00   0.00   0.00
md0               0.00     0.00 61179.00    0.00 244856.00     0.00     8.00     0.00    0.00    0.00    0.00   0.00   0.00

avg-cpu:  %user   %nice %system %iowait  %steal   %idle
           0.51    0.00   18.11   58.93    0.00   22.45

Device:         rrqm/s   wrqm/s     r/s     w/s    rkB/s    wkB/s avgrq-sz avgqu-sz   await r_await w_await  svctm  %util
sda               0.00     0.00 10157.00    0.00 40668.00     0.00     8.01     1.03    0.10    0.10    0.00   0.06  63.40
sdb               0.00     0.00 9908.00    0.00 39652.00     0.00     8.00     1.01    0.10    0.10    0.00   0.06  64.40
sdc               0.00     0.00 10098.00    0.00 40412.00     0.00     8.00     1.16    0.11    0.11    0.00   0.07  67.50
sdd               0.00     0.00 10152.00    0.00 40628.00     0.00     8.00     1.17    0.12    0.12    0.00   0.07  67.20
sde               0.00     0.00 10072.00    0.00 40304.00     0.00     8.00     1.10    0.11    0.11    0.00   0.07  65.70
sdf               0.00     0.00 9948.00    0.00 39816.00     0.00     8.00     1.27    0.13    0.13    0.00   0.07  71.80
sdg               0.00     2.00    8.00    3.00    32.00    44.00    13.82     0.00    0.09    0.12    0.00   0.09   0.10
sdh               0.00     0.00    0.00    0.00     0.00     0.00     0.00     0.00    0.00    0.00    0.00   0.00   0.00
md0               0.00     0.00 60319.00    0.00 241424.00     0.00     8.00     0.00    0.00    0.00    0.00   0.00   0.00

avg-cpu:  %user   %nice %system %iowait  %steal   %idle
           0.51    0.00   19.29   59.39    0.00   20.81

Device:         rrqm/s   wrqm/s     r/s     w/s    rkB/s    wkB/s avgrq-sz avgqu-sz   await r_await w_await  svctm  %util
sda               0.00     0.00 10077.00    0.00 40352.00     0.00     8.01     1.03    0.10    0.10    0.00   0.06  64.70
sdb               0.00     0.00 10183.00    0.00 40760.00     0.00     8.01     1.00    0.10    0.10    0.00   0.06  63.50
sdc               0.00     0.00 10027.00    0.00 40140.00     0.00     8.01     1.09    0.11    0.11    0.00   0.07  67.30
sdd               0.00     0.00 10114.00    0.00 40496.00     0.00     8.01     1.14    0.11    0.11    0.00   0.07  68.80
sde               0.00     0.00 10096.00    0.00 40408.00     0.00     8.00     1.15    0.11    0.11    0.00   0.07  67.10
sdf               0.00     0.00 10258.00    0.00 41064.00     0.00     8.01     1.35    0.13    0.13    0.00   0.07  70.90
sdg               0.00     0.00    0.00    0.00     0.00     0.00     0.00     0.00    0.00    0.00    0.00   0.00   0.00
sdh               0.00     0.00    0.00    0.00     0.00     0.00     0.00     0.00    0.00    0.00    0.00   0.00   0.00
md0               0.00     0.00 60774.00    0.00 243304.00     0.00     8.01     0.00    0.00    0.00    0.00   0.00   0.00

avg-cpu:  %user   %nice %system %iowait  %steal   %idle
           0.51    0.00   18.78   59.14    0.00   21.57

Device:         rrqm/s   wrqm/s     r/s     w/s    rkB/s    wkB/s avgrq-sz avgqu-sz   await r_await w_await  svctm  %util
sda               0.00     0.00 10002.00    0.00 40016.00     0.00     8.00     1.05    0.10    0.10    0.00   0.06  64.00
sdb               0.00     0.00 10121.00    0.00 40532.00     0.00     8.01     1.04    0.10    0.10    0.00   0.06  64.10
sdc               0.00     0.00 10221.00    0.00 40908.00     0.00     8.00     1.15    0.11    0.11    0.00   0.07  66.90
sdd               0.00     0.00 10183.00    0.00 40780.00     0.00     8.01     1.15    0.11    0.11    0.00   0.07  68.90
sde               0.00     0.00 10151.00    0.00 40652.00     0.00     8.01     1.08    0.11    0.11    0.00   0.06  65.80
sdf               0.00     0.00 10041.00    0.00 40180.00     0.00     8.00     1.34    0.13    0.13    0.00   0.07  70.80
sdg               0.00     0.00    0.00    0.00     0.00     0.00     0.00     0.00    0.00    0.00    0.00   0.00   0.00
sdh               0.00     0.00    0.00    0.00     0.00     0.00     0.00     0.00    0.00    0.00    0.00   0.00   0.00
md0               0.00     0.00 60714.00    0.00 243056.00     0.00     8.01     0.00    0.00    0.00    0.00   0.00   0.00

avg-cpu:  %user   %nice %system %iowait  %steal   %idle
           0.77    0.00   17.90   60.36    0.00   20.97

Device:         rrqm/s   wrqm/s     r/s     w/s    rkB/s    wkB/s avgrq-sz avgqu-sz   await r_await w_await  svctm  %util
sda               0.00     0.00 10088.00    0.00 40412.00     0.00     8.01     1.08    0.11    0.11    0.00   0.06  65.40
sdb               0.00     0.00 10149.00    0.00 40644.00     0.00     8.01     0.96    0.09    0.09    0.00   0.06  61.70
sdc               0.00     0.00 10030.00    0.00 40176.00     0.00     8.01     1.13    0.11    0.11    0.00   0.07  65.70
sdd               0.00     0.00 10177.00    0.00 40724.00     0.00     8.00     1.20    0.12    0.12    0.00   0.07  67.40
sde               0.00     0.00 9972.00    0.00 39972.00     0.00     8.02     1.08    0.11    0.11    0.00   0.07  65.50
sdf               0.00     0.00 9978.00    0.00 39944.00     0.00     8.01     1.34    0.13    0.13    0.00   0.07  71.20
sdg               0.00     0.00    0.00    0.00     0.00     0.00     0.00     0.00    0.00    0.00    0.00   0.00   0.00
sdh               0.00     0.00    0.00    0.00     0.00     0.00     0.00     0.00    0.00    0.00    0.00   0.00   0.00
md0               0.00     0.00 60399.00    0.00 241892.00     0.00     8.01     0.00    0.00    0.00    0.00   0.00   0.00

avg-cpu:  %user   %nice %system %iowait  %steal   %idle
           0.77    0.26   18.62   59.44    0.00   20.92

Device:         rrqm/s   wrqm/s     r/s     w/s    rkB/s    wkB/s avgrq-sz avgqu-sz   await r_await w_await  svctm  %util
sda               0.00     0.00 9987.00    0.00 40036.00     0.00     8.02     1.02    0.10    0.10    0.00   0.06  63.50
sdb               0.00     0.00 10062.00    0.00 40340.00     0.00     8.02     1.03    0.10    0.10    0.00   0.06  64.90
sdc               0.00     0.00 10163.00    0.00 40704.00     0.00     8.01     1.20    0.12    0.12    0.00   0.07  67.30
sdd               0.00     0.00 9900.00    0.00 39656.00     0.00     8.01     1.08    0.11    0.11    0.00   0.07  64.50
sde               0.00     0.00 10022.00    0.00 40128.00     0.00     8.01     1.14    0.11    0.11    0.00   0.07  67.40
sdf               0.00     0.00 10250.00    0.00 41036.00     0.00     8.01     1.28    0.12    0.12    0.00   0.07  70.90
sdg               0.00     0.00    4.00    0.00    16.00     0.00     8.00     0.00    0.00    0.00    0.00   0.00   0.00
sdh               0.00     0.00    0.00    0.00     0.00     0.00     0.00     0.00    0.00    0.00    0.00   0.00   0.00
md0               0.00     0.00 60382.00    0.00 241900.00     0.00     8.01     0.00    0.00    0.00    0.00   0.00   0.00

avg-cpu:  %user   %nice %system %iowait  %steal   %idle
           0.52    0.00   17.31   60.98    0.00   21.19

Device:         rrqm/s   wrqm/s     r/s     w/s    rkB/s    wkB/s avgrq-sz avgqu-sz   await r_await w_await  svctm  %util
sda               0.00     0.00 10181.00    0.00 40796.00     0.00     8.01     1.03    0.10    0.10    0.00   0.06  61.80
sdb               0.00     0.00 10160.00    0.00 40688.00     0.00     8.01     1.08    0.11    0.11    0.00   0.06  64.60
sdc               0.00     0.00 9942.00    0.00 39852.00     0.00     8.02     1.12    0.11    0.11    0.00   0.07  67.20
sdd               0.00     0.00 9954.00    0.00 39928.00     0.00     8.02     1.16    0.12    0.12    0.00   0.07  67.00
sde               0.00     0.00 9978.00    0.00 40008.00     0.00     8.02     1.14    0.11    0.11    0.00   0.07  68.40
sdf               0.00     0.00 9755.00    0.00 39060.00     0.00     8.01     1.26    0.13    0.13    0.00   0.07  69.50
sdg               0.00     0.00    0.00    0.00     0.00     0.00     0.00     0.00    0.00    0.00    0.00   0.00   0.00
sdh               0.00     0.00    0.00    0.00     0.00     0.00     0.00     0.00    0.00    0.00    0.00   0.00   0.00
md0               0.00     0.00 59967.00    0.00 240328.00     0.00     8.02     0.00    0.00    0.00    0.00   0.00   0.00

avg-cpu:  %user   %nice %system %iowait  %steal   %idle
           0.75    0.00   20.10   58.29    0.00   20.85

Device:         rrqm/s   wrqm/s     r/s     w/s    rkB/s    wkB/s avgrq-sz avgqu-sz   await r_await w_await  svctm  %util
sda               0.00     0.00 10015.00    0.00 40112.00     0.00     8.01     1.02    0.10    0.10    0.00   0.06  63.00
sdb               0.00     0.00 9852.00    0.00 39500.00     0.00     8.02     0.99    0.10    0.10    0.00   0.06  63.40
sdc               0.00     0.00 10076.00    0.00 40372.00     0.00     8.01     1.15    0.11    0.11    0.00   0.07  66.60
sdd               0.00     0.00 10037.00    0.00 40220.00     0.00     8.01     1.10    0.11    0.11    0.00   0.07  67.30
sde               0.00     0.00 9978.00    0.00 39976.00     0.00     8.01     1.17    0.12    0.12    0.00   0.07  66.80
sdf               0.00     0.00 10115.00    0.00 40592.00     0.00     8.03     1.29    0.13    0.13    0.00   0.07  70.30
sdg               0.00    86.00    0.00 1432.00     0.00  7400.00    10.34     8.48    5.92    0.00    5.92   0.04   6.30
sdh               0.00     0.00    0.00    0.00     0.00     0.00     0.00     0.00    0.00    0.00    0.00   0.00   0.00
md0               0.00     0.00 60067.00    0.00 240760.00     0.00     8.02     0.00    0.00    0.00    0.00   0.00   0.00

avg-cpu:  %user   %nice %system %iowait  %steal   %idle
           0.51    0.00   18.99   59.49    0.00   21.01

Device:         rrqm/s   wrqm/s     r/s     w/s    rkB/s    wkB/s avgrq-sz avgqu-sz   await r_await w_await  svctm  %util
sda               0.00     0.00 10271.00    0.00 41180.00     0.00     8.02     1.04    0.10    0.10    0.00   0.06  64.00
sdb               0.00     0.00 10086.00    0.00 40448.00     0.00     8.02     1.02    0.10    0.10    0.00   0.06  63.30
sdc               0.00     0.00 10142.00    0.00 40656.00     0.00     8.02     1.15    0.11    0.11    0.00   0.07  68.40
sdd               0.00     0.00 10163.00    0.00 40772.00     0.00     8.02     1.13    0.11    0.11    0.00   0.07  69.10
sde               0.00     0.00 10212.00    0.00 40956.00     0.00     8.02     1.12    0.11    0.11    0.00   0.07  68.00
sdf               0.00     0.00 10006.00    0.00 40140.00     0.00     8.02     1.32    0.13    0.13    0.00   0.07  70.90
sdg               0.00     0.00    0.00    0.00     0.00     0.00     0.00     0.00    0.00    0.00    0.00   0.00   0.00
sdh               0.00     0.00    0.00    0.00     0.00     0.00     0.00     0.00    0.00    0.00    0.00   0.00   0.00
md0               0.00     0.00 60888.00    0.00 244196.00     0.00     8.02     0.00    0.00    0.00    0.00   0.00   0.00

avg-cpu:  %user   %nice %system %iowait  %steal   %idle
           0.76    0.00   18.32   58.27    0.00   22.65

Device:         rrqm/s   wrqm/s     r/s     w/s    rkB/s    wkB/s avgrq-sz avgqu-sz   await r_await w_await  svctm  %util
sda               0.00     0.00 10037.00    0.00 40224.00     0.00     8.02     1.03    0.10    0.10    0.00   0.06  64.30
sdb               0.00     0.00 9857.00    0.00 39544.00     0.00     8.02     1.03    0.10    0.10    0.00   0.06  62.40
sdc               0.00     0.00 9936.00    0.00 39828.00     0.00     8.02     1.11    0.11    0.11    0.00   0.07  66.10
sdd               0.00     0.00 10062.00    0.00 40332.00     0.00     8.02     1.12    0.11    0.11    0.00   0.07  67.30
sde               0.00     0.00 10014.00    0.00 40160.00     0.00     8.02     1.15    0.11    0.11    0.00   0.07  67.50
sdf               0.00     0.00 9993.00    0.00 40076.00     0.00     8.02     1.31    0.13    0.13    0.00   0.07  69.00
sdg               0.00     0.00    0.00    0.00     0.00     0.00     0.00     0.00    0.00    0.00    0.00   0.00   0.00
sdh               0.00     0.00    0.00    0.00     0.00     0.00     0.00     0.00    0.00    0.00    0.00   0.00   0.00
md0               0.00     0.00 59906.00    0.00 240192.00     0.00     8.02     0.00    0.00    0.00    0.00   0.00   0.00

avg-cpu:  %user   %nice %system %iowait  %steal   %idle
           0.51    0.00   19.29   59.64    0.00   20.56

Device:         rrqm/s   wrqm/s     r/s     w/s    rkB/s    wkB/s avgrq-sz avgqu-sz   await r_await w_await  svctm  %util
sda               0.00     0.00 10126.00    0.00 40608.00     0.00     8.02     0.97    0.10    0.10    0.00   0.06  61.30
sdb               0.00     0.00 9955.00    0.00 39932.00     0.00     8.02     1.04    0.10    0.10    0.00   0.06  63.30
sdc               0.00     0.00 9951.00    0.00 39908.00     0.00     8.02     1.12    0.11    0.11    0.00   0.07  67.40
sdd               0.00     0.00 10201.00    0.00 40924.00     0.00     8.02     1.14    0.11    0.11    0.00   0.07  66.40
sde               0.00     0.00 10217.00    0.00 40924.00     0.00     8.01     1.12    0.11    0.11    0.00   0.07  66.50
sdf               0.00     0.00 10180.00    0.00 40832.00     0.00     8.02     1.38    0.14    0.14    0.00   0.07  73.20
sdg               0.00     0.00    0.00    0.00     0.00     0.00     0.00     0.00    0.00    0.00    0.00   0.00   0.00
sdh               0.00     0.00    0.00    0.00     0.00     0.00     0.00     0.00    0.00    0.00    0.00   0.00   0.00
md0               0.00     0.00 60626.00    0.00 243120.00     0.00     8.02     0.00    0.00    0.00    0.00   0.00   0.00

avg-cpu:  %user   %nice %system %iowait  %steal   %idle
           0.51    0.00   18.21   58.46    0.00   22.82

Device:         rrqm/s   wrqm/s     r/s     w/s    rkB/s    wkB/s avgrq-sz avgqu-sz   await r_await w_await  svctm  %util
sda               0.00     0.00 9734.00    0.00 39064.00     0.00     8.03     0.98    0.10    0.10    0.00   0.06  63.20
sdb               0.00     0.00 10056.00    0.00 40304.00     0.00     8.02     1.01    0.10    0.10    0.00   0.06  63.60
sdc               0.00     0.00 9940.00    0.00 39892.00     0.00     8.03     1.12    0.11    0.11    0.00   0.07  68.10
sdd               0.00     0.00 9885.00    0.00 39664.00     0.00     8.03     1.11    0.11    0.11    0.00   0.07  67.10
sde               0.00     0.00 10049.00    0.00 40272.00     0.00     8.02     1.18    0.12    0.12    0.00   0.07  67.50
sdf               0.00     0.00 9898.00    0.00 39692.00     0.00     8.02     1.32    0.13    0.13    0.00   0.07  69.10
sdg               0.00     0.00    0.00    0.00     0.00     0.00     0.00     0.00    0.00    0.00    0.00   0.00   0.00
sdh               0.00     0.00    0.00    0.00     0.00     0.00     0.00     0.00    0.00    0.00    0.00   0.00   0.00
md0               0.00     0.00 59548.00    0.00 238864.00     0.00     8.02     0.00    0.00    0.00    0.00   0.00   0.00

avg-cpu:  %user   %nice %system %iowait  %steal   %idle
           0.50    0.00   20.60   60.80    0.00   18.09

Device:         rrqm/s   wrqm/s     r/s     w/s    rkB/s    wkB/s avgrq-sz avgqu-sz   await r_await w_await  svctm  %util
sda               0.00     0.00 10362.00    0.00 41544.00     0.00     8.02     1.07    0.10    0.10    0.00   0.06  66.20
sdb               0.00     0.00 10283.00    0.00 41276.00     0.00     8.03     1.04    0.10    0.10    0.00   0.06  64.30
sdc               0.00     0.00 10370.00    0.00 41580.00     0.00     8.02     1.19    0.11    0.11    0.00   0.07  68.00
sdd               0.00     0.00 10419.00    0.00 41772.00     0.00     8.02     1.20    0.11    0.11    0.00   0.07  70.00
sde               0.00     0.00 10480.00    0.00 42076.00     0.00     8.03     1.19    0.11    0.11    0.00   0.07  69.90
sdf               0.00     0.00 10478.00    0.00 42012.00     0.00     8.02     1.15    0.11    0.11    0.00   0.07  68.60
sdg               0.00     0.00    0.00    0.00     0.00     0.00     0.00     0.00    0.00    0.00    0.00   0.00   0.00
sdh               0.00     0.00    0.00    0.00     0.00     0.00     0.00     0.00    0.00    0.00    0.00   0.00   0.00
md0               0.00     0.00 62403.00    0.00 250308.00     0.00     8.02     0.00    0.00    0.00    0.00   0.00   0.00

