Linux 4.17.2 (bench) 	08/03/2018 	_x86_64_	(4 CPU)

avg-cpu:  %user   %nice %system %iowait  %steal   %idle
          10.27    0.02    4.08    2.57    0.00   83.06

Device:         rrqm/s   wrqm/s     r/s     w/s    rkB/s    wkB/s avgrq-sz avgqu-sz   await r_await w_await  svctm  %util
sda              46.04     4.24 1659.05  102.45 20976.02  3134.70    27.38     1.04    0.59    0.26    5.92   0.06  10.75
sdb              45.89     4.20 1658.99  102.58 20965.40  3131.36    27.36     1.03    0.59    0.26    5.85   0.06  10.63
sdc              83.85     4.26 1618.93  102.14 20957.50  3133.82    28.00     1.45    0.84    0.45    7.12   0.08  14.09
sdd              77.28     4.23 1624.67  102.21 20942.43  3130.02    27.88     1.46    0.85    0.44    7.33   0.08  14.18
sde              79.31     4.27 1629.74  102.30 21002.20  3134.27    27.87     1.48    0.86    0.44    7.44   0.08  14.20
sdf              76.43     4.24 1631.90  102.25 20983.46  3131.13    27.81     1.53    0.88    0.44    7.90   0.08  14.24
sdg               0.00     3.17   26.33   73.32   324.09   392.08    14.37     0.44    4.42    0.20    5.93   0.08   0.78
sdh               0.00     0.13    0.02    0.23     2.21     5.06    56.82     0.00    1.15    0.65    1.19   0.21   0.01
md0               0.00     0.00 10238.90  480.00 143691.17 21456.60    30.81     0.00    0.00    0.00    0.00   0.00   0.00

avg-cpu:  %user   %nice %system %iowait  %steal   %idle
           0.25    0.00    2.80   16.79    0.00   80.15

Device:         rrqm/s   wrqm/s     r/s     w/s    rkB/s    wkB/s avgrq-sz avgqu-sz   await r_await w_await  svctm  %util
sda               0.00     0.00 1993.00    0.00  7972.00     0.00     8.00     0.12    0.06    0.06    0.00   0.06  12.20
sdb               0.00     0.00 2126.00    0.00  8504.00     0.00     8.00     0.14    0.07    0.07    0.00   0.07  14.00
sdc               0.00     0.00 2106.00    0.00  8424.00     0.00     8.00     0.15    0.07    0.07    0.00   0.07  14.60
sdd               0.00     0.00 2417.00    0.00  9668.00     0.00     8.00     0.17    0.07    0.07    0.00   0.07  17.00
sde               0.00     0.00 2087.00    0.00  8348.00     0.00     8.00     0.16    0.08    0.08    0.00   0.07  14.20
sdf               0.00     0.00 2334.00    0.00  9336.00     0.00     8.00     0.17    0.07    0.07    0.00   0.07  16.60
sdg               0.00     2.00    1.00    8.00    28.00   148.00    39.11     0.00    0.33    0.00    0.38   0.11   0.10
sdh               0.00     0.00    0.00    0.00     0.00     0.00     0.00     0.00    0.00    0.00    0.00   0.00   0.00
md0               0.00     0.00 13066.00    0.00 52264.00     0.00     8.00     0.00    0.00    0.00    0.00   0.00   0.00

avg-cpu:  %user   %nice %system %iowait  %steal   %idle
           0.26    0.00    1.80    0.77    0.00   97.17

Device:         rrqm/s   wrqm/s     r/s     w/s    rkB/s    wkB/s avgrq-sz avgqu-sz   await r_await w_await  svctm  %util
sda               0.00     0.00 2535.00    0.00 10140.00     0.00     8.00     0.15    0.06    0.06    0.00   0.06  15.30
sdb               0.00     0.00 2063.00    0.00  8252.00     0.00     8.00     0.14    0.07    0.07    0.00   0.07  13.90
sdc               0.00     0.00 2535.00    0.00 10140.00     0.00     8.00     0.16    0.06    0.06    0.00   0.06  16.20
sdd               0.00     0.00 2274.00    0.00  9096.00     0.00     8.00     0.15    0.07    0.07    0.00   0.07  15.40
sde               0.00     0.00 2240.00    0.00  8960.00     0.00     8.00     0.15    0.07    0.07    0.00   0.07  15.40
sdf               0.00     0.00 1854.00    0.00  7416.00     0.00     8.00     0.14    0.07    0.07    0.00   0.07  13.90
sdg               0.00     0.00    0.00    0.00     0.00     0.00     0.00     0.00    0.00    0.00    0.00   0.00   0.00
sdh               0.00     0.00    0.00    0.00     0.00     0.00     0.00     0.00    0.00    0.00    0.00   0.00   0.00
md0               0.00     0.00 13500.00    0.00 54000.00     0.00     8.00     0.00    0.00    0.00    0.00   0.00   0.00

avg-cpu:  %user   %nice %system %iowait  %steal   %idle
           0.26    0.00    2.05    1.02    0.00   96.68

Device:         rrqm/s   wrqm/s     r/s     w/s    rkB/s    wkB/s avgrq-sz avgqu-sz   await r_await w_await  svctm  %util
sda               0.00     0.00 2049.00    0.00  8196.00     0.00     8.00     0.13    0.06    0.06    0.00   0.06  13.30
sdb               0.00     0.00 2145.00    0.00  8580.00     0.00     8.00     0.14    0.07    0.07    0.00   0.07  14.30
sdc               0.00     0.00 2257.00    0.00  9028.00     0.00     8.00     0.14    0.06    0.06    0.00   0.06  14.30
sdd               0.00     0.00 2345.00    0.00  9380.00     0.00     8.00     0.17    0.07    0.07    0.00   0.07  16.80
sde               0.00     0.00 2203.00    0.00  8812.00     0.00     8.00     0.16    0.07    0.07    0.00   0.07  16.10
sdf               0.00     0.00 2291.00    0.00  9164.00     0.00     8.00     0.16    0.07    0.07    0.00   0.07  16.00
sdg               0.00     0.00    0.00    0.00     0.00     0.00     0.00     0.00    0.00    0.00    0.00   0.00   0.00
sdh               0.00     0.00    0.00    0.00     0.00     0.00     0.00     0.00    0.00    0.00    0.00   0.00   0.00
md0               0.00     0.00 13290.00    0.00 53160.00     0.00     8.00     0.00    0.00    0.00    0.00   0.00   0.00

avg-cpu:  %user   %nice %system %iowait  %steal   %idle
           0.25    0.00    3.05   12.94    0.00   83.76

Device:         rrqm/s   wrqm/s     r/s     w/s    rkB/s    wkB/s avgrq-sz avgqu-sz   await r_await w_await  svctm  %util
sda               0.00     0.00 2021.00    0.00  8084.00     0.00     8.00     0.13    0.06    0.06    0.00   0.06  13.10
sdb               0.00     0.00 2171.00    0.00  8684.00     0.00     8.00     0.13    0.06    0.06    0.00   0.06  13.40
sdc               0.00     0.00 2236.00    0.00  8944.00     0.00     8.00     0.15    0.07    0.07    0.00   0.07  14.70
sdd               0.00     0.00 2079.00    0.00  8316.00     0.00     8.00     0.15    0.07    0.07    0.00   0.07  14.80
sde               0.00     0.00 2562.00    0.00 10248.00     0.00     8.00     0.16    0.06    0.06    0.00   0.06  16.10
sdf               0.00     0.00 2443.00    0.00  9772.00     0.00     8.00     0.16    0.06    0.06    0.00   0.06  15.60
sdg               0.00     0.00    0.00    0.00     0.00     0.00     0.00     0.00    0.00    0.00    0.00   0.00   0.00
sdh               0.00     0.00    0.00    0.00     0.00     0.00     0.00     0.00    0.00    0.00    0.00   0.00   0.00
md0               0.00     0.00 13512.00    0.00 54048.00     0.00     8.00     0.00    0.00    0.00    0.00   0.00   0.00

avg-cpu:  %user   %nice %system %iowait  %steal   %idle
           0.26    0.00    1.80    3.60    0.00   94.34

Device:         rrqm/s   wrqm/s     r/s     w/s    rkB/s    wkB/s avgrq-sz avgqu-sz   await r_await w_await  svctm  %util
sda               0.00     0.00 1975.00    0.00  7900.00     0.00     8.00     0.11    0.06    0.06    0.00   0.06  11.40
sdb               0.00     0.00 2532.00    0.00 10128.00     0.00     8.00     0.16    0.06    0.06    0.00   0.06  16.10
sdc               0.00     0.00 2305.00    0.00  9220.00     0.00     8.00     0.16    0.07    0.07    0.00   0.07  15.60
sdd               0.00     0.00 2159.00    0.00  8636.00     0.00     8.00     0.16    0.08    0.08    0.00   0.07  16.10
sde               0.00     0.00 2156.00    0.00  8624.00     0.00     8.00     0.15    0.07    0.07    0.00   0.07  15.10
sdf               0.00     0.00 2131.00    0.00  8524.00     0.00     8.00     0.16    0.07    0.07    0.00   0.07  15.60
sdg               0.00     0.00    0.00    0.00     0.00     0.00     0.00     0.00    0.00    0.00    0.00   0.00   0.00
sdh               0.00     0.00    0.00    0.00     0.00     0.00     0.00     0.00    0.00    0.00    0.00   0.00   0.00
md0               0.00     0.00 13258.00    0.00 53032.00     0.00     8.00     0.00    0.00    0.00    0.00   0.00   0.00

avg-cpu:  %user   %nice %system %iowait  %steal   %idle
           0.00    0.00    2.06    0.77    0.00   97.17

Device:         rrqm/s   wrqm/s     r/s     w/s    rkB/s    wkB/s avgrq-sz avgqu-sz   await r_await w_await  svctm  %util
sda               0.00     0.00 2288.00    0.00  9152.00     0.00     8.00     0.16    0.07    0.07    0.00   0.07  15.60
sdb               0.00     0.00 2023.00    0.00  8092.00     0.00     8.00     0.13    0.06    0.06    0.00   0.06  12.70
sdc               0.00     0.00 2492.00    0.00  9968.00     0.00     8.00     0.17    0.07    0.07    0.00   0.07  17.30
sdd               0.00     0.00 2147.00    0.00  8588.00     0.00     8.00     0.15    0.07    0.07    0.00   0.07  14.70
sde               0.00     0.00 1845.00    0.00  7380.00     0.00     8.00     0.12    0.07    0.07    0.00   0.07  12.30
sdf               0.00     0.00 2386.00    0.00  9544.00     0.00     8.00     0.18    0.07    0.07    0.00   0.07  17.70
sdg               0.00     0.00    0.00    0.00     0.00     0.00     0.00     0.00    0.00    0.00    0.00   0.00   0.00
sdh               0.00     0.00    0.00    0.00     0.00     0.00     0.00     0.00    0.00    0.00    0.00   0.00   0.00
md0               0.00     0.00 13180.00    0.00 52720.00     0.00     8.00     0.00    0.00    0.00    0.00   0.00   0.00

avg-cpu:  %user   %nice %system %iowait  %steal   %idle
           0.25    0.25    3.29   13.42    0.00   82.78

Device:         rrqm/s   wrqm/s     r/s     w/s    rkB/s    wkB/s avgrq-sz avgqu-sz   await r_await w_await  svctm  %util
sda               0.00     0.00 2434.00    0.00  9736.00     0.00     8.00     0.14    0.06    0.06    0.00   0.06  13.90
sdb               0.00     0.00 2185.00    0.00  8740.00     0.00     8.00     0.15    0.07    0.07    0.00   0.07  15.00
sdc               0.00     0.00 2557.00    0.00 10228.00     0.00     8.00     0.15    0.06    0.06    0.00   0.06  15.30
sdd               0.00     0.00 2301.00    0.00  9204.00     0.00     8.00     0.15    0.07    0.07    0.00   0.07  15.00
sde               0.00     0.00 2081.00    0.00  8324.00     0.00     8.00     0.14    0.07    0.07    0.00   0.07  14.50
sdf               0.00     0.00 2096.00    0.00  8384.00     0.00     8.00     0.14    0.07    0.07    0.00   0.07  14.30
sdg               0.00     0.00   39.00    0.00   468.00     0.00    24.00     0.01    0.15    0.15    0.00   0.10   0.40
sdh               0.00     0.00    0.00    0.00     0.00     0.00     0.00     0.00    0.00    0.00    0.00   0.00   0.00
md0               0.00     0.00 13655.00    0.00 54620.00     0.00     8.00     0.00    0.00    0.00    0.00   0.00   0.00

avg-cpu:  %user   %nice %system %iowait  %steal   %idle
           0.25    0.00    3.54   15.19    0.00   81.01

Device:         rrqm/s   wrqm/s     r/s     w/s    rkB/s    wkB/s avgrq-sz avgqu-sz   await r_await w_await  svctm  %util
sda               0.00     0.00 2264.00    0.00  9056.00     0.00     8.00     0.14    0.06    0.06    0.00   0.06  13.90
sdb               0.00     0.00 1977.00    0.00  7908.00     0.00     8.00     0.12    0.06    0.06    0.00   0.06  12.10
sdc               0.00     0.00 2245.00    0.00  8980.00     0.00     8.00     0.15    0.07    0.07    0.00   0.07  15.10
sdd               0.00     0.00 2179.00    0.00  8716.00     0.00     8.00     0.14    0.07    0.07    0.00   0.07  14.40
sde               0.00     0.00 2569.00    0.00 10276.00     0.00     8.00     0.16    0.06    0.06    0.00   0.06  16.10
sdf               0.00     0.00 2336.00    0.00  9344.00     0.00     8.00     0.15    0.06    0.06    0.00   0.06  14.70
sdg               0.00     0.00    0.00    0.00     0.00     0.00     0.00     0.00    0.00    0.00    0.00   0.00   0.00
sdh               0.00     0.00    0.00    0.00     0.00     0.00     0.00     0.00    0.00    0.00    0.00   0.00   0.00
md0               0.00     0.00 13572.00    0.00 54288.00     0.00     8.00     0.00    0.00    0.00    0.00   0.00   0.00

avg-cpu:  %user   %nice %system %iowait  %steal   %idle
           0.26    0.00    2.30    1.02    0.00   96.43

Device:         rrqm/s   wrqm/s     r/s     w/s    rkB/s    wkB/s avgrq-sz avgqu-sz   await r_await w_await  svctm  %util
sda               0.00     0.00 2354.00    0.00  9416.00     0.00     8.00     0.15    0.06    0.06    0.00   0.06  14.80
sdb               0.00     0.00 2326.00    0.00  9304.00     0.00     8.00     0.14    0.06    0.06    0.00   0.06  14.20
sdc               0.00     0.00 2137.00    0.00  8548.00     0.00     8.00     0.14    0.07    0.07    0.00   0.07  14.30
sdd               0.00     0.00 2302.00    0.00  9208.00     0.00     8.00     0.15    0.06    0.06    0.00   0.06  14.90
sde               0.00     0.00 2039.00    0.00  8156.00     0.00     8.00     0.14    0.07    0.07    0.00   0.07  14.40
sdf               0.00     0.00 2307.00    0.00  9228.00     0.00     8.00     0.15    0.07    0.07    0.00   0.07  15.40
sdg               0.00     0.00    0.00    0.00     0.00     0.00     0.00     0.00    0.00    0.00    0.00   0.00   0.00
sdh               0.00     0.00    0.00    0.00     0.00     0.00     0.00     0.00    0.00    0.00    0.00   0.00   0.00
md0               0.00     0.00 13463.00    0.00 53852.00     0.00     8.00     0.00    0.00    0.00    0.00   0.00   0.00

avg-cpu:  %user   %nice %system %iowait  %steal   %idle
           0.26    0.00    2.05    1.28    0.00   96.41

Device:         rrqm/s   wrqm/s     r/s     w/s    rkB/s    wkB/s avgrq-sz avgqu-sz   await r_await w_await  svctm  %util
sda               0.00     0.00 1802.00    0.00  7208.00     0.00     8.00     0.12    0.07    0.07    0.00   0.07  12.10
sdb               0.00     0.00 2505.00    0.00 10020.00     0.00     8.00     0.16    0.06    0.06    0.00   0.06  15.70
sdc               0.00     0.00 2340.00    0.00  9360.00     0.00     8.00     0.16    0.07    0.07    0.00   0.07  15.70
sdd               0.00     0.00 2295.00    0.00  9180.00     0.00     8.00     0.15    0.06    0.06    0.00   0.06  14.70
sde               0.00     0.00 2410.00    0.00  9640.00     0.00     8.00     0.15    0.06    0.06    0.00   0.06  15.10
sdf               0.00     0.00 2288.00    0.00  9152.00     0.00     8.00     0.15    0.07    0.07    0.00   0.07  15.10
sdg               0.00     0.00   13.00    0.00   272.00     0.00    41.85     0.00    0.08    0.08    0.00   0.08   0.10
sdh               0.00     0.00    0.00    0.00     0.00     0.00     0.00     0.00    0.00    0.00    0.00   0.00   0.00
md0               0.00     0.00 13640.00    0.00 54560.00     0.00     8.00     0.00    0.00    0.00    0.00   0.00   0.00

avg-cpu:  %user   %nice %system %iowait  %steal   %idle
           0.26    0.00    2.31   13.08    0.00   84.36

Device:         rrqm/s   wrqm/s     r/s     w/s    rkB/s    wkB/s avgrq-sz avgqu-sz   await r_await w_await  svctm  %util
sda               0.00     0.00 2233.00    0.00  8932.00     0.00     8.00     0.15    0.07    0.07    0.00   0.07  15.50
sdb               0.00     0.00 2176.00    0.00  8704.00     0.00     8.00     0.14    0.06    0.06    0.00   0.06  13.60
sdc               0.00     0.00 1973.00    0.00  7892.00     0.00     8.00     0.14    0.07    0.07    0.00   0.07  13.50
sdd               0.00     0.00 2111.00    0.00  8444.00     0.00     8.00     0.15    0.07    0.07    0.00   0.07  14.70
sde               0.00     0.00 2417.00    0.00  9668.00     0.00     8.00     0.16    0.07    0.07    0.00   0.07  16.40
sdf               0.00     0.00 2274.00    0.00  9096.00     0.00     8.00     0.16    0.07    0.07    0.00   0.07  16.20
sdg               0.00     0.00    1.00    0.00     4.00     0.00     8.00     0.00    0.00    0.00    0.00   0.00   0.00
sdh               0.00     0.00    0.00    0.00     0.00     0.00     0.00     0.00    0.00    0.00    0.00   0.00   0.00
md0               0.00     0.00 13184.00    0.00 52736.00     0.00     8.00     0.00    0.00    0.00    0.00   0.00   0.00

avg-cpu:  %user   %nice %system %iowait  %steal   %idle
           0.00    0.00    2.56    0.77    0.00   96.68

Device:         rrqm/s   wrqm/s     r/s     w/s    rkB/s    wkB/s avgrq-sz avgqu-sz   await r_await w_await  svctm  %util
sda               0.00     0.00 2145.00    0.00  8580.00     0.00     8.00     0.13    0.06    0.06    0.00   0.06  13.40
sdb               0.00     0.00 2320.00    0.00  9280.00     0.00     8.00     0.14    0.06    0.06    0.00   0.06  13.60
sdc               0.00     0.00 1826.00    0.00  7304.00     0.00     8.00     0.14    0.07    0.07    0.00   0.07  13.50
sdd               0.00     0.00 2198.00    0.00  8792.00     0.00     8.00     0.15    0.07    0.07    0.00   0.07  14.90
sde               0.00     0.00 2804.00    0.00 11216.00     0.00     8.00     0.18    0.07    0.07    0.00   0.07  18.50
sdf               0.00     0.00 2235.00    0.00  8940.00     0.00     8.00     0.14    0.06    0.06    0.00   0.06  14.40
sdg               0.00     1.00    2.00    2.00     8.00    36.00    22.00     0.00    0.00    0.00    0.00   0.00   0.00
sdh               0.00     0.00    0.00    0.00     0.00     0.00     0.00     0.00    0.00    0.00    0.00   0.00   0.00
md0               0.00     0.00 13528.00    0.00 54112.00     0.00     8.00     0.00    0.00    0.00    0.00   0.00   0.00

avg-cpu:  %user   %nice %system %iowait  %steal   %idle
           0.26    0.00    2.30    1.02    0.00   96.43

Device:         rrqm/s   wrqm/s     r/s     w/s    rkB/s    wkB/s avgrq-sz avgqu-sz   await r_await w_await  svctm  %util
sda               0.00     0.00 2254.00    0.00  9016.00     0.00     8.00     0.14    0.06    0.06    0.00   0.06  14.50
sdb               0.00     0.00 2177.00    0.00  8708.00     0.00     8.00     0.14    0.06    0.06    0.00   0.06  14.00
sdc               0.00     0.00 2059.00    0.00  8236.00     0.00     8.00     0.15    0.07    0.07    0.00   0.07  14.90
sdd               0.00     0.00 2007.00    0.00  8028.00     0.00     8.00     0.13    0.07    0.07    0.00   0.07  13.10
sde               0.00     0.00 2172.00    0.00  8688.00     0.00     8.00     0.14    0.07    0.07    0.00   0.07  14.40
sdf               0.00     0.00 2629.00    0.00 10516.00     0.00     8.00     0.18    0.07    0.07    0.00   0.07  17.70
sdg               0.00     0.00    0.00    0.00     0.00     0.00     0.00     0.00    0.00    0.00    0.00   0.00   0.00
sdh               0.00     0.00    0.00    0.00     0.00     0.00     0.00     0.00    0.00    0.00    0.00   0.00   0.00
md0               0.00     0.00 13299.00    0.00 53196.00     0.00     8.00     0.00    0.00    0.00    0.00   0.00   0.00

avg-cpu:  %user   %nice %system %iowait  %steal   %idle
           0.25    0.00    2.80    0.76    0.00   96.18

Device:         rrqm/s   wrqm/s     r/s     w/s    rkB/s    wkB/s avgrq-sz avgqu-sz   await r_await w_await  svctm  %util
sda               0.00     0.00 2214.00    0.00  8856.00     0.00     8.00     0.13    0.06    0.06    0.00   0.06  12.70
sdb               0.00     0.00 2010.00    0.00  8040.00     0.00     8.00     0.13    0.06    0.06    0.00   0.06  13.00
sdc               0.00     0.00 2397.00    0.00  9588.00     0.00     8.00     0.16    0.07    0.07    0.00   0.07  15.60
sdd               0.00     0.00 2261.00    0.00  9044.00     0.00     8.00     0.16    0.07    0.07    0.00   0.07  15.60
sde               0.00     0.00 2436.00    0.00  9744.00     0.00     8.00     0.16    0.06    0.06    0.00   0.06  15.70
sdf               0.00     0.00 2187.00    0.00  8748.00     0.00     8.00     0.15    0.07    0.07    0.00   0.07  15.10
sdg               0.00     0.00    0.00    0.00     0.00     0.00     0.00     0.00    0.00    0.00    0.00   0.00   0.00
sdh               0.00     0.00    0.00    0.00     0.00     0.00     0.00     0.00    0.00    0.00    0.00   0.00   0.00
md0               0.00     0.00 13503.00    0.00 54012.00     0.00     8.00     0.00    0.00    0.00    0.00   0.00   0.00

avg-cpu:  %user   %nice %system %iowait  %steal   %idle
           0.00    0.00    2.06    0.77    0.00   97.16

Device:         rrqm/s   wrqm/s     r/s     w/s    rkB/s    wkB/s avgrq-sz avgqu-sz   await r_await w_await  svctm  %util
sda               0.00     0.00 2273.00    0.00  9092.00     0.00     8.00     0.14    0.06    0.06    0.00   0.06  14.50
sdb               0.00     0.00 2172.00    0.00  8688.00     0.00     8.00     0.13    0.06    0.06    0.00   0.06  13.20
sdc               0.00     0.00 2252.00    0.00  9008.00     0.00     8.00     0.15    0.07    0.07    0.00   0.07  15.10
sdd               0.00     0.00 2388.00    0.00  9552.00     0.00     8.00     0.16    0.07    0.07    0.00   0.07  16.10
sde               0.00     0.00 2418.00    0.00  9672.00     0.00     8.00     0.15    0.06    0.06    0.00   0.06  15.50
sdf               0.00     0.00 2190.00    0.00  8760.00     0.00     8.00     0.16    0.07    0.07    0.00   0.07  15.90
sdg               0.00     0.00    0.00    0.00     0.00     0.00     0.00     0.00    0.00    0.00    0.00   0.00   0.00
sdh               0.00     0.00    0.00    0.00     0.00     0.00     0.00     0.00    0.00    0.00    0.00   0.00   0.00
md0               0.00     0.00 13696.00    0.00 54784.00     0.00     8.00     0.00    0.00    0.00    0.00   0.00   0.00

avg-cpu:  %user   %nice %system %iowait  %steal   %idle
           0.26    0.00    1.79    1.03    0.00   96.92

Device:         rrqm/s   wrqm/s     r/s     w/s    rkB/s    wkB/s avgrq-sz avgqu-sz   await r_await w_await  svctm  %util
sda               0.00     0.00 2323.00    0.00  9292.00     0.00     8.00     0.14    0.06    0.06    0.00   0.06  14.20
sdb               0.00     0.00 1968.00    0.00  7872.00     0.00     8.00     0.14    0.07    0.07    0.00   0.07  13.70
sdc               0.00     0.00 2328.00    0.00  9312.00     0.00     8.00     0.16    0.07    0.07    0.00   0.07  15.80
sdd               0.00     0.00 2191.00    0.00  8764.00     0.00     8.00     0.15    0.07    0.07    0.00   0.07  14.90
sde               0.00     0.00 2390.00    0.00  9560.00     0.00     8.00     0.16    0.07    0.07    0.00   0.07  16.30
sdf               0.00     0.00 2227.00    0.00  8908.00     0.00     8.00     0.15    0.07    0.07    0.00   0.07  15.30
sdg               0.00     0.00    0.00    0.00     0.00     0.00     0.00     0.00    0.00    0.00    0.00   0.00   0.00
sdh               0.00     0.00    0.00    0.00     0.00     0.00     0.00     0.00    0.00    0.00    0.00   0.00   0.00
md0               0.00     0.00 13425.00    0.00 53700.00     0.00     8.00     0.00    0.00    0.00    0.00   0.00   0.00

avg-cpu:  %user   %nice %system %iowait  %steal   %idle
           0.26    0.26    2.06    0.77    0.00   96.66

Device:         rrqm/s   wrqm/s     r/s     w/s    rkB/s    wkB/s avgrq-sz avgqu-sz   await r_await w_await  svctm  %util
sda               0.00     0.00 2287.00    0.00  9148.00     0.00     8.00     0.15    0.06    0.06    0.00   0.06  14.70
sdb               0.00     0.00 2290.00    0.00  9160.00     0.00     8.00     0.14    0.06    0.06    0.00   0.06  14.00
sdc               0.00     0.00 2522.00    0.00 10088.00     0.00     8.00     0.17    0.07    0.07    0.00   0.07  16.50
sdd               0.00     0.00 2444.00    0.00  9776.00     0.00     8.00     0.16    0.07    0.07    0.00   0.07  16.40
sde               0.00     0.00 2031.00    0.00  8124.00     0.00     8.00     0.15    0.07    0.07    0.00   0.07  14.60
sdf               0.00     0.00 2184.00    0.00  8736.00     0.00     8.00     0.15    0.07    0.07    0.00   0.07  15.10
sdg               0.00    31.00    3.00  386.00    12.00  1964.00    10.16     1.48    3.81    0.33    3.84   0.03   1.30
sdh               0.00     0.00    0.00    0.00     0.00     0.00     0.00     0.00    0.00    0.00    0.00   0.00   0.00
md0               0.00     0.00 13759.00    0.00 55036.00     0.00     8.00     0.00    0.00    0.00    0.00   0.00   0.00

avg-cpu:  %user   %nice %system %iowait  %steal   %idle
           0.25    0.00    2.79    4.82    0.00   92.13

Device:         rrqm/s   wrqm/s     r/s     w/s    rkB/s    wkB/s avgrq-sz avgqu-sz   await r_await w_await  svctm  %util
sda               0.00     0.00 1991.00    0.00  7964.00     0.00     8.00     0.11    0.06    0.06    0.00   0.06  11.10
sdb               0.00     0.00 2220.00    0.00  8880.00     0.00     8.00     0.15    0.07    0.07    0.00   0.07  15.30
sdc               0.00     0.00 2226.00    0.00  8904.00     0.00     8.00     0.15    0.07    0.07    0.00   0.07  14.80
sdd               0.00     0.00 2323.00    0.00  9292.00     0.00     8.00     0.16    0.07    0.07    0.00   0.07  15.90
sde               0.00     0.00 2384.00    0.00  9536.00     0.00     8.00     0.16    0.07    0.07    0.00   0.07  16.40
sdf               0.00     0.00 2112.00    0.00  8448.00     0.00     8.00     0.15    0.07    0.07    0.00   0.07  15.40
sdg               0.00     0.00    0.00    0.00     0.00     0.00     0.00     0.00    0.00    0.00    0.00   0.00   0.00
sdh               0.00     0.00    0.00    0.00     0.00     0.00     0.00     0.00    0.00    0.00    0.00   0.00   0.00
md0               0.00     0.00 13255.00    0.00 53020.00     0.00     8.00     0.00    0.00    0.00    0.00   0.00   0.00

avg-cpu:  %user   %nice %system %iowait  %steal   %idle
           0.26    0.00    1.80    0.77    0.00   97.17

Device:         rrqm/s   wrqm/s     r/s     w/s    rkB/s    wkB/s avgrq-sz avgqu-sz   await r_await w_await  svctm  %util
sda               0.00     0.00 2074.00    0.00  8296.00     0.00     8.00     0.13    0.06    0.06    0.00   0.06  13.00
sdb               0.00     0.00 2208.00    0.00  8832.00     0.00     8.00     0.15    0.07    0.07    0.00   0.07  15.40
sdc               0.00     0.00 2499.00    0.00  9996.00     0.00     8.00     0.16    0.07    0.07    0.00   0.07  16.40
sdd               0.00     0.00 2142.00    0.00  8568.00     0.00     8.00     0.13    0.06    0.06    0.00   0.06  12.80
sde               0.00     0.00 2223.00    0.00  8892.00     0.00     8.00     0.16    0.07    0.07    0.00   0.07  16.30
sdf               0.00     0.00 2245.00    0.00  8980.00     0.00     8.00     0.14    0.06    0.06    0.00   0.06  14.40
sdg               0.00     0.00    0.00    0.00     0.00     0.00     0.00     0.00    0.00    0.00    0.00   0.00   0.00
sdh               0.00     0.00    0.00    0.00     0.00     0.00     0.00     0.00    0.00    0.00    0.00   0.00   0.00
md0               0.00     0.00 13390.00    0.00 53560.00     0.00     8.00     0.00    0.00    0.00    0.00   0.00   0.00

avg-cpu:  %user   %nice %system %iowait  %steal   %idle
           0.26    0.00    2.30    5.63    0.00   91.82

Device:         rrqm/s   wrqm/s     r/s     w/s    rkB/s    wkB/s avgrq-sz avgqu-sz   await r_await w_await  svctm  %util
sda               0.00     0.00 2128.00    0.00  8512.00     0.00     8.00     0.14    0.06    0.06    0.00   0.06  13.60
sdb               0.00     0.00 2250.00    0.00  9000.00     0.00     8.00     0.14    0.06    0.06    0.00   0.06  14.40
sdc               0.00     0.00 2225.00    0.00  8900.00     0.00     8.00     0.15    0.07    0.07    0.00   0.07  15.20
sdd               0.00     0.00 2451.00    0.00  9804.00     0.00     8.00     0.16    0.07    0.07    0.00   0.07  16.00
sde               0.00     0.00 1984.00    0.00  7936.00     0.00     8.00     0.13    0.07    0.07    0.00   0.07  13.30
sdf               0.00     0.00 2247.00    0.00  8988.00     0.00     8.00     0.16    0.07    0.07    0.00   0.07  16.10
sdg               0.00     0.00    0.00    0.00     0.00     0.00     0.00     0.00    0.00    0.00    0.00   0.00   0.00
sdh               0.00     0.00    0.00    0.00     0.00     0.00     0.00     0.00    0.00    0.00    0.00   0.00   0.00
md0               0.00     0.00 13286.00    0.00 53144.00     0.00     8.00     0.00    0.00    0.00    0.00   0.00   0.00

