Linux 4.17.2 (bench) 	08/03/2018 	_x86_64_	(4 CPU)

avg-cpu:  %user   %nice %system %iowait  %steal   %idle
          10.27    0.02    4.12    2.64    0.00   82.96

Device:         rrqm/s   wrqm/s     r/s     w/s    rkB/s    wkB/s avgrq-sz avgqu-sz   await r_await w_await  svctm  %util
sda              49.28     4.22 1687.67  101.89 21141.25  3117.60    27.11     1.04    0.58    0.26    5.92   0.06  10.87
sdb              49.12     4.18 1687.64  102.03 21130.73  3114.28    27.09     1.04    0.58    0.26    5.85   0.06  10.75
sdc              87.00     4.24 1647.66  101.58 21122.85  3116.73    27.71     1.46    0.83    0.45    7.12   0.08  14.23
sdd              80.47     4.21 1653.36  101.65 21107.77  3112.95    27.60     1.47    0.84    0.44    7.33   0.08  14.32
sde              82.49     4.25 1658.44  101.74 21167.38  3117.17    27.59     1.49    0.85    0.44    7.44   0.08  14.34
sdf              79.61     4.22 1660.57  101.69 21148.71  3114.05    27.54     1.53    0.87    0.44    7.90   0.08  14.37
sdg               0.00     3.17   26.53   73.30   324.89   392.06    14.36     0.44    4.41    0.20    5.93   0.08   0.78
sdh               0.00     0.13    0.02    0.23     2.20     5.03    56.82     0.00    1.15    0.65    1.19   0.21   0.01
md0               0.00     0.00 10430.42  477.38 144863.87 21339.54    30.47     0.00    0.00    0.00    0.00   0.00   0.00

avg-cpu:  %user   %nice %system %iowait  %steal   %idle
           1.51    0.25   17.38   64.23    0.00   16.62

Device:         rrqm/s   wrqm/s     r/s     w/s    rkB/s    wkB/s avgrq-sz avgqu-sz   await r_await w_await  svctm  %util
sda               0.00     0.00 10420.00    0.00 41680.00     0.00     8.00     1.60    0.15    0.15    0.00   0.02  24.00
sdb               0.00     0.00 10452.00    0.00 41808.00     0.00     8.00     1.41    0.14    0.14    0.00   0.02  23.50
sdc               0.00     0.00 9943.00    0.00 39772.00     0.00     8.00     2.00    0.20    0.20    0.00   0.03  27.10
sdd               0.00     0.00 10322.00    0.00 41288.00     0.00     8.00     2.03    0.20    0.20    0.00   0.03  28.90
sde               0.00     0.00 10420.00    0.00 41680.00     0.00     8.00     1.95    0.19    0.19    0.00   0.03  30.00
sdf               0.00     0.00 10129.00    0.00 40516.00     0.00     8.00     2.05    0.20    0.20    0.00   0.03  30.10
sdg               0.00     0.00 1307.00    1.00  5744.00    12.00     8.80     0.16    0.12    0.12    0.00   0.12  15.10
sdh               0.00     0.00    0.00    0.00     0.00     0.00     0.00     0.00    0.00    0.00    0.00   0.00   0.00
md0               0.00     0.00 61705.00    0.00 246820.00     0.00     8.00     0.00    0.00    0.00    0.00   0.00   0.00

avg-cpu:  %user   %nice %system %iowait  %steal   %idle
           1.02    0.00   16.58   65.82    0.00   16.58

Device:         rrqm/s   wrqm/s     r/s     w/s    rkB/s    wkB/s avgrq-sz avgqu-sz   await r_await w_await  svctm  %util
sda               0.00     0.00 10598.00    0.00 42392.00     0.00     8.00     1.71    0.16    0.16    0.00   0.02  25.50
sdb               0.00     0.00 10323.00    0.00 41292.00     0.00     8.00     1.51    0.15    0.15    0.00   0.02  23.60
sdc               0.00     0.00 10484.00    0.00 41936.00     0.00     8.00     1.78    0.17    0.17    0.00   0.03  27.20
sdd               0.00     0.00 10469.00    0.00 41876.00     0.00     8.00     2.21    0.21    0.21    0.00   0.03  30.30
sde               0.00     0.00 10038.00    0.00 40152.00     0.00     8.00     1.87    0.19    0.19    0.00   0.03  27.90
sdf               0.00     0.00 10227.00    0.00 40908.00     0.00     8.00     1.75    0.17    0.17    0.00   0.03  26.80
sdg               0.00     0.00  655.00    0.00  2620.00     0.00     8.00     0.08    0.13    0.13    0.00   0.13   8.20
sdh               0.00     0.00    0.00    0.00     0.00     0.00     0.00     0.00    0.00    0.00    0.00   0.00   0.00
md0               0.00     0.00 62137.00    0.00 248548.00     0.00     8.00     0.00    0.00    0.00    0.00   0.00   0.00

avg-cpu:  %user   %nice %system %iowait  %steal   %idle
           1.02    0.00   16.28   65.39    0.00   17.30

Device:         rrqm/s   wrqm/s     r/s     w/s    rkB/s    wkB/s avgrq-sz avgqu-sz   await r_await w_await  svctm  %util
sda               0.00     0.00 10266.00    0.00 41064.00     0.00     8.00     1.53    0.15    0.15    0.00   0.02  23.40
sdb               0.00     0.00 10155.00    0.00 40620.00     0.00     8.00     1.47    0.14    0.14    0.00   0.02  22.60
sdc               0.00     0.00 10369.00    0.00 41476.00     0.00     8.00     2.10    0.20    0.20    0.00   0.03  29.60
sdd               0.00     0.00 10710.00    0.00 42840.00     0.00     8.00     2.01    0.19    0.19    0.00   0.03  30.60
sde               0.00     0.00 10363.00    0.00 41452.00     0.00     8.00     2.12    0.20    0.20    0.00   0.03  31.00
sdf               0.00     0.00 10359.00    0.00 41436.00     0.00     8.00     1.99    0.19    0.19    0.00   0.03  31.20
sdg               0.00     0.00    0.00    0.00     0.00     0.00     0.00     0.00    0.00    0.00    0.00   0.00   0.00
sdh               0.00     0.00    0.00    0.00     0.00     0.00     0.00     0.00    0.00    0.00    0.00   0.00   0.00
md0               0.00     0.00 62223.00    0.00 248892.00     0.00     8.00     0.00    0.00    0.00    0.00   0.00   0.00

avg-cpu:  %user   %nice %system %iowait  %steal   %idle
           0.76    0.00   17.17   64.90    0.00   17.17

Device:         rrqm/s   wrqm/s     r/s     w/s    rkB/s    wkB/s avgrq-sz avgqu-sz   await r_await w_await  svctm  %util
sda               0.00     0.00 10610.00    0.00 42440.00     0.00     8.00     1.64    0.15    0.15    0.00   0.02  25.90
sdb               0.00     0.00 10465.00    0.00 41860.00     0.00     8.00     1.58    0.15    0.15    0.00   0.02  24.20
sdc               0.00     0.00 10336.00    0.00 41344.00     0.00     8.00     1.86    0.18    0.18    0.00   0.03  27.80
sdd               0.00     0.00 10317.00    0.00 41268.00     0.00     8.00     2.01    0.19    0.19    0.00   0.03  29.00
sde               0.00     0.00 10137.00    0.00 40548.00     0.00     8.00     1.94    0.19    0.19    0.00   0.03  28.90
sdf               0.00     0.00 10420.00    0.00 41680.00     0.00     8.00     1.98    0.19    0.19    0.00   0.03  29.00
sdg               0.00     0.00    0.00    0.00     0.00     0.00     0.00     0.00    0.00    0.00    0.00   0.00   0.00
sdh               0.00     0.00    0.00    0.00     0.00     0.00     0.00     0.00    0.00    0.00    0.00   0.00   0.00
md0               0.00     0.00 62276.00    0.00 249104.00     0.00     8.00     0.00    0.00    0.00    0.00   0.00   0.00

avg-cpu:  %user   %nice %system %iowait  %steal   %idle
           0.51    0.00   17.42   64.65    0.00   17.42

Device:         rrqm/s   wrqm/s     r/s     w/s    rkB/s    wkB/s avgrq-sz avgqu-sz   await r_await w_await  svctm  %util
sda               0.00     0.00 10301.00    0.00 41204.00     0.00     8.00     1.51    0.15    0.15    0.00   0.02  25.10
sdb               0.00     0.00 10173.00    0.00 40692.00     0.00     8.00     1.50    0.15    0.15    0.00   0.02  24.30
sdc               0.00     0.00 10162.00    0.00 40648.00     0.00     8.00     1.95    0.19    0.19    0.00   0.03  27.50
sdd               0.00     0.00 10470.00    0.00 41880.00     0.00     8.00     2.05    0.20    0.20    0.00   0.03  30.40
sde               0.00     0.00 10470.00    0.00 41880.00     0.00     8.00     2.09    0.20    0.20    0.00   0.03  29.60
sdf               0.00     0.00 10339.00    0.00 41356.00     0.00     8.00     1.92    0.19    0.19    0.00   0.03  27.90
sdg               0.00     0.00    0.00    0.00     0.00     0.00     0.00     0.00    0.00    0.00    0.00   0.00   0.00
sdh               0.00     0.00    0.00    0.00     0.00     0.00     0.00     0.00    0.00    0.00    0.00   0.00   0.00
md0               0.00     0.00 61920.00    0.00 247680.00     0.00     8.00     0.00    0.00    0.00    0.00   0.00   0.00

avg-cpu:  %user   %nice %system %iowait  %steal   %idle
           1.01    0.00   17.38   64.48    0.00   17.13

Device:         rrqm/s   wrqm/s     r/s     w/s    rkB/s    wkB/s avgrq-sz avgqu-sz   await r_await w_await  svctm  %util
sda               0.00     0.00 10189.00    0.00 40756.00     0.00     8.00     1.42    0.14    0.14    0.00   0.02  23.30
sdb               0.00     0.00 10467.00    0.00 41868.00     0.00     8.00     1.62    0.16    0.16    0.00   0.02  24.60
sdc               0.00     0.00 10362.00    0.00 41448.00     0.00     8.00     2.02    0.19    0.19    0.00   0.03  29.90
sdd               0.00     0.00 10288.00    0.00 41152.00     0.00     8.00     1.99    0.19    0.19    0.00   0.03  29.90
sde               0.00     0.00 10264.00    0.00 41056.00     0.00     8.00     2.00    0.19    0.19    0.00   0.03  28.80
sdf               0.00     0.00 10237.00    0.00 40948.00     0.00     8.00     2.08    0.20    0.20    0.00   0.03  29.70
sdg               0.00     0.00   16.00    0.00   296.00     0.00    37.00     0.00    0.19    0.19    0.00   0.19   0.30
sdh               0.00     0.00    0.00    0.00     0.00     0.00     0.00     0.00    0.00    0.00    0.00   0.00   0.00
md0               0.00     0.00 61798.00    0.00 247192.00     0.00     8.00     0.00    0.00    0.00    0.00   0.00   0.00

avg-cpu:  %user   %nice %system %iowait  %steal   %idle
           1.03    0.00   15.68   65.81    0.00   17.48

Device:         rrqm/s   wrqm/s     r/s     w/s    rkB/s    wkB/s avgrq-sz avgqu-sz   await r_await w_await  svctm  %util
sda               0.00     0.00 10292.00    0.00 41168.00     0.00     8.00     1.60    0.16    0.16    0.00   0.02  25.20
sdb               0.00     0.00 10469.00    0.00 41876.00     0.00     8.00     1.61    0.15    0.15    0.00   0.02  23.70
sdc               0.00     0.00 10341.00    0.00 41364.00     0.00     8.00     1.85    0.18    0.18    0.00   0.03  28.40
sdd               0.00     0.00 10439.00    0.00 41756.00     0.00     8.00     2.15    0.21    0.21    0.00   0.03  30.70
sde               0.00     0.00 10194.00    0.00 40776.00     0.00     8.00     2.01    0.20    0.20    0.00   0.03  29.50
sdf               0.00     0.00 10408.00    0.00 41632.00     0.00     8.00     1.99    0.19    0.19    0.00   0.03  30.70
sdg               0.00     0.00    0.00    0.00     0.00     0.00     0.00     0.00    0.00    0.00    0.00   0.00   0.00
sdh               0.00     0.00    0.00    0.00     0.00     0.00     0.00     0.00    0.00    0.00    0.00   0.00   0.00
md0               0.00     0.00 62154.00    0.00 248616.00     0.00     8.00     0.00    0.00    0.00    0.00   0.00   0.00

avg-cpu:  %user   %nice %system %iowait  %steal   %idle
           1.03    0.00   15.38   65.90    0.00   17.69

Device:         rrqm/s   wrqm/s     r/s     w/s    rkB/s    wkB/s avgrq-sz avgqu-sz   await r_await w_await  svctm  %util
sda               0.00     0.00 10334.00    0.00 41336.00     0.00     8.00     1.69    0.16    0.16    0.00   0.02  23.80
sdb               0.00     0.00 10172.00    0.00 40688.00     0.00     8.00     1.47    0.14    0.14    0.00   0.02  21.80
sdc               0.00     0.00 10270.00    0.00 41080.00     0.00     8.00     2.07    0.20    0.20    0.00   0.03  29.40
sdd               0.00     0.00 10385.00    0.00 41540.00     0.00     8.00     2.02    0.19    0.19    0.00   0.03  29.40
sde               0.00     0.00 10270.00    0.00 41080.00     0.00     8.00     2.14    0.21    0.21    0.00   0.03  29.20
sdf               0.00     0.00 10329.00    0.00 41316.00     0.00     8.00     1.99    0.19    0.19    0.00   0.03  30.60
sdg               0.00     0.00    0.00    0.00     0.00     0.00     0.00     0.00    0.00    0.00    0.00   0.00   0.00
sdh               0.00     0.00    0.00    0.00     0.00     0.00     0.00     0.00    0.00    0.00    0.00   0.00   0.00
md0               0.00     0.00 61760.00    0.00 247040.00     0.00     8.00     0.00    0.00    0.00    0.00   0.00   0.00

avg-cpu:  %user   %nice %system %iowait  %steal   %idle
           1.26    0.00   17.09   64.32    0.00   17.34

Device:         rrqm/s   wrqm/s     r/s     w/s    rkB/s    wkB/s avgrq-sz avgqu-sz   await r_await w_await  svctm  %util
sda               0.00     0.00 10620.00    0.00 42480.00     0.00     8.00     1.57    0.15    0.15    0.00   0.02  23.80
sdb               0.00     0.00 10321.00    0.00 41284.00     0.00     8.00     1.45    0.14    0.14    0.00   0.02  21.40
sdc               0.00     0.00 10366.00    0.00 41464.00     0.00     8.00     2.08    0.20    0.20    0.00   0.03  28.10
sdd               0.00     0.00 10087.00    0.00 40348.00     0.00     8.00     1.91    0.19    0.19    0.00   0.03  29.10
sde               0.00     0.00 10235.00    0.00 40940.00     0.00     8.00     1.89    0.18    0.18    0.00   0.03  28.20
sdf               0.00     0.00 10309.00    0.00 41236.00     0.00     8.00     1.97    0.19    0.19    0.00   0.03  29.10
sdg               0.00     0.00    0.00    0.00     0.00     0.00     0.00     0.00    0.00    0.00    0.00   0.00   0.00
sdh               0.00     0.00    0.00    0.00     0.00     0.00     0.00     0.00    0.00    0.00    0.00   0.00   0.00
md0               0.00     0.00 61936.00    0.00 247744.00     0.00     8.00     0.00    0.00    0.00    0.00   0.00   0.00

avg-cpu:  %user   %nice %system %iowait  %steal   %idle
           1.29    0.00   14.95   66.24    0.00   17.53

Device:         rrqm/s   wrqm/s     r/s     w/s    rkB/s    wkB/s avgrq-sz avgqu-sz   await r_await w_await  svctm  %util
sda               0.00     0.00 10409.00    0.00 41636.00     0.00     8.00     1.47    0.14    0.14    0.00   0.02  22.80
sdb               0.00     0.00 10412.00    0.00 41648.00     0.00     8.00     1.57    0.15    0.15    0.00   0.02  23.30
sdc               0.00     0.00 10324.00    0.00 41296.00     0.00     8.00     1.98    0.19    0.19    0.00   0.03  28.80
sdd               0.00     0.00 10207.00    0.00 40828.00     0.00     8.00     1.94    0.19    0.19    0.00   0.03  27.40
sde               0.00     0.00 10257.00    0.00 41028.00     0.00     8.00     2.01    0.19    0.19    0.00   0.03  29.60
sdf               0.00     0.00 10357.00    0.00 41428.00     0.00     8.00     1.97    0.19    0.19    0.00   0.03  28.30
sdg               0.00     0.00    0.00    0.00     0.00     0.00     0.00     0.00    0.00    0.00    0.00   0.00   0.00
sdh               0.00     0.00    0.00    0.00     0.00     0.00     0.00     0.00    0.00    0.00    0.00   0.00   0.00
md0               0.00     0.00 61969.00    0.00 247876.00     0.00     8.00     0.00    0.00    0.00    0.00   0.00   0.00

avg-cpu:  %user   %nice %system %iowait  %steal   %idle
           0.76    0.25   16.96   64.81    0.00   17.22

Device:         rrqm/s   wrqm/s     r/s     w/s    rkB/s    wkB/s avgrq-sz avgqu-sz   await r_await w_await  svctm  %util
sda               0.00     0.00 10400.00    0.00 41600.00     0.00     8.00     1.52    0.15    0.15    0.00   0.02  23.20
sdb               0.00     0.00 10201.00    0.00 40804.00     0.00     8.00     1.52    0.15    0.15    0.00   0.02  25.00
sdc               0.00     0.00 10107.00    0.00 40428.00     0.00     8.00     1.94    0.19    0.19    0.00   0.03  28.10
sdd               0.00     0.00 10395.00    0.00 41580.00     0.00     8.00     1.91    0.18    0.18    0.00   0.03  29.50
sde               0.00     0.00 10399.00    0.00 41596.00     0.00     8.00     2.13    0.21    0.21    0.00   0.03  30.30
sdf               0.00     0.00 10195.00    0.00 40780.00     0.00     8.00     1.91    0.19    0.19    0.00   0.03  29.20
sdg               0.00     0.00    3.00    0.00    12.00     0.00     8.00     0.00    0.00    0.00    0.00   0.00   0.00
sdh               0.00     0.00    0.00    0.00     0.00     0.00     0.00     0.00    0.00    0.00    0.00   0.00   0.00
md0               0.00     0.00 61705.00    0.00 246820.00     0.00     8.00     0.00    0.00    0.00    0.00   0.00   0.00

avg-cpu:  %user   %nice %system %iowait  %steal   %idle
           1.03    0.00   15.46   65.98    0.00   17.53

Device:         rrqm/s   wrqm/s     r/s     w/s    rkB/s    wkB/s avgrq-sz avgqu-sz   await r_await w_await  svctm  %util
sda               0.00     0.00 10481.00    0.00 41924.00     0.00     8.00     1.51    0.14    0.14    0.00   0.02  24.30
sdb               0.00     0.00 10309.00    0.00 41236.00     0.00     8.00     1.43    0.14    0.14    0.00   0.02  23.60
sdc               0.00     0.00 10307.00    0.00 41228.00     0.00     8.00     2.04    0.20    0.20    0.00   0.03  28.50
sdd               0.00     0.00 10222.00    0.00 40888.00     0.00     8.00     1.96    0.19    0.19    0.00   0.03  28.50
sde               0.00     0.00 10600.00    0.00 42400.00     0.00     8.00     2.06    0.19    0.19    0.00   0.03  28.20
sdf               0.00     0.00 10224.00    0.00 40896.00     0.00     8.00     2.12    0.21    0.21    0.00   0.03  30.60
sdg               0.00     0.00    0.00    0.00     0.00     0.00     0.00     0.00    0.00    0.00    0.00   0.00   0.00
sdh               0.00     0.00    0.00    0.00     0.00     0.00     0.00     0.00    0.00    0.00    0.00   0.00   0.00
md0               0.00     0.00 62139.00    0.00 248556.00     0.00     8.00     0.00    0.00    0.00    0.00   0.00   0.00

avg-cpu:  %user   %nice %system %iowait  %steal   %idle
           1.02    0.00   16.50   64.97    0.00   17.51

Device:         rrqm/s   wrqm/s     r/s     w/s    rkB/s    wkB/s avgrq-sz avgqu-sz   await r_await w_await  svctm  %util
sda               0.00     0.00 10626.00    0.00 42504.00     0.00     8.00     1.48    0.14    0.14    0.00   0.02  23.50
sdb               0.00     0.00 10612.00    0.00 42448.00     0.00     8.00     1.71    0.16    0.16    0.00   0.02  24.20
sdc               0.00     0.00 10420.00    0.00 41680.00     0.00     8.00     2.07    0.20    0.20    0.00   0.03  30.30
sdd               0.00     0.00 10130.00    0.00 40520.00     0.00     8.00     1.87    0.18    0.18    0.00   0.03  28.90
sde               0.00     0.00 10341.00    0.00 41364.00     0.00     8.00     2.08    0.20    0.20    0.00   0.03  29.30
sdf               0.00     0.00 10290.00    0.00 41160.00     0.00     8.00     2.12    0.21    0.21    0.00   0.03  31.20
sdg               0.00     0.00    0.00    0.00     0.00     0.00     0.00     0.00    0.00    0.00    0.00   0.00   0.00
sdh               0.00     0.00    0.00    0.00     0.00     0.00     0.00     0.00    0.00    0.00    0.00   0.00   0.00
md0               0.00     0.00 62411.00    0.00 249644.00     0.00     8.00     0.00    0.00    0.00    0.00   0.00   0.00

avg-cpu:  %user   %nice %system %iowait  %steal   %idle
           1.02    0.00   16.50   65.23    0.00   17.26

Device:         rrqm/s   wrqm/s     r/s     w/s    rkB/s    wkB/s avgrq-sz avgqu-sz   await r_await w_await  svctm  %util
sda               0.00     0.00 10210.00    0.00 40840.00     0.00     8.00     1.55    0.15    0.15    0.00   0.02  23.70
sdb               0.00     0.00 10246.00    0.00 40984.00     0.00     8.00     1.55    0.15    0.15    0.00   0.02  23.30
sdc               0.00     0.00 10375.00    0.00 41500.00     0.00     8.00     1.98    0.19    0.19    0.00   0.03  29.60
sdd               0.00     0.00 10147.00    0.00 40588.00     0.00     8.00     2.07    0.20    0.20    0.00   0.03  29.30
sde               0.00     0.00 10296.00    0.00 41184.00     0.00     8.00     1.83    0.18    0.18    0.00   0.03  28.60
sdf               0.00     0.00 10637.00    0.00 42548.00     0.00     8.00     2.05    0.19    0.19    0.00   0.03  29.50
sdg               0.00     0.00    0.00    0.00     0.00     0.00     0.00     0.00    0.00    0.00    0.00   0.00   0.00
sdh               0.00     0.00    0.00    0.00     0.00     0.00     0.00     0.00    0.00    0.00    0.00   0.00   0.00
md0               0.00     0.00 61919.00    0.00 247676.00     0.00     8.00     0.00    0.00    0.00    0.00   0.00   0.00

avg-cpu:  %user   %nice %system %iowait  %steal   %idle
           1.27    0.00   16.71   65.06    0.00   16.96

Device:         rrqm/s   wrqm/s     r/s     w/s    rkB/s    wkB/s avgrq-sz avgqu-sz   await r_await w_await  svctm  %util
sda               0.00     0.00 10148.00    0.00 40592.00     0.00     8.00     1.38    0.14    0.14    0.00   0.02  24.40
sdb               0.00     0.00 10255.00    0.00 41020.00     0.00     8.00     1.46    0.14    0.14    0.00   0.02  22.20
sdc               0.00     0.00 10321.00    0.00 41284.00     0.00     8.00     2.02    0.20    0.20    0.00   0.03  29.00
sdd               0.00     0.00 10650.00    0.00 42600.00     0.00     8.00     2.06    0.19    0.19    0.00   0.03  31.50
sde               0.00     0.00 10286.00    0.00 41144.00     0.00     8.00     1.84    0.18    0.18    0.00   0.03  28.10
sdf               0.00     0.00 10594.00    0.00 42376.00     0.00     8.00     2.08    0.20    0.20    0.00   0.03  30.90
sdg               0.00     0.00    0.00    0.00     0.00     0.00     0.00     0.00    0.00    0.00    0.00   0.00   0.00
sdh               0.00     0.00    0.00    0.00     0.00     0.00     0.00     0.00    0.00    0.00    0.00   0.00   0.00
md0               0.00     0.00 62244.00    0.00 248976.00     0.00     8.00     0.00    0.00    0.00    0.00   0.00   0.00

avg-cpu:  %user   %nice %system %iowait  %steal   %idle
           1.27    0.00   16.28   64.89    0.00   17.56

Device:         rrqm/s   wrqm/s     r/s     w/s    rkB/s    wkB/s avgrq-sz avgqu-sz   await r_await w_await  svctm  %util
sda               0.00     0.00 10185.00    0.00 40740.00     0.00     8.00     1.48    0.15    0.15    0.00   0.02  22.90
sdb               0.00     0.00 10625.00    0.00 42500.00     0.00     8.00     1.59    0.15    0.15    0.00   0.02  24.10
sdc               0.00     0.00 10147.00    0.00 40588.00     0.00     8.00     1.87    0.18    0.18    0.00   0.03  29.30
sdd               0.00     0.00 10477.00    0.00 41908.00     0.00     8.00     2.16    0.21    0.21    0.00   0.03  29.60
sde               0.00     0.00 10410.00    0.00 41640.00     0.00     8.00     2.01    0.19    0.19    0.00   0.03  30.50
sdf               0.00     0.00 10276.00    0.00 41104.00     0.00     8.00     1.93    0.19    0.19    0.00   0.03  28.60
sdg               0.00     0.00    0.00    0.00     0.00     0.00     0.00     0.00    0.00    0.00    0.00   0.00   0.00
sdh               0.00     0.00    0.00    0.00     0.00     0.00     0.00     0.00    0.00    0.00    0.00   0.00   0.00
md0               0.00     0.00 62128.00    0.00 248512.00     0.00     8.00     0.00    0.00    0.00    0.00   0.00   0.00

avg-cpu:  %user   %nice %system %iowait  %steal   %idle
           0.77    0.00   15.90   65.64    0.00   17.69

Device:         rrqm/s   wrqm/s     r/s     w/s    rkB/s    wkB/s avgrq-sz avgqu-sz   await r_await w_await  svctm  %util
sda               0.00     0.00 10233.00    0.00 40932.00     0.00     8.00     1.55    0.15    0.15    0.00   0.02  23.80
sdb               0.00     0.00 10370.00    0.00 41480.00     0.00     8.00     1.62    0.16    0.16    0.00   0.02  23.30
sdc               0.00     0.00 10116.00    0.00 40464.00     0.00     8.00     2.04    0.20    0.20    0.00   0.03  30.00
sdd               0.00     0.00 10637.00    0.00 42548.00     0.00     8.00     2.12    0.20    0.20    0.00   0.03  30.60
sde               0.00     0.00 10473.00    0.00 41892.00     0.00     8.00     2.18    0.21    0.21    0.00   0.03  31.20
sdf               0.00     0.00 10249.00    0.00 40996.00     0.00     8.00     2.03    0.20    0.20    0.00   0.03  29.90
sdg               0.00     0.00    0.00    0.00     0.00     0.00     0.00     0.00    0.00    0.00    0.00   0.00   0.00
sdh               0.00     0.00    0.00    0.00     0.00     0.00     0.00     0.00    0.00    0.00    0.00   0.00   0.00
md0               0.00     0.00 62077.00    0.00 248308.00     0.00     8.00     0.00    0.00    0.00    0.00   0.00   0.00

avg-cpu:  %user   %nice %system %iowait  %steal   %idle
           0.77    0.00   15.90   66.15    0.00   17.18

Device:         rrqm/s   wrqm/s     r/s     w/s    rkB/s    wkB/s avgrq-sz avgqu-sz   await r_await w_await  svctm  %util
sda               0.00     0.00 9945.00    0.00 39780.00     0.00     8.00     1.49    0.15    0.15    0.00   0.02  24.60
sdb               0.00     0.00 10366.00    0.00 41464.00     0.00     8.00     1.67    0.16    0.16    0.00   0.02  24.10
sdc               0.00     0.00 10414.00    0.00 41656.00     0.00     8.00     2.01    0.19    0.19    0.00   0.03  29.20
sdd               0.00     0.00 10170.00    0.00 40680.00     0.00     8.00     2.11    0.21    0.21    0.00   0.03  30.50
sde               0.00     0.00 10550.00    0.00 42200.00     0.00     8.00     2.07    0.20    0.20    0.00   0.03  30.50
sdf               0.00     0.00 10566.00    0.00 42264.00     0.00     8.00     2.09    0.20    0.20    0.00   0.03  28.50
sdg               0.00     0.00    0.00    0.00     0.00     0.00     0.00     0.00    0.00    0.00    0.00   0.00   0.00
sdh               0.00     0.00    0.00    0.00     0.00     0.00     0.00     0.00    0.00    0.00    0.00   0.00   0.00
md0               0.00     0.00 62000.00    0.00 248000.00     0.00     8.00     0.00    0.00    0.00    0.00   0.00   0.00

avg-cpu:  %user   %nice %system %iowait  %steal   %idle
           1.01    0.00   16.71   65.57    0.00   16.71

Device:         rrqm/s   wrqm/s     r/s     w/s    rkB/s    wkB/s avgrq-sz avgqu-sz   await r_await w_await  svctm  %util
sda               0.00     0.00 10589.00    0.00 42356.00     0.00     8.00     1.48    0.14    0.14    0.00   0.02  24.00
sdb               0.00     0.00 10391.00    0.00 41564.00     0.00     8.00     1.32    0.13    0.13    0.00   0.02  22.60
sdc               0.00     0.00 10222.00    0.00 40888.00     0.00     8.00     1.93    0.19    0.19    0.00   0.03  27.40
sdd               0.00     0.00 10380.00    0.00 41520.00     0.00     8.00     2.00    0.19    0.19    0.00   0.03  28.50
sde               0.00     0.00 10260.00    0.00 41040.00     0.00     8.00     1.88    0.18    0.18    0.00   0.03  28.70
sdf               0.00     0.00 10437.00    0.00 41748.00     0.00     8.00     2.12    0.20    0.20    0.00   0.03  29.80
sdg               0.00     0.00    0.00    0.00     0.00     0.00     0.00     0.00    0.00    0.00    0.00   0.00   0.00
sdh               0.00     0.00    0.00    0.00     0.00     0.00     0.00     0.00    0.00    0.00    0.00   0.00   0.00
md0               0.00     0.00 62286.00    0.00 249144.00     0.00     8.00     0.00    0.00    0.00    0.00   0.00   0.00

avg-cpu:  %user   %nice %system %iowait  %steal   %idle
           1.27    0.00   16.50   65.23    0.00   17.01

Device:         rrqm/s   wrqm/s     r/s     w/s    rkB/s    wkB/s avgrq-sz avgqu-sz   await r_await w_await  svctm  %util
sda               0.00     0.00 10472.00    0.00 41888.00     0.00     8.00     1.56    0.15    0.15    0.00   0.02  24.70
sdb               0.00     0.00 10499.00    0.00 41996.00     0.00     8.00     1.65    0.16    0.16    0.00   0.02  24.70
sdc               0.00     0.00 10319.00    0.00 41276.00     0.00     8.00     1.99    0.19    0.19    0.00   0.03  28.90
sdd               0.00     0.00 10190.00    0.00 40760.00     0.00     8.00     1.97    0.19    0.19    0.00   0.03  29.10
sde               0.00     0.00 10454.00    0.00 41816.00     0.00     8.00     2.00    0.19    0.19    0.00   0.03  30.20
sdf               0.00     0.00 10179.00    0.00 40716.00     0.00     8.00     1.95    0.19    0.19    0.00   0.03  29.30
sdg               0.00     0.00    0.00    0.00     0.00     0.00     0.00     0.00    0.00    0.00    0.00   0.00   0.00
sdh               0.00     0.00    0.00    0.00     0.00     0.00     0.00     0.00    0.00    0.00    0.00   0.00   0.00
md0               0.00     0.00 62124.00    0.00 248496.00     0.00     8.00     0.00    0.00    0.00    0.00   0.00   0.00

