Linux 4.17.2 (bench) 	08/03/2018 	_x86_64_	(4 CPU)

avg-cpu:  %user   %nice %system %iowait  %steal   %idle
          10.27    0.02    4.12    2.64    0.00   82.96

Device:         rrqm/s   wrqm/s     r/s     w/s    rkB/s    wkB/s avgrq-sz avgqu-sz   await r_await w_await  svctm  %util
sda              49.26     4.22 1687.50  101.89 21141.26  3117.77    27.11     1.04    0.58    0.26    5.92   0.06  10.87
sdb              49.10     4.18 1687.47  102.03 21130.74  3114.45    27.10     1.04    0.58    0.26    5.85   0.06  10.75
sdc              86.98     4.24 1647.49  101.58 21122.86  3116.90    27.72     1.46    0.83    0.45    7.12   0.08  14.23
sdd              80.45     4.21 1653.19  101.65 21107.78  3113.12    27.60     1.47    0.84    0.44    7.33   0.08  14.32
sde              82.47     4.25 1658.27  101.75 21167.39  3117.34    27.60     1.49    0.85    0.44    7.44   0.08  14.34
sdf              79.60     4.22 1660.40  101.70 21148.73  3114.22    27.54     1.53    0.87    0.44    7.90   0.08  14.37
sdg               0.00     3.17   26.53   73.30   324.88   392.06    14.36     0.44    4.41    0.20    5.93   0.08   0.78
sdh               0.00     0.13    0.02    0.23     2.20     5.03    56.82     0.00    1.15    0.65    1.19   0.21   0.01
md0               0.00     0.00 10429.28  477.41 144864.93 21340.70    30.48     0.00    0.00    0.00    0.00   0.00   0.00

avg-cpu:  %user   %nice %system %iowait  %steal   %idle
           2.08    0.03   23.36   53.72    0.00   20.81

Device:         rrqm/s   wrqm/s     r/s     w/s    rkB/s    wkB/s avgrq-sz avgqu-sz   await r_await w_await  svctm  %util
sda               0.00     0.00 12415.45    0.00 49661.80     0.00     8.00     2.21    0.18    0.18    0.00   0.02  29.46
sdb               0.00     0.00 12423.00    0.00 49692.00     0.00     8.00     2.22    0.18    0.18    0.00   0.02  29.39
sdc               0.00     0.00 12423.10    0.00 49692.40     0.00     8.00     2.74    0.22    0.22    0.00   0.03  33.98
sdd               0.00     0.00 12398.85    0.00 49595.40     0.00     8.00     2.72    0.22    0.22    0.00   0.03  33.98
sde               0.00     0.00 12352.00    0.00 49408.00     0.00     8.00     2.67    0.22    0.22    0.00   0.03  33.44
sdf               0.00     0.00 12422.45    0.00 49689.80     0.00     8.00     2.70    0.22    0.22    0.00   0.03  33.55
sdg               0.00     0.30   68.45    1.70   292.40    18.80     8.87     0.01    0.12    0.12    0.38   0.11   0.76
sdh               0.00     0.00    0.00    0.00     0.00     0.00     0.00     0.00    0.00    0.00    0.00   0.00   0.00
md0               0.00     0.00 74436.25    0.00 297745.00     0.00     8.00     0.00    0.00    0.00    0.00   0.00   0.00

