Linux 4.17.2 (bench) 	08/03/2018 	_x86_64_	(4 CPU)

avg-cpu:  %user   %nice %system %iowait  %steal   %idle
          10.27    0.02    4.08    2.57    0.00   83.06

Device:         rrqm/s   wrqm/s     r/s     w/s    rkB/s    wkB/s avgrq-sz avgqu-sz   await r_await w_await  svctm  %util
sda              46.04     4.24 1659.05  102.45 20976.02  3134.70    27.38     1.04    0.59    0.26    5.92   0.06  10.75
sdb              45.89     4.20 1658.99  102.58 20965.40  3131.36    27.36     1.03    0.59    0.26    5.85   0.06  10.63
sdc              83.85     4.26 1618.93  102.14 20957.50  3133.82    28.00     1.45    0.84    0.45    7.12   0.08  14.09
sdd              77.28     4.23 1624.67  102.21 20942.43  3130.02    27.88     1.46    0.85    0.44    7.33   0.08  14.18
sde              79.31     4.27 1629.74  102.30 21002.20  3134.27    27.87     1.48    0.86    0.44    7.44   0.08  14.20
sdf              76.43     4.24 1631.90  102.25 20983.46  3131.13    27.81     1.53    0.88    0.44    7.90   0.08  14.24
sdg               0.00     3.17   26.33   73.32   324.09   392.08    14.37     0.44    4.42    0.20    5.93   0.08   0.78
sdh               0.00     0.13    0.02    0.23     2.21     5.06    56.82     0.00    1.15    0.65    1.19   0.21   0.01
md0               0.00     0.00 10238.90  480.00 143691.17 21456.60    30.81     0.00    0.00    0.00    0.00   0.00   0.00

avg-cpu:  %user   %nice %system %iowait  %steal   %idle
           0.22    0.03    2.38    4.83    0.00   92.55

Device:         rrqm/s   wrqm/s     r/s     w/s    rkB/s    wkB/s avgrq-sz avgqu-sz   await r_await w_await  svctm  %util
sda               0.00     0.00 2181.85    0.00  8727.40     0.00     8.00     0.14    0.06    0.06    0.00   0.06  13.64
sdb               0.00     0.00 2192.20    0.00  8768.80     0.00     8.00     0.14    0.06    0.06    0.00   0.06  14.08
sdc               0.00     0.00 2275.85    0.00  9103.40     0.00     8.00     0.15    0.07    0.07    0.00   0.07  15.22
sdd               0.00     0.00 2250.70    0.00  9002.80     0.00     8.00     0.15    0.07    0.07    0.00   0.07  15.21
sde               0.00     0.00 2272.55    0.00  9090.20     0.00     8.00     0.15    0.07    0.07    0.00   0.07  15.34
sdf               0.00     0.00 2249.70    0.00  8998.80     0.00     8.00     0.16    0.07    0.07    0.00   0.07  15.53
sdg               0.00     1.70    2.95   19.80    39.60   107.40    12.92     0.07    3.28    0.14    3.75   0.04   0.10
sdh               0.00     0.00    0.00    0.00     0.00     0.00     0.00     0.00    0.00    0.00    0.00   0.00   0.00
md0               0.00     0.00 13422.95    0.00 53691.80     0.00     8.00     0.00    0.00    0.00    0.00   0.00   0.00

