Linux 4.17.2 (bench) 	08/03/2018 	_x86_64_	(4 CPU)

avg-cpu:  %user   %nice %system %iowait  %steal   %idle
          10.26    0.02    4.17    2.73    0.00   82.82

Device:         rrqm/s   wrqm/s     r/s     w/s    rkB/s    wkB/s avgrq-sz avgqu-sz   await r_await w_await  svctm  %util
sda              53.44     4.19 1725.99  101.11 21349.03  3093.70    26.76     1.05    0.57    0.26    5.92   0.06  11.04
sdb              53.24     4.15 1725.99  101.24 21338.58  3090.41    26.74     1.05    0.57    0.26    5.85   0.06  10.92
sdc              90.98     4.20 1686.16  100.80 21330.79  3092.84    27.34     1.47    0.82    0.44    7.12   0.08  14.41
sdd              84.51     4.17 1691.81  100.87 21315.82  3089.08    27.23     1.47    0.82    0.43    7.33   0.08  14.51
sde              86.51     4.22 1696.89  100.96 21375.18  3093.27    27.22     1.49    0.83    0.44    7.44   0.08  14.53
sdf              83.66     4.19 1699.00  100.91 21356.67  3090.18    27.16     1.54    0.85    0.44    7.90   0.08  14.56
sdg               0.00     3.17   26.82   73.25   325.99   391.98    14.35     0.44    4.39    0.20    5.93   0.08   0.78
sdh               0.00     0.13    0.02    0.23     2.18     4.99    56.82     0.00    1.15    0.65    1.19   0.21   0.01
md0               0.00     0.00 10685.60  473.72 146328.83 21175.96    30.02     0.00    0.00    0.00    0.00   0.00   0.00

avg-cpu:  %user   %nice %system %iowait  %steal   %idle
           1.52    0.00   18.02   52.03    0.00   28.43

Device:         rrqm/s   wrqm/s     r/s     w/s    rkB/s    wkB/s avgrq-sz avgqu-sz   await r_await w_await  svctm  %util
sda               6.00     0.00 9176.00    0.00 47948.00     0.00    10.45     1.38    0.15    0.15    0.00   0.03  31.10
sdb               5.00     0.00 8927.00    0.00 46520.00     0.00    10.42     1.24    0.14    0.14    0.00   0.03  30.50
sdc               7.00     0.00 9139.00    0.00 49312.00     0.00    10.79     1.50    0.16    0.16    0.00   0.04  35.50
sdd               7.00     0.00 9235.00    0.00 50988.00     0.00    11.04     1.53    0.17    0.17    0.00   0.04  37.50
sde               7.00     0.00 9063.00    0.00 48268.00     0.00    10.65     1.58    0.17    0.17    0.00   0.04  36.00
sdf              10.00     0.00 8875.00    0.00 46464.00     0.00    10.47     1.48    0.17    0.17    0.00   0.04  36.60
sdg               0.00    17.00   16.00   67.00   256.00  1228.00    35.76     0.17    2.02    0.19    2.46   0.10   0.80
sdh               0.00     0.00    0.00    0.00     0.00     0.00     0.00     0.00    0.00    0.00    0.00   0.00   0.00
md0               0.00     0.00 54465.00    0.00 297844.00     0.00    10.94     0.00    0.00    0.00    0.00   0.00   0.00

avg-cpu:  %user   %nice %system %iowait  %steal   %idle
           1.03    0.00   16.54   52.97    0.00   29.46

Device:         rrqm/s   wrqm/s     r/s     w/s    rkB/s    wkB/s avgrq-sz avgqu-sz   await r_await w_await  svctm  %util
sda              14.00     0.00 8853.00    0.00 51244.00     0.00    11.58     1.25    0.14    0.14    0.00   0.04  32.30
sdb              18.00     0.00 8827.00    0.00 51400.00     0.00    11.65     1.30    0.15    0.15    0.00   0.04  31.90
sdc              14.00     0.00 8937.00    0.00 50636.00     0.00    11.33     1.66    0.19    0.19    0.00   0.05  40.30
sdd              15.00     0.00 9093.00    0.00 52856.00     0.00    11.63     1.64    0.18    0.18    0.00   0.04  37.80
sde              14.00     0.00 9018.00    0.00 52312.00     0.00    11.60     1.54    0.17    0.17    0.00   0.04  37.40
sdf              15.00     0.00 8963.00    0.00 52268.00     0.00    11.66     1.51    0.17    0.17    0.00   0.04  37.00
sdg               0.00     0.00    0.00    0.00     0.00     0.00     0.00     0.00    0.00    0.00    0.00   0.00   0.00
sdh               0.00     0.00    0.00    0.00     0.00     0.00     0.00     0.00    0.00    0.00    0.00   0.00   0.00
md0               0.00     0.00 53779.00    0.00 343988.00     0.00    12.79     0.00    0.00    0.00    0.00   0.00   0.00

