Linux 4.17.2 (bench) 	08/03/2018 	_x86_64_	(4 CPU)

avg-cpu:  %user   %nice %system %iowait  %steal   %idle
          10.26    0.02    4.14    2.68    0.00   82.90

Device:         rrqm/s   wrqm/s     r/s     w/s    rkB/s    wkB/s avgrq-sz avgqu-sz   await r_await w_await  svctm  %util
sda              50.34     4.20 1703.52  101.56 21225.66  3107.48    26.96     1.04    0.58    0.26    5.92   0.06  10.94
sdb              50.17     4.16 1703.49  101.69 21215.21  3104.18    26.94     1.04    0.58    0.26    5.85   0.06  10.82
sdc              87.93     4.22 1663.63  101.25 21207.36  3106.62    27.55     1.46    0.83    0.44    7.12   0.08  14.31
sdd              81.43     4.19 1669.32  101.32 21192.38  3102.85    27.44     1.47    0.83    0.43    7.33   0.08  14.40
sde              83.44     4.24 1674.40  101.41 21251.84  3107.06    27.43     1.49    0.84    0.44    7.44   0.08  14.42
sdf              80.57     4.21 1676.51  101.36 21233.15  3103.95    27.38     1.53    0.86    0.44    7.90   0.08  14.45
sdg               0.00     3.17   26.65   73.28   325.31   392.02    14.36     0.44    4.40    0.20    5.93   0.08   0.78
sdh               0.00     0.13    0.02    0.23     2.19     5.01    56.82     0.00    1.15    0.65    1.19   0.21   0.01
md0               0.00     0.00 10531.91  475.83 145468.39 21270.33    30.29     0.00    0.00    0.00    0.00   0.00   0.00

avg-cpu:  %user   %nice %system %iowait  %steal   %idle
           1.61    0.01   25.29    0.49    0.00   72.60

Device:         rrqm/s   wrqm/s     r/s     w/s    rkB/s    wkB/s avgrq-sz avgqu-sz   await r_await w_await  svctm  %util
sda               0.00     0.00 22079.25    0.00 88317.00     0.00     8.00     3.67    0.17    0.17    0.00   0.02  47.10
sdb               0.00     0.00 22114.50    0.00 88458.00     0.00     8.00     3.61    0.16    0.16    0.00   0.02  46.08
sdc               0.05     0.00 22131.65    0.00 88526.80     0.00     8.00     4.58    0.21    0.21    0.00   0.03  57.50
sdd               0.00     0.00 22096.70    0.00 88386.80     0.00     8.00     4.55    0.21    0.21    0.00   0.03  57.73
sde               0.00     0.00 22134.45    0.00 88537.80     0.00     8.00     4.59    0.21    0.21    0.00   0.03  58.36
sdf               0.10     0.00 22170.70    0.00 88683.20     0.00     8.00     4.70    0.21    0.21    0.00   0.03  58.39
sdg               0.00     0.05   94.95  129.20   399.80   648.40     9.35     0.79    3.53    0.13    6.03   0.08   1.76
sdh               0.00     0.00    0.00    0.00     0.00     0.00     0.00     0.00    0.00    0.00    0.00   0.00   0.00
md0               0.00     0.00 132731.60    0.00 530926.40     0.00     8.00     0.00    0.00    0.00    0.00   0.00   0.00

