Linux 4.17.2 (bench) 	08/03/2018 	_x86_64_	(4 CPU)

avg-cpu:  %user   %nice %system %iowait  %steal   %idle
          10.26    0.02    4.16    2.72    0.00   82.84

Device:         rrqm/s   wrqm/s     r/s     w/s    rkB/s    wkB/s avgrq-sz avgqu-sz   await r_await w_await  svctm  %util
sda              52.90     4.19 1720.05  101.28 21314.49  3098.91    26.81     1.05    0.57    0.26    5.92   0.06  11.01
sdb              52.70     4.15 1720.05  101.41 21304.01  3095.62    26.79     1.05    0.57    0.26    5.85   0.06  10.89
sdc              90.51     4.21 1680.15  100.97 21296.19  3098.05    27.39     1.47    0.82    0.45    7.12   0.08  14.38
sdd              84.02     4.18 1685.81  101.04 21281.19  3094.29    27.28     1.47    0.82    0.44    7.33   0.08  14.47
sde              86.02     4.22 1690.89  101.13 21340.59  3098.49    27.28     1.49    0.83    0.44    7.44   0.08  14.50
sdf              83.17     4.20 1693.01  101.08 21322.04  3095.39    27.22     1.54    0.86    0.44    7.90   0.08  14.53
sdg               0.00     3.17   26.76   73.27   325.81   392.02    14.35     0.44    4.40    0.20    5.93   0.08   0.78
sdh               0.00     0.13    0.02    0.23     2.18     5.00    56.82     0.00    1.15    0.65    1.19   0.21   0.01
md0               0.00     0.00 10646.68  474.52 146071.42 21211.66    30.08     0.00    0.00    0.00    0.00   0.00   0.00

avg-cpu:  %user   %nice %system %iowait  %steal   %idle
           0.25    0.00    1.78    1.02    0.00   96.95

Device:         rrqm/s   wrqm/s     r/s     w/s    rkB/s    wkB/s avgrq-sz avgqu-sz   await r_await w_await  svctm  %util
sda               0.00     0.00 1501.00    0.00  6004.00     0.00     8.00     0.14    0.09    0.09    0.00   0.09  13.90
sdb               0.00     0.00 1449.00    0.00  5796.00     0.00     8.00     0.14    0.10    0.10    0.00   0.10  14.30
sdc               0.00     0.00 1440.00    0.00  5760.00     0.00     8.00     0.16    0.11    0.11    0.00   0.11  15.60
sdd               0.00     0.00 1569.00    0.00  6276.00     0.00     8.00     0.18    0.12    0.12    0.00   0.12  18.20
sde               0.00     0.00 1556.00    0.00  6224.00     0.00     8.00     0.15    0.10    0.10    0.00   0.10  15.50
sdf               0.00     0.00 1498.00    0.00  5992.00     0.00     8.00     0.15    0.10    0.10    0.00   0.10  15.10
sdg               0.00     0.00    2.00    1.00    44.00     8.00    34.67     0.00    0.33    0.50    0.00   0.33   0.10
sdh               0.00     0.00    0.00    0.00     0.00     0.00     0.00     0.00    0.00    0.00    0.00   0.00   0.00
md0               0.00     0.00 9015.00    0.00 36060.00     0.00     8.00     0.00    0.00    0.00    0.00   0.00   0.00

avg-cpu:  %user   %nice %system %iowait  %steal   %idle
           0.26    0.00    0.77    1.03    0.00   97.95

Device:         rrqm/s   wrqm/s     r/s     w/s    rkB/s    wkB/s avgrq-sz avgqu-sz   await r_await w_await  svctm  %util
sda               0.00     0.00 1536.00    0.00  6144.00     0.00     8.00     0.15    0.10    0.10    0.00   0.10  15.40
sdb               0.00     0.00 1438.00    0.00  5752.00     0.00     8.00     0.14    0.10    0.10    0.00   0.10  13.70
sdc               0.00     0.00 1510.00    0.00  6040.00     0.00     8.00     0.16    0.10    0.10    0.00   0.10  15.60
sdd               0.00     0.00 1529.00    0.00  6116.00     0.00     8.00     0.19    0.12    0.12    0.00   0.12  18.90
sde               0.00     0.00 1548.00    0.00  6192.00     0.00     8.00     0.17    0.11    0.11    0.00   0.11  17.10
sdf               0.00     0.00 1475.00    0.00  5900.00     0.00     8.00     0.14    0.10    0.10    0.00   0.10  14.50
sdg               0.00     0.00    0.00    0.00     0.00     0.00     0.00     0.00    0.00    0.00    0.00   0.00   0.00
sdh               0.00     0.00    0.00    0.00     0.00     0.00     0.00     0.00    0.00    0.00    0.00   0.00   0.00
md0               0.00     0.00 9036.00    0.00 36144.00     0.00     8.00     0.00    0.00    0.00    0.00   0.00   0.00

avg-cpu:  %user   %nice %system %iowait  %steal   %idle
           0.25    0.00    1.53    1.02    0.00   97.20

Device:         rrqm/s   wrqm/s     r/s     w/s    rkB/s    wkB/s avgrq-sz avgqu-sz   await r_await w_await  svctm  %util
sda               0.00     0.00 1533.00    0.00  6132.00     0.00     8.00     0.15    0.10    0.10    0.00   0.10  15.30
sdb               0.00     0.00 1560.00    0.00  6240.00     0.00     8.00     0.14    0.09    0.09    0.00   0.09  13.50
sdc               0.00     0.00 1486.00    0.00  5944.00     0.00     8.00     0.15    0.10    0.10    0.00   0.10  15.40
sdd               0.00     0.00 1455.00    0.00  5820.00     0.00     8.00     0.17    0.11    0.11    0.00   0.11  16.70
sde               0.00     0.00 1534.00    0.00  6136.00     0.00     8.00     0.16    0.10    0.10    0.00   0.10  16.00
sdf               0.00     0.00 1503.00    0.00  6012.00     0.00     8.00     0.16    0.11    0.11    0.00   0.11  16.30
sdg               0.00     0.00    0.00    0.00     0.00     0.00     0.00     0.00    0.00    0.00    0.00   0.00   0.00
sdh               0.00     0.00    0.00    0.00     0.00     0.00     0.00     0.00    0.00    0.00    0.00   0.00   0.00
md0               0.00     0.00 9071.00    0.00 36284.00     0.00     8.00     0.00    0.00    0.00    0.00   0.00   0.00

avg-cpu:  %user   %nice %system %iowait  %steal   %idle
           0.26    0.00    2.30    4.08    0.00   93.37

Device:         rrqm/s   wrqm/s     r/s     w/s    rkB/s    wkB/s avgrq-sz avgqu-sz   await r_await w_await  svctm  %util
sda               0.00     0.00 1624.00    0.00  6496.00     0.00     8.00     0.15    0.09    0.09    0.00   0.09  14.60
sdb               0.00     0.00 1505.00    0.00  6020.00     0.00     8.00     0.14    0.09    0.09    0.00   0.09  13.90
sdc               0.00     0.00 1621.00    0.00  6484.00     0.00     8.00     0.17    0.10    0.10    0.00   0.10  17.00
sdd               0.00     0.00 1476.00    0.00  5904.00     0.00     8.00     0.18    0.12    0.12    0.00   0.12  17.80
sde               0.00     0.00 1455.00    0.00  5820.00     0.00     8.00     0.14    0.09    0.09    0.00   0.09  13.80
sdf               0.00     0.00 1538.00    0.00  6152.00     0.00     8.00     0.17    0.11    0.11    0.00   0.11  16.70
sdg               0.00     0.00 1869.00    0.00  7644.00     0.00     8.18     0.22    0.12    0.12    0.00   0.12  21.90
sdh               0.00     0.00    0.00    0.00     0.00     0.00     0.00     0.00    0.00    0.00    0.00   0.00   0.00
md0               0.00     0.00 9219.00    0.00 36876.00     0.00     8.00     0.00    0.00    0.00    0.00   0.00   0.00

avg-cpu:  %user   %nice %system %iowait  %steal   %idle
           0.25    0.00    1.78    1.02    0.00   96.95

Device:         rrqm/s   wrqm/s     r/s     w/s    rkB/s    wkB/s avgrq-sz avgqu-sz   await r_await w_await  svctm  %util
sda               0.00     0.00 1469.00    0.00  5876.00     0.00     8.00     0.14    0.10    0.10    0.00   0.10  14.50
sdb               0.00     0.00 1636.00    0.00  6544.00     0.00     8.00     0.17    0.10    0.10    0.00   0.10  16.70
sdc               0.00     0.00 1439.00    0.00  5756.00     0.00     8.00     0.14    0.10    0.10    0.00   0.10  14.30
sdd               0.00     0.00 1493.00    0.00  5972.00     0.00     8.00     0.18    0.12    0.12    0.00   0.12  18.50
sde               0.00     0.00 1517.00    0.00  6068.00     0.00     8.00     0.14    0.09    0.09    0.00   0.09  13.80
sdf               0.00     0.00 1555.00    0.00  6220.00     0.00     8.00     0.14    0.09    0.09    0.00   0.09  14.50
sdg               0.00     0.00    0.00    0.00     0.00     0.00     0.00     0.00    0.00    0.00    0.00   0.00   0.00
sdh               0.00     0.00    0.00    0.00     0.00     0.00     0.00     0.00    0.00    0.00    0.00   0.00   0.00
md0               0.00     0.00 9109.00    0.00 36436.00     0.00     8.00     0.00    0.00    0.00    0.00   0.00   0.00

avg-cpu:  %user   %nice %system %iowait  %steal   %idle
           0.00    0.00    1.53    0.77    0.00   97.70

Device:         rrqm/s   wrqm/s     r/s     w/s    rkB/s    wkB/s avgrq-sz avgqu-sz   await r_await w_await  svctm  %util
sda               0.00     0.00 1596.00    0.00  6384.00     0.00     8.00     0.15    0.09    0.09    0.00   0.09  14.70
sdb               0.00     0.00 1361.00    0.00  5444.00     0.00     8.00     0.12    0.09    0.09    0.00   0.09  12.30
sdc               0.00     0.00 1463.00    0.00  5852.00     0.00     8.00     0.14    0.10    0.10    0.00   0.10  14.30
sdd               0.00     0.00 1491.00    0.00  5964.00     0.00     8.00     0.18    0.12    0.12    0.00   0.12  18.50
sde               0.00     0.00 1601.00    0.00  6404.00     0.00     8.00     0.17    0.10    0.10    0.00   0.10  16.60
sdf               0.00     0.00 1437.00    0.00  5748.00     0.00     8.00     0.16    0.11    0.11    0.00   0.11  15.60
sdg               0.00     0.00    0.00    0.00     0.00     0.00     0.00     0.00    0.00    0.00    0.00   0.00   0.00
sdh               0.00     0.00    0.00    0.00     0.00     0.00     0.00     0.00    0.00    0.00    0.00   0.00   0.00
md0               0.00     0.00 8949.00    0.00 35796.00     0.00     8.00     0.00    0.00    0.00    0.00   0.00   0.00

avg-cpu:  %user   %nice %system %iowait  %steal   %idle
           0.26    0.00    1.53    1.02    0.00   97.19

Device:         rrqm/s   wrqm/s     r/s     w/s    rkB/s    wkB/s avgrq-sz avgqu-sz   await r_await w_await  svctm  %util
sda               0.00     0.00 1571.00    0.00  6284.00     0.00     8.00     0.16    0.10    0.10    0.00   0.10  16.20
sdb               0.00     0.00 1305.00    0.00  5220.00     0.00     8.00     0.12    0.09    0.09    0.00   0.09  12.00
sdc               0.00     0.00 1455.00    0.00  5820.00     0.00     8.00     0.16    0.11    0.11    0.00   0.11  15.60
sdd               0.00     0.00 1629.00    0.00  6516.00     0.00     8.00     0.18    0.11    0.11    0.00   0.11  18.30
sde               0.00     0.00 1465.00    0.00  5860.00     0.00     8.00     0.15    0.10    0.10    0.00   0.10  14.60
sdf               0.00     0.00 1590.00    0.00  6360.00     0.00     8.00     0.16    0.10    0.10    0.00   0.10  16.40
sdg               0.00     0.00    0.00    0.00     0.00     0.00     0.00     0.00    0.00    0.00    0.00   0.00   0.00
sdh               0.00     0.00    0.00    0.00     0.00     0.00     0.00     0.00    0.00    0.00    0.00   0.00   0.00
md0               0.00     0.00 9015.00    0.00 36060.00     0.00     8.00     0.00    0.00    0.00    0.00   0.00   0.00

avg-cpu:  %user   %nice %system %iowait  %steal   %idle
           0.25    0.00    1.52    1.27    0.00   96.95

Device:         rrqm/s   wrqm/s     r/s     w/s    rkB/s    wkB/s avgrq-sz avgqu-sz   await r_await w_await  svctm  %util
sda               0.00     0.00 1450.00    0.00  5800.00     0.00     8.00     0.14    0.10    0.10    0.00   0.10  14.50
sdb               0.00     0.00 1630.00    0.00  6520.00     0.00     8.00     0.15    0.09    0.09    0.00   0.09  14.70
sdc               0.00     0.00 1448.00    0.00  5792.00     0.00     8.00     0.15    0.10    0.10    0.00   0.10  14.60
sdd               0.00     0.00 1403.00    0.00  5612.00     0.00     8.00     0.16    0.12    0.12    0.00   0.12  16.20
sde               0.00     0.00 1573.00    0.00  6292.00     0.00     8.00     0.17    0.11    0.11    0.00   0.11  17.20
sdf               0.00     0.00 1633.00    0.00  6532.00     0.00     8.00     0.16    0.10    0.10    0.00   0.10  15.60
sdg               0.00     0.00    0.00    0.00     0.00     0.00     0.00     0.00    0.00    0.00    0.00   0.00   0.00
sdh               0.00     0.00    0.00    0.00     0.00     0.00     0.00     0.00    0.00    0.00    0.00   0.00   0.00
md0               0.00     0.00 9137.00    0.00 36548.00     0.00     8.00     0.00    0.00    0.00    0.00   0.00   0.00

avg-cpu:  %user   %nice %system %iowait  %steal   %idle
           0.26    0.00    1.53    1.02    0.00   97.19

Device:         rrqm/s   wrqm/s     r/s     w/s    rkB/s    wkB/s avgrq-sz avgqu-sz   await r_await w_await  svctm  %util
sda               0.00     0.00 1548.00    0.00  6192.00     0.00     8.00     0.14    0.09    0.09    0.00   0.09  14.10
sdb               0.00     0.00 1496.00    0.00  5984.00     0.00     8.00     0.16    0.11    0.11    0.00   0.11  15.80
sdc               0.00     0.00 1543.00    0.00  6172.00     0.00     8.00     0.16    0.10    0.10    0.00   0.10  15.70
sdd               0.00     0.00 1508.00    0.00  6032.00     0.00     8.00     0.17    0.11    0.11    0.00   0.11  16.80
sde               0.00     0.00 1473.00    0.00  5892.00     0.00     8.00     0.14    0.10    0.10    0.00   0.10  14.10
sdf               0.00     0.00 1508.00    0.00  6032.00     0.00     8.00     0.16    0.11    0.11    0.00   0.11  16.40
sdg               0.00     0.00    0.00    0.00     0.00     0.00     0.00     0.00    0.00    0.00    0.00   0.00   0.00
sdh               0.00     0.00    0.00    0.00     0.00     0.00     0.00     0.00    0.00    0.00    0.00   0.00   0.00
md0               0.00     0.00 9075.00    0.00 36300.00     0.00     8.00     0.00    0.00    0.00    0.00   0.00   0.00

avg-cpu:  %user   %nice %system %iowait  %steal   %idle
           0.26    0.00    1.28    1.02    0.00   97.45

Device:         rrqm/s   wrqm/s     r/s     w/s    rkB/s    wkB/s avgrq-sz avgqu-sz   await r_await w_await  svctm  %util
sda               0.00     0.00 1580.00    0.00  6320.00     0.00     8.00     0.16    0.10    0.10    0.00   0.10  15.70
sdb               0.00     0.00 1577.00    0.00  6308.00     0.00     8.00     0.15    0.10    0.10    0.00   0.10  15.50
sdc               0.00     0.00 1421.00    0.00  5684.00     0.00     8.00     0.14    0.10    0.10    0.00   0.10  13.60
sdd               0.00     0.00 1586.00    0.00  6344.00     0.00     8.00     0.15    0.10    0.10    0.00   0.10  15.50
sde               0.00     0.00 1570.00    0.00  6280.00     0.00     8.00     0.16    0.10    0.10    0.00   0.10  15.90
sdf               0.00     0.00 1541.00    0.00  6164.00     0.00     8.00     0.17    0.11    0.11    0.00   0.11  17.10
sdg               0.00     0.00    0.00    0.00     0.00     0.00     0.00     0.00    0.00    0.00    0.00   0.00   0.00
sdh               0.00     0.00    0.00    0.00     0.00     0.00     0.00     0.00    0.00    0.00    0.00   0.00   0.00
md0               0.00     0.00 9275.00    0.00 37100.00     0.00     8.00     0.00    0.00    0.00    0.00   0.00   0.00

avg-cpu:  %user   %nice %system %iowait  %steal   %idle
           0.26    0.00    1.03    0.77    0.00   97.95

Device:         rrqm/s   wrqm/s     r/s     w/s    rkB/s    wkB/s avgrq-sz avgqu-sz   await r_await w_await  svctm  %util
sda               0.00     0.00 1517.00    0.00  6068.00     0.00     8.00     0.17    0.11    0.11    0.00   0.11  16.90
sdb               0.00     0.00 1574.00    0.00  6296.00     0.00     8.00     0.15    0.10    0.10    0.00   0.10  15.30
sdc               0.00     0.00 1462.00    0.00  5848.00     0.00     8.00     0.14    0.10    0.10    0.00   0.10  14.40
sdd               0.00     0.00 1630.00    0.00  6520.00     0.00     8.00     0.14    0.09    0.09    0.00   0.09  14.50
sde               0.00     0.00 1539.00    0.00  6156.00     0.00     8.00     0.18    0.12    0.12    0.00   0.12  18.00
sdf               0.00     0.00 1539.00    0.00  6156.00     0.00     8.00     0.16    0.10    0.10    0.00   0.10  15.60
sdg               0.00     0.00    0.00    0.00     0.00     0.00     0.00     0.00    0.00    0.00    0.00   0.00   0.00
sdh               0.00     0.00    0.00    0.00     0.00     0.00     0.00     0.00    0.00    0.00    0.00   0.00   0.00
md0               0.00     0.00 9262.00    0.00 37048.00     0.00     8.00     0.00    0.00    0.00    0.00   0.00   0.00

avg-cpu:  %user   %nice %system %iowait  %steal   %idle
           0.26    0.00    1.28    1.02    0.00   97.45

Device:         rrqm/s   wrqm/s     r/s     w/s    rkB/s    wkB/s avgrq-sz avgqu-sz   await r_await w_await  svctm  %util
sda               0.00     0.00 1534.00    0.00  6136.00     0.00     8.00     0.15    0.10    0.10    0.00   0.10  15.30
sdb               0.00     0.00 1430.00    0.00  5720.00     0.00     8.00     0.13    0.09    0.09    0.00   0.09  13.00
sdc               0.00     0.00 1604.00    0.00  6416.00     0.00     8.00     0.17    0.10    0.10    0.00   0.10  16.70
sdd               0.00     0.00 1481.00    0.00  5924.00     0.00     8.00     0.16    0.11    0.11    0.00   0.11  15.70
sde               0.00     0.00 1620.00    0.00  6480.00     0.00     8.00     0.17    0.10    0.10    0.00   0.10  16.50
sdf               0.00     0.00 1590.00    0.00  6360.00     0.00     8.00     0.16    0.10    0.10    0.00   0.10  16.00
sdg               0.00     0.00    0.00    0.00     0.00     0.00     0.00     0.00    0.00    0.00    0.00   0.00   0.00
sdh               0.00     0.00    0.00    0.00     0.00     0.00     0.00     0.00    0.00    0.00    0.00   0.00   0.00
md0               0.00     0.00 9259.00    0.00 37036.00     0.00     8.00     0.00    0.00    0.00    0.00   0.00   0.00

avg-cpu:  %user   %nice %system %iowait  %steal   %idle
           0.25    0.00    1.53   11.70    0.00   86.51

Device:         rrqm/s   wrqm/s     r/s     w/s    rkB/s    wkB/s avgrq-sz avgqu-sz   await r_await w_await  svctm  %util
sda               0.00     0.00 1656.00    0.00  6624.00     0.00     8.00     0.17    0.10    0.10    0.00   0.10  16.80
sdb               0.00     0.00 1434.00    0.00  5736.00     0.00     8.00     0.14    0.10    0.10    0.00   0.10  14.30
sdc               0.00     0.00 1536.00    0.00  6144.00     0.00     8.00     0.15    0.10    0.10    0.00   0.10  15.20
sdd               0.00     0.00 1612.00    0.00  6448.00     0.00     8.00     0.16    0.10    0.10    0.00   0.10  16.20
sde               0.00     0.00 1524.00    0.00  6096.00     0.00     8.00     0.16    0.10    0.10    0.00   0.10  15.90
sdf               0.00     0.00 1483.00    0.00  5932.00     0.00     8.00     0.17    0.11    0.11    0.00   0.11  16.50
sdg               0.00     1.00    8.00    2.00    32.00    36.00    13.60     0.00    0.20    0.12    0.50   0.10   0.10
sdh               0.00     0.00    0.00    0.00     0.00     0.00     0.00     0.00    0.00    0.00    0.00   0.00   0.00
md0               0.00     0.00 9244.00    0.00 36976.00     0.00     8.00     0.00    0.00    0.00    0.00   0.00   0.00

avg-cpu:  %user   %nice %system %iowait  %steal   %idle
           0.25    0.25    2.27   11.36    0.00   85.86

Device:         rrqm/s   wrqm/s     r/s     w/s    rkB/s    wkB/s avgrq-sz avgqu-sz   await r_await w_await  svctm  %util
sda               0.00     0.00 1599.00    0.00  6396.00     0.00     8.00     0.17    0.10    0.10    0.00   0.10  16.60
sdb               0.00     0.00 1514.00    0.00  6056.00     0.00     8.00     0.15    0.10    0.10    0.00   0.10  15.20
sdc               0.00     0.00 1510.00    0.00  6040.00     0.00     8.00     0.15    0.10    0.10    0.00   0.10  15.40
sdd               0.00     0.00 1465.00    0.00  5860.00     0.00     8.00     0.15    0.11    0.11    0.00   0.11  15.50
sde               0.00     0.00 1375.00    0.00  5500.00     0.00     8.00     0.14    0.10    0.10    0.00   0.10  13.80
sdf               0.00     0.00 1575.00    0.00  6300.00     0.00     8.00     0.17    0.11    0.11    0.00   0.11  17.20
sdg               0.00     0.00    2.00    0.00     8.00     0.00     8.00     0.00    0.00    0.00    0.00   0.00   0.00
sdh               0.00     0.00    0.00    0.00     0.00     0.00     0.00     0.00    0.00    0.00    0.00   0.00   0.00
md0               0.00     0.00 9038.00    0.00 36152.00     0.00     8.00     0.00    0.00    0.00    0.00   0.00   0.00

avg-cpu:  %user   %nice %system %iowait  %steal   %idle
           0.25    0.00    1.78   14.50    0.00   83.46

Device:         rrqm/s   wrqm/s     r/s     w/s    rkB/s    wkB/s avgrq-sz avgqu-sz   await r_await w_await  svctm  %util
sda               0.00     0.00 1489.00    0.00  5956.00     0.00     8.00     0.14    0.09    0.09    0.00   0.09  14.10
sdb               0.00     0.00 1466.00    0.00  5864.00     0.00     8.00     0.14    0.09    0.09    0.00   0.09  13.90
sdc               0.00     0.00 1606.00    0.00  6424.00     0.00     8.00     0.17    0.10    0.10    0.00   0.10  16.80
sdd               0.00     0.00 1499.00    0.00  5996.00     0.00     8.00     0.16    0.11    0.11    0.00   0.10  15.70
sde               0.00     0.00 1554.00    0.00  6216.00     0.00     8.00     0.16    0.10    0.10    0.00   0.10  16.10
sdf               0.00     0.00 1556.00    0.00  6224.00     0.00     8.00     0.17    0.11    0.11    0.00   0.11  16.50
sdg               0.00     0.00    0.00    0.00     0.00     0.00     0.00     0.00    0.00    0.00    0.00   0.00   0.00
sdh               0.00     0.00    0.00    0.00     0.00     0.00     0.00     0.00    0.00    0.00    0.00   0.00   0.00
md0               0.00     0.00 9171.00    0.00 36684.00     0.00     8.00     0.00    0.00    0.00    0.00   0.00   0.00

avg-cpu:  %user   %nice %system %iowait  %steal   %idle
           0.00    0.00    1.28    1.02    0.00   97.70

Device:         rrqm/s   wrqm/s     r/s     w/s    rkB/s    wkB/s avgrq-sz avgqu-sz   await r_await w_await  svctm  %util
sda               0.00     0.00 1646.00    0.00  6584.00     0.00     8.00     0.17    0.10    0.10    0.00   0.10  17.00
sdb               0.00     0.00 1562.00    0.00  6248.00     0.00     8.00     0.14    0.09    0.09    0.00   0.09  14.00
sdc               0.00     0.00 1400.00    0.00  5600.00     0.00     8.00     0.15    0.11    0.11    0.00   0.11  14.80
sdd               0.00     0.00 1589.00    0.00  6356.00     0.00     8.00     0.17    0.11    0.11    0.00   0.11  17.00
sde               0.00     0.00 1521.00    0.00  6084.00     0.00     8.00     0.16    0.10    0.10    0.00   0.10  15.60
sdf               0.00     0.00 1532.00    0.00  6128.00     0.00     8.00     0.15    0.10    0.10    0.00   0.10  15.40
sdg               0.00     0.00    0.00    0.00     0.00     0.00     0.00     0.00    0.00    0.00    0.00   0.00   0.00
sdh               0.00     0.00    0.00    0.00     0.00     0.00     0.00     0.00    0.00    0.00    0.00   0.00   0.00
md0               0.00     0.00 9249.00    0.00 36996.00     0.00     8.00     0.00    0.00    0.00    0.00   0.00   0.00

avg-cpu:  %user   %nice %system %iowait  %steal   %idle
           0.51    0.00    1.53    1.02    0.00   96.95

Device:         rrqm/s   wrqm/s     r/s     w/s    rkB/s    wkB/s avgrq-sz avgqu-sz   await r_await w_await  svctm  %util
sda               0.00     0.00 1732.00    0.00  6928.00     0.00     8.00     0.16    0.09    0.09    0.00   0.09  15.90
sdb               0.00     0.00 1342.00    0.00  5368.00     0.00     8.00     0.12    0.09    0.09    0.00   0.09  12.30
sdc               0.00     0.00 1557.00    0.00  6228.00     0.00     8.00     0.15    0.10    0.10    0.00   0.10  15.50
sdd               0.00     0.00 1618.00    0.00  6472.00     0.00     8.00     0.16    0.10    0.10    0.00   0.10  16.10
sde               0.00     0.00 1590.00    0.00  6360.00     0.00     8.00     0.18    0.11    0.11    0.00   0.11  18.00
sdf               0.00     0.00 1486.00    0.00  5944.00     0.00     8.00     0.16    0.11    0.11    0.00   0.11  16.10
sdg               0.00     0.00    0.00    0.00     0.00     0.00     0.00     0.00    0.00    0.00    0.00   0.00   0.00
sdh               0.00     0.00    0.00    0.00     0.00     0.00     0.00     0.00    0.00    0.00    0.00   0.00   0.00
md0               0.00     0.00 9325.00    0.00 37300.00     0.00     8.00     0.00    0.00    0.00    0.00   0.00   0.00

avg-cpu:  %user   %nice %system %iowait  %steal   %idle
           0.26    0.00    1.53    1.02    0.00   97.19

Device:         rrqm/s   wrqm/s     r/s     w/s    rkB/s    wkB/s avgrq-sz avgqu-sz   await r_await w_await  svctm  %util
sda               0.00     0.00 1575.00    0.00  6300.00     0.00     8.00     0.15    0.09    0.09    0.00   0.09  14.60
sdb               0.00     0.00 1637.00    0.00  6548.00     0.00     8.00     0.15    0.09    0.09    0.00   0.09  15.50
sdc               0.00     0.00 1543.00    0.00  6172.00     0.00     8.00     0.15    0.10    0.10    0.00   0.10  15.10
sdd               0.00     0.00 1481.00    0.00  5924.00     0.00     8.00     0.15    0.10    0.10    0.00   0.10  15.40
sde               0.00     0.00 1499.00    0.00  5996.00     0.00     8.00     0.16    0.10    0.10    0.00   0.10  15.60
sdf               0.00     0.00 1588.00    0.00  6352.00     0.00     8.00     0.17    0.11    0.11    0.00   0.11  17.00
sdg               0.00     0.00   16.00    0.00   308.00     0.00    38.50     0.00    0.12    0.12    0.00   0.12   0.20
sdh               0.00     0.00    0.00    0.00     0.00     0.00     0.00     0.00    0.00    0.00    0.00   0.00   0.00
md0               0.00     0.00 9324.00    0.00 37296.00     0.00     8.00     0.00    0.00    0.00    0.00   0.00   0.00

avg-cpu:  %user   %nice %system %iowait  %steal   %idle
           0.00    0.00    1.28    0.77    0.00   97.95

Device:         rrqm/s   wrqm/s     r/s     w/s    rkB/s    wkB/s avgrq-sz avgqu-sz   await r_await w_await  svctm  %util
sda               0.00     0.00 1557.00    0.00  6228.00     0.00     8.00     0.16    0.11    0.11    0.00   0.11  16.40
sdb               0.00     0.00 1480.00    0.00  5920.00     0.00     8.00     0.14    0.10    0.10    0.00   0.10  14.50
sdc               0.00     0.00 1471.00    0.00  5884.00     0.00     8.00     0.16    0.11    0.11    0.00   0.11  16.10
sdd               0.00     0.00 1647.00    0.00  6588.00     0.00     8.00     0.16    0.10    0.10    0.00   0.10  16.00
sde               0.00     0.00 1630.00    0.00  6520.00     0.00     8.00     0.14    0.09    0.09    0.00   0.09  14.50
sdf               0.00     0.00 1478.00    0.00  5912.00     0.00     8.00     0.16    0.11    0.11    0.00   0.11  15.80
sdg               0.00     0.00    0.00    0.00     0.00     0.00     0.00     0.00    0.00    0.00    0.00   0.00   0.00
sdh               0.00     0.00    0.00    0.00     0.00     0.00     0.00     0.00    0.00    0.00    0.00   0.00   0.00
md0               0.00     0.00 9262.00    0.00 37048.00     0.00     8.00     0.00    0.00    0.00    0.00   0.00   0.00

avg-cpu:  %user   %nice %system %iowait  %steal   %idle
           0.25    0.00    1.53    1.02    0.00   97.20

Device:         rrqm/s   wrqm/s     r/s     w/s    rkB/s    wkB/s avgrq-sz avgqu-sz   await r_await w_await  svctm  %util
sda               0.00     0.00 1446.00    0.00  5784.00     0.00     8.00     0.14    0.09    0.09    0.00   0.09  13.60
sdb               0.00     0.00 1547.00    0.00  6188.00     0.00     8.00     0.15    0.10    0.10    0.00   0.10  15.50
sdc               0.00     0.00 1573.00    0.00  6292.00     0.00     8.00     0.16    0.10    0.10    0.00   0.10  16.00
sdd               0.00     0.00 1535.00    0.00  6140.00     0.00     8.00     0.15    0.10    0.10    0.00   0.10  15.50
sde               0.00     0.00 1506.00    0.00  6024.00     0.00     8.00     0.17    0.11    0.11    0.00   0.11  17.20
sdf               0.00     0.00 1645.00    0.00  6580.00     0.00     8.00     0.17    0.10    0.10    0.00   0.10  17.00
sdg               0.00     0.00    0.00    0.00     0.00     0.00     0.00     0.00    0.00    0.00    0.00   0.00   0.00
sdh               0.00     0.00    0.00    0.00     0.00     0.00     0.00     0.00    0.00    0.00    0.00   0.00   0.00
md0               0.00     0.00 9253.00    0.00 37012.00     0.00     8.00     0.00    0.00    0.00    0.00   0.00   0.00

