Linux 4.17.2 (bench) 	08/03/2018 	_x86_64_	(4 CPU)

avg-cpu:  %user   %nice %system %iowait  %steal   %idle
          10.27    0.02    4.11    2.62    0.00   82.99

Device:         rrqm/s   wrqm/s     r/s     w/s    rkB/s    wkB/s avgrq-sz avgqu-sz   await r_await w_await  svctm  %util
sda              47.31     4.22 1679.77  102.04 21091.48  3122.34    27.18     1.04    0.58    0.26    5.92   0.06  10.84
sdb              47.17     4.18 1679.72  102.18 21080.96  3119.02    27.16     1.04    0.58    0.26    5.85   0.06  10.72
sdc              84.99     4.24 1639.81  101.73 21073.09  3121.47    27.79     1.46    0.84    0.45    7.12   0.08  14.19
sdd              78.44     4.21 1645.53  101.80 21058.01  3117.69    27.67     1.46    0.84    0.44    7.33   0.08  14.28
sde              80.46     4.26 1650.60  101.90 21117.64  3121.91    27.66     1.48    0.85    0.44    7.44   0.08  14.30
sdf              77.59     4.23 1652.74  101.84 21098.97  3118.79    27.61     1.53    0.87    0.44    7.90   0.08  14.34
sdg               0.00     3.17   26.47   73.30   324.64   392.03    14.37     0.44    4.41    0.20    5.93   0.08   0.78
sdh               0.00     0.13    0.02    0.23     2.20     5.04    56.82     0.00    1.15    0.65    1.19   0.21   0.01
md0               0.00     0.00 10371.07  478.11 144524.14 21372.02    30.58     0.00    0.00    0.00    0.00   0.00   0.00

avg-cpu:  %user   %nice %system %iowait  %steal   %idle
           2.03    0.25   16.46   54.18    0.00   27.09

Device:         rrqm/s   wrqm/s     r/s     w/s    rkB/s    wkB/s avgrq-sz avgqu-sz   await r_await w_await  svctm  %util
sda               0.00     0.00 9363.00    0.00 40588.00     0.00     8.67     0.96    0.10    0.10    0.00   0.06  58.80
sdb               0.00     0.00 9382.00    0.00 40084.00     0.00     8.54     1.02    0.11    0.11    0.00   0.07  61.10
sdc               0.00     0.00 9453.00    0.00 40560.00     0.00     8.58     1.09    0.12    0.12    0.00   0.07  62.40
sdd               0.00     0.00 9547.00    0.00 42156.00     0.00     8.83     1.16    0.12    0.12    0.00   0.07  65.70
sde               0.00     0.00 9415.00    0.00 40784.00     0.00     8.66     1.09    0.12    0.12    0.00   0.07  64.90
sdf               1.00     0.00 9504.00    0.00 41944.00     0.00     8.83     1.15    0.12    0.12    0.00   0.07  67.50
sdg               0.00     0.00   22.00    0.00   224.00     0.00    20.36     0.00    0.18    0.18    0.00   0.18   0.40
sdh               0.00     0.00    0.00    0.00     0.00     0.00     0.00     0.00    0.00    0.00    0.00   0.00   0.00
md0               0.00     0.00 56678.00    0.00 247600.00     0.00     8.74     0.00    0.00    0.00    0.00   0.00   0.00

avg-cpu:  %user   %nice %system %iowait  %steal   %idle
           2.27    0.00   16.12   53.40    0.00   28.21

Device:         rrqm/s   wrqm/s     r/s     w/s    rkB/s    wkB/s avgrq-sz avgqu-sz   await r_await w_await  svctm  %util
sda               0.00     0.00 9268.00    0.00 40580.00     0.00     8.76     0.99    0.11    0.11    0.00   0.06  60.20
sdb               1.00     0.00 9535.00    0.00 41652.00     0.00     8.74     0.99    0.10    0.10    0.00   0.06  60.20
sdc               0.00     0.00 9405.00    0.00 41488.00     0.00     8.82     1.11    0.12    0.12    0.00   0.07  64.90
sdd               0.00     0.00 9395.00    0.00 40632.00     0.00     8.65     1.11    0.12    0.12    0.00   0.07  63.60
sde               0.00     0.00 9442.00    0.00 41116.00     0.00     8.71     1.12    0.12    0.12    0.00   0.07  63.20
sdf               0.00     0.00 9319.00    0.00 40308.00     0.00     8.65     1.07    0.12    0.12    0.00   0.07  62.30
sdg               0.00     0.00    0.00    0.00     0.00     0.00     0.00     0.00    0.00    0.00    0.00   0.00   0.00
sdh               0.00     0.00    0.00    0.00     0.00     0.00     0.00     0.00    0.00    0.00    0.00   0.00   0.00
md0               0.00     0.00 56368.00    0.00 247012.00     0.00     8.76     0.00    0.00    0.00    0.00   0.00   0.00

avg-cpu:  %user   %nice %system %iowait  %steal   %idle
           2.28    0.00   16.24   54.31    0.00   27.16

Device:         rrqm/s   wrqm/s     r/s     w/s    rkB/s    wkB/s avgrq-sz avgqu-sz   await r_await w_await  svctm  %util
sda               1.00     0.00 9434.00    0.00 42232.00     0.00     8.95     1.04    0.11    0.11    0.00   0.07  61.60
sdb               1.00     0.00 9397.00    0.00 41284.00     0.00     8.79     0.96    0.10    0.10    0.00   0.06  60.70
sdc               0.00     0.00 9465.00    0.00 40656.00     0.00     8.59     1.12    0.12    0.12    0.00   0.07  65.00
sdd               0.00     0.00 9491.00    0.00 40708.00     0.00     8.58     1.08    0.11    0.11    0.00   0.07  64.70
sde               0.00     0.00 9458.00    0.00 40664.00     0.00     8.60     1.08    0.11    0.11    0.00   0.07  62.50
sdf               0.00     0.00 9443.00    0.00 40468.00     0.00     8.57     1.13    0.12    0.12    0.00   0.07  66.70
sdg               0.00     0.00    0.00 1426.00     0.00  7436.00    10.43     8.55    5.99    0.00    5.99   0.04   6.40
sdh               0.00     0.00    0.00    0.00     0.00     0.00     0.00     0.00    0.00    0.00    0.00   0.00   0.00
md0               0.00     0.00 56689.00    0.00 247440.00     0.00     8.73     0.00    0.00    0.00    0.00   0.00   0.00

avg-cpu:  %user   %nice %system %iowait  %steal   %idle
           2.26    0.00   16.83   52.26    0.00   28.64

Device:         rrqm/s   wrqm/s     r/s     w/s    rkB/s    wkB/s avgrq-sz avgqu-sz   await r_await w_await  svctm  %util
sda               0.00     0.00 9464.00    0.00 41472.00     0.00     8.76     0.98    0.10    0.10    0.00   0.06  60.30
sdb               0.00     0.00 9473.00    0.00 41292.00     0.00     8.72     1.05    0.11    0.11    0.00   0.07  61.70
sdc               0.00     0.00 9377.00    0.00 41100.00     0.00     8.77     1.12    0.12    0.12    0.00   0.07  64.10
sdd               0.00     0.00 9473.00    0.00 41416.00     0.00     8.74     1.06    0.11    0.11    0.00   0.07  62.50
sde               0.00     0.00 9377.00    0.00 40416.00     0.00     8.62     1.15    0.12    0.12    0.00   0.07  65.40
sdf               0.00     0.00 9478.00    0.00 40772.00     0.00     8.60     1.08    0.11    0.11    0.00   0.07  64.20
sdg               0.00     0.00    0.00    0.00     0.00     0.00     0.00     0.00    0.00    0.00    0.00   0.00   0.00
sdh               0.00     0.00    0.00    0.00     0.00     0.00     0.00     0.00    0.00    0.00    0.00   0.00   0.00
md0               0.00     0.00 56642.00    0.00 248192.00     0.00     8.76     0.00    0.00    0.00    0.00   0.00   0.00

avg-cpu:  %user   %nice %system %iowait  %steal   %idle
           2.04    0.00   15.82   54.59    0.00   27.55

Device:         rrqm/s   wrqm/s     r/s     w/s    rkB/s    wkB/s avgrq-sz avgqu-sz   await r_await w_await  svctm  %util
sda               1.00     0.00 9313.00    0.00 41660.00     0.00     8.95     0.95    0.10    0.10    0.00   0.06  58.60
sdb               1.00     0.00 9547.00    0.00 41608.00     0.00     8.72     0.98    0.10    0.10    0.00   0.06  61.80
sdc               0.00     0.00 9382.00    0.00 40248.00     0.00     8.58     1.11    0.12    0.12    0.00   0.07  64.00
sdd               0.00     0.00 9422.00    0.00 40416.00     0.00     8.58     1.14    0.12    0.12    0.00   0.07  65.20
sde               0.00     0.00 9631.00    0.00 41408.00     0.00     8.60     1.11    0.12    0.12    0.00   0.07  64.50
sdf               0.00     0.00 9470.00    0.00 41580.00     0.00     8.78     1.13    0.12    0.12    0.00   0.07  65.00
sdg               0.00     0.00    0.00    0.00     0.00     0.00     0.00     0.00    0.00    0.00    0.00   0.00   0.00
sdh               0.00     0.00    0.00    0.00     0.00     0.00     0.00     0.00    0.00    0.00    0.00   0.00   0.00
md0               0.00     0.00 56767.00    0.00 248536.00     0.00     8.76     0.00    0.00    0.00    0.00   0.00   0.00

avg-cpu:  %user   %nice %system %iowait  %steal   %idle
           2.04    0.00   15.78   54.96    0.00   27.23

Device:         rrqm/s   wrqm/s     r/s     w/s    rkB/s    wkB/s avgrq-sz avgqu-sz   await r_await w_await  svctm  %util
sda               0.00     0.00 9500.00    0.00 40840.00     0.00     8.60     0.93    0.10    0.10    0.00   0.06  57.80
sdb               0.00     0.00 9456.00    0.00 41520.00     0.00     8.78     1.05    0.11    0.11    0.00   0.06  60.90
sdc               0.00     0.00 9436.00    0.00 40688.00     0.00     8.62     1.11    0.12    0.12    0.00   0.07  65.20
sdd               0.00     0.00 9660.00    0.00 41760.00     0.00     8.65     1.13    0.12    0.12    0.00   0.07  63.60
sde               0.00     0.00 9397.00    0.00 40808.00     0.00     8.69     1.12    0.12    0.12    0.00   0.07  63.80
sdf               0.00     0.00 9346.00    0.00 41392.00     0.00     8.86     1.10    0.12    0.12    0.00   0.07  64.10
sdg               0.00     0.00    0.00    0.00     0.00     0.00     0.00     0.00    0.00    0.00    0.00   0.00   0.00
sdh               0.00     0.00    0.00    0.00     0.00     0.00     0.00     0.00    0.00    0.00    0.00   0.00   0.00
md0               0.00     0.00 56795.00    0.00 248724.00     0.00     8.76     0.00    0.00    0.00    0.00   0.00   0.00

avg-cpu:  %user   %nice %system %iowait  %steal   %idle
           2.05    0.00   15.38   55.13    0.00   27.44

Device:         rrqm/s   wrqm/s     r/s     w/s    rkB/s    wkB/s avgrq-sz avgqu-sz   await r_await w_await  svctm  %util
sda               0.00     0.00 9458.00    0.00 41624.00     0.00     8.80     1.02    0.11    0.11    0.00   0.07  61.90
sdb               0.00     0.00 9411.00    0.00 41404.00     0.00     8.80     1.04    0.11    0.11    0.00   0.07  61.60
sdc               0.00     0.00 9443.00    0.00 41324.00     0.00     8.75     1.10    0.12    0.12    0.00   0.07  63.00
sdd               0.00     0.00 9376.00    0.00 41084.00     0.00     8.76     1.07    0.11    0.11    0.00   0.07  61.50
sde               0.00     0.00 9400.00    0.00 40880.00     0.00     8.70     1.09    0.12    0.12    0.00   0.07  62.50
sdf               0.00     0.00 9636.00    0.00 42212.00     0.00     8.76     1.21    0.13    0.13    0.00   0.07  66.30
sdg               0.00     0.00    0.00    0.00     0.00     0.00     0.00     0.00    0.00    0.00    0.00   0.00   0.00
sdh               0.00     0.00    0.00    0.00     0.00     0.00     0.00     0.00    0.00    0.00    0.00   0.00   0.00
md0               0.00     0.00 56725.00    0.00 250184.00     0.00     8.82     0.00    0.00    0.00    0.00   0.00   0.00

avg-cpu:  %user   %nice %system %iowait  %steal   %idle
           2.54    0.00   15.74   53.81    0.00   27.92

Device:         rrqm/s   wrqm/s     r/s     w/s    rkB/s    wkB/s avgrq-sz avgqu-sz   await r_await w_await  svctm  %util
sda               0.00     0.00 9351.00    0.00 40280.00     0.00     8.62     0.95    0.10    0.10    0.00   0.06  59.20
sdb               0.00     0.00 9278.00    0.00 40004.00     0.00     8.62     0.95    0.10    0.10    0.00   0.06  58.50
sdc               0.00     0.00 9562.00    0.00 40732.00     0.00     8.52     1.13    0.12    0.12    0.00   0.07  64.70
sdd               0.00     0.00 9654.00    0.00 41588.00     0.00     8.62     1.15    0.12    0.12    0.00   0.07  65.70
sde               0.00     0.00 9300.00    0.00 39836.00     0.00     8.57     1.09    0.12    0.12    0.00   0.07  64.50
sdf               0.00     0.00 9640.00    0.00 42024.00     0.00     8.72     1.11    0.11    0.11    0.00   0.07  64.90
sdg               0.00     3.00   10.00    4.00    40.00    64.00    14.86     0.00    0.14    0.20    0.00   0.07   0.10
sdh               0.00     0.00    0.00    0.00     0.00     0.00     0.00     0.00    0.00    0.00    0.00   0.00   0.00
md0               0.00     0.00 56780.00    0.00 245324.00     0.00     8.64     0.00    0.00    0.00    0.00   0.00   0.00

avg-cpu:  %user   %nice %system %iowait  %steal   %idle
           2.28    0.00   15.95   54.43    0.00   27.34

Device:         rrqm/s   wrqm/s     r/s     w/s    rkB/s    wkB/s avgrq-sz avgqu-sz   await r_await w_await  svctm  %util
sda               0.00     0.00 9549.00    0.00 41820.00     0.00     8.76     0.98    0.10    0.10    0.00   0.06  60.90
sdb               0.00     0.00 9459.00    0.00 41596.00     0.00     8.80     1.01    0.11    0.11    0.00   0.06  60.40
sdc               0.00     0.00 9465.00    0.00 40088.00     0.00     8.47     1.10    0.12    0.12    0.00   0.07  63.70
sdd               0.00     0.00 9444.00    0.00 40204.00     0.00     8.51     1.07    0.11    0.11    0.00   0.07  63.70
sde               0.00     0.00 9435.00    0.00 41244.00     0.00     8.74     1.10    0.12    0.12    0.00   0.07  63.80
sdf               0.00     0.00 9468.00    0.00 41648.00     0.00     8.80     1.18    0.12    0.12    0.00   0.07  65.70
sdg               0.00     0.00    0.00    0.00     0.00     0.00     0.00     0.00    0.00    0.00    0.00   0.00   0.00
sdh               0.00     0.00    0.00    0.00     0.00     0.00     0.00     0.00    0.00    0.00    0.00   0.00   0.00
md0               0.00     0.00 56824.00    0.00 248148.00     0.00     8.73     0.00    0.00    0.00    0.00   0.00   0.00

avg-cpu:  %user   %nice %system %iowait  %steal   %idle
           2.30    0.00   15.31   54.08    0.00   28.32

Device:         rrqm/s   wrqm/s     r/s     w/s    rkB/s    wkB/s avgrq-sz avgqu-sz   await r_await w_await  svctm  %util
sda               0.00     0.00 9301.00    0.00 40940.00     0.00     8.80     1.00    0.11    0.11    0.00   0.06  59.60
sdb               0.00     0.00 9593.00    0.00 41660.00     0.00     8.69     1.05    0.11    0.11    0.00   0.06  61.60
sdc               0.00     0.00 9544.00    0.00 42080.00     0.00     8.82     1.09    0.11    0.11    0.00   0.07  64.80
sdd               0.00     0.00 9474.00    0.00 41812.00     0.00     8.83     1.14    0.12    0.12    0.00   0.07  64.40
sde               0.00     0.00 9460.00    0.00 40940.00     0.00     8.66     1.11    0.12    0.12    0.00   0.07  63.80
sdf               0.00     0.00 9283.00    0.00 40720.00     0.00     8.77     1.11    0.12    0.12    0.00   0.07  64.50
sdg               0.00     0.00    0.00    0.00     0.00     0.00     0.00     0.00    0.00    0.00    0.00   0.00   0.00
sdh               0.00     0.00    0.00    0.00     0.00     0.00     0.00     0.00    0.00    0.00    0.00   0.00   0.00
md0               0.00     0.00 56651.00    0.00 249796.00     0.00     8.82     0.00    0.00    0.00    0.00   0.00   0.00

avg-cpu:  %user   %nice %system %iowait  %steal   %idle
           2.31    0.00   15.90   55.90    0.00   25.90

Device:         rrqm/s   wrqm/s     r/s     w/s    rkB/s    wkB/s avgrq-sz avgqu-sz   await r_await w_await  svctm  %util
sda               0.00     0.00 9515.00    0.00 41316.00     0.00     8.68     1.03    0.11    0.11    0.00   0.07  64.40
sdb               0.00     0.00 9418.00    0.00 42252.00     0.00     8.97     0.97    0.10    0.10    0.00   0.06  59.30
sdc               1.00     0.00 9452.00    0.00 41512.00     0.00     8.78     1.13    0.12    0.12    0.00   0.07  64.20
sdd               1.00     0.00 9574.00    0.00 41420.00     0.00     8.65     1.13    0.12    0.12    0.00   0.07  66.10
sde               0.00     0.00 9325.00    0.00 40520.00     0.00     8.69     1.08    0.12    0.12    0.00   0.07  62.30
sdf               0.00     0.00 9326.00    0.00 40056.00     0.00     8.59     1.12    0.12    0.12    0.00   0.07  64.70
sdg               0.00     0.00 1327.00    0.00  5308.00     0.00     8.00     0.15    0.11    0.11    0.00   0.11  14.80
sdh               0.00     0.00    0.00    0.00     0.00     0.00     0.00     0.00    0.00    0.00    0.00   0.00   0.00
md0               0.00     0.00 56601.00    0.00 248160.00     0.00     8.77     0.00    0.00    0.00    0.00   0.00   0.00

avg-cpu:  %user   %nice %system %iowait  %steal   %idle
           2.02    0.00   16.41   54.29    0.00   27.27

Device:         rrqm/s   wrqm/s     r/s     w/s    rkB/s    wkB/s avgrq-sz avgqu-sz   await r_await w_await  svctm  %util
sda               0.00     0.00 9284.00    0.00 39732.00     0.00     8.56     0.98    0.11    0.11    0.00   0.06  60.20
sdb               0.00     0.00 9487.00    0.00 41124.00     0.00     8.67     0.98    0.10    0.10    0.00   0.06  60.50
sdc               0.00     0.00 9584.00    0.00 41220.00     0.00     8.60     1.09    0.11    0.11    0.00   0.07  63.60
sdd               0.00     0.00 9386.00    0.00 41312.00     0.00     8.80     1.15    0.12    0.12    0.00   0.07  64.40
sde               0.00     0.00 9420.00    0.00 40588.00     0.00     8.62     1.11    0.12    0.12    0.00   0.07  64.50
sdf               1.00     0.00 9482.00    0.00 42184.00     0.00     8.90     1.15    0.12    0.12    0.00   0.07  65.10
sdg               0.00     0.00    0.00    0.00     0.00     0.00     0.00     0.00    0.00    0.00    0.00   0.00   0.00
sdh               0.00     0.00    0.00    0.00     0.00     0.00     0.00     0.00    0.00    0.00    0.00   0.00   0.00
md0               0.00     0.00 56659.00    0.00 247232.00     0.00     8.73     0.00    0.00    0.00    0.00   0.00   0.00

avg-cpu:  %user   %nice %system %iowait  %steal   %idle
           2.04    0.00   16.03   53.18    0.00   28.75

Device:         rrqm/s   wrqm/s     r/s     w/s    rkB/s    wkB/s avgrq-sz avgqu-sz   await r_await w_await  svctm  %util
sda               0.00     0.00 9272.00    0.00 40536.00     0.00     8.74     1.01    0.11    0.11    0.00   0.07  61.70
sdb               0.00     0.00 9401.00    0.00 41536.00     0.00     8.84     1.00    0.11    0.11    0.00   0.06  60.20
sdc               0.00     0.00 9385.00    0.00 41076.00     0.00     8.75     1.04    0.11    0.11    0.00   0.07  61.80
sdd               0.00     0.00 9274.00    0.00 41128.00     0.00     8.87     1.12    0.12    0.12    0.00   0.07  64.80
sde               0.00     0.00 9472.00    0.00 42432.00     0.00     8.96     1.13    0.12    0.12    0.00   0.07  65.20
sdf               0.00     0.00 9481.00    0.00 41760.00     0.00     8.81     1.14    0.12    0.12    0.00   0.07  63.70
sdg               0.00     0.00    0.00    0.00     0.00     0.00     0.00     0.00    0.00    0.00    0.00   0.00   0.00
sdh               0.00     0.00    0.00    0.00     0.00     0.00     0.00     0.00    0.00    0.00    0.00   0.00   0.00
md0               0.00     0.00 56285.00    0.00 249836.00     0.00     8.88     0.00    0.00    0.00    0.00   0.00   0.00

avg-cpu:  %user   %nice %system %iowait  %steal   %idle
           2.28    0.00   16.20   54.18    0.00   27.34

Device:         rrqm/s   wrqm/s     r/s     w/s    rkB/s    wkB/s avgrq-sz avgqu-sz   await r_await w_await  svctm  %util
sda               1.00     0.00 9273.00    0.00 41104.00     0.00     8.87     0.96    0.10    0.10    0.00   0.07  60.40
sdb               0.00     0.00 9549.00    0.00 42276.00     0.00     8.85     0.98    0.10    0.10    0.00   0.06  61.30
sdc               0.00     0.00 9282.00    0.00 41216.00     0.00     8.88     1.16    0.13    0.13    0.00   0.07  65.50
sdd               0.00     0.00 9542.00    0.00 41960.00     0.00     8.79     1.16    0.12    0.12    0.00   0.07  64.40
sde               0.00     0.00 9385.00    0.00 40904.00     0.00     8.72     1.07    0.11    0.11    0.00   0.07  63.10
sdf               0.00     0.00 9309.00    0.00 41348.00     0.00     8.88     1.12    0.12    0.12    0.00   0.07  64.60
sdg               0.00     0.00    0.00    0.00     0.00     0.00     0.00     0.00    0.00    0.00    0.00   0.00   0.00
sdh               0.00     0.00    0.00    0.00     0.00     0.00     0.00     0.00    0.00    0.00    0.00   0.00   0.00
md0               0.00     0.00 56338.00    0.00 250940.00     0.00     8.91     0.00    0.00    0.00    0.00   0.00   0.00

avg-cpu:  %user   %nice %system %iowait  %steal   %idle
           2.52    0.00   15.87   54.16    0.00   27.46

Device:         rrqm/s   wrqm/s     r/s     w/s    rkB/s    wkB/s avgrq-sz avgqu-sz   await r_await w_await  svctm  %util
sda               0.00     0.00 9424.00    0.00 41268.00     0.00     8.76     1.02    0.11    0.11    0.00   0.06  60.40
sdb               0.00     0.00 9375.00    0.00 43052.00     0.00     9.18     1.00    0.11    0.11    0.00   0.07  61.20
sdc               1.00     0.00 9396.00    0.00 42148.00     0.00     8.97     1.18    0.13    0.13    0.00   0.07  65.80
sdd               1.00     0.00 9471.00    0.00 41528.00     0.00     8.77     1.09    0.12    0.12    0.00   0.07  64.80
sde               0.00     0.00 9423.00    0.00 40548.00     0.00     8.61     1.06    0.11    0.11    0.00   0.07  63.90
sdf               0.00     0.00 9380.00    0.00 40508.00     0.00     8.64     1.15    0.12    0.12    0.00   0.07  65.80
sdg               0.00     0.00    0.00    0.00     0.00     0.00     0.00     0.00    0.00    0.00    0.00   0.00   0.00
sdh               0.00     0.00    0.00    0.00     0.00     0.00     0.00     0.00    0.00    0.00    0.00   0.00   0.00
md0               0.00     0.00 56472.00    0.00 251888.00     0.00     8.92     0.00    0.00    0.00    0.00   0.00   0.00

avg-cpu:  %user   %nice %system %iowait  %steal   %idle
           2.04    0.00   15.82   54.85    0.00   27.30

Device:         rrqm/s   wrqm/s     r/s     w/s    rkB/s    wkB/s avgrq-sz avgqu-sz   await r_await w_await  svctm  %util
sda               0.00     0.00 9274.00    0.00 40616.00     0.00     8.76     0.95    0.10    0.10    0.00   0.06  57.90
sdb               0.00     0.00 9487.00    0.00 41484.00     0.00     8.75     0.99    0.10    0.10    0.00   0.06  60.60
sdc               0.00     0.00 9422.00    0.00 40972.00     0.00     8.70     1.08    0.11    0.11    0.00   0.07  61.50
sdd               0.00     0.00 9479.00    0.00 41344.00     0.00     8.72     1.13    0.12    0.12    0.00   0.07  65.30
sde               0.00     0.00 9617.00    0.00 41568.00     0.00     8.64     1.14    0.12    0.12    0.00   0.07  63.30
sdf               0.00     0.00 9588.00    0.00 42004.00     0.00     8.76     1.18    0.12    0.12    0.00   0.07  66.80
sdg               0.00     0.00    0.00    0.00     0.00     0.00     0.00     0.00    0.00    0.00    0.00   0.00   0.00
sdh               0.00     0.00    0.00    0.00     0.00     0.00     0.00     0.00    0.00    0.00    0.00   0.00   0.00
md0               0.00     0.00 56860.00    0.00 249412.00     0.00     8.77     0.00    0.00    0.00    0.00   0.00   0.00

avg-cpu:  %user   %nice %system %iowait  %steal   %idle
           2.03    0.00   16.46   53.92    0.00   27.59

Device:         rrqm/s   wrqm/s     r/s     w/s    rkB/s    wkB/s avgrq-sz avgqu-sz   await r_await w_await  svctm  %util
sda               0.00     0.00 9561.00    0.00 41916.00     0.00     8.77     1.04    0.11    0.11    0.00   0.07  62.70
sdb               0.00     0.00 9491.00    0.00 42144.00     0.00     8.88     0.97    0.10    0.10    0.00   0.06  60.90
sdc               0.00     0.00 9264.00    0.00 40500.00     0.00     8.74     1.10    0.12    0.12    0.00   0.07  64.70
sdd               0.00     0.00 9595.00    0.00 42256.00     0.00     8.81     1.17    0.12    0.12    0.00   0.07  66.80
sde               0.00     0.00 9578.00    0.00 42084.00     0.00     8.79     1.12    0.12    0.12    0.00   0.07  65.10
sdf               0.00     0.00 9410.00    0.00 40920.00     0.00     8.70     1.12    0.12    0.12    0.00   0.07  64.80
sdg               0.00     0.00    0.00    0.00     0.00     0.00     0.00     0.00    0.00    0.00    0.00   0.00   0.00
sdh               0.00     0.00    0.00    0.00     0.00     0.00     0.00     0.00    0.00    0.00    0.00   0.00   0.00
md0               0.00     0.00 56906.00    0.00 251164.00     0.00     8.83     0.00    0.00    0.00    0.00   0.00   0.00

avg-cpu:  %user   %nice %system %iowait  %steal   %idle
           2.52    0.00   16.37   53.15    0.00   27.96

Device:         rrqm/s   wrqm/s     r/s     w/s    rkB/s    wkB/s avgrq-sz avgqu-sz   await r_await w_await  svctm  %util
sda               0.00     0.00 9244.00    0.00 41268.00     0.00     8.93     0.97    0.11    0.11    0.00   0.06  58.30
sdb               0.00     0.00 9411.00    0.00 41112.00     0.00     8.74     1.02    0.11    0.11    0.00   0.06  60.80
sdc               0.00     0.00 9253.00    0.00 41548.00     0.00     8.98     1.11    0.12    0.12    0.00   0.07  62.80
sdd               0.00     0.00 9285.00    0.00 41096.00     0.00     8.85     1.05    0.11    0.11    0.00   0.07  60.90
sde               0.00     0.00 9362.00    0.00 42252.00     0.00     9.03     1.15    0.12    0.12    0.00   0.07  64.40
sdf               0.00     0.00 9325.00    0.00 41684.00     0.00     8.94     1.15    0.12    0.12    0.00   0.07  66.00
sdg               0.00     0.00    0.00    0.00     0.00     0.00     0.00     0.00    0.00    0.00    0.00   0.00   0.00
sdh               0.00     0.00    0.00    0.00     0.00     0.00     0.00     0.00    0.00    0.00    0.00   0.00   0.00
md0               0.00     0.00 55882.00    0.00 250500.00     0.00     8.97     0.00    0.00    0.00    0.00   0.00   0.00

avg-cpu:  %user   %nice %system %iowait  %steal   %idle
           2.29    0.00   15.52   53.44    0.00   28.75

Device:         rrqm/s   wrqm/s     r/s     w/s    rkB/s    wkB/s avgrq-sz avgqu-sz   await r_await w_await  svctm  %util
sda               0.00     0.00 9367.00    0.00 42112.00     0.00     8.99     0.98    0.10    0.10    0.00   0.06  60.80
sdb               0.00     0.00 9431.00    0.00 41188.00     0.00     8.73     1.01    0.11    0.11    0.00   0.07  61.60
sdc               0.00     0.00 9368.00    0.00 41508.00     0.00     8.86     1.14    0.12    0.12    0.00   0.07  65.10
sdd               0.00     0.00 9275.00    0.00 40968.00     0.00     8.83     1.09    0.12    0.12    0.00   0.07  61.90
sde               0.00     0.00 9227.00    0.00 41156.00     0.00     8.92     1.12    0.12    0.12    0.00   0.07  63.20
sdf               0.00     0.00 9285.00    0.00 40548.00     0.00     8.73     1.13    0.12    0.12    0.00   0.07  63.90
sdg               0.00     0.00    0.00    0.00     0.00     0.00     0.00     0.00    0.00    0.00    0.00   0.00   0.00
sdh               0.00     0.00    0.00    0.00     0.00     0.00     0.00     0.00    0.00    0.00    0.00   0.00   0.00
md0               0.00     0.00 55955.00    0.00 248328.00     0.00     8.88     0.00    0.00    0.00    0.00   0.00   0.00

avg-cpu:  %user   %nice %system %iowait  %steal   %idle
           2.29    0.00   16.03   54.71    0.00   26.97

Device:         rrqm/s   wrqm/s     r/s     w/s    rkB/s    wkB/s avgrq-sz avgqu-sz   await r_await w_await  svctm  %util
sda               0.00     0.00 9259.00    0.00 40628.00     0.00     8.78     0.94    0.10    0.10    0.00   0.06  59.50
sdb               0.00     0.00 9392.00    0.00 41780.00     0.00     8.90     0.96    0.10    0.10    0.00   0.06  58.80
sdc               0.00     0.00 9415.00    0.00 42284.00     0.00     8.98     1.13    0.12    0.12    0.00   0.07  62.00
sdd               0.00     0.00 9472.00    0.00 41452.00     0.00     8.75     1.14    0.12    0.12    0.00   0.07  65.50
sde               0.00     0.00 9320.00    0.00 40940.00     0.00     8.79     1.16    0.12    0.12    0.00   0.07  66.90
sdf               0.00     0.00 9447.00    0.00 41700.00     0.00     8.83     1.13    0.12    0.12    0.00   0.07  65.70
sdg               0.00     0.00    0.00    0.00     0.00     0.00     0.00     0.00    0.00    0.00    0.00   0.00   0.00
sdh               0.00     0.00    0.00    0.00     0.00     0.00     0.00     0.00    0.00    0.00    0.00   0.00   0.00
md0               0.00     0.00 56304.00    0.00 250136.00     0.00     8.89     0.00    0.00    0.00    0.00   0.00   0.00

