Linux 4.17.2 (bench) 	08/03/2018 	_x86_64_	(4 CPU)

avg-cpu:  %user   %nice %system %iowait  %steal   %idle
          10.27    0.02    4.12    2.63    0.00   82.97

Device:         rrqm/s   wrqm/s     r/s     w/s    rkB/s    wkB/s avgrq-sz avgqu-sz   await r_await w_await  svctm  %util
sda              49.12     4.22 1685.81  101.95 21141.30  3119.39    27.14     1.04    0.58    0.26    5.92   0.06  10.86
sdb              48.95     4.18 1685.78  102.08 21130.79  3116.07    27.12     1.04    0.58    0.26    5.85   0.06  10.74
sdc              86.85     4.24 1645.77  101.64 21122.89  3118.52    27.75     1.46    0.84    0.45    7.12   0.08  14.22
sdd              80.32     4.21 1651.48  101.71 21107.81  3114.74    27.63     1.47    0.84    0.44    7.33   0.08  14.31
sde              82.34     4.25 1656.56  101.80 21167.41  3118.96    27.62     1.49    0.85    0.44    7.44   0.08  14.33
sdf              79.46     4.22 1658.69  101.75 21148.77  3115.84    27.57     1.53    0.87    0.44    7.90   0.08  14.37
sdg               0.00     3.17   26.53   73.30   324.88   392.07    14.36     0.44    4.41    0.20    5.93   0.08   0.78
sdh               0.00     0.13    0.02    0.23     2.20     5.03    56.82     0.00    1.15    0.65    1.19   0.21   0.01
md0               0.00     0.00 10418.24  477.66 144874.54 21351.82    30.51     0.00    0.00    0.00    0.00   0.00   0.00

avg-cpu:  %user   %nice %system %iowait  %steal   %idle
           0.25    0.00    2.28   19.24    0.00   78.23

Device:         rrqm/s   wrqm/s     r/s     w/s    rkB/s    wkB/s avgrq-sz avgqu-sz   await r_await w_await  svctm  %util
sda               0.00     0.00 1401.00    0.00  5604.00     0.00     8.00     0.15    0.10    0.10    0.00   0.10  14.60
sdb               0.00     0.00 1487.00    0.00  5948.00     0.00     8.00     0.15    0.10    0.10    0.00   0.10  15.50
sdc               0.00     0.00 1304.00    0.00  5216.00     0.00     8.00     0.14    0.11    0.11    0.00   0.11  13.90
sdd               0.00     0.00 1476.00    0.00  5904.00     0.00     8.00     0.17    0.11    0.11    0.00   0.11  16.70
sde               0.00     0.00 1441.00    0.00  5764.00     0.00     8.00     0.17    0.12    0.12    0.00   0.10  14.80
sdf               0.00     0.00 1320.00    0.00  5280.00     0.00     8.00     0.15    0.11    0.11    0.00   0.11  14.60
sdg               0.00     0.00    2.00   63.00    44.00  1208.00    38.52     0.14    3.18    3.00    3.19   0.12   0.80
sdh               0.00     0.00    0.00    0.00     0.00     0.00     0.00     0.00    0.00    0.00    0.00   0.00   0.00
md0               0.00     0.00 8430.00    0.00 33720.00     0.00     8.00     0.00    0.00    0.00    0.00   0.00   0.00

avg-cpu:  %user   %nice %system %iowait  %steal   %idle
           0.25    0.00    2.28    5.58    0.00   91.88

Device:         rrqm/s   wrqm/s     r/s     w/s    rkB/s    wkB/s avgrq-sz avgqu-sz   await r_await w_await  svctm  %util
sda               0.00     0.00 1429.00    0.00  5716.00     0.00     8.00     0.13    0.09    0.09    0.00   0.09  13.30
sdb               0.00     0.00 1450.00    0.00  5800.00     0.00     8.00     0.14    0.10    0.10    0.00   0.09  13.70
sdc               0.00     0.00 1352.00    0.00  5408.00     0.00     8.00     0.14    0.10    0.10    0.00   0.10  14.10
sdd               0.00     0.00 1342.00    0.00  5368.00     0.00     8.00     0.13    0.10    0.10    0.00   0.10  13.40
sde               0.00     0.00 1472.00    0.00  5888.00     0.00     8.00     0.17    0.12    0.12    0.00   0.12  17.30
sdf               0.00     0.00 1471.00    0.00  5884.00     0.00     8.00     0.15    0.10    0.10    0.00   0.10  14.80
sdg               0.00     1.00    2.00   18.00    32.00   124.00    15.60     0.01    0.45    0.00    0.50   0.05   0.10
sdh               0.00     0.00    0.00    0.00     0.00     0.00     0.00     0.00    0.00    0.00    0.00   0.00   0.00
md0               0.00     0.00 8517.00    0.00 34068.00     0.00     8.00     0.00    0.00    0.00    0.00   0.00   0.00

avg-cpu:  %user   %nice %system %iowait  %steal   %idle
           0.26    0.00    1.79    1.02    0.00   96.93

Device:         rrqm/s   wrqm/s     r/s     w/s    rkB/s    wkB/s avgrq-sz avgqu-sz   await r_await w_await  svctm  %util
sda               0.00     0.00 1433.00    0.00  5732.00     0.00     8.00     0.12    0.08    0.08    0.00   0.08  11.60
sdb               0.00     0.00 1559.00    0.00  6236.00     0.00     8.00     0.15    0.10    0.10    0.00   0.10  15.50
sdc               0.00     0.00 1348.00    0.00  5392.00     0.00     8.00     0.13    0.10    0.10    0.00   0.10  13.40
sdd               0.00     0.00 1502.00    0.00  6008.00     0.00     8.00     0.17    0.11    0.11    0.00   0.11  16.50
sde               0.00     0.00 1437.00    0.00  5748.00     0.00     8.00     0.15    0.11    0.11    0.00   0.11  15.50
sdf               0.00     0.00 1492.00    0.00  5968.00     0.00     8.00     0.17    0.12    0.12    0.00   0.12  17.20
sdg               0.00     0.00    0.00    0.00     0.00     0.00     0.00     0.00    0.00    0.00    0.00   0.00   0.00
sdh               0.00     0.00    0.00    0.00     0.00     0.00     0.00     0.00    0.00    0.00    0.00   0.00   0.00
md0               0.00     0.00 8770.00    0.00 35080.00     0.00     8.00     0.00    0.00    0.00    0.00   0.00   0.00

avg-cpu:  %user   %nice %system %iowait  %steal   %idle
           0.26    0.00    1.79    0.77    0.00   97.19

Device:         rrqm/s   wrqm/s     r/s     w/s    rkB/s    wkB/s avgrq-sz avgqu-sz   await r_await w_await  svctm  %util
sda               0.00     0.00 1481.00    0.00  5924.00     0.00     8.00     0.15    0.10    0.10    0.00   0.10  14.90
sdb               0.00     0.00 1524.00    0.00  6096.00     0.00     8.00     0.13    0.09    0.09    0.00   0.09  13.00
sdc               0.00     0.00 1484.00    0.00  5936.00     0.00     8.00     0.16    0.11    0.11    0.00   0.11  16.20
sdd               0.00     0.00 1457.00    0.00  5828.00     0.00     8.00     0.15    0.11    0.11    0.00   0.11  15.30
sde               0.00     0.00 1422.00    0.00  5688.00     0.00     8.00     0.15    0.10    0.10    0.00   0.10  14.90
sdf               0.00     0.00 1482.00    0.00  5928.00     0.00     8.00     0.16    0.11    0.11    0.00   0.11  15.70
sdg               0.00     0.00    0.00    0.00     0.00     0.00     0.00     0.00    0.00    0.00    0.00   0.00   0.00
sdh               0.00     0.00    0.00    0.00     0.00     0.00     0.00     0.00    0.00    0.00    0.00   0.00   0.00
md0               0.00     0.00 8851.00    0.00 35404.00     0.00     8.00     0.00    0.00    0.00    0.00   0.00   0.00

avg-cpu:  %user   %nice %system %iowait  %steal   %idle
           0.25    0.00    1.78    3.82    0.00   94.15

Device:         rrqm/s   wrqm/s     r/s     w/s    rkB/s    wkB/s avgrq-sz avgqu-sz   await r_await w_await  svctm  %util
sda               0.00     0.00 1443.00    0.00  5772.00     0.00     8.00     0.14    0.10    0.10    0.00   0.10  14.20
sdb               0.00     0.00 1533.00    0.00  6132.00     0.00     8.00     0.14    0.09    0.09    0.00   0.09  14.30
sdc               0.00     0.00 1452.00    0.00  5808.00     0.00     8.00     0.15    0.10    0.10    0.00   0.10  15.20
sdd               0.00     0.00 1519.00    0.00  6076.00     0.00     8.00     0.17    0.11    0.11    0.00   0.11  17.20
sde               0.00     0.00 1421.00    0.00  5684.00     0.00     8.00     0.14    0.10    0.10    0.00   0.10  14.20
sdf               0.00     0.00 1442.00    0.00  5768.00     0.00     8.00     0.16    0.11    0.11    0.00   0.11  16.20
sdg               0.00     0.00    0.00    0.00     0.00     0.00     0.00     0.00    0.00    0.00    0.00   0.00   0.00
sdh               0.00     0.00    0.00    0.00     0.00     0.00     0.00     0.00    0.00    0.00    0.00   0.00   0.00
md0               0.00     0.00 8810.00    0.00 35240.00     0.00     8.00     0.00    0.00    0.00    0.00   0.00   0.00

avg-cpu:  %user   %nice %system %iowait  %steal   %idle
           0.25    0.00    2.04   19.85    0.00   77.86

Device:         rrqm/s   wrqm/s     r/s     w/s    rkB/s    wkB/s avgrq-sz avgqu-sz   await r_await w_await  svctm  %util
sda               0.00     0.00 1412.00    0.00  5648.00     0.00     8.00     0.13    0.09    0.09    0.00   0.09  13.40
sdb               0.00     0.00 1538.00    0.00  6152.00     0.00     8.00     0.16    0.10    0.10    0.00   0.10  16.10
sdc               0.00     0.00 1336.00    0.00  5344.00     0.00     8.00     0.15    0.11    0.11    0.00   0.11  14.90
sdd               0.00     0.00 1412.00    0.00  5648.00     0.00     8.00     0.16    0.11    0.11    0.00   0.11  16.00
sde               0.00     0.00 1411.00    0.00  5644.00     0.00     8.00     0.14    0.10    0.10    0.00   0.10  14.50
sdf               0.00     0.00 1400.00    0.00  5600.00     0.00     8.00     0.16    0.11    0.11    0.00   0.11  15.90
sdg               0.00     0.00    0.00    0.00     0.00     0.00     0.00     0.00    0.00    0.00    0.00   0.00   0.00
sdh               0.00     0.00    0.00    0.00     0.00     0.00     0.00     0.00    0.00    0.00    0.00   0.00   0.00
md0               0.00     0.00 8509.00    0.00 34036.00     0.00     8.00     0.00    0.00    0.00    0.00   0.00   0.00

avg-cpu:  %user   %nice %system %iowait  %steal   %idle
           0.25    0.00    2.28   20.00    0.00   77.47

Device:         rrqm/s   wrqm/s     r/s     w/s    rkB/s    wkB/s avgrq-sz avgqu-sz   await r_await w_await  svctm  %util
sda               0.00     0.00 1396.00    0.00  5584.00     0.00     8.00     0.14    0.10    0.10    0.00   0.10  13.60
sdb               0.00     0.00 1353.00    0.00  5412.00     0.00     8.00     0.13    0.10    0.10    0.00   0.10  13.00
sdc               0.00     0.00 1556.00    0.00  6224.00     0.00     8.00     0.20    0.13    0.13    0.00   0.13  19.50
sdd               0.00     0.00 1488.00    0.00  5952.00     0.00     8.00     0.16    0.10    0.10    0.00   0.10  15.60
sde               0.00     0.00 1363.00    0.00  5452.00     0.00     8.00     0.14    0.10    0.10    0.00   0.10  13.50
sdf               0.00     0.00 1373.00    0.00  5492.00     0.00     8.00     0.14    0.10    0.10    0.00   0.10  14.30
sdg               0.00     0.00    0.00    0.00     0.00     0.00     0.00     0.00    0.00    0.00    0.00   0.00   0.00
sdh               0.00     0.00    0.00    0.00     0.00     0.00     0.00     0.00    0.00    0.00    0.00   0.00   0.00
md0               0.00     0.00 8529.00    0.00 34116.00     0.00     8.00     0.00    0.00    0.00    0.00   0.00   0.00

avg-cpu:  %user   %nice %system %iowait  %steal   %idle
           0.25    0.00    2.28   19.75    0.00   77.72

Device:         rrqm/s   wrqm/s     r/s     w/s    rkB/s    wkB/s avgrq-sz avgqu-sz   await r_await w_await  svctm  %util
sda               0.00     0.00 1410.00    0.00  5640.00     0.00     8.00     0.14    0.10    0.10    0.00   0.10  14.20
sdb               0.00     0.00 1436.00    0.00  5744.00     0.00     8.00     0.15    0.10    0.10    0.00   0.10  15.00
sdc               0.00     0.00 1424.00    0.00  5696.00     0.00     8.00     0.16    0.11    0.11    0.00   0.11  15.90
sdd               0.00     0.00 1425.00    0.00  5700.00     0.00     8.00     0.15    0.11    0.11    0.00   0.11  15.50
sde               0.00     0.00 1438.00    0.00  5752.00     0.00     8.00     0.15    0.11    0.11    0.00   0.11  15.10
sdf               0.00     0.00 1372.00    0.00  5488.00     0.00     8.00     0.15    0.11    0.11    0.00   0.11  15.00
sdg               0.00     0.00    0.00    0.00     0.00     0.00     0.00     0.00    0.00    0.00    0.00   0.00   0.00
sdh               0.00     0.00    0.00    0.00     0.00     0.00     0.00     0.00    0.00    0.00    0.00   0.00   0.00
md0               0.00     0.00 8505.00    0.00 34020.00     0.00     8.00     0.00    0.00    0.00    0.00   0.00   0.00

avg-cpu:  %user   %nice %system %iowait  %steal   %idle
           0.25    0.25    2.04    9.41    0.00   88.04

Device:         rrqm/s   wrqm/s     r/s     w/s    rkB/s    wkB/s avgrq-sz avgqu-sz   await r_await w_await  svctm  %util
sda               0.00     0.00 1510.00    0.00  6040.00     0.00     8.00     0.16    0.11    0.11    0.00   0.11  15.90
sdb               0.00     0.00 1348.00    0.00  5392.00     0.00     8.00     0.14    0.10    0.10    0.00   0.10  13.50
sdc               0.00     0.00 1443.00    0.00  5772.00     0.00     8.00     0.17    0.11    0.11    0.00   0.11  16.50
sdd               0.00     0.00 1448.00    0.00  5792.00     0.00     8.00     0.14    0.10    0.10    0.00   0.10  14.30
sde               0.00     0.00 1391.00    0.00  5564.00     0.00     8.00     0.15    0.11    0.11    0.00   0.11  14.90
sdf               0.00     0.00 1495.00    0.00  5980.00     0.00     8.00     0.16    0.11    0.11    0.00   0.11  15.70
sdg               0.00     0.00   17.00    0.00   116.00     0.00    13.65     0.00    0.18    0.18    0.00   0.18   0.30
sdh               0.00     0.00    0.00    0.00     0.00     0.00     0.00     0.00    0.00    0.00    0.00   0.00   0.00
md0               0.00     0.00 8635.00    0.00 34540.00     0.00     8.00     0.00    0.00    0.00    0.00   0.00   0.00

avg-cpu:  %user   %nice %system %iowait  %steal   %idle
           0.25    0.00    2.29    0.76    0.00   96.69

Device:         rrqm/s   wrqm/s     r/s     w/s    rkB/s    wkB/s avgrq-sz avgqu-sz   await r_await w_await  svctm  %util
sda               0.00     0.00 1501.00    0.00  6004.00     0.00     8.00     0.15    0.10    0.10    0.00   0.10  15.10
sdb               0.00     0.00 1428.00    0.00  5712.00     0.00     8.00     0.14    0.10    0.10    0.00   0.10  13.60
sdc               0.00     0.00 1454.00    0.00  5816.00     0.00     8.00     0.15    0.10    0.10    0.00   0.10  15.20
sdd               0.00     0.00 1408.00    0.00  5632.00     0.00     8.00     0.15    0.10    0.10    0.00   0.10  14.60
sde               0.00     0.00 1440.00    0.00  5760.00     0.00     8.00     0.13    0.09    0.09    0.00   0.09  12.70
sdf               0.00     0.00 1519.00    0.00  6076.00     0.00     8.00     0.16    0.11    0.11    0.00   0.11  16.20
sdg               0.00     0.00    0.00    0.00     0.00     0.00     0.00     0.00    0.00    0.00    0.00   0.00   0.00
sdh               0.00     0.00    0.00    0.00     0.00     0.00     0.00     0.00    0.00    0.00    0.00   0.00   0.00
md0               0.00     0.00 8750.00    0.00 35000.00     0.00     8.00     0.00    0.00    0.00    0.00   0.00   0.00

avg-cpu:  %user   %nice %system %iowait  %steal   %idle
           0.26    0.00    1.54    0.77    0.00   97.44

Device:         rrqm/s   wrqm/s     r/s     w/s    rkB/s    wkB/s avgrq-sz avgqu-sz   await r_await w_await  svctm  %util
sda               0.00     0.00 1450.00    0.00  5800.00     0.00     8.00     0.14    0.10    0.10    0.00   0.10  13.80
sdb               0.00     0.00 1458.00    0.00  5832.00     0.00     8.00     0.14    0.10    0.10    0.00   0.10  14.50
sdc               0.00     0.00 1609.00    0.00  6436.00     0.00     8.00     0.17    0.10    0.10    0.00   0.10  16.50
sdd               0.00     0.00 1385.00    0.00  5540.00     0.00     8.00     0.16    0.11    0.11    0.00   0.11  15.80
sde               0.00     0.00 1424.00    0.00  5696.00     0.00     8.00     0.14    0.10    0.10    0.00   0.10  14.40
sdf               0.00     0.00 1446.00    0.00  5784.00     0.00     8.00     0.14    0.10    0.10    0.00   0.10  14.20
sdg               0.00     0.00    0.00    0.00     0.00     0.00     0.00     0.00    0.00    0.00    0.00   0.00   0.00
sdh               0.00     0.00    0.00    0.00     0.00     0.00     0.00     0.00    0.00    0.00    0.00   0.00   0.00
md0               0.00     0.00 8772.00    0.00 35088.00     0.00     8.00     0.00    0.00    0.00    0.00   0.00   0.00

avg-cpu:  %user   %nice %system %iowait  %steal   %idle
           0.26    0.00    1.54    0.77    0.00   97.44

Device:         rrqm/s   wrqm/s     r/s     w/s    rkB/s    wkB/s avgrq-sz avgqu-sz   await r_await w_await  svctm  %util
sda               0.00     0.00 1406.00    0.00  5624.00     0.00     8.00     0.14    0.10    0.10    0.00   0.10  14.50
sdb               0.00     0.00 1503.00    0.00  6012.00     0.00     8.00     0.16    0.10    0.10    0.00   0.10  15.70
sdc               0.00     0.00 1422.00    0.00  5688.00     0.00     8.00     0.14    0.10    0.10    0.00   0.10  13.90
sdd               0.00     0.00 1462.00    0.00  5848.00     0.00     8.00     0.14    0.10    0.10    0.00   0.10  14.20
sde               0.00     0.00 1559.00    0.00  6236.00     0.00     8.00     0.17    0.11    0.11    0.00   0.11  16.60
sdf               0.00     0.00 1470.00    0.00  5880.00     0.00     8.00     0.14    0.10    0.10    0.00   0.10  14.40
sdg               0.00     0.00    0.00    0.00     0.00     0.00     0.00     0.00    0.00    0.00    0.00   0.00   0.00
sdh               0.00     0.00    0.00    0.00     0.00     0.00     0.00     0.00    0.00    0.00    0.00   0.00   0.00
md0               0.00     0.00 8822.00    0.00 35288.00     0.00     8.00     0.00    0.00    0.00    0.00   0.00   0.00

avg-cpu:  %user   %nice %system %iowait  %steal   %idle
           0.51    0.00    1.53    1.02    0.00   96.94

Device:         rrqm/s   wrqm/s     r/s     w/s    rkB/s    wkB/s avgrq-sz avgqu-sz   await r_await w_await  svctm  %util
sda               0.00     0.00 1477.00    0.00  5908.00     0.00     8.00     0.15    0.10    0.10    0.00   0.10  15.40
sdb               0.00     0.00 1445.00    0.00  5780.00     0.00     8.00     0.15    0.11    0.11    0.00   0.11  15.20
sdc               0.00     0.00 1370.00    0.00  5480.00     0.00     8.00     0.13    0.10    0.10    0.00   0.10  13.40
sdd               0.00     0.00 1464.00    0.00  5856.00     0.00     8.00     0.17    0.11    0.11    0.00   0.11  16.60
sde               0.00     0.00 1512.00    0.00  6048.00     0.00     8.00     0.16    0.10    0.10    0.00   0.10  15.60
sdf               0.00     0.00 1531.00    0.00  6124.00     0.00     8.00     0.15    0.10    0.10    0.00   0.10  15.10
sdg               0.00     0.00    0.00    0.00     0.00     0.00     0.00     0.00    0.00    0.00    0.00   0.00   0.00
sdh               0.00     0.00    0.00    0.00     0.00     0.00     0.00     0.00    0.00    0.00    0.00   0.00   0.00
md0               0.00     0.00 8799.00    0.00 35196.00     0.00     8.00     0.00    0.00    0.00    0.00   0.00   0.00

avg-cpu:  %user   %nice %system %iowait  %steal   %idle
           0.26    0.00    1.79    0.51    0.00   97.44

Device:         rrqm/s   wrqm/s     r/s     w/s    rkB/s    wkB/s avgrq-sz avgqu-sz   await r_await w_await  svctm  %util
sda               0.00     0.00 1442.00    0.00  5768.00     0.00     8.00     0.12    0.08    0.08    0.00   0.08  11.80
sdb               0.00     0.00 1365.00    0.00  5460.00     0.00     8.00     0.14    0.10    0.10    0.00   0.10  13.50
sdc               0.00     0.00 1464.00    0.00  5856.00     0.00     8.00     0.15    0.10    0.10    0.00   0.10  15.20
sdd               0.00     0.00 1503.00    0.00  6012.00     0.00     8.00     0.14    0.09    0.09    0.00   0.09  13.90
sde               0.00     0.00 1535.00    0.00  6140.00     0.00     8.00     0.17    0.11    0.11    0.00   0.11  16.60
sdf               0.00     0.00 1462.00    0.00  5848.00     0.00     8.00     0.15    0.10    0.10    0.00   0.10  15.10
sdg               0.00     0.00    0.00    0.00     0.00     0.00     0.00     0.00    0.00    0.00    0.00   0.00   0.00
sdh               0.00     0.00    0.00    0.00     0.00     0.00     0.00     0.00    0.00    0.00    0.00   0.00   0.00
md0               0.00     0.00 8771.00    0.00 35084.00     0.00     8.00     0.00    0.00    0.00    0.00   0.00   0.00

avg-cpu:  %user   %nice %system %iowait  %steal   %idle
           0.26    0.00    1.53    5.63    0.00   92.58

Device:         rrqm/s   wrqm/s     r/s     w/s    rkB/s    wkB/s avgrq-sz avgqu-sz   await r_await w_await  svctm  %util
sda               0.00     0.00 1529.00    0.00  6116.00     0.00     8.00     0.16    0.11    0.11    0.00   0.11  16.20
sdb               0.00     0.00 1490.00    0.00  5960.00     0.00     8.00     0.14    0.10    0.10    0.00   0.10  14.40
sdc               0.00     0.00 1385.00    0.00  5540.00     0.00     8.00     0.15    0.11    0.11    0.00   0.11  14.90
sdd               0.00     0.00 1460.00    0.00  5840.00     0.00     8.00     0.15    0.11    0.11    0.00   0.10  15.30
sde               0.00     0.00 1423.00    0.00  5692.00     0.00     8.00     0.15    0.11    0.11    0.00   0.11  15.00
sdf               0.00     0.00 1409.00    0.00  5636.00     0.00     8.00     0.14    0.10    0.10    0.00   0.10  14.20
sdg               0.00     0.00    0.00    0.00     0.00     0.00     0.00     0.00    0.00    0.00    0.00   0.00   0.00
sdh               0.00     0.00    0.00    0.00     0.00     0.00     0.00     0.00    0.00    0.00    0.00   0.00   0.00
md0               0.00     0.00 8695.00    0.00 34780.00     0.00     8.00     0.00    0.00    0.00    0.00   0.00   0.00

avg-cpu:  %user   %nice %system %iowait  %steal   %idle
           0.51    0.00    2.04    4.08    0.00   93.37

Device:         rrqm/s   wrqm/s     r/s     w/s    rkB/s    wkB/s avgrq-sz avgqu-sz   await r_await w_await  svctm  %util
sda               0.00     0.00 1537.00    0.00  6148.00     0.00     8.00     0.14    0.09    0.09    0.00   0.09  13.90
sdb               0.00     0.00 1474.00    0.00  5896.00     0.00     8.00     0.15    0.10    0.10    0.00   0.10  14.90
sdc               0.00     0.00 1489.00    0.00  5956.00     0.00     8.00     0.15    0.10    0.10    0.00   0.10  15.40
sdd               0.00     0.00 1496.00    0.00  5984.00     0.00     8.00     0.16    0.11    0.11    0.00   0.11  15.90
sde               0.00     0.00 1420.00    0.00  5680.00     0.00     8.00     0.14    0.10    0.10    0.00   0.10  14.30
sdf               0.00     0.00 1425.00    0.00  5700.00     0.00     8.00     0.16    0.11    0.11    0.00   0.11  15.90
sdg               0.00    13.00   15.00 1438.00    60.00  7468.00    10.36     8.57    5.90    1.40    5.94   0.05   7.40
sdh               0.00     0.00    0.00    0.00     0.00     0.00     0.00     0.00    0.00    0.00    0.00   0.00   0.00
md0               0.00     0.00 8841.00    0.00 35364.00     0.00     8.00     0.00    0.00    0.00    0.00   0.00   0.00

avg-cpu:  %user   %nice %system %iowait  %steal   %idle
           0.26    0.00    1.29    0.77    0.00   97.69

Device:         rrqm/s   wrqm/s     r/s     w/s    rkB/s    wkB/s avgrq-sz avgqu-sz   await r_await w_await  svctm  %util
sda               0.00     0.00 1492.00    0.00  5968.00     0.00     8.00     0.15    0.10    0.10    0.00   0.10  14.90
sdb               0.00     0.00 1546.00    0.00  6184.00     0.00     8.00     0.16    0.10    0.10    0.00   0.10  15.60
sdc               0.00     0.00 1364.00    0.00  5456.00     0.00     8.00     0.14    0.11    0.11    0.00   0.11  14.50
sdd               0.00     0.00 1424.00    0.00  5696.00     0.00     8.00     0.14    0.10    0.10    0.00   0.10  13.80
sde               0.00     0.00 1474.00    0.00  5896.00     0.00     8.00     0.17    0.12    0.12    0.00   0.12  17.00
sdf               0.00     0.00 1462.00    0.00  5848.00     0.00     8.00     0.15    0.10    0.10    0.00   0.10  15.00
sdg               0.00     0.00    0.00    0.00     0.00     0.00     0.00     0.00    0.00    0.00    0.00   0.00   0.00
sdh               0.00     0.00    0.00    0.00     0.00     0.00     0.00     0.00    0.00    0.00    0.00   0.00   0.00
md0               0.00     0.00 8762.00    0.00 35048.00     0.00     8.00     0.00    0.00    0.00    0.00   0.00   0.00

avg-cpu:  %user   %nice %system %iowait  %steal   %idle
           0.25    0.00    2.03    0.76    0.00   96.95

Device:         rrqm/s   wrqm/s     r/s     w/s    rkB/s    wkB/s avgrq-sz avgqu-sz   await r_await w_await  svctm  %util
sda               0.00     0.00 1559.00    0.00  6236.00     0.00     8.00     0.15    0.09    0.09    0.00   0.09  14.80
sdb               0.00     0.00 1617.00    0.00  6468.00     0.00     8.00     0.17    0.10    0.10    0.00   0.10  16.90
sdc               0.00     0.00 1421.00    0.00  5684.00     0.00     8.00     0.15    0.11    0.11    0.00   0.11  15.30
sdd               0.00     0.00 1583.00    0.00  6332.00     0.00     8.00     0.15    0.09    0.09    0.00   0.09  14.70
sde               0.00     0.00 1531.00    0.00  6124.00     0.00     8.00     0.17    0.11    0.11    0.00   0.11  16.90
sdf               0.00     0.00 1488.00    0.00  5952.00     0.00     8.00     0.15    0.10    0.10    0.00   0.10  15.10
sdg               0.00     0.00    0.00    0.00     0.00     0.00     0.00     0.00    0.00    0.00    0.00   0.00   0.00
sdh               0.00     0.00    0.00    0.00     0.00     0.00     0.00     0.00    0.00    0.00    0.00   0.00   0.00
md0               0.00     0.00 9199.00    0.00 36796.00     0.00     8.00     0.00    0.00    0.00    0.00   0.00   0.00

avg-cpu:  %user   %nice %system %iowait  %steal   %idle
           0.25    0.25    2.80    3.05    0.00   93.64

Device:         rrqm/s   wrqm/s     r/s     w/s    rkB/s    wkB/s avgrq-sz avgqu-sz   await r_await w_await  svctm  %util
sda               0.00     0.00 1409.00    0.00  5636.00     0.00     8.00     0.14    0.10    0.10    0.00   0.10  14.00
sdb               0.00     0.00 1473.00    0.00  5892.00     0.00     8.00     0.15    0.10    0.10    0.00   0.10  15.30
sdc               0.00     0.00 1530.00    0.00  6120.00     0.00     8.00     0.15    0.10    0.10    0.00   0.10  14.80
sdd               0.00     0.00 1446.00    0.00  5784.00     0.00     8.00     0.16    0.11    0.11    0.00   0.11  16.30
sde               0.00     0.00 1462.00    0.00  5848.00     0.00     8.00     0.16    0.11    0.11    0.00   0.11  15.60
sdf               0.00     0.00 1472.00    0.00  5888.00     0.00     8.00     0.15    0.10    0.10    0.00   0.10  15.20
sdg               0.00     0.00 1323.00    0.00  5292.00     0.00     8.00     0.15    0.12    0.12    0.00   0.12  15.50
sdh               0.00     0.00    0.00    0.00     0.00     0.00     0.00     0.00    0.00    0.00    0.00   0.00   0.00
md0               0.00     0.00 8793.00    0.00 35172.00     0.00     8.00     0.00    0.00    0.00    0.00   0.00   0.00

avg-cpu:  %user   %nice %system %iowait  %steal   %idle
           0.51    0.00    2.03    0.76    0.00   96.70

Device:         rrqm/s   wrqm/s     r/s     w/s    rkB/s    wkB/s avgrq-sz avgqu-sz   await r_await w_await  svctm  %util
sda               0.00     0.00 1495.00    0.00  5980.00     0.00     8.00     0.14    0.09    0.09    0.00   0.09  14.20
sdb               0.00     0.00 1364.00    0.00  5456.00     0.00     8.00     0.12    0.09    0.09    0.00   0.09  11.90
sdc               0.00     0.00 1418.00    0.00  5672.00     0.00     8.00     0.14    0.10    0.10    0.00   0.10  13.50
sdd               0.00     0.00 1460.00    0.00  5840.00     0.00     8.00     0.17    0.11    0.11    0.00   0.11  16.50
sde               0.00     0.00 1430.00    0.00  5720.00     0.00     8.00     0.14    0.10    0.10    0.00   0.10  14.00
sdf               0.00     0.00 1579.00    0.00  6316.00     0.00     8.00     0.16    0.10    0.10    0.00   0.10  16.30
sdg               0.00     0.00    0.00    0.00     0.00     0.00     0.00     0.00    0.00    0.00    0.00   0.00   0.00
sdh               0.00     0.00    0.00    0.00     0.00     0.00     0.00     0.00    0.00    0.00    0.00   0.00   0.00
md0               0.00     0.00 8745.00    0.00 34980.00     0.00     8.00     0.00    0.00    0.00    0.00   0.00   0.00

