Linux 4.17.2 (bench) 	08/03/2018 	_x86_64_	(4 CPU)

avg-cpu:  %user   %nice %system %iowait  %steal   %idle
          10.27    0.02    4.08    2.58    0.00   83.06

Device:         rrqm/s   wrqm/s     r/s     w/s    rkB/s    wkB/s avgrq-sz avgqu-sz   await r_await w_await  svctm  %util
sda              46.11     4.24 1659.78  102.42 20976.04  3133.99    27.36     1.04    0.59    0.26    5.92   0.06  10.75
sdb              45.97     4.20 1659.73  102.56 20965.44  3130.65    27.35     1.03    0.59    0.26    5.85   0.06  10.63
sdc              83.92     4.26 1619.68  102.11 20957.55  3133.11    27.98     1.45    0.84    0.45    7.12   0.08  14.09
sdd              77.35     4.23 1625.41  102.18 20942.47  3129.31    27.87     1.46    0.85    0.44    7.33   0.08  14.19
sde              79.38     4.27 1630.48  102.28 21002.23  3133.56    27.86     1.48    0.85    0.44    7.44   0.08  14.21
sdf              76.50     4.24 1632.64  102.22 20983.50  3130.42    27.80     1.53    0.88    0.44    7.90   0.08  14.24
sdg               0.00     3.17   26.33   73.32   324.10   392.06    14.37     0.44    4.42    0.20    5.93   0.08   0.78
sdh               0.00     0.13    0.02    0.23     2.21     5.06    56.82     0.00    1.15    0.65    1.19   0.21   0.01
md0               0.00     0.00 10243.76  479.89 143687.34 21451.73    30.80     0.00    0.00    0.00    0.00   0.00   0.00

avg-cpu:  %user   %nice %system %iowait  %steal   %idle
           0.51    0.00    9.18   57.65    0.00   32.65

Device:         rrqm/s   wrqm/s     r/s     w/s    rkB/s    wkB/s avgrq-sz avgqu-sz   await r_await w_await  svctm  %util
sda               0.00     0.00 6404.00    0.00 25616.00     0.00     8.00     0.97    0.15    0.15    0.00   0.03  22.30
sdb               0.00     0.00 6625.00    0.00 26500.00     0.00     8.00     0.89    0.13    0.13    0.00   0.03  16.90
sdc               0.00     0.00 6763.00    0.00 27052.00     0.00     8.00     1.13    0.17    0.17    0.00   0.03  20.90
sdd               0.00     0.00 6727.00    0.00 26908.00     0.00     8.00     1.11    0.17    0.17    0.00   0.03  20.30
sde               0.00     0.00 6991.00    0.00 27964.00     0.00     8.00     1.20    0.17    0.17    0.00   0.03  21.50
sdf               0.00     0.00 6906.00    0.00 27624.00     0.00     8.00     1.08    0.16    0.16    0.00   0.03  21.00
sdg               0.00     0.00    1.00    1.00    28.00     8.00    36.00     0.00    0.50    1.00    0.00   0.50   0.10
sdh               0.00     0.00    0.00    0.00     0.00     0.00     0.00     0.00    0.00    0.00    0.00   0.00   0.00
md0               0.00     0.00 40435.00    0.00 161740.00     0.00     8.00     0.00    0.00    0.00    0.00   0.00   0.00

avg-cpu:  %user   %nice %system %iowait  %steal   %idle
           0.50    0.00   10.55   62.06    0.00   26.88

Device:         rrqm/s   wrqm/s     r/s     w/s    rkB/s    wkB/s avgrq-sz avgqu-sz   await r_await w_await  svctm  %util
sda               0.00     0.00 6752.00    0.00 27008.00     0.00     8.00     0.97    0.14    0.14    0.00   0.03  21.50
sdb               0.00     0.00 6868.00    0.00 27472.00     0.00     8.00     0.87    0.13    0.13    0.00   0.02  17.00
sdc               0.00     0.00 7097.00    0.00 28388.00     0.00     8.00     1.19    0.17    0.17    0.00   0.03  21.60
sdd               0.00     0.00 6858.00    0.00 27432.00     0.00     8.00     1.12    0.16    0.16    0.00   0.03  21.40
sde               0.00     0.00 6840.00    0.00 27360.00     0.00     8.00     1.09    0.16    0.16    0.00   0.03  20.50
sdf               0.00     0.00 7025.00    0.00 28100.00     0.00     8.00     1.16    0.16    0.16    0.00   0.03  21.60
sdg               0.00     0.00    0.00    0.00     0.00     0.00     0.00     0.00    0.00    0.00    0.00   0.00   0.00
sdh               0.00     0.00    0.00    0.00     0.00     0.00     0.00     0.00    0.00    0.00    0.00   0.00   0.00
md0               0.00     0.00 41440.00    0.00 165760.00     0.00     8.00     0.00    0.00    0.00    0.00   0.00   0.00

avg-cpu:  %user   %nice %system %iowait  %steal   %idle
           0.51    0.00    9.41   55.98    0.00   34.10

Device:         rrqm/s   wrqm/s     r/s     w/s    rkB/s    wkB/s avgrq-sz avgqu-sz   await r_await w_await  svctm  %util
sda               0.00     0.00 6568.00    0.00 26272.00     0.00     8.00     0.99    0.15    0.15    0.00   0.03  22.20
sdb               0.00     0.00 6881.00    0.00 27524.00     0.00     8.00     0.94    0.14    0.14    0.00   0.03  18.20
sdc               0.00     0.00 6778.00    0.00 27112.00     0.00     8.00     1.10    0.16    0.16    0.00   0.03  20.10
sdd               0.00     0.00 6833.00    0.00 27332.00     0.00     8.00     1.17    0.17    0.17    0.00   0.03  21.40
sde               0.00     0.00 6688.00    0.00 26752.00     0.00     8.00     1.10    0.16    0.16    0.00   0.03  21.30
sdf               0.00     0.00 6618.00    0.00 26472.00     0.00     8.00     1.15    0.17    0.17    0.00   0.03  20.60
sdg               0.00     1.00    9.00    1.00    36.00    20.00    11.20     0.00    0.10    0.11    0.00   0.10   0.10
sdh               0.00     0.00    0.00    0.00     0.00     0.00     0.00     0.00    0.00    0.00    0.00   0.00   0.00
md0               0.00     0.00 40354.00    0.00 161416.00     0.00     8.00     0.00    0.00    0.00    0.00   0.00   0.00

avg-cpu:  %user   %nice %system %iowait  %steal   %idle
           0.75    0.25   10.80   55.78    0.00   32.41

Device:         rrqm/s   wrqm/s     r/s     w/s    rkB/s    wkB/s avgrq-sz avgqu-sz   await r_await w_await  svctm  %util
sda               0.00     0.00 6791.00    0.00 27164.00     0.00     8.00     0.97    0.14    0.14    0.00   0.03  21.40
sdb               0.00     0.00 6997.00    0.00 27988.00     0.00     8.00     0.89    0.13    0.13    0.00   0.02  17.10
sdc               0.00     0.00 6836.00    0.00 27344.00     0.00     8.00     1.15    0.17    0.17    0.00   0.03  20.80
sdd               0.00     0.00 6873.00    0.00 27492.00     0.00     8.00     1.16    0.17    0.17    0.00   0.03  20.90
sde               0.00     0.00 6835.00    0.00 27340.00     0.00     8.00     1.11    0.16    0.16    0.00   0.03  20.70
sdf               0.00     0.00 6867.00    0.00 27468.00     0.00     8.00     1.14    0.17    0.17    0.00   0.03  21.90
sdg               0.00     0.00  528.00    0.00  2436.00     0.00     9.23     0.07    0.12    0.12    0.00   0.12   6.20
sdh               0.00     0.00    0.00    0.00     0.00     0.00     0.00     0.00    0.00    0.00    0.00   0.00   0.00
md0               0.00     0.00 41203.00    0.00 164812.00     0.00     8.00     0.00    0.00    0.00    0.00   0.00   0.00

avg-cpu:  %user   %nice %system %iowait  %steal   %idle
           0.51    0.00    9.67   54.96    0.00   34.86

Device:         rrqm/s   wrqm/s     r/s     w/s    rkB/s    wkB/s avgrq-sz avgqu-sz   await r_await w_await  svctm  %util
sda               0.00     0.00 6942.00    0.00 27768.00     0.00     8.00     1.02    0.15    0.15    0.00   0.03  22.40
sdb               0.00     0.00 7023.00    0.00 28092.00     0.00     8.00     0.94    0.13    0.13    0.00   0.03  18.10
sdc               0.00     0.00 6211.00    0.00 24844.00     0.00     8.00     1.05    0.17    0.17    0.00   0.03  19.80
sdd               0.00     0.00 6670.00    0.00 26680.00     0.00     8.00     1.11    0.17    0.17    0.00   0.03  20.80
sde               0.00     0.00 6954.00    0.00 27816.00     0.00     8.00     1.14    0.16    0.16    0.00   0.03  21.30
sdf               0.00     0.00 6912.00    0.00 27648.00     0.00     8.00     1.15    0.17    0.17    0.00   0.03  21.30
sdg               0.00     0.00    0.00    0.00     0.00     0.00     0.00     0.00    0.00    0.00    0.00   0.00   0.00
sdh               0.00     0.00    0.00    0.00     0.00     0.00     0.00     0.00    0.00    0.00    0.00   0.00   0.00
md0               0.00     0.00 40714.00    0.00 162856.00     0.00     8.00     0.00    0.00    0.00    0.00   0.00   0.00

avg-cpu:  %user   %nice %system %iowait  %steal   %idle
           0.75    0.00   10.53   55.14    0.00   33.58

Device:         rrqm/s   wrqm/s     r/s     w/s    rkB/s    wkB/s avgrq-sz avgqu-sz   await r_await w_await  svctm  %util
sda               0.00     0.00 6693.00    0.00 26772.00     0.00     8.00     0.98    0.15    0.15    0.00   0.03  22.50
sdb               0.00     0.00 6999.00    0.00 27996.00     0.00     8.00     0.88    0.13    0.13    0.00   0.02  17.30
sdc               0.00     0.00 6767.00    0.00 27068.00     0.00     8.00     1.15    0.17    0.17    0.00   0.03  20.20
sdd               0.00     0.00 7046.00    0.00 28184.00     0.00     8.00     1.19    0.17    0.17    0.00   0.03  21.00
sde               0.00     0.00 6685.00    0.00 26740.00     0.00     8.00     1.13    0.17    0.17    0.00   0.03  21.80
sdf               0.00     0.00 6734.00    0.00 26936.00     0.00     8.00     1.09    0.16    0.16    0.00   0.03  20.60
sdg               0.00     0.00    0.00    0.00     0.00     0.00     0.00     0.00    0.00    0.00    0.00   0.00   0.00
sdh               0.00     0.00    0.00    0.00     0.00     0.00     0.00     0.00    0.00    0.00    0.00   0.00   0.00
md0               0.00     0.00 40921.00    0.00 163684.00     0.00     8.00     0.00    0.00    0.00    0.00   0.00   0.00

avg-cpu:  %user   %nice %system %iowait  %steal   %idle
           0.25    0.00   10.61   55.56    0.00   33.59

Device:         rrqm/s   wrqm/s     r/s     w/s    rkB/s    wkB/s avgrq-sz avgqu-sz   await r_await w_await  svctm  %util
sda               0.00     0.00 6678.00    0.00 26712.00     0.00     8.00     0.97    0.14    0.14    0.00   0.03  19.10
sdb               0.00     0.00 6695.00    0.00 26780.00     0.00     8.00     0.81    0.12    0.12    0.00   0.03  17.40
sdc               0.00     0.00 6893.00    0.00 27572.00     0.00     8.00     1.22    0.18    0.18    0.00   0.03  21.80
sdd               0.00     0.00 7150.00    0.00 28600.00     0.00     8.00     1.13    0.16    0.16    0.00   0.03  21.30
sde               0.00     0.00 6833.00    0.00 27332.00     0.00     8.00     1.15    0.17    0.17    0.00   0.03  21.50
sdf               0.00     0.00 6940.00    0.00 27760.00     0.00     8.00     1.17    0.17    0.17    0.00   0.03  21.60
sdg               0.00     0.00    0.00    0.00     0.00     0.00     0.00     0.00    0.00    0.00    0.00   0.00   0.00
sdh               0.00     0.00    0.00    0.00     0.00     0.00     0.00     0.00    0.00    0.00    0.00   0.00   0.00
md0               0.00     0.00 41184.00    0.00 164736.00     0.00     8.00     0.00    0.00    0.00    0.00   0.00   0.00

avg-cpu:  %user   %nice %system %iowait  %steal   %idle
           0.50    0.00   11.08   55.16    0.00   33.25

Device:         rrqm/s   wrqm/s     r/s     w/s    rkB/s    wkB/s avgrq-sz avgqu-sz   await r_await w_await  svctm  %util
sda               0.00     0.00 6881.00    0.00 27524.00     0.00     8.00     1.03    0.15    0.15    0.00   0.03  22.90
sdb               0.00     0.00 6647.00    0.00 26588.00     0.00     8.00     0.89    0.13    0.13    0.00   0.03  17.20
sdc               0.00     0.00 6450.00    0.00 25800.00     0.00     8.00     1.05    0.16    0.16    0.00   0.03  20.40
sdd               0.00     0.00 6977.00    0.00 27908.00     0.00     8.00     1.18    0.17    0.17    0.00   0.03  20.90
sde               0.00     0.00 6873.00    0.00 27492.00     0.00     8.00     1.13    0.16    0.16    0.00   0.03  21.70
sdf               0.00     0.00 6596.00    0.00 26384.00     0.00     8.00     1.05    0.16    0.16    0.00   0.03  19.20
sdg               0.00    81.00    0.00 1894.00     0.00  9228.00     9.74    11.03    5.83    0.00    5.83   0.04   8.00
sdh               0.00     0.00    0.00    0.00     0.00     0.00     0.00     0.00    0.00    0.00    0.00   0.00   0.00
md0               0.00     0.00 40426.00    0.00 161704.00     0.00     8.00     0.00    0.00    0.00    0.00   0.00   0.00

avg-cpu:  %user   %nice %system %iowait  %steal   %idle
           1.01    0.00    9.82   55.67    0.00   33.50

Device:         rrqm/s   wrqm/s     r/s     w/s    rkB/s    wkB/s avgrq-sz avgqu-sz   await r_await w_await  svctm  %util
sda               0.00     0.00 6641.00    0.00 26564.00     0.00     8.00     1.01    0.15    0.15    0.00   0.03  22.20
sdb               0.00     0.00 6743.00    0.00 26972.00     0.00     8.00     0.84    0.12    0.12    0.00   0.02  15.80
sdc               0.00     0.00 7044.00    0.00 28176.00     0.00     8.00     1.18    0.17    0.17    0.00   0.03  20.60
sdd               0.00     0.00 6819.00    0.00 27276.00     0.00     8.00     1.14    0.17    0.17    0.00   0.03  21.50
sde               0.00     0.00 6935.00    0.00 27740.00     0.00     8.00     1.13    0.16    0.16    0.00   0.03  21.90
sdf               0.00     0.00 6900.00    0.00 27600.00     0.00     8.00     1.12    0.16    0.16    0.00   0.03  20.80
sdg               0.00     0.00    0.00    0.00     0.00     0.00     0.00     0.00    0.00    0.00    0.00   0.00   0.00
sdh               0.00     0.00    0.00    0.00     0.00     0.00     0.00     0.00    0.00    0.00    0.00   0.00   0.00
md0               0.00     0.00 41085.00    0.00 164340.00     0.00     8.00     0.00    0.00    0.00    0.00   0.00   0.00

avg-cpu:  %user   %nice %system %iowait  %steal   %idle
           0.25    0.00   10.15   56.09    0.00   33.50

Device:         rrqm/s   wrqm/s     r/s     w/s    rkB/s    wkB/s avgrq-sz avgqu-sz   await r_await w_await  svctm  %util
sda               0.00     0.00 7016.00    0.00 28064.00     0.00     8.00     1.04    0.15    0.15    0.00   0.03  22.30
sdb               0.00     0.00 6692.00    0.00 26768.00     0.00     8.00     0.87    0.13    0.13    0.00   0.02  16.60
sdc               0.00     0.00 7045.00    0.00 28180.00     0.00     8.00     1.19    0.17    0.17    0.00   0.03  22.10
sdd               0.00     0.00 7026.00    0.00 28104.00     0.00     8.00     1.13    0.16    0.16    0.00   0.03  21.00
sde               0.00     0.00 6755.00    0.00 27020.00     0.00     8.00     1.16    0.17    0.17    0.00   0.03  21.00
sdf               0.00     0.00 6966.00    0.00 27864.00     0.00     8.00     1.17    0.17    0.17    0.00   0.03  21.00
sdg               0.00     0.00    0.00    0.00     0.00     0.00     0.00     0.00    0.00    0.00    0.00   0.00   0.00
sdh               0.00     0.00    0.00    0.00     0.00     0.00     0.00     0.00    0.00    0.00    0.00   0.00   0.00
md0               0.00     0.00 41501.00    0.00 166004.00     0.00     8.00     0.00    0.00    0.00    0.00   0.00   0.00

avg-cpu:  %user   %nice %system %iowait  %steal   %idle
           0.50    0.00   10.33   55.67    0.00   33.50

Device:         rrqm/s   wrqm/s     r/s     w/s    rkB/s    wkB/s avgrq-sz avgqu-sz   await r_await w_await  svctm  %util
sda               0.00     0.00 7000.00    0.00 28000.00     0.00     8.00     0.99    0.14    0.14    0.00   0.03  21.40
sdb               0.00     0.00 6725.00    0.00 26900.00     0.00     8.00     0.89    0.13    0.13    0.00   0.02  16.50
sdc               0.00     0.00 6972.00    0.00 27888.00     0.00     8.00     1.17    0.17    0.17    0.00   0.03  21.30
sdd               0.00     0.00 7177.00    0.00 28708.00     0.00     8.00     1.25    0.17    0.17    0.00   0.03  22.20
sde               0.00     0.00 6828.00    0.00 27312.00     0.00     8.00     1.14    0.17    0.17    0.00   0.03  20.60
sdf               0.00     0.00 6617.00    0.00 26468.00     0.00     8.00     1.11    0.17    0.17    0.00   0.03  20.60
sdg               0.00     0.00    0.00    0.00     0.00     0.00     0.00     0.00    0.00    0.00    0.00   0.00   0.00
sdh               0.00     0.00    0.00    0.00     0.00     0.00     0.00     0.00    0.00    0.00    0.00   0.00   0.00
md0               0.00     0.00 41318.00    0.00 165272.00     0.00     8.00     0.00    0.00    0.00    0.00   0.00   0.00

avg-cpu:  %user   %nice %system %iowait  %steal   %idle
           0.51    0.00    9.67   55.73    0.00   34.10

Device:         rrqm/s   wrqm/s     r/s     w/s    rkB/s    wkB/s avgrq-sz avgqu-sz   await r_await w_await  svctm  %util
sda               0.00     0.00 7025.00    0.00 28100.00     0.00     8.00     1.03    0.15    0.15    0.00   0.03  21.80
sdb               0.00     0.00 7003.00    0.00 28012.00     0.00     8.00     0.93    0.13    0.13    0.00   0.03  17.90
sdc               0.00     0.00 6889.00    0.00 27556.00     0.00     8.00     1.11    0.16    0.16    0.00   0.03  21.00
sdd               0.00     0.00 6604.00    0.00 26416.00     0.00     8.00     1.05    0.16    0.16    0.00   0.03  20.30
sde               0.00     0.00 6913.00    0.00 27652.00     0.00     8.00     1.20    0.17    0.17    0.00   0.03  21.60
sdf               0.00     0.00 6825.00    0.00 27300.00     0.00     8.00     1.10    0.16    0.16    0.00   0.03  20.00
sdg               0.00     0.00    0.00    0.00     0.00     0.00     0.00     0.00    0.00    0.00    0.00   0.00   0.00
sdh               0.00     0.00    0.00    0.00     0.00     0.00     0.00     0.00    0.00    0.00    0.00   0.00   0.00
md0               0.00     0.00 41268.00    0.00 165072.00     0.00     8.00     0.00    0.00    0.00    0.00   0.00   0.00

avg-cpu:  %user   %nice %system %iowait  %steal   %idle
           0.76    0.00   10.10   55.56    0.00   33.59

Device:         rrqm/s   wrqm/s     r/s     w/s    rkB/s    wkB/s avgrq-sz avgqu-sz   await r_await w_await  svctm  %util
sda               0.00     0.00 6567.00    0.00 26268.00     0.00     8.00     0.96    0.15    0.15    0.00   0.03  22.00
sdb               0.00     0.00 7337.00    0.00 29348.00     0.00     8.00     0.93    0.13    0.13    0.00   0.02  18.10
sdc               0.00     0.00 6776.00    0.00 27104.00     0.00     8.00     1.14    0.17    0.17    0.00   0.03  19.70
sdd               0.00     0.00 6558.00    0.00 26232.00     0.00     8.00     1.11    0.17    0.17    0.00   0.03  20.00
sde               0.00     0.00 6950.00    0.00 27800.00     0.00     8.00     1.10    0.16    0.16    0.00   0.03  20.40
sdf               0.00     0.00 6669.00    0.00 26676.00     0.00     8.00     1.18    0.18    0.18    0.00   0.03  21.10
sdg               0.00     0.00    8.00    6.00    32.00    48.00    11.43     0.00    0.14    0.25    0.00   0.14   0.20
sdh               0.00     0.00    0.00    0.00     0.00     0.00     0.00     0.00    0.00    0.00    0.00   0.00   0.00
md0               0.00     0.00 40844.00    0.00 163376.00     0.00     8.00     0.00    0.00    0.00    0.00   0.00   0.00

avg-cpu:  %user   %nice %system %iowait  %steal   %idle
           0.51    0.25   10.43   57.00    0.00   31.81

Device:         rrqm/s   wrqm/s     r/s     w/s    rkB/s    wkB/s avgrq-sz avgqu-sz   await r_await w_await  svctm  %util
sda               0.00     0.00 7196.00    0.00 28784.00     0.00     8.00     1.04    0.14    0.14    0.00   0.03  22.70
sdb               0.00     0.00 6879.00    0.00 27516.00     0.00     8.00     0.89    0.13    0.13    0.00   0.03  18.00
sdc               0.00     0.00 6546.00    0.00 26184.00     0.00     8.00     1.16    0.18    0.18    0.00   0.03  20.20
sdd               0.00     0.00 6457.00    0.00 25828.00     0.00     8.00     1.00    0.16    0.16    0.00   0.03  19.70
sde               0.00     0.00 6704.00    0.00 26816.00     0.00     8.00     1.17    0.17    0.17    0.00   0.03  20.80
sdf               0.00     0.00 6960.00    0.00 27840.00     0.00     8.00     1.14    0.16    0.16    0.00   0.03  21.80
sdg               0.00     0.00 1319.00    0.00  5276.00     0.00     8.00     0.15    0.12    0.12    0.00   0.12  15.30
sdh               0.00     0.00    0.00    0.00     0.00     0.00     0.00     0.00    0.00    0.00    0.00   0.00   0.00
md0               0.00     0.00 40747.00    0.00 162988.00     0.00     8.00     0.00    0.00    0.00    0.00   0.00   0.00

avg-cpu:  %user   %nice %system %iowait  %steal   %idle
           0.51    0.00   10.10   55.30    0.00   34.09

Device:         rrqm/s   wrqm/s     r/s     w/s    rkB/s    wkB/s avgrq-sz avgqu-sz   await r_await w_await  svctm  %util
sda               0.00     0.00 7096.00    0.00 28384.00     0.00     8.00     1.04    0.15    0.15    0.00   0.03  23.50
sdb               0.00     0.00 6770.00    0.00 27080.00     0.00     8.00     0.90    0.13    0.13    0.00   0.03  17.70
sdc               0.00     0.00 6624.00    0.00 26496.00     0.00     8.00     1.04    0.16    0.16    0.00   0.03  20.20
sdd               0.00     0.00 6813.00    0.00 27252.00     0.00     8.00     1.13    0.17    0.17    0.00   0.03  19.90
sde               0.00     0.00 6749.00    0.00 26996.00     0.00     8.00     1.08    0.16    0.16    0.00   0.03  21.00
sdf               0.00     0.00 6812.00    0.00 27248.00     0.00     8.00     1.12    0.16    0.16    0.00   0.03  20.40
sdg               0.00     0.00    0.00   19.00     0.00   220.00    23.16     0.00    0.16    0.00    0.16   0.05   0.10
sdh               0.00     0.00    0.00    0.00     0.00     0.00     0.00     0.00    0.00    0.00    0.00   0.00   0.00
md0               0.00     0.00 40860.00    0.00 163440.00     0.00     8.00     0.00    0.00    0.00    0.00   0.00   0.00

avg-cpu:  %user   %nice %system %iowait  %steal   %idle
           0.51    0.00   10.35   55.81    0.00   33.33

Device:         rrqm/s   wrqm/s     r/s     w/s    rkB/s    wkB/s avgrq-sz avgqu-sz   await r_await w_await  svctm  %util
sda               0.00     0.00 6929.00    0.00 27716.00     0.00     8.00     1.08    0.16    0.16    0.00   0.03  23.10
sdb               0.00     0.00 7188.00    0.00 28752.00     0.00     8.00     0.92    0.13    0.13    0.00   0.03  18.20
sdc               0.00     0.00 6525.00    0.00 26100.00     0.00     8.00     1.08    0.17    0.17    0.00   0.03  20.00
sdd               0.00     0.00 6653.00    0.00 26612.00     0.00     8.00     1.12    0.17    0.17    0.00   0.03  20.70
sde               0.00     0.00 6551.00    0.00 26204.00     0.00     8.00     1.06    0.16    0.16    0.00   0.03  19.70
sdf               0.00     0.00 6922.00    0.00 27688.00     0.00     8.00     1.22    0.18    0.18    0.00   0.03  22.30
sdg               0.00     0.00    0.00    0.00     0.00     0.00     0.00     0.00    0.00    0.00    0.00   0.00   0.00
sdh               0.00     0.00    0.00    0.00     0.00     0.00     0.00     0.00    0.00    0.00    0.00   0.00   0.00
md0               0.00     0.00 40769.00    0.00 163076.00     0.00     8.00     0.00    0.00    0.00    0.00   0.00   0.00

avg-cpu:  %user   %nice %system %iowait  %steal   %idle
           0.51    0.00   10.63   56.46    0.00   32.41

Device:         rrqm/s   wrqm/s     r/s     w/s    rkB/s    wkB/s avgrq-sz avgqu-sz   await r_await w_await  svctm  %util
sda               0.00     0.00 7038.00    0.00 28152.00     0.00     8.00     0.87    0.12    0.12    0.00   0.03  18.20
sdb               0.00     0.00 7346.00    0.00 29384.00     0.00     8.00     0.93    0.13    0.13    0.00   0.03  18.90
sdc               0.00     0.00 7111.00    0.00 28444.00     0.00     8.00     1.23    0.17    0.17    0.00   0.03  22.70
sdd               0.00     0.00 7195.00    0.00 28780.00     0.00     8.00     1.13    0.16    0.16    0.00   0.03  21.50
sde               0.00     0.00 7096.00    0.00 28384.00     0.00     8.00     1.24    0.17    0.17    0.00   0.03  22.00
sdf               0.00     0.00 7223.00    0.00 28892.00     0.00     8.00     1.17    0.16    0.16    0.00   0.03  22.70
sdg               0.00     0.00    0.00    0.00     0.00     0.00     0.00     0.00    0.00    0.00    0.00   0.00   0.00
sdh               0.00     0.00    0.00    0.00     0.00     0.00     0.00     0.00    0.00    0.00    0.00   0.00   0.00
md0               0.00     0.00 43012.00    0.00 172048.00     0.00     8.00     0.00    0.00    0.00    0.00   0.00   0.00

avg-cpu:  %user   %nice %system %iowait  %steal   %idle
           0.51    0.00   10.35   57.07    0.00   32.07

Device:         rrqm/s   wrqm/s     r/s     w/s    rkB/s    wkB/s avgrq-sz avgqu-sz   await r_await w_await  svctm  %util
sda               0.00     0.00 7185.00    0.00 28740.00     0.00     8.00     0.96    0.13    0.13    0.00   0.02  17.60
sdb               0.00     0.00 6983.00    0.00 27932.00     0.00     8.00     0.94    0.14    0.14    0.00   0.03  17.70
sdc               0.00     0.00 7305.00    0.00 29220.00     0.00     8.00     1.22    0.17    0.17    0.00   0.03  22.60
sdd               0.00     0.00 7154.00    0.00 28616.00     0.00     8.00     1.17    0.16    0.16    0.00   0.03  21.50
sde               0.00     0.00 7280.00    0.00 29120.00     0.00     8.00     1.23    0.17    0.17    0.00   0.03  22.40
sdf               0.00     0.00 7153.00    0.00 28612.00     0.00     8.00     1.13    0.16    0.16    0.00   0.03  21.70
sdg               0.00     0.00    0.00   15.00     0.00    80.00    10.67     0.00    0.00    0.00    0.00   0.00   0.00
sdh               0.00     0.00    0.00    0.00     0.00     0.00     0.00     0.00    0.00    0.00    0.00   0.00   0.00
md0               0.00     0.00 43059.00    0.00 172236.00     0.00     8.00     0.00    0.00    0.00    0.00   0.00   0.00

avg-cpu:  %user   %nice %system %iowait  %steal   %idle
           0.51    0.00   10.63   56.46    0.00   32.41

Device:         rrqm/s   wrqm/s     r/s     w/s    rkB/s    wkB/s avgrq-sz avgqu-sz   await r_await w_await  svctm  %util
sda               0.00     0.00 7050.00    0.00 28200.00     0.00     8.00     0.88    0.12    0.12    0.00   0.02  16.60
sdb               0.00     0.00 7306.00    0.00 29224.00     0.00     8.00     1.00    0.14    0.14    0.00   0.03  19.10
sdc               0.00     0.00 7162.00    0.00 28648.00     0.00     8.00     1.13    0.16    0.16    0.00   0.03  22.50
sdd               0.00     0.00 7467.00    0.00 29868.00     0.00     8.00     1.29    0.17    0.17    0.00   0.03  23.00
sde               0.00     0.00 7279.00    0.00 29116.00     0.00     8.00     1.22    0.17    0.17    0.00   0.03  21.80
sdf               0.00     0.00 6821.00    0.00 27284.00     0.00     8.00     1.18    0.17    0.17    0.00   0.03  22.10
sdg               0.00     0.00    0.00    0.00     0.00     0.00     0.00     0.00    0.00    0.00    0.00   0.00   0.00
sdh               0.00     0.00    0.00    0.00     0.00     0.00     0.00     0.00    0.00    0.00    0.00   0.00   0.00
md0               0.00     0.00 43086.00    0.00 172344.00     0.00     8.00     0.00    0.00    0.00    0.00   0.00   0.00

avg-cpu:  %user   %nice %system %iowait  %steal   %idle
           0.25    0.00   10.41   57.11    0.00   32.23

Device:         rrqm/s   wrqm/s     r/s     w/s    rkB/s    wkB/s avgrq-sz avgqu-sz   await r_await w_await  svctm  %util
sda               0.00     0.00 7290.00    0.00 29160.00     0.00     8.00     0.97    0.13    0.13    0.00   0.02  18.00
sdb               0.00     0.00 7128.00    0.00 28512.00     0.00     8.00     0.95    0.13    0.13    0.00   0.03  18.40
sdc               0.00     0.00 7259.00    0.00 29036.00     0.00     8.00     1.18    0.16    0.16    0.00   0.03  22.50
sdd               0.00     0.00 7115.00    0.00 28460.00     0.00     8.00     1.17    0.16    0.16    0.00   0.03  21.70
sde               0.00     0.00 7166.00    0.00 28664.00     0.00     8.00     1.22    0.17    0.17    0.00   0.03  22.60
sdf               0.00     0.00 7208.00    0.00 28832.00     0.00     8.00     1.18    0.16    0.16    0.00   0.03  21.60
sdg               0.00     0.00    0.00    0.00     0.00     0.00     0.00     0.00    0.00    0.00    0.00   0.00   0.00
sdh               0.00     0.00    0.00    0.00     0.00     0.00     0.00     0.00    0.00    0.00    0.00   0.00   0.00
md0               0.00     0.00 43164.00    0.00 172656.00     0.00     8.00     0.00    0.00    0.00    0.00   0.00   0.00

