Linux 4.17.2 (bench) 	08/03/2018 	_x86_64_	(4 CPU)

avg-cpu:  %user   %nice %system %iowait  %steal   %idle
          10.27    0.02    4.09    2.60    0.00   83.02

Device:         rrqm/s   wrqm/s     r/s     w/s    rkB/s    wkB/s avgrq-sz avgqu-sz   await r_await w_await  svctm  %util
sda              47.07     4.23 1667.39  102.26 20999.68  3128.98    27.27     1.04    0.59    0.26    5.92   0.06  10.79
sdb              46.92     4.19 1667.34  102.40 20989.15  3125.65    27.25     1.03    0.58    0.26    5.85   0.06  10.67
sdc              84.82     4.25 1627.34  101.95 20981.26  3128.10    27.88     1.45    0.84    0.45    7.12   0.08  14.13
sdd              78.26     4.22 1633.08  102.02 20966.21  3124.31    27.77     1.46    0.84    0.44    7.33   0.08  14.22
sde              80.28     4.27 1638.15  102.12 21025.88  3128.55    27.76     1.48    0.85    0.44    7.44   0.08  14.24
sdf              77.40     4.24 1640.29  102.06 21007.15  3125.42    27.70     1.53    0.88    0.44    7.90   0.08  14.27
sdg               0.00     3.17   26.37   73.30   324.22   392.01    14.37     0.44    4.41    0.20    5.93   0.08   0.78
sdh               0.00     0.13    0.02    0.23     2.20     5.05    56.82     0.00    1.15    0.65    1.19   0.21   0.01
md0               0.00     0.00 10295.16  479.12 143830.84 21417.43    30.67     0.00    0.00    0.00    0.00   0.00   0.00

avg-cpu:  %user   %nice %system %iowait  %steal   %idle
           1.75    0.00   11.25    4.75    0.00   82.25

Device:         rrqm/s   wrqm/s     r/s     w/s    rkB/s    wkB/s avgrq-sz avgqu-sz   await r_await w_await  svctm  %util
sda               0.00     0.00 5830.00    0.00 23320.00     0.00     8.00     0.77    0.13    0.13    0.00   0.03  17.20
sdb               0.00     0.00 5338.00    0.00 21352.00     0.00     8.00     0.64    0.12    0.12    0.00   0.03  16.30
sdc               0.00     0.00 5904.00    0.00 23616.00     0.00     8.00     0.82    0.14    0.14    0.00   0.03  19.50
sdd               0.00     0.00 6158.00    0.00 24632.00     0.00     8.00     0.89    0.14    0.14    0.00   0.04  21.80
sde               0.00     0.00 5237.00    0.00 20948.00     0.00     8.00     0.79    0.15    0.15    0.00   0.04  19.80
sdf               0.00     0.00 5793.00    0.00 23172.00     0.00     8.00     0.87    0.15    0.15    0.00   0.04  21.00
sdg               0.00     0.00    3.00    0.00   100.00     0.00    66.67     0.00    0.33    0.33    0.00   0.33   0.10
sdh               0.00     0.00    0.00    0.00     0.00     0.00     0.00     0.00    0.00    0.00    0.00   0.00   0.00
md0               0.00     0.00 34270.00    0.00 137080.00     0.00     8.00     0.00    0.00    0.00    0.00   0.00   0.00

avg-cpu:  %user   %nice %system %iowait  %steal   %idle
           1.02    0.00   10.71    5.10    0.00   83.16

Device:         rrqm/s   wrqm/s     r/s     w/s    rkB/s    wkB/s avgrq-sz avgqu-sz   await r_await w_await  svctm  %util
sda               0.00     0.00 5750.00    0.00 23000.00     0.00     8.00     0.72    0.13    0.13    0.00   0.03  17.40
sdb               0.00     0.00 5662.00    0.00 22648.00     0.00     8.00     0.76    0.13    0.13    0.00   0.03  18.10
sdc               0.00     0.00 6067.00    0.00 24268.00     0.00     8.00     0.93    0.15    0.15    0.00   0.03  21.20
sdd               0.00     0.00 5840.00    0.00 23360.00     0.00     8.00     0.87    0.15    0.15    0.00   0.04  21.20
sde               0.00     0.00 5672.00    0.00 22688.00     0.00     8.00     0.88    0.16    0.16    0.00   0.04  20.40
sdf               0.00     0.00 5612.00    0.00 22448.00     0.00     8.00     0.79    0.14    0.14    0.00   0.04  20.30
sdg               0.00     0.00    0.00    0.00     0.00     0.00     0.00     0.00    0.00    0.00    0.00   0.00   0.00
sdh               0.00     0.00    0.00    0.00     0.00     0.00     0.00     0.00    0.00    0.00    0.00   0.00   0.00
md0               0.00     0.00 34600.00    0.00 138400.00     0.00     8.00     0.00    0.00    0.00    0.00   0.00   0.00

avg-cpu:  %user   %nice %system %iowait  %steal   %idle
           1.26    0.00   11.56    4.52    0.00   82.66

Device:         rrqm/s   wrqm/s     r/s     w/s    rkB/s    wkB/s avgrq-sz avgqu-sz   await r_await w_await  svctm  %util
sda               0.00     0.00 6113.00    0.00 24452.00     0.00     8.00     0.75    0.12    0.12    0.00   0.03  17.30
sdb               0.00     0.00 6456.00    0.00 25824.00     0.00     8.00     0.78    0.12    0.12    0.00   0.03  18.40
sdc               0.00     0.00 5569.00    0.00 22276.00     0.00     8.00     0.89    0.16    0.16    0.00   0.04  20.90
sdd               0.00     0.00 6082.00    0.00 24328.00     0.00     8.00     0.88    0.15    0.15    0.00   0.04  22.30
sde               0.00     0.00 5810.00    0.00 23240.00     0.00     8.00     0.94    0.16    0.16    0.00   0.04  21.00
sdf               0.00     0.00 5991.00    0.00 23964.00     0.00     8.00     0.83    0.14    0.14    0.00   0.03  20.40
sdg               0.00     0.00    1.00    2.00    16.00    28.00    29.33     0.00    0.00    0.00    0.00   0.00   0.00
sdh               0.00     0.00    0.00    0.00     0.00     0.00     0.00     0.00    0.00    0.00    0.00   0.00   0.00
md0               0.00     0.00 36016.00    0.00 144064.00     0.00     8.00     0.00    0.00    0.00    0.00   0.00   0.00

avg-cpu:  %user   %nice %system %iowait  %steal   %idle
           1.01    0.50   11.84    5.29    0.00   81.36

Device:         rrqm/s   wrqm/s     r/s     w/s    rkB/s    wkB/s avgrq-sz avgqu-sz   await r_await w_await  svctm  %util
sda               0.00     0.00 6106.00    0.00 24424.00     0.00     8.00     0.83    0.14    0.14    0.00   0.03  18.80
sdb               0.00     0.00 5794.00    0.00 23176.00     0.00     8.00     0.67    0.12    0.12    0.00   0.03  15.70
sdc               0.00     0.00 6187.00    0.00 24748.00     0.00     8.00     0.97    0.16    0.16    0.00   0.04  21.80
sdd               0.00     0.00 6049.00    0.00 24196.00     0.00     8.00     0.86    0.14    0.14    0.00   0.03  20.80
sde               0.00     0.00 5673.00    0.00 22692.00     0.00     8.00     0.84    0.15    0.15    0.00   0.04  20.10
sdf               0.00     0.00 6071.00    0.00 24284.00     0.00     8.00     0.94    0.15    0.15    0.00   0.03  21.20
sdg               0.00     0.00   16.00    0.00   124.00     0.00    15.50     0.00    0.00    0.00    0.00   0.00   0.00
sdh               0.00     0.00    0.00    0.00     0.00     0.00     0.00     0.00    0.00    0.00    0.00   0.00   0.00
md0               0.00     0.00 35885.00    0.00 143540.00     0.00     8.00     0.00    0.00    0.00    0.00   0.00   0.00

avg-cpu:  %user   %nice %system %iowait  %steal   %idle
           1.51    0.00   11.08    4.53    0.00   82.87

Device:         rrqm/s   wrqm/s     r/s     w/s    rkB/s    wkB/s avgrq-sz avgqu-sz   await r_await w_await  svctm  %util
sda               0.00     0.00 5596.00    0.00 22384.00     0.00     8.00     0.67    0.12    0.12    0.00   0.03  16.30
sdb               0.00     0.00 5719.00    0.00 22876.00     0.00     8.00     0.77    0.13    0.13    0.00   0.03  16.90
sdc               0.00     0.00 6122.00    0.00 24488.00     0.00     8.00     0.89    0.15    0.15    0.00   0.03  20.60
sdd               0.00     0.00 6080.00    0.00 24320.00     0.00     8.00     0.93    0.15    0.15    0.00   0.04  22.30
sde               0.00     0.00 5923.00    0.00 23692.00     0.00     8.00     0.85    0.14    0.14    0.00   0.03  20.50
sdf               0.00     0.00 6481.00    0.00 25924.00     0.00     8.00     1.00    0.15    0.15    0.00   0.04  22.80
sdg               0.00     0.00    0.00    0.00     0.00     0.00     0.00     0.00    0.00    0.00    0.00   0.00   0.00
sdh               0.00     0.00    0.00    0.00     0.00     0.00     0.00     0.00    0.00    0.00    0.00   0.00   0.00
md0               0.00     0.00 35918.00    0.00 143672.00     0.00     8.00     0.00    0.00    0.00    0.00   0.00   0.00

avg-cpu:  %user   %nice %system %iowait  %steal   %idle
           1.27    0.00   11.65    6.08    0.00   81.01

Device:         rrqm/s   wrqm/s     r/s     w/s    rkB/s    wkB/s avgrq-sz avgqu-sz   await r_await w_await  svctm  %util
sda               0.00     0.00 6161.00    0.00 24644.00     0.00     8.00     0.73    0.12    0.12    0.00   0.03  17.60
sdb               0.00     0.00 5863.00    0.00 23452.00     0.00     8.00     0.72    0.12    0.12    0.00   0.03  17.60
sdc               0.00     0.00 5795.00    0.00 23180.00     0.00     8.00     0.85    0.15    0.15    0.00   0.03  19.50
sdd               0.00     0.00 6096.00    0.00 24384.00     0.00     8.00     0.85    0.14    0.14    0.00   0.03  20.50
sde               0.00     0.00 6107.00    0.00 24428.00     0.00     8.00     1.01    0.16    0.16    0.00   0.03  21.00
sdf               0.00     0.00 5856.00    0.00 23424.00     0.00     8.00     0.96    0.16    0.16    0.00   0.03  19.90
sdg               0.00     0.00    2.00 1420.00     8.00  7368.00    10.37     8.75    6.16    1.50    6.16   0.05   6.50
sdh               0.00     0.00    0.00    0.00     0.00     0.00     0.00     0.00    0.00    0.00    0.00   0.00   0.00
md0               0.00     0.00 35880.00    0.00 143520.00     0.00     8.00     0.00    0.00    0.00    0.00   0.00   0.00

avg-cpu:  %user   %nice %system %iowait  %steal   %idle
           1.27    0.00   10.66    4.57    0.00   83.50

Device:         rrqm/s   wrqm/s     r/s     w/s    rkB/s    wkB/s avgrq-sz avgqu-sz   await r_await w_await  svctm  %util
sda               0.00     0.00 5593.00    0.00 22372.00     0.00     8.00     0.71    0.13    0.13    0.00   0.03  16.00
sdb               0.00     0.00 6100.00    0.00 24400.00     0.00     8.00     0.81    0.13    0.13    0.00   0.03  18.80
sdc               0.00     0.00 6463.00    0.00 25852.00     0.00     8.00     0.83    0.13    0.13    0.00   0.03  20.20
sdd               0.00     0.00 5732.00    0.00 22928.00     0.00     8.00     0.90    0.16    0.16    0.00   0.03  19.30
sde               0.00     0.00 6289.00    0.00 25156.00     0.00     8.00     0.99    0.16    0.16    0.00   0.04  22.10
sdf               0.00     0.00 5665.00    0.00 22660.00     0.00     8.00     0.80    0.14    0.14    0.00   0.03  18.20
sdg               0.00     0.00    0.00    0.00     0.00     0.00     0.00     0.00    0.00    0.00    0.00   0.00   0.00
sdh               0.00     0.00    0.00    0.00     0.00     0.00     0.00     0.00    0.00    0.00    0.00   0.00   0.00
md0               0.00     0.00 35844.00    0.00 143376.00     0.00     8.00     0.00    0.00    0.00    0.00   0.00   0.00

avg-cpu:  %user   %nice %system %iowait  %steal   %idle
           1.25    0.00   12.25    4.75    0.00   81.75

Device:         rrqm/s   wrqm/s     r/s     w/s    rkB/s    wkB/s avgrq-sz avgqu-sz   await r_await w_await  svctm  %util
sda               0.00     0.00 6659.00    0.00 26636.00     0.00     8.00     0.84    0.13    0.13    0.00   0.03  19.90
sdb               0.00     0.00 5471.00    0.00 21884.00     0.00     8.00     0.77    0.14    0.14    0.00   0.03  17.20
sdc               0.00     0.00 6162.00    0.00 24648.00     0.00     8.00     0.96    0.15    0.15    0.00   0.04  22.70
sdd               0.00     0.00 5985.00    0.00 23940.00     0.00     8.00     0.89    0.15    0.15    0.00   0.04  21.00
sde               0.00     0.00 5787.00    0.00 23148.00     0.00     8.00     0.79    0.14    0.14    0.00   0.03  19.70
sdf               0.00     0.00 5941.00    0.00 23764.00     0.00     8.00     0.84    0.14    0.14    0.00   0.03  20.10
sdg               0.00     0.00    0.00    0.00     0.00     0.00     0.00     0.00    0.00    0.00    0.00   0.00   0.00
sdh               0.00     0.00    0.00    0.00     0.00     0.00     0.00     0.00    0.00    0.00    0.00   0.00   0.00
md0               0.00     0.00 36005.00    0.00 144020.00     0.00     8.00     0.00    0.00    0.00    0.00   0.00   0.00

avg-cpu:  %user   %nice %system %iowait  %steal   %idle
           1.26    0.00   11.34    5.04    0.00   82.37

Device:         rrqm/s   wrqm/s     r/s     w/s    rkB/s    wkB/s avgrq-sz avgqu-sz   await r_await w_await  svctm  %util
sda               0.00     0.00 5944.00    0.00 23776.00     0.00     8.00     0.70    0.12    0.12    0.00   0.03  16.10
sdb               0.00     0.00 6226.00    0.00 24904.00     0.00     8.00     0.80    0.13    0.13    0.00   0.03  18.70
sdc               0.00     0.00 6270.00    0.00 25080.00     0.00     8.00     0.90    0.14    0.14    0.00   0.03  19.90
sdd               0.00     0.00 5530.00    0.00 22120.00     0.00     8.00     0.80    0.14    0.14    0.00   0.03  18.30
sde               0.00     0.00 6329.00    0.00 25316.00     0.00     8.00     0.97    0.15    0.15    0.00   0.03  21.80
sdf               0.00     0.00 5783.00    0.00 23132.00     0.00     8.00     0.85    0.15    0.15    0.00   0.04  20.40
sdg               0.00     0.00    0.00    0.00     0.00     0.00     0.00     0.00    0.00    0.00    0.00   0.00   0.00
sdh               0.00     0.00    0.00    0.00     0.00     0.00     0.00     0.00    0.00    0.00    0.00   0.00   0.00
md0               0.00     0.00 36082.00    0.00 144328.00     0.00     8.00     0.00    0.00    0.00    0.00   0.00   0.00

avg-cpu:  %user   %nice %system %iowait  %steal   %idle
           1.51    0.00   11.34    4.79    0.00   82.37

Device:         rrqm/s   wrqm/s     r/s     w/s    rkB/s    wkB/s avgrq-sz avgqu-sz   await r_await w_await  svctm  %util
sda               0.00     0.00 6062.00    0.00 24248.00     0.00     8.00     0.77    0.13    0.13    0.00   0.03  17.30
sdb               0.00     0.00 6177.00    0.00 24708.00     0.00     8.00     0.74    0.12    0.12    0.00   0.03  17.10
sdc               0.00     0.00 5697.00    0.00 22788.00     0.00     8.00     0.90    0.16    0.16    0.00   0.04  21.30
sdd               0.00     0.00 5990.00    0.00 23960.00     0.00     8.00     0.86    0.14    0.14    0.00   0.03  20.30
sde               0.00     0.00 5815.00    0.00 23260.00     0.00     8.00     0.88    0.15    0.15    0.00   0.03  19.60
sdf               0.00     0.00 6208.00    0.00 24832.00     0.00     8.00     0.88    0.14    0.14    0.00   0.03  20.10
sdg               0.00     0.00    0.00    0.00     0.00     0.00     0.00     0.00    0.00    0.00    0.00   0.00   0.00
sdh               0.00     0.00    0.00    0.00     0.00     0.00     0.00     0.00    0.00    0.00    0.00   0.00   0.00
md0               0.00     0.00 35945.00    0.00 143780.00     0.00     8.00     0.00    0.00    0.00    0.00   0.00   0.00

avg-cpu:  %user   %nice %system %iowait  %steal   %idle
           1.01    0.00   11.87    4.80    0.00   82.32

Device:         rrqm/s   wrqm/s     r/s     w/s    rkB/s    wkB/s avgrq-sz avgqu-sz   await r_await w_await  svctm  %util
sda               0.00     0.00 6464.00    0.00 25856.00     0.00     8.00     0.85    0.13    0.13    0.00   0.03  19.50
sdb               0.00     0.00 6624.00    0.00 26496.00     0.00     8.00     0.86    0.13    0.13    0.00   0.03  19.50
sdc               0.00     0.00 5886.00    0.00 23544.00     0.00     8.00     0.89    0.15    0.15    0.00   0.03  20.30
sdd               0.00     0.00 5370.00    0.00 21480.00     0.00     8.00     0.77    0.14    0.14    0.00   0.04  19.40
sde               0.00     0.00 5731.00    0.00 22924.00     0.00     8.00     0.89    0.16    0.16    0.00   0.03  19.50
sdf               0.00     0.00 6124.00    0.00 24496.00     0.00     8.00     0.94    0.15    0.15    0.00   0.04  22.80
sdg               0.00     1.00    0.00    2.00     0.00    36.00    36.00     0.00    0.00    0.00    0.00   0.00   0.00
sdh               0.00     0.00    0.00    0.00     0.00     0.00     0.00     0.00    0.00    0.00    0.00   0.00   0.00
md0               0.00     0.00 36200.00    0.00 144800.00     0.00     8.00     0.00    0.00    0.00    0.00   0.00   0.00

avg-cpu:  %user   %nice %system %iowait  %steal   %idle
           1.50    0.00   11.75    4.75    0.00   82.00

Device:         rrqm/s   wrqm/s     r/s     w/s    rkB/s    wkB/s avgrq-sz avgqu-sz   await r_await w_await  svctm  %util
sda               0.00     0.00 5545.00    0.00 22180.00     0.00     8.00     0.68    0.12    0.12    0.00   0.03  16.10
sdb               0.00     0.00 5936.00    0.00 23744.00     0.00     8.00     0.81    0.14    0.14    0.00   0.03  17.60
sdc               0.00     0.00 5852.00    0.00 23408.00     0.00     8.00     0.86    0.15    0.15    0.00   0.03  19.60
sdd               0.00     0.00 5757.00    0.00 23028.00     0.00     8.00     0.88    0.15    0.15    0.00   0.04  21.30
sde               0.00     0.00 6474.00    0.00 25896.00     0.00     8.00     0.89    0.14    0.14    0.00   0.03  21.30
sdf               0.00     0.00 6281.00    0.00 25124.00     0.00     8.00     0.93    0.15    0.15    0.00   0.03  21.00
sdg               0.00     0.00    0.00    0.00     0.00     0.00     0.00     0.00    0.00    0.00    0.00   0.00   0.00
sdh               0.00     0.00    0.00    0.00     0.00     0.00     0.00     0.00    0.00    0.00    0.00   0.00   0.00
md0               0.00     0.00 35846.00    0.00 143384.00     0.00     8.00     0.00    0.00    0.00    0.00   0.00   0.00

avg-cpu:  %user   %nice %system %iowait  %steal   %idle
           1.26    0.00   11.81    4.77    0.00   82.16

Device:         rrqm/s   wrqm/s     r/s     w/s    rkB/s    wkB/s avgrq-sz avgqu-sz   await r_await w_await  svctm  %util
sda               0.00     0.00 6002.00    0.00 24008.00     0.00     8.00     0.76    0.13    0.13    0.00   0.03  17.40
sdb               0.00     0.00 6019.00    0.00 24076.00     0.00     8.00     0.72    0.12    0.12    0.00   0.03  16.40
sdc               0.00     0.00 6256.00    0.00 25024.00     0.00     8.00     0.92    0.15    0.15    0.00   0.03  21.50
sdd               0.00     0.00 5445.00    0.00 21780.00     0.00     8.00     0.74    0.14    0.14    0.00   0.03  18.50
sde               0.00     0.00 6221.00    0.00 24884.00     0.00     8.00     1.01    0.16    0.16    0.00   0.04  22.40
sdf               0.00     0.00 5858.00    0.00 23432.00     0.00     8.00     0.83    0.14    0.14    0.00   0.03  20.50
sdg               0.00     0.00    0.00    0.00     0.00     0.00     0.00     0.00    0.00    0.00    0.00   0.00   0.00
sdh               0.00     0.00    0.00    0.00     0.00     0.00     0.00     0.00    0.00    0.00    0.00   0.00   0.00
md0               0.00     0.00 35805.00    0.00 143220.00     0.00     8.00     0.00    0.00    0.00    0.00   0.00   0.00

avg-cpu:  %user   %nice %system %iowait  %steal   %idle
           1.27    0.00   11.17    5.08    0.00   82.49

Device:         rrqm/s   wrqm/s     r/s     w/s    rkB/s    wkB/s avgrq-sz avgqu-sz   await r_await w_await  svctm  %util
sda               0.00     0.00 6213.00    0.00 24852.00     0.00     8.00     0.85    0.14    0.14    0.00   0.03  18.30
sdb               0.00     0.00 5759.00    0.00 23036.00     0.00     8.00     0.69    0.12    0.12    0.00   0.03  16.70
sdc               0.00     0.00 5996.00    0.00 23984.00     0.00     8.00     0.89    0.15    0.15    0.00   0.03  20.50
sdd               0.00     0.00 5866.00    0.00 23464.00     0.00     8.00     0.92    0.16    0.16    0.00   0.03  20.10
sde               0.00     0.00 5919.00    0.00 23676.00     0.00     8.00     0.88    0.15    0.15    0.00   0.03  20.30
sdf               0.00     0.00 6139.00    0.00 24556.00     0.00     8.00     0.92    0.15    0.15    0.00   0.03  20.40
sdg               0.00     0.00    4.00    0.00    16.00     0.00     8.00     0.00    0.25    0.25    0.00   0.25   0.10
sdh               0.00     0.00    0.00    0.00     0.00     0.00     0.00     0.00    0.00    0.00    0.00   0.00   0.00
md0               0.00     0.00 35889.00    0.00 143556.00     0.00     8.00     0.00    0.00    0.00    0.00   0.00   0.00

avg-cpu:  %user   %nice %system %iowait  %steal   %idle
           1.52    0.00   10.63    5.06    0.00   82.78

Device:         rrqm/s   wrqm/s     r/s     w/s    rkB/s    wkB/s avgrq-sz avgqu-sz   await r_await w_await  svctm  %util
sda               0.00     0.00 6434.00    0.00 25736.00     0.00     8.00     0.86    0.13    0.13    0.00   0.03  18.90
sdb               0.00     0.00 5927.00    0.00 23708.00     0.00     8.00     0.78    0.13    0.13    0.00   0.03  17.20
sdc               0.00     0.00 6479.00    0.00 25916.00     0.00     8.00     0.91    0.14    0.14    0.00   0.03  20.60
sdd               0.00     0.00 5884.00    0.00 23536.00     0.00     8.00     0.80    0.14    0.14    0.00   0.03  19.40
sde               0.00     0.00 5685.00    0.00 22740.00     0.00     8.00     0.95    0.17    0.17    0.00   0.04  20.80
sdf               0.00     0.00 5748.00    0.00 22992.00     0.00     8.00     0.87    0.15    0.15    0.00   0.03  19.40
sdg               0.00     0.00    0.00    0.00     0.00     0.00     0.00     0.00    0.00    0.00    0.00   0.00   0.00
sdh               0.00     0.00    0.00    0.00     0.00     0.00     0.00     0.00    0.00    0.00    0.00   0.00   0.00
md0               0.00     0.00 36158.00    0.00 144632.00     0.00     8.00     0.00    0.00    0.00    0.00   0.00   0.00

avg-cpu:  %user   %nice %system %iowait  %steal   %idle
           1.03    0.00   10.05    4.64    0.00   84.28

Device:         rrqm/s   wrqm/s     r/s     w/s    rkB/s    wkB/s avgrq-sz avgqu-sz   await r_await w_await  svctm  %util
sda               0.00     0.00 5694.00    0.00 22776.00     0.00     8.00     0.74    0.13    0.13    0.00   0.03  18.20
sdb               0.00     0.00 5981.00    0.00 23924.00     0.00     8.00     0.73    0.12    0.12    0.00   0.03  17.60
sdc               0.00     0.00 6047.00    0.00 24188.00     0.00     8.00     0.96    0.16    0.16    0.00   0.04  22.20
sdd               0.00     0.00 5986.00    0.00 23944.00     0.00     8.00     0.88    0.15    0.15    0.00   0.03  20.80
sde               0.00     0.00 5572.00    0.00 22288.00     0.00     8.00     0.80    0.14    0.14    0.00   0.03  18.90
sdf               0.00     0.00 6434.00    0.00 25736.00     0.00     8.00     1.01    0.16    0.16    0.00   0.04  23.10
sdg               0.00     0.00    0.00    0.00     0.00     0.00     0.00     0.00    0.00    0.00    0.00   0.00   0.00
sdh               0.00     0.00    0.00    0.00     0.00     0.00     0.00     0.00    0.00    0.00    0.00   0.00   0.00
md0               0.00     0.00 35707.00    0.00 142828.00     0.00     8.00     0.00    0.00    0.00    0.00   0.00   0.00

avg-cpu:  %user   %nice %system %iowait  %steal   %idle
           1.00    0.00   12.03    4.76    0.00   82.21

Device:         rrqm/s   wrqm/s     r/s     w/s    rkB/s    wkB/s avgrq-sz avgqu-sz   await r_await w_await  svctm  %util
sda               0.00     0.00 6065.00    0.00 24260.00     0.00     8.00     0.72    0.12    0.12    0.00   0.03  18.10
sdb               0.00     0.00 5791.00    0.00 23164.00     0.00     8.00     0.77    0.13    0.13    0.00   0.03  18.60
sdc               0.00     0.00 6058.00    0.00 24232.00     0.00     8.00     0.89    0.15    0.15    0.00   0.04  21.60
sdd               0.00     0.00 6221.00    0.00 24884.00     0.00     8.00     0.89    0.14    0.14    0.00   0.03  20.70
sde               0.00     0.00 5896.00    0.00 23584.00     0.00     8.00     0.96    0.16    0.16    0.00   0.04  22.60
sdf               0.00     0.00 5882.00    0.00 23528.00     0.00     8.00     0.88    0.15    0.15    0.00   0.04  21.00
sdg               0.00     0.00    0.00    0.00     0.00     0.00     0.00     0.00    0.00    0.00    0.00   0.00   0.00
sdh               0.00     0.00    0.00    0.00     0.00     0.00     0.00     0.00    0.00    0.00    0.00   0.00   0.00
md0               0.00     0.00 35912.00    0.00 143648.00     0.00     8.00     0.00    0.00    0.00    0.00   0.00   0.00

avg-cpu:  %user   %nice %system %iowait  %steal   %idle
           1.50    0.00   11.75    4.75    0.00   82.00

Device:         rrqm/s   wrqm/s     r/s     w/s    rkB/s    wkB/s avgrq-sz avgqu-sz   await r_await w_await  svctm  %util
sda               0.00     0.00 6208.00    0.00 24832.00     0.00     8.00     0.79    0.13    0.13    0.00   0.03  17.30
sdb               0.00     0.00 6163.00    0.00 24652.00     0.00     8.00     0.75    0.12    0.12    0.00   0.03  17.50
sdc               0.00     0.00 5604.00    0.00 22416.00     0.00     8.00     0.86    0.15    0.15    0.00   0.04  20.40
sdd               0.00     0.00 5547.00    0.00 22188.00     0.00     8.00     0.85    0.15    0.15    0.00   0.03  19.10
sde               0.00     0.00 6076.00    0.00 24304.00     0.00     8.00     0.87    0.14    0.14    0.00   0.03  20.50
sdf               0.00     0.00 6398.00    0.00 25592.00     0.00     8.00     0.92    0.14    0.14    0.00   0.03  20.60
sdg               0.00     0.00    0.00    0.00     0.00     0.00     0.00     0.00    0.00    0.00    0.00   0.00   0.00
sdh               0.00     0.00    0.00    0.00     0.00     0.00     0.00     0.00    0.00    0.00    0.00   0.00   0.00
md0               0.00     0.00 36006.00    0.00 144024.00     0.00     8.00     0.00    0.00    0.00    0.00   0.00   0.00

avg-cpu:  %user   %nice %system %iowait  %steal   %idle
           1.25    0.00   12.72    4.99    0.00   81.05

Device:         rrqm/s   wrqm/s     r/s     w/s    rkB/s    wkB/s avgrq-sz avgqu-sz   await r_await w_await  svctm  %util
sda               0.00     0.00 5723.00    0.00 22892.00     0.00     8.00     0.66    0.12    0.12    0.00   0.03  16.00
sdb               0.00     0.00 5673.00    0.00 22692.00     0.00     8.00     0.75    0.13    0.13    0.00   0.03  16.70
sdc               0.00     0.00 6252.00    0.00 25008.00     0.00     8.00     0.93    0.15    0.15    0.00   0.03  21.50
sdd               0.00     0.00 5837.00    0.00 23348.00     0.00     8.00     0.95    0.16    0.16    0.00   0.04  22.60
sde               0.00     0.00 6019.00    0.00 24076.00     0.00     8.00     0.77    0.13    0.13    0.00   0.03  19.10
sdf               0.00     0.00 6316.00    0.00 25264.00     0.00     8.00     0.92    0.15    0.15    0.00   0.03  21.70
sdg               0.00     0.00    0.00    0.00     0.00     0.00     0.00     0.00    0.00    0.00    0.00   0.00   0.00
sdh               0.00     0.00    0.00    0.00     0.00     0.00     0.00     0.00    0.00    0.00    0.00   0.00   0.00
md0               0.00     0.00 35817.00    0.00 143268.00     0.00     8.00     0.00    0.00    0.00    0.00   0.00   0.00

avg-cpu:  %user   %nice %system %iowait  %steal   %idle
           1.26    0.00   11.81    4.52    0.00   82.41

Device:         rrqm/s   wrqm/s     r/s     w/s    rkB/s    wkB/s avgrq-sz avgqu-sz   await r_await w_await  svctm  %util
sda               0.00     0.00 6109.00    0.00 24436.00     0.00     8.00     0.78    0.13    0.13    0.00   0.03  18.50
sdb               0.00     0.00 5806.00    0.00 23224.00     0.00     8.00     0.78    0.13    0.13    0.00   0.03  18.30
sdc               0.00     0.00 5954.00    0.00 23816.00     0.00     8.00     0.89    0.15    0.15    0.00   0.03  20.10
sdd               0.00     0.00 5959.00    0.00 23836.00     0.00     8.00     0.92    0.15    0.15    0.00   0.04  21.50
sde               0.00     0.00 6149.00    0.00 24596.00     0.00     8.00     0.88    0.14    0.14    0.00   0.03  20.30
sdf               0.00     0.00 5906.00    0.00 23624.00     0.00     8.00     0.87    0.15    0.15    0.00   0.04  20.70
sdg               0.00     0.00    0.00    0.00     0.00     0.00     0.00     0.00    0.00    0.00    0.00   0.00   0.00
sdh               0.00     0.00    0.00    0.00     0.00     0.00     0.00     0.00    0.00    0.00    0.00   0.00   0.00
md0               0.00     0.00 35876.00    0.00 143504.00     0.00     8.00     0.00    0.00    0.00    0.00   0.00   0.00

