type: aio
filename: /mnt/data/prefetch/prefetch-16384
I/O mode: BUFFERED
workload: SEQUENTIAL
duration: 20
queue size: 8
test mode: WARMUP
file size: 17179869184
file pages: 4194304
start probability: 0.010
continue probability: 0.100
processed 78328 requests 78321.34 r/s elapsed 1.00
elapsed 1.00 : warmup interval speed 78321.34 previous 0.00
processed 157840 requests 78916.25 r/s elapsed 2.00
elapsed 2.00 : warmup interval speed 79511.20 previous 78321.34
within 5% of the preceding interval, warmup terminating
TOTAL: 157840 requests 78916.25 r/s elapsed 2.00
