type: aio
filename: /mnt/data/prefetch/prefetch-16384
I/O mode: DIRECT
workload: SEQUENTIAL
duration: 20
queue size: 1024
test mode: TEST
file size: 17179869184
file pages: 4194304
start probability: 0.100
continue probability: 0.900
processed 516096 requests 516040.27 r/s elapsed 1.00
processed 1032192 requests 515777.25 r/s elapsed 2.00
processed 1547264 requests 515754.67 r/s elapsed 3.00
processed 2062336 requests 515565.44 r/s elapsed 4.00
processed 2580480 requests 515988.06 r/s elapsed 5.00
processed 3099648 requests 516472.08 r/s elapsed 6.00
processed 3619840 requests 517002.57 r/s elapsed 7.00
processed 4139008 requests 517294.01 r/s elapsed 8.00
processed 4659200 requests 517599.23 r/s elapsed 9.00
processed 5177344 requests 517677.71 r/s elapsed 10.00
processed 5696512 requests 517863.22 r/s elapsed 11.00
processed 6216704 requests 518040.32 r/s elapsed 12.00
processed 6736896 requests 518160.15 r/s elapsed 13.00
processed 7257088 requests 518328.15 r/s elapsed 14.00
processed 7777280 requests 518462.94 r/s elapsed 15.00
processed 8298496 requests 518600.77 r/s elapsed 16.00
processed 8818688 requests 518720.39 r/s elapsed 17.00
processed 9337856 requests 518765.66 r/s elapsed 18.00
processed 9857024 requests 518762.48 r/s elapsed 19.00
processed 10378240 requests 518888.03 r/s elapsed 20.00
TOTAL: 10378240 requests 518888.03 r/s elapsed 20.00
