type: aio
filename: /mnt/data/prefetch/prefetch-16384
I/O mode: BUFFERED
workload: RANDOM
duration: 20
queue size: 128
test mode: WARMUP
file size: 17179869184
file pages: 4194304
processed 70912 requests 70879.18 r/s elapsed 1.00
elapsed 1.00 : warmup interval speed 70879.18 previous 0.00
processed 142080 requests 70982.72 r/s elapsed 2.00
elapsed 2.00 : warmup interval speed 71086.18 previous 70879.18
within 5% of the preceding interval, warmup terminating
TOTAL: 142080 requests 70982.72 r/s elapsed 2.00
