type: aio
filename: /mnt/data/prefetch/prefetch-16384
I/O mode: DIRECT
workload: SEQUENTIAL
duration: 20
queue size: 1024
test mode: TEST
file size: 17179869184
file pages: 4194304
start probability: 0.100
continue probability: 0.500
processed 374784 requests 374596.33 r/s elapsed 1.00
processed 749568 requests 374467.20 r/s elapsed 2.00
processed 1125376 requests 374797.88 r/s elapsed 3.00
processed 1499136 requests 374636.67 r/s elapsed 4.00
processed 1873920 requests 374653.55 r/s elapsed 5.00
processed 2249728 requests 374840.15 r/s elapsed 6.00
processed 2625536 requests 374986.74 r/s elapsed 7.00
processed 3001344 requests 375116.70 r/s elapsed 8.00
processed 3376128 requests 375084.57 r/s elapsed 9.00
processed 3749888 requests 374979.01 r/s elapsed 10.00
processed 4124672 requests 374922.63 r/s elapsed 11.00
processed 4500480 requests 374996.06 r/s elapsed 12.00
processed 4875264 requests 374953.71 r/s elapsed 13.00
processed 5249024 requests 374900.72 r/s elapsed 14.00
processed 5623808 requests 374870.03 r/s elapsed 15.00
processed 5998592 requests 374879.95 r/s elapsed 16.00
processed 6373376 requests 374883.43 r/s elapsed 17.00
processed 6749184 requests 374930.34 r/s elapsed 18.00
processed 7122944 requests 374856.24 r/s elapsed 19.00
processed 7497728 requests 374881.68 r/s elapsed 20.00
TOTAL: 7497728 requests 374881.68 r/s elapsed 20.00
