type: aio
filename: /mnt/data/prefetch/prefetch-16384
I/O mode: DIRECT
workload: SEQUENTIAL
duration: 20
queue size: 1
test mode: TEST
file size: 17179869184
file pages: 4194304
start probability: 0.100
continue probability: 0.500
processed 92067 requests 92066.82 r/s elapsed 1.00
processed 183124 requests 91561.86 r/s elapsed 2.00
processed 272664 requests 90887.88 r/s elapsed 3.00
processed 362809 requests 90701.91 r/s elapsed 4.00
processed 452501 requests 90500.18 r/s elapsed 5.00
processed 541818 requests 90302.91 r/s elapsed 6.00
processed 630985 requests 90140.62 r/s elapsed 7.00
processed 719956 requests 89994.40 r/s elapsed 8.00
processed 809455 requests 89939.38 r/s elapsed 9.00
processed 901738 requests 90173.75 r/s elapsed 10.00
processed 995760 requests 90523.62 r/s elapsed 11.00
processed 1089796 requests 90816.31 r/s elapsed 12.00
processed 1183859 requests 91066.06 r/s elapsed 13.00
processed 1278076 requests 91291.03 r/s elapsed 14.00
processed 1372301 requests 91486.72 r/s elapsed 15.00
processed 1466474 requests 91654.61 r/s elapsed 16.00
processed 1560380 requests 91787.03 r/s elapsed 17.00
processed 1654317 requests 91906.47 r/s elapsed 18.00
processed 1748028 requests 92001.45 r/s elapsed 19.00
processed 1841768 requests 92088.36 r/s elapsed 20.00
TOTAL: 1841768 requests 92088.36 r/s elapsed 20.00
