type: aio
filename: /mnt/data/prefetch/prefetch-16384
I/O mode: DIRECT
workload: SEQUENTIAL
duration: 20
queue size: 128
test mode: TEST
file size: 17179869184
file pages: 4194304
start probability: 0.010
continue probability: 0.900
processed 449280 requests 449236.87 r/s elapsed 1.00
processed 909312 requests 454616.90 r/s elapsed 2.00
processed 1369472 requests 456454.91 r/s elapsed 3.00
processed 1831680 requests 457895.04 r/s elapsed 4.00
processed 2291584 requests 458295.90 r/s elapsed 5.00
processed 2753408 requests 458901.10 r/s elapsed 6.00
processed 3216896 requests 459552.76 r/s elapsed 7.00
processed 3680896 requests 460102.40 r/s elapsed 8.00
processed 4143360 requests 460371.75 r/s elapsed 9.00
processed 4606848 requests 460681.76 r/s elapsed 10.00
processed 5071744 requests 461063.86 r/s elapsed 11.00
processed 5536640 requests 461376.21 r/s elapsed 12.00
processed 6003584 requests 461805.38 r/s elapsed 13.00
processed 6469888 requests 462130.50 r/s elapsed 14.00
processed 6936576 requests 462433.44 r/s elapsed 15.00
processed 7403520 requests 462718.67 r/s elapsed 16.00
processed 7873024 requests 463119.03 r/s elapsed 17.00
processed 8340992 requests 463381.96 r/s elapsed 18.00
processed 8807168 requests 463528.62 r/s elapsed 19.00
processed 9275776 requests 463787.08 r/s elapsed 20.00
TOTAL: 9275776 requests 463787.08 r/s elapsed 20.00
