type: aio
filename: /mnt/data/prefetch/prefetch-16384
I/O mode: BUFFERED
workload: SEQUENTIAL
duration: 20
queue size: 8
test mode: TEST
file size: 17179869184
file pages: 4194304
start probability: 0.100
continue probability: 0.900
processed 470664 requests 470658.35 r/s elapsed 1.00
processed 684384 requests 342190.80 r/s elapsed 2.00
processed 897504 requests 299161.02 r/s elapsed 3.00
processed 1110728 requests 277681.38 r/s elapsed 4.00
processed 1323632 requests 264725.61 r/s elapsed 5.00
processed 1535944 requests 255988.79 r/s elapsed 6.00
processed 1748800 requests 249826.00 r/s elapsed 7.00
processed 1962072 requests 245256.15 r/s elapsed 8.00
processed 2173536 requests 241503.84 r/s elapsed 9.00
processed 2491352 requests 249135.08 r/s elapsed 10.00
processed 3099288 requests 281753.40 r/s elapsed 11.00
processed 3668432 requests 305701.70 r/s elapsed 12.00
processed 4236208 requests 325862.15 r/s elapsed 13.00
processed 4831688 requests 345120.37 r/s elapsed 14.00
processed 5521648 requests 368109.60 r/s elapsed 15.00
processed 6200216 requests 387513.43 r/s elapsed 16.00
processed 6877112 requests 404535.83 r/s elapsed 17.00
processed 7585320 requests 421406.62 r/s elapsed 18.00
processed 8301344 requests 436912.77 r/s elapsed 19.00
processed 9018296 requests 450914.69 r/s elapsed 20.00
TOTAL: 9018296 requests 450914.69 r/s elapsed 20.00
