type: aio
filename: /mnt/data/prefetch/prefetch-16384
I/O mode: BUFFERED
workload: SEQUENTIAL
duration: 20
queue size: 1
test mode: WARMUP
file size: 17179869184
file pages: 4194304
start probability: 0.010
continue probability: 0.100
processed 74045 requests 74044.70 r/s elapsed 1.00
elapsed 1.00 : warmup interval speed 74044.70 previous 0.00
processed 149859 requests 74929.01 r/s elapsed 2.00
elapsed 2.00 : warmup interval speed 75813.32 previous 74044.70
within 5% of the preceding interval, warmup terminating
TOTAL: 149859 requests 74929.01 r/s elapsed 2.00
