type: aio
filename: /mnt/data/prefetch/prefetch-16384
I/O mode: BUFFERED
workload: SEQUENTIAL
duration: 20
queue size: 128
test mode: TEST
file size: 17179869184
file pages: 4194304
start probability: 0.010
continue probability: 0.100
processed 78976 requests 78949.32 r/s elapsed 1.00
processed 158592 requests 79243.18 r/s elapsed 2.00
processed 239104 requests 79691.69 r/s elapsed 3.00
processed 320512 requests 80099.70 r/s elapsed 4.00
processed 402048 requests 80406.58 r/s elapsed 5.00
processed 484864 requests 80799.45 r/s elapsed 6.00
processed 568704 requests 81242.05 r/s elapsed 7.00
processed 653952 requests 81740.22 r/s elapsed 8.00
processed 740480 requests 82270.25 r/s elapsed 9.00
processed 827648 requests 82759.59 r/s elapsed 10.00
processed 916736 requests 83337.67 r/s elapsed 11.00
processed 1006592 requests 83875.91 r/s elapsed 12.00
processed 1097856 requests 84449.18 r/s elapsed 13.00
processed 1190912 requests 85057.69 r/s elapsed 14.00
processed 1285888 requests 85725.50 r/s elapsed 15.00
processed 1382016 requests 86368.77 r/s elapsed 16.00
processed 1478784 requests 86984.45 r/s elapsed 17.00
processed 1578112 requests 87668.04 r/s elapsed 18.00
processed 1678848 requests 88356.99 r/s elapsed 19.00
processed 1781376 requests 89065.50 r/s elapsed 20.00
TOTAL: 1781376 requests 89065.50 r/s elapsed 20.00
