type: fadvise
filename: /mnt/data/prefetch/prefetch-16384
I/O mode: BUFFERED
workload: SEQUENTIAL
duration: 20
queue size: 1
test mode: TEST
file size: 17179869184
file pages: 4194304
start probability: 0.010
continue probability: 0.500
processed 109216 requests 109215.89 r/s elapsed 1.00
processed 220015 requests 110005.79 r/s elapsed 2.00
processed 332545 requests 110848.15 r/s elapsed 3.00
processed 446684 requests 111670.92 r/s elapsed 4.00
processed 563066 requests 112613.00 r/s elapsed 5.00
processed 681232 requests 113538.57 r/s elapsed 6.00
processed 801284 requests 114469.13 r/s elapsed 7.00
processed 922682 requests 115335.19 r/s elapsed 8.00
processed 1045791 requests 116199.00 r/s elapsed 9.00
processed 1171620 requests 117161.96 r/s elapsed 10.00
processed 1299364 requests 118123.89 r/s elapsed 11.00
processed 1428767 requests 119063.89 r/s elapsed 12.00
processed 1561317 requests 120101.31 r/s elapsed 13.00
processed 1694565 requests 121040.32 r/s elapsed 14.00
processed 1831542 requests 122102.79 r/s elapsed 15.00
processed 1970915 requests 123182.13 r/s elapsed 16.00
processed 2111719 requests 124218.74 r/s elapsed 17.00
processed 2256139 requests 125341.03 r/s elapsed 18.00
processed 2402815 requests 126463.88 r/s elapsed 19.00
processed 2553096 requests 127654.77 r/s elapsed 20.00
TOTAL: 2553096 requests 127654.77 r/s elapsed 20.00
