type: fadvise
filename: /mnt/data/prefetch/prefetch-16384
I/O mode: BUFFERED
workload: RANDOM
duration: 20
queue size: 128
test mode: TEST
file size: 17179869184
file pages: 4194304
processed 289920 requests 289791.62 r/s elapsed 1.00
processed 587008 requests 293469.08 r/s elapsed 2.00
processed 891520 requests 297158.57 r/s elapsed 3.00
processed 1204352 requests 301072.80 r/s elapsed 4.00
processed 1527040 requests 305397.74 r/s elapsed 5.00
processed 1859840 requests 309954.01 r/s elapsed 6.00
processed 2203648 requests 314796.78 r/s elapsed 7.00
processed 2558976 requests 319871.40 r/s elapsed 8.00
processed 2927232 requests 325236.51 r/s elapsed 9.00
processed 3308928 requests 330884.66 r/s elapsed 10.00
processed 3704704 requests 336783.37 r/s elapsed 11.00
processed 4114944 requests 342908.80 r/s elapsed 12.00
processed 4540032 requests 349227.83 r/s elapsed 13.00
processed 4980736 requests 355759.69 r/s elapsed 14.00
processed 5435136 requests 362341.39 r/s elapsed 15.00
processed 5906048 requests 369127.56 r/s elapsed 16.00
processed 6392448 requests 376021.29 r/s elapsed 17.00
processed 6894464 requests 383020.73 r/s elapsed 18.00
processed 7411968 requests 390101.92 r/s elapsed 19.00
processed 7944448 requests 397218.71 r/s elapsed 20.00
TOTAL: 7944448 requests 397218.71 r/s elapsed 20.00
