type: fadvise
filename: /mnt/data/prefetch/prefetch-16384
I/O mode: BUFFERED
workload: SEQUENTIAL
duration: 20
queue size: 1024
test mode: TEST
file size: 17179869184
file pages: 4194304
start probability: 0.010
continue probability: 0.500
processed 365568 requests 365078.79 r/s elapsed 1.00
processed 735232 requests 367322.51 r/s elapsed 2.00
processed 1110016 requests 369881.79 r/s elapsed 3.00
processed 1490944 requests 372701.43 r/s elapsed 4.00
processed 1880064 requests 375836.08 r/s elapsed 5.00
processed 2276352 requests 379361.40 r/s elapsed 6.00
processed 2681856 requests 383080.86 r/s elapsed 7.00
processed 3097600 requests 387143.19 r/s elapsed 8.00
processed 3521536 requests 391256.56 r/s elapsed 9.00
processed 3953664 requests 395324.10 r/s elapsed 10.00
processed 4396032 requests 399592.27 r/s elapsed 11.00
processed 4846592 requests 403866.75 r/s elapsed 12.00
processed 5306368 requests 408175.91 r/s elapsed 13.00
processed 5776384 requests 412582.53 r/s elapsed 14.00
processed 6254592 requests 416959.21 r/s elapsed 15.00
processed 6742016 requests 421335.03 r/s elapsed 16.00
processed 7236608 requests 425634.55 r/s elapsed 17.00
processed 7740416 requests 429979.16 r/s elapsed 18.00
processed 8251392 requests 434278.01 r/s elapsed 19.00
processed 8770560 requests 438489.02 r/s elapsed 20.00
TOTAL: 8770560 requests 438489.02 r/s elapsed 20.00
