type: fadvise
filename: /mnt/data/prefetch/prefetch-16384
I/O mode: BUFFERED
workload: SEQUENTIAL
duration: 20
queue size: 32
test mode: WARMUP
file size: 17179869184
file pages: 4194304
start probability: 0.010
continue probability: 0.100
processed 275552 requests 275540.15 r/s elapsed 1.00
elapsed 1.00 : warmup interval speed 275540.15 previous 0.00
processed 548480 requests 274231.36 r/s elapsed 2.00
elapsed 2.00 : warmup interval speed 272922.54 previous 275540.15
within 5% of the preceding interval, warmup terminating
TOTAL: 548480 requests 274231.36 r/s elapsed 2.00
