type: POSIX aio
filename: /mnt/data/prefetch/prefetch-16384
I/O mode: BUFFERED
workload: SEQUENTIAL
duration: 20
threads: 1
queue size: 32
test mode: TEST
file size: 17179869184
file pages: 4194304
start probability: 0.100
continue probability: 0.900
processed 230432 requests 230427.85 r/s elapsed 1.00
processed 420800 requests 210390.22 r/s elapsed 2.00
processed 573728 requests 191238.52 r/s elapsed 3.00
processed 728736 requests 182178.26 r/s elapsed 4.00
processed 881952 requests 176385.18 r/s elapsed 5.00
processed 1036640 requests 172767.63 r/s elapsed 6.00
processed 1192640 requests 170376.80 r/s elapsed 7.00
processed 1348512 requests 168563.94 r/s elapsed 8.00
processed 1504000 requests 167109.12 r/s elapsed 9.00
processed 1658368 requests 165833.43 r/s elapsed 10.00
processed 1814304 requests 164936.53 r/s elapsed 11.00
processed 1970144 requests 164177.33 r/s elapsed 12.00
processed 2125280 requests 163479.19 r/s elapsed 13.00
processed 2280992 requests 162925.14 r/s elapsed 14.00
processed 2493632 requests 166241.73 r/s elapsed 15.00
processed 2730624 requests 170663.59 r/s elapsed 16.00
processed 2960128 requests 174124.64 r/s elapsed 17.00
processed 3190176 requests 177230.76 r/s elapsed 18.00
processed 3419936 requests 179995.28 r/s elapsed 19.00
processed 3651008 requests 182550.22 r/s elapsed 20.00
TOTAL: 3651008 requests 182550.22 r/s elapsed 20.00
