type: POSIX aio
filename: /mnt/data/prefetch/prefetch-16384
I/O mode: BUFFERED
workload: SEQUENTIAL
duration: 20
threads: 16
queue size: 32
test mode: TEST
file size: 17179869184
file pages: 4194304
start probability: 0.100
continue probability: 0.500
processed 135264 requests 135243.58 r/s elapsed 1.00
processed 243552 requests 121771.49 r/s elapsed 2.00
processed 338080 requests 112688.30 r/s elapsed 3.00
processed 431776 requests 107941.65 r/s elapsed 4.00
processed 526720 requests 105342.17 r/s elapsed 5.00
processed 621344 requests 103556.78 r/s elapsed 6.00
processed 716288 requests 102323.90 r/s elapsed 7.00
processed 811360 requests 101417.76 r/s elapsed 8.00
processed 962400 requests 106932.80 r/s elapsed 9.00
processed 1111040 requests 111103.39 r/s elapsed 10.00
processed 1247040 requests 113366.85 r/s elapsed 11.00
processed 1383200 requests 115264.42 r/s elapsed 12.00
processed 1519040 requests 116847.84 r/s elapsed 13.00
processed 1653952 requests 118137.49 r/s elapsed 14.00
processed 1813952 requests 120929.31 r/s elapsed 15.00
processed 1966496 requests 122904.31 r/s elapsed 16.00
processed 2111744 requests 124220.02 r/s elapsed 17.00
processed 2257312 requests 125405.46 r/s elapsed 18.00
processed 2402656 requests 126454.79 r/s elapsed 19.00
processed 2559904 requests 127994.50 r/s elapsed 20.00
TOTAL: 2559904 requests 127994.50 r/s elapsed 20.00
