type: POSIX aio
filename: /mnt/data/prefetch/prefetch-16384
I/O mode: BUFFERED
workload: SEQUENTIAL
duration: 20
threads: 1
queue size: 128
test mode: WARMUP
file size: 17179869184
file pages: 4194304
start probability: 0.100
continue probability: 0.900
processed 175104 requests 175038.54 r/s elapsed 1.00
elapsed 1.00 : warmup interval speed 175038.54 previous 0.00
processed 351872 requests 175935.12 r/s elapsed 2.00
elapsed 2.00 : warmup interval speed 176832.37 previous 175038.54
within 5% of the preceding interval, warmup terminating
TOTAL: 351872 requests 175935.12 r/s elapsed 2.00
