type: POSIX aio
filename: /mnt/data/prefetch/prefetch-16384
I/O mode: DIRECT
workload: SEQUENTIAL
duration: 20
threads: 1
queue size: 8
test mode: TEST
file size: 17179869184
file pages: 4194304
start probability: 0.010
continue probability: 0.500
processed 66648 requests 66644.20 r/s elapsed 1.00
processed 134160 requests 67078.73 r/s elapsed 2.00
processed 202032 requests 67343.53 r/s elapsed 3.00
processed 271096 requests 67773.59 r/s elapsed 4.00
processed 340080 requests 68014.61 r/s elapsed 5.00
processed 407944 requests 67989.67 r/s elapsed 6.00
processed 475984 requests 67997.57 r/s elapsed 7.00
processed 543736 requests 67966.61 r/s elapsed 8.00
processed 611648 requests 67960.58 r/s elapsed 9.00
processed 679816 requests 67981.36 r/s elapsed 10.00
processed 747368 requests 67942.24 r/s elapsed 11.00
processed 814768 requests 67896.81 r/s elapsed 12.00
processed 881032 requests 67771.33 r/s elapsed 13.00
processed 947824 requests 67701.56 r/s elapsed 14.00
processed 1014448 requests 67629.41 r/s elapsed 15.00
processed 1081192 requests 67574.04 r/s elapsed 16.00
processed 1148608 requests 67564.81 r/s elapsed 17.00
processed 1216024 requests 67556.74 r/s elapsed 18.00
processed 1283056 requests 67529.11 r/s elapsed 19.00
processed 1349960 requests 67497.73 r/s elapsed 20.00
TOTAL: 1349960 requests 67497.73 r/s elapsed 20.00
