type: POSIX aio
filename: /mnt/data/prefetch/prefetch-16384
I/O mode: BUFFERED
workload: SEQUENTIAL
duration: 20
threads: 32
queue size: 1024
test mode: TEST
file size: 17179869184
file pages: 4194304
start probability: 0.010
continue probability: 0.900
processed 109568 requests 109040.35 r/s elapsed 1.00
processed 210944 requests 105168.17 r/s elapsed 2.01
processed 302080 requests 100557.11 r/s elapsed 3.00
processed 394240 requests 98464.27 r/s elapsed 4.00
processed 505856 requests 101103.38 r/s elapsed 5.00
processed 616448 requests 102648.32 r/s elapsed 6.01
processed 722944 requests 103270.40 r/s elapsed 7.00
processed 839680 requests 104868.53 r/s elapsed 8.01
processed 965632 requests 107245.53 r/s elapsed 9.00
processed 1083392 requests 108295.59 r/s elapsed 10.00
processed 1205248 requests 109565.63 r/s elapsed 11.00
processed 1339392 requests 111549.59 r/s elapsed 12.01
processed 1465344 requests 112687.33 r/s elapsed 13.00
processed 1587200 requests 113358.68 r/s elapsed 14.00
processed 1721344 requests 114710.20 r/s elapsed 15.01
processed 1849344 requests 115575.22 r/s elapsed 16.00
processed 1980416 requests 116474.71 r/s elapsed 17.00
processed 2118656 requests 117674.13 r/s elapsed 18.00
processed 2251776 requests 118484.49 r/s elapsed 19.00
processed 2383872 requests 119185.40 r/s elapsed 20.00
TOTAL: 2383872 requests 119185.40 r/s elapsed 20.00
