type: POSIX aio
filename: /mnt/data/prefetch/prefetch-16384
I/O mode: DIRECT
workload: SEQUENTIAL
duration: 20
threads: 8
queue size: 8
test mode: TEST
file size: 17179869184
file pages: 4194304
start probability: 0.010
continue probability: 0.900
processed 66440 requests 66433.02 r/s elapsed 1.00
processed 133040 requests 66516.47 r/s elapsed 2.00
processed 199456 requests 66484.47 r/s elapsed 3.00
processed 265840 requests 66458.24 r/s elapsed 4.00
processed 331936 requests 66387.07 r/s elapsed 5.00
processed 398336 requests 66388.71 r/s elapsed 6.00
processed 465584 requests 66511.66 r/s elapsed 7.00
processed 533112 requests 66638.28 r/s elapsed 8.00
processed 600488 requests 66720.47 r/s elapsed 9.00
processed 668040 requests 66803.49 r/s elapsed 10.00
processed 735152 requests 66831.76 r/s elapsed 11.00
processed 802232 requests 66852.67 r/s elapsed 12.00
processed 869592 requests 66891.21 r/s elapsed 13.00
processed 936904 requests 66921.47 r/s elapsed 14.00
processed 1004176 requests 66944.98 r/s elapsed 15.00
processed 1071376 requests 66960.91 r/s elapsed 16.00
processed 1138312 requests 66959.26 r/s elapsed 17.00
processed 1205464 requests 66970.16 r/s elapsed 18.00
processed 1272744 requests 66986.42 r/s elapsed 19.00
processed 1340176 requests 67008.51 r/s elapsed 20.00
TOTAL: 1340176 requests 67008.51 r/s elapsed 20.00
