type: POSIX aio
filename: /mnt/data/prefetch/prefetch-16384
I/O mode: DIRECT
workload: RANDOM
duration: 20
threads: 32
queue size: 1024
test mode: TEST
file size: 17179869184
file pages: 4194304
processed 66560 requests 65937.48 r/s elapsed 1.01
processed 131072 requests 65372.83 r/s elapsed 2.00
processed 195584 requests 65146.11 r/s elapsed 3.00
processed 260096 requests 65018.23 r/s elapsed 4.00
processed 325632 requests 64933.46 r/s elapsed 5.01
processed 390144 requests 64869.55 r/s elapsed 6.01
processed 454656 requests 64811.26 r/s elapsed 7.02
processed 518144 requests 64767.96 r/s elapsed 8.00
processed 582656 requests 64714.72 r/s elapsed 9.00
processed 644096 requests 64334.28 r/s elapsed 10.01
processed 702464 requests 63836.44 r/s elapsed 11.00
processed 761856 requests 63405.51 r/s elapsed 12.02
processed 820224 requests 63058.95 r/s elapsed 13.01
processed 879616 requests 62754.51 r/s elapsed 14.02
processed 937984 requests 62516.30 r/s elapsed 15.00
processed 997376 requests 62313.60 r/s elapsed 16.01
processed 1056768 requests 62136.02 r/s elapsed 17.01
processed 1116160 requests 61976.83 r/s elapsed 18.01
processed 1175552 requests 61816.80 r/s elapsed 19.02
processed 1233920 requests 61682.41 r/s elapsed 20.00
TOTAL: 1233920 requests 61682.41 r/s elapsed 20.00
