type: pthread fadvise
filename: /mnt/data/prefetch/prefetch-16384
I/O mode: BUFFERED
workload: RANDOM
duration: 20
threads: 1
queue size: 32
test mode: TEST
file size: 17179869184
file pages: 4194304
processed 229824 requests 229805.62 r/s elapsed 1.00
processed 467072 requests 233515.92 r/s elapsed 2.00
processed 709312 requests 236429.06 r/s elapsed 3.00
processed 957376 requests 239342.38 r/s elapsed 4.00
processed 1213152 requests 242624.87 r/s elapsed 5.00
processed 1475648 requests 245936.66 r/s elapsed 6.00
processed 1745152 requests 249306.89 r/s elapsed 7.00
processed 2022880 requests 252858.93 r/s elapsed 8.00
processed 2308544 requests 256503.66 r/s elapsed 9.00
processed 2602656 requests 260263.00 r/s elapsed 10.00
processed 2904960 requests 264085.71 r/s elapsed 11.00
processed 3216224 requests 268016.99 r/s elapsed 12.00
processed 3536480 requests 272035.54 r/s elapsed 13.00
processed 3866816 requests 276200.43 r/s elapsed 14.00
processed 4206368 requests 280423.09 r/s elapsed 15.00
processed 4555936 requests 284745.16 r/s elapsed 16.00
processed 4912736 requests 288984.45 r/s elapsed 17.00
processed 5279776 requests 293320.14 r/s elapsed 18.00
processed 5656544 requests 297712.17 r/s elapsed 19.00
processed 6043072 requests 302152.92 r/s elapsed 20.00
TOTAL: 6043072 requests 302152.92 r/s elapsed 20.00
