type: pthread aio
filename: /mnt/data/prefetch/prefetch-16384
I/O mode: DIRECT
workload: SEQUENTIAL
duration: 20
threads: 1
queue size: 128
test mode: TEST
file size: 17179869184
file pages: 4194304
start probability: 0.100
continue probability: 0.500
processed 89344 requests 89331.14 r/s elapsed 1.00
processed 178816 requests 89357.91 r/s elapsed 2.00
processed 268288 requests 89397.92 r/s elapsed 3.00
processed 357888 requests 89444.23 r/s elapsed 4.00
processed 447232 requests 89435.17 r/s elapsed 5.00
processed 536704 requests 89385.83 r/s elapsed 6.00
processed 625792 requests 89397.73 r/s elapsed 7.00
processed 715264 requests 89396.61 r/s elapsed 8.00
processed 804608 requests 89346.26 r/s elapsed 9.01
processed 894976 requests 89492.64 r/s elapsed 10.00
processed 987520 requests 89763.43 r/s elapsed 11.00
processed 1079680 requests 89966.44 r/s elapsed 12.00
processed 1171840 requests 90138.52 r/s elapsed 13.00
processed 1264512 requests 90318.53 r/s elapsed 14.00
processed 1357440 requests 90492.34 r/s elapsed 15.00
processed 1450112 requests 90630.92 r/s elapsed 16.00
processed 1542144 requests 90708.66 r/s elapsed 17.00
processed 1634304 requests 90791.92 r/s elapsed 18.00
processed 1727360 requests 90911.60 r/s elapsed 19.00
processed 1820672 requests 91031.05 r/s elapsed 20.00
TOTAL: 1820672 requests 91031.05 r/s elapsed 20.00
