type: pthread aio
filename: /mnt/data/prefetch/prefetch-16384
I/O mode: BUFFERED
workload: SEQUENTIAL
duration: 20
threads: 32
queue size: 32
test mode: WARMUP
file size: 17179869184
file pages: 4194304
start probability: 0.010
continue probability: 0.500
processed 196480 requests 196465.85 r/s elapsed 1.00
elapsed 1.00 : warmup interval speed 196465.85 previous 0.00
processed 395232 requests 197603.16 r/s elapsed 2.00
elapsed 2.00 : warmup interval speed 198740.47 previous 196465.85
within 5% of the preceding interval, warmup terminating
TOTAL: 395232 requests 197603.16 r/s elapsed 2.00
