type: pthread fadvise
filename: /mnt/data/prefetch/prefetch-16384
I/O mode: BUFFERED
workload: SEQUENTIAL
duration: 20
threads: 16
queue size: 32
test mode: WARMUP
file size: 17179869184
file pages: 4194304
start probability: 0.100
continue probability: 0.500
processed 411744 requests 410133.00 r/s elapsed 1.00
elapsed 1.00 : warmup interval speed 410133.00 previous 0.00
processed 820288 requests 407707.34 r/s elapsed 2.01
elapsed 2.01 : warmup interval speed 405291.54 previous 410133.00
within 5% of the preceding interval, warmup terminating
TOTAL: 820288 requests 407707.34 r/s elapsed 2.01
