type: pthread fadvise
filename: /mnt/data/prefetch/prefetch-16384
I/O mode: BUFFERED
workload: SEQUENTIAL
duration: 20
threads: 1
queue size: 128
test mode: WARMUP
file size: 17179869184
file pages: 4194304
start probability: 0.010
continue probability: 0.100
processed 254720 requests 254655.83 r/s elapsed 1.00
elapsed 1.00 : warmup interval speed 254655.83 previous 0.00
processed 509952 requests 254917.37 r/s elapsed 2.00
elapsed 2.00 : warmup interval speed 255178.92 previous 254655.83
within 5% of the preceding interval, warmup terminating
TOTAL: 509952 requests 254917.37 r/s elapsed 2.00
