type: pthread fadvise
filename: /mnt/data/prefetch/prefetch-16384
I/O mode: BUFFERED
workload: SEQUENTIAL
duration: 20
threads: 1
queue size: 128
test mode: WARMUP
file size: 17179869184
file pages: 4194304
start probability: 0.010
continue probability: 0.500
processed 347776 requests 347677.61 r/s elapsed 1.00
elapsed 1.00 : warmup interval speed 347677.61 previous 0.00
processed 702720 requests 351334.18 r/s elapsed 2.00
elapsed 2.00 : warmup interval speed 354992.28 previous 347677.61
within 5% of the preceding interval, warmup terminating
TOTAL: 702720 requests 351334.18 r/s elapsed 2.00
