type: pthread aio
filename: /mnt/data/prefetch/prefetch-16384
I/O mode: BUFFERED
workload: SEQUENTIAL
duration: 20
threads: 8
queue size: 32
test mode: TEST
file size: 17179869184
file pages: 4194304
start probability: 0.010
continue probability: 0.100
processed 218848 requests 218847.12 r/s elapsed 1.00
processed 437696 requests 217794.96 r/s elapsed 2.01
processed 653408 requests 215784.15 r/s elapsed 3.03
processed 863136 requests 215126.52 r/s elapsed 4.01
processed 1075648 requests 214949.52 r/s elapsed 5.00
processed 1289728 requests 214884.79 r/s elapsed 6.00
processed 1507936 requests 215417.31 r/s elapsed 7.00
processed 1731712 requests 216460.29 r/s elapsed 8.00
processed 1956352 requests 217370.58 r/s elapsed 9.00
processed 2183072 requests 218304.56 r/s elapsed 10.00
processed 2411712 requests 219244.59 r/s elapsed 11.00
processed 2643488 requests 220290.59 r/s elapsed 12.00
processed 2878016 requests 221383.89 r/s elapsed 13.00
processed 3116896 requests 222635.40 r/s elapsed 14.00
processed 3360288 requests 224017.83 r/s elapsed 15.00
processed 3607136 requests 225445.27 r/s elapsed 16.00
processed 3856576 requests 226856.21 r/s elapsed 17.00
processed 4116000 requests 228665.60 r/s elapsed 18.00
processed 4387488 requests 230919.11 r/s elapsed 19.00
processed 4667424 requests 233370.63 r/s elapsed 20.00
TOTAL: 4667424 requests 233370.63 r/s elapsed 20.00
