type: pthread aio
filename: /mnt/data/prefetch/prefetch-16384
I/O mode: BUFFERED
workload: SEQUENTIAL
duration: 20
threads: 32
queue size: 128
test mode: WARMUP
file size: 17179869184
file pages: 4194304
start probability: 0.010
continue probability: 0.500
processed 222336 requests 222204.01 r/s elapsed 1.00
elapsed 1.00 : warmup interval speed 222204.01 previous 0.00
processed 449408 requests 224662.89 r/s elapsed 2.00
elapsed 2.00 : warmup interval speed 227123.78 previous 222204.01
within 5% of the preceding interval, warmup terminating
TOTAL: 449408 requests 224662.89 r/s elapsed 2.00
