type: pthread aio
filename: /mnt/data/prefetch/prefetch-16384
I/O mode: BUFFERED
workload: SEQUENTIAL
duration: 20
threads: 8
queue size: 128
test mode: WARMUP
file size: 17179869184
file pages: 4194304
start probability: 0.010
continue probability: 0.100
processed 199680 requests 199493.67 r/s elapsed 1.00
elapsed 1.00 : warmup interval speed 199493.67 previous 0.00
processed 404736 requests 202355.15 r/s elapsed 2.00
elapsed 2.00 : warmup interval speed 205221.61 previous 199493.67
within 5% of the preceding interval, warmup terminating
TOTAL: 404736 requests 202355.15 r/s elapsed 2.00
