type: pthread aio
filename: /mnt/data/prefetch/prefetch-16384
I/O mode: BUFFERED
workload: SEQUENTIAL
duration: 20
threads: 8
queue size: 8
test mode: TEST
file size: 17179869184
file pages: 4194304
start probability: 0.010
continue probability: 0.900
processed 178264 requests 178209.11 r/s elapsed 1.00
processed 356424 requests 170386.16 r/s elapsed 2.09
processed 523680 requests 174559.71 r/s elapsed 3.00
processed 718968 requests 179740.97 r/s elapsed 4.00
processed 924352 requests 184870.14 r/s elapsed 5.00
processed 1131784 requests 188627.24 r/s elapsed 6.00
processed 1360904 requests 194414.11 r/s elapsed 7.00
processed 1586120 requests 198264.53 r/s elapsed 8.00
processed 1830344 requests 203370.88 r/s elapsed 9.00
processed 2073000 requests 207299.48 r/s elapsed 10.00
processed 2318080 requests 210734.24 r/s elapsed 11.00
processed 2567840 requests 213986.31 r/s elapsed 12.00
processed 2837200 requests 218245.60 r/s elapsed 13.00
processed 3112928 requests 222351.67 r/s elapsed 14.00
processed 3396736 requests 226448.63 r/s elapsed 15.00
processed 3675824 requests 229739.00 r/s elapsed 16.00
processed 3957504 requests 232794.22 r/s elapsed 17.00
processed 4238944 requests 235496.52 r/s elapsed 18.00
processed 4522160 requests 238008.18 r/s elapsed 19.00
processed 4818968 requests 240948.06 r/s elapsed 20.00
TOTAL: 4818968 requests 240948.06 r/s elapsed 20.00
