type: aio
filename: /mnt/raid/prefetch/prefetch-2048
I/O mode: BUFFERED
workload: SEQUENTIAL
duration: 20
queue size: 1
test mode: WARMUP
file size: 2147483648
file pages: 524288
start probability: 0.010
continue probability: 0.500
processed 9790 requests 9788.73 r/s elapsed 1.00
elapsed 1.00 : warmup interval speed 9788.73 previous 0.00
processed 20254 requests 10125.35 r/s elapsed 2.00
elapsed 2.00 : warmup interval speed 10461.95 previous 9788.73
processed 30943 requests 10314.32 r/s elapsed 3.00
elapsed 3.00 : warmup interval speed 10692.44 previous 10461.95
within 5% of the preceding interval, warmup terminating
TOTAL: 30943 requests 10314.32 r/s elapsed 3.00
