type: aio
filename: /mnt/raid/prefetch/prefetch-2048
I/O mode: DIRECT
workload: RANDOM
duration: 20
queue size: 1024
test mode: TEST
file size: 2147483648
file pages: 524288
processed 163840 requests 163258.31 r/s elapsed 1.00
processed 323584 requests 161732.32 r/s elapsed 2.00
processed 532480 requests 177314.30 r/s elapsed 3.00
processed 752640 requests 188063.10 r/s elapsed 4.00
processed 970752 requests 194041.97 r/s elapsed 5.00
processed 1188864 requests 198102.43 r/s elapsed 6.00
processed 1404928 requests 200570.28 r/s elapsed 7.00
processed 1620992 requests 202565.64 r/s elapsed 8.00
processed 1835008 requests 203850.98 r/s elapsed 9.00
processed 2049024 requests 204827.70 r/s elapsed 10.00
processed 2262016 requests 205631.20 r/s elapsed 11.00
processed 2475008 requests 206218.60 r/s elapsed 12.00
processed 2686976 requests 206689.95 r/s elapsed 13.00
processed 2899968 requests 207075.19 r/s elapsed 14.00
processed 3111936 requests 207453.18 r/s elapsed 15.00
processed 3323904 requests 207738.18 r/s elapsed 16.00
processed 3535872 requests 207973.75 r/s elapsed 17.00
processed 3745792 requests 208071.75 r/s elapsed 18.00
processed 3957760 requests 208268.26 r/s elapsed 19.00
processed 4169728 requests 208440.96 r/s elapsed 20.00
TOTAL: 4169728 requests 208440.96 r/s elapsed 20.00
