type: aio
filename: /mnt/raid/prefetch/prefetch-2048
I/O mode: BUFFERED
workload: SEQUENTIAL
duration: 20
queue size: 128
test mode: TEST
file size: 2147483648
file pages: 524288
start probability: 0.010
continue probability: 0.100
processed 9728 requests 9649.45 r/s elapsed 1.01
processed 19456 requests 9724.47 r/s elapsed 2.00
processed 29696 requests 9882.80 r/s elapsed 3.00
processed 40192 requests 10019.30 r/s elapsed 4.01
processed 50688 requests 10135.01 r/s elapsed 5.00
processed 61696 requests 10272.89 r/s elapsed 6.01
processed 72704 requests 10385.59 r/s elapsed 7.00
processed 84096 requests 10501.69 r/s elapsed 8.01
processed 95872 requests 10647.44 r/s elapsed 9.00
processed 107648 requests 10761.93 r/s elapsed 10.00
processed 119936 requests 10897.60 r/s elapsed 11.01
processed 132224 requests 11018.51 r/s elapsed 12.00
processed 145024 requests 11151.14 r/s elapsed 13.01
processed 157952 requests 11280.38 r/s elapsed 14.00
processed 171904 requests 11455.10 r/s elapsed 15.01
processed 185984 requests 11618.58 r/s elapsed 16.01
processed 200704 requests 11805.05 r/s elapsed 17.00
processed 216448 requests 12019.25 r/s elapsed 18.01
processed 232576 requests 12236.77 r/s elapsed 19.01
processed 249856 requests 12492.43 r/s elapsed 20.00
TOTAL: 249856 requests 12492.43 r/s elapsed 20.00
