type: aio
filename: /mnt/raid/prefetch/prefetch-2048
I/O mode: BUFFERED
workload: RANDOM
duration: 20
queue size: 1024
test mode: TEST
file size: 2147483648
file pages: 524288
processed 9216 requests 8730.28 r/s elapsed 1.06
processed 18432 requests 8981.06 r/s elapsed 2.05
processed 27648 requests 9119.24 r/s elapsed 3.03
processed 36864 requests 9214.31 r/s elapsed 4.00
processed 47104 requests 9321.43 r/s elapsed 5.05
processed 57344 requests 9419.55 r/s elapsed 6.09
processed 66560 requests 9508.18 r/s elapsed 7.00
processed 76800 requests 9591.30 r/s elapsed 8.01
processed 88064 requests 9705.09 r/s elapsed 9.07
processed 98304 requests 9791.18 r/s elapsed 10.04
processed 108544 requests 9851.90 r/s elapsed 11.02
processed 119808 requests 9929.56 r/s elapsed 12.07
processed 131072 requests 10019.54 r/s elapsed 13.08
processed 141312 requests 10085.98 r/s elapsed 14.01
processed 153600 requests 10185.18 r/s elapsed 15.08
processed 164864 requests 10281.74 r/s elapsed 16.03
processed 177152 requests 10391.53 r/s elapsed 17.05
processed 189440 requests 10509.63 r/s elapsed 18.03
processed 202752 requests 10646.55 r/s elapsed 19.04
processed 216064 requests 10785.33 r/s elapsed 20.03
TOTAL: 216064 requests 10785.33 r/s elapsed 20.03
