type: fadvise
filename: /mnt/raid/prefetch/prefetch-2048
I/O mode: BUFFERED
workload: SEQUENTIAL
duration: 20
queue size: 128
test mode: TEST
file size: 2147483648
file pages: 524288
start probability: 0.100
continue probability: 0.100
processed 900864 requests 900746.90 r/s elapsed 1.00
processed 1805312 requests 902632.98 r/s elapsed 2.00
processed 2709376 requests 903098.24 r/s elapsed 3.00
processed 3614080 requests 903494.70 r/s elapsed 4.00
processed 4518528 requests 903687.16 r/s elapsed 5.00
processed 5424256 requests 904021.72 r/s elapsed 6.00
processed 6328960 requests 904130.04 r/s elapsed 7.00
processed 7233664 requests 904200.77 r/s elapsed 8.00
processed 8137984 requests 904211.70 r/s elapsed 9.00
processed 9042304 requests 904225.97 r/s elapsed 10.00
processed 9946752 requests 904248.95 r/s elapsed 11.00
processed 10851456 requests 904283.48 r/s elapsed 12.00
processed 11756416 requests 904331.00 r/s elapsed 13.00
processed 12660992 requests 904355.41 r/s elapsed 14.00
processed 13565440 requests 904354.59 r/s elapsed 15.00
processed 14469760 requests 904359.38 r/s elapsed 16.00
processed 15374080 requests 904354.77 r/s elapsed 17.00
processed 16278784 requests 904375.43 r/s elapsed 18.00
processed 17183616 requests 904395.27 r/s elapsed 19.00
processed 18088320 requests 904410.66 r/s elapsed 20.00
TOTAL: 18088320 requests 904410.66 r/s elapsed 20.00
