type: fadvise
filename: /mnt/raid/prefetch/prefetch-2048
I/O mode: BUFFERED
workload: SEQUENTIAL
duration: 20
queue size: 8
test mode: TEST
file size: 2147483648
file pages: 524288
start probability: 0.010
continue probability: 0.900
processed 43104 requests 43097.45 r/s elapsed 1.00
processed 88136 requests 44064.06 r/s elapsed 2.00
processed 135216 requests 45071.02 r/s elapsed 3.00
processed 185024 requests 46254.64 r/s elapsed 4.00
processed 238184 requests 47636.75 r/s elapsed 5.00
processed 294840 requests 49139.97 r/s elapsed 6.00
processed 355160 requests 50736.95 r/s elapsed 7.00
processed 419536 requests 52442.00 r/s elapsed 8.00
processed 489648 requests 54405.09 r/s elapsed 9.00
processed 565336 requests 56532.99 r/s elapsed 10.00
processed 648080 requests 58916.00 r/s elapsed 11.00
processed 740856 requests 61737.65 r/s elapsed 12.00
processed 848328 requests 65255.54 r/s elapsed 13.00
processed 966232 requests 69015.96 r/s elapsed 14.00
processed 1108192 requests 73879.27 r/s elapsed 15.00
processed 1273048 requests 79565.29 r/s elapsed 16.00
processed 1480816 requests 87106.48 r/s elapsed 17.00
processed 1742032 requests 96779.51 r/s elapsed 18.00
processed 2103528 requests 110711.95 r/s elapsed 19.00
processed 2592608 requests 129630.32 r/s elapsed 20.00
TOTAL: 2592608 requests 129630.32 r/s elapsed 20.00
