type: fadvise
filename: /mnt/raid/prefetch/prefetch-2048
I/O mode: BUFFERED
workload: SEQUENTIAL
duration: 20
queue size: 32
test mode: WARMUP
file size: 2147483648
file pages: 524288
start probability: 0.010
continue probability: 0.500
processed 117312 requests 117294.87 r/s elapsed 1.00
elapsed 1.00 : warmup interval speed 117294.87 previous 0.00
processed 241312 requests 120649.00 r/s elapsed 2.00
elapsed 2.00 : warmup interval speed 124003.72 previous 117294.87
processed 373312 requests 124428.66 r/s elapsed 3.00
elapsed 3.00 : warmup interval speed 131987.73 previous 124003.72
processed 513216 requests 128303.68 r/s elapsed 4.00
elapsed 4.00 : warmup interval speed 139931.85 previous 131987.73
processed 655168 requests 131030.87 r/s elapsed 5.00
elapsed 5.00 : warmup interval speed 141938.66 previous 139931.85
within 5% of the preceding interval, warmup terminating
TOTAL: 655168 requests 131030.87 r/s elapsed 5.00
