type: POSIX aio
filename: /mnt/raid/prefetch/prefetch-2048
I/O mode: DIRECT
workload: SEQUENTIAL
duration: 20
threads: 8
queue size: 8
test mode: TEST
file size: 2147483648
file pages: 524288
start probability: 0.100
continue probability: 0.100
processed 9032 requests 9027.74 r/s elapsed 1.00
processed 18104 requests 9048.57 r/s elapsed 2.00
processed 27192 requests 9062.03 r/s elapsed 3.00
processed 36272 requests 9067.19 r/s elapsed 4.00
processed 45352 requests 9069.57 r/s elapsed 5.00
processed 54384 requests 9063.47 r/s elapsed 6.00
processed 63288 requests 9040.19 r/s elapsed 7.00
processed 72368 requests 9045.85 r/s elapsed 8.00
processed 81496 requests 9054.84 r/s elapsed 9.00
processed 90608 requests 9060.07 r/s elapsed 10.00
processed 99672 requests 9061.06 r/s elapsed 11.00
processed 108768 requests 9063.89 r/s elapsed 12.00
processed 117888 requests 9068.11 r/s elapsed 13.00
processed 126864 requests 9061.69 r/s elapsed 14.00
processed 135912 requests 9060.33 r/s elapsed 15.00
processed 144968 requests 9060.27 r/s elapsed 16.00
processed 154072 requests 9063.00 r/s elapsed 17.00
processed 163176 requests 9065.00 r/s elapsed 18.00
processed 172256 requests 9065.84 r/s elapsed 19.00
processed 181344 requests 9067.01 r/s elapsed 20.00
TOTAL: 181344 requests 9067.01 r/s elapsed 20.00
