type: POSIX aio
filename: /mnt/raid/prefetch/prefetch-2048
I/O mode: DIRECT
workload: SEQUENTIAL
duration: 20
threads: 1
queue size: 128
test mode: TEST
file size: 2147483648
file pages: 524288
start probability: 0.100
continue probability: 0.500
processed 9472 requests 9463.36 r/s elapsed 1.00
processed 18944 requests 9456.39 r/s elapsed 2.00
processed 28416 requests 9447.93 r/s elapsed 3.01
processed 37888 requests 9441.41 r/s elapsed 4.01
processed 47104 requests 9413.65 r/s elapsed 5.00
processed 56576 requests 9421.46 r/s elapsed 6.01
processed 66048 requests 9421.20 r/s elapsed 7.01
processed 75520 requests 9425.21 r/s elapsed 8.01
processed 84864 requests 9423.90 r/s elapsed 9.01
processed 94336 requests 9424.36 r/s elapsed 10.01
processed 103680 requests 9415.27 r/s elapsed 11.01
processed 113024 requests 9417.13 r/s elapsed 12.00
processed 122496 requests 9418.90 r/s elapsed 13.01
processed 131840 requests 9414.16 r/s elapsed 14.00
processed 141312 requests 9413.98 r/s elapsed 15.01
processed 150656 requests 9414.16 r/s elapsed 16.00
processed 160128 requests 9415.71 r/s elapsed 17.01
processed 169600 requests 9416.15 r/s elapsed 18.01
processed 178944 requests 9416.74 r/s elapsed 19.00
processed 188416 requests 9419.80 r/s elapsed 20.00
TOTAL: 188416 requests 9419.80 r/s elapsed 20.00
