type: POSIX aio
filename: /mnt/raid/prefetch/prefetch-2048
I/O mode: BUFFERED
workload: SEQUENTIAL
duration: 20
threads: 32
queue size: 32
test mode: WARMUP
file size: 2147483648
file pages: 524288
start probability: 0.100
continue probability: 0.900
processed 131136 requests 130710.54 r/s elapsed 1.00
elapsed 1.00 : warmup interval speed 130710.54 previous 0.00
processed 265536 requests 132765.48 r/s elapsed 2.00
elapsed 2.00 : warmup interval speed 134833.76 previous 130710.54
within 5% of the preceding interval, warmup terminating
TOTAL: 265536 requests 132765.48 r/s elapsed 2.00
