type: POSIX aio
filename: /mnt/raid/prefetch/prefetch-2048
I/O mode: DIRECT
workload: RANDOM
duration: 20
threads: 1
queue size: 1
test mode: TEST
file size: 2147483648
file pages: 524288
processed 9048 requests 9047.53 r/s elapsed 1.00
processed 18079 requests 9039.10 r/s elapsed 2.00
processed 27090 requests 9029.98 r/s elapsed 3.00
processed 36102 requests 9025.41 r/s elapsed 4.00
processed 45136 requests 9027.11 r/s elapsed 5.00
processed 54115 requests 9019.16 r/s elapsed 6.00
processed 63052 requests 9007.36 r/s elapsed 7.00
processed 71974 requests 8996.65 r/s elapsed 8.00
processed 80958 requests 8995.23 r/s elapsed 9.00
processed 89995 requests 8999.38 r/s elapsed 10.00
processed 98946 requests 8995.09 r/s elapsed 11.00
processed 107938 requests 8994.81 r/s elapsed 12.00
processed 116958 requests 8996.73 r/s elapsed 13.00
processed 125963 requests 8997.34 r/s elapsed 14.00
processed 134955 requests 8996.97 r/s elapsed 15.00
processed 143930 requests 8995.62 r/s elapsed 16.00
processed 152931 requests 8995.88 r/s elapsed 17.00
processed 161876 requests 8993.11 r/s elapsed 18.00
processed 170861 requests 8992.65 r/s elapsed 19.00
processed 179827 requests 8991.34 r/s elapsed 20.00
TOTAL: 179827 requests 8991.34 r/s elapsed 20.00
