type: POSIX aio
filename: /mnt/raid/prefetch/prefetch-2048
I/O mode: DIRECT
workload: RANDOM
duration: 20
threads: 1
queue size: 8
test mode: TEST
file size: 2147483648
file pages: 524288
processed 9352 requests 9343.85 r/s elapsed 1.00
processed 18712 requests 9355.73 r/s elapsed 2.00
processed 28096 requests 9364.52 r/s elapsed 3.00
processed 37464 requests 9364.29 r/s elapsed 4.00
processed 46840 requests 9366.53 r/s elapsed 5.00
processed 56136 requests 9355.39 r/s elapsed 6.00
processed 65488 requests 9354.88 r/s elapsed 7.00
processed 74840 requests 9354.42 r/s elapsed 8.00
processed 84168 requests 9351.37 r/s elapsed 9.00
processed 93528 requests 9352.56 r/s elapsed 10.00
processed 102880 requests 9352.17 r/s elapsed 11.00
processed 112224 requests 9351.55 r/s elapsed 12.00
processed 121592 requests 9352.84 r/s elapsed 13.00
processed 130968 requests 9354.65 r/s elapsed 14.00
processed 140336 requests 9355.28 r/s elapsed 15.00
processed 149648 requests 9352.52 r/s elapsed 16.00
processed 159008 requests 9353.09 r/s elapsed 17.00
processed 168336 requests 9351.90 r/s elapsed 18.00
processed 177696 requests 9352.28 r/s elapsed 19.00
processed 187016 requests 9350.64 r/s elapsed 20.00
TOTAL: 187016 requests 9350.64 r/s elapsed 20.00
