type: POSIX aio
filename: /mnt/raid/prefetch/prefetch-2048
I/O mode: DIRECT
workload: SEQUENTIAL
duration: 20
threads: 1
queue size: 128
test mode: TEST
file size: 2147483648
file pages: 524288
start probability: 0.010
continue probability: 0.900
processed 13568 requests 13565.57 r/s elapsed 1.00
processed 27264 requests 13581.76 r/s elapsed 2.01
processed 40832 requests 13573.05 r/s elapsed 3.01
processed 54400 requests 13584.26 r/s elapsed 4.00
processed 68096 requests 13611.06 r/s elapsed 5.00
processed 81792 requests 13620.33 r/s elapsed 6.01
processed 95232 requests 13585.19 r/s elapsed 7.01
processed 108288 requests 13533.85 r/s elapsed 8.00
processed 121344 requests 13482.45 r/s elapsed 9.00
processed 134272 requests 13418.70 r/s elapsed 10.01
processed 147584 requests 13410.14 r/s elapsed 11.01
processed 160512 requests 13373.16 r/s elapsed 12.00
processed 173952 requests 13372.76 r/s elapsed 13.01
processed 187264 requests 13372.60 r/s elapsed 14.00
processed 200704 requests 13377.73 r/s elapsed 15.00
processed 214400 requests 13396.24 r/s elapsed 16.00
processed 227840 requests 13394.17 r/s elapsed 17.01
processed 241024 requests 13385.61 r/s elapsed 18.01
processed 254592 requests 13398.41 r/s elapsed 19.00
processed 268416 requests 13415.22 r/s elapsed 20.01
TOTAL: 268416 requests 13415.22 r/s elapsed 20.01
