type: POSIX aio
filename: /mnt/raid/prefetch/prefetch-2048
I/O mode: DIRECT
workload: RANDOM
duration: 20
threads: 1
queue size: 8
test mode: TEST
file size: 2147483648
file pages: 524288
processed 9312 requests 9309.78 r/s elapsed 1.00
processed 18616 requests 9306.84 r/s elapsed 2.00
processed 27928 requests 9306.76 r/s elapsed 3.00
processed 37296 requests 9322.59 r/s elapsed 4.00
processed 46672 requests 9333.30 r/s elapsed 5.00
processed 56016 requests 9335.22 r/s elapsed 6.00
processed 65384 requests 9340.48 r/s elapsed 7.00
processed 74744 requests 9342.85 r/s elapsed 8.00
processed 84104 requests 9344.25 r/s elapsed 9.00
processed 93472 requests 9346.77 r/s elapsed 10.00
processed 102856 requests 9349.94 r/s elapsed 11.00
processed 112168 requests 9347.21 r/s elapsed 12.00
processed 121480 requests 9344.14 r/s elapsed 13.00
processed 130840 requests 9345.54 r/s elapsed 14.00
processed 140216 requests 9347.55 r/s elapsed 15.00
processed 149584 requests 9348.97 r/s elapsed 16.00
processed 158952 requests 9349.93 r/s elapsed 17.00
processed 168320 requests 9351.07 r/s elapsed 18.00
processed 177688 requests 9351.94 r/s elapsed 19.00
processed 187056 requests 9352.56 r/s elapsed 20.00
TOTAL: 187056 requests 9352.56 r/s elapsed 20.00
