type: POSIX aio
filename: /mnt/raid/prefetch/prefetch-2048
I/O mode: BUFFERED
workload: SEQUENTIAL
duration: 20
threads: 32
queue size: 32
test mode: TEST
file size: 2147483648
file pages: 524288
start probability: 0.010
continue probability: 0.900
processed 40864 requests 40828.15 r/s elapsed 1.00
processed 96992 requests 48459.15 r/s elapsed 2.00
processed 288096 requests 96031.36 r/s elapsed 3.00
processed 602336 requests 150582.83 r/s elapsed 4.00
processed 926464 requests 185290.32 r/s elapsed 5.00
processed 1253440 requests 208904.12 r/s elapsed 6.00
processed 1581984 requests 225995.62 r/s elapsed 7.00
processed 1911648 requests 238954.03 r/s elapsed 8.00
processed 2242016 requests 249112.53 r/s elapsed 9.00
processed 2572768 requests 257276.57 r/s elapsed 10.00
processed 2903840 requests 263983.34 r/s elapsed 11.00
processed 3233952 requests 269495.78 r/s elapsed 12.00
processed 3569536 requests 274578.13 r/s elapsed 13.00
processed 3907296 requests 279091.20 r/s elapsed 14.00
processed 4242144 requests 282808.13 r/s elapsed 15.00
processed 4574592 requests 285911.09 r/s elapsed 16.00
processed 4905792 requests 288575.25 r/s elapsed 17.00
processed 5237088 requests 290948.51 r/s elapsed 18.00
processed 5568192 requests 293061.81 r/s elapsed 19.00
processed 5899360 requests 294967.01 r/s elapsed 20.00
TOTAL: 5899360 requests 294967.01 r/s elapsed 20.00
