type: POSIX aio
filename: /mnt/raid/prefetch/prefetch-2048
I/O mode: BUFFERED
workload: SEQUENTIAL
duration: 20
threads: 1
queue size: 8
test mode: TEST
file size: 2147483648
file pages: 524288
start probability: 0.100
continue probability: 0.900
processed 222032 requests 222026.01 r/s elapsed 1.00
processed 430080 requests 215038.49 r/s elapsed 2.00
processed 655200 requests 218398.18 r/s elapsed 3.00
processed 882392 requests 220597.78 r/s elapsed 4.00
processed 1109664 requests 221931.78 r/s elapsed 5.00
processed 1337224 requests 222870.07 r/s elapsed 6.00
processed 1564968 requests 223565.93 r/s elapsed 7.00
processed 1790504 requests 223812.27 r/s elapsed 8.00
processed 2018544 requests 224282.19 r/s elapsed 9.00
processed 2245368 requests 224536.13 r/s elapsed 10.00
processed 2473552 requests 224867.89 r/s elapsed 11.00
processed 2701608 requests 225133.55 r/s elapsed 12.00
processed 2929616 requests 225354.49 r/s elapsed 13.00
processed 3157640 requests 225545.57 r/s elapsed 14.00
processed 3385408 requests 225693.87 r/s elapsed 15.00
processed 3613216 requests 225825.94 r/s elapsed 16.00
processed 3841232 requests 225954.82 r/s elapsed 17.00
processed 4069040 requests 226057.43 r/s elapsed 18.00
processed 4296248 requests 226118.07 r/s elapsed 19.00
processed 4523272 requests 226163.40 r/s elapsed 20.00
TOTAL: 4523272 requests 226163.40 r/s elapsed 20.00
