type: POSIX aio
filename: /mnt/raid/prefetch/prefetch-2048
I/O mode: BUFFERED
workload: SEQUENTIAL
duration: 20
threads: 32
queue size: 128
test mode: WARMUP
file size: 2147483648
file pages: 524288
start probability: 0.100
continue probability: 0.900
processed 140800 requests 140296.90 r/s elapsed 1.00
elapsed 1.00 : warmup interval speed 140296.90 previous 0.00
processed 283904 requests 141804.38 r/s elapsed 2.00
elapsed 2.00 : warmup interval speed 143319.55 previous 140296.90
within 5% of the preceding interval, warmup terminating
TOTAL: 283904 requests 141804.38 r/s elapsed 2.00
