type: POSIX aio
filename: /mnt/raid/prefetch/prefetch-2048
I/O mode: DIRECT
workload: SEQUENTIAL
duration: 20
threads: 8
queue size: 32
test mode: TEST
file size: 2147483648
file pages: 524288
start probability: 0.010
continue probability: 0.100
processed 9376 requests 9375.56 r/s elapsed 1.00
processed 18752 requests 9360.67 r/s elapsed 2.00
processed 28128 requests 9370.09 r/s elapsed 3.00
processed 37536 requests 9383.15 r/s elapsed 4.00
processed 46944 requests 9387.86 r/s elapsed 5.00
processed 56320 requests 9384.76 r/s elapsed 6.00
processed 65760 requests 9389.85 r/s elapsed 7.00
processed 75168 requests 9395.83 r/s elapsed 8.00
processed 84608 requests 9400.46 r/s elapsed 9.00
processed 94048 requests 9404.69 r/s elapsed 10.00
processed 103456 requests 9404.83 r/s elapsed 11.00
processed 112832 requests 9402.53 r/s elapsed 12.00
processed 122272 requests 9403.83 r/s elapsed 13.00
processed 131680 requests 9404.31 r/s elapsed 14.00
processed 141088 requests 9404.85 r/s elapsed 15.00
processed 150464 requests 9403.44 r/s elapsed 16.00
processed 159872 requests 9404.03 r/s elapsed 17.00
processed 169312 requests 9404.47 r/s elapsed 18.00
processed 178720 requests 9405.13 r/s elapsed 19.00
processed 188160 requests 9406.51 r/s elapsed 20.00
TOTAL: 188160 requests 9406.51 r/s elapsed 20.00
