type: POSIX aio
filename: /mnt/raid/prefetch/prefetch-2048
I/O mode: BUFFERED
workload: SEQUENTIAL
duration: 20
threads: 1
queue size: 1024
test mode: TEST
file size: 2147483648
file pages: 524288
start probability: 0.100
continue probability: 0.100
processed 25600 requests 25261.37 r/s elapsed 1.01
processed 36864 requests 18375.19 r/s elapsed 2.01
processed 48128 requests 15851.56 r/s elapsed 3.04
processed 59392 requests 14772.24 r/s elapsed 4.02
processed 95232 requests 18876.16 r/s elapsed 5.05
processed 113664 requests 18843.33 r/s elapsed 6.03
processed 158720 requests 22650.00 r/s elapsed 7.01
processed 252928 requests 31584.56 r/s elapsed 8.01
processed 431104 requests 47877.36 r/s elapsed 9.00
processed 622592 requests 62229.39 r/s elapsed 10.00
processed 816128 requests 74163.10 r/s elapsed 11.00
processed 1013760 requests 84454.92 r/s elapsed 12.00
processed 1214464 requests 93415.03 r/s elapsed 13.00
processed 1421312 requests 101496.91 r/s elapsed 14.00
processed 1628160 requests 108543.88 r/s elapsed 15.00
processed 1837056 requests 114801.03 r/s elapsed 16.00
processed 2054144 requests 120819.58 r/s elapsed 17.00
processed 2268160 requests 126007.05 r/s elapsed 18.00
processed 2486272 requests 130842.79 r/s elapsed 19.00
processed 2708480 requests 135398.80 r/s elapsed 20.00
TOTAL: 2708480 requests 135398.80 r/s elapsed 20.00
