type: pthread aio
filename: /mnt/raid/prefetch/prefetch-2048
I/O mode: DIRECT
workload: SEQUENTIAL
duration: 20
threads: 1
queue size: 1024
test mode: TEST
file size: 2147483648
file pages: 524288
start probability: 0.010
continue probability: 0.900
processed 14336 requests 13344.38 r/s elapsed 1.07
processed 27648 requests 13187.24 r/s elapsed 2.10
processed 39936 requests 13036.25 r/s elapsed 3.06
processed 52224 requests 12966.81 r/s elapsed 4.03
processed 65536 requests 12976.89 r/s elapsed 5.05
processed 78848 requests 13072.86 r/s elapsed 6.03
processed 92160 requests 13111.01 r/s elapsed 7.03
processed 105472 requests 13156.21 r/s elapsed 8.02
processed 118784 requests 13183.56 r/s elapsed 9.01
processed 133120 requests 13220.38 r/s elapsed 10.07
processed 146432 requests 13249.27 r/s elapsed 11.05
processed 159744 requests 13276.31 r/s elapsed 12.03
processed 173056 requests 13307.77 r/s elapsed 13.00
processed 187392 requests 13331.72 r/s elapsed 14.06
processed 200704 requests 13346.82 r/s elapsed 15.04
processed 214016 requests 13357.55 r/s elapsed 16.02
processed 227328 requests 13370.47 r/s elapsed 17.00
processed 241664 requests 13373.47 r/s elapsed 18.07
processed 254976 requests 13392.26 r/s elapsed 19.04
processed 268288 requests 13384.21 r/s elapsed 20.05
TOTAL: 268288 requests 13384.21 r/s elapsed 20.05
