type: pthread fadvise
filename: /mnt/raid/prefetch/prefetch-2048
I/O mode: BUFFERED
workload: SEQUENTIAL
duration: 20
threads: 32
queue size: 1024
test mode: WARMUP
file size: 2147483648
file pages: 524288
start probability: 0.010
continue probability: 0.100
processed 201728 requests 201147.29 r/s elapsed 1.00
elapsed 1.00 : warmup interval speed 201147.29 previous 0.00
processed 456704 requests 228221.12 r/s elapsed 2.00
elapsed 2.00 : warmup interval speed 255420.43 previous 201147.29
processed 778240 requests 259410.91 r/s elapsed 3.00
elapsed 3.00 : warmup interval speed 321896.20 previous 255420.43
processed 1170432 requests 292531.58 r/s elapsed 4.00
elapsed 4.00 : warmup interval speed 391793.55 previous 321896.20
processed 1623040 requests 324556.91 r/s elapsed 5.00
elapsed 5.00 : warmup interval speed 452724.80 previous 391793.55
processed 2119680 requests 353272.40 r/s elapsed 6.00
elapsed 6.00 : warmup interval speed 496967.00 previous 452724.80
processed 2635776 requests 376435.42 r/s elapsed 7.00
elapsed 7.00 : warmup interval speed 515166.13 previous 496967.00
within 5% of the preceding interval, warmup terminating
TOTAL: 2635776 requests 376435.42 r/s elapsed 7.00
