type: pthread aio
filename: /mnt/raid/prefetch/prefetch-2048
I/O mode: DIRECT
workload: SEQUENTIAL
duration: 20
threads: 32
queue size: 32
test mode: TEST
file size: 2147483648
file pages: 524288
start probability: 0.100
continue probability: 0.100
processed 72992 requests 72976.75 r/s elapsed 1.00
processed 147264 requests 73625.26 r/s elapsed 2.00
processed 221408 requests 73801.07 r/s elapsed 3.00
processed 295840 requests 73956.62 r/s elapsed 4.00
processed 371104 requests 74219.36 r/s elapsed 5.00
processed 445344 requests 74080.38 r/s elapsed 6.01
processed 518592 requests 74016.79 r/s elapsed 7.01
processed 592160 requests 74019.36 r/s elapsed 8.00
processed 666176 requests 73934.45 r/s elapsed 9.01
processed 739648 requests 73963.52 r/s elapsed 10.00
processed 814528 requests 74045.89 r/s elapsed 11.00
processed 888896 requests 74070.44 r/s elapsed 12.00
processed 963520 requests 74115.61 r/s elapsed 13.00
processed 1037632 requests 73965.51 r/s elapsed 14.03
processed 1109504 requests 73899.07 r/s elapsed 15.01
processed 1182400 requests 73867.36 r/s elapsed 16.01
processed 1256288 requests 73897.09 r/s elapsed 17.00
processed 1330176 requests 73890.75 r/s elapsed 18.00
processed 1404032 requests 73894.17 r/s elapsed 19.00
processed 1478368 requests 73916.71 r/s elapsed 20.00
TOTAL: 1478368 requests 73916.71 r/s elapsed 20.00
