type: pthread aio
filename: /mnt/raid/prefetch/prefetch-2048
I/O mode: BUFFERED
workload: SEQUENTIAL
duration: 20
threads: 8
queue size: 32
test mode: WARMUP
file size: 2147483648
file pages: 524288
start probability: 0.010
continue probability: 0.500
processed 36704 requests 36651.73 r/s elapsed 1.00
elapsed 1.00 : warmup interval speed 36651.73 previous 0.00
processed 75968 requests 37885.38 r/s elapsed 2.01
elapsed 2.01 : warmup interval speed 39116.14 previous 36651.73
processed 117376 requests 39104.28 r/s elapsed 3.00
elapsed 3.00 : warmup interval speed 41557.23 previous 39116.14
processed 176032 requests 43996.12 r/s elapsed 4.00
elapsed 4.00 : warmup interval speed 58687.40 previous 41557.23
processed 502176 requests 100433.85 r/s elapsed 5.00
elapsed 5.00 : warmup interval speed 326474.72 previous 58687.40
processed 1038592 requests 173098.35 r/s elapsed 6.00
elapsed 6.00 : warmup interval speed 536446.04 previous 326474.72
processed 1608960 requests 229849.89 r/s elapsed 7.00
elapsed 7.00 : warmup interval speed 570347.47 previous 536446.04
processed 2194592 requests 274323.25 r/s elapsed 8.00
elapsed 8.00 : warmup interval speed 585646.64 previous 570347.47
within 5% of the preceding interval, warmup terminating
TOTAL: 2194592 requests 274323.25 r/s elapsed 8.00
