type: pthread fadvise
filename: /mnt/raid/prefetch/prefetch-2048
I/O mode: BUFFERED
workload: SEQUENTIAL
duration: 20
threads: 32
queue size: 1024
test mode: TEST
file size: 2147483648
file pages: 524288
start probability: 0.010
continue probability: 0.900
processed 1020928 requests 1020499.39 r/s elapsed 1.00
processed 2045952 requests 1022519.96 r/s elapsed 2.00
processed 3069952 requests 1022996.11 r/s elapsed 3.00
processed 4094976 requests 1023662.87 r/s elapsed 4.00
processed 5118976 requests 1023499.41 r/s elapsed 5.00
processed 6141952 requests 1023618.23 r/s elapsed 6.00
processed 7165952 requests 1023666.48 r/s elapsed 7.00
processed 8190976 requests 1023867.65 r/s elapsed 8.00
processed 9216000 requests 1023906.37 r/s elapsed 9.00
processed 10240000 requests 1023855.02 r/s elapsed 10.00
processed 11262976 requests 1023890.43 r/s elapsed 11.00
processed 12286976 requests 1023912.79 r/s elapsed 12.00
processed 13312000 requests 1023986.22 r/s elapsed 13.00
processed 14337024 requests 1024054.78 r/s elapsed 14.00
processed 15361024 requests 1024027.72 r/s elapsed 15.00
processed 16385024 requests 1023980.80 r/s elapsed 16.00
processed 17409024 requests 1024020.30 r/s elapsed 17.00
processed 18433024 requests 1024040.67 r/s elapsed 18.00
processed 19458048 requests 1024071.95 r/s elapsed 19.00
processed 20482048 requests 1024074.24 r/s elapsed 20.00
TOTAL: 20482048 requests 1024074.24 r/s elapsed 20.00
