type: pthread aio
filename: /mnt/raid/prefetch/prefetch-2048
I/O mode: DIRECT
workload: SEQUENTIAL
duration: 20
threads: 8
queue size: 32
test mode: TEST
file size: 2147483648
file pages: 524288
start probability: 0.010
continue probability: 0.100
processed 56224 requests 56221.19 r/s elapsed 1.00
processed 112448 requests 56178.58 r/s elapsed 2.00
processed 169280 requests 56420.65 r/s elapsed 3.00
processed 225984 requests 56492.17 r/s elapsed 4.00
processed 282592 requests 56515.31 r/s elapsed 5.00
processed 339424 requests 56566.65 r/s elapsed 6.00
processed 396064 requests 56580.15 r/s elapsed 7.00
processed 453088 requests 56632.99 r/s elapsed 8.00
processed 509984 requests 56662.30 r/s elapsed 9.00
processed 566752 requests 56672.62 r/s elapsed 10.00
processed 623648 requests 56694.65 r/s elapsed 11.00
processed 680384 requests 56696.78 r/s elapsed 12.00
processed 737824 requests 56753.10 r/s elapsed 13.00
processed 795264 requests 56803.46 r/s elapsed 14.00
processed 852992 requests 56859.47 r/s elapsed 15.00
processed 910464 requests 56902.35 r/s elapsed 16.00
processed 967808 requests 56929.02 r/s elapsed 17.00
processed 1025408 requests 56966.82 r/s elapsed 18.00
processed 1083072 requests 57002.61 r/s elapsed 19.00
processed 1140576 requests 57027.50 r/s elapsed 20.00
TOTAL: 1140576 requests 57027.50 r/s elapsed 20.00
