type: pthread aio
filename: /mnt/raid/prefetch/prefetch-2048
I/O mode: BUFFERED
workload: RANDOM
duration: 20
threads: 16
queue size: 1024
test mode: WARMUP
file size: 2147483648
file pages: 524288
processed 113664 requests 112940.50 r/s elapsed 1.01
elapsed 1.01 : warmup interval speed 112940.50 previous 0.00
processed 235520 requests 117635.19 r/s elapsed 2.00
elapsed 2.00 : warmup interval speed 122380.28 previous 112940.50
processed 353280 requests 117011.28 r/s elapsed 3.02
elapsed 3.02 : warmup interval speed 115783.12 previous 122380.28
within 5% of the preceding interval, warmup terminating
TOTAL: 353280 requests 117011.28 r/s elapsed 3.02
