type: pthread aio
filename: /mnt/raid/prefetch/prefetch-2048
I/O mode: BUFFERED
workload: SEQUENTIAL
duration: 20
threads: 1
queue size: 128
test mode: WARMUP
file size: 2147483648
file pages: 524288
start probability: 0.100
continue probability: 0.900
processed 144384 requests 142225.02 r/s elapsed 1.02
elapsed 1.02 : warmup interval speed 142225.02 previous 0.00
processed 288896 requests 144388.15 r/s elapsed 2.00
elapsed 2.00 : warmup interval speed 146616.09 previous 142225.02
within 5% of the preceding interval, warmup terminating
TOTAL: 288896 requests 144388.15 r/s elapsed 2.00
