type: pthread aio
filename: /mnt/raid/prefetch/prefetch-2048
I/O mode: BUFFERED
workload: SEQUENTIAL
duration: 20
threads: 8
queue size: 32
test mode: TEST
file size: 2147483648
file pages: 524288
start probability: 0.010
continue probability: 0.900
processed 818560 requests 818123.94 r/s elapsed 1.00
processed 1638816 requests 819213.03 r/s elapsed 2.00
processed 2459232 requests 819630.34 r/s elapsed 3.00
processed 3279840 requests 819876.99 r/s elapsed 4.00
processed 4099392 requests 818602.69 r/s elapsed 5.01
processed 4911616 requests 817669.02 r/s elapsed 6.01
processed 5726912 requests 818086.34 r/s elapsed 7.00
processed 6546880 requests 818319.60 r/s elapsed 8.00
processed 7367744 requests 818600.75 r/s elapsed 9.00
processed 8188320 requests 818798.43 r/s elapsed 10.00
processed 9008672 requests 818940.18 r/s elapsed 11.00
processed 9829760 requests 819114.93 r/s elapsed 12.00
processed 10650688 requests 819257.85 r/s elapsed 13.00
processed 11471936 requests 819421.07 r/s elapsed 14.00
processed 12291328 requests 819115.95 r/s elapsed 15.01
processed 13107392 requests 819192.24 r/s elapsed 16.00
processed 13927936 requests 819289.49 r/s elapsed 17.00
processed 14749472 requests 819412.93 r/s elapsed 18.00
processed 15570656 requests 819489.58 r/s elapsed 19.00
processed 16390016 requests 819499.49 r/s elapsed 20.00
TOTAL: 16390016 requests 819499.49 r/s elapsed 20.00
