type: pthread aio
filename: /mnt/raid/prefetch/prefetch-2048
I/O mode: BUFFERED
workload: SEQUENTIAL
duration: 20
threads: 1
queue size: 32
test mode: TEST
file size: 2147483648
file pages: 524288
start probability: 0.100
continue probability: 0.500
processed 111584 requests 47812.42 r/s elapsed 2.33
processed 311712 requests 103901.71 r/s elapsed 3.00
processed 943808 requests 235950.11 r/s elapsed 4.00
processed 1627776 requests 325552.66 r/s elapsed 5.00
processed 2325280 requests 387544.60 r/s elapsed 6.00
processed 3026912 requests 432414.15 r/s elapsed 7.00
processed 3732736 requests 466591.53 r/s elapsed 8.00
processed 4437952 requests 493103.48 r/s elapsed 9.00
processed 5143040 requests 514302.87 r/s elapsed 10.00
processed 5849216 requests 531746.76 r/s elapsed 11.00
processed 6553568 requests 546130.44 r/s elapsed 12.00
processed 7258336 requests 558332.29 r/s elapsed 13.00
processed 7965120 requests 568936.21 r/s elapsed 14.00
processed 8669184 requests 577945.10 r/s elapsed 15.00
processed 9374432 requests 585901.05 r/s elapsed 16.00
processed 10079296 requests 592899.07 r/s elapsed 17.00
processed 10784064 requests 599114.03 r/s elapsed 18.00
processed 11489408 requests 604705.37 r/s elapsed 19.00
processed 12192480 requests 609623.09 r/s elapsed 20.00
TOTAL: 12192480 requests 609623.09 r/s elapsed 20.00
