type: pthread aio
filename: /mnt/raid/prefetch/prefetch-2048
I/O mode: DIRECT
workload: SEQUENTIAL
duration: 20
threads: 8
queue size: 32
test mode: TEST
file size: 2147483648
file pages: 524288
start probability: 0.100
continue probability: 0.900
processed 43200 requests 43180.87 r/s elapsed 1.00
processed 86368 requests 42930.39 r/s elapsed 2.01
processed 128960 requests 42980.11 r/s elapsed 3.00
processed 171968 requests 42983.71 r/s elapsed 4.00
processed 214976 requests 42991.53 r/s elapsed 5.00
processed 257952 requests 42971.77 r/s elapsed 6.00
processed 300960 requests 42992.49 r/s elapsed 7.00
processed 344000 requests 42996.90 r/s elapsed 8.00
processed 386976 requests 42994.06 r/s elapsed 9.00
processed 430272 requests 43025.47 r/s elapsed 10.00
processed 473376 requests 43032.88 r/s elapsed 11.00
processed 516480 requests 43039.28 r/s elapsed 12.00
processed 559904 requests 43068.68 r/s elapsed 13.00
processed 603072 requests 43075.68 r/s elapsed 14.00
processed 646304 requests 43085.63 r/s elapsed 15.00
processed 689376 requests 43079.77 r/s elapsed 16.00
processed 732384 requests 43077.82 r/s elapsed 17.00
processed 775424 requests 43079.02 r/s elapsed 18.00
processed 818624 requests 43084.39 r/s elapsed 19.00
processed 861952 requests 43097.05 r/s elapsed 20.00
TOTAL: 861952 requests 43097.05 r/s elapsed 20.00
