type: pthread fadvise
filename: /mnt/raid/prefetch/prefetch-2048
I/O mode: BUFFERED
workload: SEQUENTIAL
duration: 20
threads: 1
queue size: 8
test mode: TEST
file size: 2147483648
file pages: 524288
start probability: 0.100
continue probability: 0.900
processed 57728 requests 57713.57 r/s elapsed 1.00
processed 115432 requests 46941.34 r/s elapsed 2.46
processed 140824 requests 44211.62 r/s elapsed 3.19
processed 176848 requests 41899.52 r/s elapsed 4.22
processed 209504 requests 40650.19 r/s elapsed 5.15
processed 243904 requests 39760.16 r/s elapsed 6.13
processed 278328 requests 39142.12 r/s elapsed 7.11
processed 338736 requests 42341.90 r/s elapsed 8.00
processed 404088 requests 44897.84 r/s elapsed 9.00
processed 462632 requests 46262.70 r/s elapsed 10.00
processed 521512 requests 47410.16 r/s elapsed 11.00
processed 579664 requests 48304.91 r/s elapsed 12.00
processed 695896 requests 53530.24 r/s elapsed 13.00
processed 790104 requests 56435.33 r/s elapsed 14.00
processed 898592 requests 59905.51 r/s elapsed 15.00
processed 1060712 requests 66294.47 r/s elapsed 16.00
processed 1246528 requests 73325.15 r/s elapsed 17.00
processed 1485736 requests 82540.70 r/s elapsed 18.00
processed 1849960 requests 97366.22 r/s elapsed 19.00
processed 2315144 requests 115757.19 r/s elapsed 20.00
TOTAL: 2315144 requests 115757.19 r/s elapsed 20.00
