type: aio
filename: /mnt/data/prefetch/prefetch-2048
I/O mode: BUFFERED
workload: SEQUENTIAL
duration: 20
queue size: 128
test mode: TEST
file size: 2147483648
file pages: 524288
start probability: 0.100
continue probability: 0.100
processed 651904 requests 651801.02 r/s elapsed 1.00
processed 1305984 requests 652956.09 r/s elapsed 2.00
processed 1959552 requests 653145.25 r/s elapsed 3.00
processed 2614528 requests 653609.61 r/s elapsed 4.00
processed 3269504 requests 653878.18 r/s elapsed 5.00
processed 3923968 requests 653981.04 r/s elapsed 6.00
processed 4578688 requests 654095.20 r/s elapsed 7.00
processed 5232896 requests 654107.42 r/s elapsed 8.00
processed 5887488 requests 654152.32 r/s elapsed 9.00
processed 6541696 requests 654162.27 r/s elapsed 10.00
processed 7196032 requests 654177.17 r/s elapsed 11.00
processed 7850496 requests 654206.31 r/s elapsed 12.00
processed 8505600 requests 654268.47 r/s elapsed 13.00
processed 9159424 requests 654244.38 r/s elapsed 14.00
processed 9814400 requests 654287.62 r/s elapsed 15.00
processed 10468992 requests 654311.51 r/s elapsed 16.00
processed 11124096 requests 654357.66 r/s elapsed 17.00
processed 11779072 requests 654390.23 r/s elapsed 18.00
processed 12433408 requests 654386.62 r/s elapsed 19.00
processed 13087232 requests 654359.80 r/s elapsed 20.00
TOTAL: 13087232 requests 654359.80 r/s elapsed 20.00
