type: aio
filename: /mnt/data/prefetch/prefetch-2048
I/O mode: BUFFERED
workload: RANDOM
duration: 20
queue size: 1
test mode: WARMUP
file size: 2147483648
file pages: 524288
processed 75528 requests 75527.77 r/s elapsed 1.00
elapsed 1.00 : warmup interval speed 75527.77 previous 0.00
processed 160545 requests 80272.18 r/s elapsed 2.00
elapsed 2.00 : warmup interval speed 85016.57 previous 75527.77
processed 256672 requests 85557.11 r/s elapsed 3.00
elapsed 3.00 : warmup interval speed 96127.00 previous 85016.57
processed 372746 requests 93186.24 r/s elapsed 4.00
elapsed 4.00 : warmup interval speed 116073.65 previous 96127.00
processed 528623 requests 105724.41 r/s elapsed 5.00
elapsed 5.00 : warmup interval speed 155877.31 previous 116073.65
processed 783818 requests 130636.16 r/s elapsed 6.00
elapsed 6.00 : warmup interval speed 255195.26 previous 155877.31
processed 1194049 requests 170578.43 r/s elapsed 7.00
elapsed 7.00 : warmup interval speed 410234.28 previous 255195.26
processed 1672213 requests 209026.60 r/s elapsed 8.00
elapsed 8.00 : warmup interval speed 478163.52 previous 410234.28
processed 2165211 requests 240579.00 r/s elapsed 9.00
elapsed 9.00 : warmup interval speed 492998.49 previous 478163.52
within 5% of the preceding interval, warmup terminating
TOTAL: 2165211 requests 240579.00 r/s elapsed 9.00
