type: aio
filename: /mnt/data/prefetch/prefetch-2048
I/O mode: DIRECT
workload: SEQUENTIAL
duration: 20
queue size: 1
test mode: TEST
file size: 2147483648
file pages: 524288
start probability: 0.100
continue probability: 0.500
processed 93488 requests 93487.63 r/s elapsed 1.00
processed 187268 requests 93633.67 r/s elapsed 2.00
processed 280493 requests 93497.45 r/s elapsed 3.00
processed 373532 requests 93382.88 r/s elapsed 4.00
processed 466287 requests 93257.38 r/s elapsed 5.00
processed 558860 requests 93143.29 r/s elapsed 6.00
processed 651470 requests 93067.09 r/s elapsed 7.00
processed 743797 requests 92974.53 r/s elapsed 8.00
processed 836302 requests 92922.39 r/s elapsed 9.00
processed 928836 requests 92883.54 r/s elapsed 10.00
processed 1021294 requests 92844.89 r/s elapsed 11.00
processed 1113819 requests 92818.22 r/s elapsed 12.00
processed 1206439 requests 92802.95 r/s elapsed 13.00
processed 1299107 requests 92793.33 r/s elapsed 14.00
processed 1391718 requests 92781.17 r/s elapsed 15.00
processed 1484596 requests 92787.23 r/s elapsed 16.00
processed 1577456 requests 92791.52 r/s elapsed 17.00
processed 1670312 requests 92795.09 r/s elapsed 18.00
processed 1763195 requests 92799.73 r/s elapsed 19.00
processed 1856136 requests 92806.77 r/s elapsed 20.00
TOTAL: 1856136 requests 92806.77 r/s elapsed 20.00
