type: POSIX aio
filename: /mnt/data/prefetch/prefetch-2048
I/O mode: BUFFERED
workload: RANDOM
duration: 20
threads: 1
queue size: 1
test mode: WARMUP
file size: 2147483648
file pages: 524288
processed 50366 requests 50365.50 r/s elapsed 1.00
elapsed 1.00 : warmup interval speed 50365.50 previous 0.00
processed 103134 requests 51566.85 r/s elapsed 2.00
elapsed 2.00 : warmup interval speed 52768.21 previous 50365.50
within 5% of the preceding interval, warmup terminating
TOTAL: 103134 requests 51566.85 r/s elapsed 2.00
