type: POSIX aio
filename: /mnt/data/prefetch/prefetch-2048
I/O mode: BUFFERED
workload: SEQUENTIAL
duration: 20
threads: 8
queue size: 128
test mode: WARMUP
file size: 2147483648
file pages: 524288
start probability: 0.100
continue probability: 0.100
processed 75648 requests 75547.52 r/s elapsed 1.00
elapsed 1.00 : warmup interval speed 75547.52 previous 0.00
processed 165632 requests 82778.67 r/s elapsed 2.00
elapsed 2.00 : warmup interval speed 90022.53 previous 75547.52
processed 274944 requests 91636.45 r/s elapsed 3.00
elapsed 3.00 : warmup interval speed 109369.31 previous 90022.53
processed 416640 requests 104145.84 r/s elapsed 4.00
elapsed 4.00 : warmup interval speed 141672.48 previous 109369.31
processed 597888 requests 119575.45 r/s elapsed 5.00
elapsed 5.00 : warmup interval speed 181330.32 previous 141672.48
processed 805632 requests 134259.20 r/s elapsed 6.00
elapsed 6.00 : warmup interval speed 207643.92 previous 181330.32
processed 1012736 requests 144671.03 r/s elapsed 7.00
elapsed 7.00 : warmup interval speed 207166.98 previous 207643.92
within 5% of the preceding interval, warmup terminating
TOTAL: 1012736 requests 144671.03 r/s elapsed 7.00
