type: POSIX aio
filename: /mnt/data/prefetch/prefetch-2048
I/O mode: DIRECT
workload: SEQUENTIAL
duration: 20
threads: 1
queue size: 1
test mode: TEST
file size: 2147483648
file pages: 524288
start probability: 0.010
continue probability: 0.900
processed 35070 requests 35069.40 r/s elapsed 1.00
processed 70179 requests 35088.94 r/s elapsed 2.00
processed 105760 requests 35253.29 r/s elapsed 3.00
processed 141326 requests 35331.49 r/s elapsed 4.00
processed 177150 requests 35429.91 r/s elapsed 5.00
processed 213767 requests 35627.70 r/s elapsed 6.00
processed 250549 requests 35792.71 r/s elapsed 7.00
processed 287410 requests 35926.25 r/s elapsed 8.00
processed 324104 requests 36011.50 r/s elapsed 9.00
processed 360849 requests 36084.89 r/s elapsed 10.00
processed 397786 requests 36162.28 r/s elapsed 11.00
processed 434587 requests 36215.54 r/s elapsed 12.00
processed 471506 requests 36269.63 r/s elapsed 13.00
processed 508187 requests 36298.99 r/s elapsed 14.00
processed 544478 requests 36298.48 r/s elapsed 15.00
processed 580403 requests 36275.12 r/s elapsed 16.00
processed 616175 requests 36245.55 r/s elapsed 17.00
processed 652056 requests 36225.33 r/s elapsed 18.00
processed 687892 requests 36204.80 r/s elapsed 19.00
processed 724034 requests 36201.69 r/s elapsed 20.00
TOTAL: 724034 requests 36201.69 r/s elapsed 20.00
