type: POSIX aio
filename: /mnt/data/prefetch/prefetch-2048
I/O mode: BUFFERED
workload: SEQUENTIAL
duration: 20
threads: 16
queue size: 32
test mode: TEST
file size: 2147483648
file pages: 524288
start probability: 0.010
continue probability: 0.500
processed 202752 requests 202725.44 r/s elapsed 1.00
processed 403808 requests 201893.30 r/s elapsed 2.00
processed 606528 requests 202171.89 r/s elapsed 3.00
processed 810144 requests 202530.63 r/s elapsed 4.00
processed 1013888 requests 202773.38 r/s elapsed 5.00
processed 1219168 requests 203193.52 r/s elapsed 6.00
processed 1426048 requests 203716.43 r/s elapsed 7.00
processed 1632480 requests 204057.37 r/s elapsed 8.00
processed 1840192 requests 204465.14 r/s elapsed 9.00
processed 2045728 requests 204572.72 r/s elapsed 10.00
processed 2250944 requests 204628.46 r/s elapsed 11.00
processed 2455904 requests 204656.74 r/s elapsed 12.00
processed 2660768 requests 204672.23 r/s elapsed 13.00
processed 2865280 requests 204661.35 r/s elapsed 14.00
processed 3070400 requests 204693.33 r/s elapsed 15.00
processed 3275008 requests 204686.46 r/s elapsed 16.00
processed 3477568 requests 204561.70 r/s elapsed 17.00
processed 3679648 requests 204423.88 r/s elapsed 18.00
processed 3881472 requests 204287.81 r/s elapsed 19.00
processed 4086944 requests 204346.52 r/s elapsed 20.00
TOTAL: 4086944 requests 204346.52 r/s elapsed 20.00
