type: POSIX aio
filename: /mnt/data/prefetch/prefetch-2048
I/O mode: BUFFERED
workload: SEQUENTIAL
duration: 20
threads: 1
queue size: 128
test mode: TEST
file size: 2147483648
file pages: 524288
start probability: 0.100
continue probability: 0.100
processed 265088 requests 265030.22 r/s elapsed 1.00
processed 532480 requests 266196.61 r/s elapsed 2.00
processed 800128 requests 266705.24 r/s elapsed 3.00
processed 1061504 requests 265353.98 r/s elapsed 4.00
processed 1303552 requests 260700.96 r/s elapsed 5.00
processed 1544832 requests 257455.57 r/s elapsed 6.00
processed 1786240 requests 255171.89 r/s elapsed 7.00
processed 2027648 requests 253445.48 r/s elapsed 8.00
processed 2268416 requests 252039.67 r/s elapsed 9.00
processed 2508800 requests 250873.00 r/s elapsed 10.00
processed 2748416 requests 249847.46 r/s elapsed 11.00
processed 2988672 requests 249045.93 r/s elapsed 12.00
processed 3228160 requests 248319.87 r/s elapsed 13.00
processed 3469056 requests 247787.04 r/s elapsed 14.00
processed 3709440 requests 247286.80 r/s elapsed 15.00
processed 3949824 requests 246857.26 r/s elapsed 16.00
processed 4189824 requests 246457.26 r/s elapsed 17.00
processed 4429952 requests 246103.54 r/s elapsed 18.00
processed 4668800 requests 245720.02 r/s elapsed 19.00
processed 4907904 requests 245393.67 r/s elapsed 20.00
TOTAL: 4907904 requests 245393.67 r/s elapsed 20.00
