type: POSIX aio
filename: /mnt/data/prefetch/prefetch-2048
I/O mode: DIRECT
workload: SEQUENTIAL
duration: 20
threads: 1
queue size: 32
test mode: TEST
file size: 2147483648
file pages: 524288
start probability: 0.100
continue probability: 0.500
processed 78272 requests 78257.13 r/s elapsed 1.00
processed 158208 requests 79093.28 r/s elapsed 2.00
processed 240160 requests 80049.20 r/s elapsed 3.00
processed 322176 requests 80537.46 r/s elapsed 4.00
processed 404224 requests 80839.98 r/s elapsed 5.00
processed 485280 requests 80879.87 r/s elapsed 6.00
processed 565728 requests 80817.69 r/s elapsed 7.00
processed 647936 requests 80989.69 r/s elapsed 8.00
processed 731200 requests 81242.33 r/s elapsed 9.00
processed 814560 requests 81454.32 r/s elapsed 10.00
processed 897984 requests 81633.19 r/s elapsed 11.00
processed 981504 requests 81789.61 r/s elapsed 12.00
processed 1065216 requests 81938.77 r/s elapsed 13.00
processed 1149280 requests 82091.22 r/s elapsed 14.00
processed 1233408 requests 82225.48 r/s elapsed 15.00
processed 1309376 requests 81834.74 r/s elapsed 16.00
processed 1381888 requests 81286.48 r/s elapsed 17.00
processed 1454432 requests 80801.09 r/s elapsed 18.00
processed 1527040 requests 80369.41 r/s elapsed 19.00
processed 1599552 requests 79976.86 r/s elapsed 20.00
TOTAL: 1599552 requests 79976.86 r/s elapsed 20.00
