type: POSIX aio
filename: /mnt/data/prefetch/prefetch-2048
I/O mode: DIRECT
workload: SEQUENTIAL
duration: 20
threads: 16
queue size: 1024
test mode: TEST
file size: 2147483648
file pages: 524288
start probability: 0.100
continue probability: 0.100
processed 68608 requests 67699.94 r/s elapsed 1.01
processed 136192 requests 67722.68 r/s elapsed 2.01
processed 203776 requests 67682.02 r/s elapsed 3.01
processed 271360 requests 67598.49 r/s elapsed 4.01
processed 337920 requests 67575.24 r/s elapsed 5.00
processed 405504 requests 67583.07 r/s elapsed 6.00
processed 474112 requests 67598.61 r/s elapsed 7.01
processed 540672 requests 67568.93 r/s elapsed 8.00
processed 607232 requests 67380.11 r/s elapsed 9.01
processed 672768 requests 67239.58 r/s elapsed 10.01
processed 739328 requests 67122.44 r/s elapsed 11.01
processed 804864 requests 67035.39 r/s elapsed 12.01
processed 871424 requests 66957.86 r/s elapsed 13.01
processed 936960 requests 66896.56 r/s elapsed 14.01
processed 1003520 requests 66841.92 r/s elapsed 15.01
processed 1069056 requests 66804.33 r/s elapsed 16.00
processed 1135616 requests 66771.57 r/s elapsed 17.01
processed 1202176 requests 66739.05 r/s elapsed 18.01
processed 1267712 requests 66720.18 r/s elapsed 19.00
processed 1333248 requests 66630.20 r/s elapsed 20.01
TOTAL: 1333248 requests 66630.20 r/s elapsed 20.01
