type: POSIX aio
filename: /mnt/data/prefetch/prefetch-2048
I/O mode: BUFFERED
workload: SEQUENTIAL
duration: 20
threads: 32
queue size: 32
test mode: WARMUP
file size: 2147483648
file pages: 524288
start probability: 0.100
continue probability: 0.500
processed 91808 requests 91799.92 r/s elapsed 1.00
elapsed 1.00 : warmup interval speed 91799.92 previous 0.00
processed 218848 requests 109415.58 r/s elapsed 2.00
elapsed 2.00 : warmup interval speed 127031.62 previous 91799.92
processed 394944 requests 131647.03 r/s elapsed 3.00
elapsed 3.00 : warmup interval speed 176119.25 previous 127031.62
processed 606080 requests 151515.15 r/s elapsed 4.00
elapsed 4.00 : warmup interval speed 211113.62 previous 176119.25
processed 819968 requests 163992.52 r/s elapsed 5.00
elapsed 5.00 : warmup interval speed 213908.32 previous 211113.62
within 5% of the preceding interval, warmup terminating
TOTAL: 819968 requests 163992.52 r/s elapsed 5.00
