type: POSIX aio
filename: /mnt/data/prefetch/prefetch-2048
I/O mode: BUFFERED
workload: SEQUENTIAL
duration: 20
threads: 1
queue size: 128
test mode: TEST
file size: 2147483648
file pages: 524288
start probability: 0.010
continue probability: 0.900
processed 239744 requests 239647.42 r/s elapsed 1.00
processed 472192 requests 236083.37 r/s elapsed 2.00
processed 705536 requests 235163.46 r/s elapsed 3.00
processed 940672 requests 235153.07 r/s elapsed 4.00
processed 1176192 requests 235228.33 r/s elapsed 5.00
processed 1412608 requests 235430.00 r/s elapsed 6.00
processed 1649536 requests 235642.75 r/s elapsed 7.00
processed 1885696 requests 235700.39 r/s elapsed 8.00
processed 2123392 requests 235927.46 r/s elapsed 9.00
processed 2361472 requests 236142.24 r/s elapsed 10.00
processed 2598784 requests 236247.25 r/s elapsed 11.00
processed 2836608 requests 236374.51 r/s elapsed 12.00
processed 3073792 requests 236443.92 r/s elapsed 13.00
processed 3311360 requests 236520.19 r/s elapsed 14.00
processed 3547904 requests 236525.48 r/s elapsed 15.00
processed 3785216 requests 236571.82 r/s elapsed 16.00
processed 4021888 requests 236580.63 r/s elapsed 17.00
processed 4258816 requests 236599.77 r/s elapsed 18.00
processed 4495616 requests 236610.52 r/s elapsed 19.00
processed 4730752 requests 236532.18 r/s elapsed 20.00
TOTAL: 4730752 requests 236532.18 r/s elapsed 20.00
