type: POSIX aio
filename: /mnt/data/prefetch/prefetch-2048
I/O mode: BUFFERED
workload: SEQUENTIAL
duration: 20
threads: 1
queue size: 1
test mode: WARMUP
file size: 2147483648
file pages: 524288
start probability: 0.100
continue probability: 0.900
processed 44472 requests 44471.91 r/s elapsed 1.00
elapsed 1.00 : warmup interval speed 44471.91 previous 0.00
processed 87895 requests 43947.28 r/s elapsed 2.00
elapsed 2.00 : warmup interval speed 43422.65 previous 44471.91
within 5% of the preceding interval, warmup terminating
TOTAL: 87895 requests 43947.28 r/s elapsed 2.00
