type: POSIX aio
filename: /mnt/data/prefetch/prefetch-2048
I/O mode: BUFFERED
workload: SEQUENTIAL
duration: 20
threads: 16
queue size: 1024
test mode: TEST
file size: 2147483648
file pages: 524288
start probability: 0.010
continue probability: 0.900
processed 147456 requests 147433.88 r/s elapsed 1.00
processed 300032 requests 149893.31 r/s elapsed 2.00
processed 455680 requests 151671.99 r/s elapsed 3.00
processed 614400 requests 153355.97 r/s elapsed 4.01
processed 779264 requests 155667.24 r/s elapsed 5.01
processed 947200 requests 157865.38 r/s elapsed 6.00
processed 1122304 requests 160260.21 r/s elapsed 7.00
processed 1283072 requests 160314.32 r/s elapsed 8.00
processed 1439744 requests 159873.02 r/s elapsed 9.01
processed 1596416 requests 159564.85 r/s elapsed 10.00
processed 1753088 requests 159343.84 r/s elapsed 11.00
processed 1910784 requests 159153.46 r/s elapsed 12.01
processed 2075648 requests 159607.98 r/s elapsed 13.00
processed 2254848 requests 161051.78 r/s elapsed 14.00
processed 2433024 requests 162182.06 r/s elapsed 15.00
processed 2610176 requests 163109.94 r/s elapsed 16.00
processed 2778112 requests 163386.51 r/s elapsed 17.00
processed 2934784 requests 163004.33 r/s elapsed 18.00
processed 3091456 requests 162678.95 r/s elapsed 19.00
processed 3248128 requests 162383.15 r/s elapsed 20.00
TOTAL: 3248128 requests 162383.15 r/s elapsed 20.00
