type: POSIX aio
filename: /mnt/data/prefetch/prefetch-2048
I/O mode: BUFFERED
workload: SEQUENTIAL
duration: 20
threads: 8
queue size: 1024
test mode: WARMUP
file size: 2147483648
file pages: 524288
start probability: 0.100
continue probability: 0.100
processed 64512 requests 63913.32 r/s elapsed 1.01
elapsed 1.01 : warmup interval speed 63913.32 previous 0.00
processed 135168 requests 67191.87 r/s elapsed 2.01
elapsed 2.01 : warmup interval speed 70493.51 previous 63913.32
processed 212992 requests 70930.19 r/s elapsed 3.00
elapsed 3.00 : warmup interval speed 78517.47 previous 70493.51
processed 300032 requests 74963.19 r/s elapsed 4.00
elapsed 4.00 : warmup interval speed 87079.10 previous 78517.47
processed 399360 requests 79735.32 r/s elapsed 5.01
elapsed 5.01 : warmup interval speed 98717.92 previous 87079.10
processed 510976 requests 85123.58 r/s elapsed 6.00
elapsed 6.00 : warmup interval speed 112268.96 previous 98717.92
processed 641024 requests 91502.82 r/s elapsed 7.01
elapsed 7.01 : warmup interval speed 129690.57 previous 112268.96
processed 782336 requests 97723.08 r/s elapsed 8.01
elapsed 8.01 : warmup interval speed 141293.49 previous 129690.57
processed 931840 requests 103465.90 r/s elapsed 9.01
elapsed 9.01 : warmup interval speed 149412.86 previous 141293.49
processed 1088512 requests 108797.68 r/s elapsed 10.00
elapsed 10.00 : warmup interval speed 156881.12 previous 149412.86
within 5% of the preceding interval, warmup terminating
TOTAL: 1088512 requests 108797.68 r/s elapsed 10.00
