type: pthread aio
filename: /mnt/data/prefetch/prefetch-2048
I/O mode: DIRECT
workload: SEQUENTIAL
duration: 20
threads: 16
queue size: 128
test mode: TEST
file size: 2147483648
file pages: 524288
start probability: 0.010
continue probability: 0.500
processed 356864 requests 356651.79 r/s elapsed 1.00
processed 719744 requests 359816.05 r/s elapsed 2.00
processed 1089664 requests 363214.67 r/s elapsed 3.00
processed 1458176 requests 364511.83 r/s elapsed 4.00
processed 1832576 requests 366505.01 r/s elapsed 5.00
processed 2209536 requests 368252.38 r/s elapsed 6.00
processed 2584064 requests 369151.16 r/s elapsed 7.00
processed 2964736 requests 370587.65 r/s elapsed 8.00
processed 3342848 requests 371412.29 r/s elapsed 9.00
processed 3718784 requests 371875.72 r/s elapsed 10.00
processed 4095744 requests 372330.82 r/s elapsed 11.00
processed 4471680 requests 372635.12 r/s elapsed 12.00
processed 4850304 requests 373097.01 r/s elapsed 13.00
processed 5230592 requests 373612.73 r/s elapsed 14.00
processed 5608192 requests 373872.44 r/s elapsed 15.00
processed 5988608 requests 374286.08 r/s elapsed 16.00
processed 6367488 requests 374555.08 r/s elapsed 17.00
processed 6747520 requests 374859.04 r/s elapsed 18.00
processed 7127808 requests 375145.80 r/s elapsed 19.00
processed 7508224 requests 375408.01 r/s elapsed 20.00
TOTAL: 7508224 requests 375408.01 r/s elapsed 20.00
