type: pthread aio
filename: /mnt/data/prefetch/prefetch-2048
I/O mode: DIRECT
workload: RANDOM
duration: 20
threads: 8
queue size: 1024
test mode: TEST
file size: 2147483648
file pages: 524288
processed 500736 requests 500049.43 r/s elapsed 1.00
processed 1022976 requests 511164.94 r/s elapsed 2.00
processed 1550336 requests 516521.27 r/s elapsed 3.00
processed 2087936 requests 521921.76 r/s elapsed 4.00
processed 2622464 requests 524294.72 r/s elapsed 5.00
processed 3146752 requests 524386.39 r/s elapsed 6.00
processed 3671040 requests 524064.52 r/s elapsed 7.00
processed 4198400 requests 524755.79 r/s elapsed 8.00
processed 4726784 requests 525196.88 r/s elapsed 9.00
processed 5259264 requests 525878.44 r/s elapsed 10.00
processed 5785600 requests 525691.04 r/s elapsed 11.01
processed 6308864 requests 525689.47 r/s elapsed 12.00
processed 6834176 requests 524881.34 r/s elapsed 13.02
processed 7351296 requests 525042.35 r/s elapsed 14.00
processed 7876608 requests 524977.60 r/s elapsed 15.00
processed 8415232 requests 525906.34 r/s elapsed 16.00
processed 8960000 requests 527045.28 r/s elapsed 17.00
processed 9490432 requests 527219.45 r/s elapsed 18.00
processed 10034176 requests 528106.74 r/s elapsed 19.00
processed 10573824 requests 528665.61 r/s elapsed 20.00
TOTAL: 10573824 requests 528665.61 r/s elapsed 20.00
