type: pthread fadvise
filename: /mnt/data/prefetch/prefetch-2048
I/O mode: BUFFERED
workload: SEQUENTIAL
duration: 20
threads: 16
queue size: 1024
test mode: TEST
file size: 2147483648
file pages: 524288
start probability: 0.010
continue probability: 0.500
processed 603136 requests 601642.72 r/s elapsed 1.00
processed 1204224 requests 599697.62 r/s elapsed 2.01
processed 1799168 requests 599124.54 r/s elapsed 3.00
processed 2397184 requests 598962.23 r/s elapsed 4.00
processed 2995200 requests 598977.59 r/s elapsed 5.00
processed 3595264 requests 599196.49 r/s elapsed 6.00
processed 4195328 requests 599224.28 r/s elapsed 7.00
processed 4795392 requests 599319.79 r/s elapsed 8.00
processed 5394432 requests 599309.82 r/s elapsed 9.00
processed 5993472 requests 599344.44 r/s elapsed 10.00
processed 6593536 requests 599336.90 r/s elapsed 11.00
processed 7192576 requests 599138.53 r/s elapsed 12.00
processed 7789568 requests 598939.53 r/s elapsed 13.01
processed 8385536 requests 598738.35 r/s elapsed 14.01
processed 8981504 requests 598670.39 r/s elapsed 15.00
processed 9579520 requests 598495.60 r/s elapsed 16.01
processed 10174464 requests 598376.24 r/s elapsed 17.00
processed 10771456 requests 598291.84 r/s elapsed 18.00
processed 11368448 requests 598206.44 r/s elapsed 19.00
processed 11964416 requests 598112.75 r/s elapsed 20.00
TOTAL: 11964416 requests 598112.75 r/s elapsed 20.00
