type: pthread fadvise
filename: /mnt/data/prefetch/prefetch-2048
I/O mode: BUFFERED
workload: SEQUENTIAL
duration: 20
threads: 16
queue size: 32
test mode: TEST
file size: 2147483648
file pages: 524288
start probability: 0.010
continue probability: 0.500
processed 360864 requests 360827.92 r/s elapsed 1.00
processed 726720 requests 363343.47 r/s elapsed 2.00
processed 1090048 requests 360397.08 r/s elapsed 3.02
processed 1441600 requests 357853.34 r/s elapsed 4.03
processed 1789280 requests 356536.60 r/s elapsed 5.02
processed 2139232 requests 355650.55 r/s elapsed 6.01
processed 2489568 requests 355043.57 r/s elapsed 7.01
processed 2840352 requests 354603.80 r/s elapsed 8.01
processed 3191456 requests 354224.88 r/s elapsed 9.01
processed 3542272 requests 354050.56 r/s elapsed 10.00
processed 3894560 requests 353977.64 r/s elapsed 11.00
processed 4247744 requests 353972.56 r/s elapsed 12.00
processed 4601664 requests 353953.41 r/s elapsed 13.00
processed 4955360 requests 353740.50 r/s elapsed 14.01
processed 5306112 requests 352823.69 r/s elapsed 15.04
processed 5645184 requests 352005.87 r/s elapsed 16.04
processed 5984128 requests 351341.76 r/s elapsed 17.03
processed 6324160 requests 350834.12 r/s elapsed 18.03
processed 6665856 requests 350413.15 r/s elapsed 19.02
processed 7008288 requests 350024.67 r/s elapsed 20.02
TOTAL: 7008288 requests 350024.67 r/s elapsed 20.02
