type: pthread aio
filename: /mnt/data/prefetch/prefetch-2048
I/O mode: BUFFERED
workload: SEQUENTIAL
duration: 20
threads: 1
queue size: 1024
test mode: WARMUP
file size: 2147483648
file pages: 524288
start probability: 0.010
continue probability: 0.100
processed 86016 requests 85415.53 r/s elapsed 1.01
elapsed 1.01 : warmup interval speed 85415.53 previous 0.00
processed 181248 requests 90279.81 r/s elapsed 2.01
elapsed 2.01 : warmup interval speed 95175.37 previous 85415.53
processed 290816 requests 96662.44 r/s elapsed 3.01
elapsed 3.01 : warmup interval speed 109464.23 previous 95175.37
processed 422912 requests 105553.05 r/s elapsed 4.01
elapsed 4.01 : warmup interval speed 132353.16 previous 109464.23
processed 599040 requests 119687.64 r/s elapsed 5.01
elapsed 5.01 : warmup interval speed 176410.61 previous 132353.16
processed 856064 requests 142670.56 r/s elapsed 6.00
elapsed 6.00 : warmup interval speed 258248.87 previous 176410.61
processed 1200128 requests 171422.44 r/s elapsed 7.00
elapsed 7.00 : warmup interval speed 343819.20 previous 258248.87
processed 1576960 requests 197108.32 r/s elapsed 8.00
elapsed 8.00 : warmup interval speed 377029.19 previous 343819.20
processed 1966080 requests 218427.27 r/s elapsed 9.00
elapsed 9.00 : warmup interval speed 388886.67 previous 377029.19
within 5% of the preceding interval, warmup terminating
TOTAL: 1966080 requests 218427.27 r/s elapsed 9.00
