type: pthread aio
filename: /mnt/data/prefetch/prefetch-2048
I/O mode: BUFFERED
workload: SEQUENTIAL
duration: 20
threads: 1
queue size: 8
test mode: WARMUP
file size: 2147483648
file pages: 524288
start probability: 0.010
continue probability: 0.900
processed 172360 requests 172357.24 r/s elapsed 1.00
elapsed 1.00 : warmup interval speed 172357.24 previous 0.00
processed 471696 requests 235847.53 r/s elapsed 2.00
elapsed 2.00 : warmup interval speed 299339.59 previous 172357.24
processed 873800 requests 291264.92 r/s elapsed 3.00
elapsed 3.00 : warmup interval speed 402098.37 previous 299339.59
processed 1314240 requests 328559.75 r/s elapsed 4.00
elapsed 4.00 : warmup interval speed 440446.61 previous 402098.37
processed 1762456 requests 352490.64 r/s elapsed 5.00
elapsed 5.00 : warmup interval speed 448213.76 previous 440446.61
within 5% of the preceding interval, warmup terminating
TOTAL: 1762456 requests 352490.64 r/s elapsed 5.00
