type: pthread fadvise
filename: /mnt/data/prefetch/prefetch-2048
I/O mode: BUFFERED
workload: SEQUENTIAL
duration: 20
threads: 32
queue size: 32
test mode: TEST
file size: 2147483648
file pages: 524288
start probability: 0.010
continue probability: 0.900
processed 261344 requests 261335.11 r/s elapsed 1.00
processed 522688 requests 261199.30 r/s elapsed 2.00
processed 783904 requests 261287.75 r/s elapsed 3.00
processed 1046176 requests 261538.12 r/s elapsed 4.00
processed 1309248 requests 261845.99 r/s elapsed 5.00
processed 1573312 requests 262213.64 r/s elapsed 6.00
processed 1837696 requests 262524.96 r/s elapsed 7.00
processed 2102464 requests 262807.97 r/s elapsed 8.00
processed 2367552 requests 263059.61 r/s elapsed 9.00
processed 2633248 requests 263322.48 r/s elapsed 10.00
processed 2899040 requests 263546.19 r/s elapsed 11.00
processed 3164992 requests 263748.67 r/s elapsed 12.00
processed 3430624 requests 263894.13 r/s elapsed 13.00
processed 3697120 requests 264077.93 r/s elapsed 14.00
processed 3963552 requests 264236.02 r/s elapsed 15.00
processed 4229952 requests 264371.54 r/s elapsed 16.00
processed 4496576 requests 264504.11 r/s elapsed 17.00
processed 4761952 requests 264552.14 r/s elapsed 18.00
processed 5027456 requests 264602.10 r/s elapsed 19.00
processed 5294080 requests 264702.11 r/s elapsed 20.00
TOTAL: 5294080 requests 264702.11 r/s elapsed 20.00
