type: pthread aio
filename: /mnt/data/prefetch/prefetch-2048
I/O mode: BUFFERED
workload: SEQUENTIAL
duration: 20
threads: 1
queue size: 8
test mode: TEST
file size: 2147483648
file pages: 524288
start probability: 0.100
continue probability: 0.900
processed 496752 requests 496486.88 r/s elapsed 1.00
processed 992976 requests 494645.45 r/s elapsed 2.01
processed 1483936 requests 494590.10 r/s elapsed 3.00
processed 1979536 requests 494873.11 r/s elapsed 4.00
processed 2482064 requests 496409.42 r/s elapsed 5.00
processed 2984760 requests 497401.80 r/s elapsed 6.00
processed 3484856 requests 497793.48 r/s elapsed 7.00
processed 3982352 requests 495164.06 r/s elapsed 8.04
processed 4459616 requests 495503.36 r/s elapsed 9.00
processed 4965544 requests 496544.12 r/s elapsed 10.00
processed 5470280 requests 497291.63 r/s elapsed 11.00
processed 5968872 requests 497401.44 r/s elapsed 12.00
processed 6467240 requests 497476.59 r/s elapsed 13.00
processed 6966392 requests 497590.37 r/s elapsed 14.00
processed 7464872 requests 497655.25 r/s elapsed 15.00
processed 7963552 requests 497718.08 r/s elapsed 16.00
processed 8462064 requests 497765.98 r/s elapsed 17.00
processed 8960848 requests 497822.01 r/s elapsed 18.00
processed 9459232 requests 497852.09 r/s elapsed 19.00
processed 9957688 requests 497881.44 r/s elapsed 20.00
TOTAL: 9957688 requests 497881.44 r/s elapsed 20.00
