type: pthread aio
filename: /mnt/data/prefetch/prefetch-2048
I/O mode: DIRECT
workload: SEQUENTIAL
duration: 20
threads: 1
queue size: 8
test mode: TEST
file size: 2147483648
file pages: 524288
start probability: 0.010
continue probability: 0.100
processed 70800 requests 70781.81 r/s elapsed 1.00
processed 141568 requests 70511.58 r/s elapsed 2.01
processed 211536 requests 70411.03 r/s elapsed 3.00
processed 282256 requests 70563.38 r/s elapsed 4.00
processed 353840 requests 70767.77 r/s elapsed 5.00
processed 425440 requests 70906.19 r/s elapsed 6.00
processed 497144 requests 71020.49 r/s elapsed 7.00
processed 569192 requests 71148.24 r/s elapsed 8.00
processed 641264 requests 71251.50 r/s elapsed 9.00
processed 713376 requests 71337.41 r/s elapsed 10.00
processed 785496 requests 71408.44 r/s elapsed 11.00
processed 857648 requests 71470.59 r/s elapsed 12.00
processed 930376 requests 71567.31 r/s elapsed 13.00
processed 1002824 requests 71630.05 r/s elapsed 14.00
processed 1075584 requests 71705.41 r/s elapsed 15.00
processed 1148352 requests 71771.56 r/s elapsed 16.00
processed 1221008 requests 71822.72 r/s elapsed 17.00
processed 1294128 requests 71895.78 r/s elapsed 18.00
processed 1367360 requests 71965.78 r/s elapsed 19.00
processed 1440400 requests 72019.85 r/s elapsed 20.00
TOTAL: 1440400 requests 72019.85 r/s elapsed 20.00
