type: aio
filename: /mnt/raid/prefetch/prefetch-16384
I/O mode: DIRECT
workload: SEQUENTIAL
duration: 20
queue size: 128
test mode: TEST
file size: 17179869184
file pages: 4194304
start probability: 0.010
continue probability: 0.100
processed 135552 requests 135452.17 r/s elapsed 1.00
processed 271104 requests 135492.79 r/s elapsed 2.00
processed 405632 requests 135200.17 r/s elapsed 3.00
processed 540288 requests 135046.14 r/s elapsed 4.00
processed 674176 requests 134831.78 r/s elapsed 5.00
processed 808960 requests 134822.31 r/s elapsed 6.00
processed 943232 requests 134737.36 r/s elapsed 7.00
processed 1077248 requests 134653.83 r/s elapsed 8.00
processed 1211776 requests 134638.61 r/s elapsed 9.00
processed 1346560 requests 134648.78 r/s elapsed 10.00
processed 1480960 requests 134627.23 r/s elapsed 11.00
processed 1615744 requests 134645.31 r/s elapsed 12.00
processed 1750272 requests 134634.12 r/s elapsed 13.00
processed 1884672 requests 134618.78 r/s elapsed 14.00
processed 2019200 requests 134611.94 r/s elapsed 15.00
processed 2154112 requests 134624.97 r/s elapsed 16.00
processed 2285952 requests 134460.91 r/s elapsed 17.00
processed 2410368 requests 133904.87 r/s elapsed 18.00
processed 2533248 requests 133321.36 r/s elapsed 19.00
processed 2657408 requests 132864.58 r/s elapsed 20.00
TOTAL: 2657408 requests 132864.58 r/s elapsed 20.00
