type: fadvise
filename: /mnt/raid/prefetch/prefetch-16384
I/O mode: BUFFERED
workload: SEQUENTIAL
duration: 20
queue size: 8
test mode: WARMUP
file size: 17179869184
file pages: 4194304
start probability: 0.010
continue probability: 0.500
processed 43968 requests 43967.60 r/s elapsed 1.00
elapsed 1.00 : warmup interval speed 43967.60 previous 0.00
processed 89528 requests 44763.10 r/s elapsed 2.00
elapsed 2.00 : warmup interval speed 45558.59 previous 43967.60
within 5% of the preceding interval, warmup terminating
TOTAL: 89528 requests 44763.10 r/s elapsed 2.00
