type: POSIX aio
filename: /mnt/raid/prefetch/prefetch-16384
I/O mode: BUFFERED
workload: SEQUENTIAL
duration: 20
threads: 32
queue size: 32
test mode: WARMUP
file size: 17179869184
file pages: 4194304
start probability: 0.010
continue probability: 0.100
processed 10112 requests 10094.24 r/s elapsed 1.00
elapsed 1.00 : warmup interval speed 10094.24 previous 0.00
processed 20128 requests 10057.38 r/s elapsed 2.00
elapsed 2.00 : warmup interval speed 10020.43 previous 10094.24
within 5% of the preceding interval, warmup terminating
TOTAL: 20128 requests 10057.38 r/s elapsed 2.00
