type: POSIX aio
filename: /mnt/raid/prefetch/prefetch-16384
I/O mode: BUFFERED
workload: SEQUENTIAL
duration: 20
threads: 32
queue size: 1024
test mode: WARMUP
file size: 17179869184
file pages: 4194304
start probability: 0.100
continue probability: 0.500
processed 24576 requests 24530.30 r/s elapsed 1.00
elapsed 1.00 : warmup interval speed 24530.30 previous 0.00
processed 48128 requests 24007.19 r/s elapsed 2.00
elapsed 2.00 : warmup interval speed 23484.60 previous 24530.30
within 5% of the preceding interval, warmup terminating
TOTAL: 48128 requests 24007.19 r/s elapsed 2.00
