type: POSIX aio
filename: /mnt/raid/prefetch/prefetch-16384
I/O mode: BUFFERED
workload: SEQUENTIAL
duration: 20
threads: 8
queue size: 32
test mode: TEST
file size: 17179869184
file pages: 4194304
start probability: 0.010
continue probability: 0.900
processed 38912 requests 38845.07 r/s elapsed 1.00
processed 57856 requests 28903.00 r/s elapsed 2.00
processed 76192 requests 25396.17 r/s elapsed 3.00
processed 94400 requests 23575.38 r/s elapsed 4.00
processed 113408 requests 22680.07 r/s elapsed 5.00
processed 131648 requests 21935.40 r/s elapsed 6.00
processed 150112 requests 21441.92 r/s elapsed 7.00
processed 169184 requests 21146.65 r/s elapsed 8.00
processed 187808 requests 20867.10 r/s elapsed 9.00
processed 206592 requests 20659.13 r/s elapsed 10.00
processed 225504 requests 20500.36 r/s elapsed 11.00
processed 244384 requests 20363.96 r/s elapsed 12.00
processed 262272 requests 20172.70 r/s elapsed 13.00
processed 281920 requests 20135.23 r/s elapsed 14.00
processed 300512 requests 20033.64 r/s elapsed 15.00
processed 319584 requests 19973.78 r/s elapsed 16.00
processed 338336 requests 19899.54 r/s elapsed 17.00
processed 357088 requests 19837.87 r/s elapsed 18.00
processed 375328 requests 19753.04 r/s elapsed 19.00
processed 395104 requests 19755.01 r/s elapsed 20.00
TOTAL: 395104 requests 19755.01 r/s elapsed 20.00
