type: POSIX aio
filename: /mnt/raid/prefetch/prefetch-16384
I/O mode: BUFFERED
workload: SEQUENTIAL
duration: 20
threads: 1
queue size: 1024
test mode: WARMUP
file size: 17179869184
file pages: 4194304
start probability: 0.010
continue probability: 0.100
processed 10240 requests 9597.24 r/s elapsed 1.07
elapsed 1.07 : warmup interval speed 9597.24 previous 0.00
processed 19456 requests 9539.25 r/s elapsed 2.04
elapsed 2.04 : warmup interval speed 9475.62 previous 9597.24
within 5% of the preceding interval, warmup terminating
TOTAL: 19456 requests 9539.25 r/s elapsed 2.04
