type: pthread aio
filename: /mnt/raid/prefetch/prefetch-16384
I/O mode: DIRECT
workload: SEQUENTIAL
duration: 20
threads: 1
queue size: 128
test mode: TEST
file size: 17179869184
file pages: 4194304
start probability: 0.010
continue probability: 0.100
processed 8704 requests 8608.52 r/s elapsed 1.01
processed 17280 requests 8532.93 r/s elapsed 2.03
processed 25984 requests 8643.20 r/s elapsed 3.01
processed 34688 requests 8605.74 r/s elapsed 4.03
processed 43136 requests 8621.39 r/s elapsed 5.00
processed 52224 requests 8693.86 r/s elapsed 6.01
processed 61312 requests 8749.77 r/s elapsed 7.01
processed 70400 requests 8788.50 r/s elapsed 8.01
processed 79488 requests 8824.18 r/s elapsed 9.01
processed 88576 requests 8852.07 r/s elapsed 10.01
processed 97664 requests 8870.04 r/s elapsed 11.01
processed 106624 requests 8884.61 r/s elapsed 12.00
processed 115712 requests 8896.25 r/s elapsed 13.01
processed 124672 requests 8904.53 r/s elapsed 14.00
processed 133760 requests 8912.26 r/s elapsed 15.01
processed 142848 requests 8920.82 r/s elapsed 16.01
processed 151808 requests 8928.32 r/s elapsed 17.00
processed 160896 requests 8934.06 r/s elapsed 18.01
processed 169984 requests 8940.80 r/s elapsed 19.01
processed 178944 requests 8946.63 r/s elapsed 20.00
TOTAL: 178944 requests 8946.63 r/s elapsed 20.00
