type: pthread aio
filename: /mnt/raid/prefetch/prefetch-16384
I/O mode: DIRECT
workload: SEQUENTIAL
duration: 20
threads: 8
queue size: 128
test mode: TEST
file size: 17179869184
file pages: 4194304
start probability: 0.010
continue probability: 0.100
processed 60800 requests 60795.38 r/s elapsed 1.00
processed 121472 requests 60499.66 r/s elapsed 2.01
processed 181504 requests 60491.19 r/s elapsed 3.00
processed 242816 requests 60690.69 r/s elapsed 4.00
processed 304384 requests 60867.35 r/s elapsed 5.00
processed 365952 requests 60985.79 r/s elapsed 6.00
processed 427776 requests 61102.43 r/s elapsed 7.00
processed 489216 requests 61131.83 r/s elapsed 8.00
processed 550528 requests 61169.13 r/s elapsed 9.00
processed 612352 requests 61223.22 r/s elapsed 10.00
processed 673920 requests 61261.78 r/s elapsed 11.00
processed 735360 requests 61278.07 r/s elapsed 12.00
processed 796672 requests 61270.64 r/s elapsed 13.00
processed 857984 requests 61282.09 r/s elapsed 14.00
processed 919808 requests 61315.98 r/s elapsed 15.00
processed 981632 requests 61347.70 r/s elapsed 16.00
processed 1043200 requests 61360.87 r/s elapsed 17.00
processed 1104512 requests 61331.88 r/s elapsed 18.01
processed 1165312 requests 61301.68 r/s elapsed 19.01
processed 1226112 requests 61277.84 r/s elapsed 20.01
TOTAL: 1226112 requests 61277.84 r/s elapsed 20.01
