type: pthread fadvise
filename: /mnt/raid/prefetch/prefetch-16384
I/O mode: BUFFERED
workload: SEQUENTIAL
duration: 20
threads: 1
queue size: 128
test mode: TEST
file size: 17179869184
file pages: 4194304
start probability: 0.010
continue probability: 0.900
processed 130304 requests 130136.64 r/s elapsed 1.00
processed 260352 requests 129270.59 r/s elapsed 2.01
processed 387840 requests 126517.45 r/s elapsed 3.07
processed 516480 requests 129114.71 r/s elapsed 4.00
processed 653440 requests 130652.59 r/s elapsed 5.00
processed 784768 requests 130787.80 r/s elapsed 6.00
processed 929536 requests 132779.29 r/s elapsed 7.00
processed 1070976 requests 133860.89 r/s elapsed 8.00
processed 1214848 requests 134978.16 r/s elapsed 9.00
processed 1369984 requests 136997.92 r/s elapsed 10.00
processed 1517440 requests 137940.20 r/s elapsed 11.00
processed 1677696 requests 139807.41 r/s elapsed 12.00
processed 1840256 requests 141554.77 r/s elapsed 13.00
processed 2002944 requests 143065.10 r/s elapsed 14.00
processed 2176768 requests 145112.57 r/s elapsed 15.00
processed 2343680 requests 146473.22 r/s elapsed 16.00
processed 2530560 requests 148856.21 r/s elapsed 17.00
processed 2704256 requests 150229.53 r/s elapsed 18.00
processed 2887936 requests 151993.02 r/s elapsed 19.00
processed 3066624 requests 153315.88 r/s elapsed 20.00
TOTAL: 3066624 requests 153315.88 r/s elapsed 20.00
