type: pthread fadvise
filename: /mnt/raid/prefetch/prefetch-16384
I/O mode: BUFFERED
workload: SEQUENTIAL
duration: 20
threads: 32
queue size: 1024
test mode: WARMUP
file size: 17179869184
file pages: 4194304
start probability: 0.100
continue probability: 0.900
processed 247808 requests 247059.41 r/s elapsed 1.00
elapsed 1.00 : warmup interval speed 247059.41 previous 0.00
processed 494592 requests 246827.15 r/s elapsed 2.00
elapsed 2.00 : warmup interval speed 246594.37 previous 247059.41
within 5% of the preceding interval, warmup terminating
TOTAL: 494592 requests 246827.15 r/s elapsed 2.00
