type: pthread aio
filename: /mnt/raid/prefetch/prefetch-16384
I/O mode: BUFFERED
workload: SEQUENTIAL
duration: 20
threads: 1
queue size: 1
test mode: TEST
file size: 17179869184
file pages: 4194304
start probability: 0.100
continue probability: 0.900
processed 177332 requests 177331.47 r/s elapsed 1.00
processed 354662 requests 156123.43 r/s elapsed 2.27
processed 468370 requests 145102.51 r/s elapsed 3.23
processed 580410 requests 139547.13 r/s elapsed 4.16
processed 697735 requests 134909.67 r/s elapsed 5.17
processed 809458 requests 133096.91 r/s elapsed 6.08
processed 931678 requests 130786.37 r/s elapsed 7.12
processed 1046290 requests 129169.32 r/s elapsed 8.10
processed 1162523 requests 128122.11 r/s elapsed 9.07
processed 1281221 requests 126777.01 r/s elapsed 10.11
processed 1394547 requests 126381.79 r/s elapsed 11.03
processed 1516581 requests 125870.81 r/s elapsed 12.05
processed 1636320 requests 125507.58 r/s elapsed 13.04
processed 1757106 requests 124903.35 r/s elapsed 14.07
processed 1878137 requests 125126.77 r/s elapsed 15.01
processed 2002028 requests 125060.59 r/s elapsed 16.01
processed 2126029 requests 124334.65 r/s elapsed 17.10
processed 2238023 requests 123981.64 r/s elapsed 18.05
processed 2360807 requests 124244.98 r/s elapsed 19.00
processed 2486990 requests 124339.73 r/s elapsed 20.00
TOTAL: 2486990 requests 124339.73 r/s elapsed 20.00
