type: pthread aio
filename: /mnt/raid/prefetch/prefetch-16384
I/O mode: BUFFERED
workload: SEQUENTIAL
duration: 20
threads: 8
queue size: 128
test mode: TEST
file size: 17179869184
file pages: 4194304
start probability: 0.010
continue probability: 0.100
processed 60288 requests 60287.70 r/s elapsed 1.00
processed 121600 requests 60782.89 r/s elapsed 2.00
processed 183552 requests 61134.85 r/s elapsed 3.00
processed 245376 requests 61321.57 r/s elapsed 4.00
processed 307968 requests 61573.50 r/s elapsed 5.00
processed 370688 requests 61764.84 r/s elapsed 6.00
processed 433664 requests 61944.40 r/s elapsed 7.00
processed 497536 requests 62191.24 r/s elapsed 8.00
processed 560896 requests 62306.11 r/s elapsed 9.00
processed 625024 requests 62493.86 r/s elapsed 10.00
processed 689152 requests 62644.63 r/s elapsed 11.00
processed 753408 requests 62777.13 r/s elapsed 12.00
processed 818432 requests 62953.73 r/s elapsed 13.00
processed 882432 requests 63029.38 r/s elapsed 14.00
processed 947840 requests 63187.16 r/s elapsed 15.00
processed 1013248 requests 63325.08 r/s elapsed 16.00
processed 1076608 requests 63322.41 r/s elapsed 17.00
processed 1139840 requests 63224.68 r/s elapsed 18.03
processed 1201280 requests 63070.97 r/s elapsed 19.05
processed 1261440 requests 63045.39 r/s elapsed 20.01
TOTAL: 1261440 requests 63045.39 r/s elapsed 20.01
