type: pthread aio
filename: /mnt/raid/prefetch/prefetch-16384
I/O mode: DIRECT
workload: SEQUENTIAL
duration: 20
threads: 16
queue size: 1024
test mode: TEST
file size: 17179869184
file pages: 4194304
start probability: 0.010
continue probability: 0.500
processed 109568 requests 108698.09 r/s elapsed 1.01
processed 218112 requests 108674.61 r/s elapsed 2.01
processed 326656 requests 108632.87 r/s elapsed 3.01
processed 435200 requests 108580.88 r/s elapsed 4.01
processed 543744 requests 108733.12 r/s elapsed 5.00
processed 653312 requests 108783.93 r/s elapsed 6.01
processed 761856 requests 108791.83 r/s elapsed 7.00
processed 871424 requests 108838.74 r/s elapsed 8.01
processed 979968 requests 108838.90 r/s elapsed 9.00
processed 1088512 requests 108766.73 r/s elapsed 10.01
processed 1197056 requests 108769.41 r/s elapsed 11.01
processed 1305600 requests 108620.65 r/s elapsed 12.02
processed 1412096 requests 108295.38 r/s elapsed 13.04
processed 1516544 requests 108074.85 r/s elapsed 14.03
processed 1622016 requests 107762.59 r/s elapsed 15.05
processed 1724416 requests 107488.63 r/s elapsed 16.04
processed 1827840 requests 107317.26 r/s elapsed 17.03
processed 1932288 requests 107116.13 r/s elapsed 18.04
processed 2035712 requests 106917.86 r/s elapsed 19.04
processed 2139136 requests 106775.04 r/s elapsed 20.03
TOTAL: 2139136 requests 106775.04 r/s elapsed 20.03
