type: pthread aio
filename: /mnt/raid/prefetch/prefetch-16384
I/O mode: BUFFERED
workload: SEQUENTIAL
duration: 20
threads: 8
queue size: 1024
test mode: TEST
file size: 17179869184
file pages: 4194304
start probability: 0.010
continue probability: 0.100
processed 64512 requests 64108.69 r/s elapsed 1.01
processed 129024 requests 64411.16 r/s elapsed 2.00
processed 193536 requests 64484.49 r/s elapsed 3.00
processed 259072 requests 64760.15 r/s elapsed 4.00
processed 325632 requests 65078.49 r/s elapsed 5.00
processed 392192 requests 65341.78 r/s elapsed 6.00
processed 459776 requests 65681.80 r/s elapsed 7.00
processed 527360 requests 65861.79 r/s elapsed 8.01
processed 595968 requests 66127.91 r/s elapsed 9.01
processed 664576 requests 66402.17 r/s elapsed 10.01
processed 733184 requests 66612.35 r/s elapsed 11.01
processed 802816 requests 66852.10 r/s elapsed 12.01
processed 873472 requests 67136.90 r/s elapsed 13.01
processed 945152 requests 67453.75 r/s elapsed 14.01
processed 1015808 requests 67701.12 r/s elapsed 15.00
processed 1088512 requests 67979.74 r/s elapsed 16.01
processed 1161216 requests 68243.33 r/s elapsed 17.02
processed 1234944 requests 68572.20 r/s elapsed 18.01
processed 1307648 requests 68792.84 r/s elapsed 19.01
processed 1382400 requests 69097.39 r/s elapsed 20.01
TOTAL: 1382400 requests 69097.39 r/s elapsed 20.01
