type: pthread fadvise
filename: /mnt/raid/prefetch/prefetch-16384
I/O mode: BUFFERED
workload: RANDOM
duration: 20
threads: 8
queue size: 8
test mode: WARMUP
file size: 17179869184
file pages: 4194304
processed 46256 requests 46250.87 r/s elapsed 1.00
elapsed 1.00 : warmup interval speed 46250.87 previous 0.00
processed 92680 requests 46338.01 r/s elapsed 2.00
elapsed 2.00 : warmup interval speed 46425.16 previous 46250.87
within 5% of the preceding interval, warmup terminating
TOTAL: 92680 requests 46338.01 r/s elapsed 2.00
