type: pthread fadvise
filename: /mnt/raid/prefetch/prefetch-16384
I/O mode: BUFFERED
workload: SEQUENTIAL
duration: 20
threads: 1
queue size: 1024
test mode: WARMUP
file size: 17179869184
file pages: 4194304
start probability: 0.010
continue probability: 0.100
processed 129024 requests 128431.03 r/s elapsed 1.00
elapsed 1.00 : warmup interval speed 128431.03 previous 0.00
processed 259072 requests 129236.17 r/s elapsed 2.00
elapsed 2.00 : warmup interval speed 130045.01 previous 128431.03
within 5% of the preceding interval, warmup terminating
TOTAL: 259072 requests 129236.17 r/s elapsed 2.00
