type: pthread fadvise
filename: /mnt/raid/prefetch/prefetch-16384
I/O mode: BUFFERED
workload: SEQUENTIAL
duration: 20
threads: 32
queue size: 1024
test mode: TEST
file size: 17179869184
file pages: 4194304
start probability: 0.010
continue probability: 0.500
processed 264192 requests 263727.05 r/s elapsed 1.00
processed 532480 requests 266152.57 r/s elapsed 2.00
processed 812032 requests 270589.48 r/s elapsed 3.00
processed 1097728 requests 274243.66 r/s elapsed 4.00
processed 1394688 requests 278789.06 r/s elapsed 5.00
processed 1696768 requests 282785.76 r/s elapsed 6.00
processed 2012160 requests 287444.08 r/s elapsed 7.00
processed 2338816 requests 292271.08 r/s elapsed 8.00
processed 2674688 requests 297105.55 r/s elapsed 9.00
processed 3017728 requests 301772.11 r/s elapsed 10.00
processed 3358720 requests 305283.51 r/s elapsed 11.00
processed 3702784 requests 308499.65 r/s elapsed 12.00
processed 4047872 requests 311312.58 r/s elapsed 13.00
processed 4390912 requests 313613.07 r/s elapsed 14.00
processed 4732928 requests 315523.84 r/s elapsed 15.00
processed 5081088 requests 317531.58 r/s elapsed 16.00
processed 5426176 requests 319175.86 r/s elapsed 17.00
processed 5774336 requests 320753.34 r/s elapsed 18.00
processed 6118400 requests 321987.38 r/s elapsed 19.00
processed 6462464 requests 323114.02 r/s elapsed 20.00
TOTAL: 6462464 requests 323114.02 r/s elapsed 20.00
