type: pthread aio
filename: /mnt/raid/prefetch/prefetch-16384
I/O mode: DIRECT
workload: SEQUENTIAL
duration: 20
threads: 1
queue size: 8
test mode: TEST
file size: 17179869184
file pages: 4194304
start probability: 0.100
continue probability: 0.100
processed 8720 requests 8719.46 r/s elapsed 1.00
processed 17752 requests 8872.96 r/s elapsed 2.00
processed 26760 requests 8917.76 r/s elapsed 3.00
processed 35776 requests 8943.13 r/s elapsed 4.00
processed 44784 requests 8955.76 r/s elapsed 5.00
processed 53736 requests 8895.05 r/s elapsed 6.04
processed 62272 requests 8853.83 r/s elapsed 7.03
processed 70832 requests 8823.27 r/s elapsed 8.03
processed 79416 requests 8797.56 r/s elapsed 9.03
processed 87976 requests 8782.21 r/s elapsed 10.02
processed 96608 requests 8754.84 r/s elapsed 11.03
processed 105064 requests 8744.88 r/s elapsed 12.01
processed 113688 requests 8735.10 r/s elapsed 13.02
processed 122296 requests 8727.03 r/s elapsed 14.01
processed 130912 requests 8721.12 r/s elapsed 15.01
processed 139544 requests 8716.74 r/s elapsed 16.01
processed 148184 requests 8711.10 r/s elapsed 17.01
processed 156800 requests 8707.02 r/s elapsed 18.01
processed 165440 requests 8702.17 r/s elapsed 19.01
processed 174048 requests 8699.69 r/s elapsed 20.01
TOTAL: 174048 requests 8699.69 r/s elapsed 20.01
