type: pthread aio
filename: /mnt/raid/prefetch/prefetch-16384
I/O mode: BUFFERED
workload: SEQUENTIAL
duration: 20
threads: 1
queue size: 8
test mode: TEST
file size: 17179869184
file pages: 4194304
start probability: 0.100
continue probability: 0.100
processed 21392 requests 21378.98 r/s elapsed 1.00
processed 42760 requests 13697.59 r/s elapsed 3.12
processed 54792 requests 12567.17 r/s elapsed 4.36
processed 62840 requests 12101.26 r/s elapsed 5.19
processed 72608 requests 11657.68 r/s elapsed 6.23
processed 81608 requests 11424.33 r/s elapsed 7.14
processed 91400 requests 11163.49 r/s elapsed 8.19
processed 100472 requests 11077.83 r/s elapsed 9.07
processed 110784 requests 10952.14 r/s elapsed 10.12
processed 120480 requests 10780.23 r/s elapsed 11.18
processed 129368 requests 10773.48 r/s elapsed 12.01
processed 140056 requests 10658.92 r/s elapsed 13.14
processed 149224 requests 10584.70 r/s elapsed 14.10
processed 158776 requests 10555.44 r/s elapsed 15.04
processed 168888 requests 10540.71 r/s elapsed 16.02
processed 179192 requests 10467.15 r/s elapsed 17.12
processed 188856 requests 10486.61 r/s elapsed 18.01
processed 199464 requests 10497.10 r/s elapsed 19.00
processed 209944 requests 10485.63 r/s elapsed 20.02
TOTAL: 209944 requests 10485.63 r/s elapsed 20.02
