type: pthread aio
filename: /mnt/raid/prefetch/prefetch-16384
I/O mode: BUFFERED
workload: SEQUENTIAL
duration: 20
threads: 8
queue size: 32
test mode: TEST
file size: 17179869184
file pages: 4194304
start probability: 0.100
continue probability: 0.900
processed 512000 requests 316066.75 r/s elapsed 1.62
processed 632160 requests 265630.30 r/s elapsed 2.38
processed 796896 requests 233058.77 r/s elapsed 3.42
processed 932256 requests 217930.47 r/s elapsed 4.28
processed 1089664 requests 206569.65 r/s elapsed 5.28
processed 1239424 requests 198061.80 r/s elapsed 6.26
processed 1386432 requests 192584.88 r/s elapsed 7.20
processed 1540704 requests 188189.01 r/s elapsed 8.19
processed 1693728 requests 184797.25 r/s elapsed 9.17
processed 1848000 requests 182243.36 r/s elapsed 10.14
processed 2004704 requests 179944.75 r/s elapsed 11.14
processed 2159360 requests 177975.35 r/s elapsed 12.13
processed 2313696 requests 176622.68 r/s elapsed 13.10
processed 2472736 requests 175029.48 r/s elapsed 14.13
processed 2625472 requests 173477.79 r/s elapsed 15.13
processed 2775648 requests 172561.52 r/s elapsed 16.08
processed 2933568 requests 171595.70 r/s elapsed 17.10
processed 3088736 requests 170813.37 r/s elapsed 18.08
processed 3245472 requests 170230.25 r/s elapsed 19.07
processed 3404608 requests 169554.12 r/s elapsed 20.08
TOTAL: 3404608 requests 169554.12 r/s elapsed 20.08
