type: pthread aio
filename: /mnt/raid/prefetch/prefetch-16384
I/O mode: DIRECT
workload: SEQUENTIAL
duration: 20
threads: 16
queue size: 32
test mode: TEST
file size: 17179869184
file pages: 4194304
start probability: 0.010
continue probability: 0.100
processed 75136 requests 74900.74 r/s elapsed 1.00
processed 149952 requests 74966.89 r/s elapsed 2.00
processed 226688 requests 75561.86 r/s elapsed 3.00
processed 302272 requests 75485.95 r/s elapsed 4.00
processed 377440 requests 75434.40 r/s elapsed 5.00
processed 452608 requests 75432.45 r/s elapsed 6.00
processed 529280 requests 75609.94 r/s elapsed 7.00
processed 611136 requests 76389.96 r/s elapsed 8.00
processed 693920 requests 77099.78 r/s elapsed 9.00
processed 777568 requests 77754.62 r/s elapsed 10.00
processed 860640 requests 78238.01 r/s elapsed 11.00
processed 944288 requests 78688.75 r/s elapsed 12.00
processed 1027040 requests 79001.61 r/s elapsed 13.00
processed 1110080 requests 79290.07 r/s elapsed 14.00
processed 1193408 requests 79559.09 r/s elapsed 15.00
processed 1277120 requests 79817.91 r/s elapsed 16.00
processed 1360480 requests 80026.70 r/s elapsed 17.00
processed 1443328 requests 80183.99 r/s elapsed 18.00
processed 1526176 requests 80323.51 r/s elapsed 19.00
processed 1608800 requests 80439.44 r/s elapsed 20.00
TOTAL: 1608800 requests 80439.44 r/s elapsed 20.00
