Linux 4.17.2 (bench) 	08/04/2018 	_x86_64_	(4 CPU)

avg-cpu:  %user   %nice %system %iowait  %steal   %idle
          10.25    0.02    4.32    2.84    0.00   82.58

Device:         rrqm/s   wrqm/s     r/s     w/s    rkB/s    wkB/s avgrq-sz avgqu-sz   await r_await w_await  svctm  %util
sda              57.90     4.13 1760.41   99.71 21432.19  3051.11    26.32     1.05    0.56    0.26    5.92   0.06  11.17
sdb              57.69     4.09 1760.44   99.84 21421.86  3047.86    26.31     1.05    0.56    0.26    5.85   0.06  11.05
sdc              95.05     4.15 1720.99   99.41 21414.22  3050.26    26.88     1.47    0.81    0.44    7.12   0.08  14.54
sdd              88.68     4.12 1726.54   99.48 21399.38  3046.56    26.78     1.47    0.81    0.43    7.33   0.08  14.64
sde              90.63     4.16 1731.53   99.57 21457.71  3050.69    26.77     1.50    0.82    0.44    7.44   0.08  14.66
sdf              87.82     4.13 1733.60   99.52 21439.45  3047.64    26.72     1.54    0.84    0.43    7.90   0.08  14.69
sdg               0.00     3.15   27.16   73.12   326.90   391.55    14.33     0.44    4.38    0.20    5.93   0.08   0.79
sdh               0.00     0.12    0.02    0.23     2.15     4.92    56.82     0.00    1.15    0.65    1.19   0.21   0.01
md0               0.00     0.00 10919.06  467.18 146841.56 20884.31    29.46     0.00    0.00    0.00    0.00   0.00   0.00

avg-cpu:  %user   %nice %system %iowait  %steal   %idle
           0.11    0.03   18.18    0.19    0.00   81.49

Device:         rrqm/s   wrqm/s     r/s     w/s    rkB/s    wkB/s avgrq-sz avgqu-sz   await r_await w_await  svctm  %util
sda               4.25     0.00 24863.45    0.00 99470.80     0.00     8.00    11.21    0.45    0.45    0.00   0.03  84.55
sdb               2.40     0.00 24895.40    0.00 99591.20     0.00     8.00    11.43    0.46    0.46    0.00   0.03  84.66
sdc               3.50     0.00 24898.30    0.00 99607.20     0.00     8.00    11.25    0.45    0.45    0.00   0.03  86.13
sdd               2.70     0.00 24846.55    0.00 99397.00     0.00     8.00    11.48    0.46    0.46    0.00   0.04  87.10
sde               2.40     0.00 24823.35    0.00 99303.00     0.00     8.00    11.68    0.47    0.47    0.00   0.04  87.45
sdf               3.35     0.00 24876.85    0.00 99520.80     0.00     8.00    12.06    0.49    0.49    0.00   0.04  92.39
sdg               0.00     0.00   68.85    0.25   292.60     3.20     8.56     0.01    0.12    0.12    0.00   0.12   0.81
sdh               0.00     0.00    0.00    0.00     0.00     0.00     0.00     0.00    0.00    0.00    0.00   0.00   0.00
md0               0.00     0.00 149228.80    0.00 596915.20     0.00     8.00     0.00    0.00    0.00    0.00   0.00   0.00

