Linux 4.17.2 (bench) 	08/04/2018 	_x86_64_	(4 CPU)

avg-cpu:  %user   %nice %system %iowait  %steal   %idle
          10.25    0.02    4.34    2.86    0.00   82.54

Device:         rrqm/s   wrqm/s     r/s     w/s    rkB/s    wkB/s avgrq-sz avgqu-sz   await r_await w_await  svctm  %util
sda              58.78     4.12 1767.09   99.48 21437.75  3044.17    26.23     1.05    0.56    0.26    5.92   0.06  11.20
sdb              58.57     4.08 1767.11   99.62 21427.42  3040.93    26.22     1.05    0.56    0.26    5.85   0.06  11.08
sdc              95.85     4.14 1727.76   99.18 21419.80  3043.32    26.78     1.47    0.80    0.44    7.12   0.08  14.57
sdd              89.50     4.11 1733.29   99.25 21405.01  3039.63    26.68     1.47    0.80    0.43    7.33   0.08  14.66
sde              91.44     4.15 1738.25   99.34 21463.12  3043.75    26.67     1.50    0.81    0.43    7.44   0.08  14.69
sdf              88.64     4.12 1740.32   99.29 21444.92  3040.70    26.62     1.54    0.84    0.43    7.90   0.08  14.72
sdg               0.00     3.15   27.20   73.09   326.97   391.46    14.33     0.44    4.37    0.20    5.93   0.08   0.79
sdh               0.00     0.12    0.02    0.23     2.14     4.91    56.82     0.00    1.15    0.65    1.19   0.21   0.01
md0               0.00     0.00 10964.40  466.12 146845.21 20836.81    29.34     0.00    0.00    0.00    0.00   0.00   0.00

avg-cpu:  %user   %nice %system %iowait  %steal   %idle
           0.00    0.00    2.81    1.53    0.00   95.66

Device:         rrqm/s   wrqm/s     r/s     w/s    rkB/s    wkB/s avgrq-sz avgqu-sz   await r_await w_await  svctm  %util
sda               6.00     0.00 1792.00    0.00 33808.00     0.00    37.73     0.98    0.55    0.55    0.00   0.11  20.60
sdb               4.00     0.00 1840.00    0.00 31752.00     0.00    34.51     0.94    0.51    0.51    0.00   0.11  20.50
sdc               4.00     0.00 1761.00    0.00 31840.00     0.00    36.16     1.40    0.79    0.79    0.00   0.14  24.10
sdd               4.00     0.00 1723.00    0.00 35304.00     0.00    40.98     1.53    0.89    0.89    0.00   0.15  25.10
sde               4.00     0.00 1741.00    0.00 33668.00     0.00    38.68     1.46    0.84    0.84    0.00   0.15  25.50
sdf               2.00     0.00 1729.00    0.00 33880.00     0.00    39.19     1.60    0.93    0.93    0.00   0.14  24.80
sdg               0.00     0.00    2.00    0.00    84.00     0.00    84.00     0.00    0.00    0.00    0.00   0.00   0.00
sdh               0.00     0.00    0.00    0.00     0.00     0.00     0.00     0.00    0.00    0.00    0.00   0.00   0.00
md0               0.00     0.00 10611.00    0.00 212028.00     0.00    39.96     0.00    0.00    0.00    0.00   0.00   0.00

avg-cpu:  %user   %nice %system %iowait  %steal   %idle
           0.25    0.00    2.78    2.27    0.00   94.70

Device:         rrqm/s   wrqm/s     r/s     w/s    rkB/s    wkB/s avgrq-sz avgqu-sz   await r_await w_await  svctm  %util
sda              12.00     0.00 1267.00    0.00 19824.00     0.00    31.29     0.23    0.18    0.18    0.00   0.13  16.00
sdb              14.00     0.00 1268.00    0.00 19588.00     0.00    30.90     0.23    0.18    0.18    0.00   0.13  16.10
sdc              16.00     0.00 1221.00    0.00 17336.00     0.00    28.40     0.27    0.22    0.22    0.00   0.15  18.60
sdd              10.00     0.00 1225.00    0.00 16104.00     0.00    26.29     0.28    0.23    0.23    0.00   0.15  18.30
sde              12.00     0.00 1205.00    0.00 19008.00     0.00    31.55     0.28    0.23    0.23    0.00   0.16  19.20
sdf              12.00     0.00 1210.00    0.00 17604.00     0.00    29.10     0.27    0.22    0.22    0.00   0.15  18.10
sdg               0.00     0.00    0.00    0.00     0.00     0.00     0.00     0.00    0.00    0.00    0.00   0.00   0.00
sdh               0.00     0.00    0.00    0.00     0.00     0.00     0.00     0.00    0.00    0.00    0.00   0.00   0.00
md0               0.00     0.00 7472.00    0.00 131692.00     0.00    35.25     0.00    0.00    0.00    0.00   0.00   0.00

avg-cpu:  %user   %nice %system %iowait  %steal   %idle
           0.25    0.00    2.53    1.27    0.00   95.95

Device:         rrqm/s   wrqm/s     r/s     w/s    rkB/s    wkB/s avgrq-sz avgqu-sz   await r_await w_await  svctm  %util
sda              29.00     0.00 1112.00    0.00 23344.00     0.00    41.99     0.19    0.17    0.17    0.00   0.15  16.40
sdb              30.00     0.00 1149.00    0.00 23296.00     0.00    40.55     0.20    0.17    0.17    0.00   0.15  17.30
sdc              25.00     0.00 1082.00    0.00 22176.00     0.00    40.99     0.24    0.22    0.22    0.00   0.18  19.10
sdd              27.00     0.00 1138.00    0.00 22132.00     0.00    38.90     0.25    0.22    0.22    0.00   0.19  21.10
sde              28.00     0.00 1112.00    0.00 22524.00     0.00    40.51     0.24    0.21    0.21    0.00   0.18  20.50
sdf              29.00     0.00 1097.00    0.00 23444.00     0.00    42.74     0.25    0.23    0.23    0.00   0.19  21.30
sdg               0.00     0.00    0.00    0.00     0.00     0.00     0.00     0.00    0.00    0.00    0.00   0.00   0.00
sdh               0.00     0.00    0.00    0.00     0.00     0.00     0.00     0.00    0.00    0.00    0.00   0.00   0.00
md0               0.00     0.00 6869.00    0.00 193268.00     0.00    56.27     0.00    0.00    0.00    0.00   0.00   0.00

avg-cpu:  %user   %nice %system %iowait  %steal   %idle
           0.00    0.00    2.04    1.27    0.00   96.69

Device:         rrqm/s   wrqm/s     r/s     w/s    rkB/s    wkB/s avgrq-sz avgqu-sz   await r_await w_await  svctm  %util
sda              18.00     0.00 1095.00    0.00 17888.00     0.00    32.67     0.18    0.16    0.16    0.00   0.15  16.10
sdb              18.00     0.00 1116.00    0.00 18292.00     0.00    32.78     0.17    0.15    0.15    0.00   0.14  15.60
sdc              18.00     0.00 1107.00    0.00 18948.00     0.00    34.23     0.22    0.20    0.20    0.00   0.17  18.90
sdd              15.00     0.00 1140.00    0.00 19696.00     0.00    34.55     0.22    0.19    0.19    0.00   0.17  19.30
sde              22.00     0.00 1076.00    0.00 20344.00     0.00    37.81     0.22    0.21    0.21    0.00   0.19  20.00
sdf              22.00     0.00 1082.00    0.00 21052.00     0.00    38.91     0.22    0.20    0.20    0.00   0.18  19.20
sdg               0.00     0.00    0.00    0.00     0.00     0.00     0.00     0.00    0.00    0.00    0.00   0.00   0.00
sdh               0.00     0.00    0.00    0.00     0.00     0.00     0.00     0.00    0.00    0.00    0.00   0.00   0.00
md0               0.00     0.00 6719.00    0.00 143316.00     0.00    42.66     0.00    0.00    0.00    0.00   0.00   0.00

avg-cpu:  %user   %nice %system %iowait  %steal   %idle
           0.25    0.00    2.53    1.27    0.00   95.95

Device:         rrqm/s   wrqm/s     r/s     w/s    rkB/s    wkB/s avgrq-sz avgqu-sz   await r_await w_await  svctm  %util
sda              11.00     0.00 1136.00    0.00 16680.00     0.00    29.37     0.16    0.14    0.14    0.00   0.14  15.60
sdb              15.00     0.00 1075.00    0.00 18548.00     0.00    34.51     0.16    0.15    0.15    0.00   0.14  14.80
sdc              14.00     0.00 1141.00    0.00 17020.00     0.00    29.83     0.21    0.18    0.18    0.00   0.16  18.60
sdd              12.00     0.00 1129.00    0.00 16728.00     0.00    29.63     0.20    0.18    0.18    0.00   0.16  18.30
sde              12.00     0.00 1196.00    0.00 14536.00     0.00    24.31     0.18    0.15    0.15    0.00   0.14  17.00
sdf              11.00     0.00 1170.00    0.00 14664.00     0.00    25.07     0.19    0.16    0.16    0.00   0.15  17.90
sdg               0.00     0.00    0.00    0.00     0.00     0.00     0.00     0.00    0.00    0.00    0.00   0.00   0.00
sdh               0.00     0.00    0.00    0.00     0.00     0.00     0.00     0.00    0.00    0.00    0.00   0.00   0.00
md0               0.00     0.00 6921.00    0.00 123204.00     0.00    35.60     0.00    0.00    0.00    0.00   0.00   0.00

avg-cpu:  %user   %nice %system %iowait  %steal   %idle
           0.26    0.00    4.59    9.44    0.00   85.71

Device:         rrqm/s   wrqm/s     r/s     w/s    rkB/s    wkB/s avgrq-sz avgqu-sz   await r_await w_await  svctm  %util
sda               8.00     0.00 3277.00    0.00 66960.00     0.00    40.87     2.77    0.85    0.85    0.00   0.09  28.50
sdb               9.00     0.00 3319.00    0.00 68208.00     0.00    41.10     2.77    0.84    0.84    0.00   0.08  27.50
sdc              12.00     0.00 3187.00    0.00 65980.00     0.00    41.41     4.71    1.48    1.48    0.00   0.12  37.90
sdd              11.00     0.00 2969.00    0.00 62276.00     0.00    41.95     4.11    1.38    1.38    0.00   0.12  36.80
sde               9.00     0.00 2928.00    0.00 59072.00     0.00    40.35     3.94    1.35    1.35    0.00   0.12  36.30
sdf              13.00     0.00 3073.00    0.00 65936.00     0.00    42.91     5.09    1.66    1.66    0.00   0.12  38.20
sdg               0.00     0.00    0.00    0.00     0.00     0.00     0.00     0.00    0.00    0.00    0.00   0.00   0.00
sdh               0.00     0.00    0.00    0.00     0.00     0.00     0.00     0.00    0.00    0.00    0.00   0.00   0.00
md0               0.00     0.00 18817.00    0.00 411480.00     0.00    43.73     0.00    0.00    0.00    0.00   0.00   0.00

avg-cpu:  %user   %nice %system %iowait  %steal   %idle
           0.00    0.25    4.05   11.14    0.00   84.56

Device:         rrqm/s   wrqm/s     r/s     w/s    rkB/s    wkB/s avgrq-sz avgqu-sz   await r_await w_await  svctm  %util
sda               3.00     0.00 2070.00    0.00 44584.00     0.00    43.08     1.50    0.72    0.72    0.00   0.11  22.40
sdb               5.00     0.00 2080.00    0.00 44556.00     0.00    42.84     1.50    0.72    0.72    0.00   0.11  23.20
sdc               6.00     0.00 1990.00    0.00 47236.00     0.00    47.47     2.53    1.27    1.27    0.00   0.15  30.20
sdd               5.00     0.00 2090.00    0.00 46220.00     0.00    44.23     2.68    1.28    1.28    0.00   0.15  30.50
sde               8.00     0.00 1873.00    0.00 41552.00     0.00    44.37     2.47    1.32    1.32    0.00   0.15  27.40
sdf               6.00     0.00 1936.00    0.00 42516.00     0.00    43.92     2.43    1.25    1.25    0.00   0.15  29.00
sdg               0.00     0.00   20.00    0.00   128.00     0.00    12.80     0.00    0.05    0.05    0.00   0.05   0.10
sdh               0.00     0.00    0.00    0.00     0.00     0.00     0.00     0.00    0.00    0.00    0.00   0.00   0.00
md0               0.00     0.00 12070.00    0.00 282260.00     0.00    46.77     0.00    0.00    0.00    0.00   0.00   0.00

avg-cpu:  %user   %nice %system %iowait  %steal   %idle
           0.51    0.00    5.85    7.63    0.00   86.01

Device:         rrqm/s   wrqm/s     r/s     w/s    rkB/s    wkB/s avgrq-sz avgqu-sz   await r_await w_await  svctm  %util
sda               7.00     0.00 3277.00    0.00 65764.00     0.00    40.14     2.76    0.84    0.84    0.00   0.08  27.20
sdb               4.00     0.00 3316.00    0.00 68240.00     0.00    41.16     2.90    0.87    0.87    0.00   0.08  25.70
sdc               5.00     0.00 3143.00    0.00 66340.00     0.00    42.21     5.27    1.65    1.65    0.00   0.12  36.70
sdd               8.00     0.00 3217.00    0.00 66268.00     0.00    41.20     5.23    1.63    1.63    0.00   0.11  36.40
sde              10.00     0.00 3405.00    0.00 69100.00     0.00    40.59     5.50    1.61    1.61    0.00   0.12  40.40
sdf               8.00     0.00 3303.00    0.00 66308.00     0.00    40.15     5.18    1.56    1.56    0.00   0.12  39.10
sdg               0.00     0.00    0.00    0.00     0.00     0.00     0.00     0.00    0.00    0.00    0.00   0.00   0.00
sdh               0.00     0.00    0.00    0.00     0.00     0.00     0.00     0.00    0.00    0.00    0.00   0.00   0.00
md0               0.00     0.00 19748.00    0.00 422464.00     0.00    42.79     0.00    0.00    0.00    0.00   0.00   0.00

avg-cpu:  %user   %nice %system %iowait  %steal   %idle
           3.81    0.00   16.50    0.25    0.00   79.44

Device:         rrqm/s   wrqm/s     r/s     w/s    rkB/s    wkB/s avgrq-sz avgqu-sz   await r_await w_await  svctm  %util
sda               0.00     0.00 1572.00    0.00 24624.00     0.00    31.33     1.08    0.69    0.69    0.00   0.06   9.10
sdb               1.00     0.00 1313.00    0.00 20740.00     0.00    31.59     1.09    0.83    0.83    0.00   0.06   7.60
sdc               1.00     0.00 1419.00    0.00 22320.00     0.00    31.46     1.93    1.41    1.41    0.00   0.09  12.40
sdd               4.00     0.00 1550.00    0.00 24888.00     0.00    32.11     2.27    1.46    1.46    0.00   0.09  13.90
sde               6.00     0.00 1759.00    0.00 27448.00     0.00    31.21     2.89    1.66    1.66    0.00   0.08  14.50
sdf               4.00     0.00 1668.00    0.00 26312.00     0.00    31.55     2.55    1.56    1.56    0.00   0.08  13.10
sdg               0.00     0.00    0.00    0.00     0.00     0.00     0.00     0.00    0.00    0.00    0.00   0.00   0.00
sdh               0.00     0.00    0.00    0.00     0.00     0.00     0.00     0.00    0.00    0.00    0.00   0.00   0.00
md0               0.00     0.00 9251.00    0.00 149080.00     0.00    32.23     0.00    0.00    0.00    0.00   0.00   0.00

avg-cpu:  %user   %nice %system %iowait  %steal   %idle
           4.74    0.00   20.45    0.00    0.00   74.81

Device:         rrqm/s   wrqm/s     r/s     w/s    rkB/s    wkB/s avgrq-sz avgqu-sz   await r_await w_await  svctm  %util
sda               0.00     0.00    0.00    0.00     0.00     0.00     0.00     0.00    0.00    0.00    0.00   0.00   0.00
sdb               0.00     0.00    1.00    0.00     8.00     0.00    16.00     0.00    0.00    0.00    0.00   0.00   0.00
sdc               0.00     0.00    3.00    0.00    12.00     0.00     8.00     0.00    0.00    0.00    0.00   0.00   0.00
sdd               0.00     0.00    0.00    0.00     0.00     0.00     0.00     0.00    0.00    0.00    0.00   0.00   0.00
sde               0.00     0.00    0.00    0.00     0.00     0.00     0.00     0.00    0.00    0.00    0.00   0.00   0.00
sdf               0.00     0.00    0.00    0.00     0.00     0.00     0.00     0.00    0.00    0.00    0.00   0.00   0.00
sdg               0.00     0.00    0.00    0.00     0.00     0.00     0.00     0.00    0.00    0.00    0.00   0.00   0.00
sdh               0.00     0.00    0.00    0.00     0.00     0.00     0.00     0.00    0.00    0.00    0.00   0.00   0.00
md0               0.00     0.00    4.00    0.00    20.00     0.00    10.00     0.00    0.00    0.00    0.00   0.00   0.00

avg-cpu:  %user   %nice %system %iowait  %steal   %idle
           4.50    0.00   20.50    0.00    0.00   75.00

Device:         rrqm/s   wrqm/s     r/s     w/s    rkB/s    wkB/s avgrq-sz avgqu-sz   await r_await w_await  svctm  %util
sda               0.00     0.00    0.00    0.00     0.00     0.00     0.00     0.00    0.00    0.00    0.00   0.00   0.00
sdb               0.00     0.00    0.00    0.00     0.00     0.00     0.00     0.00    0.00    0.00    0.00   0.00   0.00
sdc               0.00     0.00    0.00    0.00     0.00     0.00     0.00     0.00    0.00    0.00    0.00   0.00   0.00
sdd               0.00     0.00    0.00    0.00     0.00     0.00     0.00     0.00    0.00    0.00    0.00   0.00   0.00
sde               0.00     0.00    0.00    0.00     0.00     0.00     0.00     0.00    0.00    0.00    0.00   0.00   0.00
sdf               0.00     0.00    0.00    0.00     0.00     0.00     0.00     0.00    0.00    0.00    0.00   0.00   0.00
sdg               0.00     0.00    1.00    5.00    16.00   144.00    53.33     0.00    0.67    0.00    0.80   0.17   0.10
sdh               0.00     0.00    0.00    0.00     0.00     0.00     0.00     0.00    0.00    0.00    0.00   0.00   0.00
md0               0.00     0.00    0.00    0.00     0.00     0.00     0.00     0.00    0.00    0.00    0.00   0.00   0.00

avg-cpu:  %user   %nice %system %iowait  %steal   %idle
           4.75    0.00   20.25    0.00    0.00   75.00

Device:         rrqm/s   wrqm/s     r/s     w/s    rkB/s    wkB/s avgrq-sz avgqu-sz   await r_await w_await  svctm  %util
sda               0.00     0.00    0.00    0.00     0.00     0.00     0.00     0.00    0.00    0.00    0.00   0.00   0.00
sdb               0.00     0.00    0.00    0.00     0.00     0.00     0.00     0.00    0.00    0.00    0.00   0.00   0.00
sdc               0.00     0.00    0.00    0.00     0.00     0.00     0.00     0.00    0.00    0.00    0.00   0.00   0.00
sdd               0.00     0.00    0.00    0.00     0.00     0.00     0.00     0.00    0.00    0.00    0.00   0.00   0.00
sde               0.00     0.00    0.00    0.00     0.00     0.00     0.00     0.00    0.00    0.00    0.00   0.00   0.00
sdf               0.00     0.00    0.00    0.00     0.00     0.00     0.00     0.00    0.00    0.00    0.00   0.00   0.00
sdg               0.00     0.00    0.00    0.00     0.00     0.00     0.00     0.00    0.00    0.00    0.00   0.00   0.00
sdh               0.00     0.00    0.00    0.00     0.00     0.00     0.00     0.00    0.00    0.00    0.00   0.00   0.00
md0               0.00     0.00    0.00    0.00     0.00     0.00     0.00     0.00    0.00    0.00    0.00   0.00   0.00

avg-cpu:  %user   %nice %system %iowait  %steal   %idle
           5.25    0.00   19.75    0.00    0.00   75.00

Device:         rrqm/s   wrqm/s     r/s     w/s    rkB/s    wkB/s avgrq-sz avgqu-sz   await r_await w_await  svctm  %util
sda               0.00     0.00    0.00    0.00     0.00     0.00     0.00     0.00    0.00    0.00    0.00   0.00   0.00
sdb               0.00     0.00    0.00    0.00     0.00     0.00     0.00     0.00    0.00    0.00    0.00   0.00   0.00
sdc               0.00     0.00    0.00    0.00     0.00     0.00     0.00     0.00    0.00    0.00    0.00   0.00   0.00
sdd               0.00     0.00    0.00    0.00     0.00     0.00     0.00     0.00    0.00    0.00    0.00   0.00   0.00
sde               0.00     0.00    0.00    0.00     0.00     0.00     0.00     0.00    0.00    0.00    0.00   0.00   0.00
sdf               0.00     0.00    0.00    0.00     0.00     0.00     0.00     0.00    0.00    0.00    0.00   0.00   0.00
sdg               0.00     0.00    0.00    0.00     0.00     0.00     0.00     0.00    0.00    0.00    0.00   0.00   0.00
sdh               0.00     0.00    0.00    0.00     0.00     0.00     0.00     0.00    0.00    0.00    0.00   0.00   0.00
md0               0.00     0.00    0.00    0.00     0.00     0.00     0.00     0.00    0.00    0.00    0.00   0.00   0.00

avg-cpu:  %user   %nice %system %iowait  %steal   %idle
           5.00    0.00   20.00    0.00    0.00   75.00

Device:         rrqm/s   wrqm/s     r/s     w/s    rkB/s    wkB/s avgrq-sz avgqu-sz   await r_await w_await  svctm  %util
sda               0.00     0.00    0.00    0.00     0.00     0.00     0.00     0.00    0.00    0.00    0.00   0.00   0.00
sdb               0.00     0.00    0.00    0.00     0.00     0.00     0.00     0.00    0.00    0.00    0.00   0.00   0.00
sdc               0.00     0.00    0.00    0.00     0.00     0.00     0.00     0.00    0.00    0.00    0.00   0.00   0.00
sdd               0.00     0.00    0.00    0.00     0.00     0.00     0.00     0.00    0.00    0.00    0.00   0.00   0.00
sde               0.00     0.00    0.00    0.00     0.00     0.00     0.00     0.00    0.00    0.00    0.00   0.00   0.00
sdf               0.00     0.00    0.00    0.00     0.00     0.00     0.00     0.00    0.00    0.00    0.00   0.00   0.00
sdg               0.00     0.00    0.00    0.00     0.00     0.00     0.00     0.00    0.00    0.00    0.00   0.00   0.00
sdh               0.00     0.00    0.00    0.00     0.00     0.00     0.00     0.00    0.00    0.00    0.00   0.00   0.00
md0               0.00     0.00    0.00    0.00     0.00     0.00     0.00     0.00    0.00    0.00    0.00   0.00   0.00

avg-cpu:  %user   %nice %system %iowait  %steal   %idle
           5.00    0.00   20.00    0.00    0.00   75.00

Device:         rrqm/s   wrqm/s     r/s     w/s    rkB/s    wkB/s avgrq-sz avgqu-sz   await r_await w_await  svctm  %util
sda               0.00     0.00    0.00    0.00     0.00     0.00     0.00     0.00    0.00    0.00    0.00   0.00   0.00
sdb               0.00     0.00    0.00    0.00     0.00     0.00     0.00     0.00    0.00    0.00    0.00   0.00   0.00
sdc               0.00     0.00    0.00    0.00     0.00     0.00     0.00     0.00    0.00    0.00    0.00   0.00   0.00
sdd               0.00     0.00    0.00    0.00     0.00     0.00     0.00     0.00    0.00    0.00    0.00   0.00   0.00
sde               0.00     0.00    0.00    0.00     0.00     0.00     0.00     0.00    0.00    0.00    0.00   0.00   0.00
sdf               0.00     0.00    0.00    0.00     0.00     0.00     0.00     0.00    0.00    0.00    0.00   0.00   0.00
sdg               0.00     0.00    1.00    3.00     4.00    28.00    16.00     0.00    0.00    0.00    0.00   0.00   0.00
sdh               0.00     0.00    0.00    0.00     0.00     0.00     0.00     0.00    0.00    0.00    0.00   0.00   0.00
md0               0.00     0.00    0.00    0.00     0.00     0.00     0.00     0.00    0.00    0.00    0.00   0.00   0.00

avg-cpu:  %user   %nice %system %iowait  %steal   %idle
           5.00    0.00   20.00    0.00    0.00   75.00

Device:         rrqm/s   wrqm/s     r/s     w/s    rkB/s    wkB/s avgrq-sz avgqu-sz   await r_await w_await  svctm  %util
sda               0.00     0.00    0.00    0.00     0.00     0.00     0.00     0.00    0.00    0.00    0.00   0.00   0.00
sdb               0.00     0.00    0.00    0.00     0.00     0.00     0.00     0.00    0.00    0.00    0.00   0.00   0.00
sdc               0.00     0.00    0.00    0.00     0.00     0.00     0.00     0.00    0.00    0.00    0.00   0.00   0.00
sdd               0.00     0.00    0.00    0.00     0.00     0.00     0.00     0.00    0.00    0.00    0.00   0.00   0.00
sde               0.00     0.00    0.00    0.00     0.00     0.00     0.00     0.00    0.00    0.00    0.00   0.00   0.00
sdf               0.00     0.00    0.00    0.00     0.00     0.00     0.00     0.00    0.00    0.00    0.00   0.00   0.00
sdg               0.00     0.00    0.00    0.00     0.00     0.00     0.00     0.00    0.00    0.00    0.00   0.00   0.00
sdh               0.00     0.00    0.00    0.00     0.00     0.00     0.00     0.00    0.00    0.00    0.00   0.00   0.00
md0               0.00     0.00    0.00    0.00     0.00     0.00     0.00     0.00    0.00    0.00    0.00   0.00   0.00

avg-cpu:  %user   %nice %system %iowait  %steal   %idle
           5.01    0.00   20.30    0.00    0.00   74.69

Device:         rrqm/s   wrqm/s     r/s     w/s    rkB/s    wkB/s avgrq-sz avgqu-sz   await r_await w_await  svctm  %util
sda               0.00     0.00    0.00    0.00     0.00     0.00     0.00     0.00    0.00    0.00    0.00   0.00   0.00
sdb               0.00     0.00    0.00    0.00     0.00     0.00     0.00     0.00    0.00    0.00    0.00   0.00   0.00
sdc               0.00     0.00    0.00    0.00     0.00     0.00     0.00     0.00    0.00    0.00    0.00   0.00   0.00
sdd               0.00     0.00    0.00    0.00     0.00     0.00     0.00     0.00    0.00    0.00    0.00   0.00   0.00
sde               0.00     0.00    0.00    0.00     0.00     0.00     0.00     0.00    0.00    0.00    0.00   0.00   0.00
sdf               0.00     0.00    0.00    0.00     0.00     0.00     0.00     0.00    0.00    0.00    0.00   0.00   0.00
sdg               0.00     0.00    4.00    0.00    16.00     0.00     8.00     0.00    0.00    0.00    0.00   0.00   0.00
sdh               0.00     0.00    0.00    0.00     0.00     0.00     0.00     0.00    0.00    0.00    0.00   0.00   0.00
md0               0.00     0.00    0.00    0.00     0.00     0.00     0.00     0.00    0.00    0.00    0.00   0.00   0.00

avg-cpu:  %user   %nice %system %iowait  %steal   %idle
           5.25    0.00   19.75    0.00    0.00   75.00

Device:         rrqm/s   wrqm/s     r/s     w/s    rkB/s    wkB/s avgrq-sz avgqu-sz   await r_await w_await  svctm  %util
sda               0.00     0.00    0.00    0.00     0.00     0.00     0.00     0.00    0.00    0.00    0.00   0.00   0.00
sdb               0.00     0.00    0.00    0.00     0.00     0.00     0.00     0.00    0.00    0.00    0.00   0.00   0.00
sdc               0.00     0.00    0.00    0.00     0.00     0.00     0.00     0.00    0.00    0.00    0.00   0.00   0.00
sdd               0.00     0.00    0.00    0.00     0.00     0.00     0.00     0.00    0.00    0.00    0.00   0.00   0.00
sde               0.00     0.00    0.00    0.00     0.00     0.00     0.00     0.00    0.00    0.00    0.00   0.00   0.00
sdf               0.00     0.00    0.00    0.00     0.00     0.00     0.00     0.00    0.00    0.00    0.00   0.00   0.00
sdg               0.00     0.00    0.00    0.00     0.00     0.00     0.00     0.00    0.00    0.00    0.00   0.00   0.00
sdh               0.00     0.00    0.00    0.00     0.00     0.00     0.00     0.00    0.00    0.00    0.00   0.00   0.00
md0               0.00     0.00    0.00    0.00     0.00     0.00     0.00     0.00    0.00    0.00    0.00   0.00   0.00

avg-cpu:  %user   %nice %system %iowait  %steal   %idle
           4.74    0.00   20.45    0.00    0.00   74.81

Device:         rrqm/s   wrqm/s     r/s     w/s    rkB/s    wkB/s avgrq-sz avgqu-sz   await r_await w_await  svctm  %util
sda               0.00     0.00    0.00    0.00     0.00     0.00     0.00     0.00    0.00    0.00    0.00   0.00   0.00
sdb               0.00     0.00    0.00    0.00     0.00     0.00     0.00     0.00    0.00    0.00    0.00   0.00   0.00
sdc               0.00     0.00    0.00    0.00     0.00     0.00     0.00     0.00    0.00    0.00    0.00   0.00   0.00
sdd               0.00     0.00    0.00    0.00     0.00     0.00     0.00     0.00    0.00    0.00    0.00   0.00   0.00
sde               0.00     0.00    0.00    0.00     0.00     0.00     0.00     0.00    0.00    0.00    0.00   0.00   0.00
sdf               0.00     0.00    0.00    0.00     0.00     0.00     0.00     0.00    0.00    0.00    0.00   0.00   0.00
sdg               0.00     0.00    0.00    0.00     0.00     0.00     0.00     0.00    0.00    0.00    0.00   0.00   0.00
sdh               0.00     0.00    0.00    0.00     0.00     0.00     0.00     0.00    0.00    0.00    0.00   0.00   0.00
md0               0.00     0.00    0.00    0.00     0.00     0.00     0.00     0.00    0.00    0.00    0.00   0.00   0.00

avg-cpu:  %user   %nice %system %iowait  %steal   %idle
           5.53    0.00   20.10    0.00    0.00   74.37

Device:         rrqm/s   wrqm/s     r/s     w/s    rkB/s    wkB/s avgrq-sz avgqu-sz   await r_await w_await  svctm  %util
sda               0.00     0.00    0.00    0.00     0.00     0.00     0.00     0.00    0.00    0.00    0.00   0.00   0.00
sdb               0.00     0.00    0.00    0.00     0.00     0.00     0.00     0.00    0.00    0.00    0.00   0.00   0.00
sdc               0.00     0.00    0.00    0.00     0.00     0.00     0.00     0.00    0.00    0.00    0.00   0.00   0.00
sdd               0.00     0.00    0.00    0.00     0.00     0.00     0.00     0.00    0.00    0.00    0.00   0.00   0.00
sde               0.00     0.00    0.00    0.00     0.00     0.00     0.00     0.00    0.00    0.00    0.00   0.00   0.00
sdf               0.00     0.00    0.00    0.00     0.00     0.00     0.00     0.00    0.00    0.00    0.00   0.00   0.00
sdg               0.00    76.00    0.00 2608.00     0.00 12700.00     9.74    16.40    6.29    0.00    6.29   0.05  12.00
sdh               0.00     0.00    0.00    0.00     0.00     0.00     0.00     0.00    0.00    0.00    0.00   0.00   0.00
md0               0.00     0.00    0.00    0.00     0.00     0.00     0.00     0.00    0.00    0.00    0.00   0.00   0.00

