Linux 4.17.2 (bench) 	08/04/2018 	_x86_64_	(4 CPU)

avg-cpu:  %user   %nice %system %iowait  %steal   %idle
          10.25    0.02    4.23    2.79    0.00   82.71

Device:         rrqm/s   wrqm/s     r/s     w/s    rkB/s    wkB/s avgrq-sz avgqu-sz   await r_await w_await  svctm  %util
sda              56.52     4.16 1749.57  100.54 21467.15  3076.38    26.53     1.05    0.57    0.26    5.92   0.06  11.13
sdb              56.31     4.12 1749.59  100.67 21456.72  3073.11    26.51     1.05    0.57    0.26    5.85   0.06  11.01
sdc              93.96     4.18 1709.85  100.23 21449.00  3075.53    27.10     1.47    0.81    0.44    7.12   0.08  14.52
sdd              87.54     4.15 1715.46  100.30 21434.12  3071.79    26.99     1.48    0.81    0.43    7.33   0.08  14.61
sde              89.51     4.19 1720.51  100.39 21493.09  3075.96    26.99     1.50    0.82    0.44    7.44   0.08  14.64
sdf              86.68     4.17 1722.59  100.34 21474.68  3072.88    26.93     1.54    0.85    0.44    7.90   0.08  14.67
sdg               0.00     3.16   27.01   73.22   326.69   391.92    14.34     0.44    4.38    0.20    5.93   0.08   0.79
sdh               0.00     0.13    0.02    0.23     2.17     4.96    56.82     0.00    1.15    0.65    1.19   0.21   0.01
md0               0.00     0.00 10845.78  471.05 147147.43 21057.32    29.73     0.00    0.00    0.00    0.00   0.00   0.00

avg-cpu:  %user   %nice %system %iowait  %steal   %idle
           0.00    0.00    2.05    1.28    0.00   96.68

Device:         rrqm/s   wrqm/s     r/s     w/s    rkB/s    wkB/s avgrq-sz avgqu-sz   await r_await w_await  svctm  %util
sda               0.00     0.00 1441.00    0.00  5796.00     0.00     8.04     0.16    0.11    0.11    0.00   0.11  15.90
sdb               0.00     0.00 1477.00    0.00  5908.00     0.00     8.00     0.15    0.10    0.10    0.00   0.10  15.10
sdc               0.00     0.00 1425.00    0.00  5708.00     0.00     8.01     0.16    0.12    0.12    0.00   0.12  16.40
sdd               0.00     0.00 1442.00    0.00  5776.00     0.00     8.01     0.17    0.12    0.12    0.00   0.12  16.80
sde               0.00     0.00 1431.00    0.00  5724.00     0.00     8.00     0.15    0.10    0.10    0.00   0.10  14.90
sdf               0.00     0.00 1419.00    0.00  5676.00     0.00     8.00     0.15    0.10    0.10    0.00   0.10  14.70
sdg               0.00     0.00    3.00    0.00    88.00     0.00    58.67     0.00    0.00    0.00    0.00   0.00   0.00
sdh               0.00     0.00    0.00    0.00     0.00     0.00     0.00     0.00    0.00    0.00    0.00   0.00   0.00
md0               0.00     0.00 8636.00    0.00 34592.00     0.00     8.01     0.00    0.00    0.00    0.00   0.00   0.00

avg-cpu:  %user   %nice %system %iowait  %steal   %idle
           0.00    0.00    2.05    1.02    0.00   96.93

Device:         rrqm/s   wrqm/s     r/s     w/s    rkB/s    wkB/s avgrq-sz avgqu-sz   await r_await w_await  svctm  %util
sda               0.00     0.00 1504.00    0.00  6048.00     0.00     8.04     0.16    0.11    0.11    0.00   0.11  16.00
sdb               0.00     0.00 1506.00    0.00  6044.00     0.00     8.03     0.15    0.10    0.10    0.00   0.10  15.00
sdc               0.00     0.00 1433.00    0.00  5772.00     0.00     8.06     0.15    0.10    0.10    0.00   0.10  15.00
sdd               0.00     0.00 1488.00    0.00  5988.00     0.00     8.05     0.17    0.11    0.11    0.00   0.11  16.90
sde               0.00     0.00 1376.00    0.00  5540.00     0.00     8.05     0.15    0.11    0.11    0.00   0.11  14.60
sdf               0.00     0.00 1438.00    0.00  5792.00     0.00     8.06     0.15    0.10    0.10    0.00   0.10  14.80
sdg               0.00     0.00    0.00    0.00     0.00     0.00     0.00     0.00    0.00    0.00    0.00   0.00   0.00
sdh               0.00     0.00    0.00    0.00     0.00     0.00     0.00     0.00    0.00    0.00    0.00   0.00   0.00
md0               0.00     0.00 8745.00    0.00 35184.00     0.00     8.05     0.00    0.00    0.00    0.00   0.00   0.00

avg-cpu:  %user   %nice %system %iowait  %steal   %idle
           0.00    0.00    1.80    1.03    0.00   97.17

Device:         rrqm/s   wrqm/s     r/s     w/s    rkB/s    wkB/s avgrq-sz avgqu-sz   await r_await w_await  svctm  %util
sda               0.00     0.00 1462.00    0.00  5892.00     0.00     8.06     0.14    0.10    0.10    0.00   0.10  14.40
sdb               0.00     0.00 1535.00    0.00  6220.00     0.00     8.10     0.15    0.10    0.10    0.00   0.10  15.30
sdc               0.00     0.00 1414.00    0.00  5744.00     0.00     8.12     0.17    0.12    0.12    0.00   0.12  17.20
sdd               0.00     0.00 1440.00    0.00  5824.00     0.00     8.09     0.15    0.11    0.11    0.00   0.11  15.20
sde               0.00     0.00 1476.00    0.00  5948.00     0.00     8.06     0.15    0.11    0.11    0.00   0.10  15.40
sdf               0.00     0.00 1426.00    0.00  5768.00     0.00     8.09     0.16    0.11    0.11    0.00   0.11  15.60
sdg               0.00     0.00    0.00    0.00     0.00     0.00     0.00     0.00    0.00    0.00    0.00   0.00   0.00
sdh               0.00     0.00    0.00    0.00     0.00     0.00     0.00     0.00    0.00    0.00    0.00   0.00   0.00
md0               0.00     0.00 8755.00    0.00 35408.00     0.00     8.09     0.00    0.00    0.00    0.00   0.00   0.00

avg-cpu:  %user   %nice %system %iowait  %steal   %idle
           0.00    0.00    2.30    1.02    0.00   96.68

Device:         rrqm/s   wrqm/s     r/s     w/s    rkB/s    wkB/s avgrq-sz avgqu-sz   await r_await w_await  svctm  %util
sda               0.00     0.00 1411.00    0.00  5720.00     0.00     8.11     0.16    0.11    0.11    0.00   0.11  16.10
sdb               0.00     0.00 1403.00    0.00  5684.00     0.00     8.10     0.14    0.10    0.10    0.00   0.10  14.10
sdc               0.00     0.00 1469.00    0.00  6008.00     0.00     8.18     0.17    0.12    0.12    0.00   0.12  17.30
sdd               0.00     0.00 1489.00    0.00  6052.00     0.00     8.13     0.15    0.10    0.10    0.00   0.10  15.30
sde               0.00     0.00 1495.00    0.00  6064.00     0.00     8.11     0.16    0.10    0.10    0.00   0.10  15.60
sdf               0.00     0.00 1450.00    0.00  5900.00     0.00     8.14     0.16    0.11    0.11    0.00   0.11  15.80
sdg               0.00     0.00    0.00    0.00     0.00     0.00     0.00     0.00    0.00    0.00    0.00   0.00   0.00
sdh               0.00     0.00    0.00    0.00     0.00     0.00     0.00     0.00    0.00    0.00    0.00   0.00   0.00
md0               0.00     0.00 8715.00    0.00 35420.00     0.00     8.13     0.00    0.00    0.00    0.00   0.00   0.00

avg-cpu:  %user   %nice %system %iowait  %steal   %idle
           0.00    0.00    1.80    1.03    0.00   97.17

Device:         rrqm/s   wrqm/s     r/s     w/s    rkB/s    wkB/s avgrq-sz avgqu-sz   await r_await w_await  svctm  %util
sda               0.00     0.00 1442.00    0.00  5920.00     0.00     8.21     0.14    0.10    0.10    0.00   0.10  14.10
sdb               0.00     0.00 1416.00    0.00  5788.00     0.00     8.18     0.15    0.10    0.10    0.00   0.10  14.60
sdc               0.00     0.00 1501.00    0.00  6140.00     0.00     8.18     0.18    0.12    0.12    0.00   0.12  17.70
sdd               0.00     0.00 1434.00    0.00  5912.00     0.00     8.25     0.15    0.10    0.10    0.00   0.10  15.00
sde               0.00     0.00 1465.00    0.00  5996.00     0.00     8.19     0.15    0.10    0.10    0.00   0.10  15.10
sdf               0.00     0.00 1445.00    0.00  5924.00     0.00     8.20     0.17    0.12    0.12    0.00   0.12  17.10
sdg               0.00     0.00    0.00    0.00     0.00     0.00     0.00     0.00    0.00    0.00    0.00   0.00   0.00
sdh               0.00     0.00    0.00    0.00     0.00     0.00     0.00     0.00    0.00    0.00    0.00   0.00   0.00
md0               0.00     0.00 8704.00    0.00 35688.00     0.00     8.20     0.00    0.00    0.00    0.00   0.00   0.00

avg-cpu:  %user   %nice %system %iowait  %steal   %idle
           0.00    0.00    2.04    1.28    0.00   96.68

Device:         rrqm/s   wrqm/s     r/s     w/s    rkB/s    wkB/s avgrq-sz avgqu-sz   await r_await w_await  svctm  %util
sda               0.00     0.00 1439.00    0.00  5904.00     0.00     8.21     0.15    0.10    0.10    0.00   0.10  14.80
sdb               0.00     0.00 1458.00    0.00  5976.00     0.00     8.20     0.15    0.10    0.10    0.00   0.10  14.60
sdc               0.00     0.00 1484.00    0.00  6208.00     0.00     8.37     0.15    0.10    0.10    0.00   0.10  15.20
sdd               0.00     0.00 1447.00    0.00  6000.00     0.00     8.29     0.18    0.13    0.13    0.00   0.12  17.60
sde               0.00     0.00 1507.00    0.00  6156.00     0.00     8.17     0.15    0.10    0.10    0.00   0.10  14.60
sdf               0.00     0.00 1409.00    0.00  5816.00     0.00     8.26     0.16    0.12    0.12    0.00   0.12  16.40
sdg               0.00     0.00    0.00    0.00     0.00     0.00     0.00     0.00    0.00    0.00    0.00   0.00   0.00
sdh               0.00     0.00    0.00    0.00     0.00     0.00     0.00     0.00    0.00    0.00    0.00   0.00   0.00
md0               0.00     0.00 8743.00    0.00 36092.00     0.00     8.26     0.00    0.00    0.00    0.00   0.00   0.00

avg-cpu:  %user   %nice %system %iowait  %steal   %idle
           0.26    0.00    1.54    1.03    0.00   97.17

Device:         rrqm/s   wrqm/s     r/s     w/s    rkB/s    wkB/s avgrq-sz avgqu-sz   await r_await w_await  svctm  %util
sda               0.00     0.00 1424.00    0.00  5896.00     0.00     8.28     0.15    0.10    0.10    0.00   0.10  14.80
sdb               0.00     0.00 1443.00    0.00  6064.00     0.00     8.40     0.16    0.11    0.11    0.00   0.11  16.10
sdc               0.00     0.00 1478.00    0.00  6256.00     0.00     8.47     0.16    0.11    0.11    0.00   0.11  15.90
sdd               0.00     0.00 1447.00    0.00  5920.00     0.00     8.18     0.15    0.11    0.11    0.00   0.11  15.20
sde               0.00     0.00 1466.00    0.00  6040.00     0.00     8.24     0.17    0.12    0.12    0.00   0.12  17.30
sdf               0.00     0.00 1462.00    0.00  6116.00     0.00     8.37     0.16    0.11    0.11    0.00   0.11  15.80
sdg               0.00     0.00    0.00    0.00     0.00     0.00     0.00     0.00    0.00    0.00    0.00   0.00   0.00
sdh               0.00     0.00    0.00    0.00     0.00     0.00     0.00     0.00    0.00    0.00    0.00   0.00   0.00
md0               0.00     0.00 8720.00    0.00 36308.00     0.00     8.33     0.00    0.00    0.00    0.00   0.00   0.00

avg-cpu:  %user   %nice %system %iowait  %steal   %idle
           0.00    0.26    2.05    6.91    0.00   90.79

Device:         rrqm/s   wrqm/s     r/s     w/s    rkB/s    wkB/s avgrq-sz avgqu-sz   await r_await w_await  svctm  %util
sda               0.00     0.00 1442.00    0.00  5980.00     0.00     8.29     0.13    0.09    0.09    0.00   0.09  13.30
sdb               0.00     0.00 1488.00    0.00  6308.00     0.00     8.48     0.15    0.10    0.10    0.00   0.10  15.40
sdc               0.00     0.00 1416.00    0.00  6008.00     0.00     8.49     0.16    0.11    0.11    0.00   0.11  15.90
sdd               0.00     0.00 1442.00    0.00  6080.00     0.00     8.43     0.16    0.11    0.11    0.00   0.11  16.20
sde               0.00     0.00 1470.00    0.00  6188.00     0.00     8.42     0.17    0.12    0.12    0.00   0.12  17.20
sdf               0.00     0.00 1480.00    0.00  6364.00     0.00     8.60     0.17    0.12    0.12    0.00   0.11  16.30
sdg               0.00     0.00   30.00    2.00   180.00     8.00    11.75     0.00    0.12    0.10    0.50   0.09   0.30
sdh               0.00     0.00    0.00    0.00     0.00     0.00     0.00     0.00    0.00    0.00    0.00   0.00   0.00
md0               0.00     0.00 8738.00    0.00 36936.00     0.00     8.45     0.00    0.00    0.00    0.00   0.00   0.00

avg-cpu:  %user   %nice %system %iowait  %steal   %idle
           0.00    0.00    3.04   18.48    0.00   78.48

Device:         rrqm/s   wrqm/s     r/s     w/s    rkB/s    wkB/s avgrq-sz avgqu-sz   await r_await w_await  svctm  %util
sda               0.00     0.00 1423.00    0.00  5972.00     0.00     8.39     0.14    0.10    0.10    0.00   0.10  14.00
sdb               0.00     0.00 1471.00    0.00  6220.00     0.00     8.46     0.15    0.10    0.10    0.00   0.10  14.80
sdc               0.00     0.00 1488.00    0.00  6532.00     0.00     8.78     0.17    0.11    0.11    0.00   0.11  16.20
sdd               0.00     0.00 1483.00    0.00  6380.00     0.00     8.60     0.17    0.11    0.11    0.00   0.11  16.30
sde               0.00     0.00 1411.00    0.00  5948.00     0.00     8.43     0.16    0.11    0.11    0.00   0.11  15.90
sdf               0.00     0.00 1440.00    0.00  6032.00     0.00     8.38     0.16    0.11    0.11    0.00   0.11  16.40
sdg               0.00     0.00    0.00    0.00     0.00     0.00     0.00     0.00    0.00    0.00    0.00   0.00   0.00
sdh               0.00     0.00    0.00    0.00     0.00     0.00     0.00     0.00    0.00    0.00    0.00   0.00   0.00
md0               0.00     0.00 8716.00    0.00 37152.00     0.00     8.53     0.00    0.00    0.00    0.00   0.00   0.00

avg-cpu:  %user   %nice %system %iowait  %steal   %idle
           0.00    0.00    2.54   21.12    0.00   76.34

Device:         rrqm/s   wrqm/s     r/s     w/s    rkB/s    wkB/s avgrq-sz avgqu-sz   await r_await w_await  svctm  %util
sda               0.00     0.00 1520.00    0.00  6516.00     0.00     8.57     0.17    0.11    0.11    0.00   0.11  16.70
sdb               0.00     0.00 1445.00    0.00  6284.00     0.00     8.70     0.16    0.11    0.11    0.00   0.11  15.50
sdc               0.00     0.00 1426.00    0.00  6136.00     0.00     8.61     0.15    0.11    0.11    0.00   0.11  15.20
sdd               0.00     0.00 1456.00    0.00  6472.00     0.00     8.89     0.17    0.11    0.11    0.00   0.11  15.70
sde               0.00     0.00 1456.00    0.00  6292.00     0.00     8.64     0.17    0.12    0.12    0.00   0.12  16.80
sdf               0.00     0.00 1462.00    0.00  6160.00     0.00     8.43     0.15    0.10    0.10    0.00   0.10  14.90
sdg               0.00     0.00    0.00    0.00     0.00     0.00     0.00     0.00    0.00    0.00    0.00   0.00   0.00
sdh               0.00     0.00    0.00    0.00     0.00     0.00     0.00     0.00    0.00    0.00    0.00   0.00   0.00
md0               0.00     0.00 8766.00    0.00 37916.00     0.00     8.65     0.00    0.00    0.00    0.00   0.00   0.00

avg-cpu:  %user   %nice %system %iowait  %steal   %idle
           0.00    0.00    2.79   21.07    0.00   76.14

Device:         rrqm/s   wrqm/s     r/s     w/s    rkB/s    wkB/s avgrq-sz avgqu-sz   await r_await w_await  svctm  %util
sda               0.00     0.00 1515.00    0.00  6484.00     0.00     8.56     0.16    0.10    0.10    0.00   0.10  15.30
sdb               0.00     0.00 1473.00    0.00  6520.00     0.00     8.85     0.15    0.10    0.10    0.00   0.10  14.80
sdc               0.00     0.00 1484.00    0.00  6440.00     0.00     8.68     0.16    0.11    0.11    0.00   0.10  15.50
sdd               0.00     0.00 1459.00    0.00  6376.00     0.00     8.74     0.17    0.12    0.12    0.00   0.11  16.70
sde               0.00     0.00 1421.00    0.00  6096.00     0.00     8.58     0.17    0.12    0.12    0.00   0.12  16.60
sdf               0.00     0.00 1447.00    0.00  6212.00     0.00     8.59     0.16    0.11    0.11    0.00   0.11  15.60
sdg               0.00     0.00    1.00    6.00    16.00   152.00    48.00     0.01    0.71    0.00    0.83   0.14   0.10
sdh               0.00     0.00    0.00    0.00     0.00     0.00     0.00     0.00    0.00    0.00    0.00   0.00   0.00
md0               0.00     0.00 8799.00    0.00 38176.00     0.00     8.68     0.00    0.00    0.00    0.00   0.00   0.00

avg-cpu:  %user   %nice %system %iowait  %steal   %idle
           0.00    0.00    2.05    2.05    0.00   95.91

Device:         rrqm/s   wrqm/s     r/s     w/s    rkB/s    wkB/s avgrq-sz avgqu-sz   await r_await w_await  svctm  %util
sda               0.00     0.00 1428.00    0.00  6284.00     0.00     8.80     0.16    0.11    0.11    0.00   0.11  15.20
sdb               0.00     0.00 1447.00    0.00  6440.00     0.00     8.90     0.16    0.11    0.11    0.00   0.11  15.40
sdc               0.00     0.00 1410.00    0.00  6420.00     0.00     9.11     0.16    0.11    0.11    0.00   0.11  15.10
sdd               0.00     0.00 1391.00    0.00  6272.00     0.00     9.02     0.16    0.11    0.11    0.00   0.11  14.70
sde               0.00     0.00 1470.00    0.00  6556.00     0.00     8.92     0.17    0.12    0.12    0.00   0.12  17.20
sdf               0.00     0.00 1377.00    0.00  6112.00     0.00     8.88     0.15    0.11    0.11    0.00   0.11  15.10
sdg               0.00     0.00    0.00    0.00     0.00     0.00     0.00     0.00    0.00    0.00    0.00   0.00   0.00
sdh               0.00     0.00    0.00    0.00     0.00     0.00     0.00     0.00    0.00    0.00    0.00   0.00   0.00
md0               0.00     0.00 8523.00    0.00 38104.00     0.00     8.94     0.00    0.00    0.00    0.00   0.00   0.00

avg-cpu:  %user   %nice %system %iowait  %steal   %idle
           0.00    0.00    3.03   21.21    0.00   75.76

Device:         rrqm/s   wrqm/s     r/s     w/s    rkB/s    wkB/s avgrq-sz avgqu-sz   await r_await w_await  svctm  %util
sda               0.00     0.00 1540.00    0.00  7032.00     0.00     9.13     0.17    0.11    0.11    0.00   0.10  16.00
sdb               0.00     0.00 1459.00    0.00  6428.00     0.00     8.81     0.14    0.09    0.09    0.00   0.09  13.40
sdc               0.00     0.00 1521.00    0.00  6908.00     0.00     9.08     0.20    0.13    0.13    0.00   0.11  17.40
sdd               0.00     0.00 1478.00    0.00  6876.00     0.00     9.30     0.18    0.12    0.12    0.00   0.12  17.10
sde               0.00     0.00 1504.00    0.00  6856.00     0.00     9.12     0.17    0.11    0.11    0.00   0.10  15.60
sdf               0.00     0.00 1470.00    0.00  6688.00     0.00     9.10     0.17    0.11    0.11    0.00   0.11  15.50
sdg               0.00     1.00    1.00    2.00     4.00    36.00    26.67     0.00    0.00    0.00    0.00   0.00   0.00
sdh               0.00     0.00    0.00    0.00     0.00     0.00     0.00     0.00    0.00    0.00    0.00   0.00   0.00
md0               0.00     0.00 8972.00    0.00 40848.00     0.00     9.11     0.00    0.00    0.00    0.00   0.00   0.00

avg-cpu:  %user   %nice %system %iowait  %steal   %idle
           0.25    0.00    3.03   20.96    0.00   75.76

Device:         rrqm/s   wrqm/s     r/s     w/s    rkB/s    wkB/s avgrq-sz avgqu-sz   await r_await w_await  svctm  %util
sda               0.00     0.00 1534.00    0.00  6952.00     0.00     9.06     0.18    0.12    0.12    0.00   0.11  17.30
sdb               0.00     0.00 1462.00    0.00  6796.00     0.00     9.30     0.17    0.11    0.11    0.00   0.11  15.50
sdc               0.00     0.00 1462.00    0.00  6916.00     0.00     9.46     0.16    0.11    0.11    0.00   0.11  15.80
sdd               0.00     0.00 1465.00    0.00  6844.00     0.00     9.34     0.16    0.11    0.11    0.00   0.11  15.90
sde               0.00     0.00 1516.00    0.00  7252.00     0.00     9.57     0.16    0.11    0.11    0.00   0.10  14.50
sdf               0.00     0.00 1457.00    0.00  6616.00     0.00     9.08     0.16    0.11    0.11    0.00   0.11  15.40
sdg               0.00     0.00    0.00    0.00     0.00     0.00     0.00     0.00    0.00    0.00    0.00   0.00   0.00
sdh               0.00     0.00    0.00    0.00     0.00     0.00     0.00     0.00    0.00    0.00    0.00   0.00   0.00
md0               0.00     0.00 8896.00    0.00 41476.00     0.00     9.32     0.00    0.00    0.00    0.00   0.00   0.00

avg-cpu:  %user   %nice %system %iowait  %steal   %idle
           0.00    0.00    2.80   18.83    0.00   78.37

Device:         rrqm/s   wrqm/s     r/s     w/s    rkB/s    wkB/s avgrq-sz avgqu-sz   await r_await w_await  svctm  %util
sda               0.00     0.00 1493.00    0.00  7104.00     0.00     9.52     0.16    0.11    0.11    0.00   0.09  13.40
sdb               0.00     0.00 1574.00    0.00  7388.00     0.00     9.39     0.16    0.10    0.10    0.00   0.10  15.10
sdc               0.00     0.00 1483.00    0.00  6928.00     0.00     9.34     0.19    0.13    0.13    0.00   0.11  15.90
sdd               0.00     0.00 1475.00    0.00  6688.00     0.00     9.07     0.17    0.12    0.12    0.00   0.11  16.40
sde               0.00     0.00 1524.00    0.00  7160.00     0.00     9.40     0.20    0.13    0.13    0.00   0.12  18.70
sdf               0.00     0.00 1454.00    0.00  7184.00     0.00     9.88     0.20    0.14    0.14    0.00   0.11  15.50
sdg               0.00     0.00    0.00    0.00     0.00     0.00     0.00     0.00    0.00    0.00    0.00   0.00   0.00
sdh               0.00     0.00    0.00    0.00     0.00     0.00     0.00     0.00    0.00    0.00    0.00   0.00   0.00
md0               0.00     0.00 9003.00    0.00 42568.00     0.00     9.46     0.00    0.00    0.00    0.00   0.00   0.00

avg-cpu:  %user   %nice %system %iowait  %steal   %idle
           0.00    0.00    2.79   19.80    0.00   77.41

Device:         rrqm/s   wrqm/s     r/s     w/s    rkB/s    wkB/s avgrq-sz avgqu-sz   await r_await w_await  svctm  %util
sda               0.00     0.00 1518.00    0.00  7248.00     0.00     9.55     0.19    0.13    0.13    0.00   0.10  15.20
sdb               0.00     0.00 1516.00    0.00  7380.00     0.00     9.74     0.17    0.11    0.11    0.00   0.09  14.20
sdc               0.00     0.00 1506.00    0.00  7032.00     0.00     9.34     0.19    0.13    0.13    0.00   0.11  16.50
sdd               0.00     0.00 1495.00    0.00  7288.00     0.00     9.75     0.17    0.11    0.11    0.00   0.10  15.30
sde               0.00     0.00 1537.00    0.00  7200.00     0.00     9.37     0.19    0.12    0.12    0.00   0.12  17.90
sdf               0.00     0.00 1510.00    0.00  7476.00     0.00     9.90     0.19    0.13    0.13    0.00   0.11  16.20
sdg               0.00     0.00    0.00    0.00     0.00     0.00     0.00     0.00    0.00    0.00    0.00   0.00   0.00
sdh               0.00     0.00    0.00    0.00     0.00     0.00     0.00     0.00    0.00    0.00    0.00   0.00   0.00
md0               0.00     0.00 9081.00    0.00 43692.00     0.00     9.62     0.00    0.00    0.00    0.00   0.00   0.00

avg-cpu:  %user   %nice %system %iowait  %steal   %idle
           0.00    0.00    2.80    9.41    0.00   87.79

Device:         rrqm/s   wrqm/s     r/s     w/s    rkB/s    wkB/s avgrq-sz avgqu-sz   await r_await w_await  svctm  %util
sda               0.00     0.00 1559.00    0.00  7736.00     0.00     9.92     0.20    0.13    0.13    0.00   0.09  14.20
sdb               0.00     0.00 1585.00    0.00  7992.00     0.00    10.08     0.23    0.15    0.15    0.00   0.12  18.50
sdc               0.00     0.00 1491.00    0.00  7304.00     0.00     9.80     0.22    0.15    0.15    0.00   0.11  16.70
sdd               0.00     0.00 1583.00    0.00  7948.00     0.00    10.04     0.20    0.12    0.12    0.00   0.09  14.20
sde               0.00     0.00 1506.00    0.00  7236.00     0.00     9.61     0.18    0.12    0.12    0.00   0.10  15.40
sdf               0.00     0.00 1532.00    0.00  7892.00     0.00    10.30     0.23    0.15    0.15    0.00   0.11  16.70
sdg               0.00     0.00    0.00    0.00     0.00     0.00     0.00     0.00    0.00    0.00    0.00   0.00   0.00
sdh               0.00     0.00    0.00    0.00     0.00     0.00     0.00     0.00    0.00    0.00    0.00   0.00   0.00
md0               0.00     0.00 9257.00    0.00 46252.00     0.00     9.99     0.00    0.00    0.00    0.00   0.00   0.00

avg-cpu:  %user   %nice %system %iowait  %steal   %idle
           0.00    0.25    3.05   15.23    0.00   81.47

Device:         rrqm/s   wrqm/s     r/s     w/s    rkB/s    wkB/s avgrq-sz avgqu-sz   await r_await w_await  svctm  %util
sda               0.00     0.00 1572.00    0.00  7972.00     0.00    10.14     0.22    0.14    0.14    0.00   0.10  15.60
sdb               0.00     0.00 1579.00    0.00  8124.00     0.00    10.29     0.22    0.14    0.14    0.00   0.10  15.40
sdc               0.00     0.00 1518.00    0.00  7988.00     0.00    10.52     0.25    0.17    0.17    0.00   0.11  17.20
sdd               0.00     0.00 1566.00    0.00  8060.00     0.00    10.29     0.29    0.18    0.18    0.00   0.10  16.40
sde               0.00     0.00 1678.00    0.00  9156.00     0.00    10.91     0.25    0.15    0.15    0.00   0.10  16.80
sdf               0.00     0.00 1520.00    0.00  8084.00     0.00    10.64     0.26    0.17    0.17    0.00   0.11  16.30
sdg               0.00     0.00    3.00    0.00    12.00     0.00     8.00     0.00    0.33    0.33    0.00   0.33   0.10
sdh               0.00     0.00    0.00    0.00     0.00     0.00     0.00     0.00    0.00    0.00    0.00   0.00   0.00
md0               0.00     0.00 9433.00    0.00 49612.00     0.00    10.52     0.00    0.00    0.00    0.00   0.00   0.00

avg-cpu:  %user   %nice %system %iowait  %steal   %idle
           0.00    0.00    2.56    1.02    0.00   96.42

Device:         rrqm/s   wrqm/s     r/s     w/s    rkB/s    wkB/s avgrq-sz avgqu-sz   await r_await w_await  svctm  %util
sda               0.00     0.00 1630.00    0.00  8740.00     0.00    10.72     0.28    0.17    0.17    0.00   0.10  17.00
sdb               0.00     0.00 1686.00    0.00  9768.00     0.00    11.59     0.28    0.16    0.16    0.00   0.10  16.90
sdc               0.00     0.00 1579.00    0.00  8808.00     0.00    11.16     0.28    0.18    0.18    0.00   0.10  16.20
sdd               0.00     0.00 1623.00    0.00  9124.00     0.00    11.24     0.30    0.18    0.18    0.00   0.10  16.30
sde               0.00     0.00 1591.00    0.00  8756.00     0.00    11.01     0.29    0.18    0.18    0.00   0.11  17.60
sdf               0.00     0.00 1572.00    0.00  8532.00     0.00    10.85     0.25    0.16    0.16    0.00   0.09  13.40
sdg               0.00     0.00    0.00    0.00     0.00     0.00     0.00     0.00    0.00    0.00    0.00   0.00   0.00
sdh               0.00     0.00    0.00    0.00     0.00     0.00     0.00     0.00    0.00    0.00    0.00   0.00   0.00
md0               0.00     0.00 9682.00    0.00 54008.00     0.00    11.16     0.00    0.00    0.00    0.00   0.00   0.00

avg-cpu:  %user   %nice %system %iowait  %steal   %idle
           0.00    0.00    3.04    1.27    0.00   95.70

Device:         rrqm/s   wrqm/s     r/s     w/s    rkB/s    wkB/s avgrq-sz avgqu-sz   await r_await w_await  svctm  %util
sda               0.00     0.00 1641.00    0.00  9704.00     0.00    11.83     0.35    0.21    0.21    0.00   0.09  15.10
sdb               0.00     0.00 1751.00    0.00 10088.00     0.00    11.52     0.37    0.21    0.21    0.00   0.09  15.30
sdc               0.00     0.00 1743.00    0.00 10200.00     0.00    11.70     0.46    0.27    0.27    0.00   0.09  15.00
sdd               0.00     0.00 1819.00    0.00 10788.00     0.00    11.86     0.53    0.29    0.29    0.00   0.10  17.80
sde               1.00     0.00 1824.00    0.00 11604.00     0.00    12.72     0.52    0.29    0.29    0.00   0.09  16.60
sdf               0.00     0.00 1840.00    0.00 11296.00     0.00    12.28     0.60    0.33    0.33    0.00   0.10  19.30
sdg               0.00     0.00    0.00    0.00     0.00     0.00     0.00     0.00    0.00    0.00    0.00   0.00   0.00
sdh               0.00     0.00    0.00    0.00     0.00     0.00     0.00     0.00    0.00    0.00    0.00   0.00   0.00
md0               0.00     0.00 10617.00    0.00 64072.00     0.00    12.07     0.00    0.00    0.00    0.00   0.00   0.00

