Linux 4.17.2 (bench) 	08/04/2018 	_x86_64_	(4 CPU)

avg-cpu:  %user   %nice %system %iowait  %steal   %idle
          10.25    0.02    4.28    2.82    0.00   82.64

Device:         rrqm/s   wrqm/s     r/s     w/s    rkB/s    wkB/s avgrq-sz avgqu-sz   await r_await w_await  svctm  %util
sda              57.69     4.14 1758.39  100.08 21458.84  3062.43    26.39     1.05    0.57    0.26    5.92   0.06  11.17
sdb              57.48     4.10 1758.41  100.22 21448.47  3059.17    26.37     1.05    0.57    0.26    5.85   0.06  11.05
sdc              94.97     4.16 1718.83   99.78 21440.79  3061.57    26.95     1.47    0.81    0.44    7.12   0.08  14.55
sdd              88.58     4.13 1724.40   99.85 21425.92  3057.86    26.84     1.48    0.81    0.43    7.33   0.08  14.64
sde              90.54     4.17 1729.41   99.94 21484.51  3062.01    26.84     1.50    0.82    0.44    7.44   0.08  14.66
sdf              87.73     4.15 1731.50   99.89 21466.21  3058.94    26.78     1.54    0.84    0.43    7.90   0.08  14.69
sdg               0.00     3.16   27.10   73.16   326.84   391.72    14.33     0.44    4.38    0.20    5.93   0.08   0.79
sdh               0.00     0.13    0.02    0.23     2.16     4.94    56.82     0.00    1.15    0.65    1.19   0.21   0.01
md0               0.00     0.00 10905.68  468.91 147041.21 20961.79    29.54     0.00    0.00    0.00    0.00   0.00   0.00

avg-cpu:  %user   %nice %system %iowait  %steal   %idle
           3.23    0.03   17.35    1.41    0.00   77.99

Device:         rrqm/s   wrqm/s     r/s     w/s    rkB/s    wkB/s avgrq-sz avgqu-sz   await r_await w_await  svctm  %util
sda               0.00     0.00  718.05    0.00  2872.20     0.00     8.00     0.07    0.10    0.10    0.00   0.09   6.22
sdb               0.00     0.00  722.05    0.00  2888.20     0.00     8.00     0.07    0.10    0.10    0.00   0.08   6.07
sdc               0.00     0.00  717.75    0.00  2871.00     0.00     8.00     0.08    0.11    0.11    0.00   0.09   6.49
sdd               0.00     0.00  708.00    0.00  2832.00     0.00     8.00     0.08    0.11    0.11    0.00   0.09   6.46
sde               0.00     0.00  706.85    0.00  2827.40     0.00     8.00     0.07    0.11    0.11    0.00   0.09   6.57
sdf               0.00     0.00  711.15    0.00  2844.60     0.00     8.00     0.09    0.12    0.12    0.00   0.10   7.37
sdg               0.00     0.15    1.15    0.55     9.00    10.40    22.82     0.00    0.24    0.17    0.36   0.15   0.03
sdh               0.00     0.00    0.00    0.00     0.00     0.00     0.00     0.00    0.00    0.00    0.00   0.00   0.00
md0               0.00     0.00 4283.85    0.00 17135.40     0.00     8.00     0.00    0.00    0.00    0.00   0.00   0.00

