Linux 4.17.2 (bench) 	08/04/2018 	_x86_64_	(4 CPU)

avg-cpu:  %user   %nice %system %iowait  %steal   %idle
          10.25    0.02    4.26    2.79    0.00   82.69

Device:         rrqm/s   wrqm/s     r/s     w/s    rkB/s    wkB/s avgrq-sz avgqu-sz   await r_await w_await  svctm  %util
sda              56.56     4.15 1749.55  100.33 21448.91  3069.97    26.51     1.05    0.57    0.26    5.92   0.06  11.13
sdb              56.34     4.11 1749.58  100.46 21438.49  3066.71    26.49     1.05    0.57    0.26    5.85   0.06  11.01
sdc              93.92     4.17 1709.90  100.02 21430.79  3069.12    27.07     1.47    0.81    0.44    7.12   0.08  14.51
sdd              87.52     4.14 1715.50  100.09 21415.93  3065.39    26.97     1.48    0.81    0.43    7.33   0.08  14.61
sde              89.49     4.19 1720.53  100.19 21474.76  3069.55    26.96     1.50    0.82    0.44    7.44   0.08  14.63
sdf              86.67     4.16 1722.62  100.13 21456.39  3066.48    26.91     1.54    0.85    0.44    7.90   0.08  14.66
sdg               0.00     3.16   27.04   73.19   326.69   391.80    14.34     0.44    4.38    0.20    5.93   0.08   0.79
sdh               0.00     0.13    0.02    0.23     2.16     4.95    56.82     0.00    1.15    0.65    1.19   0.21   0.01
md0               0.00     0.00 10845.92  470.07 147018.03 21013.44    29.70     0.00    0.00    0.00    0.00   0.00   0.00

avg-cpu:  %user   %nice %system %iowait  %steal   %idle
          24.24    0.02    4.01    6.80    0.00   64.93

Device:         rrqm/s   wrqm/s     r/s     w/s    rkB/s    wkB/s avgrq-sz avgqu-sz   await r_await w_await  svctm  %util
sda               0.00     0.00 1528.75    0.00  6115.00     0.00     8.00     0.16    0.10    0.10    0.00   0.10  15.62
sdb               0.00     0.00 1490.10    0.00  5960.40     0.00     8.00     0.15    0.10    0.10    0.00   0.10  14.52
sdc               0.00     0.00 1514.75    0.00  6059.00     0.00     8.00     0.15    0.10    0.10    0.00   0.10  15.02
sdd               0.00     0.00 1511.40    0.00  6045.60     0.00     8.00     0.15    0.10    0.10    0.00   0.10  15.47
sde               0.00     0.00 1504.60    0.00  6018.40     0.00     8.00     0.16    0.10    0.10    0.00   0.10  15.53
sdf               0.00     0.00 1520.40    0.00  6081.60     0.00     8.00     0.16    0.11    0.11    0.00   0.10  15.96
sdg               0.00     0.10    1.85    1.55    14.00    20.00    20.00     0.00    1.10    0.32    2.03   0.19   0.07
sdh               0.00     0.00    0.00    0.00     0.00     0.00     0.00     0.00    0.00    0.00    0.00   0.00   0.00
md0               0.00     0.00 9070.00    0.00 36280.00     0.00     8.00     0.00    0.00    0.00    0.00   0.00   0.00

