Linux 4.17.2 (bench) 	08/04/2018 	_x86_64_	(4 CPU)

avg-cpu:  %user   %nice %system %iowait  %steal   %idle
          10.25    0.02    4.29    2.82    0.00   82.63

Device:         rrqm/s   wrqm/s     r/s     w/s    rkB/s    wkB/s avgrq-sz avgqu-sz   await r_await w_await  svctm  %util
sda              57.66     4.14 1758.44  100.01 21452.55  3060.29    26.38     1.05    0.57    0.26    5.92   0.06  11.17
sdb              57.44     4.10 1758.47  100.15 21442.18  3057.03    26.36     1.05    0.56    0.26    5.85   0.06  11.05
sdc              94.91     4.16 1718.92   99.71 21434.51  3059.43    26.94     1.47    0.81    0.44    7.12   0.08  14.54
sdd              88.52     4.13 1724.49   99.78 21419.65  3055.72    26.83     1.48    0.81    0.43    7.33   0.08  14.64
sde              90.48     4.17 1729.49   99.87 21478.19  3059.87    26.83     1.50    0.82    0.44    7.44   0.08  14.66
sdf              87.67     4.14 1731.58   99.82 21459.90  3056.81    26.77     1.54    0.84    0.43    7.90   0.08  14.69
sdg               0.00     3.16   27.11   73.15   326.83   391.68    14.33     0.44    4.38    0.20    5.93   0.08   0.79
sdh               0.00     0.13    0.02    0.23     2.16     4.94    56.82     0.00    1.15    0.65    1.19   0.21   0.01
md0               0.00     0.00 10905.80  468.59 146994.92 20947.15    29.53     0.00    0.00    0.00    0.00   0.00   0.00

avg-cpu:  %user   %nice %system %iowait  %steal   %idle
          13.12    0.01   22.11    1.98    0.00   62.78

Device:         rrqm/s   wrqm/s     r/s     w/s    rkB/s    wkB/s avgrq-sz avgqu-sz   await r_await w_await  svctm  %util
sda              12.65     0.00  177.90    0.00 11066.80     0.00   124.42     0.10    0.55    0.55    0.00   0.23   4.10
sdb              12.20     0.00  182.30    0.00 11187.00     0.00   122.73     0.10    0.57    0.57    0.00   0.22   4.08
sdc              12.25     0.00  193.45    0.00 11093.80     0.00   114.69     0.17    0.85    0.85    0.00   0.31   6.04
sdd              11.85     0.00  186.40    0.00 11045.40     0.00   118.51     0.16    0.85    0.85    0.00   0.32   5.92
sde              12.45     0.00  165.80    0.00 10942.80     0.00   132.00     0.15    0.88    0.88    0.00   0.35   5.88
sdf              12.85     0.00  165.00    0.00 11142.20     0.00   135.06     0.15    0.93    0.93    0.00   0.35   5.83
sdg               0.00     3.65    3.20   71.85    43.20   374.40    11.13     0.43    5.68    0.19    5.92   0.05   0.37
sdh               0.00     0.00    0.00    0.00     0.00     0.00     0.00     0.00    0.00    0.00    0.00   0.00   0.00
md0               0.00     0.00 1145.10    0.00 89865.60     0.00   156.96     0.00    0.00    0.00    0.00   0.00   0.00

