Linux 4.17.2 (bench) 	08/03/2018 	_x86_64_	(4 CPU)

avg-cpu:  %user   %nice %system %iowait  %steal   %idle
          10.25    0.02    4.20    2.76    0.00   82.78

Device:         rrqm/s   wrqm/s     r/s     w/s    rkB/s    wkB/s avgrq-sz avgqu-sz   await r_await w_await  svctm  %util
sda              55.49     4.18 1740.98  100.86 21464.30  3086.40    26.66     1.05    0.57    0.26    5.92   0.06  11.10
sdb              55.27     4.14 1741.00  101.00 21453.81  3083.11    26.64     1.05    0.57    0.26    5.85   0.06  10.98
sdc              93.04     4.20 1701.13  100.56 21446.06  3085.54    27.23     1.47    0.82    0.44    7.12   0.08  14.49
sdd              86.60     4.16 1706.76  100.63 21431.15  3081.79    27.13     1.48    0.82    0.43    7.33   0.08  14.58
sde              88.58     4.21 1711.84  100.72 21490.39  3085.97    27.12     1.50    0.83    0.44    7.44   0.08  14.60
sdf              85.75     4.18 1713.94  100.67 21471.94  3082.89    27.06     1.54    0.85    0.44    7.90   0.08  14.64
sdg               0.00     3.16   26.94   73.25   326.55   392.03    14.34     0.44    4.39    0.20    5.93   0.08   0.79
sdh               0.00     0.13    0.02    0.23     2.17     4.98    56.82     0.00    1.15    0.65    1.19   0.21   0.01
md0               0.00     0.00 10788.07  472.58 147171.67 21125.87    29.89     0.00    0.00    0.00    0.00   0.00   0.00

avg-cpu:  %user   %nice %system %iowait  %steal   %idle
          23.92    0.02    6.72   13.82    0.00   55.51

Device:         rrqm/s   wrqm/s     r/s     w/s    rkB/s    wkB/s avgrq-sz avgqu-sz   await r_await w_await  svctm  %util
sda               0.00     0.00 2198.00    0.00  8792.00     0.00     8.00     0.14    0.07    0.07    0.00   0.07  14.46
sdb               0.00     0.00 2166.10    0.00  8664.40     0.00     8.00     0.14    0.06    0.06    0.00   0.06  14.00
sdc               0.00     0.00 2183.15    0.00  8732.60     0.00     8.00     0.15    0.07    0.07    0.00   0.07  14.98
sdd               0.00     0.00 2180.70    0.00  8722.80     0.00     8.00     0.15    0.07    0.07    0.00   0.07  15.03
sde               0.00     0.00 2163.55    0.00  8654.20     0.00     8.00     0.15    0.07    0.07    0.00   0.07  14.73
sdf               0.00     0.00 2205.70    0.00  8822.80     0.00     8.00     0.15    0.07    0.07    0.00   0.07  15.08
sdg               0.00     4.50   51.80  128.80   260.00   649.60    10.07     0.78    4.33    0.13    6.01   0.07   1.21
sdh               0.00     0.00    0.00    0.00     0.00     0.00     0.00     0.00    0.00    0.00    0.00   0.00   0.00
md0               0.00     0.00 13097.20    0.00 52388.80     0.00     8.00     0.00    0.00    0.00    0.00   0.00   0.00

