Linux 4.17.2 (bench) 	08/03/2018 	_x86_64_	(4 CPU)

avg-cpu:  %user   %nice %system %iowait  %steal   %idle
          10.25    0.02    4.20    2.76    0.00   82.78

Device:         rrqm/s   wrqm/s     r/s     w/s    rkB/s    wkB/s avgrq-sz avgqu-sz   await r_await w_await  svctm  %util
sda              55.43     4.18 1740.82  100.88 21465.62  3086.87    26.66     1.05    0.57    0.26    5.92   0.06  11.10
sdb              55.21     4.14 1740.85  101.02 21455.14  3083.59    26.65     1.05    0.57    0.26    5.85   0.06  10.98
sdc              92.98     4.20 1700.96  100.57 21447.38  3086.01    27.24     1.47    0.82    0.44    7.12   0.08  14.49
sdd              86.54     4.16 1706.60  100.64 21432.47  3082.27    27.13     1.48    0.82    0.43    7.33   0.08  14.58
sde              88.53     4.21 1711.68  100.74 21491.73  3086.45    27.12     1.50    0.83    0.44    7.44   0.08  14.60
sdf              85.69     4.18 1713.78  100.68 21473.27  3083.36    27.07     1.54    0.85    0.44    7.90   0.08  14.64
sdg               0.00     3.16   26.94   73.25   326.53   392.03    14.34     0.44    4.39    0.20    5.93   0.08   0.79
sdh               0.00     0.13    0.02    0.23     2.18     4.98    56.82     0.00    1.15    0.65    1.19   0.21   0.01
md0               0.00     0.00 10786.77  472.66 147182.46 21129.12    29.90     0.00    0.00    0.00    0.00   0.00   0.00

avg-cpu:  %user   %nice %system %iowait  %steal   %idle
          24.43    0.00    2.27   21.91    0.00   51.39

Device:         rrqm/s   wrqm/s     r/s     w/s    rkB/s    wkB/s avgrq-sz avgqu-sz   await r_await w_await  svctm  %util
sda               0.00     0.00 1548.00    0.00  6192.00     0.00     8.00     0.15    0.10    0.10    0.00   0.10  14.90
sdb               0.00     0.00 1621.00    0.00  6484.00     0.00     8.00     0.16    0.10    0.10    0.00   0.10  16.00
sdc               0.00     0.00 1692.00    0.00  6768.00     0.00     8.00     0.17    0.10    0.10    0.00   0.10  16.50
sdd               0.00     0.00 1470.00    0.00  5880.00     0.00     8.00     0.15    0.10    0.10    0.00   0.10  15.20
sde               0.00     0.00 1430.00    0.00  5720.00     0.00     8.00     0.14    0.10    0.10    0.00   0.10  13.60
sdf               0.00     0.00 1594.00    0.00  6376.00     0.00     8.00     0.16    0.10    0.10    0.00   0.10  16.00
sdg               0.00     0.00    8.00   35.00   104.00   592.00    32.37     0.07    6.40    0.88    7.66   0.16   0.70
sdh               0.00     0.00    0.00    0.00     0.00     0.00     0.00     0.00    0.00    0.00    0.00   0.00   0.00
md0               0.00     0.00 9357.00    0.00 37428.00     0.00     8.00     0.00    0.00    0.00    0.00   0.00   0.00

avg-cpu:  %user   %nice %system %iowait  %steal   %idle
          24.87    0.25    1.78    0.76    0.00   72.34

Device:         rrqm/s   wrqm/s     r/s     w/s    rkB/s    wkB/s avgrq-sz avgqu-sz   await r_await w_await  svctm  %util
sda               0.00     0.00 1603.00    0.00  6412.00     0.00     8.00     0.13    0.08    0.08    0.00   0.08  13.40
sdb               0.00     0.00 1458.00    0.00  5832.00     0.00     8.00     0.15    0.10    0.10    0.00   0.10  15.30
sdc               0.00     0.00 1521.00    0.00  6084.00     0.00     8.00     0.17    0.11    0.11    0.00   0.11  16.50
sdd               0.00     0.00 1627.00    0.00  6508.00     0.00     8.00     0.17    0.10    0.10    0.00   0.10  16.90
sde               0.00     0.00 1721.00    0.00  6884.00     0.00     8.00     0.17    0.10    0.10    0.00   0.10  17.10
sdf               0.00     0.00 1494.00    0.00  5976.00     0.00     8.00     0.15    0.10    0.10    0.00   0.10  15.30
sdg               0.00     0.00   18.00    0.00   120.00     0.00    13.33     0.00    0.17    0.17    0.00   0.17   0.30
sdh               0.00     0.00    0.00    0.00     0.00     0.00     0.00     0.00    0.00    0.00    0.00   0.00   0.00
md0               0.00     0.00 9424.00    0.00 37696.00     0.00     8.00     0.00    0.00    0.00    0.00   0.00   0.00

avg-cpu:  %user   %nice %system %iowait  %steal   %idle
          25.13    0.00    2.03   18.53    0.00   54.31

Device:         rrqm/s   wrqm/s     r/s     w/s    rkB/s    wkB/s avgrq-sz avgqu-sz   await r_await w_await  svctm  %util
sda               0.00     0.00 1493.00    0.00  5972.00     0.00     8.00     0.15    0.10    0.10    0.00   0.10  15.40
sdb               0.00     0.00 1622.00    0.00  6488.00     0.00     8.00     0.15    0.10    0.10    0.00   0.10  15.50
sdc               0.00     0.00 1544.00    0.00  6176.00     0.00     8.00     0.15    0.10    0.10    0.00   0.10  14.80
sdd               0.00     0.00 1619.00    0.00  6476.00     0.00     8.00     0.18    0.11    0.11    0.00   0.11  17.90
sde               0.00     0.00 1495.00    0.00  5980.00     0.00     8.00     0.16    0.11    0.11    0.00   0.11  15.80
sdf               0.00     0.00 1500.00    0.00  6000.00     0.00     8.00     0.16    0.11    0.11    0.00   0.11  15.80
sdg               0.00    79.00    2.00 2562.00    32.00 12876.00    10.07    16.13    6.29    0.00    6.29   0.05  11.80
sdh               0.00     0.00    0.00    0.00     0.00     0.00     0.00     0.00    0.00    0.00    0.00   0.00   0.00
md0               0.00     0.00 9273.00    0.00 37092.00     0.00     8.00     0.00    0.00    0.00    0.00   0.00   0.00

avg-cpu:  %user   %nice %system %iowait  %steal   %idle
          24.75    0.00    2.02   22.22    0.00   51.01

Device:         rrqm/s   wrqm/s     r/s     w/s    rkB/s    wkB/s avgrq-sz avgqu-sz   await r_await w_await  svctm  %util
sda               0.00     0.00 1571.00    0.00  6284.00     0.00     8.00     0.15    0.10    0.10    0.00   0.10  15.50
sdb               0.00     0.00 1537.00    0.00  6148.00     0.00     8.00     0.15    0.10    0.10    0.00   0.10  15.00
sdc               0.00     0.00 1455.00    0.00  5820.00     0.00     8.00     0.14    0.09    0.09    0.00   0.09  13.80
sdd               0.00     0.00 1543.00    0.00  6172.00     0.00     8.00     0.15    0.10    0.10    0.00   0.10  15.20
sde               0.00     0.00 1502.00    0.00  6008.00     0.00     8.00     0.17    0.12    0.12    0.00   0.11  17.20
sdf               0.00     0.00 1614.00    0.00  6456.00     0.00     8.00     0.16    0.10    0.10    0.00   0.10  16.20
sdg               0.00     0.00    0.00    0.00     0.00     0.00     0.00     0.00    0.00    0.00    0.00   0.00   0.00
sdh               0.00     0.00    0.00    0.00     0.00     0.00     0.00     0.00    0.00    0.00    0.00   0.00   0.00
md0               0.00     0.00 9222.00    0.00 36888.00     0.00     8.00     0.00    0.00    0.00    0.00   0.00   0.00

avg-cpu:  %user   %nice %system %iowait  %steal   %idle
          25.00    0.00    1.77    8.08    0.00   65.15

Device:         rrqm/s   wrqm/s     r/s     w/s    rkB/s    wkB/s avgrq-sz avgqu-sz   await r_await w_await  svctm  %util
sda               0.00     0.00 1516.00    0.00  6064.00     0.00     8.00     0.14    0.10    0.10    0.00   0.10  14.50
sdb               0.00     0.00 1566.00    0.00  6264.00     0.00     8.00     0.16    0.10    0.10    0.00   0.10  16.00
sdc               0.00     0.00 1523.00    0.00  6092.00     0.00     8.00     0.15    0.10    0.10    0.00   0.10  15.30
sdd               0.00     0.00 1533.00    0.00  6132.00     0.00     8.00     0.15    0.10    0.10    0.00   0.10  15.20
sde               0.00     0.00 1597.00    0.00  6388.00     0.00     8.00     0.18    0.11    0.11    0.00   0.11  18.30
sdf               0.00     0.00 1551.00    0.00  6204.00     0.00     8.00     0.15    0.10    0.10    0.00   0.10  15.00
sdg               0.00     0.00    0.00    0.00     0.00     0.00     0.00     0.00    0.00    0.00    0.00   0.00   0.00
sdh               0.00     0.00    0.00    0.00     0.00     0.00     0.00     0.00    0.00    0.00    0.00   0.00   0.00
md0               0.00     0.00 9286.00    0.00 37144.00     0.00     8.00     0.00    0.00    0.00    0.00   0.00   0.00

avg-cpu:  %user   %nice %system %iowait  %steal   %idle
          25.26    0.00    1.02    1.02    0.00   72.70

Device:         rrqm/s   wrqm/s     r/s     w/s    rkB/s    wkB/s avgrq-sz avgqu-sz   await r_await w_await  svctm  %util
sda               0.00     0.00 1591.00    0.00  6364.00     0.00     8.00     0.14    0.09    0.09    0.00   0.09  13.80
sdb               0.00     0.00 1545.00    0.00  6180.00     0.00     8.00     0.15    0.10    0.10    0.00   0.10  14.80
sdc               0.00     0.00 1507.00    0.00  6028.00     0.00     8.00     0.17    0.11    0.11    0.00   0.11  16.50
sdd               0.00     0.00 1598.00    0.00  6392.00     0.00     8.00     0.15    0.09    0.09    0.00   0.09  15.00
sde               0.00     0.00 1575.00    0.00  6300.00     0.00     8.00     0.18    0.12    0.12    0.00   0.12  18.50
sdf               0.00     0.00 1550.00    0.00  6200.00     0.00     8.00     0.17    0.11    0.11    0.00   0.11  16.70
sdg               0.00     0.00    0.00    0.00     0.00     0.00     0.00     0.00    0.00    0.00    0.00   0.00   0.00
sdh               0.00     0.00    0.00    0.00     0.00     0.00     0.00     0.00    0.00    0.00    0.00   0.00   0.00
md0               0.00     0.00 9365.00    0.00 37460.00     0.00     8.00     0.00    0.00    0.00    0.00   0.00   0.00

avg-cpu:  %user   %nice %system %iowait  %steal   %idle
          24.81    0.00    1.52    1.01    0.00   72.66

Device:         rrqm/s   wrqm/s     r/s     w/s    rkB/s    wkB/s avgrq-sz avgqu-sz   await r_await w_await  svctm  %util
sda               0.00     0.00 1461.00    0.00  5844.00     0.00     8.00     0.14    0.10    0.10    0.00   0.10  14.00
sdb               0.00     0.00 1677.00    0.00  6708.00     0.00     8.00     0.14    0.08    0.08    0.00   0.08  14.10
sdc               0.00     0.00 1484.00    0.00  5936.00     0.00     8.00     0.17    0.11    0.11    0.00   0.11  16.60
sdd               0.00     0.00 1477.00    0.00  5908.00     0.00     8.00     0.14    0.10    0.10    0.00   0.10  14.10
sde               0.00     0.00 1594.00    0.00  6376.00     0.00     8.00     0.20    0.12    0.12    0.00   0.12  19.80
sdf               0.00     0.00 1545.00    0.00  6180.00     0.00     8.00     0.15    0.10    0.10    0.00   0.10  15.30
sdg               0.00     0.00    0.00    0.00     0.00     0.00     0.00     0.00    0.00    0.00    0.00   0.00   0.00
sdh               0.00     0.00    0.00    0.00     0.00     0.00     0.00     0.00    0.00    0.00    0.00   0.00   0.00
md0               0.00     0.00 9238.00    0.00 36952.00     0.00     8.00     0.00    0.00    0.00    0.00   0.00   0.00

avg-cpu:  %user   %nice %system %iowait  %steal   %idle
          25.13    0.00    1.27    0.76    0.00   72.84

Device:         rrqm/s   wrqm/s     r/s     w/s    rkB/s    wkB/s avgrq-sz avgqu-sz   await r_await w_await  svctm  %util
sda               0.00     0.00 1534.00    0.00  6136.00     0.00     8.00     0.15    0.10    0.10    0.00   0.10  15.50
sdb               0.00     0.00 1505.00    0.00  6020.00     0.00     8.00     0.12    0.08    0.08    0.00   0.08  11.70
sdc               0.00     0.00 1589.00    0.00  6356.00     0.00     8.00     0.17    0.11    0.11    0.00   0.11  17.20
sdd               0.00     0.00 1452.00    0.00  5808.00     0.00     8.00     0.14    0.10    0.10    0.00   0.10  14.50
sde               0.00     0.00 1663.00    0.00  6652.00     0.00     8.00     0.19    0.11    0.11    0.00   0.11  18.60
sdf               0.00     0.00 1635.00    0.00  6540.00     0.00     8.00     0.18    0.11    0.11    0.00   0.11  17.60
sdg               0.00     0.00    0.00    0.00     0.00     0.00     0.00     0.00    0.00    0.00    0.00   0.00   0.00
sdh               0.00     0.00    0.00    0.00     0.00     0.00     0.00     0.00    0.00    0.00    0.00   0.00   0.00
md0               0.00     0.00 9378.00    0.00 37512.00     0.00     8.00     0.00    0.00    0.00    0.00   0.00   0.00

avg-cpu:  %user   %nice %system %iowait  %steal   %idle
          24.81    0.00    2.03    0.76    0.00   72.41

Device:         rrqm/s   wrqm/s     r/s     w/s    rkB/s    wkB/s avgrq-sz avgqu-sz   await r_await w_await  svctm  %util
sda               0.00     0.00 1425.00    0.00  5700.00     0.00     8.00     0.13    0.09    0.09    0.00   0.09  13.10
sdb               0.00     0.00 1609.00    0.00  6436.00     0.00     8.00     0.15    0.09    0.09    0.00   0.09  14.60
sdc               0.00     0.00 1675.00    0.00  6700.00     0.00     8.00     0.17    0.10    0.10    0.00   0.10  16.70
sdd               0.00     0.00 1481.00    0.00  5924.00     0.00     8.00     0.14    0.10    0.10    0.00   0.10  14.50
sde               0.00     0.00 1614.00    0.00  6456.00     0.00     8.00     0.18    0.11    0.11    0.00   0.11  18.20
sdf               0.00     0.00 1590.00    0.00  6360.00     0.00     8.00     0.15    0.10    0.10    0.00   0.10  15.40
sdg               0.00     0.00    0.00    0.00     0.00     0.00     0.00     0.00    0.00    0.00    0.00   0.00   0.00
sdh               0.00     0.00    0.00    0.00     0.00     0.00     0.00     0.00    0.00    0.00    0.00   0.00   0.00
md0               0.00     0.00 9394.00    0.00 37576.00     0.00     8.00     0.00    0.00    0.00    0.00   0.00   0.00

avg-cpu:  %user   %nice %system %iowait  %steal   %idle
          24.81    0.00    2.26   17.79    0.00   55.14

Device:         rrqm/s   wrqm/s     r/s     w/s    rkB/s    wkB/s avgrq-sz avgqu-sz   await r_await w_await  svctm  %util
sda               0.00     0.00 1514.00    0.00  6056.00     0.00     8.00     0.16    0.10    0.10    0.00   0.10  15.70
sdb               0.00     0.00 1641.00    0.00  6564.00     0.00     8.00     0.16    0.10    0.10    0.00   0.10  16.30
sdc               0.00     0.00 1526.00    0.00  6104.00     0.00     8.00     0.15    0.10    0.10    0.00   0.10  15.10
sdd               0.00     0.00 1425.00    0.00  5700.00     0.00     8.00     0.12    0.08    0.08    0.00   0.08  11.60
sde               0.00     0.00 1536.00    0.00  6144.00     0.00     8.00     0.19    0.12    0.12    0.00   0.12  19.10
sdf               0.00     0.00 1657.00    0.00  6628.00     0.00     8.00     0.15    0.09    0.09    0.00   0.09  14.90
sdg               0.00     0.00    0.00    0.00     0.00     0.00     0.00     0.00    0.00    0.00    0.00   0.00   0.00
sdh               0.00     0.00    0.00    0.00     0.00     0.00     0.00     0.00    0.00    0.00    0.00   0.00   0.00
md0               0.00     0.00 9299.00    0.00 37196.00     0.00     8.00     0.00    0.00    0.00    0.00   0.00   0.00

avg-cpu:  %user   %nice %system %iowait  %steal   %idle
          25.13    0.00    1.52    0.76    0.00   72.59

Device:         rrqm/s   wrqm/s     r/s     w/s    rkB/s    wkB/s avgrq-sz avgqu-sz   await r_await w_await  svctm  %util
sda               0.00     0.00 1565.00    0.00  6260.00     0.00     8.00     0.16    0.10    0.10    0.00   0.10  16.00
sdb               0.00     0.00 1467.00    0.00  5868.00     0.00     8.00     0.12    0.08    0.08    0.00   0.08  12.00
sdc               0.00     0.00 1563.00    0.00  6252.00     0.00     8.00     0.16    0.10    0.10    0.00   0.10  16.00
sdd               0.00     0.00 1504.00    0.00  6016.00     0.00     8.00     0.17    0.11    0.11    0.00   0.11  16.80
sde               0.00     0.00 1566.00    0.00  6264.00     0.00     8.00     0.17    0.11    0.11    0.00   0.11  16.90
sdf               0.00     0.00 1617.00    0.00  6468.00     0.00     8.00     0.17    0.11    0.11    0.00   0.11  17.40
sdg               0.00     0.00    0.00    0.00     0.00     0.00     0.00     0.00    0.00    0.00    0.00   0.00   0.00
sdh               0.00     0.00    0.00    0.00     0.00     0.00     0.00     0.00    0.00    0.00    0.00   0.00   0.00
md0               0.00     0.00 9284.00    0.00 37136.00     0.00     8.00     0.00    0.00    0.00    0.00   0.00   0.00

avg-cpu:  %user   %nice %system %iowait  %steal   %idle
          25.00    0.00    2.53    9.85    0.00   62.63

Device:         rrqm/s   wrqm/s     r/s     w/s    rkB/s    wkB/s avgrq-sz avgqu-sz   await r_await w_await  svctm  %util
sda               0.00     0.00 1530.00    0.00  6120.00     0.00     8.00     0.15    0.10    0.10    0.00   0.10  15.30
sdb               0.00     0.00 1554.00    0.00  6216.00     0.00     8.00     0.15    0.10    0.10    0.00   0.10  15.10
sdc               0.00     0.00 1475.00    0.00  5900.00     0.00     8.00     0.15    0.10    0.10    0.00   0.10  14.90
sdd               0.00     0.00 1417.00    0.00  5668.00     0.00     8.00     0.15    0.11    0.11    0.00   0.11  14.90
sde               0.00     0.00 1460.00    0.00  5840.00     0.00     8.00     0.18    0.12    0.12    0.00   0.12  18.00
sdf               0.00     0.00 1639.00    0.00  6556.00     0.00     8.00     0.16    0.10    0.10    0.00   0.10  16.10
sdg               0.00     0.00 1334.00    0.00  5336.00     0.00     8.00     0.16    0.12    0.12    0.00   0.12  16.00
sdh               0.00     0.00    0.00    0.00     0.00     0.00     0.00     0.00    0.00    0.00    0.00   0.00   0.00
md0               0.00     0.00 9075.00    0.00 36300.00     0.00     8.00     0.00    0.00    0.00    0.00   0.00   0.00

avg-cpu:  %user   %nice %system %iowait  %steal   %idle
          25.00    0.00    2.02    6.06    0.00   66.92

Device:         rrqm/s   wrqm/s     r/s     w/s    rkB/s    wkB/s avgrq-sz avgqu-sz   await r_await w_await  svctm  %util
sda               0.00     0.00 1546.00    0.00  6184.00     0.00     8.00     0.14    0.09    0.09    0.00   0.09  13.70
sdb               0.00     0.00 1642.00    0.00  6568.00     0.00     8.00     0.17    0.11    0.11    0.00   0.10  17.20
sdc               0.00     0.00 1600.00    0.00  6400.00     0.00     8.00     0.16    0.10    0.10    0.00   0.10  16.20
sdd               0.00     0.00 1566.00    0.00  6264.00     0.00     8.00     0.15    0.10    0.10    0.00   0.10  15.40
sde               0.00     0.00 1578.00    0.00  6312.00     0.00     8.00     0.17    0.10    0.10    0.00   0.10  16.50
sdf               0.00     0.00 1560.00    0.00  6240.00     0.00     8.00     0.14    0.09    0.09    0.00   0.09  14.50
sdg               0.00     1.00    7.00    5.00    28.00    48.00    12.67     0.01    0.75    0.14    1.60   0.75   0.90
sdh               0.00     0.00    0.00    0.00     0.00     0.00     0.00     0.00    0.00    0.00    0.00   0.00   0.00
md0               0.00     0.00 9491.00    0.00 37964.00     0.00     8.00     0.00    0.00    0.00    0.00   0.00   0.00

avg-cpu:  %user   %nice %system %iowait  %steal   %idle
          24.69    0.00    2.27   20.15    0.00   52.90

Device:         rrqm/s   wrqm/s     r/s     w/s    rkB/s    wkB/s avgrq-sz avgqu-sz   await r_await w_await  svctm  %util
sda               0.00     0.00 1664.00    0.00  6656.00     0.00     8.00     0.17    0.10    0.10    0.00   0.10  16.80
sdb               0.00     0.00 1554.00    0.00  6216.00     0.00     8.00     0.14    0.09    0.09    0.00   0.09  13.80
sdc               0.00     0.00 1513.00    0.00  6052.00     0.00     8.00     0.15    0.10    0.10    0.00   0.10  15.40
sdd               0.00     0.00 1558.00    0.00  6232.00     0.00     8.00     0.15    0.10    0.10    0.00   0.10  15.00
sde               0.00     0.00 1642.00    0.00  6568.00     0.00     8.00     0.15    0.09    0.09    0.00   0.09  15.10
sdf               0.00     0.00 1542.00    0.00  6168.00     0.00     8.00     0.16    0.11    0.11    0.00   0.11  16.20
sdg               0.00     0.00    0.00    0.00     0.00     0.00     0.00     0.00    0.00    0.00    0.00   0.00   0.00
sdh               0.00     0.00    0.00    0.00     0.00     0.00     0.00     0.00    0.00    0.00    0.00   0.00   0.00
md0               0.00     0.00 9473.00    0.00 37892.00     0.00     8.00     0.00    0.00    0.00    0.00   0.00   0.00

avg-cpu:  %user   %nice %system %iowait  %steal   %idle
          25.06    0.00    1.77    5.82    0.00   67.34

Device:         rrqm/s   wrqm/s     r/s     w/s    rkB/s    wkB/s avgrq-sz avgqu-sz   await r_await w_await  svctm  %util
sda               0.00     0.00 1547.00    0.00  6188.00     0.00     8.00     0.14    0.09    0.09    0.00   0.09  13.80
sdb               0.00     0.00 1479.00    0.00  5916.00     0.00     8.00     0.15    0.10    0.10    0.00   0.10  15.00
sdc               0.00     0.00 1651.00    0.00  6604.00     0.00     8.00     0.17    0.11    0.11    0.00   0.11  17.40
sdd               0.00     0.00 1589.00    0.00  6356.00     0.00     8.00     0.16    0.10    0.10    0.00   0.10  16.10
sde               0.00     0.00 1574.00    0.00  6296.00     0.00     8.00     0.15    0.09    0.09    0.00   0.09  14.90
sdf               0.00     0.00 1636.00    0.00  6544.00     0.00     8.00     0.17    0.10    0.10    0.00   0.10  16.80
sdg               0.00     0.00    0.00    0.00     0.00     0.00     0.00     0.00    0.00    0.00    0.00   0.00   0.00
sdh               0.00     0.00    0.00    0.00     0.00     0.00     0.00     0.00    0.00    0.00    0.00   0.00   0.00
md0               0.00     0.00 9476.00    0.00 37904.00     0.00     8.00     0.00    0.00    0.00    0.00   0.00   0.00

avg-cpu:  %user   %nice %system %iowait  %steal   %idle
          24.62    0.00    2.51    3.52    0.00   69.35

Device:         rrqm/s   wrqm/s     r/s     w/s    rkB/s    wkB/s avgrq-sz avgqu-sz   await r_await w_await  svctm  %util
sda               0.00     0.00 1688.00    0.00  6752.00     0.00     8.00     0.16    0.09    0.09    0.00   0.09  15.90
sdb               0.00     0.00 1572.00    0.00  6288.00     0.00     8.00     0.16    0.10    0.10    0.00   0.10  15.90
sdc               0.00     0.00 1647.00    0.00  6588.00     0.00     8.00     0.14    0.09    0.09    0.00   0.09  14.40
sdd               0.00     0.00 1479.00    0.00  5916.00     0.00     8.00     0.15    0.10    0.10    0.00   0.10  15.50
sde               0.00     0.00 1573.00    0.00  6292.00     0.00     8.00     0.16    0.10    0.10    0.00   0.10  15.60
sdf               0.00     0.00 1557.00    0.00  6228.00     0.00     8.00     0.15    0.10    0.10    0.00   0.10  15.30
sdg               0.00     0.00   14.00    0.00   288.00     0.00    41.14     0.00    0.29    0.29    0.00   0.29   0.40
sdh               0.00     0.00    0.00    0.00     0.00     0.00     0.00     0.00    0.00    0.00    0.00   0.00   0.00
md0               0.00     0.00 9515.00    0.00 38060.00     0.00     8.00     0.00    0.00    0.00    0.00   0.00   0.00

avg-cpu:  %user   %nice %system %iowait  %steal   %idle
          25.06    0.00    1.77    8.86    0.00   64.30

Device:         rrqm/s   wrqm/s     r/s     w/s    rkB/s    wkB/s avgrq-sz avgqu-sz   await r_await w_await  svctm  %util
sda               0.00     0.00 1690.00    0.00  6760.00     0.00     8.00     0.15    0.09    0.09    0.00   0.09  15.30
sdb               0.00     0.00 1556.00    0.00  6224.00     0.00     8.00     0.15    0.10    0.10    0.00   0.10  15.30
sdc               0.00     0.00 1528.00    0.00  6112.00     0.00     8.00     0.16    0.10    0.10    0.00   0.10  15.80
sdd               0.00     0.00 1543.00    0.00  6172.00     0.00     8.00     0.15    0.10    0.10    0.00   0.10  14.90
sde               0.00     0.00 1530.00    0.00  6120.00     0.00     8.00     0.16    0.10    0.10    0.00   0.10  15.60
sdf               0.00     0.00 1664.00    0.00  6656.00     0.00     8.00     0.17    0.10    0.10    0.00   0.10  16.80
sdg               0.00     0.00    0.00    0.00     0.00     0.00     0.00     0.00    0.00    0.00    0.00   0.00   0.00
sdh               0.00     0.00    0.00    0.00     0.00     0.00     0.00     0.00    0.00    0.00    0.00   0.00   0.00
md0               0.00     0.00 9511.00    0.00 38044.00     0.00     8.00     0.00    0.00    0.00    0.00   0.00   0.00

avg-cpu:  %user   %nice %system %iowait  %steal   %idle
          25.06    0.00    1.52    0.76    0.00   72.66

Device:         rrqm/s   wrqm/s     r/s     w/s    rkB/s    wkB/s avgrq-sz avgqu-sz   await r_await w_await  svctm  %util
sda               0.00     0.00 1594.00    0.00  6376.00     0.00     8.00     0.17    0.10    0.10    0.00   0.10  16.50
sdb               0.00     0.00 1613.00    0.00  6452.00     0.00     8.00     0.14    0.09    0.09    0.00   0.09  13.90
sdc               0.00     0.00 1546.00    0.00  6184.00     0.00     8.00     0.16    0.10    0.10    0.00   0.10  16.20
sdd               0.00     0.00 1621.00    0.00  6484.00     0.00     8.00     0.16    0.10    0.10    0.00   0.10  16.30
sde               0.00     0.00 1513.00    0.00  6052.00     0.00     8.00     0.14    0.09    0.09    0.00   0.09  13.90
sdf               0.00     0.00 1633.00    0.00  6532.00     0.00     8.00     0.17    0.10    0.10    0.00   0.10  17.10
sdg               0.00     0.00    0.00    0.00     0.00     0.00     0.00     0.00    0.00    0.00    0.00   0.00   0.00
sdh               0.00     0.00    0.00    0.00     0.00     0.00     0.00     0.00    0.00    0.00    0.00   0.00   0.00
md0               0.00     0.00 9520.00    0.00 38080.00     0.00     8.00     0.00    0.00    0.00    0.00   0.00   0.00

avg-cpu:  %user   %nice %system %iowait  %steal   %idle
          25.06    0.00    1.52    0.76    0.00   72.66

Device:         rrqm/s   wrqm/s     r/s     w/s    rkB/s    wkB/s avgrq-sz avgqu-sz   await r_await w_await  svctm  %util
sda               0.00     0.00 1541.00    0.00  6164.00     0.00     8.00     0.14    0.09    0.09    0.00   0.09  13.50
sdb               0.00     0.00 1504.00    0.00  6016.00     0.00     8.00     0.14    0.09    0.09    0.00   0.09  13.90
sdc               0.00     0.00 1674.00    0.00  6696.00     0.00     8.00     0.15    0.09    0.09    0.00   0.09  15.50
sdd               0.00     0.00 1550.00    0.00  6200.00     0.00     8.00     0.15    0.10    0.10    0.00   0.10  15.50
sde               0.00     0.00 1641.00    0.00  6564.00     0.00     8.00     0.18    0.11    0.11    0.00   0.11  17.80
sdf               0.00     0.00 1535.00    0.00  6140.00     0.00     8.00     0.17    0.11    0.11    0.00   0.11  17.20
sdg               0.00     0.00    0.00    0.00     0.00     0.00     0.00     0.00    0.00    0.00    0.00   0.00   0.00
sdh               0.00     0.00    0.00    0.00     0.00     0.00     0.00     0.00    0.00    0.00    0.00   0.00   0.00
md0               0.00     0.00 9446.00    0.00 37784.00     0.00     8.00     0.00    0.00    0.00    0.00   0.00   0.00

avg-cpu:  %user   %nice %system %iowait  %steal   %idle
          25.06    0.00    1.52    0.76    0.00   72.66

Device:         rrqm/s   wrqm/s     r/s     w/s    rkB/s    wkB/s avgrq-sz avgqu-sz   await r_await w_await  svctm  %util
sda               0.00     0.00 1552.00    0.00  6208.00     0.00     8.00     0.15    0.10    0.10    0.00   0.10  15.10
sdb               0.00     0.00 1511.00    0.00  6044.00     0.00     8.00     0.13    0.09    0.09    0.00   0.09  13.30
sdc               0.00     0.00 1655.00    0.00  6620.00     0.00     8.00     0.17    0.10    0.10    0.00   0.10  17.10
sdd               0.00     0.00 1563.00    0.00  6252.00     0.00     8.00     0.15    0.10    0.10    0.00   0.10  14.90
sde               0.00     0.00 1705.00    0.00  6820.00     0.00     8.00     0.18    0.11    0.11    0.00   0.11  18.20
sdf               0.00     0.00 1613.00    0.00  6452.00     0.00     8.00     0.17    0.10    0.10    0.00   0.10  16.50
sdg               0.00     0.00    0.00    0.00     0.00     0.00     0.00     0.00    0.00    0.00    0.00   0.00   0.00
sdh               0.00     0.00    0.00    0.00     0.00     0.00     0.00     0.00    0.00    0.00    0.00   0.00   0.00
md0               0.00     0.00 9599.00    0.00 38396.00     0.00     8.00     0.00    0.00    0.00    0.00   0.00   0.00

