Linux 4.17.2 (bench) 	08/04/2018 	_x86_64_	(4 CPU)

avg-cpu:  %user   %nice %system %iowait  %steal   %idle
          10.24    0.02    4.37    2.86    0.00   82.52

Device:         rrqm/s   wrqm/s     r/s     w/s    rkB/s    wkB/s avgrq-sz avgqu-sz   await r_await w_await  svctm  %util
sda              58.74     4.11 1766.98   99.36 21427.23  3040.27    26.22     1.05    0.56    0.26    5.92   0.06  11.20
sdb              58.53     4.07 1767.00   99.49 21416.91  3037.04    26.20     1.05    0.56    0.26    5.85   0.06  11.08
sdc              95.76     4.13 1727.70   99.05 21409.30  3039.42    26.77     1.47    0.80    0.44    7.12   0.08  14.56
sdd              89.42     4.10 1733.22   99.12 21394.53  3035.74    26.67     1.47    0.80    0.43    7.33   0.08  14.66
sde              91.36     4.14 1738.17   99.22 21452.54  3039.85    26.66     1.49    0.81    0.43    7.44   0.08  14.68
sdf              88.56     4.12 1740.24   99.16 21434.37  3036.81    26.61     1.54    0.84    0.43    7.90   0.08  14.71
sdg               0.00     3.15   27.23   73.07   326.98   391.39    14.32     0.44    4.37    0.20    5.93   0.08   0.79
sdh               0.00     0.12    0.02    0.23     2.14     4.91    56.82     0.00    1.15    0.65    1.19   0.21   0.01
md0               0.00     0.00 10963.49  465.52 146772.78 20810.14    29.33     0.00    0.00    0.00    0.00   0.00   0.00

avg-cpu:  %user   %nice %system %iowait  %steal   %idle
          18.95    0.00   14.21    7.98    0.00   58.85

Device:         rrqm/s   wrqm/s     r/s     w/s    rkB/s    wkB/s avgrq-sz avgqu-sz   await r_await w_await  svctm  %util
sda             300.00     0.00  359.00    0.00 162920.00     0.00   907.63     0.83    2.33    2.33    0.00   1.28  46.00
sdb             299.00     0.00  360.00    0.00 162640.00     0.00   903.56     0.82    2.29    2.29    0.00   1.27  45.60
sdc             294.00     0.00  390.00    0.00 161812.00     0.00   829.81     1.68    4.31    4.31    0.00   1.96  76.40
sdd             298.00     0.00  369.00    0.00 161808.00     0.00   877.01     1.69    4.59    4.59    0.00   2.05  75.50
sde             299.00     0.00  375.00    0.00 162124.00     0.00   864.66     1.69    4.51    4.51    0.00   2.02  75.70
sdf             301.00     0.00  380.00    0.00 162208.00     0.00   853.73     1.69    4.46    4.46    0.00   1.99  75.50
sdg               0.00     0.00    1.00   18.00    16.00   136.00    16.00     0.00    0.16    0.00    0.17   0.05   0.10
sdh               0.00     0.00    0.00    0.00     0.00     0.00     0.00     0.00    0.00    0.00    0.00   0.00   0.00
md0               0.00     0.00 4018.00    0.00 1474744.00     0.00   734.07     0.00    0.00    0.00    0.00   0.00   0.00

avg-cpu:  %user   %nice %system %iowait  %steal   %idle
          18.81    0.00   14.36    8.42    0.00   58.42

Device:         rrqm/s   wrqm/s     r/s     w/s    rkB/s    wkB/s avgrq-sz avgqu-sz   await r_await w_await  svctm  %util
sda             294.00     0.00  377.00    0.00 156840.00     0.00   832.04     0.86    2.29    2.29    0.00   1.19  45.00
sdb             291.00     0.00  370.00    0.00 157288.00     0.00   850.21     0.98    2.66    2.66    0.00   1.35  50.00
sdc             294.00     0.00  372.00    0.00 158388.00     0.00   851.55     1.67    4.50    4.50    0.00   2.01  74.80
sdd             295.00     0.00  377.00    0.00 157976.00     0.00   838.07     1.69    4.48    4.48    0.00   1.99  75.10
sde             290.00     0.00  365.00    0.00 157584.00     0.00   863.47     1.71    4.67    4.67    0.00   2.05  74.90
sdf             295.00     0.00  350.00    0.00 157420.00     0.00   899.54     1.68    4.79    4.79    0.00   2.13  74.60
sdg               0.00     0.00    0.00    0.00     0.00     0.00     0.00     0.00    0.00    0.00    0.00   0.00   0.00
sdh               0.00     0.00    0.00    0.00     0.00     0.00     0.00     0.00    0.00    0.00    0.00   0.00   0.00
md0               0.00     0.00 3983.00    0.00 1484488.00     0.00   745.41     0.00    0.00    0.00    0.00   0.00   0.00

