Linux 4.17.2 (bench) 	08/04/2018 	_x86_64_	(4 CPU)

avg-cpu:  %user   %nice %system %iowait  %steal   %idle
          10.24    0.02    4.36    2.86    0.00   82.52

Device:         rrqm/s   wrqm/s     r/s     w/s    rkB/s    wkB/s avgrq-sz avgqu-sz   await r_await w_await  svctm  %util
sda              58.73     4.11 1767.01   99.36 21427.65  3040.42    26.22     1.05    0.56    0.26    5.92   0.06  11.20
sdb              58.52     4.07 1767.03   99.50 21417.32  3037.19    26.20     1.05    0.56    0.26    5.85   0.06  11.08
sdc              95.75     4.13 1727.73   99.06 21409.71  3039.58    26.77     1.47    0.80    0.44    7.12   0.08  14.56
sdd              89.41     4.10 1733.26   99.13 21394.94  3035.89    26.67     1.47    0.80    0.43    7.33   0.08  14.66
sde              91.35     4.14 1738.21   99.22 21452.95  3040.01    26.66     1.49    0.81    0.43    7.44   0.08  14.68
sdf              88.55     4.12 1740.28   99.17 21434.78  3036.97    26.61     1.54    0.84    0.43    7.90   0.08  14.71
sdg               0.00     3.15   27.23   73.07   326.98   391.40    14.32     0.44    4.37    0.20    5.93   0.08   0.79
sdh               0.00     0.12    0.02    0.23     2.14     4.91    56.82     0.00    1.15    0.65    1.19   0.21   0.01
md0               0.00     0.00 10963.63  465.55 146774.94 20811.19    29.33     0.00    0.00    0.00    0.00   0.00   0.00

avg-cpu:  %user   %nice %system %iowait  %steal   %idle
          11.21    0.03   26.10    0.03    0.00   62.65

Device:         rrqm/s   wrqm/s     r/s     w/s    rkB/s    wkB/s avgrq-sz avgqu-sz   await r_await w_await  svctm  %util
sda               1.10     0.00    2.05    0.00   595.40     0.00   580.88     0.00    1.51    1.51    0.00   0.90   0.18
sdb               1.15     0.00    2.50    0.00   626.60     0.00   501.28     0.00    1.34    1.34    0.00   0.76   0.19
sdc               1.10     0.00    2.75    0.00   616.80     0.00   448.58     0.01    2.60    2.60    0.00   1.11   0.30
sdd               1.10     0.00    2.15    0.00   600.00     0.00   558.14     0.01    3.21    3.21    0.00   1.37   0.29
sde               1.10     0.00    3.15    0.00   613.20     0.00   389.33     0.01    2.56    2.56    0.00   1.02   0.32
sdf               1.10     0.00    2.95    0.00   617.00     0.00   418.31     0.01    2.51    2.51    0.00   1.05   0.31
sdg               0.00     0.15    1.50    0.45    13.40     9.80    23.79     0.00    0.23    0.07    0.78   0.10   0.02
sdh               0.00     0.00    0.00    0.00     0.00     0.00     0.00     0.00    0.00    0.00    0.00   0.00   0.00
md0               0.00     0.00   22.20    0.00  5139.00     0.00   462.97     0.00    0.00    0.00    0.00   0.00   0.00

