Linux 4.17.2 (bench) 	08/04/2018 	_x86_64_	(4 CPU)

avg-cpu:  %user   %nice %system %iowait  %steal   %idle
          10.25    0.02    4.25    2.79    0.00   82.69

Device:         rrqm/s   wrqm/s     r/s     w/s    rkB/s    wkB/s avgrq-sz avgqu-sz   await r_await w_await  svctm  %util
sda              56.52     4.16 1749.58  100.38 21453.67  3071.57    26.51     1.05    0.57    0.26    5.92   0.06  11.13
sdb              56.31     4.12 1749.60  100.51 21443.25  3068.31    26.50     1.05    0.57    0.26    5.85   0.06  11.01
sdc              93.90     4.17 1709.92  100.07 21435.55  3070.72    27.08     1.47    0.81    0.44    7.12   0.08  14.51
sdd              87.49     4.14 1715.52  100.14 21420.68  3066.99    26.97     1.48    0.81    0.43    7.33   0.08  14.61
sde              89.46     4.19 1720.56  100.24 21479.54  3071.15    26.97     1.50    0.82    0.44    7.44   0.08  14.63
sdf              86.64     4.16 1722.64  100.18 21461.16  3068.08    26.91     1.54    0.85    0.44    7.90   0.08  14.66
sdg               0.00     3.16   27.04   73.20   326.69   391.84    14.34     0.44    4.38    0.20    5.93   0.08   0.79
sdh               0.00     0.13    0.02    0.23     2.16     4.96    56.82     0.00    1.15    0.65    1.19   0.21   0.01
md0               0.00     0.00 10845.87  470.32 147050.62 21024.40    29.71     0.00    0.00    0.00    0.00   0.00   0.00

avg-cpu:  %user   %nice %system %iowait  %steal   %idle
          24.49    0.00    2.53    6.31    0.00   66.67

Device:         rrqm/s   wrqm/s     r/s     w/s    rkB/s    wkB/s avgrq-sz avgqu-sz   await r_await w_await  svctm  %util
sda              29.00     0.00 1176.00    0.00 24576.00     0.00    41.80     0.20    0.17    0.17    0.00   0.15  17.50
sdb              28.00     0.00 1131.00    0.00 24424.00     0.00    43.19     0.18    0.16    0.16    0.00   0.15  16.50
sdc              32.00     0.00 1134.00    0.00 26456.00     0.00    46.66     0.27    0.24    0.24    0.00   0.19  22.10
sdd              34.00     0.00 1069.00    0.00 27692.00     0.00    51.81     0.30    0.28    0.28    0.00   0.20  21.50
sde              32.00     0.00 1129.00    0.00 26284.00     0.00    46.56     0.30    0.27    0.27    0.00   0.19  21.70
sdf              28.00     0.00 1101.00    0.00 25380.00     0.00    46.10     0.28    0.25    0.25    0.00   0.19  20.60
sdg               0.00     0.00    0.00    0.00     0.00     0.00     0.00     0.00    0.00    0.00    0.00   0.00   0.00
sdh               0.00     0.00    0.00    0.00     0.00     0.00     0.00     0.00    0.00    0.00    0.00   0.00   0.00
md0               0.00     0.00 6923.00    0.00 209796.00     0.00    60.61     0.00    0.00    0.00    0.00   0.00   0.00

avg-cpu:  %user   %nice %system %iowait  %steal   %idle
          24.75    0.00    2.27    7.58    0.00   65.40

Device:         rrqm/s   wrqm/s     r/s     w/s    rkB/s    wkB/s avgrq-sz avgqu-sz   await r_await w_await  svctm  %util
sda               9.00     0.00 1228.00    0.00 16020.00     0.00    26.09     0.15    0.13    0.13    0.00   0.12  15.00
sdb              12.00     0.00 1220.00    0.00 16072.00     0.00    26.35     0.16    0.13    0.13    0.00   0.13  15.90
sdc               8.00     0.00 1261.00    0.00 15220.00     0.00    24.14     0.19    0.15    0.15    0.00   0.14  17.70
sdd               5.00     0.00 1274.00    0.00 14960.00     0.00    23.49     0.19    0.15    0.15    0.00   0.14  18.40
sde              11.00     0.00 1173.00    0.00 15756.00     0.00    26.86     0.18    0.15    0.15    0.00   0.15  17.10
sdf              11.00     0.00 1206.00    0.00 14196.00     0.00    23.54     0.18    0.15    0.15    0.00   0.14  17.10
sdg               0.00     1.00    5.00    1.00    20.00    20.00    13.33     0.01    1.33    0.00    8.00   1.33   0.80
sdh               0.00     0.00    0.00    0.00     0.00     0.00     0.00     0.00    0.00    0.00    0.00   0.00   0.00
md0               0.00     0.00 7419.00    0.00 111532.00     0.00    30.07     0.00    0.00    0.00    0.00   0.00   0.00

