Linux 4.17.2 (bench) 	08/04/2018 	_x86_64_	(4 CPU)

avg-cpu:  %user   %nice %system %iowait  %steal   %idle
          10.25    0.02    4.32    2.83    0.00   82.58

Device:         rrqm/s   wrqm/s     r/s     w/s    rkB/s    wkB/s avgrq-sz avgqu-sz   await r_await w_await  svctm  %util
sda              57.83     4.13 1759.59   99.74 21432.18  3051.87    26.34     1.05    0.56    0.26    5.92   0.06  11.17
sdb              57.62     4.09 1759.61   99.87 21421.84  3048.62    26.32     1.05    0.56    0.26    5.85   0.06  11.05
sdc              94.99     4.15 1720.16   99.43 21414.19  3051.02    26.89     1.47    0.81    0.44    7.12   0.08  14.54
sdd              88.62     4.12 1725.71   99.50 21399.36  3047.32    26.79     1.47    0.81    0.43    7.33   0.08  14.64
sde              90.57     4.16 1730.70   99.59 21457.70  3051.45    26.78     1.50    0.82    0.44    7.44   0.08  14.66
sdf              87.76     4.13 1732.77   99.54 21439.45  3048.40    26.73     1.54    0.84    0.43    7.90   0.08  14.69
sdg               0.00     3.15   27.16   73.12   326.90   391.56    14.33     0.44    4.38    0.20    5.93   0.08   0.79
sdh               0.00     0.12    0.02    0.23     2.15     4.92    56.82     0.00    1.15    0.65    1.19   0.21   0.01
md0               0.00     0.00 10913.72  467.30 146846.05 20889.54    29.48     0.00    0.00    0.00    0.00   0.00   0.00

avg-cpu:  %user   %nice %system %iowait  %steal   %idle
          24.12    0.01    5.09    9.47    0.00   61.30

Device:         rrqm/s   wrqm/s     r/s     w/s    rkB/s    wkB/s avgrq-sz avgqu-sz   await r_await w_await  svctm  %util
sda               0.00     0.00 2191.75    0.00  8767.00     0.00     8.00     0.15    0.07    0.07    0.00   0.07  14.67
sdb               0.00     0.00 2120.85    0.00  8483.40     0.00     8.00     0.14    0.07    0.07    0.00   0.07  13.96
sdc               0.00     0.00 2229.95    0.00  8919.80     0.00     8.00     0.15    0.07    0.07    0.00   0.07  15.26
sdd               0.00     0.00 2146.15    0.00  8584.60     0.00     8.00     0.15    0.07    0.07    0.00   0.07  15.12
sde               0.00     0.00 2192.30    0.00  8769.20     0.00     8.00     0.17    0.08    0.08    0.00   0.08  16.53
sdf               0.00     0.00 2244.20    0.00  8977.00     0.00     8.00     0.15    0.07    0.07    0.00   0.07  15.39
sdg               0.00     0.90    3.30    4.40    37.40    74.80    29.14     0.02    2.23    0.32    3.66   0.14   0.11
sdh               0.00     0.00    0.00    0.00     0.00     0.00     0.00     0.00    0.00    0.00    0.00   0.00   0.00
md0               0.00     0.00 13125.35    0.00 52501.40     0.00     8.00     0.00    0.00    0.00    0.00   0.00   0.00

