Linux 4.17.2 (bench) 	08/04/2018 	_x86_64_	(4 CPU)

avg-cpu:  %user   %nice %system %iowait  %steal   %idle
          10.24    0.02    4.37    2.86    0.00   82.51

Device:         rrqm/s   wrqm/s     r/s     w/s    rkB/s    wkB/s avgrq-sz avgqu-sz   await r_await w_await  svctm  %util
sda              58.74     4.11 1767.04   99.34 21425.35  3039.66    26.22     1.05    0.56    0.26    5.92   0.06  11.20
sdb              58.53     4.07 1767.06   99.47 21415.04  3036.43    26.20     1.05    0.56    0.26    5.85   0.06  11.08
sdc              95.75     4.13 1727.77   99.04 21407.43  3038.82    26.76     1.47    0.80    0.44    7.12   0.08  14.56
sdd              89.41     4.10 1733.29   99.10 21392.66  3035.13    26.66     1.47    0.80    0.43    7.33   0.08  14.66
sde              91.35     4.14 1738.24   99.20 21450.65  3039.25    26.66     1.49    0.81    0.43    7.44   0.08  14.68
sdf              88.55     4.12 1740.31   99.14 21432.49  3036.21    26.60     1.54    0.84    0.43    7.90   0.08  14.71
sdg               0.00     3.15   27.23   73.07   326.98   391.38    14.32     0.44    4.37    0.20    5.93   0.08   0.79
sdh               0.00     0.12    0.02    0.23     2.14     4.91    56.82     0.00    1.15    0.65    1.19   0.21   0.01
md0               0.00     0.00 10963.87  465.43 146759.36 20805.99    29.32     0.00    0.00    0.00    0.00   0.00   0.00

avg-cpu:  %user   %nice %system %iowait  %steal   %idle
          24.75    0.00    2.27    7.58    0.00   65.40

Device:         rrqm/s   wrqm/s     r/s     w/s    rkB/s    wkB/s avgrq-sz avgqu-sz   await r_await w_await  svctm  %util
sda               1.00     0.00 1470.00    0.00  6908.00     0.00     9.40     0.16    0.11    0.11    0.00   0.11  15.80
sdb               1.00     0.00 1495.00    0.00  6924.00     0.00     9.26     0.15    0.10    0.10    0.00   0.10  15.30
sdc               0.00     0.00 1495.00    0.00  6536.00     0.00     8.74     0.17    0.11    0.11    0.00   0.11  16.60
sdd               0.00     0.00 1317.00    0.00  5812.00     0.00     8.83     0.14    0.11    0.11    0.00   0.11  13.90
sde               0.00     0.00 1460.00    0.00  6284.00     0.00     8.61     0.16    0.11    0.11    0.00   0.11  15.70
sdf               0.00     0.00 1449.00    0.00  6528.00     0.00     9.01     0.15    0.10    0.10    0.00   0.10  14.90
sdg               0.00     0.00    1.00    4.00    28.00   124.00    60.80     0.00    0.00    0.00    0.00   0.00   0.00
sdh               0.00     0.00    0.00    0.00     0.00     0.00     0.00     0.00    0.00    0.00    0.00   0.00   0.00
md0               0.00     0.00 8690.00    0.00 39584.00     0.00     9.11     0.00    0.00    0.00    0.00   0.00   0.00

avg-cpu:  %user   %nice %system %iowait  %steal   %idle
          25.13    0.00    1.78    5.33    0.00   67.77

Device:         rrqm/s   wrqm/s     r/s     w/s    rkB/s    wkB/s avgrq-sz avgqu-sz   await r_await w_await  svctm  %util
sda               0.00     0.00 1480.00    0.00  6380.00     0.00     8.62     0.16    0.11    0.11    0.00   0.11  16.00
sdb               0.00     0.00 1499.00    0.00  6528.00     0.00     8.71     0.15    0.10    0.10    0.00   0.10  15.00
sdc               0.00     0.00 1490.00    0.00  6852.00     0.00     9.20     0.16    0.11    0.11    0.00   0.11  15.80
sdd               0.00     0.00 1508.00    0.00  6416.00     0.00     8.51     0.15    0.10    0.10    0.00   0.10  14.80
sde               0.00     0.00 1432.00    0.00  6324.00     0.00     8.83     0.16    0.11    0.11    0.00   0.11  16.20
sdf               0.00     0.00 1386.00    0.00  6012.00     0.00     8.68     0.15    0.11    0.11    0.00   0.11  14.90
sdg               0.00     0.00    0.00    0.00     0.00     0.00     0.00     0.00    0.00    0.00    0.00   0.00   0.00
sdh               0.00     0.00    0.00    0.00     0.00     0.00     0.00     0.00    0.00    0.00    0.00   0.00   0.00
md0               0.00     0.00 8794.00    0.00 38584.00     0.00     8.78     0.00    0.00    0.00    0.00   0.00   0.00

