Linux 4.17.2 (bench) 	08/04/2018 	_x86_64_	(4 CPU)

avg-cpu:  %user   %nice %system %iowait  %steal   %idle
          10.25    0.02    4.20    2.77    0.00   82.76

Device:         rrqm/s   wrqm/s     r/s     w/s    rkB/s    wkB/s avgrq-sz avgqu-sz   await r_await w_await  svctm  %util
sda              55.64     4.17 1743.11  100.81 21465.74  3084.74    26.63     1.05    0.57    0.26    5.92   0.06  11.11
sdb              55.42     4.13 1743.13  100.95 21455.27  3081.46    26.61     1.05    0.57    0.26    5.85   0.06  10.99
sdc              93.17     4.19 1703.28  100.50 21447.51  3083.88    27.20     1.47    0.82    0.44    7.12   0.08  14.50
sdd              86.74     4.16 1708.91  100.57 21432.61  3080.14    27.09     1.48    0.82    0.43    7.33   0.08  14.59
sde              88.72     4.21 1713.98  100.67 21491.80  3084.31    27.09     1.50    0.83    0.44    7.44   0.08  14.61
sdf              85.88     4.18 1716.07  100.61 21473.36  3081.23    27.03     1.54    0.85    0.44    7.90   0.08  14.64
sdg               0.00     3.16   26.95   73.25   326.59   392.02    14.34     0.44    4.39    0.20    5.93   0.08   0.79
sdh               0.00     0.13    0.02    0.23     2.17     4.98    56.82     0.00    1.15    0.65    1.19   0.21   0.01
md0               0.00     0.00 10801.74  472.33 147170.41 21114.50    29.85     0.00    0.00    0.00    0.00   0.00   0.00

avg-cpu:  %user   %nice %system %iowait  %steal   %idle
          24.78    0.01    2.62   10.01    0.00   62.58

Device:         rrqm/s   wrqm/s     r/s     w/s    rkB/s    wkB/s avgrq-sz avgqu-sz   await r_await w_await  svctm  %util
sda               0.00     0.00 1512.35    0.00  6049.40     0.00     8.00     0.15    0.10    0.10    0.00   0.10  14.84
sdb               0.00     0.00 1489.95    0.00  5959.80     0.00     8.00     0.15    0.10    0.10    0.00   0.10  14.89
sdc               0.00     0.00 1509.00    0.00  6036.00     0.00     8.00     0.16    0.11    0.11    0.00   0.11  15.84
sdd               0.00     0.00 1494.45    0.00  5977.80     0.00     8.00     0.16    0.10    0.10    0.00   0.10  15.63
sde               0.00     0.00 1515.90    0.00  6063.60     0.00     8.00     0.16    0.10    0.10    0.00   0.10  15.80
sdf               0.00     0.00 1500.40    0.00  6001.60     0.00     8.00     0.16    0.10    0.10    0.00   0.10  15.72
sdg               0.00     0.10    2.35  128.75    27.60   650.60    10.35     0.79    6.02    0.32    6.13   0.05   0.69
sdh               0.00     0.00    0.00    0.00     0.00     0.00     0.00     0.00    0.00    0.00    0.00   0.00   0.00
md0               0.00     0.00 9022.10    0.00 36088.40     0.00     8.00     0.00    0.00    0.00    0.00   0.00   0.00

