Linux 4.17.2 (bench) 	08/04/2018 	_x86_64_	(4 CPU)

avg-cpu:  %user   %nice %system %iowait  %steal   %idle
          10.25    0.02    4.24    2.79    0.00   82.70

Device:         rrqm/s   wrqm/s     r/s     w/s    rkB/s    wkB/s avgrq-sz avgqu-sz   await r_await w_await  svctm  %util
sda              56.49     4.16 1749.61  100.46 21460.21  3074.00    26.52     1.05    0.57    0.26    5.92   0.06  11.13
sdb              56.27     4.12 1749.63  100.59 21449.78  3070.73    26.51     1.05    0.57    0.26    5.85   0.06  11.01
sdc              93.89     4.18 1709.92  100.15 21442.07  3073.14    27.09     1.47    0.81    0.44    7.12   0.08  14.52
sdd              87.48     4.15 1715.52  100.22 21427.20  3069.41    26.98     1.48    0.81    0.43    7.33   0.08  14.61
sde              89.45     4.19 1720.57  100.32 21486.12  3073.58    26.98     1.50    0.82    0.44    7.44   0.08  14.63
sdf              86.62     4.16 1722.65  100.26 21467.72  3070.50    26.92     1.54    0.85    0.44    7.90   0.08  14.66
sdg               0.00     3.16   27.02   73.21   326.68   391.87    14.34     0.44    4.38    0.20    5.93   0.08   0.79
sdh               0.00     0.13    0.02    0.23     2.17     4.96    56.82     0.00    1.15    0.65    1.19   0.21   0.01
md0               0.00     0.00 10845.82  470.69 147096.77 21040.99    29.72     0.00    0.00    0.00    0.00   0.00   0.00

avg-cpu:  %user   %nice %system %iowait  %steal   %idle
          13.01    0.03   23.06    1.65    0.00   62.25

Device:         rrqm/s   wrqm/s     r/s     w/s    rkB/s    wkB/s avgrq-sz avgqu-sz   await r_await w_await  svctm  %util
sda              10.55     0.00  214.80    0.00 10839.20     0.00   100.92     0.11    0.52    0.52    0.00   0.19   4.19
sdb              10.85     0.00  195.20    0.00 10774.80     0.00   110.40     0.10    0.52    0.52    0.00   0.20   3.97
sdc              11.25     0.00  196.30    0.00 10789.60     0.00   109.93     0.16    0.82    0.82    0.00   0.29   5.78
sdd              11.15     0.00  186.45    0.00 10637.00     0.00   114.10     0.15    0.83    0.83    0.00   0.30   5.69
sde              10.85     0.00  191.60    0.00 10634.60     0.00   111.01     0.16    0.84    0.84    0.00   0.30   5.74
sdf              10.45     0.00  204.10    0.00 10832.40     0.00   106.15     0.17    0.83    0.83    0.00   0.28   5.81
sdg               0.00     9.40    1.70   71.85    14.20   373.00    10.53     0.45    6.08    0.50    6.21   0.05   0.36
sdh               0.00     0.00    0.00    0.00     0.00     0.00     0.00     0.00    0.00    0.00    0.00   0.00   0.00
md0               0.00     0.00 1253.55    0.00 83872.20     0.00   133.82     0.00    0.00    0.00    0.00   0.00   0.00

