Linux 4.17.2 (bench) 	08/04/2018 	_x86_64_	(4 CPU)

avg-cpu:  %user   %nice %system %iowait  %steal   %idle
          10.24    0.02    4.37    2.86    0.00   82.51

Device:         rrqm/s   wrqm/s     r/s     w/s    rkB/s    wkB/s avgrq-sz avgqu-sz   await r_await w_await  svctm  %util
sda              58.75     4.11 1766.99   99.30 21422.30  3038.54    26.21     1.05    0.56    0.26    5.92   0.06  11.20
sdb              58.54     4.07 1767.00   99.43 21411.98  3035.30    26.20     1.05    0.56    0.26    5.85   0.06  11.07
sdc              95.76     4.13 1727.72   99.00 21404.38  3037.69    26.76     1.47    0.80    0.44    7.12   0.08  14.56
sdd              89.42     4.10 1733.25   99.07 21389.61  3034.01    26.66     1.47    0.80    0.43    7.33   0.08  14.66
sde              91.36     4.14 1738.19   99.16 21447.58  3038.12    26.65     1.49    0.81    0.43    7.44   0.08  14.68
sdf              88.56     4.11 1740.26   99.11 21429.42  3035.08    26.60     1.54    0.84    0.43    7.90   0.08  14.71
sdg               0.00     3.15   27.24   73.06   326.99   391.36    14.32     0.44    4.37    0.20    5.93   0.08   0.79
sdh               0.00     0.12    0.02    0.23     2.14     4.90    56.82     0.00    1.15    0.65    1.19   0.21   0.01
md0               0.00     0.00 10963.62  465.26 146737.06 20798.27    29.32     0.00    0.00    0.00    0.00   0.00   0.00

avg-cpu:  %user   %nice %system %iowait  %steal   %idle
           2.04    0.26   28.32    3.06    0.00   66.33

Device:         rrqm/s   wrqm/s     r/s     w/s    rkB/s    wkB/s avgrq-sz avgqu-sz   await r_await w_await  svctm  %util
sda           19406.00     0.00 14055.00    0.00 135152.00     0.00    19.23     9.66    0.68    0.68    0.00   0.03  49.10
sdb           18864.00     0.00 14162.00    0.00 133728.00     0.00    18.89     9.42    0.66    0.66    0.00   0.03  47.50
sdc           19305.00     0.00 13705.00    0.00 133676.00     0.00    19.51    11.76    0.85    0.85    0.00   0.05  66.00
sdd           19396.00     0.00 13844.00    0.00 134336.00     0.00    19.41    11.81    0.85    0.85    0.00   0.05  66.30
sde           19961.00     0.00 13751.00    0.00 136244.00     0.00    19.82    11.94    0.87    0.87    0.00   0.05  67.60
sdf           20066.00     0.00 13850.00    0.00 137136.00     0.00    19.80    12.12    0.87    0.87    0.00   0.05  66.80
sdg               0.00     0.00 1884.00    1.00  8004.00    12.00     8.51     0.25    0.13    0.13    0.00   0.13  23.60
sdh               0.00     0.00    0.00    0.00     0.00     0.00     0.00     0.00    0.00    0.00    0.00   0.00   0.00
md0               0.00     0.00 203020.00    0.00 812080.00     0.00     8.00     0.00    0.00    0.00    0.00   0.00   0.00

avg-cpu:  %user   %nice %system %iowait  %steal   %idle
           3.27    0.00   33.67    0.50    0.00   62.56

Device:         rrqm/s   wrqm/s     r/s     w/s    rkB/s    wkB/s avgrq-sz avgqu-sz   await r_await w_await  svctm  %util
sda           10198.00     0.00 17912.00    0.00 113408.00     0.00    12.66    10.01    0.56    0.56    0.00   0.03  46.50
sdb           10319.00     0.00 17763.00    0.00 113216.00     0.00    12.75    10.09    0.57    0.57    0.00   0.03  46.80
sdc           10142.00     0.00 17593.00    0.00 111888.00     0.00    12.72    11.58    0.66    0.66    0.00   0.03  58.70
sdd           10403.00     0.00 17220.00    0.00 111392.00     0.00    12.94    11.29    0.66    0.66    0.00   0.03  57.90
sde           10228.00     0.00 17445.00    0.00 111712.00     0.00    12.81    11.48    0.66    0.66    0.00   0.03  59.20
sdf           10288.00     0.00 17544.00    0.00 112224.00     0.00    12.79    11.53    0.66    0.66    0.00   0.03  59.10
sdg               0.00     0.00    0.00    0.00     0.00     0.00     0.00     0.00    0.00    0.00    0.00   0.00   0.00
sdh               0.00     0.00    0.00    0.00     0.00     0.00     0.00     0.00    0.00    0.00    0.00   0.00   0.00
md0               0.00     0.00 167889.00    0.00 671556.00     0.00     8.00     0.00    0.00    0.00    0.00   0.00   0.00

avg-cpu:  %user   %nice %system %iowait  %steal   %idle
           5.22    0.00   35.82    0.00    0.00   58.96

Device:         rrqm/s   wrqm/s     r/s     w/s    rkB/s    wkB/s avgrq-sz avgqu-sz   await r_await w_await  svctm  %util
sda            1586.00     0.00 15850.00    0.00 69812.00     0.00     8.81     5.34    0.34    0.34    0.00   0.02  35.50
sdb            1751.00     0.00 15823.00    0.00 70388.00     0.00     8.90     5.18    0.33    0.33    0.00   0.02  34.30
sdc            2002.00     0.00 16154.00    0.00 72724.00     0.00     9.00     6.57    0.41    0.41    0.00   0.03  43.80
sdd            1942.00     0.00 16216.00    0.00 72768.00     0.00     8.97     6.37    0.39    0.39    0.00   0.03  44.30
sde            1670.00     0.00 15606.00    0.00 69180.00     0.00     8.87     6.30    0.40    0.40    0.00   0.03  44.70
sdf            1686.00     0.00 15391.00    0.00 68388.00     0.00     8.89     5.93    0.39    0.39    0.00   0.03  43.70
sdg               0.00     0.00    0.00    0.00     0.00     0.00     0.00     0.00    0.00    0.00    0.00   0.00   0.00
sdh               0.00     0.00    0.00    0.00     0.00     0.00     0.00     0.00    0.00    0.00    0.00   0.00   0.00
md0               0.00     0.00 105815.00    0.00 423260.00     0.00     8.00     0.00    0.00    0.00    0.00   0.00   0.00

avg-cpu:  %user   %nice %system %iowait  %steal   %idle
           8.15    0.00   29.38    0.00    0.00   62.47

Device:         rrqm/s   wrqm/s     r/s     w/s    rkB/s    wkB/s avgrq-sz avgqu-sz   await r_await w_await  svctm  %util
sda              33.00     0.00 6187.00    0.00 24880.00     0.00     8.04     0.96    0.16    0.16    0.00   0.03  16.70
sdb              19.00     0.00 6426.00    0.00 25780.00     0.00     8.02     1.07    0.17    0.17    0.00   0.03  17.70
sdc              20.00     0.00 6234.00    0.00 25016.00     0.00     8.03     1.44    0.23    0.23    0.00   0.03  21.60
sdd              22.00     0.00 6098.00    0.00 24484.00     0.00     8.03     1.28    0.21    0.21    0.00   0.03  21.10
sde              16.00     0.00 6476.00    0.00 25968.00     0.00     8.02     1.40    0.22    0.22    0.00   0.03  22.20
sdf              40.00     0.00 6405.00    0.00 25780.00     0.00     8.05     1.40    0.22    0.22    0.00   0.03  21.10
sdg               0.00     0.00    0.00    0.00     0.00     0.00     0.00     0.00    0.00    0.00    0.00   0.00   0.00
sdh               0.00     0.00    0.00    0.00     0.00     0.00     0.00     0.00    0.00    0.00    0.00   0.00   0.00
md0               0.00     0.00 37987.00    0.00 151948.00     0.00     8.00     0.00    0.00    0.00    0.00   0.00   0.00

avg-cpu:  %user   %nice %system %iowait  %steal   %idle
           7.30    0.00   26.20    0.00    0.00   66.50

Device:         rrqm/s   wrqm/s     r/s     w/s    rkB/s    wkB/s avgrq-sz avgqu-sz   await r_await w_await  svctm  %util
sda               0.00     0.00 1275.00    0.00  5100.00     0.00     8.00     0.21    0.17    0.17    0.00   0.05   7.00
sdb               0.00     0.00 1257.00    0.00  5028.00     0.00     8.00     0.15    0.12    0.12    0.00   0.05   5.80
sdc               0.00     0.00 1301.00    0.00  5204.00     0.00     8.00     0.22    0.17    0.17    0.00   0.06   7.70
sdd               0.00     0.00 1310.00    0.00  5240.00     0.00     8.00     0.21    0.16    0.16    0.00   0.06   7.80
sde               0.00     0.00 1187.00    0.00  4748.00     0.00     8.00     0.20    0.16    0.16    0.00   0.06   7.60
sdf               0.00     0.00 1127.00    0.00  4508.00     0.00     8.00     0.14    0.13    0.13    0.00   0.05   5.80
sdg               0.00     0.00    0.00    0.00     0.00     0.00     0.00     0.00    0.00    0.00    0.00   0.00   0.00
sdh               0.00     0.00    0.00    0.00     0.00     0.00     0.00     0.00    0.00    0.00    0.00   0.00   0.00
md0               0.00     0.00 7447.00    0.00 29788.00     0.00     8.00     0.00    0.00    0.00    0.00   0.00   0.00

