Linux 4.17.2 (bench) 	08/04/2018 	_x86_64_	(4 CPU)

avg-cpu:  %user   %nice %system %iowait  %steal   %idle
          10.25    0.02    4.23    2.79    0.00   82.71

Device:         rrqm/s   wrqm/s     r/s     w/s    rkB/s    wkB/s avgrq-sz avgqu-sz   await r_await w_await  svctm  %util
sda              56.51     4.16 1749.70  100.51 21464.87  3075.71    26.53     1.05    0.57    0.26    5.92   0.06  11.14
sdb              56.29     4.12 1749.73  100.65 21454.43  3072.44    26.51     1.05    0.57    0.26    5.85   0.06  11.01
sdc              93.93     4.18 1709.99  100.21 21446.72  3074.85    27.09     1.47    0.81    0.44    7.12   0.08  14.52
sdd              87.52     4.15 1715.60  100.28 21431.84  3071.12    26.99     1.48    0.81    0.43    7.33   0.08  14.61
sde              89.49     4.19 1720.65  100.37 21490.80  3075.29    26.98     1.50    0.82    0.44    7.44   0.08  14.64
sdf              86.67     4.16 1722.73  100.32 21472.39  3072.21    26.93     1.54    0.85    0.44    7.90   0.08  14.67
sdg               0.00     3.16   27.01   73.21   326.69   391.90    14.34     0.44    4.38    0.20    5.93   0.08   0.79
sdh               0.00     0.13    0.02    0.23     2.17     4.96    56.82     0.00    1.15    0.65    1.19   0.21   0.01
md0               0.00     0.00 10846.51  470.95 147129.73 21052.72    29.72     0.00    0.00    0.00    0.00   0.00   0.00

avg-cpu:  %user   %nice %system %iowait  %steal   %idle
          13.11    0.03   19.69    4.79    0.00   62.39

Device:         rrqm/s   wrqm/s     r/s     w/s    rkB/s    wkB/s avgrq-sz avgqu-sz   await r_await w_await  svctm  %util
sda               0.85     0.00 1689.70    0.00 12055.60     0.00    14.27     0.68    0.40    0.40    0.00   0.05   7.80
sdb               0.60     0.00 1693.70    0.00 12065.20     0.00    14.25     0.67    0.40    0.40    0.00   0.04   7.00
sdc               1.10     0.00 1700.20    0.00 12032.80     0.00    14.15     1.07    0.63    0.63    0.00   0.05   8.61
sdd               0.60     0.00 1717.60    0.00 12167.40     0.00    14.17     1.06    0.62    0.62    0.00   0.05   8.68
sde               0.70     0.00 1675.95    0.00 12056.40     0.00    14.39     1.01    0.60    0.60    0.00   0.05   8.64
sdf               1.00     0.00 1695.35    0.00 12219.60     0.00    14.42     1.03    0.61    0.61    0.00   0.05   8.67
sdg               0.00     3.35   16.40   62.10    94.20   326.00    10.71     0.30    3.85    0.16    4.83   0.06   0.47
sdh               0.00     0.00    0.00    0.00     0.00     0.00     0.00     0.00    0.00    0.00    0.00   0.00   0.00
md0               0.00     0.00 10210.45    0.00 73212.60     0.00    14.34     0.00    0.00    0.00    0.00   0.00   0.00

