Linux 4.17.2 (bench) 	08/04/2018 	_x86_64_	(4 CPU)

avg-cpu:  %user   %nice %system %iowait  %steal   %idle
          10.25    0.02    4.24    2.79    0.00   82.71

Device:         rrqm/s   wrqm/s     r/s     w/s    rkB/s    wkB/s avgrq-sz avgqu-sz   await r_await w_await  svctm  %util
sda              56.49     4.16 1749.62  100.47 21461.42  3074.48    26.52     1.05    0.57    0.26    5.92   0.06  11.13
sdb              56.28     4.12 1749.65  100.61 21450.99  3071.21    26.51     1.05    0.57    0.26    5.85   0.06  11.01
sdc              93.90     4.18 1709.92  100.17 21443.28  3073.62    27.09     1.47    0.81    0.44    7.12   0.08  14.52
sdd              87.49     4.15 1715.53  100.24 21428.40  3069.89    26.98     1.48    0.81    0.43    7.33   0.08  14.61
sde              89.46     4.19 1720.58  100.33 21487.33  3074.06    26.98     1.50    0.82    0.44    7.44   0.08  14.63
sdf              86.64     4.16 1722.66  100.28 21468.94  3070.98    26.92     1.54    0.85    0.44    7.90   0.08  14.67
sdg               0.00     3.16   27.02   73.21   326.69   391.88    14.34     0.44    4.38    0.20    5.93   0.08   0.79
sdh               0.00     0.13    0.02    0.23     2.17     4.96    56.82     0.00    1.15    0.65    1.19   0.21   0.01
md0               0.00     0.00 10845.92  470.76 147105.20 21044.27    29.72     0.00    0.00    0.00    0.00   0.00   0.00

avg-cpu:  %user   %nice %system %iowait  %steal   %idle
           8.71    0.01   34.82    2.06    0.00   54.39

Device:         rrqm/s   wrqm/s     r/s     w/s    rkB/s    wkB/s avgrq-sz avgqu-sz   await r_await w_await  svctm  %util
sda               1.95     0.00  824.25    0.00 11277.60     0.00    27.36     0.66    0.80    0.80    0.00   0.06   4.67
sdb               2.45     0.00  807.65    0.00 10923.40     0.00    27.05     0.65    0.80    0.80    0.00   0.06   4.54
sdc               5.60     0.00  797.60    0.00 11016.00     0.00    27.62     1.37    1.71    1.71    0.00   0.08   6.45
sdd               4.60     0.00  792.80    0.00 11362.40     0.00    28.66     1.38    1.74    1.74    0.00   0.08   6.55
sde               5.70     0.00  808.30    0.00 11329.00     0.00    28.03     1.49    1.83    1.83    0.00   0.08   6.42
sdf               4.95     0.00  792.80    0.00 11165.80     0.00    28.17     1.35    1.70    1.70    0.00   0.08   6.40
sdg               0.00     0.10    6.40    0.80    33.60    11.20    12.44     0.00    0.10    0.11    0.00   0.09   0.07
sdh               0.00     0.00    0.00    0.00     0.00     0.00     0.00     0.00    0.00    0.00    0.00   0.00   0.00
md0               0.00     0.00 5251.95    0.00 68840.40     0.00    26.22     0.00    0.00    0.00    0.00   0.00   0.00

