Linux 4.17.2 (bench) 	08/04/2018 	_x86_64_	(4 CPU)

avg-cpu:  %user   %nice %system %iowait  %steal   %idle
          10.25    0.02    4.22    2.79    0.00   82.72

Device:         rrqm/s   wrqm/s     r/s     w/s    rkB/s    wkB/s avgrq-sz avgqu-sz   await r_await w_await  svctm  %util
sda              56.53     4.16 1749.66  100.56 21469.05  3077.12    26.53     1.05    0.57    0.26    5.92   0.06  11.14
sdb              56.32     4.12 1749.69  100.70 21458.62  3073.84    26.52     1.05    0.57    0.26    5.85   0.06  11.01
sdc              93.97     4.18 1709.93  100.26 21450.90  3076.26    27.10     1.47    0.81    0.44    7.12   0.08  14.52
sdd              87.55     4.15 1715.54  100.32 21436.01  3072.53    26.99     1.48    0.81    0.43    7.33   0.08  14.62
sde              89.53     4.19 1720.59  100.42 21495.01  3076.69    26.99     1.50    0.82    0.44    7.44   0.08  14.64
sdf              86.70     4.17 1722.68  100.37 21476.59  3073.62    26.93     1.54    0.85    0.44    7.90   0.08  14.67
sdg               0.00     3.16   27.00   73.22   326.68   391.92    14.34     0.44    4.39    0.20    5.93   0.08   0.79
sdh               0.00     0.13    0.02    0.23     2.17     4.97    56.82     0.00    1.15    0.65    1.19   0.21   0.01
md0               0.00     0.00 10846.39  471.16 147158.35 21062.33    29.73     0.00    0.00    0.00    0.00   0.00   0.00

avg-cpu:  %user   %nice %system %iowait  %steal   %idle
           0.79    0.00    8.90    1.31    0.00   89.01

Device:         rrqm/s   wrqm/s     r/s     w/s    rkB/s    wkB/s avgrq-sz avgqu-sz   await r_await w_await  svctm  %util
sda               0.00     0.00 9351.00    0.00 37404.00     0.00     8.00     1.47    0.16    0.16    0.00   0.02  21.10
sdb               0.00     0.00 9437.00    0.00 37748.00     0.00     8.00     1.32    0.14    0.14    0.00   0.02  18.70
sdc               0.00     0.00 9423.00    0.00 37692.00     0.00     8.00     1.81    0.19    0.19    0.00   0.02  23.00
sdd               0.00     0.00 9437.00    0.00 37748.00     0.00     8.00     1.91    0.20    0.20    0.00   0.03  24.60
sde               0.00     0.00 9586.00    0.00 38344.00     0.00     8.00     1.91    0.20    0.20    0.00   0.03  24.30
sdf               0.00     0.00 9386.00    0.00 37544.00     0.00     8.00     2.08    0.22    0.22    0.00   0.03  28.10
sdg               0.00     0.00    0.00    1.00     0.00     8.00    16.00     0.00    0.00    0.00    0.00   0.00   0.00
sdh               0.00     0.00    0.00    0.00     0.00     0.00     0.00     0.00    0.00    0.00    0.00   0.00   0.00
md0               0.00     0.00 56612.00    0.00 226448.00     0.00     8.00     0.00    0.00    0.00    0.00   0.00   0.00

avg-cpu:  %user   %nice %system %iowait  %steal   %idle
           0.76    0.25   12.44    9.39    0.00   77.16

Device:         rrqm/s   wrqm/s     r/s     w/s    rkB/s    wkB/s avgrq-sz avgqu-sz   await r_await w_await  svctm  %util
sda               0.00     0.00 9203.00    0.00 36812.00     0.00     8.00     1.35    0.15    0.15    0.00   0.02  20.50
sdb               0.00     0.00 9319.00    0.00 37276.00     0.00     8.00     1.13    0.12    0.12    0.00   0.02  18.80
sdc               0.00     0.00 9282.00    0.00 37128.00     0.00     8.00     1.79    0.19    0.19    0.00   0.03  25.70
sdd               0.00     0.00 9392.00    0.00 37568.00     0.00     8.00     2.03    0.22    0.22    0.00   0.03  27.10
sde               0.00     0.00 9374.00    0.00 37496.00     0.00     8.00     1.72    0.18    0.18    0.00   0.03  24.50
sdf               0.00     0.00 9267.00    0.00 37064.00     0.00     8.00     1.88    0.20    0.20    0.00   0.03  27.90
sdg               0.00     0.00 1876.00    0.00  8188.00     0.00     8.73     0.24    0.13    0.13    0.00   0.12  22.00
sdh               0.00     0.00    0.00    0.00     0.00     0.00     0.00     0.00    0.00    0.00    0.00   0.00   0.00
md0               0.00     0.00 55843.00    0.00 223372.00     0.00     8.00     0.00    0.00    0.00    0.00   0.00   0.00

avg-cpu:  %user   %nice %system %iowait  %steal   %idle
           1.26    0.00   11.81    5.28    0.00   81.66

Device:         rrqm/s   wrqm/s     r/s     w/s    rkB/s    wkB/s avgrq-sz avgqu-sz   await r_await w_await  svctm  %util
sda               0.00     0.00 9254.00    0.00 37016.00     0.00     8.00     1.33    0.14    0.14    0.00   0.02  22.50
sdb               0.00     0.00 9199.00    0.00 36796.00     0.00     8.00     1.26    0.14    0.14    0.00   0.02  19.90
sdc               0.00     0.00 9065.00    0.00 36260.00     0.00     8.00     1.50    0.17    0.17    0.00   0.03  26.40
sdd               0.00     0.00 9369.00    0.00 37476.00     0.00     8.00     1.78    0.19    0.19    0.00   0.03  27.90
sde               0.00     0.00 9017.00    0.00 36068.00     0.00     8.00     1.53    0.17    0.17    0.00   0.03  24.10
sdf               0.00     0.00 9149.00    0.00 36600.00     0.00     8.00     1.59    0.17    0.17    0.00   0.03  24.50
sdg               0.00     0.00    0.00   23.00     0.00   108.00     9.39     0.00    0.00    0.00    0.00   0.00   0.00
sdh               0.00     0.00    0.00    0.00     0.00     0.00     0.00     0.00    0.00    0.00    0.00   0.00   0.00
md0               0.00     0.00 55054.00    0.00 220216.00     0.00     8.00     0.00    0.00    0.00    0.00   0.00   0.00

avg-cpu:  %user   %nice %system %iowait  %steal   %idle
           1.04    0.00    8.62    2.61    0.00   87.73

Device:         rrqm/s   wrqm/s     r/s     w/s    rkB/s    wkB/s avgrq-sz avgqu-sz   await r_await w_await  svctm  %util
sda               0.00     0.00 8280.00    0.00 33120.00     0.00     8.00     1.21    0.15    0.15    0.00   0.03  21.80
sdb               0.00     0.00 8505.00    0.00 34020.00     0.00     8.00     1.10    0.13    0.13    0.00   0.02  20.50
sdc               0.00     0.00 8380.00    0.00 33520.00     0.00     8.00     1.45    0.17    0.17    0.00   0.03  26.50
sdd               0.00     0.00 8401.00    0.00 33604.00     0.00     8.00     1.31    0.16    0.16    0.00   0.03  25.20
sde               0.00     0.00 8227.00    0.00 32908.00     0.00     8.00     1.27    0.15    0.15    0.00   0.03  23.50
sdf               0.00     0.00 8540.00    0.00 34160.00     0.00     8.00     1.58    0.19    0.19    0.00   0.03  27.70
sdg               0.00     0.00    0.00    0.00     0.00     0.00     0.00     0.00    0.00    0.00    0.00   0.00   0.00
sdh               0.00     0.00    0.00    0.00     0.00     0.00     0.00     0.00    0.00    0.00    0.00   0.00   0.00
md0               0.00     0.00 50327.00    0.00 201308.00     0.00     8.00     0.00    0.00    0.00    0.00   0.00   0.00

avg-cpu:  %user   %nice %system %iowait  %steal   %idle
           1.05    0.00    8.38    0.26    0.00   90.31

Device:         rrqm/s   wrqm/s     r/s     w/s    rkB/s    wkB/s avgrq-sz avgqu-sz   await r_await w_await  svctm  %util
sda               0.00     0.00 7766.00    0.00 31064.00     0.00     8.00     1.02    0.13    0.13    0.00   0.03  21.80
sdb               0.00     0.00 7819.00    0.00 31276.00     0.00     8.00     0.98    0.13    0.13    0.00   0.03  20.80
sdc               0.00     0.00 7852.00    0.00 31408.00     0.00     8.00     1.34    0.17    0.17    0.00   0.03  25.00
sdd               0.00     0.00 7813.00    0.00 31252.00     0.00     8.00     1.24    0.16    0.16    0.00   0.03  25.10
sde               0.00     0.00 7619.00    0.00 30476.00     0.00     8.00     1.07    0.14    0.14    0.00   0.03  23.20
sdf               0.00     0.00 7747.00    0.00 30988.00     0.00     8.00     1.22    0.16    0.16    0.00   0.03  23.40
sdg               0.00     0.00    0.00    0.00     0.00     0.00     0.00     0.00    0.00    0.00    0.00   0.00   0.00
sdh               0.00     0.00    0.00    0.00     0.00     0.00     0.00     0.00    0.00    0.00    0.00   0.00   0.00
md0               0.00     0.00 46619.00    0.00 186476.00     0.00     8.00     0.00    0.00    0.00    0.00   0.00   0.00

avg-cpu:  %user   %nice %system %iowait  %steal   %idle
           1.28    0.00    9.95    6.38    0.00   82.40

Device:         rrqm/s   wrqm/s     r/s     w/s    rkB/s    wkB/s avgrq-sz avgqu-sz   await r_await w_await  svctm  %util
sda               0.00     0.00 7210.00    0.00 28840.00     0.00     8.00     0.94    0.13    0.13    0.00   0.03  21.50
sdb               0.00     0.00 7075.00    0.00 28300.00     0.00     8.00     0.83    0.12    0.12    0.00   0.03  20.30
sdc               0.00     0.00 7272.00    0.00 29088.00     0.00     8.00     1.09    0.15    0.15    0.00   0.03  23.60
sdd               0.00     0.00 7004.00    0.00 28016.00     0.00     8.00     1.03    0.15    0.15    0.00   0.03  22.10
sde               0.00     0.00 7265.00    0.00 29060.00     0.00     8.00     1.04    0.14    0.14    0.00   0.03  24.30
sdf               0.00     0.00 7478.00    0.00 29912.00     0.00     8.00     1.05    0.14    0.14    0.00   0.03  25.50
sdg               0.00     0.00    0.00    0.00     0.00     0.00     0.00     0.00    0.00    0.00    0.00   0.00   0.00
sdh               0.00     0.00    0.00    0.00     0.00     0.00     0.00     0.00    0.00    0.00    0.00   0.00   0.00
md0               0.00     0.00 43294.00    0.00 173176.00     0.00     8.00     0.00    0.00    0.00    0.00   0.00   0.00

avg-cpu:  %user   %nice %system %iowait  %steal   %idle
           1.26    0.00   10.86   11.11    0.00   76.77

Device:         rrqm/s   wrqm/s     r/s     w/s    rkB/s    wkB/s avgrq-sz avgqu-sz   await r_await w_await  svctm  %util
sda               0.00     0.00 6568.00    0.00 26272.00     0.00     8.00     0.76    0.12    0.12    0.00   0.03  21.00
sdb               0.00     0.00 6564.00    0.00 26256.00     0.00     8.00     0.77    0.12    0.12    0.00   0.03  20.70
sdc               0.00     0.00 6655.00    0.00 26620.00     0.00     8.00     0.96    0.14    0.14    0.00   0.04  25.40
sdd               0.00     0.00 6681.00    0.00 26724.00     0.00     8.00     0.95    0.14    0.14    0.00   0.04  25.40
sde               0.00     0.00 6731.00    0.00 26924.00     0.00     8.00     0.95    0.14    0.14    0.00   0.04  25.00
sdf               0.00     0.00 6471.00    0.00 25884.00     0.00     8.00     0.84    0.13    0.13    0.00   0.04  22.80
sdg               0.00     0.00    0.00    0.00     0.00     0.00     0.00     0.00    0.00    0.00    0.00   0.00   0.00
sdh               0.00     0.00    0.00    0.00     0.00     0.00     0.00     0.00    0.00    0.00    0.00   0.00   0.00
md0               0.00     0.00 39671.00    0.00 158684.00     0.00     8.00     0.00    0.00    0.00    0.00   0.00   0.00

avg-cpu:  %user   %nice %system %iowait  %steal   %idle
           1.51    0.00   10.08    9.57    0.00   78.84

Device:         rrqm/s   wrqm/s     r/s     w/s    rkB/s    wkB/s avgrq-sz avgqu-sz   await r_await w_await  svctm  %util
sda               0.00     0.00 5907.00    0.00 23628.00     0.00     8.00     0.70    0.12    0.12    0.00   0.04  22.30
sdb               0.00     0.00 5566.00    0.00 22264.00     0.00     8.00     0.62    0.11    0.11    0.00   0.03  19.10
sdc               0.00     0.00 5741.00    0.00 22964.00     0.00     8.00     0.68    0.12    0.12    0.00   0.04  23.00
sdd               0.00     0.00 5694.00    0.00 22776.00     0.00     8.00     0.78    0.14    0.14    0.00   0.04  23.40
sde               0.00     0.00 5698.00    0.00 22792.00     0.00     8.00     0.77    0.13    0.13    0.00   0.04  23.30
sdf               0.00     0.00 5695.00    0.00 22780.00     0.00     8.00     0.80    0.14    0.14    0.00   0.04  24.10
sdg               0.00     0.00   12.00    5.00    48.00    28.00     8.94     0.00    0.12    0.08    0.20   0.12   0.20
sdh               0.00     0.00    0.00    0.00     0.00     0.00     0.00     0.00    0.00    0.00    0.00   0.00   0.00
md0               0.00     0.00 34303.00    0.00 137212.00     0.00     8.00     0.00    0.00    0.00    0.00   0.00   0.00

avg-cpu:  %user   %nice %system %iowait  %steal   %idle
           1.52    0.00    9.85   11.87    0.00   76.77

Device:         rrqm/s   wrqm/s     r/s     w/s    rkB/s    wkB/s avgrq-sz avgqu-sz   await r_await w_await  svctm  %util
sda               0.00     0.00 5028.00    0.00 20112.00     0.00     8.00     0.58    0.12    0.12    0.00   0.04  21.20
sdb               0.00     0.00 4889.00    0.00 19556.00     0.00     8.00     0.50    0.10    0.10    0.00   0.04  19.20
sdc               0.00     0.00 4991.00    0.00 19964.00     0.00     8.00     0.61    0.12    0.12    0.00   0.04  22.20
sdd               0.00     0.00 4971.00    0.00 19884.00     0.00     8.00     0.59    0.12    0.12    0.00   0.04  22.00
sde               0.00     0.00 5120.00    0.00 20480.00     0.00     8.00     0.67    0.13    0.13    0.00   0.05  23.50
sdf               0.00     0.00 4977.00    0.00 19908.00     0.00     8.00     0.60    0.12    0.12    0.00   0.04  22.20
sdg               0.00     0.00    0.00    0.00     0.00     0.00     0.00     0.00    0.00    0.00    0.00   0.00   0.00
sdh               0.00     0.00    0.00    0.00     0.00     0.00     0.00     0.00    0.00    0.00    0.00   0.00   0.00
md0               0.00     0.00 29969.00    0.00 119876.00     0.00     8.00     0.00    0.00    0.00    0.00   0.00   0.00

avg-cpu:  %user   %nice %system %iowait  %steal   %idle
           1.55    0.00    6.98    1.81    0.00   89.66

Device:         rrqm/s   wrqm/s     r/s     w/s    rkB/s    wkB/s avgrq-sz avgqu-sz   await r_await w_await  svctm  %util
sda               0.00     0.00 4449.00    0.00 17796.00     0.00     8.00     0.47    0.10    0.10    0.00   0.05  21.70
sdb               0.00     0.00 4387.00    0.00 17548.00     0.00     8.00     0.50    0.11    0.11    0.00   0.04  19.40
sdc               0.00     0.00 4238.00    0.00 16952.00     0.00     8.00     0.54    0.13    0.13    0.00   0.05  21.20
sdd               0.00     0.00 4285.00    0.00 17140.00     0.00     8.00     0.61    0.14    0.14    0.00   0.06  23.70
sde               0.00     0.00 4267.00    0.00 17068.00     0.00     8.00     0.54    0.13    0.13    0.00   0.05  21.80
sdf               0.00     0.00 4252.00    0.00 17008.00     0.00     8.00     0.51    0.12    0.12    0.00   0.05  21.50
sdg               0.00     0.00    0.00    0.00     0.00     0.00     0.00     0.00    0.00    0.00    0.00   0.00   0.00
sdh               0.00     0.00    0.00    0.00     0.00     0.00     0.00     0.00    0.00    0.00    0.00   0.00   0.00
md0               0.00     0.00 25889.00    0.00 103556.00     0.00     8.00     0.00    0.00    0.00    0.00   0.00   0.00

avg-cpu:  %user   %nice %system %iowait  %steal   %idle
           1.81    0.00    6.98    0.52    0.00   90.70

Device:         rrqm/s   wrqm/s     r/s     w/s    rkB/s    wkB/s avgrq-sz avgqu-sz   await r_await w_await  svctm  %util
sda               0.00     0.00 3798.00    0.00 15192.00     0.00     8.00     0.42    0.11    0.11    0.00   0.05  19.20
sdb               0.00     0.00 3752.00    0.00 15008.00     0.00     8.00     0.37    0.10    0.10    0.00   0.05  18.80
sdc               0.00     0.00 3847.00    0.00 15388.00     0.00     8.00     0.45    0.12    0.12    0.00   0.06  22.50
sdd               0.00     0.00 3884.00    0.00 15536.00     0.00     8.00     0.46    0.12    0.12    0.00   0.05  20.20
sde               0.00     0.00 3764.00    0.00 15056.00     0.00     8.00     0.48    0.13    0.13    0.00   0.06  20.90
sdf               0.00     0.00 3780.00    0.00 15120.00     0.00     8.00     0.44    0.12    0.12    0.00   0.05  19.80
sdg               0.00     0.00    0.00    0.00     0.00     0.00     0.00     0.00    0.00    0.00    0.00   0.00   0.00
sdh               0.00     0.00    0.00    0.00     0.00     0.00     0.00     0.00    0.00    0.00    0.00   0.00   0.00
md0               0.00     0.00 22814.00    0.00 91256.00     0.00     8.00     0.00    0.00    0.00    0.00   0.00   0.00

avg-cpu:  %user   %nice %system %iowait  %steal   %idle
           2.28    0.00    8.63    2.54    0.00   86.55

Device:         rrqm/s   wrqm/s     r/s     w/s    rkB/s    wkB/s avgrq-sz avgqu-sz   await r_await w_await  svctm  %util
sda               0.00     0.00 3061.00    0.00 12244.00     0.00     8.00     0.34    0.11    0.11    0.00   0.06  17.20
sdb               0.00     0.00 3043.00    0.00 12172.00     0.00     8.00     0.33    0.11    0.11    0.00   0.06  17.60
sdc               0.00     0.00 3049.00    0.00 12196.00     0.00     8.00     0.35    0.12    0.12    0.00   0.06  19.20
sdd               0.00     0.00 3018.00    0.00 12072.00     0.00     8.00     0.34    0.11    0.11    0.00   0.06  18.40
sde               0.00     0.00 3001.00    0.00 12004.00     0.00     8.00     0.36    0.12    0.12    0.00   0.07  20.30
sdf               0.00     0.00 3060.00    0.00 12240.00     0.00     8.00     0.35    0.11    0.11    0.00   0.06  19.10
sdg               0.00     0.00    6.00    0.00    24.00     0.00     8.00     0.00    0.33    0.33    0.00   0.33   0.20
sdh               0.00     0.00    0.00    0.00     0.00     0.00     0.00     0.00    0.00    0.00    0.00   0.00   0.00
md0               0.00     0.00 18232.00    0.00 72928.00     0.00     8.00     0.00    0.00    0.00    0.00   0.00   0.00

avg-cpu:  %user   %nice %system %iowait  %steal   %idle
           1.55    0.00    7.75    0.52    0.00   90.18

Device:         rrqm/s   wrqm/s     r/s     w/s    rkB/s    wkB/s avgrq-sz avgqu-sz   await r_await w_await  svctm  %util
sda               0.00     0.00 2338.00    0.00  9352.00     0.00     8.00     0.25    0.11    0.11    0.00   0.07  16.90
sdb               0.00     0.00 2516.00    0.00 10064.00     0.00     8.00     0.27    0.11    0.11    0.00   0.07  17.30
sdc               0.00     0.00 2364.00    0.00  9456.00     0.00     8.00     0.27    0.12    0.12    0.00   0.07  17.60
sdd               0.00     0.00 2413.00    0.00  9652.00     0.00     8.00     0.27    0.11    0.11    0.00   0.07  17.80
sde               0.00     0.00 2459.00    0.00  9836.00     0.00     8.00     0.28    0.11    0.11    0.00   0.07  17.10
sdf               0.00     0.00 2405.00    0.00  9620.00     0.00     8.00     0.28    0.12    0.12    0.00   0.07  16.50
sdg               0.00     1.00    0.00    2.00     0.00    36.00    36.00     0.00    0.00    0.00    0.00   0.00   0.00
sdh               0.00     0.00    0.00    0.00     0.00     0.00     0.00     0.00    0.00    0.00    0.00   0.00   0.00
md0               0.00     0.00 14496.00    0.00 57984.00     0.00     8.00     0.00    0.00    0.00    0.00   0.00   0.00

avg-cpu:  %user   %nice %system %iowait  %steal   %idle
           2.54    0.00    8.63    7.11    0.00   81.73

Device:         rrqm/s   wrqm/s     r/s     w/s    rkB/s    wkB/s avgrq-sz avgqu-sz   await r_await w_await  svctm  %util
sda               0.00     0.00 1821.00    0.00  7284.00     0.00     8.00     0.19    0.10    0.10    0.00   0.07  13.60
sdb               0.00     0.00 1937.00    0.00  7748.00     0.00     8.00     0.18    0.09    0.09    0.00   0.07  13.40
sdc               0.00     0.00 1899.00    0.00  7596.00     0.00     8.00     0.21    0.11    0.11    0.00   0.08  14.90
sdd               0.00     0.00 1834.00    0.00  7336.00     0.00     8.00     0.20    0.11    0.11    0.00   0.08  13.90
sde               0.00     0.00 1835.00    0.00  7340.00     0.00     8.00     0.21    0.12    0.12    0.00   0.09  16.20
sdf               0.00     0.00 1873.00    0.00  7492.00     0.00     8.00     0.22    0.12    0.12    0.00   0.08  15.80
sdg               0.00     0.00    0.00    0.00     0.00     0.00     0.00     0.00    0.00    0.00    0.00   0.00   0.00
sdh               0.00     0.00    0.00    0.00     0.00     0.00     0.00     0.00    0.00    0.00    0.00   0.00   0.00
md0               0.00     0.00 11198.00    0.00 44792.00     0.00     8.00     0.00    0.00    0.00    0.00   0.00   0.00

avg-cpu:  %user   %nice %system %iowait  %steal   %idle
           3.05    0.00   10.15    0.51    0.00   86.29

Device:         rrqm/s   wrqm/s     r/s     w/s    rkB/s    wkB/s avgrq-sz avgqu-sz   await r_await w_await  svctm  %util
sda               0.00     0.00 1439.00    0.00  5756.00     0.00     8.00     0.12    0.09    0.09    0.00   0.07  10.50
sdb               0.00     0.00 1448.00    0.00  5792.00     0.00     8.00     0.13    0.09    0.09    0.00   0.07  10.70
sdc               0.00     0.00 1391.00    0.00  5564.00     0.00     8.00     0.17    0.12    0.12    0.00   0.10  14.10
sdd               0.00     0.00 1365.00    0.00  5460.00     0.00     8.00     0.15    0.11    0.11    0.00   0.08  11.40
sde               0.00     0.00 1419.00    0.00  5676.00     0.00     8.00     0.15    0.11    0.11    0.00   0.09  12.40
sdf               0.00     0.00 1364.00    0.00  5456.00     0.00     8.00     0.14    0.11    0.11    0.00   0.08  11.50
sdg               0.00     0.00   18.00    0.00   404.00     0.00    44.89     0.00    0.22    0.22    0.00   0.22   0.40
sdh               0.00     0.00    0.00    0.00     0.00     0.00     0.00     0.00    0.00    0.00    0.00   0.00   0.00
md0               0.00     0.00 8426.00    0.00 33704.00     0.00     8.00     0.00    0.00    0.00    0.00   0.00   0.00

avg-cpu:  %user   %nice %system %iowait  %steal   %idle
           3.76    0.00   12.28    3.26    0.00   80.70

Device:         rrqm/s   wrqm/s     r/s     w/s    rkB/s    wkB/s avgrq-sz avgqu-sz   await r_await w_await  svctm  %util
sda               0.00     0.00  923.00    0.00  3692.00     0.00     8.00     0.09    0.09    0.09    0.00   0.08   7.50
sdb               0.00     0.00  925.00    0.00  3700.00     0.00     8.00     0.07    0.08    0.08    0.00   0.06   5.90
sdc               0.00     0.00  960.00    0.00  3840.00     0.00     8.00     0.09    0.09    0.09    0.00   0.08   7.90
sdd               0.00     0.00  897.00    0.00  3588.00     0.00     8.00     0.09    0.10    0.10    0.00   0.08   7.60
sde               0.00     0.00  928.00    0.00  3712.00     0.00     8.00     0.12    0.13    0.13    0.00   0.12  10.90
sdf               0.00     0.00  914.00    0.00  3656.00     0.00     8.00     0.09    0.10    0.10    0.00   0.09   8.20
sdg               0.00     0.00    0.00    0.00     0.00     0.00     0.00     0.00    0.00    0.00    0.00   0.00   0.00
sdh               0.00     0.00    0.00    0.00     0.00     0.00     0.00     0.00    0.00    0.00    0.00   0.00   0.00
md0               0.00     0.00 5547.00    0.00 22188.00     0.00     8.00     0.00    0.00    0.00    0.00   0.00   0.00

avg-cpu:  %user   %nice %system %iowait  %steal   %idle
           4.28    0.00   14.61    6.05    0.00   75.06

Device:         rrqm/s   wrqm/s     r/s     w/s    rkB/s    wkB/s avgrq-sz avgqu-sz   await r_await w_await  svctm  %util
sda               0.00     0.00  583.00    0.00  2332.00     0.00     8.00     0.06    0.11    0.11    0.00   0.10   5.80
sdb               0.00     0.00  632.00    0.00  2528.00     0.00     8.00     0.06    0.10    0.10    0.00   0.09   5.90
sdc               0.00     0.00  588.00    0.00  2352.00     0.00     8.00     0.05    0.09    0.09    0.00   0.09   5.00
sdd               0.00     0.00  539.00    0.00  2156.00     0.00     8.00     0.06    0.11    0.11    0.00   0.10   5.50
sde               0.00     0.00  563.00    0.00  2252.00     0.00     8.00     0.06    0.10    0.10    0.00   0.10   5.90
sdf               0.00     0.00  552.00    0.00  2208.00     0.00     8.00     0.07    0.13    0.13    0.00   0.13   7.00
sdg               0.00     0.00    0.00    0.00     0.00     0.00     0.00     0.00    0.00    0.00    0.00   0.00   0.00
sdh               0.00     0.00    0.00    0.00     0.00     0.00     0.00     0.00    0.00    0.00    0.00   0.00   0.00
md0               0.00     0.00 3457.00    0.00 13828.00     0.00     8.00     0.00    0.00    0.00    0.00   0.00   0.00

avg-cpu:  %user   %nice %system %iowait  %steal   %idle
           6.05    0.00   16.62    3.27    0.00   74.06

Device:         rrqm/s   wrqm/s     r/s     w/s    rkB/s    wkB/s avgrq-sz avgqu-sz   await r_await w_await  svctm  %util
sda               0.00     0.00  270.00    0.00  1080.00     0.00     8.00     0.03    0.10    0.10    0.00   0.10   2.60
sdb               0.00     0.00  234.00    0.00   936.00     0.00     8.00     0.03    0.13    0.13    0.00   0.13   3.00
sdc               0.00     0.00  262.00    0.00  1048.00     0.00     8.00     0.03    0.11    0.11    0.00   0.11   2.80
sdd               0.00     0.00  251.00    0.00  1004.00     0.00     8.00     0.03    0.13    0.13    0.00   0.12   3.10
sde               0.00     0.00  262.00    0.00  1048.00     0.00     8.00     0.02    0.09    0.09    0.00   0.09   2.30
sdf               0.00     0.00  249.00    0.00   996.00     0.00     8.00     0.03    0.12    0.12    0.00   0.12   2.90
sdg               0.00     1.00    0.00 1422.00     0.00  7420.00    10.44     8.68    6.10    0.00    6.10   0.04   6.30
sdh               0.00     0.00    0.00    0.00     0.00     0.00     0.00     0.00    0.00    0.00    0.00   0.00   0.00
md0               0.00     0.00 1527.00    0.00  6108.00     0.00     8.00     0.00    0.00    0.00    0.00   0.00   0.00

avg-cpu:  %user   %nice %system %iowait  %steal   %idle
           5.79    0.00   17.88    0.25    0.00   76.07

Device:         rrqm/s   wrqm/s     r/s     w/s    rkB/s    wkB/s avgrq-sz avgqu-sz   await r_await w_await  svctm  %util
sda               0.00     0.00  107.00    0.00   428.00     0.00     8.00     0.02    0.18    0.18    0.00   0.18   1.90
sdb               0.00     0.00   98.00    0.00   392.00     0.00     8.00     0.02    0.21    0.21    0.00   0.21   2.10
sdc               0.00     0.00   93.00    0.00   372.00     0.00     8.00     0.01    0.16    0.16    0.00   0.16   1.50
sdd               0.00     0.00   92.00    0.00   368.00     0.00     8.00     0.02    0.18    0.18    0.00   0.18   1.70
sde               0.00     0.00  105.00    0.00   420.00     0.00     8.00     0.01    0.14    0.14    0.00   0.14   1.50
sdf               0.00     0.00   97.00    0.00   388.00     0.00     8.00     0.02    0.21    0.21    0.00   0.20   1.90
sdg               0.00     0.00    0.00    0.00     0.00     0.00     0.00     0.00    0.00    0.00    0.00   0.00   0.00
sdh               0.00     0.00    0.00    0.00     0.00     0.00     0.00     0.00    0.00    0.00    0.00   0.00   0.00
md0               0.00     0.00  592.00    0.00  2368.00     0.00     8.00     0.00    0.00    0.00    0.00   0.00   0.00

avg-cpu:  %user   %nice %system %iowait  %steal   %idle
           6.55    0.00   18.39    0.00    0.00   75.06

Device:         rrqm/s   wrqm/s     r/s     w/s    rkB/s    wkB/s avgrq-sz avgqu-sz   await r_await w_await  svctm  %util
sda               0.00     0.00   24.00    0.00    96.00     0.00     8.00     0.00    0.12    0.12    0.00   0.12   0.30
sdb               0.00     0.00   30.00    0.00   120.00     0.00     8.00     0.00    0.13    0.13    0.00   0.13   0.40
sdc               0.00     0.00   25.00    0.00   100.00     0.00     8.00     0.00    0.04    0.04    0.00   0.04   0.10
sdd               0.00     0.00   28.00    0.00   112.00     0.00     8.00     0.00    0.07    0.07    0.00   0.07   0.20
sde               0.00     0.00   26.00    0.00   104.00     0.00     8.00     0.01    0.19    0.19    0.00   0.19   0.50
sdf               0.00     0.00   23.00    0.00    92.00     0.00     8.00     0.00    0.00    0.00    0.00   0.00   0.00
sdg               0.00     0.00    0.00    0.00     0.00     0.00     0.00     0.00    0.00    0.00    0.00   0.00   0.00
sdh               0.00     0.00    0.00    0.00     0.00     0.00     0.00     0.00    0.00    0.00    0.00   0.00   0.00
md0               0.00     0.00  156.00    0.00   624.00     0.00     8.00     0.00    0.00    0.00    0.00   0.00   0.00

