Linux 4.17.2 (bench) 	08/04/2018 	_x86_64_	(4 CPU)

avg-cpu:  %user   %nice %system %iowait  %steal   %idle
          10.25    0.02    4.25    2.79    0.00   82.70

Device:         rrqm/s   wrqm/s     r/s     w/s    rkB/s    wkB/s avgrq-sz avgqu-sz   await r_await w_await  svctm  %util
sda              56.50     4.16 1749.53  100.44 21458.59  3073.35    26.52     1.05    0.57    0.26    5.92   0.06  11.13
sdb              56.29     4.12 1749.55  100.57 21448.16  3070.09    26.50     1.05    0.57    0.26    5.85   0.06  11.01
sdc              93.90     4.18 1709.84  100.13 21440.45  3072.50    27.09     1.47    0.81    0.44    7.12   0.08  14.51
sdd              87.49     4.15 1715.45  100.20 21425.58  3068.77    26.98     1.48    0.81    0.43    7.33   0.08  14.61
sde              89.46     4.19 1720.49  100.30 21484.49  3072.93    26.97     1.50    0.82    0.44    7.44   0.08  14.63
sdf              86.64     4.16 1722.58  100.24 21466.09  3069.86    26.92     1.54    0.85    0.44    7.90   0.08  14.66
sdg               0.00     3.16   27.03   73.20   326.68   391.86    14.34     0.44    4.38    0.20    5.93   0.08   0.79
sdh               0.00     0.13    0.02    0.23     2.17     4.96    56.82     0.00    1.15    0.65    1.19   0.21   0.01
md0               0.00     0.00 10845.44  470.59 147087.40 21036.59    29.71     0.00    0.00    0.00    0.00   0.00   0.00

avg-cpu:  %user   %nice %system %iowait  %steal   %idle
           0.10    0.03    1.99    5.82    0.00   92.06

Device:         rrqm/s   wrqm/s     r/s     w/s    rkB/s    wkB/s avgrq-sz avgqu-sz   await r_await w_await  svctm  %util
sda               0.00     0.00 1527.50    0.00  6968.20     0.00     9.12     0.17    0.11    0.11    0.00   0.10  15.36
sdb               0.00     0.00 1513.55    0.00  6898.20     0.00     9.12     0.16    0.11    0.11    0.00   0.10  14.74
sdc               0.00     0.00 1536.00    0.00  6981.60     0.00     9.09     0.19    0.12    0.12    0.00   0.10  16.12
sdd               0.00     0.00 1514.25    0.00  6875.60     0.00     9.08     0.18    0.12    0.12    0.00   0.11  15.99
sde               0.00     0.00 1513.10    0.00  6917.00     0.00     9.14     0.19    0.13    0.13    0.00   0.11  16.23
sdf               0.00     0.00 1546.40    0.00  7079.00     0.00     9.16     0.20    0.13    0.13    0.00   0.11  16.75
sdg               0.00     0.05   95.20    0.20   409.80     2.20     8.64     0.01    0.13    0.13    0.50   0.12   1.13
sdh               0.00     0.00    0.00    0.00     0.00     0.00     0.00     0.00    0.00    0.00    0.00   0.00   0.00
md0               0.00     0.00 9151.00    0.00 41805.80     0.00     9.14     0.00    0.00    0.00    0.00   0.00   0.00

