Linux 4.17.2 (bench) 	08/04/2018 	_x86_64_	(4 CPU)

avg-cpu:  %user   %nice %system %iowait  %steal   %idle
          10.25    0.02    4.22    2.79    0.00   82.73

Device:         rrqm/s   wrqm/s     r/s     w/s    rkB/s    wkB/s avgrq-sz avgqu-sz   await r_await w_await  svctm  %util
sda              56.55     4.16 1749.77  100.60 21472.27  3078.28    26.54     1.05    0.57    0.26    5.92   0.06  11.14
sdb              56.34     4.13 1749.79  100.73 21461.83  3075.00    26.52     1.05    0.57    0.26    5.85   0.06  11.02
sdc              94.01     4.18 1710.02  100.29 21454.11  3077.42    27.10     1.47    0.81    0.44    7.12   0.08  14.52
sdd              87.59     4.15 1715.63  100.36 21439.22  3073.69    27.00     1.48    0.81    0.43    7.33   0.08  14.62
sde              89.56     4.20 1720.69  100.46 21498.24  3077.85    26.99     1.50    0.82    0.44    7.44   0.08  14.64
sdf              86.73     4.17 1722.78  100.40 21479.82  3074.78    26.94     1.54    0.85    0.44    7.90   0.08  14.67
sdg               0.00     3.16   27.00   73.22   326.67   391.94    14.34     0.44    4.39    0.20    5.93   0.08   0.79
sdh               0.00     0.13    0.02    0.23     2.17     4.97    56.82     0.00    1.15    0.65    1.19   0.21   0.01
md0               0.00     0.00 10847.14  471.34 147180.37 21070.29    29.73     0.00    0.00    0.00    0.00   0.00   0.00

avg-cpu:  %user   %nice %system %iowait  %steal   %idle
          13.33    0.01   31.18    3.11    0.00   52.36

Device:         rrqm/s   wrqm/s     r/s     w/s    rkB/s    wkB/s avgrq-sz avgqu-sz   await r_await w_await  svctm  %util
sda               1.40     0.00  661.45    0.00 10278.60     0.00    31.08     0.32    0.48    0.48    0.00   0.07   4.32
sdb               1.10     0.00  690.65    0.00 10630.80     0.00    30.78     0.36    0.52    0.52    0.00   0.06   4.48
sdc               1.50     0.00  685.65    0.00 10484.20     0.00    30.58     0.52    0.76    0.76    0.00   0.09   6.03
sdd               1.80     0.00  681.25    0.00 10472.40     0.00    30.74     0.51    0.75    0.75    0.00   0.09   6.03
sde               1.45     0.00  679.25    0.00 10718.00     0.00    31.56     0.52    0.77    0.77    0.00   0.09   6.22
sdf               1.55     0.00  685.30    0.00 10542.80     0.00    30.77     0.54    0.78    0.78    0.00   0.09   6.04
sdg               0.00     0.10   57.60    0.15   234.20     2.80     8.21     0.01    0.12    0.11    2.67   0.12   0.69
sdh               0.00     0.00    0.00    0.00     0.00     0.00     0.00     0.00    0.00    0.00    0.00   0.00   0.00
md0               0.00     0.00 4211.45    0.00 65418.80     0.00    31.07     0.00    0.00    0.00    0.00   0.00   0.00

