Linux 4.17.2 (bench) 	08/04/2018 	_x86_64_	(4 CPU)

avg-cpu:  %user   %nice %system %iowait  %steal   %idle
          10.25    0.02    4.28    2.82    0.00   82.63

Device:         rrqm/s   wrqm/s     r/s     w/s    rkB/s    wkB/s avgrq-sz avgqu-sz   await r_await w_await  svctm  %util
sda              57.68     4.14 1758.52  100.05 21455.71  3061.45    26.38     1.05    0.57    0.26    5.92   0.06  11.17
sdb              57.46     4.10 1758.54  100.18 21445.34  3058.19    26.37     1.05    0.57    0.26    5.85   0.06  11.05
sdc              94.94     4.16 1718.97   99.74 21437.66  3060.59    26.94     1.47    0.81    0.44    7.12   0.08  14.55
sdd              88.56     4.13 1724.55   99.81 21422.80  3056.88    26.84     1.48    0.81    0.43    7.33   0.08  14.64
sde              90.51     4.17 1729.55   99.91 21481.36  3061.03    26.83     1.50    0.82    0.44    7.44   0.08  14.66
sdf              87.70     4.15 1731.64   99.85 21463.07  3057.96    26.78     1.54    0.84    0.43    7.90   0.08  14.70
sdg               0.00     3.16   27.10   73.16   326.84   391.70    14.33     0.44    4.38    0.20    5.93   0.08   0.79
sdh               0.00     0.13    0.02    0.23     2.16     4.94    56.82     0.00    1.15    0.65    1.19   0.21   0.01
md0               0.00     0.00 10906.35  468.76 147016.88 20955.08    29.53     0.00    0.00    0.00    0.00   0.00   0.00

avg-cpu:  %user   %nice %system %iowait  %steal   %idle
           2.99    0.00   18.91    2.74    0.00   75.37

Device:         rrqm/s   wrqm/s     r/s     w/s    rkB/s    wkB/s avgrq-sz avgqu-sz   await r_await w_await  svctm  %util
sda               0.00     0.00 12426.00    0.00 49704.00     0.00     8.00     1.58    0.13    0.13    0.00   0.04  46.00
sdb               0.00     0.00 12490.00    0.00 49960.00     0.00     8.00     1.76    0.14    0.14    0.00   0.05  56.80
sdc               0.00     0.00 12426.00    0.00 49704.00     0.00     8.00     1.80    0.14    0.14    0.00   0.04  52.10
sdd               0.00     0.00 12442.00    0.00 49768.00     0.00     8.00     1.63    0.13    0.13    0.00   0.04  50.00
sde               0.00     0.00 12329.00    0.00 49316.00     0.00     8.00     1.59    0.13    0.13    0.00   0.04  49.60
sdf               0.00     0.00 12041.00    0.00 48164.00     0.00     8.00     1.70    0.14    0.14    0.00   0.04  51.00
sdg               0.00    17.00   28.00   79.00   448.00  1304.00    32.75     0.21    1.95    0.18    2.58   0.10   1.10
sdh               0.00     0.00    0.00    0.00     0.00     0.00     0.00     0.00    0.00    0.00    0.00   0.00   0.00
md0               0.00     0.00 74129.00    0.00 296516.00     0.00     8.00     0.00    0.00    0.00    0.00   0.00   0.00

avg-cpu:  %user   %nice %system %iowait  %steal   %idle
           2.77    0.00   17.38    3.02    0.00   76.83

Device:         rrqm/s   wrqm/s     r/s     w/s    rkB/s    wkB/s avgrq-sz avgqu-sz   await r_await w_await  svctm  %util
sda               0.00     0.00 11270.00    0.00 45080.00     0.00     8.00     1.45    0.13    0.13    0.00   0.04  46.60
sdb               0.00     0.00 11141.00    0.00 44564.00     0.00     8.00     1.58    0.14    0.14    0.00   0.05  55.90
sdc               0.00     0.00 11063.00    0.00 44252.00     0.00     8.00     1.50    0.14    0.14    0.00   0.04  48.90
sdd               0.00     0.00 11272.00    0.00 45088.00     0.00     8.00     1.68    0.15    0.15    0.00   0.05  52.70
sde               0.00     0.00 11052.00    0.00 44208.00     0.00     8.00     1.51    0.14    0.14    0.00   0.05  50.70
sdf               0.00     0.00 11221.00    0.00 44884.00     0.00     8.00     1.61    0.14    0.14    0.00   0.05  50.60
sdg               0.00     0.00    0.00    0.00     0.00     0.00     0.00     0.00    0.00    0.00    0.00   0.00   0.00
sdh               0.00     0.00    0.00    0.00     0.00     0.00     0.00     0.00    0.00    0.00    0.00   0.00   0.00
md0               0.00     0.00 67029.00    0.00 268116.00     0.00     8.00     0.00    0.00    0.00    0.00   0.00   0.00

avg-cpu:  %user   %nice %system %iowait  %steal   %idle
           3.23    0.00   17.37    3.23    0.00   76.18

Device:         rrqm/s   wrqm/s     r/s     w/s    rkB/s    wkB/s avgrq-sz avgqu-sz   await r_await w_await  svctm  %util
sda               0.00     0.00 10046.00    0.00 40184.00     0.00     8.00     1.30    0.13    0.13    0.00   0.05  45.60
sdb               0.00     0.00 10093.00    0.00 40372.00     0.00     8.00     1.37    0.14    0.14    0.00   0.05  51.70
sdc               0.00     0.00 9965.00    0.00 39860.00     0.00     8.00     1.23    0.12    0.12    0.00   0.05  47.60
sdd               0.00     0.00 9972.00    0.00 39888.00     0.00     8.00     1.32    0.13    0.13    0.00   0.05  48.50
sde               0.00     0.00 9868.00    0.00 39472.00     0.00     8.00     1.39    0.14    0.14    0.00   0.05  49.40
sdf               0.00     0.00 9955.00    0.00 39820.00     0.00     8.00     1.31    0.13    0.13    0.00   0.05  49.40
sdg               0.00     0.00    0.00    0.00     0.00     0.00     0.00     0.00    0.00    0.00    0.00   0.00   0.00
sdh               0.00     0.00    0.00    0.00     0.00     0.00     0.00     0.00    0.00    0.00    0.00   0.00   0.00
md0               0.00     0.00 59895.00    0.00 239580.00     0.00     8.00     0.00    0.00    0.00    0.00   0.00   0.00

avg-cpu:  %user   %nice %system %iowait  %steal   %idle
           3.29    0.00   15.95    3.80    0.00   76.96

Device:         rrqm/s   wrqm/s     r/s     w/s    rkB/s    wkB/s avgrq-sz avgqu-sz   await r_await w_await  svctm  %util
sda               0.00     0.00 9039.00    0.00 36156.00     0.00     8.00     1.09    0.12    0.12    0.00   0.05  43.30
sdb               0.00     0.00 8856.00    0.00 35424.00     0.00     8.00     1.13    0.13    0.13    0.00   0.06  49.80
sdc               0.00     0.00 9009.00    0.00 36036.00     0.00     8.00     1.21    0.13    0.13    0.00   0.05  45.70
sdd               0.00     0.00 9039.00    0.00 36156.00     0.00     8.00     1.11    0.12    0.12    0.00   0.05  47.90
sde               0.00     0.00 9247.00    0.00 36988.00     0.00     8.00     1.22    0.13    0.13    0.00   0.05  48.20
sdf               0.00     0.00 9217.00    0.00 36868.00     0.00     8.00     1.22    0.13    0.13    0.00   0.05  48.00
sdg               0.00     1.00   16.00   11.00   124.00   184.00    22.81     0.01    0.48    0.19    0.91   0.15   0.40
sdh               0.00     0.00    0.00    0.00     0.00     0.00     0.00     0.00    0.00    0.00    0.00   0.00   0.00
md0               0.00     0.00 54391.00    0.00 217564.00     0.00     8.00     0.00    0.00    0.00    0.00   0.00   0.00

avg-cpu:  %user   %nice %system %iowait  %steal   %idle
           3.24    0.00   16.71    5.74    0.00   74.31

Device:         rrqm/s   wrqm/s     r/s     w/s    rkB/s    wkB/s avgrq-sz avgqu-sz   await r_await w_await  svctm  %util
sda               0.00     0.00 7878.00    0.00 31512.00     0.00     8.00     0.88    0.11    0.11    0.00   0.05  40.00
sdb               0.00     0.00 8005.00    0.00 32020.00     0.00     8.00     1.04    0.13    0.13    0.00   0.06  48.20
sdc               0.00     0.00 8027.00    0.00 32108.00     0.00     8.00     1.05    0.13    0.13    0.00   0.06  44.90
sdd               0.00     0.00 8050.00    0.00 32200.00     0.00     8.00     1.00    0.12    0.12    0.00   0.06  46.80
sde               0.00     0.00 7891.00    0.00 31564.00     0.00     8.00     1.01    0.13    0.13    0.00   0.06  45.80
sdf               0.00     0.00 7828.00    0.00 31312.00     0.00     8.00     1.02    0.13    0.13    0.00   0.06  46.10
sdg               0.00   173.00    0.00 2565.00     0.00 12644.00     9.86    15.54    6.06    0.00    6.06   0.04  11.20
sdh               0.00     0.00    0.00    0.00     0.00     0.00     0.00     0.00    0.00    0.00    0.00   0.00   0.00
md0               0.00     0.00 47692.00    0.00 190768.00     0.00     8.00     0.00    0.00    0.00    0.00   0.00   0.00

avg-cpu:  %user   %nice %system %iowait  %steal   %idle
           4.05    0.00   14.18    4.05    0.00   77.72

Device:         rrqm/s   wrqm/s     r/s     w/s    rkB/s    wkB/s avgrq-sz avgqu-sz   await r_await w_await  svctm  %util
sda               0.00     0.00 7048.00    0.00 28192.00     0.00     8.00     0.75    0.11    0.11    0.00   0.05  38.50
sdb               0.00     0.00 7109.00    0.00 28436.00     0.00     8.00     0.82    0.12    0.12    0.00   0.06  44.60
sdc               0.00     0.00 7046.00    0.00 28184.00     0.00     8.00     0.85    0.12    0.12    0.00   0.06  41.50
sdd               0.00     0.00 7214.00    0.00 28856.00     0.00     8.00     0.89    0.12    0.12    0.00   0.06  44.90
sde               0.00     0.00 7099.00    0.00 28396.00     0.00     8.00     0.89    0.13    0.13    0.00   0.06  43.20
sdf               0.00     0.00 7130.00    0.00 28520.00     0.00     8.00     0.93    0.13    0.13    0.00   0.06  44.20
sdg               0.00     0.00    0.00    0.00     0.00     0.00     0.00     0.00    0.00    0.00    0.00   0.00   0.00
sdh               0.00     0.00    0.00    0.00     0.00     0.00     0.00     0.00    0.00    0.00    0.00   0.00   0.00
md0               0.00     0.00 42640.00    0.00 170560.00     0.00     8.00     0.00    0.00    0.00    0.00   0.00   0.00

