Linux 4.17.2 (bench) 	08/04/2018 	_x86_64_	(4 CPU)

avg-cpu:  %user   %nice %system %iowait  %steal   %idle
          10.25    0.02    4.25    2.79    0.00   82.70

Device:         rrqm/s   wrqm/s     r/s     w/s    rkB/s    wkB/s avgrq-sz avgqu-sz   await r_await w_await  svctm  %util
sda              56.50     4.16 1749.57  100.43 21458.03  3073.18    26.52     1.05    0.57    0.26    5.92   0.06  11.13
sdb              56.28     4.12 1749.60  100.57 21447.60  3069.91    26.50     1.05    0.57    0.26    5.85   0.06  11.01
sdc              93.89     4.18 1709.89  100.13 21439.90  3072.32    27.09     1.47    0.81    0.44    7.12   0.08  14.51
sdd              87.48     4.15 1715.50  100.20 21425.02  3068.60    26.98     1.48    0.81    0.43    7.33   0.08  14.61
sde              89.46     4.19 1720.54  100.29 21483.92  3072.76    26.97     1.50    0.82    0.44    7.44   0.08  14.63
sdf              86.63     4.16 1722.62  100.24 21465.53  3069.68    26.92     1.54    0.85    0.44    7.90   0.08  14.66
sdg               0.00     3.16   27.03   73.20   326.69   391.86    14.34     0.44    4.38    0.20    5.93   0.08   0.79
sdh               0.00     0.13    0.02    0.23     2.17     4.96    56.82     0.00    1.15    0.65    1.19   0.21   0.01
md0               0.00     0.00 10845.70  470.56 147083.00 21035.40    29.71     0.00    0.00    0.00    0.00   0.00   0.00

avg-cpu:  %user   %nice %system %iowait  %steal   %idle
           4.98    0.01   40.92    1.58    0.00   52.51

Device:         rrqm/s   wrqm/s     r/s     w/s    rkB/s    wkB/s avgrq-sz avgqu-sz   await r_await w_await  svctm  %util
sda               0.40     0.00  743.00    0.00  5168.00     0.00    13.91     0.48    0.65    0.65    0.00   0.03   2.19
sdb               0.30     0.00  727.80    0.00  5038.20     0.00    13.85     0.46    0.63    0.63    0.00   0.03   2.09
sdc               0.50     0.00  741.50    0.00  5109.40     0.00    13.78     0.88    1.18    1.18    0.00   0.04   2.83
sdd               0.35     0.00  740.15    0.00  5093.60     0.00    13.76     0.86    1.16    1.16    0.00   0.04   2.86
sde               0.10     0.00  733.35    0.00  5071.40     0.00    13.83     0.83    1.13    1.13    0.00   0.04   2.77
sdf               0.65     0.00  743.15    0.00  5140.40     0.00    13.83     0.84    1.13    1.13    0.00   0.04   2.82
sdg               0.00     0.30    1.65  130.15    13.40   638.00     9.88     0.74    5.63    0.15    5.70   0.04   0.58
sdh               0.00     0.00    0.00    0.00     0.00     0.00     0.00     0.00    0.00    0.00    0.00   0.00   0.00
md0               0.00     0.00 4437.80    0.00 30800.80     0.00    13.88     0.00    0.00    0.00    0.00   0.00   0.00

