Linux 4.17.2 (bench) 	08/04/2018 	_x86_64_	(4 CPU)

avg-cpu:  %user   %nice %system %iowait  %steal   %idle
          10.25    0.02    4.21    2.79    0.00   82.73

Device:         rrqm/s   wrqm/s     r/s     w/s    rkB/s    wkB/s avgrq-sz avgqu-sz   await r_await w_await  svctm  %util
sda              56.58     4.17 1749.63  100.65 21476.44  3079.70    26.54     1.05    0.57    0.26    5.92   0.06  11.14
sdb              56.36     4.13 1749.66  100.78 21465.99  3076.43    26.53     1.05    0.57    0.26    5.85   0.06  11.01
sdc              94.05     4.19 1709.87  100.34 21458.27  3078.85    27.11     1.47    0.81    0.44    7.12   0.08  14.52
sdd              87.62     4.15 1715.49  100.41 21443.37  3075.11    27.00     1.48    0.82    0.43    7.33   0.08  14.62
sde              89.60     4.20 1720.55  100.50 21502.43  3079.28    27.00     1.50    0.82    0.44    7.44   0.08  14.64
sdf              86.77     4.17 1722.63  100.45 21484.00  3076.20    26.94     1.54    0.85    0.44    7.90   0.08  14.67
sdg               0.00     3.16   26.99   73.23   326.67   391.96    14.34     0.44    4.39    0.20    5.93   0.08   0.79
sdh               0.00     0.13    0.02    0.23     2.17     4.97    56.82     0.00    1.15    0.65    1.19   0.21   0.01
md0               0.00     0.00 10846.50  471.56 147211.05 21080.06    29.74     0.00    0.00    0.00    0.00   0.00   0.00

avg-cpu:  %user   %nice %system %iowait  %steal   %idle
           0.85    0.03    4.47    1.93    0.00   92.73

Device:         rrqm/s   wrqm/s     r/s     w/s    rkB/s    wkB/s avgrq-sz avgqu-sz   await r_await w_await  svctm  %util
sda               0.00     0.00 3247.20    0.00 12988.80     0.00     8.00     0.36    0.11    0.11    0.00   0.05  15.51
sdb               0.00     0.00 3249.30    0.00 12997.20     0.00     8.00     0.35    0.11    0.11    0.00   0.05  15.24
sdc               0.00     0.00 3243.90    0.00 12975.60     0.00     8.00     0.40    0.12    0.12    0.00   0.05  17.12
sdd               0.00     0.00 3254.40    0.00 13017.60     0.00     8.00     0.40    0.12    0.12    0.00   0.05  17.26
sde               0.00     0.00 3255.50    0.00 13022.00     0.00     8.00     0.39    0.12    0.12    0.00   0.05  17.11
sdf               0.00     0.00 3237.40    0.00 12949.60     0.00     8.00     0.40    0.12    0.12    0.00   0.05  17.14
sdg               0.00     3.10    1.90  127.90    15.00   638.40    10.07     0.81    6.24    0.39    6.32   0.05   0.60
sdh               0.00     0.00    0.00    0.00     0.00     0.00     0.00     0.00    0.00    0.00    0.00   0.00   0.00
md0               0.00     0.00 19487.90    0.00 77951.60     0.00     8.00     0.00    0.00    0.00    0.00   0.00   0.00

