Linux 4.17.2 (bench) 	08/04/2018 	_x86_64_	(4 CPU)

avg-cpu:  %user   %nice %system %iowait  %steal   %idle
          10.25    0.02    4.26    2.79    0.00   82.68

Device:         rrqm/s   wrqm/s     r/s     w/s    rkB/s    wkB/s avgrq-sz avgqu-sz   await r_await w_await  svctm  %util
sda              56.60     4.15 1749.74  100.31 21447.55  3069.48    26.50     1.05    0.57    0.26    5.92   0.06  11.13
sdb              56.38     4.11 1749.76  100.45 21437.13  3066.21    26.49     1.05    0.57    0.26    5.85   0.06  11.01
sdc              93.96     4.17 1710.09  100.01 21429.43  3068.62    27.07     1.47    0.81    0.44    7.12   0.08  14.51
sdd              87.56     4.14 1715.69  100.07 21414.58  3064.90    26.96     1.48    0.81    0.43    7.33   0.08  14.61
sde              89.53     4.18 1720.72  100.17 21473.38  3069.06    26.96     1.50    0.82    0.44    7.44   0.08  14.63
sdf              86.71     4.16 1722.81  100.12 21455.02  3065.99    26.90     1.54    0.85    0.44    7.90   0.08  14.66
sdg               0.00     3.16   27.04   73.19   326.70   391.80    14.34     0.44    4.38    0.20    5.93   0.08   0.79
sdh               0.00     0.13    0.02    0.23     2.16     4.95    56.82     0.00    1.15    0.65    1.19   0.21   0.01
md0               0.00     0.00 10847.30  469.99 147006.90 21010.06    29.69     0.00    0.00    0.00    0.00   0.00   0.00

avg-cpu:  %user   %nice %system %iowait  %steal   %idle
           0.00    0.00    1.79    5.10    0.00   93.11

Device:         rrqm/s   wrqm/s     r/s     w/s    rkB/s    wkB/s avgrq-sz avgqu-sz   await r_await w_await  svctm  %util
sda               0.00     0.00 1509.00    0.00  6036.00     0.00     8.00     0.16    0.10    0.10    0.00   0.10  15.70
sdb               0.00     0.00 1460.00    0.00  5840.00     0.00     8.00     0.15    0.10    0.10    0.00   0.10  15.10
sdc               0.00     0.00 1358.00    0.00  5432.00     0.00     8.00     0.15    0.11    0.11    0.00   0.11  14.70
sdd               0.00     0.00 1506.00    0.00  6024.00     0.00     8.00     0.16    0.11    0.11    0.00   0.11  16.30
sde               0.00     0.00 1381.00    0.00  5524.00     0.00     8.00     0.15    0.11    0.11    0.00   0.11  15.30
sdf               0.00     0.00 1404.00    0.00  5616.00     0.00     8.00     0.15    0.11    0.11    0.00   0.11  15.20
sdg               0.00     0.00    0.00    0.00     0.00     0.00     0.00     0.00    0.00    0.00    0.00   0.00   0.00
sdh               0.00     0.00    0.00    0.00     0.00     0.00     0.00     0.00    0.00    0.00    0.00   0.00   0.00
md0               0.00     0.00 8616.00    0.00 34464.00     0.00     8.00     0.00    0.00    0.00    0.00   0.00   0.00

avg-cpu:  %user   %nice %system %iowait  %steal   %idle
           0.00    0.00    1.79    0.77    0.00   97.44

Device:         rrqm/s   wrqm/s     r/s     w/s    rkB/s    wkB/s avgrq-sz avgqu-sz   await r_await w_await  svctm  %util
sda               0.00     0.00 1399.00    0.00  5596.00     0.00     8.00     0.14    0.10    0.10    0.00   0.10  14.10
sdb               0.00     0.00 1457.00    0.00  5828.00     0.00     8.00     0.14    0.10    0.10    0.00   0.10  14.40
sdc               0.00     0.00 1502.00    0.00  6008.00     0.00     8.00     0.16    0.11    0.11    0.00   0.11  16.40
sdd               0.00     0.00 1494.00    0.00  5976.00     0.00     8.00     0.16    0.11    0.11    0.00   0.11  16.10
sde               0.00     0.00 1424.00    0.00  5696.00     0.00     8.00     0.16    0.11    0.11    0.00   0.11  15.70
sdf               0.00     0.00 1354.00    0.00  5416.00     0.00     8.00     0.14    0.10    0.10    0.00   0.10  13.50
sdg               0.00     0.00    0.00    0.00     0.00     0.00     0.00     0.00    0.00    0.00    0.00   0.00   0.00
sdh               0.00     0.00    0.00    0.00     0.00     0.00     0.00     0.00    0.00    0.00    0.00   0.00   0.00
md0               0.00     0.00 8631.00    0.00 34524.00     0.00     8.00     0.00    0.00    0.00    0.00   0.00   0.00

avg-cpu:  %user   %nice %system %iowait  %steal   %idle
           0.26    0.00    1.53    0.77    0.00   97.44

Device:         rrqm/s   wrqm/s     r/s     w/s    rkB/s    wkB/s avgrq-sz avgqu-sz   await r_await w_await  svctm  %util
sda               0.00     0.00 1528.00    0.00  6112.00     0.00     8.00     0.15    0.10    0.10    0.00   0.10  14.70
sdb               0.00     0.00 1457.00    0.00  5828.00     0.00     8.00     0.14    0.10    0.10    0.00   0.10  14.10
sdc               0.00     0.00 1449.00    0.00  5796.00     0.00     8.00     0.16    0.11    0.11    0.00   0.11  15.60
sdd               0.00     0.00 1413.00    0.00  5652.00     0.00     8.00     0.15    0.10    0.10    0.00   0.10  14.60
sde               0.00     0.00 1480.00    0.00  5920.00     0.00     8.00     0.16    0.11    0.11    0.00   0.11  16.20
sdf               0.00     0.00 1427.00    0.00  5708.00     0.00     8.00     0.14    0.10    0.10    0.00   0.10  14.50
sdg               0.00     0.00    0.00    0.00     0.00     0.00     0.00     0.00    0.00    0.00    0.00   0.00   0.00
sdh               0.00     0.00    0.00    0.00     0.00     0.00     0.00     0.00    0.00    0.00    0.00   0.00   0.00
md0               0.00     0.00 8754.00    0.00 35016.00     0.00     8.00     0.00    0.00    0.00    0.00   0.00   0.00

avg-cpu:  %user   %nice %system %iowait  %steal   %idle
           0.25    0.25    2.78   17.22    0.00   79.49

Device:         rrqm/s   wrqm/s     r/s     w/s    rkB/s    wkB/s avgrq-sz avgqu-sz   await r_await w_await  svctm  %util
sda               0.00     0.00 1390.00    0.00  5560.00     0.00     8.00     0.14    0.10    0.10    0.00   0.10  13.80
sdb               0.00     0.00 1414.00    0.00  5656.00     0.00     8.00     0.14    0.10    0.10    0.00   0.10  14.10
sdc               0.00     0.00 1432.00    0.00  5728.00     0.00     8.00     0.15    0.11    0.11    0.00   0.10  15.00
sdd               0.00     0.00 1410.00    0.00  5640.00     0.00     8.00     0.16    0.11    0.11    0.00   0.11  15.80
sde               0.00     0.00 1527.00    0.00  6108.00     0.00     8.00     0.16    0.11    0.11    0.00   0.11  16.20
sdf               0.00     0.00 1550.00    0.00  6200.00     0.00     8.00     0.17    0.11    0.11    0.00   0.11  17.00
sdg               0.00     0.00 1761.00    0.00  7320.00     0.00     8.31     0.22    0.13    0.13    0.00   0.12  21.50
sdh               0.00     0.00    0.00    0.00     0.00     0.00     0.00     0.00    0.00    0.00    0.00   0.00   0.00
md0               0.00     0.00 8722.00    0.00 34888.00     0.00     8.00     0.00    0.00    0.00    0.00   0.00   0.00

avg-cpu:  %user   %nice %system %iowait  %steal   %idle
           0.26    0.00    1.79    0.77    0.00   97.19

Device:         rrqm/s   wrqm/s     r/s     w/s    rkB/s    wkB/s avgrq-sz avgqu-sz   await r_await w_await  svctm  %util
sda               0.00     0.00 1437.00    0.00  5748.00     0.00     8.00     0.15    0.11    0.11    0.00   0.11  15.40
sdb               0.00     0.00 1409.00    0.00  5636.00     0.00     8.00     0.13    0.09    0.09    0.00   0.09  13.30
sdc               0.00     0.00 1394.00    0.00  5576.00     0.00     8.00     0.16    0.11    0.11    0.00   0.11  15.60
sdd               0.00     0.00 1430.00    0.00  5720.00     0.00     8.00     0.14    0.10    0.10    0.00   0.10  14.50
sde               0.00     0.00 1468.00    0.00  5872.00     0.00     8.00     0.15    0.10    0.10    0.00   0.10  15.40
sdf               0.00     0.00 1566.00    0.00  6264.00     0.00     8.00     0.15    0.10    0.10    0.00   0.10  15.50
sdg               0.00     0.00    0.00    0.00     0.00     0.00     0.00     0.00    0.00    0.00    0.00   0.00   0.00
sdh               0.00     0.00    0.00    0.00     0.00     0.00     0.00     0.00    0.00    0.00    0.00   0.00   0.00
md0               0.00     0.00 8705.00    0.00 34820.00     0.00     8.00     0.00    0.00    0.00    0.00   0.00   0.00

avg-cpu:  %user   %nice %system %iowait  %steal   %idle
           0.00    0.00    1.79    0.77    0.00   97.44

Device:         rrqm/s   wrqm/s     r/s     w/s    rkB/s    wkB/s avgrq-sz avgqu-sz   await r_await w_await  svctm  %util
sda               0.00     0.00 1464.00    0.00  5856.00     0.00     8.00     0.15    0.10    0.10    0.00   0.10  14.70
sdb               0.00     0.00 1609.00    0.00  6436.00     0.00     8.00     0.16    0.10    0.10    0.00   0.10  16.30
sdc               0.00     0.00 1373.00    0.00  5492.00     0.00     8.00     0.14    0.10    0.10    0.00   0.10  14.30
sdd               0.00     0.00 1377.00    0.00  5508.00     0.00     8.00     0.15    0.11    0.11    0.00   0.11  15.00
sde               0.00     0.00 1465.00    0.00  5860.00     0.00     8.00     0.15    0.11    0.11    0.00   0.11  15.40
sdf               0.00     0.00 1390.00    0.00  5560.00     0.00     8.00     0.14    0.10    0.10    0.00   0.10  14.50
sdg               0.00     0.00    0.00    0.00     0.00     0.00     0.00     0.00    0.00    0.00    0.00   0.00   0.00
sdh               0.00     0.00    0.00    0.00     0.00     0.00     0.00     0.00    0.00    0.00    0.00   0.00   0.00
md0               0.00     0.00 8677.00    0.00 34708.00     0.00     8.00     0.00    0.00    0.00    0.00   0.00   0.00

avg-cpu:  %user   %nice %system %iowait  %steal   %idle
           0.00    0.00    1.28    1.03    0.00   97.69

Device:         rrqm/s   wrqm/s     r/s     w/s    rkB/s    wkB/s avgrq-sz avgqu-sz   await r_await w_await  svctm  %util
sda               0.00     0.00 1535.00    0.00  6140.00     0.00     8.00     0.15    0.10    0.10    0.00   0.10  15.00
sdb               0.00     0.00 1423.00    0.00  5692.00     0.00     8.00     0.14    0.10    0.10    0.00   0.10  14.40
sdc               0.00     0.00 1376.00    0.00  5504.00     0.00     8.00     0.14    0.10    0.10    0.00   0.10  14.20
sdd               0.00     0.00 1517.00    0.00  6068.00     0.00     8.00     0.17    0.11    0.11    0.00   0.11  17.00
sde               0.00     0.00 1456.00    0.00  5824.00     0.00     8.00     0.15    0.11    0.11    0.00   0.11  15.50
sdf               0.00     0.00 1392.00    0.00  5568.00     0.00     8.00     0.15    0.11    0.11    0.00   0.11  14.90
sdg               0.00     0.00    0.00    4.00     0.00   128.00    64.00     0.00    0.75    0.00    0.75   0.25   0.10
sdh               0.00     0.00    0.00    0.00     0.00     0.00     0.00     0.00    0.00    0.00    0.00   0.00   0.00
md0               0.00     0.00 8700.00    0.00 34800.00     0.00     8.00     0.00    0.00    0.00    0.00   0.00   0.00

avg-cpu:  %user   %nice %system %iowait  %steal   %idle
           0.26    0.00    1.79   11.73    0.00   86.22

Device:         rrqm/s   wrqm/s     r/s     w/s    rkB/s    wkB/s avgrq-sz avgqu-sz   await r_await w_await  svctm  %util
sda               0.00     0.00 1456.00    0.00  5824.00     0.00     8.00     0.15    0.10    0.10    0.00   0.10  14.70
sdb               0.00     0.00 1468.00    0.00  5872.00     0.00     8.00     0.15    0.10    0.10    0.00   0.10  15.20
sdc               0.00     0.00 1346.00    0.00  5384.00     0.00     8.00     0.15    0.11    0.11    0.00   0.11  15.10
sdd               0.00     0.00 1578.00    0.00  6312.00     0.00     8.00     0.16    0.10    0.10    0.00   0.10  16.30
sde               0.00     0.00 1428.00    0.00  5712.00     0.00     8.00     0.15    0.11    0.11    0.00   0.11  15.50
sdf               0.00     0.00 1315.00    0.00  5260.00     0.00     8.00     0.14    0.11    0.11    0.00   0.11  14.10
sdg               0.00     7.00    8.00   92.00    32.00   468.00    10.00     0.18    1.83    0.62    1.93   0.05   0.50
sdh               0.00     0.00    0.00    0.00     0.00     0.00     0.00     0.00    0.00    0.00    0.00   0.00   0.00
md0               0.00     0.00 8591.00    0.00 34364.00     0.00     8.00     0.00    0.00    0.00    0.00   0.00   0.00

avg-cpu:  %user   %nice %system %iowait  %steal   %idle
           0.25    0.00    2.28    0.76    0.00   96.70

Device:         rrqm/s   wrqm/s     r/s     w/s    rkB/s    wkB/s avgrq-sz avgqu-sz   await r_await w_await  svctm  %util
sda               0.00     0.00 1481.00    0.00  5924.00     0.00     8.00     0.15    0.10    0.10    0.00   0.10  14.80
sdb               0.00     0.00 1510.00    0.00  6040.00     0.00     8.00     0.15    0.10    0.10    0.00   0.10  15.20
sdc               0.00     0.00 1458.00    0.00  5832.00     0.00     8.00     0.14    0.10    0.10    0.00   0.10  14.30
sdd               0.00     0.00 1507.00    0.00  6028.00     0.00     8.00     0.16    0.11    0.11    0.00   0.11  16.10
sde               0.00     0.00 1351.00    0.00  5404.00     0.00     8.00     0.14    0.10    0.10    0.00   0.10  13.90
sdf               0.00     0.00 1398.00    0.00  5592.00     0.00     8.00     0.14    0.10    0.10    0.00   0.10  14.20
sdg               0.00     0.00    0.00    0.00     0.00     0.00     0.00     0.00    0.00    0.00    0.00   0.00   0.00
sdh               0.00     0.00    0.00    0.00     0.00     0.00     0.00     0.00    0.00    0.00    0.00   0.00   0.00
md0               0.00     0.00 8705.00    0.00 34820.00     0.00     8.00     0.00    0.00    0.00    0.00   0.00   0.00

avg-cpu:  %user   %nice %system %iowait  %steal   %idle
           0.26    0.00    1.53    1.02    0.00   97.19

Device:         rrqm/s   wrqm/s     r/s     w/s    rkB/s    wkB/s avgrq-sz avgqu-sz   await r_await w_await  svctm  %util
sda               0.00     0.00 1462.00    0.00  5848.00     0.00     8.00     0.15    0.10    0.10    0.00   0.10  15.20
sdb               0.00     0.00 1422.00    0.00  5688.00     0.00     8.00     0.14    0.10    0.10    0.00   0.10  14.00
sdc               0.00     0.00 1518.00    0.00  6072.00     0.00     8.00     0.17    0.11    0.11    0.00   0.11  16.80
sdd               0.00     0.00 1398.00    0.00  5592.00     0.00     8.00     0.14    0.10    0.10    0.00   0.10  14.40
sde               0.00     0.00 1499.00    0.00  5996.00     0.00     8.00     0.16    0.11    0.11    0.00   0.11  15.80
sdf               0.00     0.00 1385.00    0.00  5540.00     0.00     8.00     0.14    0.10    0.10    0.00   0.10  14.50
sdg               0.00     0.00    0.00    0.00     0.00     0.00     0.00     0.00    0.00    0.00    0.00   0.00   0.00
sdh               0.00     0.00    0.00    0.00     0.00     0.00     0.00     0.00    0.00    0.00    0.00   0.00   0.00
md0               0.00     0.00 8684.00    0.00 34736.00     0.00     8.00     0.00    0.00    0.00    0.00   0.00   0.00

avg-cpu:  %user   %nice %system %iowait  %steal   %idle
           0.00    0.00    1.54    0.77    0.00   97.69

Device:         rrqm/s   wrqm/s     r/s     w/s    rkB/s    wkB/s avgrq-sz avgqu-sz   await r_await w_await  svctm  %util
sda               0.00     0.00 1388.00    0.00  5552.00     0.00     8.00     0.14    0.10    0.10    0.00   0.10  13.90
sdb               0.00     0.00 1540.00    0.00  6160.00     0.00     8.00     0.15    0.10    0.10    0.00   0.10  14.80
sdc               0.00     0.00 1473.00    0.00  5892.00     0.00     8.00     0.15    0.10    0.10    0.00   0.10  15.10
sdd               0.00     0.00 1472.00    0.00  5888.00     0.00     8.00     0.16    0.11    0.11    0.00   0.11  15.60
sde               0.00     0.00 1424.00    0.00  5696.00     0.00     8.00     0.15    0.10    0.10    0.00   0.10  14.60
sdf               0.00     0.00 1397.00    0.00  5588.00     0.00     8.00     0.15    0.11    0.11    0.00   0.11  15.50
sdg               0.00     0.00    0.00    0.00     0.00     0.00     0.00     0.00    0.00    0.00    0.00   0.00   0.00
sdh               0.00     0.00    0.00    0.00     0.00     0.00     0.00     0.00    0.00    0.00    0.00   0.00   0.00
md0               0.00     0.00 8693.00    0.00 34772.00     0.00     8.00     0.00    0.00    0.00    0.00   0.00   0.00

avg-cpu:  %user   %nice %system %iowait  %steal   %idle
           0.26    0.00    1.54    0.77    0.00   97.44

Device:         rrqm/s   wrqm/s     r/s     w/s    rkB/s    wkB/s avgrq-sz avgqu-sz   await r_await w_await  svctm  %util
sda               0.00     0.00 1517.00    0.00  6068.00     0.00     8.00     0.16    0.10    0.10    0.00   0.10  15.80
sdb               0.00     0.00 1391.00    0.00  5564.00     0.00     8.00     0.13    0.09    0.09    0.00   0.09  13.20
sdc               0.00     0.00 1344.00    0.00  5376.00     0.00     8.00     0.15    0.11    0.11    0.00   0.11  14.70
sdd               0.00     0.00 1409.00    0.00  5636.00     0.00     8.00     0.15    0.11    0.11    0.00   0.11  15.20
sde               0.00     0.00 1568.00    0.00  6272.00     0.00     8.00     0.16    0.10    0.10    0.00   0.10  16.40
sdf               0.00     0.00 1411.00    0.00  5644.00     0.00     8.00     0.15    0.11    0.11    0.00   0.11  15.00
sdg               0.00     0.00    0.00    0.00     0.00     0.00     0.00     0.00    0.00    0.00    0.00   0.00   0.00
sdh               0.00     0.00    0.00    0.00     0.00     0.00     0.00     0.00    0.00    0.00    0.00   0.00   0.00
md0               0.00     0.00 8640.00    0.00 34560.00     0.00     8.00     0.00    0.00    0.00    0.00   0.00   0.00

avg-cpu:  %user   %nice %system %iowait  %steal   %idle
           0.25    0.00    1.78    1.02    0.00   96.95

Device:         rrqm/s   wrqm/s     r/s     w/s    rkB/s    wkB/s avgrq-sz avgqu-sz   await r_await w_await  svctm  %util
sda               0.00     0.00 1471.00    0.00  5884.00     0.00     8.00     0.15    0.10    0.10    0.00   0.10  14.90
sdb               0.00     0.00 1416.00    0.00  5664.00     0.00     8.00     0.14    0.10    0.10    0.00   0.10  14.20
sdc               0.00     0.00 1486.00    0.00  5944.00     0.00     8.00     0.15    0.10    0.10    0.00   0.10  15.40
sdd               0.00     0.00 1503.00    0.00  6012.00     0.00     8.00     0.15    0.10    0.10    0.00   0.10  15.10
sde               0.00     0.00 1519.00    0.00  6076.00     0.00     8.00     0.17    0.11    0.11    0.00   0.11  16.50
sdf               0.00     0.00 1463.00    0.00  5852.00     0.00     8.00     0.16    0.11    0.11    0.00   0.11  15.70
sdg               0.00     1.00    1.00    5.00     4.00    48.00    17.33     0.00    0.00    0.00    0.00   0.00   0.00
sdh               0.00     0.00    0.00    0.00     0.00     0.00     0.00     0.00    0.00    0.00    0.00   0.00   0.00
md0               0.00     0.00 8858.00    0.00 35432.00     0.00     8.00     0.00    0.00    0.00    0.00   0.00   0.00

avg-cpu:  %user   %nice %system %iowait  %steal   %idle
           0.26    0.00    1.79    0.77    0.00   97.18

Device:         rrqm/s   wrqm/s     r/s     w/s    rkB/s    wkB/s avgrq-sz avgqu-sz   await r_await w_await  svctm  %util
sda               0.00     0.00 1399.00    0.00  5596.00     0.00     8.00     0.13    0.10    0.10    0.00   0.10  13.30
sdb               0.00     0.00 1451.00    0.00  5804.00     0.00     8.00     0.15    0.10    0.10    0.00   0.10  15.10
sdc               0.00     0.00 1416.00    0.00  5664.00     0.00     8.00     0.15    0.10    0.10    0.00   0.10  14.70
sdd               0.00     0.00 1387.00    0.00  5548.00     0.00     8.00     0.15    0.11    0.11    0.00   0.11  14.90
sde               0.00     0.00 1572.00    0.00  6288.00     0.00     8.00     0.17    0.11    0.11    0.00   0.11  17.10
sdf               0.00     0.00 1501.00    0.00  6004.00     0.00     8.00     0.15    0.10    0.10    0.00   0.10  14.80
sdg               0.00     0.00    2.00    0.00     8.00     0.00     8.00     0.00    0.50    0.50    0.00   0.50   0.10
sdh               0.00     0.00    0.00    0.00     0.00     0.00     0.00     0.00    0.00    0.00    0.00   0.00   0.00
md0               0.00     0.00 8727.00    0.00 34908.00     0.00     8.00     0.00    0.00    0.00    0.00   0.00   0.00

avg-cpu:  %user   %nice %system %iowait  %steal   %idle
           0.00    0.00    1.53    1.02    0.00   97.44

Device:         rrqm/s   wrqm/s     r/s     w/s    rkB/s    wkB/s avgrq-sz avgqu-sz   await r_await w_await  svctm  %util
sda               0.00     0.00 1503.00    0.00  6012.00     0.00     8.00     0.15    0.10    0.10    0.00   0.10  14.60
sdb               0.00     0.00 1395.00    0.00  5580.00     0.00     8.00     0.14    0.10    0.10    0.00   0.10  14.00
sdc               0.00     0.00 1424.00    0.00  5696.00     0.00     8.00     0.15    0.11    0.11    0.00   0.11  15.30
sdd               0.00     0.00 1427.00    0.00  5708.00     0.00     8.00     0.15    0.11    0.11    0.00   0.11  15.40
sde               0.00     0.00 1520.00    0.00  6080.00     0.00     8.00     0.16    0.10    0.10    0.00   0.10  15.70
sdf               0.00     0.00 1461.00    0.00  5844.00     0.00     8.00     0.17    0.11    0.11    0.00   0.11  16.50
sdg               0.00     0.00    0.00    0.00     0.00     0.00     0.00     0.00    0.00    0.00    0.00   0.00   0.00
sdh               0.00     0.00    0.00    0.00     0.00     0.00     0.00     0.00    0.00    0.00    0.00   0.00   0.00
md0               0.00     0.00 8730.00    0.00 34920.00     0.00     8.00     0.00    0.00    0.00    0.00   0.00   0.00

avg-cpu:  %user   %nice %system %iowait  %steal   %idle
           0.25    0.00    2.27   19.19    0.00   78.28

Device:         rrqm/s   wrqm/s     r/s     w/s    rkB/s    wkB/s avgrq-sz avgqu-sz   await r_await w_await  svctm  %util
sda               0.00     0.00 1399.00    0.00  5596.00     0.00     8.00     0.15    0.11    0.11    0.00   0.11  14.90
sdb               0.00     0.00 1358.00    0.00  5432.00     0.00     8.00     0.14    0.11    0.11    0.00   0.11  14.40
sdc               0.00     0.00 1311.00    0.00  5244.00     0.00     8.00     0.14    0.11    0.11    0.00   0.11  14.00
sdd               0.00     0.00 1413.00    0.00  5652.00     0.00     8.00     0.16    0.11    0.11    0.00   0.11  15.60
sde               0.00     0.00 1453.00    0.00  5812.00     0.00     8.00     0.16    0.11    0.11    0.00   0.11  15.70
sdf               0.00     0.00 1504.00    0.00  6016.00     0.00     8.00     0.17    0.11    0.11    0.00   0.11  17.00
sdg               0.00     0.00    0.00    0.00     0.00     0.00     0.00     0.00    0.00    0.00    0.00   0.00   0.00
sdh               0.00     0.00    0.00    0.00     0.00     0.00     0.00     0.00    0.00    0.00    0.00   0.00   0.00
md0               0.00     0.00 8437.00    0.00 33748.00     0.00     8.00     0.00    0.00    0.00    0.00   0.00   0.00

avg-cpu:  %user   %nice %system %iowait  %steal   %idle
           0.26    0.00    2.04    0.51    0.00   97.19

Device:         rrqm/s   wrqm/s     r/s     w/s    rkB/s    wkB/s avgrq-sz avgqu-sz   await r_await w_await  svctm  %util
sda               0.00     0.00 1508.00    0.00  6032.00     0.00     8.00     0.15    0.10    0.10    0.00   0.10  15.50
sdb               0.00     0.00 1451.00    0.00  5804.00     0.00     8.00     0.14    0.10    0.10    0.00   0.10  14.30
sdc               0.00     0.00 1442.00    0.00  5768.00     0.00     8.00     0.14    0.10    0.10    0.00   0.10  14.50
sdd               0.00     0.00 1442.00    0.00  5768.00     0.00     8.00     0.16    0.11    0.11    0.00   0.11  15.90
sde               0.00     0.00 1420.00    0.00  5680.00     0.00     8.00     0.14    0.10    0.10    0.00   0.10  14.50
sdf               0.00     0.00 1447.00    0.00  5788.00     0.00     8.00     0.15    0.10    0.10    0.00   0.10  15.10
sdg               0.00     0.00    0.00    0.00     0.00     0.00     0.00     0.00    0.00    0.00    0.00   0.00   0.00
sdh               0.00     0.00    0.00    0.00     0.00     0.00     0.00     0.00    0.00    0.00    0.00   0.00   0.00
md0               0.00     0.00 8711.00    0.00 34844.00     0.00     8.00     0.00    0.00    0.00    0.00   0.00   0.00

avg-cpu:  %user   %nice %system %iowait  %steal   %idle
           0.26    0.00    1.53    1.02    0.00   97.19

Device:         rrqm/s   wrqm/s     r/s     w/s    rkB/s    wkB/s avgrq-sz avgqu-sz   await r_await w_await  svctm  %util
sda               0.00     0.00 1359.00    0.00  5436.00     0.00     8.00     0.14    0.10    0.10    0.00   0.10  14.20
sdb               0.00     0.00 1468.00    0.00  5872.00     0.00     8.00     0.14    0.10    0.10    0.00   0.10  14.20
sdc               0.00     0.00 1480.00    0.00  5920.00     0.00     8.00     0.15    0.10    0.10    0.00   0.10  15.10
sdd               0.00     0.00 1470.00    0.00  5880.00     0.00     8.00     0.16    0.11    0.11    0.00   0.11  16.20
sde               0.00     0.00 1403.00    0.00  5612.00     0.00     8.00     0.15    0.11    0.11    0.00   0.11  15.50
sdf               0.00     0.00 1492.00    0.00  5968.00     0.00     8.00     0.16    0.10    0.10    0.00   0.10  15.60
sdg               0.00     0.00    0.00    0.00     0.00     0.00     0.00     0.00    0.00    0.00    0.00   0.00   0.00
sdh               0.00     0.00    0.00    0.00     0.00     0.00     0.00     0.00    0.00    0.00    0.00   0.00   0.00
md0               0.00     0.00 8671.00    0.00 34684.00     0.00     8.00     0.00    0.00    0.00    0.00   0.00   0.00

avg-cpu:  %user   %nice %system %iowait  %steal   %idle
           0.00    0.00    1.54    0.77    0.00   97.69

Device:         rrqm/s   wrqm/s     r/s     w/s    rkB/s    wkB/s avgrq-sz avgqu-sz   await r_await w_await  svctm  %util
sda               0.00     0.00 1404.00    0.00  5616.00     0.00     8.00     0.14    0.10    0.10    0.00   0.10  13.80
sdb               0.00     0.00 1462.00    0.00  5848.00     0.00     8.00     0.15    0.10    0.10    0.00   0.10  14.70
sdc               0.00     0.00 1465.00    0.00  5860.00     0.00     8.00     0.16    0.11    0.11    0.00   0.11  15.90
sdd               0.00     0.00 1461.00    0.00  5844.00     0.00     8.00     0.15    0.10    0.10    0.00   0.10  14.80
sde               0.00     0.00 1490.00    0.00  5960.00     0.00     8.00     0.16    0.11    0.11    0.00   0.11  16.40
sdf               0.00     0.00 1428.00    0.00  5712.00     0.00     8.00     0.16    0.11    0.11    0.00   0.11  16.40
sdg               0.00     0.00    0.00    0.00     0.00     0.00     0.00     0.00    0.00    0.00    0.00   0.00   0.00
sdh               0.00     0.00    0.00    0.00     0.00     0.00     0.00     0.00    0.00    0.00    0.00   0.00   0.00
md0               0.00     0.00 8710.00    0.00 34840.00     0.00     8.00     0.00    0.00    0.00    0.00   0.00   0.00

avg-cpu:  %user   %nice %system %iowait  %steal   %idle
           0.26    0.00    1.53    1.02    0.00   97.19

Device:         rrqm/s   wrqm/s     r/s     w/s    rkB/s    wkB/s avgrq-sz avgqu-sz   await r_await w_await  svctm  %util
sda               0.00     0.00 1550.00    0.00  6200.00     0.00     8.00     0.16    0.11    0.11    0.00   0.11  16.30
sdb               0.00     0.00 1356.00    0.00  5424.00     0.00     8.00     0.13    0.10    0.10    0.00   0.10  12.90
sdc               0.00     0.00 1347.00    0.00  5388.00     0.00     8.00     0.14    0.11    0.11    0.00   0.11  14.30
sdd               0.00     0.00 1520.00    0.00  6080.00     0.00     8.00     0.17    0.11    0.11    0.00   0.11  16.80
sde               0.00     0.00 1514.00    0.00  6056.00     0.00     8.00     0.15    0.10    0.10    0.00   0.10  15.50
sdf               0.00     0.00 1455.00    0.00  5820.00     0.00     8.00     0.16    0.11    0.11    0.00   0.11  15.90
sdg               0.00     0.00    0.00    0.00     0.00     0.00     0.00     0.00    0.00    0.00    0.00   0.00   0.00
sdh               0.00     0.00    0.00    0.00     0.00     0.00     0.00     0.00    0.00    0.00    0.00   0.00   0.00
md0               0.00     0.00 8743.00    0.00 34972.00     0.00     8.00     0.00    0.00    0.00    0.00   0.00   0.00

