Linux 4.17.2 (bench) 	08/04/2018 	_x86_64_	(4 CPU)

avg-cpu:  %user   %nice %system %iowait  %steal   %idle
          10.25    0.02    4.28    2.82    0.00   82.64

Device:         rrqm/s   wrqm/s     r/s     w/s    rkB/s    wkB/s avgrq-sz avgqu-sz   await r_await w_await  svctm  %util
sda              57.70     4.14 1758.35  100.08 21458.97  3062.48    26.39     1.05    0.57    0.26    5.92   0.06  11.17
sdb              57.48     4.10 1758.37  100.22 21448.59  3059.23    26.37     1.05    0.57    0.26    5.85   0.06  11.05
sdc              94.98     4.16 1718.79   99.78 21440.92  3061.63    26.95     1.47    0.81    0.44    7.12   0.08  14.55
sdd              88.59     4.13 1724.37   99.85 21426.05  3057.92    26.84     1.48    0.81    0.43    7.33   0.08  14.64
sde              90.54     4.17 1729.38   99.94 21484.63  3062.06    26.84     1.50    0.82    0.44    7.44   0.08  14.66
sdf              87.73     4.15 1731.46   99.89 21466.34  3059.00    26.78     1.54    0.84    0.43    7.90   0.08  14.69
sdg               0.00     3.16   27.10   73.16   326.83   391.73    14.33     0.44    4.38    0.20    5.93   0.08   0.79
sdh               0.00     0.13    0.02    0.23     2.16     4.94    56.82     0.00    1.15    0.65    1.19   0.21   0.01
md0               0.00     0.00 10905.47  468.92 147042.32 20962.19    29.54     0.00    0.00    0.00    0.00   0.00   0.00

avg-cpu:  %user   %nice %system %iowait  %steal   %idle
           1.51    0.00   11.08    5.54    0.00   81.86

Device:         rrqm/s   wrqm/s     r/s     w/s    rkB/s    wkB/s avgrq-sz avgqu-sz   await r_await w_await  svctm  %util
sda               0.00     0.00 4283.00    0.00 17132.00     0.00     8.00     0.56    0.13    0.13    0.00   0.03  14.30
sdb               0.00     0.00 4188.00    0.00 16752.00     0.00     8.00     0.55    0.13    0.13    0.00   0.03  13.60
sdc               0.00     0.00 4134.00    0.00 16536.00     0.00     8.00     0.59    0.14    0.14    0.00   0.04  15.10
sdd               0.00     0.00 4479.00    0.00 17916.00     0.00     8.00     0.67    0.15    0.15    0.00   0.04  16.30
sde               0.00     0.00 4001.00    0.00 16004.00     0.00     8.00     0.61    0.15    0.15    0.00   0.05  18.80
sdf               0.00     0.00 3788.00    0.00 15152.00     0.00     8.00     0.57    0.15    0.15    0.00   0.04  14.80
sdg               0.00     0.00    2.00    0.00    84.00     0.00    84.00     0.00    0.50    0.50    0.00   0.50   0.10
sdh               0.00     0.00    0.00    0.00     0.00     0.00     0.00     0.00    0.00    0.00    0.00   0.00   0.00
md0               0.00     0.00 24873.00    0.00 99492.00     0.00     8.00     0.00    0.00    0.00    0.00   0.00   0.00

avg-cpu:  %user   %nice %system %iowait  %steal   %idle
           1.50    0.00    9.52    7.02    0.00   81.95

Device:         rrqm/s   wrqm/s     r/s     w/s    rkB/s    wkB/s avgrq-sz avgqu-sz   await r_await w_await  svctm  %util
sda               0.00     0.00 4691.00    0.00 18764.00     0.00     8.00     0.57    0.12    0.12    0.00   0.03  13.70
sdb               0.00     0.00 4960.00    0.00 19840.00     0.00     8.00     0.66    0.13    0.13    0.00   0.03  13.80
sdc               0.00     0.00 4965.00    0.00 19860.00     0.00     8.00     0.77    0.15    0.15    0.00   0.03  16.10
sdd               0.00     0.00 4860.00    0.00 19440.00     0.00     8.00     0.67    0.14    0.14    0.00   0.03  16.10
sde               0.00     0.00 5076.00    0.00 20304.00     0.00     8.00     0.84    0.17    0.17    0.00   0.04  22.00
sdf               0.00     0.00 5043.00    0.00 20172.00     0.00     8.00     0.81    0.16    0.16    0.00   0.03  16.70
sdg               0.00     0.00    0.00    0.00     0.00     0.00     0.00     0.00    0.00    0.00    0.00   0.00   0.00
sdh               0.00     0.00    0.00    0.00     0.00     0.00     0.00     0.00    0.00    0.00    0.00   0.00   0.00
md0               0.00     0.00 29602.00    0.00 118408.00     0.00     8.00     0.00    0.00    0.00    0.00   0.00   0.00

avg-cpu:  %user   %nice %system %iowait  %steal   %idle
           0.74    0.00   10.64    5.69    0.00   82.92

Device:         rrqm/s   wrqm/s     r/s     w/s    rkB/s    wkB/s avgrq-sz avgqu-sz   await r_await w_await  svctm  %util
sda               0.00     0.00 5604.00    0.00 22416.00     0.00     8.00     0.79    0.14    0.14    0.00   0.03  15.40
sdb               0.00     0.00 5218.00    0.00 20872.00     0.00     8.00     0.69    0.13    0.13    0.00   0.03  13.90
sdc               0.00     0.00 5434.00    0.00 21736.00     0.00     8.00     0.82    0.15    0.15    0.00   0.03  16.50
sdd               0.00     0.00 5521.00    0.00 22084.00     0.00     8.00     0.84    0.15    0.15    0.00   0.03  16.70
sde               0.00     0.00 5461.00    0.00 21844.00     0.00     8.00     0.91    0.17    0.17    0.00   0.04  21.30
sdf               0.00     0.00 5363.00    0.00 21452.00     0.00     8.00     0.84    0.16    0.16    0.00   0.03  16.50
sdg               0.00     0.00    0.00    0.00     0.00     0.00     0.00     0.00    0.00    0.00    0.00   0.00   0.00
sdh               0.00     0.00    0.00    0.00     0.00     0.00     0.00     0.00    0.00    0.00    0.00   0.00   0.00
md0               0.00     0.00 32597.00    0.00 130388.00     0.00     8.00     0.00    0.00    0.00    0.00   0.00   0.00

avg-cpu:  %user   %nice %system %iowait  %steal   %idle
           0.51    0.00    9.90    5.33    0.00   84.26

Device:         rrqm/s   wrqm/s     r/s     w/s    rkB/s    wkB/s avgrq-sz avgqu-sz   await r_await w_await  svctm  %util
sda               0.00     0.00 5572.00    0.00 22288.00     0.00     8.00     0.74    0.13    0.13    0.00   0.03  15.60
sdb               0.00     0.00 5125.00    0.00 20500.00     0.00     8.00     0.66    0.13    0.13    0.00   0.03  13.30
sdc               0.00     0.00 5557.00    0.00 22228.00     0.00     8.00     0.88    0.16    0.16    0.00   0.03  18.30
sdd               0.00     0.00 5462.00    0.00 21848.00     0.00     8.00     0.87    0.16    0.16    0.00   0.03  17.30
sde               0.00     0.00 5518.00    0.00 22072.00     0.00     8.00     0.95    0.17    0.17    0.00   0.04  20.50
sdf               0.00     0.00 5645.00    0.00 22580.00     0.00     8.00     0.93    0.17    0.17    0.00   0.03  17.60
sdg               0.00     0.00    0.00    0.00     0.00     0.00     0.00     0.00    0.00    0.00    0.00   0.00   0.00
sdh               0.00     0.00    0.00    0.00     0.00     0.00     0.00     0.00    0.00    0.00    0.00   0.00   0.00
md0               0.00     0.00 32882.00    0.00 131528.00     0.00     8.00     0.00    0.00    0.00    0.00   0.00   0.00

avg-cpu:  %user   %nice %system %iowait  %steal   %idle
           1.02    0.00    9.90    4.82    0.00   84.26

Device:         rrqm/s   wrqm/s     r/s     w/s    rkB/s    wkB/s avgrq-sz avgqu-sz   await r_await w_await  svctm  %util
sda               0.00     0.00 5639.00    0.00 22556.00     0.00     8.00     0.74    0.13    0.13    0.00   0.03  15.60
sdb               0.00     0.00 5566.00    0.00 22264.00     0.00     8.00     0.69    0.12    0.12    0.00   0.03  14.30
sdc               0.00     0.00 5718.00    0.00 22872.00     0.00     8.00     0.93    0.16    0.16    0.00   0.03  18.60
sdd               0.00     0.00 5605.00    0.00 22420.00     0.00     8.00     0.86    0.15    0.15    0.00   0.03  17.90
sde               0.00     0.00 5714.00    0.00 22856.00     0.00     8.00     0.89    0.16    0.16    0.00   0.03  18.30
sdf               0.00     0.00 5744.00    0.00 22976.00     0.00     8.00     0.88    0.15    0.15    0.00   0.03  17.20
sdg               0.00     0.00    0.00    0.00     0.00     0.00     0.00     0.00    0.00    0.00    0.00   0.00   0.00
sdh               0.00     0.00    0.00    0.00     0.00     0.00     0.00     0.00    0.00    0.00    0.00   0.00   0.00
md0               0.00     0.00 33994.00    0.00 135976.00     0.00     8.00     0.00    0.00    0.00    0.00   0.00   0.00

avg-cpu:  %user   %nice %system %iowait  %steal   %idle
           1.26    0.00   10.83    4.79    0.00   83.12

Device:         rrqm/s   wrqm/s     r/s     w/s    rkB/s    wkB/s avgrq-sz avgqu-sz   await r_await w_await  svctm  %util
sda               0.00     0.00 5353.00    0.00 21412.00     0.00     8.00     0.76    0.14    0.14    0.00   0.03  15.20
sdb               0.00     0.00 5665.00    0.00 22660.00     0.00     8.00     0.72    0.13    0.13    0.00   0.03  14.90
sdc               0.00     0.00 5826.00    0.00 23304.00     0.00     8.00     0.89    0.15    0.15    0.00   0.03  18.20
sdd               0.00     0.00 5720.00    0.00 22880.00     0.00     8.00     0.84    0.15    0.15    0.00   0.03  17.90
sde               0.00     0.00 5650.00    0.00 22600.00     0.00     8.00     0.86    0.15    0.15    0.00   0.03  17.50
sdf               0.00     0.00 5786.00    0.00 23144.00     0.00     8.00     0.85    0.15    0.15    0.00   0.03  17.00
sdg               0.00     0.00   38.00    0.00   464.00     0.00    24.42     0.01    0.16    0.16    0.00   0.13   0.50
sdh               0.00     0.00    0.00    0.00     0.00     0.00     0.00     0.00    0.00    0.00    0.00   0.00   0.00
md0               0.00     0.00 33994.00    0.00 135976.00     0.00     8.00     0.00    0.00    0.00    0.00   0.00   0.00

avg-cpu:  %user   %nice %system %iowait  %steal   %idle
           0.75    0.00   11.44    5.22    0.00   82.59

Device:         rrqm/s   wrqm/s     r/s     w/s    rkB/s    wkB/s avgrq-sz avgqu-sz   await r_await w_await  svctm  %util
sda               0.00     0.00 5611.00    0.00 22444.00     0.00     8.00     0.72    0.13    0.13    0.00   0.03  15.60
sdb               0.00     0.00 5857.00    0.00 23428.00     0.00     8.00     0.76    0.13    0.13    0.00   0.03  15.50
sdc               0.00     0.00 5617.00    0.00 22468.00     0.00     8.00     0.86    0.15    0.15    0.00   0.03  17.20
sdd               0.00     0.00 5811.00    0.00 23244.00     0.00     8.00     0.88    0.15    0.15    0.00   0.03  17.60
sde               0.00     0.00 5583.00    0.00 22332.00     0.00     8.00     0.83    0.15    0.15    0.00   0.03  17.50
sdf               0.00     0.00 5459.00    0.00 21836.00     0.00     8.00     0.84    0.15    0.15    0.00   0.03  17.20
sdg               0.00     0.00    0.00    0.00     0.00     0.00     0.00     0.00    0.00    0.00    0.00   0.00   0.00
sdh               0.00     0.00    0.00    0.00     0.00     0.00     0.00     0.00    0.00    0.00    0.00   0.00   0.00
md0               0.00     0.00 33938.00    0.00 135752.00     0.00     8.00     0.00    0.00    0.00    0.00   0.00   0.00

avg-cpu:  %user   %nice %system %iowait  %steal   %idle
           2.00    0.00   12.50    4.50    0.00   81.00

Device:         rrqm/s   wrqm/s     r/s     w/s    rkB/s    wkB/s avgrq-sz avgqu-sz   await r_await w_await  svctm  %util
sda               0.00     0.00 4098.00    0.00 16392.00     0.00     8.00     0.50    0.12    0.12    0.00   0.04  14.40
sdb               0.00     0.00 4163.00    0.00 16652.00     0.00     8.00     0.52    0.13    0.13    0.00   0.03  13.70
sdc               0.00     0.00 4059.00    0.00 16236.00     0.00     8.00     0.58    0.14    0.14    0.00   0.04  15.10
sdd               0.00     0.00 4082.00    0.00 16328.00     0.00     8.00     0.56    0.14    0.14    0.00   0.04  15.70
sde               0.00     0.00 4166.00    0.00 16664.00     0.00     8.00     0.58    0.14    0.14    0.00   0.04  14.90
sdf               0.00     0.00 4274.00    0.00 17096.00     0.00     8.00     0.59    0.14    0.14    0.00   0.04  16.00
sdg               0.00     0.00    0.00    0.00     0.00     0.00     0.00     0.00    0.00    0.00    0.00   0.00   0.00
sdh               0.00     0.00    0.00    0.00     0.00     0.00     0.00     0.00    0.00    0.00    0.00   0.00   0.00
md0               0.00     0.00 24841.00    0.00 99364.00     0.00     8.00     0.00    0.00    0.00    0.00   0.00   0.00

avg-cpu:  %user   %nice %system %iowait  %steal   %idle
           1.75    0.00   12.25    4.75    0.00   81.25

Device:         rrqm/s   wrqm/s     r/s     w/s    rkB/s    wkB/s avgrq-sz avgqu-sz   await r_await w_await  svctm  %util
sda               0.00     0.00 4099.00    0.00 16396.00     0.00     8.00     0.48    0.12    0.12    0.00   0.03  14.00
sdb               0.00     0.00 4345.00    0.00 17380.00     0.00     8.00     0.53    0.12    0.12    0.00   0.03  14.00
sdc               0.00     0.00 4188.00    0.00 16752.00     0.00     8.00     0.57    0.14    0.14    0.00   0.04  15.60
sdd               0.00     0.00 4155.00    0.00 16620.00     0.00     8.00     0.54    0.13    0.13    0.00   0.04  16.30
sde               0.00     0.00 4184.00    0.00 16736.00     0.00     8.00     0.59    0.14    0.14    0.00   0.04  16.80
sdf               0.00     0.00 4155.00    0.00 16620.00     0.00     8.00     0.59    0.14    0.14    0.00   0.04  15.40
sdg               0.00     3.00    9.00    5.00    36.00    56.00    13.14     0.00    0.29    0.22    0.40   0.14   0.20
sdh               0.00     0.00    0.00    0.00     0.00     0.00     0.00     0.00    0.00    0.00    0.00   0.00   0.00
md0               0.00     0.00 25124.00    0.00 100496.00     0.00     8.00     0.00    0.00    0.00    0.00   0.00   0.00

avg-cpu:  %user   %nice %system %iowait  %steal   %idle
           1.75    0.00   11.97    4.49    0.00   81.80

Device:         rrqm/s   wrqm/s     r/s     w/s    rkB/s    wkB/s avgrq-sz avgqu-sz   await r_await w_await  svctm  %util
sda               0.00     0.00 4313.00    0.00 17252.00     0.00     8.00     0.55    0.13    0.13    0.00   0.03  14.10
sdb               0.00     0.00 4342.00    0.00 17368.00     0.00     8.00     0.56    0.13    0.13    0.00   0.04  15.30
sdc               0.00     0.00 4341.00    0.00 17364.00     0.00     8.00     0.64    0.15    0.15    0.00   0.04  16.60
sdd               0.00     0.00 4252.00    0.00 17008.00     0.00     8.00     0.61    0.14    0.14    0.00   0.04  16.00
sde               0.00     0.00 4357.00    0.00 17428.00     0.00     8.00     0.63    0.14    0.14    0.00   0.04  17.40
sdf               0.00     0.00 4249.00    0.00 16996.00     0.00     8.00     0.60    0.14    0.14    0.00   0.04  15.40
sdg               0.00     0.00    0.00    0.00     0.00     0.00     0.00     0.00    0.00    0.00    0.00   0.00   0.00
sdh               0.00     0.00    0.00    0.00     0.00     0.00     0.00     0.00    0.00    0.00    0.00   0.00   0.00
md0               0.00     0.00 25862.00    0.00 103448.00     0.00     8.00     0.00    0.00    0.00    0.00   0.00   0.00

avg-cpu:  %user   %nice %system %iowait  %steal   %idle
           1.28    0.00   10.71    4.59    0.00   83.42

Device:         rrqm/s   wrqm/s     r/s     w/s    rkB/s    wkB/s avgrq-sz avgqu-sz   await r_await w_await  svctm  %util
sda               0.00     0.00 4445.00    0.00 17780.00     0.00     8.00     0.52    0.12    0.12    0.00   0.03  15.30
sdb               0.00     0.00 4433.00    0.00 17732.00     0.00     8.00     0.63    0.14    0.14    0.00   0.03  15.40
sdc               0.00     0.00 4244.00    0.00 16976.00     0.00     8.00     0.63    0.15    0.15    0.00   0.04  16.30
sdd               0.00     0.00 4237.00    0.00 16948.00     0.00     8.00     0.59    0.14    0.14    0.00   0.04  15.20
sde               0.00     0.00 4392.00    0.00 17568.00     0.00     8.00     0.62    0.14    0.14    0.00   0.04  17.30
sdf               0.00     0.00 4104.00    0.00 16416.00     0.00     8.00     0.63    0.15    0.15    0.00   0.04  16.00
sdg               0.00     0.00    0.00    0.00     0.00     0.00     0.00     0.00    0.00    0.00    0.00   0.00   0.00
sdh               0.00     0.00    0.00    0.00     0.00     0.00     0.00     0.00    0.00    0.00    0.00   0.00   0.00
md0               0.00     0.00 25847.00    0.00 103388.00     0.00     8.00     0.00    0.00    0.00    0.00   0.00   0.00

avg-cpu:  %user   %nice %system %iowait  %steal   %idle
           1.53    0.00    9.97    5.12    0.00   83.38

Device:         rrqm/s   wrqm/s     r/s     w/s    rkB/s    wkB/s avgrq-sz avgqu-sz   await r_await w_await  svctm  %util
sda               0.00     0.00 4136.00    0.00 16544.00     0.00     8.00     0.55    0.13    0.13    0.00   0.03  14.30
sdb               0.00     0.00 4174.00    0.00 16696.00     0.00     8.00     0.51    0.12    0.12    0.00   0.03  13.80
sdc               0.00     0.00 4331.00    0.00 17324.00     0.00     8.00     0.63    0.15    0.15    0.00   0.04  16.50
sdd               0.00     0.00 3921.00    0.00 15684.00     0.00     8.00     0.57    0.14    0.14    0.00   0.04  15.30
sde               0.00     0.00 4376.00    0.00 17504.00     0.00     8.00     0.62    0.14    0.14    0.00   0.04  17.10
sdf               0.00     0.00 4460.00    0.00 17840.00     0.00     8.00     0.62    0.14    0.14    0.00   0.04  17.00
sdg               0.00     0.00    0.00    0.00     0.00     0.00     0.00     0.00    0.00    0.00    0.00   0.00   0.00
sdh               0.00     0.00    0.00    0.00     0.00     0.00     0.00     0.00    0.00    0.00    0.00   0.00   0.00
md0               0.00     0.00 25393.00    0.00 101572.00     0.00     8.00     0.00    0.00    0.00    0.00   0.00   0.00

avg-cpu:  %user   %nice %system %iowait  %steal   %idle
           3.06    0.00   13.78    4.34    0.00   78.83

Device:         rrqm/s   wrqm/s     r/s     w/s    rkB/s    wkB/s avgrq-sz avgqu-sz   await r_await w_await  svctm  %util
sda               0.00     0.00 2809.00    0.00 11236.00     0.00     8.00     0.28    0.10    0.10    0.00   0.04  10.70
sdb               0.00     0.00 3056.00    0.00 12224.00     0.00     8.00     0.35    0.11    0.11    0.00   0.04  12.10
sdc               0.00     0.00 2878.00    0.00 11512.00     0.00     8.00     0.37    0.13    0.13    0.00   0.05  14.30
sdd               0.00     0.00 2813.00    0.00 11252.00     0.00     8.00     0.37    0.13    0.13    0.00   0.05  12.70
sde               0.00     0.00 3040.00    0.00 12160.00     0.00     8.00     0.42    0.14    0.14    0.00   0.05  14.30
sdf               0.00     0.00 3129.00    0.00 12516.00     0.00     8.00     0.46    0.15    0.15    0.00   0.05  15.80
sdg               0.00     0.00    0.00    0.00     0.00     0.00     0.00     0.00    0.00    0.00    0.00   0.00   0.00
sdh               0.00     0.00    0.00    0.00     0.00     0.00     0.00     0.00    0.00    0.00    0.00   0.00   0.00
md0               0.00     0.00 17725.00    0.00 70900.00     0.00     8.00     0.00    0.00    0.00    0.00   0.00   0.00

avg-cpu:  %user   %nice %system %iowait  %steal   %idle
           2.81    0.00   11.99    4.59    0.00   80.61

Device:         rrqm/s   wrqm/s     r/s     w/s    rkB/s    wkB/s avgrq-sz avgqu-sz   await r_await w_await  svctm  %util
sda               0.00     0.00 3233.00    0.00 12932.00     0.00     8.00     0.43    0.13    0.13    0.00   0.04  13.70
sdb               0.00     0.00 3534.00    0.00 14136.00     0.00     8.00     0.43    0.12    0.12    0.00   0.04  14.10
sdc               0.00     0.00 3372.00    0.00 13488.00     0.00     8.00     0.43    0.13    0.13    0.00   0.04  14.80
sdd               0.00     0.00 3408.00    0.00 13632.00     0.00     8.00     0.42    0.12    0.12    0.00   0.04  14.50
sde               0.00     0.00 3149.00    0.00 12596.00     0.00     8.00     0.40    0.13    0.13    0.00   0.05  14.60
sdf               0.00     0.00 3340.00    0.00 13360.00     0.00     8.00     0.42    0.13    0.13    0.00   0.04  14.00
sdg               0.00     1.00    0.00    1.00     0.00    20.00    40.00     0.00    0.00    0.00    0.00   0.00   0.00
sdh               0.00     0.00    0.00    0.00     0.00     0.00     0.00     0.00    0.00    0.00    0.00   0.00   0.00
md0               0.00     0.00 20039.00    0.00 80156.00     0.00     8.00     0.00    0.00    0.00    0.00   0.00   0.00

avg-cpu:  %user   %nice %system %iowait  %steal   %idle
           2.78    0.00   13.38    4.80    0.00   79.04

Device:         rrqm/s   wrqm/s     r/s     w/s    rkB/s    wkB/s avgrq-sz avgqu-sz   await r_await w_await  svctm  %util
sda               0.00     0.00 3415.00    0.00 13660.00     0.00     8.00     0.40    0.12    0.12    0.00   0.04  13.20
sdb               0.00     0.00 3206.00    0.00 12824.00     0.00     8.00     0.40    0.12    0.12    0.00   0.04  13.00
sdc               0.00     0.00 3213.00    0.00 12852.00     0.00     8.00     0.37    0.12    0.12    0.00   0.04  14.00
sdd               0.00     0.00 3392.00    0.00 13568.00     0.00     8.00     0.50    0.15    0.15    0.00   0.04  14.80
sde               0.00     0.00 3032.00    0.00 12128.00     0.00     8.00     0.42    0.14    0.14    0.00   0.05  13.90
sdf               0.00     0.00 3305.00    0.00 13220.00     0.00     8.00     0.44    0.13    0.13    0.00   0.04  14.30
sdg               0.00     0.00    0.00    0.00     0.00     0.00     0.00     0.00    0.00    0.00    0.00   0.00   0.00
sdh               0.00     0.00    0.00    0.00     0.00     0.00     0.00     0.00    0.00    0.00    0.00   0.00   0.00
md0               0.00     0.00 19560.00    0.00 78240.00     0.00     8.00     0.00    0.00    0.00    0.00   0.00   0.00

avg-cpu:  %user   %nice %system %iowait  %steal   %idle
           3.35    0.26   16.75    4.12    0.00   75.52

Device:         rrqm/s   wrqm/s     r/s     w/s    rkB/s    wkB/s avgrq-sz avgqu-sz   await r_await w_await  svctm  %util
sda               0.00     0.00 2379.00    0.00  9516.00     0.00     8.00     0.28    0.12    0.12    0.00   0.05  11.80
sdb               0.00     0.00 2449.00    0.00  9796.00     0.00     8.00     0.28    0.11    0.11    0.00   0.05  11.50
sdc               0.00     0.00 2342.00    0.00  9368.00     0.00     8.00     0.30    0.13    0.13    0.00   0.06  13.00
sdd               0.00     0.00 2426.00    0.00  9704.00     0.00     8.00     0.30    0.13    0.13    0.00   0.05  12.80
sde               0.00     0.00 2267.00    0.00  9068.00     0.00     8.00     0.32    0.14    0.14    0.00   0.05  11.70
sdf               0.00     0.00 2441.00    0.00  9764.00     0.00     8.00     0.34    0.14    0.14    0.00   0.05  12.40
sdg               0.00     0.00    0.00    0.00     0.00     0.00     0.00     0.00    0.00    0.00    0.00   0.00   0.00
sdh               0.00     0.00    0.00    0.00     0.00     0.00     0.00     0.00    0.00    0.00    0.00   0.00   0.00
md0               0.00     0.00 14304.00    0.00 57216.00     0.00     8.00     0.00    0.00    0.00    0.00   0.00   0.00

avg-cpu:  %user   %nice %system %iowait  %steal   %idle
           4.36    0.00   17.95    3.85    0.00   73.85

Device:         rrqm/s   wrqm/s     r/s     w/s    rkB/s    wkB/s avgrq-sz avgqu-sz   await r_await w_await  svctm  %util
sda               0.00     0.00 2332.00    0.00  9328.00     0.00     8.00     0.30    0.13    0.13    0.00   0.05  11.90
sdb               0.00     0.00 2292.00    0.00  9168.00     0.00     8.00     0.24    0.10    0.10    0.00   0.04   9.60
sdc               0.00     0.00 2332.00    0.00  9328.00     0.00     8.00     0.27    0.11    0.11    0.00   0.05  11.30
sdd               0.00     0.00 2365.00    0.00  9460.00     0.00     8.00     0.31    0.13    0.13    0.00   0.05  11.30
sde               0.00     0.00 2445.00    0.00  9780.00     0.00     8.00     0.31    0.13    0.13    0.00   0.06  13.70
sdf               0.00     0.00 2050.00    0.00  8200.00     0.00     8.00     0.24    0.12    0.12    0.00   0.05   9.60
sdg               0.00     0.00    0.00    0.00     0.00     0.00     0.00     0.00    0.00    0.00    0.00   0.00   0.00
sdh               0.00     0.00    0.00    0.00     0.00     0.00     0.00     0.00    0.00    0.00    0.00   0.00   0.00
md0               0.00     0.00 13816.00    0.00 55264.00     0.00     8.00     0.00    0.00    0.00    0.00   0.00   0.00

avg-cpu:  %user   %nice %system %iowait  %steal   %idle
           5.58    0.00   21.57    3.30    0.00   69.54

Device:         rrqm/s   wrqm/s     r/s     w/s    rkB/s    wkB/s avgrq-sz avgqu-sz   await r_await w_await  svctm  %util
sda               0.00     0.00 1934.00    0.00  7736.00     0.00     8.00     0.24    0.12    0.12    0.00   0.06  11.70
sdb               0.00     0.00 1877.00    0.00  7508.00     0.00     8.00     0.19    0.10    0.10    0.00   0.04   8.20
sdc               0.00     0.00 1801.00    0.00  7204.00     0.00     8.00     0.22    0.12    0.12    0.00   0.06  10.30
sdd               0.00     0.00 1849.00    0.00  7396.00     0.00     8.00     0.23    0.12    0.12    0.00   0.06  10.70
sde               0.00     0.00 1701.00    0.00  6804.00     0.00     8.00     0.21    0.13    0.13    0.00   0.06   9.80
sdf               0.00     0.00 1819.00    0.00  7276.00     0.00     8.00     0.25    0.14    0.14    0.00   0.06  10.70
sdg               0.00     0.00    0.00    0.00     0.00     0.00     0.00     0.00    0.00    0.00    0.00   0.00   0.00
sdh               0.00     0.00    0.00    0.00     0.00     0.00     0.00     0.00    0.00    0.00    0.00   0.00   0.00
md0               0.00     0.00 10983.00    0.00 43932.00     0.00     8.00     0.00    0.00    0.00    0.00   0.00   0.00

avg-cpu:  %user   %nice %system %iowait  %steal   %idle
           7.31    0.00   26.63    2.61    0.00   63.45

Device:         rrqm/s   wrqm/s     r/s     w/s    rkB/s    wkB/s avgrq-sz avgqu-sz   await r_await w_await  svctm  %util
sda               0.00     0.00 1310.00    0.00  5240.00     0.00     8.00     0.15    0.12    0.12    0.00   0.05   6.80
sdb               0.00     0.00 1218.00    0.00  4872.00     0.00     8.00     0.14    0.11    0.11    0.00   0.06   7.00
sdc               0.00     0.00 1292.00    0.00  5168.00     0.00     8.00     0.13    0.10    0.10    0.00   0.06   7.80
sdd               0.00     0.00 1240.00    0.00  4960.00     0.00     8.00     0.17    0.14    0.14    0.00   0.07   9.10
sde               0.00     0.00 1255.00    0.00  5020.00     0.00     8.00     0.14    0.11    0.11    0.00   0.06   7.50
sdf               0.00     0.00 1213.00    0.00  4852.00     0.00     8.00     0.17    0.14    0.14    0.00   0.06   7.50
sdg               0.00     0.00    0.00    0.00     0.00     0.00     0.00     0.00    0.00    0.00    0.00   0.00   0.00
sdh               0.00     0.00    0.00    0.00     0.00     0.00     0.00     0.00    0.00    0.00    0.00   0.00   0.00
md0               0.00     0.00 7526.00    0.00 30104.00     0.00     8.00     0.00    0.00    0.00    0.00   0.00   0.00

avg-cpu:  %user   %nice %system %iowait  %steal   %idle
           9.04    0.00   35.66    1.55    0.00   53.75

Device:         rrqm/s   wrqm/s     r/s     w/s    rkB/s    wkB/s avgrq-sz avgqu-sz   await r_await w_await  svctm  %util
sda               0.00     0.00  643.00    0.00  2572.00     0.00     8.00     0.06    0.10    0.10    0.00   0.06   3.70
sdb               0.00     0.00  706.00    0.00  2824.00     0.00     8.00     0.10    0.14    0.14    0.00   0.07   5.20
sdc               0.00     0.00  663.00    0.00  2652.00     0.00     8.00     0.08    0.12    0.12    0.00   0.08   5.00
sdd               0.00     0.00  608.00    0.00  2432.00     0.00     8.00     0.07    0.11    0.11    0.00   0.07   4.10
sde               0.00     0.00  629.00    0.00  2516.00     0.00     8.00     0.07    0.12    0.12    0.00   0.07   4.20
sdf               0.00     0.00  674.00    0.00  2696.00     0.00     8.00     0.05    0.08    0.08    0.00   0.05   3.10
sdg               0.00     0.00    0.00    0.00     0.00     0.00     0.00     0.00    0.00    0.00    0.00   0.00   0.00
sdh               0.00     0.00    0.00    0.00     0.00     0.00     0.00     0.00    0.00    0.00    0.00   0.00   0.00
md0               0.00     0.00 3923.00    0.00 15692.00     0.00     8.00     0.00    0.00    0.00    0.00   0.00   0.00

