Linux 4.17.2 (bench) 	08/04/2018 	_x86_64_	(4 CPU)

avg-cpu:  %user   %nice %system %iowait  %steal   %idle
          10.25    0.02    4.33    2.86    0.00   82.55

Device:         rrqm/s   wrqm/s     r/s     w/s    rkB/s    wkB/s avgrq-sz avgqu-sz   await r_await w_await  svctm  %util
sda              58.83     4.12 1767.07   99.57 21444.81  3046.79    26.24     1.05    0.56    0.26    5.92   0.06  11.20
sdb              58.62     4.08 1767.09   99.70 21434.46  3043.55    26.22     1.05    0.56    0.26    5.85   0.06  11.08
sdc              95.93     4.14 1727.70   99.27 21426.84  3045.94    26.79     1.47    0.80    0.44    7.12   0.08  14.57
sdd              89.57     4.11 1733.24   99.34 21412.04  3042.25    26.69     1.48    0.81    0.43    7.33   0.08  14.67
sde              91.52     4.15 1738.21   99.43 21470.21  3046.37    26.68     1.50    0.81    0.44    7.44   0.08  14.69
sdf              88.71     4.13 1740.28   99.38 21452.00  3043.33    26.63     1.54    0.84    0.43    7.90   0.08  14.72
sdg               0.00     3.15   27.19   73.10   326.95   391.49    14.33     0.44    4.37    0.20    5.93   0.08   0.79
sdh               0.00     0.12    0.02    0.23     2.15     4.92    56.82     0.00    1.15    0.65    1.19   0.21   0.01
md0               0.00     0.00 10964.55  466.52 146894.72 20854.77    29.35     0.00    0.00    0.00    0.00   0.00   0.00

avg-cpu:  %user   %nice %system %iowait  %steal   %idle
           0.50    0.00    3.02    3.02    0.00   93.45

Device:         rrqm/s   wrqm/s     r/s     w/s    rkB/s    wkB/s avgrq-sz avgqu-sz   await r_await w_await  svctm  %util
sda               1.00     0.00 1044.00    0.00 18392.00     0.00    35.23     0.18    0.18    0.18    0.00   0.15  15.30
sdb               1.00     0.00 1032.00    0.00 16696.00     0.00    32.36     0.17    0.16    0.16    0.00   0.13  13.70
sdc               1.00     0.00 1016.00    0.00 17796.00     0.00    35.03     0.20    0.20    0.20    0.00   0.16  16.10
sdd               1.00     0.00 1055.00    0.00 18736.00     0.00    35.52     0.24    0.22    0.22    0.00   0.18  19.20
sde               2.00     0.00 1057.00    0.00 20880.00     0.00    39.51     0.23    0.22    0.22    0.00   0.17  17.60
sdf               3.00     0.00 1052.00    0.00 19532.00     0.00    37.13     0.22    0.21    0.21    0.00   0.17  17.40
sdg               0.00     0.00    3.00    0.00    88.00     0.00    58.67     0.00    0.33    0.33    0.00   0.33   0.10
sdh               0.00     0.00    0.00    0.00     0.00     0.00     0.00     0.00    0.00    0.00    0.00   0.00   0.00
md0               0.00     0.00 6267.00    0.00 125388.00     0.00    40.02     0.00    0.00    0.00    0.00   0.00   0.00

avg-cpu:  %user   %nice %system %iowait  %steal   %idle
           0.51    0.00    2.53   18.73    0.00   78.23

Device:         rrqm/s   wrqm/s     r/s     w/s    rkB/s    wkB/s avgrq-sz avgqu-sz   await r_await w_await  svctm  %util
sda               1.00     0.00 1160.00    0.00 20980.00     0.00    36.17     0.20    0.17    0.17    0.00   0.13  14.60
sdb               2.00     0.00 1057.00    0.00 16964.00     0.00    32.10     0.18    0.17    0.17    0.00   0.13  14.20
sdc               0.00     0.00 1111.00    0.00 19272.00     0.00    34.69     0.22    0.20    0.20    0.00   0.14  16.10
sdd               0.00     0.00 1080.00    0.00 17232.00     0.00    31.91     0.25    0.23    0.23    0.00   0.17  18.30
sde               1.00     0.00 1180.00    0.00 18412.00     0.00    31.21     0.24    0.20    0.20    0.00   0.16  18.80
sdf               0.00     0.00 1157.00    0.00 18436.00     0.00    31.87     0.23    0.20    0.20    0.00   0.15  17.90
sdg               0.00     0.00    0.00    0.00     0.00     0.00     0.00     0.00    0.00    0.00    0.00   0.00   0.00
sdh               0.00     0.00    0.00    0.00     0.00     0.00     0.00     0.00    0.00    0.00    0.00   0.00   0.00
md0               0.00     0.00 6749.00    0.00 121076.00     0.00    35.88     0.00    0.00    0.00    0.00   0.00   0.00

avg-cpu:  %user   %nice %system %iowait  %steal   %idle
           0.50    0.00    2.77   13.10    0.00   83.63

Device:         rrqm/s   wrqm/s     r/s     w/s    rkB/s    wkB/s avgrq-sz avgqu-sz   await r_await w_await  svctm  %util
sda               0.00     0.00 1199.00    0.00 21840.00     0.00    36.43     0.22    0.19    0.19    0.00   0.14  16.30
sdb               0.00     0.00 1110.00    0.00 20568.00     0.00    37.06     0.23    0.20    0.20    0.00   0.14  15.00
sdc               0.00     0.00 1141.00    0.00 21364.00     0.00    37.45     0.30    0.26    0.26    0.00   0.16  18.00
sdd               0.00     0.00 1217.00    0.00 21764.00     0.00    35.77     0.32    0.26    0.26    0.00   0.18  22.50
sde               0.00     0.00 1165.00    0.00 20336.00     0.00    34.91     0.28    0.24    0.24    0.00   0.16  18.10
sdf               0.00     0.00 1135.00    0.00 20232.00     0.00    35.65     0.25    0.22    0.22    0.00   0.15  16.70
sdg               0.00     0.00    0.00    0.00     0.00     0.00     0.00     0.00    0.00    0.00    0.00   0.00   0.00
sdh               0.00     0.00    0.00    0.00     0.00     0.00     0.00     0.00    0.00    0.00    0.00   0.00   0.00
md0               0.00     0.00 6966.00    0.00 137144.00     0.00    39.38     0.00    0.00    0.00    0.00   0.00   0.00

avg-cpu:  %user   %nice %system %iowait  %steal   %idle
           0.51    0.00    2.78    6.08    0.00   90.63

Device:         rrqm/s   wrqm/s     r/s     w/s    rkB/s    wkB/s avgrq-sz avgqu-sz   await r_await w_await  svctm  %util
sda               0.00     0.00 1165.00    0.00 21744.00     0.00    37.33     0.27    0.23    0.23    0.00   0.13  15.20
sdb               1.00     0.00 1247.00    0.00 22516.00     0.00    36.11     0.29    0.23    0.23    0.00   0.14  17.10
sdc               0.00     0.00 1187.00    0.00 21524.00     0.00    36.27     0.34    0.28    0.28    0.00   0.15  18.30
sdd               0.00     0.00 1205.00    0.00 18868.00     0.00    31.32     0.36    0.30    0.30    0.00   0.17  19.90
sde               1.00     0.00 1203.00    0.00 21904.00     0.00    36.42     0.39    0.32    0.32    0.00   0.17  20.90
sdf               1.00     0.00 1229.00    0.00 22876.00     0.00    37.23     0.36    0.30    0.30    0.00   0.15  18.80
sdg               0.00     0.00    0.00    0.00     0.00     0.00     0.00     0.00    0.00    0.00    0.00   0.00   0.00
sdh               0.00     0.00    0.00    0.00     0.00     0.00     0.00     0.00    0.00    0.00    0.00   0.00   0.00
md0               0.00     0.00 7239.00    0.00 139896.00     0.00    38.65     0.00    0.00    0.00    0.00   0.00   0.00

avg-cpu:  %user   %nice %system %iowait  %steal   %idle
           0.50    0.00    2.77   18.39    0.00   78.34

Device:         rrqm/s   wrqm/s     r/s     w/s    rkB/s    wkB/s avgrq-sz avgqu-sz   await r_await w_await  svctm  %util
sda               0.00     0.00 1234.00    0.00 22024.00     0.00    35.70     0.27    0.22    0.22    0.00   0.12  14.40
sdb               1.00     0.00 1272.00    0.00 24656.00     0.00    38.77     0.30    0.23    0.23    0.00   0.12  15.40
sdc               0.00     0.00 1330.00    0.00 26292.00     0.00    39.54     0.40    0.30    0.30    0.00   0.15  20.30
sdd               0.00     0.00 1259.00    0.00 25748.00     0.00    40.90     0.50    0.40    0.40    0.00   0.19  24.10
sde               0.00     0.00 1216.00    0.00 21828.00     0.00    35.90     0.36    0.30    0.30    0.00   0.14  17.00
sdf               0.00     0.00 1247.00    0.00 22696.00     0.00    36.40     0.39    0.32    0.32    0.00   0.14  17.90
sdg               0.00     0.00    0.00    0.00     0.00     0.00     0.00     0.00    0.00    0.00    0.00   0.00   0.00
sdh               0.00     0.00    0.00    0.00     0.00     0.00     0.00     0.00    0.00    0.00    0.00   0.00   0.00
md0               0.00     0.00 7561.00    0.00 154404.00     0.00    40.84     0.00    0.00    0.00    0.00   0.00   0.00

avg-cpu:  %user   %nice %system %iowait  %steal   %idle
           0.76    0.00    2.78   12.88    0.00   83.59

Device:         rrqm/s   wrqm/s     r/s     w/s    rkB/s    wkB/s avgrq-sz avgqu-sz   await r_await w_await  svctm  %util
sda               0.00     0.00 1297.00    0.00 25876.00     0.00    39.90     0.40    0.31    0.31    0.00   0.13  17.30
sdb               0.00     0.00 1368.00    0.00 26704.00     0.00    39.04     0.38    0.28    0.28    0.00   0.12  16.90
sdc               0.00     0.00 1376.00    0.00 27528.00     0.00    40.01     0.55    0.40    0.40    0.00   0.15  21.20
sdd               0.00     0.00 1302.00    0.00 24700.00     0.00    37.94     0.56    0.43    0.43    0.00   0.17  21.80
sde               0.00     0.00 1337.00    0.00 24876.00     0.00    37.21     0.48    0.36    0.36    0.00   0.15  20.00
sdf               0.00     0.00 1393.00    0.00 26740.00     0.00    38.39     0.55    0.40    0.40    0.00   0.15  20.20
sdg               0.00     0.00    0.00    0.00     0.00     0.00     0.00     0.00    0.00    0.00    0.00   0.00   0.00
sdh               0.00     0.00    0.00    0.00     0.00     0.00     0.00     0.00    0.00    0.00    0.00   0.00   0.00
md0               0.00     0.00 8071.00    0.00 167592.00     0.00    41.53     0.00    0.00    0.00    0.00   0.00   0.00

avg-cpu:  %user   %nice %system %iowait  %steal   %idle
           0.50    0.25    3.53   17.88    0.00   77.83

Device:         rrqm/s   wrqm/s     r/s     w/s    rkB/s    wkB/s avgrq-sz avgqu-sz   await r_await w_await  svctm  %util
sda               1.00     0.00 1469.00    0.00 28056.00     0.00    38.20     0.46    0.32    0.32    0.00   0.13  18.70
sdb               1.00     0.00 1505.00    0.00 29060.00     0.00    38.62     0.42    0.28    0.28    0.00   0.12  17.80
sdc               0.00     0.00 1436.00    0.00 26820.00     0.00    37.35     0.60    0.42    0.42    0.00   0.14  20.60
sdd               1.00     0.00 1603.00    0.00 31016.00     0.00    38.70     0.74    0.46    0.46    0.00   0.14  22.90
sde               0.00     0.00 1495.00    0.00 28644.00     0.00    38.32     0.69    0.46    0.46    0.00   0.14  20.80
sdf               0.00     0.00 1511.00    0.00 28984.00     0.00    38.36     0.65    0.43    0.43    0.00   0.16  23.80
sdg               0.00     0.00   43.00    0.00   496.00     0.00    23.07     0.01    0.28    0.28    0.00   0.19   0.80
sdh               0.00     0.00    0.00    0.00     0.00     0.00     0.00     0.00    0.00    0.00    0.00   0.00   0.00
md0               0.00     0.00 9023.00    0.00 182580.00     0.00    40.47     0.00    0.00    0.00    0.00   0.00   0.00

avg-cpu:  %user   %nice %system %iowait  %steal   %idle
           0.51    0.00    3.32    1.53    0.00   94.63

Device:         rrqm/s   wrqm/s     r/s     w/s    rkB/s    wkB/s avgrq-sz avgqu-sz   await r_await w_await  svctm  %util
sda               1.00     0.00 1777.00    0.00 36616.00     0.00    41.21     0.72    0.40    0.40    0.00   0.11  19.80
sdb               3.00     0.00 1685.00    0.00 34808.00     0.00    41.32     0.72    0.43    0.43    0.00   0.11  18.60
sdc               2.00     0.00 1653.00    0.00 33832.00     0.00    40.93     0.97    0.59    0.59    0.00   0.14  23.60
sdd               2.00     0.00 1821.00    0.00 38664.00     0.00    42.46     1.26    0.70    0.70    0.00   0.14  25.70
sde               3.00     0.00 1734.00    0.00 36052.00     0.00    41.58     1.08    0.62    0.62    0.00   0.15  25.50
sdf               4.00     0.00 1773.00    0.00 35296.00     0.00    39.82     1.02    0.57    0.57    0.00   0.14  25.70
sdg               0.00     0.00    8.00    2.00    32.00    12.00     8.80     0.01    0.90    0.75    1.50   0.50   0.50
sdh               0.00     0.00    0.00    0.00     0.00     0.00     0.00     0.00    0.00    0.00    0.00   0.00   0.00
md0               0.00     0.00 10466.00    0.00 225788.00     0.00    43.15     0.00    0.00    0.00    0.00   0.00   0.00

avg-cpu:  %user   %nice %system %iowait  %steal   %idle
           1.01    0.00    3.54   11.62    0.00   83.84

Device:         rrqm/s   wrqm/s     r/s     w/s    rkB/s    wkB/s avgrq-sz avgqu-sz   await r_await w_await  svctm  %util
sda               2.00     0.00 2103.00    0.00 45452.00     0.00    43.23     1.04    0.49    0.49    0.00   0.11  24.10
sdb               2.00     0.00 2004.00    0.00 43096.00     0.00    43.01     0.94    0.47    0.47    0.00   0.10  20.70
sdc               5.00     0.00 2075.00    0.00 42840.00     0.00    41.29     1.53    0.74    0.74    0.00   0.13  27.80
sdd               6.00     0.00 1970.00    0.00 41176.00     0.00    41.80     1.30    0.66    0.66    0.00   0.13  26.20
sde               2.00     0.00 2164.00    0.00 46600.00     0.00    43.07     1.57    0.72    0.72    0.00   0.14  30.00
sdf               7.00     0.00 2129.00    0.00 45040.00     0.00    42.31     1.68    0.79    0.79    0.00   0.13  28.60
sdg               0.00     0.00    0.00    0.00     0.00     0.00     0.00     0.00    0.00    0.00    0.00   0.00   0.00
sdh               0.00     0.00    0.00    0.00     0.00     0.00     0.00     0.00    0.00    0.00    0.00   0.00   0.00
md0               0.00     0.00 12471.00    0.00 278280.00     0.00    44.63     0.00    0.00    0.00    0.00   0.00   0.00

avg-cpu:  %user   %nice %system %iowait  %steal   %idle
           1.27    0.00    5.09   15.52    0.00   78.12

Device:         rrqm/s   wrqm/s     r/s     w/s    rkB/s    wkB/s avgrq-sz avgqu-sz   await r_await w_await  svctm  %util
sda               5.00     0.00 2553.00    0.00 52648.00     0.00    41.24     1.34    0.52    0.52    0.00   0.09  24.10
sdb               6.00     0.00 2556.00    0.00 52848.00     0.00    41.35     1.41    0.55    0.55    0.00   0.09  23.30
sdc               4.00     0.00 2570.00    0.00 51668.00     0.00    40.21     1.84    0.72    0.72    0.00   0.12  32.10
sdd               3.00     0.00 2562.00    0.00 53004.00     0.00    41.38     1.92    0.75    0.75    0.00   0.13  32.40
sde               3.00     0.00 2557.00    0.00 53136.00     0.00    41.56     2.05    0.80    0.80    0.00   0.12  30.20
sdf               3.00     0.00 2613.00    0.00 54268.00     0.00    41.54     2.06    0.79    0.79    0.00   0.12  32.10
sdg               0.00     0.00    0.00    0.00     0.00     0.00     0.00     0.00    0.00    0.00    0.00   0.00   0.00
sdh               0.00     0.00    0.00    0.00     0.00     0.00     0.00     0.00    0.00    0.00    0.00   0.00   0.00
md0               0.00     0.00 15445.00    0.00 330988.00     0.00    42.86     0.00    0.00    0.00    0.00   0.00   0.00

avg-cpu:  %user   %nice %system %iowait  %steal   %idle
           6.31    0.00   14.39    4.29    0.00   75.00

Device:         rrqm/s   wrqm/s     r/s     w/s    rkB/s    wkB/s avgrq-sz avgqu-sz   await r_await w_await  svctm  %util
sda               2.00     0.00 1260.00    0.00 23792.00     0.00    37.77     0.69    0.55    0.55    0.00   0.08   9.90
sdb               5.00     0.00 1254.00    0.00 23488.00     0.00    37.46     0.70    0.56    0.56    0.00   0.08   9.50
sdc               3.00     0.00 1213.00    0.00 22300.00     0.00    36.77     0.95    0.78    0.78    0.00   0.10  12.50
sdd               1.00     0.00 1264.00    0.00 22888.00     0.00    36.22     0.87    0.69    0.69    0.00   0.11  13.80
sde               2.00     0.00 1171.00    0.00 22636.00     0.00    38.66     0.79    0.68    0.68    0.00   0.11  12.40
sdf               0.00     0.00 1252.00    0.00 22456.00     0.00    35.87     0.99    0.79    0.79    0.00   0.10  11.90
sdg               0.00     0.00    0.00    0.00     0.00     0.00     0.00     0.00    0.00    0.00    0.00   0.00   0.00
sdh               0.00     0.00    0.00    0.00     0.00     0.00     0.00     0.00    0.00    0.00    0.00   0.00   0.00
md0               0.00     0.00 7405.00    0.00 141668.00     0.00    38.26     0.00    0.00    0.00    0.00   0.00   0.00

avg-cpu:  %user   %nice %system %iowait  %steal   %idle
           9.60    0.00   16.16    0.00    0.00   74.24

Device:         rrqm/s   wrqm/s     r/s     w/s    rkB/s    wkB/s avgrq-sz avgqu-sz   await r_await w_await  svctm  %util
sda               0.00     0.00    1.00    0.00     4.00     0.00     8.00     0.00    0.00    0.00    0.00   0.00   0.00
sdb               0.00     0.00    0.00    0.00     0.00     0.00     0.00     0.00    0.00    0.00    0.00   0.00   0.00
sdc               0.00     0.00    0.00    0.00     0.00     0.00     0.00     0.00    0.00    0.00    0.00   0.00   0.00
sdd               0.00     0.00    0.00    0.00     0.00     0.00     0.00     0.00    0.00    0.00    0.00   0.00   0.00
sde               0.00     0.00    0.00    0.00     0.00     0.00     0.00     0.00    0.00    0.00    0.00   0.00   0.00
sdf               0.00     0.00    0.00    0.00     0.00     0.00     0.00     0.00    0.00    0.00    0.00   0.00   0.00
sdg               0.00     0.00    0.00    0.00     0.00     0.00     0.00     0.00    0.00    0.00    0.00   0.00   0.00
sdh               0.00     0.00    0.00    0.00     0.00     0.00     0.00     0.00    0.00    0.00    0.00   0.00   0.00
md0               0.00     0.00    1.00    0.00     4.00     0.00     8.00     0.00    0.00    0.00    0.00   0.00   0.00

avg-cpu:  %user   %nice %system %iowait  %steal   %idle
           9.39    0.00   16.24    0.00    0.00   74.37

Device:         rrqm/s   wrqm/s     r/s     w/s    rkB/s    wkB/s avgrq-sz avgqu-sz   await r_await w_await  svctm  %util
sda               0.00     0.00    0.00    0.00     0.00     0.00     0.00     0.00    0.00    0.00    0.00   0.00   0.00
sdb               0.00     0.00    0.00    0.00     0.00     0.00     0.00     0.00    0.00    0.00    0.00   0.00   0.00
sdc               0.00     0.00    0.00    0.00     0.00     0.00     0.00     0.00    0.00    0.00    0.00   0.00   0.00
sdd               0.00     0.00    0.00    0.00     0.00     0.00     0.00     0.00    0.00    0.00    0.00   0.00   0.00
sde               0.00     0.00    0.00    0.00     0.00     0.00     0.00     0.00    0.00    0.00    0.00   0.00   0.00
sdf               0.00     0.00    0.00    0.00     0.00     0.00     0.00     0.00    0.00    0.00    0.00   0.00   0.00
sdg               0.00     2.00    0.00    3.00     0.00    56.00    37.33     0.00    0.00    0.00    0.00   0.00   0.00
sdh               0.00     0.00    0.00    0.00     0.00     0.00     0.00     0.00    0.00    0.00    0.00   0.00   0.00
md0               0.00     0.00    0.00    0.00     0.00     0.00     0.00     0.00    0.00    0.00    0.00   0.00   0.00

avg-cpu:  %user   %nice %system %iowait  %steal   %idle
           9.62    0.00   16.20    0.00    0.00   74.18

Device:         rrqm/s   wrqm/s     r/s     w/s    rkB/s    wkB/s avgrq-sz avgqu-sz   await r_await w_await  svctm  %util
sda               0.00     0.00    0.00    0.00     0.00     0.00     0.00     0.00    0.00    0.00    0.00   0.00   0.00
sdb               0.00     0.00    0.00    0.00     0.00     0.00     0.00     0.00    0.00    0.00    0.00   0.00   0.00
sdc               0.00     0.00    0.00    0.00     0.00     0.00     0.00     0.00    0.00    0.00    0.00   0.00   0.00
sdd               0.00     0.00    0.00    0.00     0.00     0.00     0.00     0.00    0.00    0.00    0.00   0.00   0.00
sde               0.00     0.00    0.00    0.00     0.00     0.00     0.00     0.00    0.00    0.00    0.00   0.00   0.00
sdf               0.00     0.00    0.00    0.00     0.00     0.00     0.00     0.00    0.00    0.00    0.00   0.00   0.00
sdg               0.00     0.00    0.00    0.00     0.00     0.00     0.00     0.00    0.00    0.00    0.00   0.00   0.00
sdh               0.00     0.00    0.00    0.00     0.00     0.00     0.00     0.00    0.00    0.00    0.00   0.00   0.00
md0               0.00     0.00    0.00    0.00     0.00     0.00     0.00     0.00    0.00    0.00    0.00   0.00   0.00

avg-cpu:  %user   %nice %system %iowait  %steal   %idle
           9.64    0.00   15.99    0.00    0.00   74.37

Device:         rrqm/s   wrqm/s     r/s     w/s    rkB/s    wkB/s avgrq-sz avgqu-sz   await r_await w_await  svctm  %util
sda               0.00     0.00    0.00    0.00     0.00     0.00     0.00     0.00    0.00    0.00    0.00   0.00   0.00
sdb               0.00     0.00    0.00    0.00     0.00     0.00     0.00     0.00    0.00    0.00    0.00   0.00   0.00
sdc               0.00     0.00    0.00    0.00     0.00     0.00     0.00     0.00    0.00    0.00    0.00   0.00   0.00
sdd               0.00     0.00    0.00    0.00     0.00     0.00     0.00     0.00    0.00    0.00    0.00   0.00   0.00
sde               0.00     0.00    0.00    0.00     0.00     0.00     0.00     0.00    0.00    0.00    0.00   0.00   0.00
sdf               0.00     0.00    0.00    0.00     0.00     0.00     0.00     0.00    0.00    0.00    0.00   0.00   0.00
sdg               0.00     0.00    0.00    0.00     0.00     0.00     0.00     0.00    0.00    0.00    0.00   0.00   0.00
sdh               0.00     0.00    0.00    0.00     0.00     0.00     0.00     0.00    0.00    0.00    0.00   0.00   0.00
md0               0.00     0.00    0.00    0.00     0.00     0.00     0.00     0.00    0.00    0.00    0.00   0.00   0.00

avg-cpu:  %user   %nice %system %iowait  %steal   %idle
          10.41    0.00   15.23    0.00    0.00   74.37

Device:         rrqm/s   wrqm/s     r/s     w/s    rkB/s    wkB/s avgrq-sz avgqu-sz   await r_await w_await  svctm  %util
sda               0.00     0.00    0.00    0.00     0.00     0.00     0.00     0.00    0.00    0.00    0.00   0.00   0.00
sdb               0.00     0.00    0.00    0.00     0.00     0.00     0.00     0.00    0.00    0.00    0.00   0.00   0.00
sdc               0.00     0.00    0.00    0.00     0.00     0.00     0.00     0.00    0.00    0.00    0.00   0.00   0.00
sdd               0.00     0.00    0.00    0.00     0.00     0.00     0.00     0.00    0.00    0.00    0.00   0.00   0.00
sde               0.00     0.00    0.00    0.00     0.00     0.00     0.00     0.00    0.00    0.00    0.00   0.00   0.00
sdf               0.00     0.00    0.00    0.00     0.00     0.00     0.00     0.00    0.00    0.00    0.00   0.00   0.00
sdg               0.00     0.00    0.00    0.00     0.00     0.00     0.00     0.00    0.00    0.00    0.00   0.00   0.00
sdh               0.00     0.00    0.00    0.00     0.00     0.00     0.00     0.00    0.00    0.00    0.00   0.00   0.00
md0               0.00     0.00    0.00    0.00     0.00     0.00     0.00     0.00    0.00    0.00    0.00   0.00   0.00

avg-cpu:  %user   %nice %system %iowait  %steal   %idle
          10.13    0.25   15.70    0.00    0.00   73.92

Device:         rrqm/s   wrqm/s     r/s     w/s    rkB/s    wkB/s avgrq-sz avgqu-sz   await r_await w_await  svctm  %util
sda               0.00     0.00    0.00    0.00     0.00     0.00     0.00     0.00    0.00    0.00    0.00   0.00   0.00
sdb               0.00     0.00    0.00    0.00     0.00     0.00     0.00     0.00    0.00    0.00    0.00   0.00   0.00
sdc               0.00     0.00    0.00    0.00     0.00     0.00     0.00     0.00    0.00    0.00    0.00   0.00   0.00
sdd               0.00     0.00    0.00    0.00     0.00     0.00     0.00     0.00    0.00    0.00    0.00   0.00   0.00
sde               0.00     0.00    0.00    0.00     0.00     0.00     0.00     0.00    0.00    0.00    0.00   0.00   0.00
sdf               0.00     0.00    0.00    0.00     0.00     0.00     0.00     0.00    0.00    0.00    0.00   0.00   0.00
sdg               0.00     0.00    1.00    0.00     4.00     0.00     8.00     0.00    0.00    0.00    0.00   0.00   0.00
sdh               0.00     0.00    0.00    0.00     0.00     0.00     0.00     0.00    0.00    0.00    0.00   0.00   0.00
md0               0.00     0.00    0.00    0.00     0.00     0.00     0.00     0.00    0.00    0.00    0.00   0.00   0.00

avg-cpu:  %user   %nice %system %iowait  %steal   %idle
          10.15    0.00   15.48    0.00    0.00   74.37

Device:         rrqm/s   wrqm/s     r/s     w/s    rkB/s    wkB/s avgrq-sz avgqu-sz   await r_await w_await  svctm  %util
sda               0.00     0.00    0.00    0.00     0.00     0.00     0.00     0.00    0.00    0.00    0.00   0.00   0.00
sdb               0.00     0.00    0.00    0.00     0.00     0.00     0.00     0.00    0.00    0.00    0.00   0.00   0.00
sdc               0.00     0.00    0.00    0.00     0.00     0.00     0.00     0.00    0.00    0.00    0.00   0.00   0.00
sdd               0.00     0.00    0.00    0.00     0.00     0.00     0.00     0.00    0.00    0.00    0.00   0.00   0.00
sde               0.00     0.00    0.00    0.00     0.00     0.00     0.00     0.00    0.00    0.00    0.00   0.00   0.00
sdf               0.00     0.00    0.00    0.00     0.00     0.00     0.00     0.00    0.00    0.00    0.00   0.00   0.00
sdg               0.00     0.00    0.00    0.00     0.00     0.00     0.00     0.00    0.00    0.00    0.00   0.00   0.00
sdh               0.00     0.00    0.00    0.00     0.00     0.00     0.00     0.00    0.00    0.00    0.00   0.00   0.00
md0               0.00     0.00    0.00    0.00     0.00     0.00     0.00     0.00    0.00    0.00    0.00   0.00   0.00

avg-cpu:  %user   %nice %system %iowait  %steal   %idle
          10.43    0.00   15.01    0.00    0.00   74.55

Device:         rrqm/s   wrqm/s     r/s     w/s    rkB/s    wkB/s avgrq-sz avgqu-sz   await r_await w_await  svctm  %util
sda               0.00     0.00    0.00    0.00     0.00     0.00     0.00     0.00    0.00    0.00    0.00   0.00   0.00
sdb               0.00     0.00    0.00    0.00     0.00     0.00     0.00     0.00    0.00    0.00    0.00   0.00   0.00
sdc               0.00     0.00    0.00    0.00     0.00     0.00     0.00     0.00    0.00    0.00    0.00   0.00   0.00
sdd               0.00     0.00    0.00    0.00     0.00     0.00     0.00     0.00    0.00    0.00    0.00   0.00   0.00
sde               0.00     0.00    0.00    0.00     0.00     0.00     0.00     0.00    0.00    0.00    0.00   0.00   0.00
sdf               0.00     0.00    0.00    0.00     0.00     0.00     0.00     0.00    0.00    0.00    0.00   0.00   0.00
sdg               0.00     0.00    0.00    0.00     0.00     0.00     0.00     0.00    0.00    0.00    0.00   0.00   0.00
sdh               0.00     0.00    0.00    0.00     0.00     0.00     0.00     0.00    0.00    0.00    0.00   0.00   0.00
md0               0.00     0.00    0.00    0.00     0.00     0.00     0.00     0.00    0.00    0.00    0.00   0.00   0.00

avg-cpu:  %user   %nice %system %iowait  %steal   %idle
          10.41    0.00   15.23    0.00    0.00   74.37

Device:         rrqm/s   wrqm/s     r/s     w/s    rkB/s    wkB/s avgrq-sz avgqu-sz   await r_await w_await  svctm  %util
sda               0.00     0.00    0.00    0.00     0.00     0.00     0.00     0.00    0.00    0.00    0.00   0.00   0.00
sdb               0.00     0.00    0.00    0.00     0.00     0.00     0.00     0.00    0.00    0.00    0.00   0.00   0.00
sdc               0.00     0.00    0.00    0.00     0.00     0.00     0.00     0.00    0.00    0.00    0.00   0.00   0.00
sdd               0.00     0.00    0.00    0.00     0.00     0.00     0.00     0.00    0.00    0.00    0.00   0.00   0.00
sde               0.00     0.00    0.00    0.00     0.00     0.00     0.00     0.00    0.00    0.00    0.00   0.00   0.00
sdf               0.00     0.00    0.00    0.00     0.00     0.00     0.00     0.00    0.00    0.00    0.00   0.00   0.00
sdg               0.00     0.00    0.00    0.00     0.00     0.00     0.00     0.00    0.00    0.00    0.00   0.00   0.00
sdh               0.00     0.00    0.00    0.00     0.00     0.00     0.00     0.00    0.00    0.00    0.00   0.00   0.00
md0               0.00     0.00    0.00    0.00     0.00     0.00     0.00     0.00    0.00    0.00    0.00   0.00   0.00

