Linux 4.17.2 (bench) 	08/04/2018 	_x86_64_	(4 CPU)

avg-cpu:  %user   %nice %system %iowait  %steal   %idle
          10.24    0.02    4.34    2.86    0.00   82.54

Device:         rrqm/s   wrqm/s     r/s     w/s    rkB/s    wkB/s avgrq-sz avgqu-sz   await r_await w_await  svctm  %util
sda              58.80     4.12 1767.11   99.52 21440.68  3045.25    26.24     1.05    0.56    0.26    5.92   0.06  11.20
sdb              58.59     4.08 1767.13   99.65 21430.34  3042.01    26.22     1.05    0.56    0.26    5.85   0.06  11.08
sdc              95.88     4.14 1727.76   99.22 21422.72  3044.40    26.78     1.47    0.80    0.44    7.12   0.08  14.57
sdd              89.53     4.11 1733.30   99.28 21407.93  3040.71    26.68     1.48    0.80    0.43    7.33   0.08  14.67
sde              91.47     4.15 1738.27   99.38 21466.06  3044.83    26.68     1.50    0.81    0.43    7.44   0.08  14.69
sdf              88.67     4.12 1740.34   99.33 21447.86  3041.78    26.62     1.54    0.84    0.43    7.90   0.08  14.72
sdg               0.00     3.15   27.20   73.09   326.96   391.47    14.33     0.44    4.37    0.20    5.93   0.08   0.79
sdh               0.00     0.12    0.02    0.23     2.15     4.91    56.82     0.00    1.15    0.65    1.19   0.21   0.01
md0               0.00     0.00 10964.65  466.28 146866.20 20844.20    29.34     0.00    0.00    0.00    0.00   0.00   0.00

avg-cpu:  %user   %nice %system %iowait  %steal   %idle
           2.32    0.00   12.89   52.06    0.00   32.73

Device:         rrqm/s   wrqm/s     r/s     w/s    rkB/s    wkB/s avgrq-sz avgqu-sz   await r_await w_await  svctm  %util
sda               0.00     0.00 7721.00    0.00 32704.00     0.00     8.47     0.84    0.11    0.11    0.00   0.07  55.40
sdb               0.00     0.00 7803.00    0.00 32844.00     0.00     8.42     0.85    0.11    0.11    0.00   0.07  56.10
sdc               0.00     0.00 7806.00    0.00 33868.00     0.00     8.68     0.95    0.12    0.12    0.00   0.08  59.50
sdd               0.00     0.00 7827.00    0.00 34432.00     0.00     8.80     0.95    0.12    0.12    0.00   0.08  61.50
sde               0.00     0.00 7747.00    0.00 32932.00     0.00     8.50     0.89    0.11    0.11    0.00   0.07  57.50
sdf               0.00     0.00 7758.00    0.00 33380.00     0.00     8.61     0.91    0.12    0.12    0.00   0.07  58.10
sdg               0.00     0.00    0.00    0.00     0.00     0.00     0.00     0.00    0.00    0.00    0.00   0.00   0.00
sdh               0.00     0.00    0.00    0.00     0.00     0.00     0.00     0.00    0.00    0.00    0.00   0.00   0.00
md0               0.00     0.00 46651.00    0.00 201004.00     0.00     8.62     0.00    0.00    0.00    0.00   0.00   0.00

