Linux 4.17.2 (bench) 	08/04/2018 	_x86_64_	(4 CPU)

avg-cpu:  %user   %nice %system %iowait  %steal   %idle
          10.25    0.02    4.22    2.79    0.00   82.72

Device:         rrqm/s   wrqm/s     r/s     w/s    rkB/s    wkB/s avgrq-sz avgqu-sz   await r_await w_await  svctm  %util
sda              56.54     4.16 1749.68  100.58 21470.27  3077.57    26.53     1.05    0.57    0.26    5.92   0.06  11.14
sdb              56.32     4.12 1749.71  100.71 21459.83  3074.30    26.52     1.05    0.57    0.26    5.85   0.06  11.01
sdc              93.99     4.18 1709.95  100.27 21452.11  3076.72    27.10     1.47    0.81    0.44    7.12   0.08  14.52
sdd              87.57     4.15 1715.56  100.34 21437.22  3072.98    27.00     1.48    0.81    0.43    7.33   0.08  14.62
sde              89.54     4.20 1720.61  100.43 21496.23  3077.15    26.99     1.50    0.82    0.44    7.44   0.08  14.64
sdf              86.71     4.17 1722.70  100.38 21477.81  3074.07    26.93     1.54    0.85    0.44    7.90   0.08  14.67
sdg               0.00     3.16   27.00   73.22   326.67   391.93    14.34     0.44    4.39    0.20    5.93   0.08   0.79
sdh               0.00     0.13    0.02    0.23     2.17     4.97    56.82     0.00    1.15    0.65    1.19   0.21   0.01
md0               0.00     0.00 10846.56  471.23 147167.05 21065.48    29.73     0.00    0.00    0.00    0.00   0.00   0.00

avg-cpu:  %user   %nice %system %iowait  %steal   %idle
           3.65    0.00   12.59    1.77    0.00   81.99

Device:         rrqm/s   wrqm/s     r/s     w/s    rkB/s    wkB/s avgrq-sz avgqu-sz   await r_await w_await  svctm  %util
sda               4.40     0.00  813.70    0.00 15567.00     0.00    38.26     0.47    0.58    0.58    0.00   0.10   8.46
sdb               4.70     0.00  812.80    0.00 15550.40     0.00    38.26     0.50    0.62    0.62    0.00   0.10   8.36
sdc               4.60     0.00  813.60    0.00 15475.00     0.00    38.04     0.83    1.02    1.02    0.00   0.13  10.83
sdd               4.85     0.00  813.15    0.00 15543.00     0.00    38.23     0.80    0.98    0.98    0.00   0.13  10.95
sde               4.45     0.00  808.30    0.00 15476.80     0.00    38.29     0.81    1.01    1.01    0.00   0.13  10.89
sdf               4.60     0.00  806.55    0.00 15538.60     0.00    38.53     0.82    1.02    1.02    0.00   0.14  11.01
sdg               0.00     4.40   68.00  128.25   281.80   636.80     9.36     0.78    3.99    0.12    6.05   0.07   1.36
sdh               0.00     0.00    0.00    0.00     0.00     0.00     0.00     0.00    0.00    0.00    0.00   0.00   0.00
md0               0.00     0.00 4895.70    0.00 103392.40     0.00    42.24     0.00    0.00    0.00    0.00   0.00   0.00

