Linux 4.17.2 (bench) 	08/04/2018 	_x86_64_	(4 CPU)

avg-cpu:  %user   %nice %system %iowait  %steal   %idle
          10.25    0.02    4.33    2.86    0.00   82.55

Device:         rrqm/s   wrqm/s     r/s     w/s    rkB/s    wkB/s avgrq-sz avgqu-sz   await r_await w_await  svctm  %util
sda              58.84     4.12 1767.01   99.58 21445.66  3047.10    26.24     1.05    0.56    0.26    5.92   0.06  11.20
sdb              58.62     4.08 1767.02   99.71 21435.31  3043.86    26.23     1.05    0.56    0.26    5.85   0.06  11.08
sdc              95.94     4.14 1727.64   99.28 21427.69  3046.25    26.79     1.47    0.80    0.44    7.12   0.08  14.57
sdd              89.58     4.11 1733.18   99.35 21412.88  3042.56    26.69     1.48    0.81    0.43    7.33   0.08  14.67
sde              91.53     4.15 1738.14   99.44 21471.07  3046.68    26.68     1.50    0.81    0.44    7.44   0.08  14.69
sdf              88.72     4.13 1740.22   99.39 21452.86  3043.64    26.63     1.54    0.84    0.43    7.90   0.08  14.72
sdg               0.00     3.15   27.18   73.10   326.94   391.50    14.33     0.44    4.37    0.20    5.93   0.08   0.79
sdh               0.00     0.12    0.02    0.23     2.15     4.92    56.82     0.00    1.15    0.65    1.19   0.21   0.01
md0               0.00     0.00 10964.22  466.57 146901.54 20856.90    29.35     0.00    0.00    0.00    0.00   0.00   0.00

avg-cpu:  %user   %nice %system %iowait  %steal   %idle
           1.77    0.00   15.19    4.30    0.00   78.73

Device:         rrqm/s   wrqm/s     r/s     w/s    rkB/s    wkB/s avgrq-sz avgqu-sz   await r_await w_await  svctm  %util
sda               0.00     0.00 8121.00    0.00 32484.00     0.00     8.00     0.87    0.11    0.11    0.00   0.06  52.60
sdb               0.00     0.00 7958.00    0.00 31832.00     0.00     8.00     0.84    0.11    0.11    0.00   0.07  52.20
sdc               0.00     0.00 8170.00    0.00 32680.00     0.00     8.00     0.95    0.12    0.12    0.00   0.07  58.40
sdd               0.00     0.00 8030.00    0.00 32120.00     0.00     8.00     0.90    0.11    0.11    0.00   0.07  55.70
sde               0.00     0.00 8138.00    0.00 32552.00     0.00     8.00     0.92    0.11    0.11    0.00   0.07  57.40
sdf               0.00     0.00 7981.00    0.00 31924.00     0.00     8.00     0.97    0.12    0.12    0.00   0.07  59.60
sdg               0.00     1.00    0.00    9.00     0.00   152.00    33.78     0.01    0.56    0.00    0.56   0.11   0.10
sdh               0.00     0.00    0.00    0.00     0.00     0.00     0.00     0.00    0.00    0.00    0.00   0.00   0.00
md0               0.00     0.00 48378.00    0.00 193512.00     0.00     8.00     0.00    0.00    0.00    0.00   0.00   0.00

