Linux 4.17.2 (bench) 	08/04/2018 	_x86_64_	(4 CPU)

avg-cpu:  %user   %nice %system %iowait  %steal   %idle
          10.25    0.02    4.24    2.79    0.00   82.71

Device:         rrqm/s   wrqm/s     r/s     w/s    rkB/s    wkB/s avgrq-sz avgqu-sz   await r_await w_await  svctm  %util
sda              56.50     4.16 1749.68  100.49 21462.52  3074.87    26.52     1.05    0.57    0.26    5.92   0.06  11.13
sdb              56.28     4.12 1749.70  100.62 21452.09  3071.60    26.51     1.05    0.57    0.26    5.85   0.06  11.01
sdc              93.91     4.18 1709.97  100.18 21444.38  3074.01    27.09     1.47    0.81    0.44    7.12   0.08  14.52
sdd              87.50     4.15 1715.58  100.25 21429.50  3070.28    26.98     1.48    0.81    0.43    7.33   0.08  14.61
sde              89.47     4.19 1720.63  100.35 21488.44  3074.45    26.98     1.50    0.82    0.44    7.44   0.08  14.63
sdf              86.64     4.16 1722.71  100.29 21470.04  3071.37    26.92     1.54    0.85    0.44    7.90   0.08  14.67
sdg               0.00     3.16   27.02   73.21   326.68   391.89    14.34     0.44    4.38    0.20    5.93   0.08   0.79
sdh               0.00     0.13    0.02    0.23     2.17     4.96    56.82     0.00    1.15    0.65    1.19   0.21   0.01
md0               0.00     0.00 10846.28  470.82 147112.47 21046.97    29.72     0.00    0.00    0.00    0.00   0.00   0.00

avg-cpu:  %user   %nice %system %iowait  %steal   %idle
           8.86    0.03   25.35    0.10    0.00   65.66

Device:         rrqm/s   wrqm/s     r/s     w/s    rkB/s    wkB/s avgrq-sz avgqu-sz   await r_await w_await  svctm  %util
sda               0.00     0.00    0.10    0.00     0.40     0.00     8.00     0.00    0.00    0.00    0.00   0.00   0.00
sdb               0.00     0.00    0.15    0.00     0.60     0.00     8.00     0.00    0.33    0.33    0.00   0.33   0.01
sdc               0.00     0.00    0.10    0.00     0.40     0.00     8.00     0.00    0.50    0.50    0.00   0.50   0.01
sdd               0.00     0.00    0.05    0.00     0.20     0.00     8.00     0.00    0.00    0.00    0.00   0.00   0.00
sde               0.00     0.00    0.15    0.00     0.60     0.00     8.00     0.00    0.00    0.00    0.00   0.00   0.00
sdf               0.00     0.00    0.05    0.00     0.20     0.00     8.00     0.00    0.00    0.00    0.00   0.00   0.00
sdg               0.00     0.05   66.75    0.10   270.80     1.80     8.16     0.01    0.12    0.12    0.00   0.12   0.78
sdh               0.00     0.00    0.00    0.00     0.00     0.00     0.00     0.00    0.00    0.00    0.00   0.00   0.00
md0               0.00     0.00    0.60    0.00     2.40     0.00     8.00     0.00    0.00    0.00    0.00   0.00   0.00

