Linux 4.17.2 (bench) 	08/04/2018 	_x86_64_	(4 CPU)

avg-cpu:  %user   %nice %system %iowait  %steal   %idle
          10.25    0.02    4.26    2.79    0.00   82.68

Device:         rrqm/s   wrqm/s     r/s     w/s    rkB/s    wkB/s avgrq-sz avgqu-sz   await r_await w_await  svctm  %util
sda              56.62     4.15 1749.91  100.30 21447.24  3069.24    26.50     1.05    0.57    0.26    5.92   0.06  11.13
sdb              56.41     4.11 1749.94  100.44 21436.82  3065.98    26.48     1.05    0.57    0.26    5.85   0.06  11.01
sdc              93.98     4.17 1710.27  100.00 21429.13  3068.39    27.07     1.47    0.81    0.44    7.12   0.08  14.51
sdd              87.58     4.14 1715.87  100.07 21414.28  3064.67    26.96     1.48    0.81    0.43    7.33   0.08  14.61
sde              89.55     4.18 1720.90  100.16 21473.07  3068.82    26.95     1.50    0.82    0.44    7.44   0.08  14.63
sdf              86.72     4.16 1722.98  100.11 21454.70  3065.75    26.90     1.54    0.85    0.44    7.90   0.08  14.66
sdg               0.00     3.16   27.05   73.19   326.71   391.80    14.34     0.44    4.38    0.20    5.93   0.08   0.79
sdh               0.00     0.13    0.02    0.23     2.16     4.95    56.82     0.00    1.15    0.65    1.19   0.21   0.01
md0               0.00     0.00 10848.47  469.96 147003.64 21008.45    29.69     0.00    0.00    0.00    0.00   0.00   0.00

avg-cpu:  %user   %nice %system %iowait  %steal   %idle
           0.26    0.00    1.28    1.02    0.00   97.45

Device:         rrqm/s   wrqm/s     r/s     w/s    rkB/s    wkB/s avgrq-sz avgqu-sz   await r_await w_await  svctm  %util
sda               0.00     0.00 1493.00    0.00  5972.00     0.00     8.00     0.14    0.10    0.10    0.00   0.10  14.50
sdb               0.00     0.00 1469.00    0.00  5876.00     0.00     8.00     0.15    0.10    0.10    0.00   0.10  14.80
sdc               0.00     0.00 1493.00    0.00  5972.00     0.00     8.00     0.14    0.10    0.10    0.00   0.10  14.20
sdd               0.00     0.00 1528.00    0.00  6112.00     0.00     8.00     0.17    0.11    0.11    0.00   0.11  16.90
sde               0.00     0.00 1485.00    0.00  5940.00     0.00     8.00     0.16    0.11    0.11    0.00   0.11  15.80
sdf               0.00     0.00 1486.00    0.00  5944.00     0.00     8.00     0.17    0.12    0.12    0.00   0.12  17.20
sdg               0.00     0.00    2.00    4.00    44.00   128.00    57.33     0.00    0.50    0.00    0.75   0.17   0.10
sdh               0.00     0.00    0.00    0.00     0.00     0.00     0.00     0.00    0.00    0.00    0.00   0.00   0.00
md0               0.00     0.00 8955.00    0.00 35820.00     0.00     8.00     0.00    0.00    0.00    0.00   0.00   0.00

avg-cpu:  %user   %nice %system %iowait  %steal   %idle
           0.00    0.00    1.03    3.59    0.00   95.38

Device:         rrqm/s   wrqm/s     r/s     w/s    rkB/s    wkB/s avgrq-sz avgqu-sz   await r_await w_await  svctm  %util
sda               0.00     0.00 1547.00    0.00  6188.00     0.00     8.00     0.15    0.10    0.10    0.00   0.10  15.10
sdb               0.00     0.00 1541.00    0.00  6164.00     0.00     8.00     0.15    0.10    0.10    0.00   0.10  14.80
sdc               0.00     0.00 1485.00    0.00  5940.00     0.00     8.00     0.16    0.11    0.11    0.00   0.11  16.40
sdd               0.00     0.00 1484.00    0.00  5936.00     0.00     8.00     0.14    0.10    0.10    0.00   0.10  14.30
sde               0.00     0.00 1488.00    0.00  5952.00     0.00     8.00     0.16    0.11    0.11    0.00   0.11  15.70
sdf               0.00     0.00 1461.00    0.00  5844.00     0.00     8.00     0.18    0.12    0.12    0.00   0.12  18.00
sdg               0.00     0.00    0.00    0.00     0.00     0.00     0.00     0.00    0.00    0.00    0.00   0.00   0.00
sdh               0.00     0.00    0.00    0.00     0.00     0.00     0.00     0.00    0.00    0.00    0.00   0.00   0.00
md0               0.00     0.00 9006.00    0.00 36024.00     0.00     8.00     0.00    0.00    0.00    0.00   0.00   0.00

avg-cpu:  %user   %nice %system %iowait  %steal   %idle
           0.00    0.25    2.04    7.63    0.00   90.08

Device:         rrqm/s   wrqm/s     r/s     w/s    rkB/s    wkB/s avgrq-sz avgqu-sz   await r_await w_await  svctm  %util
sda               0.00     0.00 1508.00    0.00  6032.00     0.00     8.00     0.14    0.09    0.09    0.00   0.09  13.90
sdb               0.00     0.00 1522.00    0.00  6088.00     0.00     8.00     0.14    0.09    0.09    0.00   0.09  14.30
sdc               0.00     0.00 1486.00    0.00  5944.00     0.00     8.00     0.17    0.12    0.12    0.00   0.12  17.20
sdd               0.00     0.00 1483.00    0.00  5932.00     0.00     8.00     0.16    0.11    0.11    0.00   0.11  16.00
sde               0.00     0.00 1542.00    0.00  6168.00     0.00     8.00     0.18    0.12    0.12    0.00   0.12  17.80
sdf               0.00     0.00 1456.00    0.00  5824.00     0.00     8.00     0.14    0.10    0.10    0.00   0.10  14.40
sdg               0.00     0.00   34.00    0.00   364.00     0.00    21.41     0.00    0.12    0.12    0.00   0.12   0.40
sdh               0.00     0.00    0.00    0.00     0.00     0.00     0.00     0.00    0.00    0.00    0.00   0.00   0.00
md0               0.00     0.00 8997.00    0.00 35988.00     0.00     8.00     0.00    0.00    0.00    0.00   0.00   0.00

avg-cpu:  %user   %nice %system %iowait  %steal   %idle
           0.26    0.00    1.53    1.02    0.00   97.19

Device:         rrqm/s   wrqm/s     r/s     w/s    rkB/s    wkB/s avgrq-sz avgqu-sz   await r_await w_await  svctm  %util
sda               0.00     0.00 1527.00    0.00  6108.00     0.00     8.00     0.13    0.08    0.08    0.00   0.08  12.70
sdb               0.00     0.00 1475.00    0.00  5900.00     0.00     8.00     0.15    0.10    0.10    0.00   0.10  14.90
sdc               0.00     0.00 1534.00    0.00  6136.00     0.00     8.00     0.18    0.11    0.11    0.00   0.11  17.60
sdd               0.00     0.00 1495.00    0.00  5980.00     0.00     8.00     0.16    0.11    0.11    0.00   0.11  15.80
sde               0.00     0.00 1523.00    0.00  6092.00     0.00     8.00     0.17    0.11    0.11    0.00   0.11  16.50
sdf               0.00     0.00 1448.00    0.00  5792.00     0.00     8.00     0.15    0.10    0.10    0.00   0.10  14.80
sdg               0.00     0.00    0.00    0.00     0.00     0.00     0.00     0.00    0.00    0.00    0.00   0.00   0.00
sdh               0.00     0.00    0.00    0.00     0.00     0.00     0.00     0.00    0.00    0.00    0.00   0.00   0.00
md0               0.00     0.00 9003.00    0.00 36012.00     0.00     8.00     0.00    0.00    0.00    0.00   0.00   0.00

avg-cpu:  %user   %nice %system %iowait  %steal   %idle
           0.26    0.00    1.28    1.02    0.00   97.44

Device:         rrqm/s   wrqm/s     r/s     w/s    rkB/s    wkB/s avgrq-sz avgqu-sz   await r_await w_await  svctm  %util
sda               0.00     0.00 1476.00    0.00  5904.00     0.00     8.00     0.14    0.10    0.10    0.00   0.10  14.40
sdb               0.00     0.00 1477.00    0.00  5908.00     0.00     8.00     0.15    0.10    0.10    0.00   0.10  15.50
sdc               0.00     0.00 1462.00    0.00  5848.00     0.00     8.00     0.15    0.10    0.10    0.00   0.10  14.90
sdd               0.00     0.00 1491.00    0.00  5964.00     0.00     8.00     0.16    0.11    0.11    0.00   0.11  15.80
sde               0.00     0.00 1515.00    0.00  6060.00     0.00     8.00     0.16    0.11    0.11    0.00   0.11  16.20
sdf               0.00     0.00 1541.00    0.00  6164.00     0.00     8.00     0.17    0.11    0.11    0.00   0.11  16.80
sdg               0.00     0.00    0.00    0.00     0.00     0.00     0.00     0.00    0.00    0.00    0.00   0.00   0.00
sdh               0.00     0.00    0.00    0.00     0.00     0.00     0.00     0.00    0.00    0.00    0.00   0.00   0.00
md0               0.00     0.00 8961.00    0.00 35844.00     0.00     8.00     0.00    0.00    0.00    0.00   0.00   0.00

avg-cpu:  %user   %nice %system %iowait  %steal   %idle
           0.00    0.00    1.53    0.77    0.00   97.70

Device:         rrqm/s   wrqm/s     r/s     w/s    rkB/s    wkB/s avgrq-sz avgqu-sz   await r_await w_await  svctm  %util
sda               0.00     0.00 1463.00    0.00  5852.00     0.00     8.00     0.15    0.10    0.10    0.00   0.10  14.80
sdb               0.00     0.00 1551.00    0.00  6204.00     0.00     8.00     0.17    0.11    0.11    0.00   0.11  17.10
sdc               0.00     0.00 1457.00    0.00  5828.00     0.00     8.00     0.14    0.10    0.10    0.00   0.10  14.50
sdd               0.00     0.00 1523.00    0.00  6092.00     0.00     8.00     0.17    0.11    0.11    0.00   0.11  16.60
sde               0.00     0.00 1473.00    0.00  5892.00     0.00     8.00     0.15    0.10    0.10    0.00   0.10  14.90
sdf               0.00     0.00 1524.00    0.00  6096.00     0.00     8.00     0.14    0.09    0.09    0.00   0.09  13.90
sdg               0.00     0.00    0.00    0.00     0.00     0.00     0.00     0.00    0.00    0.00    0.00   0.00   0.00
sdh               0.00     0.00    0.00    0.00     0.00     0.00     0.00     0.00    0.00    0.00    0.00   0.00   0.00
md0               0.00     0.00 8992.00    0.00 35968.00     0.00     8.00     0.00    0.00    0.00    0.00   0.00   0.00

avg-cpu:  %user   %nice %system %iowait  %steal   %idle
           0.00    0.00    1.28    1.02    0.00   97.70

Device:         rrqm/s   wrqm/s     r/s     w/s    rkB/s    wkB/s avgrq-sz avgqu-sz   await r_await w_await  svctm  %util
sda               0.00     0.00 1414.00    0.00  5656.00     0.00     8.00     0.15    0.11    0.11    0.00   0.11  15.20
sdb               0.00     0.00 1542.00    0.00  6168.00     0.00     8.00     0.16    0.11    0.11    0.00   0.11  16.40
sdc               0.00     0.00 1513.00    0.00  6052.00     0.00     8.00     0.16    0.11    0.11    0.00   0.11  16.30
sdd               0.00     0.00 1428.00    0.00  5712.00     0.00     8.00     0.15    0.11    0.11    0.00   0.11  15.00
sde               0.00     0.00 1559.00    0.00  6236.00     0.00     8.00     0.16    0.10    0.10    0.00   0.10  16.00
sdf               0.00     0.00 1516.00    0.00  6064.00     0.00     8.00     0.14    0.09    0.09    0.00   0.09  14.20
sdg               0.00     0.00    0.00    0.00     0.00     0.00     0.00     0.00    0.00    0.00    0.00   0.00   0.00
sdh               0.00     0.00    0.00    0.00     0.00     0.00     0.00     0.00    0.00    0.00    0.00   0.00   0.00
md0               0.00     0.00 8971.00    0.00 35884.00     0.00     8.00     0.00    0.00    0.00    0.00   0.00   0.00

avg-cpu:  %user   %nice %system %iowait  %steal   %idle
           0.25    0.00    1.78    0.76    0.00   97.20

Device:         rrqm/s   wrqm/s     r/s     w/s    rkB/s    wkB/s avgrq-sz avgqu-sz   await r_await w_await  svctm  %util
sda               0.00     0.00 1533.00    0.00  6132.00     0.00     8.00     0.16    0.10    0.10    0.00   0.10  16.00
sdb               0.00     0.00 1465.00    0.00  5860.00     0.00     8.00     0.12    0.08    0.08    0.00   0.08  12.30
sdc               0.00     0.00 1509.00    0.00  6036.00     0.00     8.00     0.14    0.09    0.09    0.00   0.09  14.00
sdd               0.00     0.00 1547.00    0.00  6188.00     0.00     8.00     0.18    0.11    0.11    0.00   0.11  17.60
sde               0.00     0.00 1479.00    0.00  5916.00     0.00     8.00     0.16    0.11    0.11    0.00   0.11  16.10
sdf               0.00     0.00 1459.00    0.00  5836.00     0.00     8.00     0.17    0.12    0.12    0.00   0.12  16.90
sdg               0.00     0.00    0.00    0.00     0.00     0.00     0.00     0.00    0.00    0.00    0.00   0.00   0.00
sdh               0.00     0.00    0.00    0.00     0.00     0.00     0.00     0.00    0.00    0.00    0.00   0.00   0.00
md0               0.00     0.00 8992.00    0.00 35968.00     0.00     8.00     0.00    0.00    0.00    0.00   0.00   0.00

avg-cpu:  %user   %nice %system %iowait  %steal   %idle
           0.00    0.00    1.28    1.03    0.00   97.69

Device:         rrqm/s   wrqm/s     r/s     w/s    rkB/s    wkB/s avgrq-sz avgqu-sz   await r_await w_await  svctm  %util
sda               0.00     0.00 1519.00    0.00  6076.00     0.00     8.00     0.16    0.11    0.11    0.00   0.11  16.30
sdb               0.00     0.00 1461.00    0.00  5844.00     0.00     8.00     0.14    0.10    0.10    0.00   0.10  14.30
sdc               0.00     0.00 1546.00    0.00  6184.00     0.00     8.00     0.15    0.10    0.10    0.00   0.10  15.30
sdd               0.00     0.00 1485.00    0.00  5940.00     0.00     8.00     0.16    0.11    0.11    0.00   0.11  15.70
sde               0.00     0.00 1505.00    0.00  6020.00     0.00     8.00     0.18    0.12    0.12    0.00   0.12  18.00
sdf               0.00     0.00 1471.00    0.00  5884.00     0.00     8.00     0.16    0.11    0.11    0.00   0.11  16.00
sdg               0.00     0.00    0.00    0.00     0.00     0.00     0.00     0.00    0.00    0.00    0.00   0.00   0.00
sdh               0.00     0.00    0.00    0.00     0.00     0.00     0.00     0.00    0.00    0.00    0.00   0.00   0.00
md0               0.00     0.00 8988.00    0.00 35952.00     0.00     8.00     0.00    0.00    0.00    0.00   0.00   0.00

avg-cpu:  %user   %nice %system %iowait  %steal   %idle
           0.00    0.00    1.28    1.02    0.00   97.70

Device:         rrqm/s   wrqm/s     r/s     w/s    rkB/s    wkB/s avgrq-sz avgqu-sz   await r_await w_await  svctm  %util
sda               0.00     0.00 1447.00    0.00  5788.00     0.00     8.00     0.13    0.09    0.09    0.00   0.09  12.80
sdb               0.00     0.00 1526.00    0.00  6104.00     0.00     8.00     0.15    0.10    0.10    0.00   0.10  15.30
sdc               0.00     0.00 1536.00    0.00  6144.00     0.00     8.00     0.18    0.12    0.12    0.00   0.12  17.70
sdd               0.00     0.00 1482.00    0.00  5928.00     0.00     8.00     0.17    0.11    0.11    0.00   0.11  16.70
sde               0.00     0.00 1509.00    0.00  6036.00     0.00     8.00     0.17    0.11    0.11    0.00   0.11  16.60
sdf               0.00     0.00 1506.00    0.00  6024.00     0.00     8.00     0.14    0.09    0.09    0.00   0.09  14.10
sdg               0.00     0.00    0.00    0.00     0.00     0.00     0.00     0.00    0.00    0.00    0.00   0.00   0.00
sdh               0.00     0.00    0.00    0.00     0.00     0.00     0.00     0.00    0.00    0.00    0.00   0.00   0.00
md0               0.00     0.00 9006.00    0.00 36024.00     0.00     8.00     0.00    0.00    0.00    0.00   0.00   0.00

avg-cpu:  %user   %nice %system %iowait  %steal   %idle
           0.26    0.00    1.53    1.02    0.00   97.19

Device:         rrqm/s   wrqm/s     r/s     w/s    rkB/s    wkB/s avgrq-sz avgqu-sz   await r_await w_await  svctm  %util
sda               0.00     0.00 1493.00    0.00  5972.00     0.00     8.00     0.15    0.10    0.10    0.00   0.10  15.10
sdb               0.00     0.00 1461.00    0.00  5844.00     0.00     8.00     0.13    0.09    0.09    0.00   0.09  13.30
sdc               0.00     0.00 1556.00    0.00  6224.00     0.00     8.00     0.17    0.11    0.11    0.00   0.11  16.50
sdd               0.00     0.00 1519.00    0.00  6076.00     0.00     8.00     0.16    0.10    0.10    0.00   0.10  15.80
sde               0.00     0.00 1443.00    0.00  5772.00     0.00     8.00     0.16    0.11    0.11    0.00   0.11  15.70
sdf               0.00     0.00 1519.00    0.00  6076.00     0.00     8.00     0.17    0.11    0.11    0.00   0.11  16.60
sdg               0.00     0.00    0.00    0.00     0.00     0.00     0.00     0.00    0.00    0.00    0.00   0.00   0.00
sdh               0.00     0.00    0.00    0.00     0.00     0.00     0.00     0.00    0.00    0.00    0.00   0.00   0.00
md0               0.00     0.00 8990.00    0.00 35960.00     0.00     8.00     0.00    0.00    0.00    0.00   0.00   0.00

avg-cpu:  %user   %nice %system %iowait  %steal   %idle
           0.00    0.00    1.28    1.02    0.00   97.70

Device:         rrqm/s   wrqm/s     r/s     w/s    rkB/s    wkB/s avgrq-sz avgqu-sz   await r_await w_await  svctm  %util
sda               0.00     0.00 1507.00    0.00  6028.00     0.00     8.00     0.15    0.10    0.10    0.00   0.10  15.00
sdb               0.00     0.00 1489.00    0.00  5956.00     0.00     8.00     0.15    0.10    0.10    0.00   0.10  15.40
sdc               0.00     0.00 1466.00    0.00  5864.00     0.00     8.00     0.16    0.11    0.11    0.00   0.11  15.90
sdd               0.00     0.00 1489.00    0.00  5956.00     0.00     8.00     0.18    0.12    0.12    0.00   0.12  17.60
sde               0.00     0.00 1526.00    0.00  6104.00     0.00     8.00     0.14    0.09    0.09    0.00   0.09  14.00
sdf               0.00     0.00 1514.00    0.00  6056.00     0.00     8.00     0.16    0.11    0.11    0.00   0.11  16.10
sdg               0.00     0.00    0.00    0.00     0.00     0.00     0.00     0.00    0.00    0.00    0.00   0.00   0.00
sdh               0.00     0.00    0.00    0.00     0.00     0.00     0.00     0.00    0.00    0.00    0.00   0.00   0.00
md0               0.00     0.00 8991.00    0.00 35964.00     0.00     8.00     0.00    0.00    0.00    0.00   0.00   0.00

avg-cpu:  %user   %nice %system %iowait  %steal   %idle
           0.26    0.26    1.53    1.02    0.00   96.94

Device:         rrqm/s   wrqm/s     r/s     w/s    rkB/s    wkB/s avgrq-sz avgqu-sz   await r_await w_await  svctm  %util
sda               0.00     0.00 1506.00    0.00  6024.00     0.00     8.00     0.14    0.09    0.09    0.00   0.09  13.60
sdb               0.00     0.00 1508.00    0.00  6032.00     0.00     8.00     0.17    0.11    0.11    0.00   0.11  16.50
sdc               0.00     0.00 1456.00    0.00  5824.00     0.00     8.00     0.16    0.11    0.11    0.00   0.11  16.10
sdd               0.00     0.00 1422.00    0.00  5688.00     0.00     8.00     0.13    0.09    0.09    0.00   0.09  13.20
sde               0.00     0.00 1484.00    0.00  5936.00     0.00     8.00     0.17    0.11    0.11    0.00   0.11  16.70
sdf               0.00     0.00 1477.00    0.00  5908.00     0.00     8.00     0.17    0.11    0.11    0.00   0.11  16.50
sdg               0.00     0.00    2.00    0.00     8.00     0.00     8.00     0.00    0.50    0.50    0.00   0.50   0.10
sdh               0.00     0.00    0.00    0.00     0.00     0.00     0.00     0.00    0.00    0.00    0.00   0.00   0.00
md0               0.00     0.00 8853.00    0.00 35412.00     0.00     8.00     0.00    0.00    0.00    0.00   0.00   0.00

avg-cpu:  %user   %nice %system %iowait  %steal   %idle
           0.00    0.00    2.28   21.32    0.00   76.40

Device:         rrqm/s   wrqm/s     r/s     w/s    rkB/s    wkB/s avgrq-sz avgqu-sz   await r_await w_await  svctm  %util
sda               0.00     0.00 1451.00    0.00  5804.00     0.00     8.00     0.13    0.09    0.09    0.00   0.09  13.30
sdb               0.00     0.00 1439.00    0.00  5756.00     0.00     8.00     0.13    0.09    0.09    0.00   0.09  12.80
sdc               0.00     0.00 1498.00    0.00  5992.00     0.00     8.00     0.17    0.11    0.11    0.00   0.11  17.00
sdd               0.00     0.00 1494.00    0.00  5976.00     0.00     8.00     0.17    0.11    0.11    0.00   0.11  16.50
sde               0.00     0.00 1532.00    0.00  6128.00     0.00     8.00     0.16    0.10    0.10    0.00   0.10  15.60
sdf               0.00     0.00 1503.00    0.00  6012.00     0.00     8.00     0.17    0.12    0.12    0.00   0.12  17.50
sdg               0.00     0.00    0.00    0.00     0.00     0.00     0.00     0.00    0.00    0.00    0.00   0.00   0.00
sdh               0.00     0.00    0.00    0.00     0.00     0.00     0.00     0.00    0.00    0.00    0.00   0.00   0.00
md0               0.00     0.00 8918.00    0.00 35672.00     0.00     8.00     0.00    0.00    0.00    0.00   0.00   0.00

avg-cpu:  %user   %nice %system %iowait  %steal   %idle
           0.25    0.00    2.02   20.20    0.00   77.53

Device:         rrqm/s   wrqm/s     r/s     w/s    rkB/s    wkB/s avgrq-sz avgqu-sz   await r_await w_await  svctm  %util
sda               0.00     0.00 1496.00    0.00  5984.00     0.00     8.00     0.17    0.11    0.11    0.00   0.11  16.90
sdb               0.00     0.00 1519.00    0.00  6076.00     0.00     8.00     0.14    0.09    0.09    0.00   0.09  13.60
sdc               0.00     0.00 1416.00    0.00  5664.00     0.00     8.00     0.15    0.11    0.11    0.00   0.11  15.40
sdd               0.00     0.00 1522.00    0.00  6088.00     0.00     8.00     0.17    0.11    0.11    0.00   0.11  17.20
sde               0.00     0.00 1474.00    0.00  5896.00     0.00     8.00     0.16    0.11    0.11    0.00   0.11  15.80
sdf               0.00     0.00 1483.00    0.00  5932.00     0.00     8.00     0.15    0.10    0.10    0.00   0.10  15.10
sdg               0.00     0.00    0.00    0.00     0.00     0.00     0.00     0.00    0.00    0.00    0.00   0.00   0.00
sdh               0.00     0.00    0.00    0.00     0.00     0.00     0.00     0.00    0.00    0.00    0.00   0.00   0.00
md0               0.00     0.00 8910.00    0.00 35640.00     0.00     8.00     0.00    0.00    0.00    0.00   0.00   0.00

avg-cpu:  %user   %nice %system %iowait  %steal   %idle
           0.00    0.00    2.03   17.77    0.00   80.20

Device:         rrqm/s   wrqm/s     r/s     w/s    rkB/s    wkB/s avgrq-sz avgqu-sz   await r_await w_await  svctm  %util
sda               0.00     0.00 1491.00    0.00  5964.00     0.00     8.00     0.14    0.10    0.10    0.00   0.10  14.20
sdb               0.00     0.00 1462.00    0.00  5848.00     0.00     8.00     0.16    0.11    0.11    0.00   0.11  16.00
sdc               0.00     0.00 1511.00    0.00  6044.00     0.00     8.00     0.15    0.10    0.10    0.00   0.10  14.80
sdd               0.00     0.00 1506.00    0.00  6024.00     0.00     8.00     0.17    0.11    0.11    0.00   0.11  16.60
sde               0.00     0.00 1460.00    0.00  5840.00     0.00     8.00     0.16    0.11    0.11    0.00   0.11  16.00
sdf               0.00     0.00 1442.00    0.00  5768.00     0.00     8.00     0.16    0.11    0.11    0.00   0.11  15.60
sdg               0.00     0.00    0.00    0.00     0.00     0.00     0.00     0.00    0.00    0.00    0.00   0.00   0.00
sdh               0.00     0.00    0.00    0.00     0.00     0.00     0.00     0.00    0.00    0.00    0.00   0.00   0.00
md0               0.00     0.00 8871.00    0.00 35484.00     0.00     8.00     0.00    0.00    0.00    0.00   0.00   0.00

avg-cpu:  %user   %nice %system %iowait  %steal   %idle
           0.00    0.00    2.04   17.81    0.00   80.15

Device:         rrqm/s   wrqm/s     r/s     w/s    rkB/s    wkB/s avgrq-sz avgqu-sz   await r_await w_await  svctm  %util
sda               0.00     0.00 1563.00    0.00  6252.00     0.00     8.00     0.16    0.10    0.10    0.00   0.10  16.20
sdb               0.00     0.00 1457.00    0.00  5828.00     0.00     8.00     0.16    0.11    0.11    0.00   0.11  16.20
sdc               0.00     0.00 1483.00    0.00  5932.00     0.00     8.00     0.17    0.12    0.12    0.00   0.12  17.10
sdd               0.00     0.00 1438.00    0.00  5752.00     0.00     8.00     0.15    0.11    0.11    0.00   0.11  15.50
sde               0.00     0.00 1520.00    0.00  6080.00     0.00     8.00     0.15    0.10    0.10    0.00   0.10  15.00
sdf               0.00     0.00 1503.00    0.00  6012.00     0.00     8.00     0.15    0.10    0.10    0.00   0.10  14.70
sdg               0.00     1.00   15.00    9.00   304.00   140.00    37.00     0.01    0.33    0.33    0.33   0.25   0.60
sdh               0.00     0.00    0.00    0.00     0.00     0.00     0.00     0.00    0.00    0.00    0.00   0.00   0.00
md0               0.00     0.00 8965.00    0.00 35860.00     0.00     8.00     0.00    0.00    0.00    0.00   0.00   0.00

avg-cpu:  %user   %nice %system %iowait  %steal   %idle
           0.25    0.00    1.78    1.02    0.00   96.95

Device:         rrqm/s   wrqm/s     r/s     w/s    rkB/s    wkB/s avgrq-sz avgqu-sz   await r_await w_await  svctm  %util
sda               0.00     0.00 1493.00    0.00  5972.00     0.00     8.00     0.15    0.10    0.10    0.00   0.10  14.60
sdb               0.00     0.00 1513.00    0.00  6052.00     0.00     8.00     0.15    0.10    0.10    0.00   0.10  15.20
sdc               0.00     0.00 1531.00    0.00  6124.00     0.00     8.00     0.14    0.09    0.09    0.00   0.09  14.00
sdd               0.00     0.00 1493.00    0.00  5972.00     0.00     8.00     0.16    0.11    0.11    0.00   0.11  16.20
sde               0.00     0.00 1439.00    0.00  5756.00     0.00     8.00     0.15    0.10    0.10    0.00   0.10  14.80
sdf               0.00     0.00 1528.00    0.00  6112.00     0.00     8.00     0.17    0.11    0.11    0.00   0.11  16.50
sdg               0.00     0.00    4.00   20.00    64.00   152.00    18.00     0.02    0.83    0.25    0.95   0.08   0.20
sdh               0.00     0.00    0.00    0.00     0.00     0.00     0.00     0.00    0.00    0.00    0.00   0.00   0.00
md0               0.00     0.00 8997.00    0.00 35988.00     0.00     8.00     0.00    0.00    0.00    0.00   0.00   0.00

avg-cpu:  %user   %nice %system %iowait  %steal   %idle
           0.00    0.00    1.28    1.03    0.00   97.69

Device:         rrqm/s   wrqm/s     r/s     w/s    rkB/s    wkB/s avgrq-sz avgqu-sz   await r_await w_await  svctm  %util
sda               0.00     0.00 1516.00    0.00  6064.00     0.00     8.00     0.15    0.10    0.10    0.00   0.10  14.70
sdb               0.00     0.00 1491.00    0.00  5964.00     0.00     8.00     0.13    0.09    0.09    0.00   0.09  13.00
sdc               0.00     0.00 1456.00    0.00  5824.00     0.00     8.00     0.17    0.11    0.11    0.00   0.11  16.60
sdd               0.00     0.00 1486.00    0.00  5944.00     0.00     8.00     0.17    0.11    0.11    0.00   0.11  16.90
sde               0.00     0.00 1556.00    0.00  6224.00     0.00     8.00     0.18    0.12    0.12    0.00   0.12  17.90
sdf               0.00     0.00 1501.00    0.00  6004.00     0.00     8.00     0.15    0.10    0.10    0.00   0.10  14.80
sdg               0.00     0.00    0.00    0.00     0.00     0.00     0.00     0.00    0.00    0.00    0.00   0.00   0.00
sdh               0.00     0.00    0.00    0.00     0.00     0.00     0.00     0.00    0.00    0.00    0.00   0.00   0.00
md0               0.00     0.00 9005.00    0.00 36020.00     0.00     8.00     0.00    0.00    0.00    0.00   0.00   0.00

avg-cpu:  %user   %nice %system %iowait  %steal   %idle
           0.00    0.00    1.28    1.02    0.00   97.70

Device:         rrqm/s   wrqm/s     r/s     w/s    rkB/s    wkB/s avgrq-sz avgqu-sz   await r_await w_await  svctm  %util
sda               0.00     0.00 1528.00    0.00  6112.00     0.00     8.00     0.15    0.10    0.10    0.00   0.10  15.00
sdb               0.00     0.00 1419.00    0.00  5676.00     0.00     8.00     0.13    0.09    0.09    0.00   0.09  12.90
sdc               0.00     0.00 1502.00    0.00  6008.00     0.00     8.00     0.16    0.11    0.11    0.00   0.11  15.90
sdd               0.00     0.00 1505.00    0.00  6020.00     0.00     8.00     0.17    0.11    0.11    0.00   0.11  16.60
sde               0.00     0.00 1521.00    0.00  6084.00     0.00     8.00     0.16    0.10    0.10    0.00   0.10  15.80
sdf               0.00     0.00 1549.00    0.00  6196.00     0.00     8.00     0.17    0.11    0.11    0.00   0.11  16.70
sdg               0.00     0.00    0.00    0.00     0.00     0.00     0.00     0.00    0.00    0.00    0.00   0.00   0.00
sdh               0.00     0.00    0.00    0.00     0.00     0.00     0.00     0.00    0.00    0.00    0.00   0.00   0.00
md0               0.00     0.00 9025.00    0.00 36100.00     0.00     8.00     0.00    0.00    0.00    0.00   0.00   0.00

