Linux 4.17.2 (bench) 	08/04/2018 	_x86_64_	(4 CPU)

avg-cpu:  %user   %nice %system %iowait  %steal   %idle
          10.25    0.02    4.32    2.82    0.00   82.59

Device:         rrqm/s   wrqm/s     r/s     w/s    rkB/s    wkB/s avgrq-sz avgqu-sz   await r_await w_await  svctm  %util
sda              57.69     4.13 1758.19   99.79 21433.16  3053.40    26.36     1.05    0.57    0.26    5.92   0.06  11.16
sdb              57.48     4.09 1758.22   99.92 21422.81  3050.16    26.34     1.05    0.56    0.26    5.85   0.06  11.04
sdc              94.87     4.15 1718.74   99.48 21415.15  3052.55    26.91     1.47    0.81    0.44    7.12   0.08  14.53
sdd              88.50     4.12 1724.30   99.55 21400.33  3048.85    26.81     1.48    0.81    0.43    7.33   0.08  14.63
sde              90.44     4.16 1729.29   99.64 21458.69  3052.99    26.80     1.50    0.82    0.44    7.44   0.08  14.65
sdf              87.64     4.13 1731.37   99.59 21440.45  3049.93    26.75     1.54    0.84    0.43    7.90   0.08  14.68
sdg               0.00     3.15   27.15   73.13   326.87   391.58    14.33     0.44    4.38    0.20    5.93   0.08   0.79
sdh               0.00     0.12    0.02    0.23     2.15     4.93    56.82     0.00    1.15    0.65    1.19   0.21   0.01
md0               0.00     0.00 10904.52  467.53 146861.09 20900.03    29.50     0.00    0.00    0.00    0.00   0.00   0.00

avg-cpu:  %user   %nice %system %iowait  %steal   %idle
           0.63    0.01    3.25    2.27    0.00   93.84

Device:         rrqm/s   wrqm/s     r/s     w/s    rkB/s    wkB/s avgrq-sz avgqu-sz   await r_await w_await  svctm  %util
sda               0.00     0.00 2119.15    0.00  8476.60     0.00     8.00     0.14    0.07    0.07    0.00   0.07  14.25
sdb               0.00     0.00 2080.70    0.00  8322.80     0.00     8.00     0.14    0.07    0.07    0.00   0.07  13.82
sdc               0.00     0.00 2090.70    0.00  8362.80     0.00     8.00     0.15    0.07    0.07    0.00   0.07  14.61
sdd               0.00     0.00 2102.40    0.00  8409.60     0.00     8.00     0.15    0.07    0.07    0.00   0.07  14.82
sde               0.00     0.00 2084.90    0.00  8339.60     0.00     8.00     0.15    0.07    0.07    0.00   0.07  14.84
sdf               0.00     0.00 2106.70    0.00  8426.80     0.00     8.00     0.15    0.07    0.07    0.00   0.07  14.59
sdg               0.00     7.15    2.45  123.55    25.60   601.40     9.95     0.74    5.88    0.27    5.99   0.05   0.61
sdh               0.00     0.00    0.00    0.00     0.00     0.00     0.00     0.00    0.00    0.00    0.00   0.00   0.00
md0               0.00     0.00 12584.65    0.00 50338.60     0.00     8.00     0.00    0.00    0.00    0.00   0.00   0.00

